Motor_Data/MOTOR_2_ON/MOTOR2_ON_Probe1/time domain (far ch1 close ch2)/NewFile14.csv

X,CH1,CH2,Start,Increment,
Sequence,Volt,Volt,-3.000000e-02,5.000000e-05
0,-4.80e-02,1.40e-02,
1,6.80e-02,-1.40e-02,
2,6.80e-02,1.80e-02,
3,-5.20e-02,-8.00e-03,
4,-5.20e-02,1.00e-02,
5,7.20e-02,-2.00e-02,
6,-5.48e-01,-1.56e-01,
7,4.72e-01,1.40e-01,
8,-5.60e-02,1.40e-02,
9,5.60e-02,-1.20e-02,
10,3.60e-02,2.60e-02,
11,-5.20e-02,-6.00e-03,
12,-8.00e-02,-8.00e-03,
13,5.20e-02,1.80e-02,
14,-8.00e-02,-6.00e-03,
15,8.00e-02,1.80e-02,
16,-6.80e-02,1.20e-02,
17,6.00e-02,-1.00e-02,
18,-6.40e-02,-1.40e-02,
19,8.00e-02,1.20e-02,
20,-7.20e-02,8.00e-03,
21,8.00e-02,-6.00e-03,
22,-6.40e-02,-4.00e-03,
23,5.60e-02,1.00e-02,
24,-6.00e-02,8.00e-03,
25,6.40e-02,-1.20e-02,
26,6.40e-02,-8.00e-03,
27,-6.40e-02,1.00e-02,
28,-6.40e-02,1.40e-02,
29,7.20e-02,-6.00e-03,
30,-6.40e-02,-4.00e-03,
31,8.80e-02,1.40e-02,
32,8.00e-02,-4.00e-03,
33,-7.20e-02,1.60e-02,
34,4.08e-01,-2.54e-01,
35,-5.48e-01,1.40e-02,
36,-8.80e-02,2.40e-02,
37,7.20e-02,-1.20e-02,
38,8.40e-02,8.00e-03,
39,-6.00e-02,-8.00e-03,
40,-6.40e-02,-1.40e-02,
41,8.40e-02,1.40e-02,
42,7.20e-02,-1.20e-02,
43,-6.40e-02,1.60e-02,
44,7.20e-02,1.40e-02,
45,-6.00e-02,-8.00e-03,
46,6.40e-02,-6.00e-03,
47,-7.20e-02,1.00e-02,
48,7.60e-02,-4.00e-03,
49,-7.60e-02,8.00e-03,
50,6.80e-02,-4.00e-03,
51,-6.00e-02,1.00e-02,
52,-6.00e-02,-6.00e-03,
53,6.80e-02,1.40e-02,
54,6.00e-02,1.40e-02,
55,-7.20e-02,-1.40e-02,
56,-4.80e-02,1.00e-02,
57,6.00e-02,-2.20e-02,
58,5.20e-02,-1.20e-02,
59,-7.60e-02,1.00e-02,
60,-5.60e-02,-4.00e-03,
61,6.00e-02,2.80e-02,
62,4.72e-01,-2.54e-01,
63,-5.48e-01,2.56e-01,
64,7.20e-02,-1.00e-02,
65,-6.40e-02,1.80e-02,
66,6.80e-02,-1.00e-02,
67,-6.00e-02,1.80e-02,
68,5.60e-02,8.00e-03,
69,-6.40e-02,-6.00e-03,
70,8.40e-02,-1.00e-02,
71,-7.20e-02,1.00e-02,
72,-5.60e-02,8.00e-03,
73,5.20e-02,-1.00e-02,
74,6.80e-02,8.00e-03,
75,-5.60e-02,-6.00e-03,
76,-7.60e-02,8.00e-03,
77,6.80e-02,-1.40e-02,
78,5.20e-02,8.00e-03,
79,-5.60e-02,-8.00e-03,
80,-5.60e-02,-6.00e-03,
81,6.00e-02,1.00e-02,
82,6.80e-02,-4.00e-03,
83,-4.00e-02,1.80e-02,
84,5.60e-02,-4.00e-03,
85,-5.60e-02,1.00e-02,
86,7.20e-02,-2.40e-02,
87,-6.40e-02,2.60e-02,
88,-6.00e-02,-1.20e-02,
89,6.40e-02,2.20e-02,
90,-4.76e-01,2.56e-01,
91,4.72e-01,-1.32e-01,
92,6.80e-02,1.40e-02,
93,-5.20e-02,-6.00e-03,
94,-4.00e-02,-1.20e-02,
95,5.60e-02,2.00e-02,
96,5.20e-02,-8.00e-03,
97,-5.60e-02,1.40e-02,
98,6.40e-02,8.00e-03,
99,-7.20e-02,-6.00e-03,
100,-6.40e-02,1.00e-02,
101,6.00e-02,-6.00e-03,
102,-7.60e-02,-4.00e-03,
103,6.40e-02,8.00e-03,
104,-5.60e-02,-6.00e-03,
105,6.00e-02,1.00e-02,
106,-6.40e-02,1.40e-02,
107,6.40e-02,-1.20e-02,
108,-6.00e-02,1.60e-02,
109,5.60e-02,-1.00e-02,
110,-6.00e-02,8.00e-03,
111,6.40e-02,-8.00e-03,
112,-6.80e-02,-4.00e-03,
113,6.80e-02,2.40e-02,
114,5.20e-02,-6.00e-03,
115,-4.80e-02,8.00e-03,
116,-5.60e-02,-4.00e-03,
117,6.00e-02,1.60e-02,
118,-6.00e-02,1.80e-02,
119,3.68e-01,-1.74e-01,
120,7.20e-02,-8.00e-03,
121,-4.80e-02,1.60e-02,
122,-7.60e-02,1.00e-02,
123,7.20e-02,-1.60e-02,
124,-7.60e-02,-1.40e-02,
125,6.80e-02,1.00e-02,
126,6.00e-02,1.00e-02,
127,-5.60e-02,-6.00e-03,
128,5.20e-02,8.00e-03,
129,-6.40e-02,-1.00e-02,
130,-5.20e-02,1.20e-02,
131,6.40e-02,-1.20e-02,
132,-8.00e-02,-4.00e-03,
133,6.80e-02,1.00e-02,
134,8.00e-02,-4.00e-03,
135,-3.60e-02,1.00e-02,
136,-6.00e-02,-4.00e-03,
137,7.20e-02,1.20e-02,
138,-5.60e-02,2.20e-02,
139,7.60e-02,-2.40e-02,
140,6.80e-02,2.20e-02,
141,-7.60e-02,-1.00e-02,
142,-7.60e-02,-1.60e-02,
143,8.80e-02,2.60e-02,
144,-6.00e-02,-4.00e-03,
145,8.80e-02,1.20e-02,
146,6.80e-02,-1.20e-02,
147,-7.60e-02,1.80e-02,
148,4.72e-01,-1.80e-01,
149,-5.08e-01,2.40e-02,
150,-8.80e-02,-6.00e-03,
151,8.00e-02,1.40e-02,
152,-6.00e-02,-6.00e-03,
153,7.60e-02,8.00e-03,
154,6.80e-02,8.00e-03,
155,-6.80e-02,-4.00e-03,
156,-7.20e-02,-4.00e-03,
157,8.00e-02,8.00e-03,
158,-6.40e-02,1.80e-02,
159,7.20e-02,-1.60e-02,
160,6.40e-02,1.80e-02,
161,-7.60e-02,-8.00e-03,
162,6.80e-02,1.00e-02,
163,-7.20e-02,-2.20e-02,
164,8.00e-02,-4.00e-03,
165,-6.40e-02,2.20e-02,
166,-7.20e-02,-4.00e-03,
167,8.80e-02,2.20e-02,
168,6.00e-02,-1.40e-02,
169,-6.80e-02,2.40e-02,
170,7.60e-02,1.40e-02,
171,-8.00e-02,-1.60e-02,
172,-7.20e-02,-8.00e-03,
173,6.80e-02,1.80e-02,
174,7.60e-02,1.60e-02,
175,-6.80e-02,-6.00e-03,
176,4.72e-01,2.02e-01,
177,-5.48e-01,-1.68e-01,
178,6.80e-02,-8.00e-03,
179,-4.80e-02,8.00e-03,
180,7.60e-02,8.00e-03,
181,-6.80e-02,-4.00e-03,
182,-6.80e-02,8.00e-03,
183,7.20e-02,-1.40e-02,
184,-7.20e-02,-1.00e-02,
185,7.20e-02,8.00e-03,
186,-6.00e-02,-4.00e-03,
187,7.20e-02,1.00e-02,
188,-6.80e-02,-4.00e-03,
189,6.00e-02,1.80e-02,
190,-6.40e-02,-6.00e-03,
191,8.80e-02,1.40e-02,
192,6.00e-02,-4.00e-03,
193,-6.80e-02,2.40e-02,
194,8.00e-02,-1.80e-02,
195,-6.00e-02,2.40e-02,
196,-6.80e-02,-4.00e-03,
197,6.80e-02,1.00e-02,
198,-6.40e-02,-8.00e-03,
199,6.00e-02,1.20e-02,
200,-7.20e-02,1.60e-02,
201,8.00e-02,-1.40e-02,
202,6.80e-02,-8.00e-03,
203,-6.80e-02,1.20e-02,
204,4.08e-01,9.60e-02,
205,-5.48e-01,-2.54e-01,
206,-4.80e-02,-4.00e-03,
207,7.60e-02,1.00e-02,
208,7.20e-02,1.00e-02,
209,-6.40e-02,-6.00e-03,
210,-7.20e-02,1.00e-02,
211,8.00e-02,-1.20e-02,
212,6.40e-02,1.40e-02,
213,-6.80e-02,-1.20e-02,
214,7.20e-02,1.40e-02,
215,-6.80e-02,-1.60e-02,
216,7.20e-02,1.00e-02,
217,-6.00e-02,-2.20e-02,
218,4.40e-02,-4.00e-03,
219,-5.60e-02,2.20e-02,
220,-6.00e-02,2.40e-02,
221,6.00e-02,-1.20e-02,
222,5.60e-02,1.80e-02,
223,-6.80e-02,-6.00e-03,
224,-4.40e-02,1.60e-02,
225,5.60e-02,-8.00e-03,
226,-6.80e-02,-4.00e-03,
227,6.80e-02,1.80e-02,
228,-6.40e-02,-8.00e-03,
229,8.00e-02,8.00e-03,
230,4.80e-02,-1.20e-02,
231,-6.00e-02,1.00e-02,
232,-5.20e-02,-2.16e-01,
233,4.72e-01,1.00e-02,
234,-6.80e-02,1.00e-02,
235,6.00e-02,-1.40e-02,
236,5.60e-02,8.00e-03,
237,-6.00e-02,-1.40e-02,
238,6.80e-02,-4.00e-03,
239,-6.00e-02,1.00e-02,
240,-5.60e-02,-4.00e-03,
241,7.20e-02,1.60e-02,
242,-6.40e-02,-4.00e-03,
243,6.00e-02,1.60e-02,
244,5.20e-02,2.20e-02,
245,-4.80e-02,-2.00e-02,
246,-6.00e-02,-1.00e-02,
247,6.40e-02,2.60e-02,
248,6.40e-02,-1.40e-02,
249,-4.00e-02,2.00e-02,
250,6.40e-02,1.80e-02,
251,-6.40e-02,-1.40e-02,
252,5.20e-02,1.60e-02,
253,-4.80e-02,-1.20e-02,
254,5.20e-02,-8.00e-03,
255,-2.80e-02,1.40e-02,
256,-6.00e-02,-6.00e-03,
257,6.00e-02,1.40e-02,
258,-6.00e-02,8.00e-03,
259,5.20e-02,-6.00e-03,
260,4.72e-01,1.58e-01,
261,-5.04e-01,-2.22e-01,
262,6.40e-02,-4.00e-03,
263,-6.00e-02,8.00e-03,
264,6.80e-02,1.60e-02,
265,-6.00e-02,-1.20e-02,
266,6.40e-02,1.40e-02,
267,-6.00e-02,-8.00e-03,
268,-6.40e-02,1.20e-02,
269,7.20e-02,-1.60e-02,
270,5.60e-02,8.00e-03,
271,-6.40e-02,-6.00e-03,
272,-5.20e-02,1.80e-02,
273,6.00e-02,-6.00e-03,
274,6.40e-02,-6.00e-03,
275,-6.40e-02,1.20e-02,
276,-6.80e-02,-1.80e-02,
277,5.60e-02,1.80e-02,
278,-6.40e-02,-6.00e-03,
279,7.20e-02,1.20e-02,
280,-6.00e-02,1.20e-02,
281,5.60e-02,-1.00e-02,
282,-7.20e-02,8.00e-03,
283,5.60e-02,-1.20e-02,
284,6.80e-02,-6.00e-03,
285,-6.40e-02,8.00e-03,
286,-6.00e-02,8.00e-03,
287,5.20e-02,-8.00e-03,
288,-4.44e-01,2.56e-01,
289,3.80e-01,-2.54e-01,
290,6.00e-02,-8.00e-03,
291,-6.40e-02,1.00e-02,
292,-7.60e-02,-4.00e-03,
293,6.00e-02,1.20e-02,
294,-4.80e-02,-4.00e-03,
295,4.00e-02,1.60e-02,
296,-7.20e-02,-4.00e-03,
297,6.00e-02,1.20e-02,
298,6.00e-02,-2.20e-02,
299,-8.00e-02,1.20e-02,
300,-6.00e-02,2.20e-02,
301,6.00e-02,-1.80e-02,
302,5.60e-02,1.80e-02,
303,-6.00e-02,-1.20e-02,
304,6.00e-02,-1.00e-02,
305,-6.40e-02,1.80e-02,
306,-6.40e-02,-1.00e-02,
307,6.00e-02,1.60e-02,
308,-6.00e-02,-8.00e-03,
309,6.80e-02,8.00e-03,
310,-5.60e-02,-4.00e-03,
311,7.60e-02,8.00e-03,
312,-5.60e-02,-6.00e-03,
313,6.40e-02,1.00e-02,
314,-6.40e-02,-4.00e-03,
315,5.60e-02,8.00e-03,
316,4.72e-01,5.00e-02,
317,-5.48e-01,-1.00e-02,
318,5.60e-02,8.00e-03,
319,-5.60e-02,-1.20e-02,
320,-6.80e-02,1.00e-02,
321,6.80e-02,-2.00e-02,
322,-5.60e-02,1.00e-02,
323,8.00e-02,-1.60e-02,
324,-6.80e-02,-4.00e-03,
325,6.00e-02,2.40e-02,
326,5.60e-02,-8.00e-03,
327,-6.80e-02,2.80e-02,
328,-5.20e-02,1.60e-02,
329,7.20e-02,-1.00e-02,
330,-6.40e-02,-1.60e-02,
331,6.80e-02,1.80e-02,
332,5.20e-02,-4.00e-03,
333,-6.80e-02,1.60e-02,
334,-6.40e-02,1.00e-02,
335,5.60e-02,-1.40e-02,
336,-5.60e-02,-8.00e-03,
337,5.60e-02,8.00e-03,
338,-4.40e-02,8.00e-03,
339,6.80e-02,-6.00e-03,
340,6.00e-02,1.00e-02,
341,-7.20e-02,-1.00e-02,
342,5.20e-02,1.00e-02,
343,-5.60e-02,-1.00e-02,
344,4.64e-01,2.40e-02,
345,-5.48e-01,-1.94e-01,
346,-6.00e-02,-2.00e-03,
347,5.60e-02,8.00e-03,
348,-6.80e-02,-4.00e-03,
349,8.40e-02,1.40e-02,
350,-6.40e-02,1.80e-02,
351,8.00e-02,-4.00e-03,
352,8.80e-02,1.40e-02,
353,-6.80e-02,-1.80e-02,
354,5.60e-02,-1.20e-02,
355,-6.80e-02,1.40e-02,
356,8.40e-02,-4.00e-03,
357,-6.40e-02,1.20e-02,
358,-6.80e-02,-1.40e-02,
359,7.60e-02,1.60e-02,
360,-6.80e-02,-8.00e-03,
361,5.60e-02,1.60e-02,
362,7.60e-02,-1.00e-02,
363,-6.40e-02,1.20e-02,
364,9.20e-02,8.00e-03,
365,-6.80e-02,-4.00e-03,
366,-7.20e-02,1.00e-02,
367,7.20e-02,-4.00e-03,
368,8.40e-02,1.00e-02,
369,-6.40e-02,-6.00e-03,
370,-6.00e-02,-1.00e-02,
371,7.60e-02,1.60e-02,
372,4.72e-01,-1.44e-01,
373,-5.48e-01,5.40e-02,
374,-1.04e-01,1.00e-02,
375,6.40e-02,-2.40e-02,
376,7.60e-02,-4.00e-03,
377,-6.40e-02,2.40e-02,
378,-6.00e-02,1.40e-02,
379,6.40e-02,-1.20e-02,
380,-6.80e-02,2.80e-02,
381,8.40e-02,-4.00e-03,
382,7.20e-02,-1.40e-02,
383,-6.80e-02,2.00e-02,
384,-6.40e-02,-4.00e-03,
385,7.60e-02,1.60e-02,
386,-6.80e-02,1.00e-02,
387,7.20e-02,-1.40e-02,
388,-7.60e-02,8.00e-03,
389,6.80e-02,-8.00e-03,
390,6.00e-02,-6.00e-03,
391,-7.60e-02,1.00e-02,
392,5.20e-02,1.00e-02,
393,-6.80e-02,-1.20e-02,
394,6.00e-02,8.00e-03,
395,-6.00e-02,-1.00e-02,
396,5.60e-02,8.00e-03,
397,-5.20e-02,-6.00e-03,
398,5.20e-02,-6.00e-03,
399,-5.60e-02,1.20e-02,
400,-4.40e-01,-2.36e-01,
401,4.44e-01,1.58e-01,
402,6.40e-02,3.00e-02,
403,-7.60e-02,-4.00e-02,
404,7.20e-02,2.20e-02,
405,-6.40e-02,-1.40e-02,
406,-8.00e-02,-1.40e-02,
407,7.20e-02,2.60e-02,
408,6.00e-02,-1.40e-02,
409,-7.60e-02,1.40e-02,
410,-5.20e-02,-1.60e-02,
411,6.00e-02,1.60e-02,
412,6.80e-02,1.60e-02,
413,-7.60e-02,-1.00e-02,
414,-7.20e-02,1.20e-02,
415,6.40e-02,-8.00e-03,
416,4.00e-02,1.00e-02,
417,-4.80e-02,-4.00e-03,
418,5.60e-02,8.00e-03,
419,-5.20e-02,-4.00e-03,
420,-6.00e-02,-4.00e-03,
421,6.40e-02,8.00e-03,
422,-6.00e-02,1.00e-02,
423,6.00e-02,-1.20e-02,
424,6.80e-02,-1.20e-02,
425,-6.00e-02,1.60e-02,
426,-6.40e-02,-4.00e-03,
427,5.60e-02,8.00e-03,
428,7.20e-02,-4.00e-03,
429,-7.60e-02,2.00e-02,
430,-5.48e-01,1.14e-01,
431,4.72e-01,-7.40e-02,
432,5.60e-02,-6.00e-03,
433,-6.80e-02,1.20e-02,
434,-5.60e-02,1.40e-02,
435,6.40e-02,-1.60e-02,
436,5.20e-02,-1.20e-02,
437,-5.60e-02,1.20e-02,
438,6.40e-02,1.00e-02,
439,-5.60e-02,-6.00e-03,
440,-6.80e-02,-1.20e-02,
441,6.80e-02,8.00e-03,
442,7.60e-02,-8.00e-03,
443,-5.60e-02,1.00e-02,
444,-5.60e-02,-8.00e-03,
445,6.00e-02,8.00e-03,
446,-6.40e-02,8.00e-03,
447,6.80e-02,-1.00e-02,
448,-6.40e-02,-8.00e-03,
449,6.40e-02,1.00e-02,
450,5.60e-02,-6.00e-03,
451,-5.20e-02,8.00e-03,
452,5.20e-02,-4.00e-03,
453,-7.20e-02,1.60e-02,
454,5.60e-02,1.20e-02,
455,-4.40e-02,-1.00e-02,
456,8.00e-02,2.40e-02,
457,-4.00e-02,-1.80e-02,
458,4.28e-01,1.72e-01,
459,-5.20e-02,-2.54e-01,
460,-7.60e-02,-1.20e-02,
461,7.20e-02,1.40e-02,
462,6.00e-02,-6.00e-03,
463,-6.40e-02,1.40e-02,
464,4.80e-02,-1.20e-02,
465,-6.40e-02,1.00e-02,
466,-7.20e-02,-4.00e-03,
467,7.60e-02,8.00e-03,
468,8.00e-02,-8.00e-03,
469,-7.60e-02,8.00e-03,
470,-8.40e-02,-4.00e-03,
471,7.60e-02,8.00e-03,
472,-8.00e-02,-4.00e-03,
473,7.60e-02,8.00e-03,
474,7.20e-02,8.00e-03,
475,-8.40e-02,-1.00e-02,
476,-8.00e-02,-1.00e-02,
477,6.40e-02,1.60e-02,
478,-7.60e-02,1.00e-02,
479,6.80e-02,-1.20e-02,
480,7.20e-02,8.00e-03,
481,-8.00e-02,-2.20e-02,
482,8.40e-02,2.20e-02,
483,-8.40e-02,-6.00e-03,
484,-8.00e-02,2.20e-02,
485,6.40e-02,-1.40e-02,
486,4.72e-01,-1.36e-01,
487,-2.40e-01,2.12e-01,
488,5.60e-02,-1.60e-02,
489,-8.00e-02,1.40e-02,
490,6.80e-02,-6.00e-03,
491,-7.20e-02,1.60e-02,
492,6.80e-02,-6.00e-03,
493,-8.40e-02,1.00e-02,
494,-7.20e-02,-1.20e-02,
495,8.00e-02,8.00e-03,
496,8.00e-02,8.00e-03,
497,-4.00e-02,-8.00e-03,
498,-4.80e-02,-6.00e-03,
499,7.60e-02,1.00e-02,
500,6.40e-02,1.00e-02,
501,-8.40e-02,-1.00e-02,
502,7.20e-02,-1.00e-02,
503,-9.60e-02,8.00e-03,
504,-7.60e-02,-6.00e-03,
505,7.20e-02,1.40e-02,
506,-8.80e-02,-4.00e-03,
507,6.80e-02,1.40e-02,
508,-6.40e-02,-6.00e-03,
509,6.00e-02,2.60e-02,
510,-6.00e-02,-4.00e-03,
511,7.20e-02,8.00e-03,
512,8.40e-02,-1.60e-02,
513,-7.20e-02,2.00e-02,
514,4.72e-01,-5.40e-02,
515,-5.48e-01,2.56e-01,
516,8.00e-02,-1.40e-02,
517,-6.40e-02,1.40e-02,
518,-6.80e-02,-1.00e-02,
519,7.60e-02,1.80e-02,
520,-6.80e-02,-6.00e-03,
521,4.80e-02,1.40e-02,
522,-6.40e-02,-4.00e-03,
523,6.80e-02,1.00e-02,
524,-7.60e-02,-4.00e-03,
525,6.40e-02,8.00e-03,
526,7.20e-02,-4.00e-03,
527,-6.80e-02,1.00e-02,
528,6.80e-02,1.80e-02,
529,-7.60e-02,-1.40e-02,
530,-6.00e-02,1.60e-02,
531,8.80e-02,-1.00e-02,
532,8.40e-02,1.20e-02,
533,-6.80e-02,-2.00e-02,
534,-6.80e-02,-4.00e-03,
535,6.40e-02,2.20e-02,
536,-7.20e-02,2.20e-02,
537,6.00e-02,-8.00e-03,
538,-6.00e-02,2.60e-02,
539,7.60e-02,-1.20e-02,
540,-6.80e-02,-1.00e-02,
541,8.40e-02,1.80e-02,
542,4.72e-01,-1.26e-01,
543,-3.96e-01,2.56e-01,
544,-6.80e-02,-6.00e-03,
545,7.60e-02,1.20e-02,
546,8.00e-02,-1.40e-02,
547,-7.20e-02,1.00e-02,
548,-6.80e-02,-8.00e-03,
549,6.40e-02,1.00e-02,
550,6.40e-02,-4.00e-03,
551,-5.60e-02,8.00e-03,
552,6.40e-02,1.00e-02,
553,-5.20e-02,-8.00e-03,
554,-5.60e-02,8.00e-03,
555,4.80e-02,-1.00e-02,
556,6.80e-02,-4.00e-03,
557,-6.00e-02,1.00e-02,
558,-6.40e-02,-6.00e-03,
559,6.00e-02,1.40e-02,
560,6.80e-02,1.20e-02,
561,-7.60e-02,-1.40e-02,
562,6.40e-02,3.00e-02,
563,-7.20e-02,-2.00e-02,
564,-6.80e-02,2.40e-02,
565,6.40e-02,-1.60e-02,
566,-5.60e-02,1.80e-02,
567,5.60e-02,-1.20e-02,
568,5.20e-02,-8.00e-03,
569,-7.20e-02,1.40e-02,
570,3.32e-01,1.94e-01,
571,-3.92e-01,-1.72e-01,
572,-7.20e-02,1.40e-02,
573,6.80e-02,-1.00e-02,
574,-4.40e-02,-4.00e-03,
575,6.40e-02,1.00e-02,
576,-4.00e-02,-4.00e-03,
577,6.40e-02,8.00e-03,
578,-5.20e-02,-4.00e-03,
579,7.20e-02,8.00e-03,
580,-6.80e-02,1.00e-02,
581,5.60e-02,-1.00e-02,
582,-6.40e-02,1.80e-02,
583,7.20e-02,-1.00e-02,
584,-7.20e-02,8.00e-03,
585,6.00e-02,-6.00e-03,
586,-6.00e-02,-4.00e-03,
587,6.80e-02,8.00e-03,
588,-6.40e-02,-6.00e-03,
589,6.40e-02,1.40e-02,
590,5.20e-02,8.00e-03,
591,-7.20e-02,-1.20e-02,
592,-5.60e-02,-8.00e-03,
593,7.60e-02,8.00e-03,
594,6.40e-02,8.00e-03,
595,-6.00e-02,-2.00e-02,
596,5.60e-02,-8.00e-03,
597,-4.40e-02,1.40e-02,
598,-6.00e-02,-1.00e-02,
599,4.72e-01,1.08e-01,
600,4.72e-01,2.40e-01,
601,-5.08e-01,-1.80e-01,
602,-6.00e-02,8.00e-03,
603,5.20e-02,-1.20e-02,
604,-4.40e-02,1.00e-02,
605,6.00e-02,-1.00e-02,
606,-7.60e-02,1.00e-02,
607,6.80e-02,-8.00e-03,
608,6.00e-02,-4.00e-03,
609,-6.40e-02,1.00e-02,
610,-5.20e-02,-4.00e-03,
611,4.80e-02,1.00e-02,
612,6.80e-02,1.60e-02,
613,-7.20e-02,-6.00e-03,
614,5.20e-02,2.20e-02,
615,-5.20e-02,-2.20e-02,
616,5.20e-02,-1.20e-02,
617,-3.60e-02,2.40e-02,
618,6.40e-02,-1.60e-02,
619,-4.80e-02,1.80e-02,
620,-4.40e-02,1.40e-02,
621,4.40e-02,-1.20e-02,
622,6.00e-02,1.80e-02,
623,-6.40e-02,-1.20e-02,
624,5.20e-02,-1.00e-02,
625,-6.00e-02,1.00e-02,
626,4.72e-01,-2.54e-01,
627,-5.48e-01,1.08e-01,
628,-4.80e-02,-4.00e-03,
629,7.20e-02,8.00e-03,
630,-5.20e-02,-4.00e-03,
631,5.60e-02,8.00e-03,
632,5.60e-02,1.00e-02,
633,-6.40e-02,-6.00e-03,
634,-7.20e-02,1.60e-02,
635,4.80e-02,-1.20e-02,
636,7.20e-02,-8.00e-03,
637,-8.00e-02,1.00e-02,
638,6.00e-02,1.00e-02,
639,-6.80e-02,-1.40e-02,
640,5.60e-02,-6.00e-03,
641,-6.80e-02,2.60e-02,
642,-6.40e-02,1.20e-02,
643,6.00e-02,-1.00e-02,
644,-6.40e-02,2.60e-02,
645,6.00e-02,-1.00e-02,
646,6.00e-02,-1.80e-02,
647,-5.60e-02,1.80e-02,
648,-6.00e-02,-6.00e-03,
649,5.20e-02,1.80e-02,
650,-6.00e-02,1.20e-02,
651,6.00e-02,-1.40e-02,
652,6.80e-02,-1.40e-02,
653,-5.60e-02,8.00e-03,
654,-6.00e-02,8.00e-03,
655,6.00e-02,-1.00e-02,
656,4.72e-01,-2.54e-01,
657,-3.68e-01,2.56e-01,
658,4.80e-02,1.00e-02,
659,-5.60e-02,-1.20e-02,
660,6.00e-02,8.00e-03,
661,-6.00e-02,-8.00e-03,
662,8.40e-02,-4.00e-03,
663,-6.00e-02,1.20e-02,
664,6.00e-02,-4.00e-03,
665,-6.00e-02,1.40e-02,
666,-6.80e-02,-4.00e-03,
667,6.40e-02,1.00e-02,
668,6.40e-02,-4.00e-03,
669,-6.40e-02,2.40e-02,
670,-6.80e-02,-1.60e-02,
671,6.40e-02,2.40e-02,
672,5.20e-02,1.00e-02,
673,-6.40e-02,-6.00e-03,
674,5.60e-02,-4.00e-03,
675,-5.60e-02,1.40e-02,
676,-6.00e-02,6.00e-03,
677,6.00e-02,-1.20e-02,
678,6.80e-02,1.00e-02,
679,-5.20e-02,-6.00e-03,
680,-6.40e-02,8.00e-03,
681,7.20e-02,-6.00e-03,
682,-6.40e-02,-4.00e-03,
683,6.40e-02,8.00e-03,
684,4.72e-01,2.56e-01,
685,-5.48e-01,-1.64e-01,
686,-5.60e-02,1.20e-02,
687,8.40e-02,-1.20e-02,
688,-4.80e-02,1.40e-02,
689,7.60e-02,-1.00e-02,
690,-6.80e-02,1.20e-02,
691,7.60e-02,-1.80e-02,
692,-7.20e-02,-1.40e-02,
693,6.80e-02,1.40e-02,
694,-6.40e-02,-6.00e-03,
695,6.80e-02,2.60e-02,
696,-6.40e-02,-1.20e-02,
697,7.20e-02,2.60e-02,
698,-6.80e-02,-4.00e-03,
699,8.40e-02,1.80e-02,
700,-6.80e-02,-1.60e-02,
701,8.00e-02,1.80e-02,
702,6.80e-02,1.60e-02,
703,-6.40e-02,-6.00e-03,
704,-6.80e-02,8.00e-03,
705,8.80e-02,-6.00e-03,
706,-7.20e-02,-4.00e-03,
707,6.00e-02,8.00e-03,
708,-6.00e-02,-4.00e-03,
709,8.00e-02,8.00e-03,
710,6.80e-02,8.00e-03,
711,-6.80e-02,-1.20e-02,
712,-4.00e-01,2.12e-01,
713,4.20e-01,-1.40e-02,
714,6.00e-02,-4.00e-03,
715,-7.20e-02,1.00e-02,
716,1.00e-01,-4.00e-03,
717,-7.60e-02,8.00e-03,
718,-6.80e-02,-4.00e-03,
719,6.40e-02,1.20e-02,
720,6.00e-02,-1.60e-02,
721,-4.80e-02,2.80e-02,
722,7.20e-02,-1.40e-02,
723,-6.80e-02,2.20e-02,
724,5.20e-02,-1.20e-02,
725,-4.80e-02,1.00e-02,
726,7.20e-02,1.80e-02,
727,-5.60e-02,-6.00e-03,
728,-6.40e-02,1.80e-02,
729,5.60e-02,-1.40e-02,
730,-6.40e-02,-1.00e-02,
731,6.00e-02,1.20e-02,
732,-7.20e-02,-1.20e-02,
733,6.80e-02,8.00e-03,
734,4.80e-02,-8.00e-03,
735,-5.60e-02,8.00e-03,
736,-7.60e-02,8.00e-03,
737,6.40e-02,-6.00e-03,
738,-7.20e-02,-4.00e-03,
739,6.40e-02,8.00e-03,
740,-5.48e-01,1.50e-01,
741,3.40e-01,-1.62e-01,
742,-6.40e-02,1.40e-02,
743,6.40e-02,-1.20e-02,
744,-7.60e-02,1.40e-02,
745,7.20e-02,-2.00e-02,
746,5.60e-02,-4.00e-03,
747,-6.40e-02,8.00e-03,
748,-5.60e-02,-6.00e-03,
749,5.60e-02,8.00e-03,
750,-7.20e-02,8.00e-03,
751,6.40e-02,-8.00e-03,
752,-4.40e-02,-1.60e-02,
753,6.40e-02,1.60e-02,
754,5.60e-02,-8.00e-03,
755,-6.80e-02,8.00e-03,
756,5.20e-02,1.00e-02,
757,-6.40e-02,-1.60e-02,
758,8.00e-02,8.00e-03,
759,-6.80e-02,-1.40e-02,
760,-6.00e-02,8.00e-03,
761,6.00e-02,-1.20e-02,
762,6.80e-02,8.00e-03,
763,-7.60e-02,-8.00e-03,
764,-6.40e-02,8.00e-03,
765,5.60e-02,-1.40e-02,
766,-7.20e-02,8.00e-03,
767,5.60e-02,-1.00e-02,
768,-5.48e-01,-2.54e-01,
769,4.40e-01,6.40e-02,
770,-6.80e-02,-4.00e-03,
771,6.80e-02,1.20e-02,
772,6.00e-02,2.00e-02,
773,-6.40e-02,-2.40e-02,
774,-4.80e-02,2.20e-02,
775,5.20e-02,-1.20e-02,
776,6.00e-02,-1.20e-02,
777,-3.60e-02,2.60e-02,
778,6.40e-02,1.20e-02,
779,-3.60e-02,-1.40e-02,
780,-5.60e-02,-1.00e-02,
781,6.40e-02,1.60e-02,
782,7.20e-02,-1.00e-02,
783,-6.00e-02,1.40e-02,
784,6.00e-02,8.00e-03,
785,-7.20e-02,-6.00e-03,
786,-4.80e-02,8.00e-03,
787,6.40e-02,-6.00e-03,
788,-6.40e-02,-4.00e-03,
789,5.60e-02,8.00e-03,
790,-5.60e-02,8.00e-03,
791,6.00e-02,-6.00e-03,
792,8.40e-02,-4.00e-03,
793,-6.00e-02,8.00e-03,
794,6.80e-02,1.40e-02,
795,-7.20e-02,-6.00e-03,
796,-5.48e-01,1.00e-02,
797,2.96e-01,-6.80e-02,
798,-6.80e-02,-4.00e-03,
799,6.40e-02,2.00e-02,
800,-8.40e-02,-4.00e-03,
801,8.40e-02,2.20e-02,
802,6.40e-02,-1.20e-02,
803,-7.20e-02,2.60e-02,
804,-8.40e-02,-1.40e-02,
805,8.40e-02,1.80e-02,
806,-8.00e-02,-1.00e-02,
807,6.40e-02,1.40e-02,
808,-7.20e-02,1.60e-02,
809,6.80e-02,-6.00e-03,
810,7.20e-02,8.00e-03,
811,-7.60e-02,-1.40e-02,
812,-7.60e-02,-8.00e-03,
813,6.80e-02,8.00e-03,
814,6.40e-02,-4.00e-03,
815,-4.40e-02,1.00e-02,
816,-5.20e-02,8.00e-03,
817,6.40e-02,-1.40e-02,
818,-5.60e-02,1.00e-02,
819,6.40e-02,-8.00e-03,
820,-7.60e-02,-4.00e-03,
821,6.40e-02,8.00e-03,
822,-8.40e-02,-4.00e-03,
823,7.20e-02,1.40e-02,
824,2.76e-01,1.00e-02,
825,-5.48e-01,-2.36e-01,
826,6.80e-02,-6.00e-03,
827,-8.00e-02,1.00e-02,
828,-8.00e-02,-4.00e-03,
829,6.00e-02,1.80e-02,
830,-8.00e-02,-4.00e-03,
831,6.40e-02,1.40e-02,
832,-8.00e-02,8.00e-03,
833,8.80e-02,-6.00e-03,
