Motor_Data/MOTOR_2_ON/MOTOR2_ON_Probe1/time domain (far ch1 close ch2)/NewFile25.csv

X,CH1,CH2,Start,Increment,
Sequence,Volt,Volt,-3.000000e-02,5.000000e-05
0,8.40e-02,1.00e-02,
1,-6.40e-02,-1.00e-02,
2,-7.20e-02,8.00e-03,
3,6.80e-02,-6.00e-03,
4,-7.20e-02,-4.00e-03,
5,8.00e-02,1.20e-02,
6,-7.60e-02,1.40e-02,
7,9.60e-02,-1.40e-02,
8,-6.80e-02,2.20e-02,
9,1.00e-01,-1.80e-02,
10,-6.00e-02,-2.00e-02,
11,9.20e-02,2.80e-02,
12,-7.20e-02,-1.60e-02,
13,8.80e-02,1.20e-02,
14,1.04e-01,1.80e-02,
15,-6.80e-02,-1.60e-02,
16,-7.20e-02,-1.40e-02,
17,9.20e-02,2.00e-02,
18,-6.80e-02,-1.40e-02,
19,8.40e-02,1.60e-02,
20,-8.40e-02,-4.00e-03,
21,1.00e-01,8.00e-03,
22,9.60e-02,-8.00e-03,
23,-8.00e-02,8.00e-03,
24,-7.20e-02,-4.00e-03,
25,7.20e-02,8.00e-03,
26,-7.20e-02,-4.00e-03,
27,5.60e-02,8.00e-03,
28,-5.48e-01,1.56e-01,
29,4.72e-01,-1.54e-01,
30,-4.00e-02,1.60e-02,
31,5.20e-02,-1.20e-02,
32,-7.20e-02,1.00e-02,
33,8.00e-02,-2.00e-02,
34,-4.40e-02,-6.00e-03,
35,6.40e-02,2.60e-02,
36,-6.00e-02,-4.00e-03,
37,7.20e-02,2.00e-02,
38,-6.00e-02,2.00e-02,
39,5.60e-02,-1.20e-02,
40,5.60e-02,-2.20e-02,
41,-8.00e-02,2.40e-02,
42,-5.60e-02,-8.00e-03,
43,5.60e-02,1.80e-02,
44,-6.00e-02,-6.00e-03,
45,6.00e-02,1.60e-02,
46,-6.40e-02,8.00e-03,
47,5.60e-02,-1.20e-02,
48,6.00e-02,-8.00e-03,
49,-7.20e-02,8.00e-03,
50,6.80e-02,8.00e-03,
51,-6.80e-02,-4.00e-03,
52,5.20e-02,8.00e-03,
53,-6.40e-02,-1.20e-02,
54,-6.40e-02,8.00e-03,
55,7.20e-02,-1.00e-02,
56,4.72e-01,1.26e-01,
57,-4.40e-02,-2.32e-01,
58,6.80e-02,-4.00e-03,
59,-4.00e-02,1.60e-02,
60,-7.20e-02,1.80e-02,
61,6.00e-02,-1.80e-02,
62,-5.60e-02,2.00e-02,
63,6.80e-02,-1.00e-02,
64,6.40e-02,-2.20e-02,
65,-7.20e-02,2.80e-02,
66,6.00e-02,-4.00e-03,
67,-7.20e-02,1.00e-02,
68,7.20e-02,-8.00e-03,
69,-5.60e-02,1.60e-02,
70,-6.40e-02,-1.60e-02,
71,5.60e-02,2.20e-02,
72,-6.00e-02,-8.00e-03,
73,5.60e-02,1.00e-02,
74,-6.40e-02,-4.00e-03,
75,7.20e-02,8.00e-03,
76,5.60e-02,-4.00e-03,
77,-6.40e-02,8.00e-03,
78,-5.60e-02,-6.00e-03,
79,4.80e-02,8.00e-03,
80,-6.40e-02,1.00e-02,
81,8.00e-02,-8.00e-03,
82,-5.20e-02,-1.20e-02,
83,7.60e-02,1.60e-02,
84,-6.40e-02,-2.20e-02,
85,4.72e-01,2.28e-01,
86,-5.48e-01,-1.72e-01,
87,6.80e-02,2.20e-02,
88,-7.20e-02,-4.00e-03,
89,8.00e-02,2.80e-02,
90,-6.40e-02,2.00e-02,
91,7.20e-02,-1.20e-02,
92,-3.20e-02,-1.80e-02,
93,6.40e-02,2.00e-02,
94,5.60e-02,-2.00e-02,
95,-3.20e-02,2.40e-02,
96,5.20e-02,-4.00e-03,
97,-6.40e-02,1.20e-02,
98,5.20e-02,8.00e-03,
99,-7.20e-02,-1.60e-02,
100,5.60e-02,6.00e-03,
101,-4.80e-02,-1.40e-02,
102,-6.00e-02,-4.00e-03,
103,6.80e-02,8.00e-03,
104,-6.40e-02,8.00e-03,
105,6.00e-02,-1.00e-02,
106,-7.60e-02,1.00e-02,
107,6.40e-02,-1.20e-02,
108,8.40e-02,8.00e-03,
109,-1.00e-01,-8.00e-03,
110,8.00e-02,-4.00e-03,
111,-6.40e-02,1.20e-02,
112,4.32e-01,8.00e-03,
113,-5.48e-01,-2.54e-01,
114,-8.80e-02,-1.80e-02,
115,8.80e-02,2.20e-02,
116,-8.40e-02,1.00e-02,
117,8.00e-02,-2.00e-02,
118,-9.20e-02,-1.60e-02,
119,7.60e-02,1.80e-02,
120,-8.00e-02,1.80e-02,
121,8.80e-02,-1.60e-02,
122,-9.20e-02,-1.60e-02,
123,7.60e-02,2.40e-02,
124,-8.00e-02,-1.20e-02,
125,7.60e-02,1.60e-02,
126,-7.60e-02,8.00e-03,
127,6.40e-02,-6.00e-03,
128,-8.00e-02,-4.00e-03,
129,6.80e-02,1.00e-02,
130,-8.40e-02,-4.00e-03,
131,1.00e-01,8.00e-03,
132,-8.80e-02,8.00e-03,
133,1.00e-01,-6.00e-03,
134,-8.40e-02,1.40e-02,
135,8.80e-02,-1.20e-02,
136,8.40e-02,1.60e-02,
137,-3.60e-02,-1.40e-02,
138,8.40e-02,8.00e-03,
139,-7.60e-02,-1.80e-02,
140,-8.40e-02,-4.00e-03,
141,8.00e-02,2.00e-02,
142,4.72e-01,-9.80e-02,
143,-5.48e-01,1.84e-01,
144,-8.00e-02,8.00e-03,
145,9.20e-02,-1.80e-02,
146,8.00e-02,-4.00e-03,
147,-6.80e-02,1.80e-02,
148,-8.80e-02,-1.00e-02,
149,6.80e-02,8.00e-03,
150,-8.80e-02,-6.00e-03,
151,7.20e-02,8.00e-03,
152,-6.80e-02,8.00e-03,
153,1.00e-01,-1.40e-02,
154,-7.60e-02,8.00e-03,
155,9.20e-02,-4.00e-03,
156,-6.80e-02,8.00e-03,
157,9.20e-02,-6.00e-03,
158,-7.60e-02,8.00e-03,
159,8.40e-02,-1.00e-02,
160,8.00e-02,8.00e-03,
161,-8.00e-02,-8.00e-03,
162,-8.00e-02,8.00e-03,
163,8.00e-02,-6.00e-03,
164,-7.20e-02,-4.00e-03,
165,8.00e-02,1.60e-02,
166,-7.20e-02,2.00e-02,
167,7.20e-02,-2.00e-02,
168,-7.60e-02,2.20e-02,
169,7.20e-02,-1.20e-02,
170,-5.48e-01,2.56e-01,
171,4.72e-01,-1.46e-01,
172,9.20e-02,-8.00e-03,
173,-7.20e-02,2.00e-02,
174,-1.08e-01,-8.00e-03,
175,6.80e-02,1.60e-02,
176,-6.80e-02,-1.80e-02,
177,6.80e-02,2.20e-02,
178,7.60e-02,-1.00e-02,
179,-6.40e-02,1.20e-02,
180,-6.80e-02,-4.00e-03,
181,9.60e-02,8.00e-03,
182,8.80e-02,8.00e-03,
183,-1.16e-01,-6.00e-03,
184,-7.20e-02,-4.00e-03,
185,9.60e-02,8.00e-03,
186,-8.40e-02,8.00e-03,
187,8.40e-02,-8.00e-03,
188,6.40e-02,1.40e-02,
189,-8.00e-02,-1.40e-02,
190,-7.60e-02,1.40e-02,
191,6.40e-02,-2.00e-02,
192,6.80e-02,-8.00e-03,
193,-6.80e-02,1.60e-02,
194,-7.20e-02,-4.00e-03,
195,6.00e-02,3.00e-02,
196,5.60e-02,8.00e-03,
197,-5.60e-02,-6.00e-03,
198,-5.48e-01,8.80e-02,
199,4.56e-01,-1.98e-01,
200,-7.60e-02,-2.00e-02,
201,6.40e-02,2.20e-02,
202,-6.00e-02,1.60e-02,
203,6.40e-02,-8.00e-03,
204,-6.40e-02,8.00e-03,
205,5.60e-02,-1.40e-02,
206,6.00e-02,-1.60e-02,
207,-6.00e-02,8.00e-03,
208,-6.80e-02,6.00e-03,
209,6.00e-02,-4.00e-03,
210,-7.60e-02,-6.00e-03,
211,8.00e-02,8.00e-03,
212,-5.20e-02,8.00e-03,
213,6.80e-02,-1.20e-02,
214,-6.00e-02,8.00e-03,
215,6.80e-02,-1.00e-02,
216,5.20e-02,-4.00e-03,
217,-6.00e-02,1.20e-02,
218,-5.60e-02,1.40e-02,
219,6.40e-02,-1.00e-02,
220,-6.40e-02,-2.20e-02,
221,7.20e-02,2.20e-02,
222,6.00e-02,-1.80e-02,
223,-5.60e-02,2.60e-02,
224,-6.40e-02,-4.00e-03,
225,6.80e-02,1.40e-02,
226,-7.20e-02,8.00e-03,
227,7.20e-02,-1.80e-02,
228,-5.48e-01,1.24e-01,
229,4.72e-01,-1.60e-02,
230,7.20e-02,-8.00e-03,
231,-5.60e-02,8.00e-03,
232,6.40e-02,-6.00e-03,
233,-5.20e-02,8.00e-03,
234,5.20e-02,-4.00e-03,
235,-5.60e-02,8.00e-03,
236,6.40e-02,-6.00e-03,
237,-6.40e-02,8.00e-03,
238,6.40e-02,8.00e-03,
239,-7.20e-02,-6.00e-03,
240,6.00e-02,1.60e-02,
241,-7.20e-02,-1.00e-02,
242,8.00e-02,1.40e-02,
243,-6.00e-02,-1.20e-02,
244,-6.40e-02,-2.00e-02,
245,6.40e-02,1.00e-02,
246,5.60e-02,-6.00e-03,
247,-5.60e-02,2.80e-02,
248,-5.20e-02,1.60e-02,
249,6.80e-02,-1.00e-02,
250,7.60e-02,2.20e-02,
251,-7.60e-02,-1.80e-02,
252,5.60e-02,-2.20e-02,
253,-6.40e-02,2.00e-02,
254,6.40e-02,-8.00e-03,
255,-3.60e-02,1.80e-02,
256,5.20e-02,-1.60e-01,
257,-5.48e-01,1.40e-01,
258,-7.60e-02,-1.60e-02,
259,6.80e-02,8.00e-03,
260,8.00e-02,8.00e-03,
261,-6.80e-02,-1.00e-02,
262,-8.00e-02,-4.00e-03,
263,6.00e-02,6.00e-03,
264,-6.00e-02,8.00e-03,
265,7.20e-02,-1.20e-02,
266,6.40e-02,8.00e-03,
267,-5.60e-02,-1.20e-02,
268,-6.00e-02,8.00e-03,
269,6.00e-02,-6.00e-03,
270,5.60e-02,-4.00e-03,
271,-6.40e-02,1.40e-02,
272,5.20e-02,1.40e-02,
273,-6.80e-02,-1.40e-02,
274,-6.80e-02,2.20e-02,
275,6.00e-02,-1.60e-02,
276,6.00e-02,-1.80e-02,
277,-6.40e-02,3.00e-02,
278,-6.40e-02,1.20e-02,
279,6.00e-02,-1.40e-02,
280,6.40e-02,1.60e-02,
281,-5.60e-02,-8.00e-03,
282,-6.00e-02,-1.60e-02,
283,7.60e-02,2.20e-02,
284,-5.48e-01,1.60e-02,
285,4.72e-01,-2.54e-01,
286,-7.20e-02,-6.00e-03,
287,6.00e-02,8.00e-03,
288,5.20e-02,6.00e-03,
289,-6.00e-02,-4.00e-03,
290,5.60e-02,8.00e-03,
291,-6.00e-02,-6.00e-03,
292,-5.60e-02,8.00e-03,
293,5.20e-02,-8.00e-03,
294,-4.80e-02,1.40e-02,
295,5.60e-02,-1.20e-02,
296,5.60e-02,1.20e-02,
297,-6.80e-02,-1.80e-02,
298,-6.00e-02,-8.00e-03,
299,6.40e-02,1.80e-02,
300,-6.40e-02,-4.00e-03,
301,6.80e-02,3.00e-02,
302,-7.20e-02,2.20e-02,
303,6.40e-02,-1.80e-02,
304,-6.80e-02,-1.60e-02,
305,6.40e-02,1.60e-02,
306,-6.80e-02,-1.80e-02,
307,7.20e-02,2.60e-02,
308,-6.40e-02,8.00e-03,
309,6.40e-02,-6.00e-03,
310,-6.80e-02,8.00e-03,
311,6.40e-02,-1.40e-02,
312,-6.40e-02,8.00e-03,
313,6.80e-02,-6.00e-03,
314,4.72e-01,-1.86e-01,
315,-5.48e-01,8.00e-03,
316,-6.80e-02,1.00e-02,
317,5.20e-02,-8.00e-03,
318,6.40e-02,1.00e-02,
319,-6.40e-02,-1.20e-02,
320,-7.20e-02,8.00e-03,
321,8.00e-02,-6.00e-03,
322,8.80e-02,-6.00e-03,
323,-7.20e-02,1.20e-02,
324,6.80e-02,1.60e-02,
325,-8.00e-02,-1.00e-02,
326,-7.20e-02,-1.60e-02,
327,8.00e-02,2.40e-02,
328,-6.00e-02,-1.80e-02,
329,8.00e-02,2.80e-02,
330,8.40e-02,-2.20e-02,
331,-7.60e-02,1.80e-02,
332,9.20e-02,1.80e-02,
333,-7.20e-02,-1.40e-02,
334,7.60e-02,-1.40e-02,
335,-7.20e-02,1.80e-02,
336,-6.80e-02,-1.40e-02,
337,1.00e-01,2.00e-02,
338,8.80e-02,-4.00e-03,
339,-7.20e-02,8.00e-03,
340,-8.40e-02,-6.00e-03,
341,8.80e-02,8.00e-03,
342,-5.48e-01,1.80e-01,
343,4.72e-01,-2.54e-01,
344,8.80e-02,-4.00e-03,
345,-6.40e-02,8.00e-03,
346,-7.60e-02,1.20e-02,
347,8.80e-02,-1.20e-02,
348,-7.60e-02,1.60e-02,
349,9.20e-02,-1.00e-02,
350,-8.40e-02,1.00e-02,
351,9.20e-02,-2.00e-02,
352,-7.60e-02,-4.00e-03,
353,9.20e-02,1.00e-02,
354,8.80e-02,8.00e-03,
355,-8.00e-02,-8.00e-03,
356,7.60e-02,8.00e-03,
357,-1.00e-01,-4.00e-03,
358,6.00e-02,-2.00e-02,
359,-6.40e-02,2.60e-02,
360,6.00e-02,-8.00e-03,
361,-7.20e-02,2.00e-02,
362,5.20e-02,-4.00e-03,
363,-6.00e-02,1.80e-02,
364,-7.20e-02,8.00e-03,
365,5.60e-02,-1.40e-02,
366,-6.40e-02,-6.00e-03,
367,6.80e-02,8.00e-03,
368,-5.20e-02,-4.00e-03,
369,5.60e-02,1.00e-02,
370,4.72e-01,2.22e-01,
371,-5.48e-01,-1.12e-01,
372,6.00e-02,-1.00e-02,
373,-7.20e-02,8.00e-03,
374,6.00e-02,-4.00e-03,
375,-6.00e-02,1.00e-02,
376,-4.00e-02,-4.00e-03,
377,7.20e-02,1.80e-02,
378,6.00e-02,2.20e-02,
379,-3.60e-02,-1.80e-02,
380,-7.20e-02,2.20e-02,
381,6.00e-02,-1.80e-02,
382,-6.80e-02,2.80e-02,
383,4.80e-02,-2.20e-02,
384,6.80e-02,1.20e-02,
385,-6.80e-02,-4.00e-03,
386,6.00e-02,-4.00e-03,
387,-6.00e-02,8.00e-03,
388,-6.80e-02,6.00e-03,
389,6.40e-02,-1.80e-02,
390,-6.40e-02,-8.00e-03,
391,6.00e-02,8.00e-03,
392,-6.80e-02,-4.00e-03,
393,5.60e-02,1.00e-02,
394,-6.80e-02,-4.00e-03,
395,6.40e-02,1.00e-02,
396,7.20e-02,8.00e-03,
397,-6.80e-02,-4.00e-03,
398,-5.48e-01,2.12e-01,
399,4.72e-01,-6.00e-03,
400,-1.48e-01,-3.40e-02,
401,8.40e-02,6.40e-02,
402,-6.40e-02,1.40e-02,
403,6.80e-02,-2.00e-02,
404,6.00e-02,-1.20e-02,
405,-6.00e-02,1.40e-02,
406,7.60e-02,3.20e-02,
407,-7.20e-02,-4.00e-03,
408,-8.00e-02,2.40e-02,
409,6.80e-02,-1.60e-02,
410,7.60e-02,-1.40e-02,
411,-4.00e-02,1.80e-02,
412,-7.20e-02,-2.00e-02,
413,6.80e-02,2.40e-02,
414,-7.60e-02,1.80e-02,
415,6.00e-02,-6.00e-03,
416,6.00e-02,8.00e-03,
417,-5.20e-02,-1.20e-02,
418,6.80e-02,-1.40e-02,
419,-5.20e-02,8.00e-03,
420,7.20e-02,1.00e-02,
421,-6.40e-02,-4.00e-03,
422,-6.00e-02,-4.00e-03,
423,6.00e-02,1.20e-02,
424,-5.60e-02,-1.40e-02,
425,6.00e-02,8.00e-03,
426,4.80e-02,8.00e-03,
427,-5.60e-02,-8.00e-03,
428,4.72e-01,2.20e-02,
429,-5.48e-01,-1.24e-01,
430,6.00e-02,-4.00e-03,
431,-6.40e-02,1.20e-02,
432,-5.20e-02,-4.00e-03,
433,6.80e-02,1.80e-02,
434,-6.80e-02,8.00e-03,
435,7.20e-02,-1.40e-02,
436,5.20e-02,-2.20e-02,
437,-6.80e-02,1.20e-02,
438,6.80e-02,-6.00e-03,
439,-6.40e-02,1.40e-02,
440,8.00e-02,-1.20e-02,
441,-7.60e-02,2.00e-02,
442,8.80e-02,-2.00e-02,
443,-9.20e-02,2.00e-02,
444,-9.20e-02,-4.00e-03,
445,8.00e-02,8.00e-03,
446,-8.40e-02,-4.00e-03,
447,7.20e-02,8.00e-03,
448,-1.00e-01,-4.00e-03,
449,7.60e-02,1.00e-02,
450,9.20e-02,8.00e-03,
451,-9.60e-02,-6.00e-03,
452,-6.00e-02,1.40e-02,
453,7.60e-02,-1.00e-02,
454,-4.80e-02,1.60e-02,
455,8.80e-02,-1.00e-02,
456,3.84e-01,-2.40e-01,
457,-1.92e-01,1.04e-01,
458,-7.20e-02,-4.00e-03,
459,1.00e-01,3.20e-02,
460,-8.40e-02,-4.00e-03,
461,8.80e-02,1.60e-02,
462,-9.60e-02,2.20e-02,
463,8.80e-02,-1.40e-02,
464,-8.80e-02,8.00e-03,
465,7.60e-02,-2.20e-02,
466,-9.20e-02,-1.00e-02,
467,8.80e-02,8.00e-03,
468,-8.00e-02,-4.00e-03,
469,8.80e-02,8.00e-03,
470,1.00e-01,1.00e-02,
471,-8.80e-02,-1.80e-02,
472,-8.80e-02,-6.00e-03,
473,8.80e-02,1.00e-02,
474,-8.00e-02,-4.00e-03,
475,8.40e-02,1.20e-02,
476,8.00e-02,-6.00e-03,
477,-8.40e-02,8.00e-03,
478,8.40e-02,8.00e-03,
479,-8.80e-02,-1.20e-02,
480,7.60e-02,-6.00e-03,
481,-8.40e-02,8.00e-03,
482,6.80e-02,-4.00e-03,
483,-8.00e-02,1.60e-02,
484,4.72e-01,-1.82e-01,
485,-3.40e-01,1.34e-01,
486,9.20e-02,2.40e-02,
487,-8.80e-02,-1.20e-02,
488,8.40e-02,2.60e-02,
489,-7.60e-02,-2.00e-02,
490,-7.20e-02,1.60e-02,
491,1.00e-01,-1.80e-02,
492,-8.40e-02,1.60e-02,
493,8.80e-02,-6.00e-03,
494,-7.60e-02,-1.80e-02,
495,8.80e-02,2.00e-02,
496,-6.80e-02,-1.00e-02,
497,1.04e-01,1.20e-02,
498,-6.40e-02,-6.00e-03,
499,7.20e-02,8.00e-03,
500,-6.80e-02,-4.00e-03,
501,8.40e-02,8.00e-03,
502,-8.00e-02,-4.00e-03,
503,9.20e-02,8.00e-03,
504,8.40e-02,-4.00e-03,
505,-7.20e-02,1.00e-02,
506,-8.00e-02,-4.00e-03,
507,9.60e-02,1.80e-02,
508,8.00e-02,-4.00e-03,
509,-7.60e-02,1.00e-02,
510,7.60e-02,-4.00e-03,
511,-6.40e-02,8.00e-03,
512,3.36e-01,8.00e-03,
513,-5.48e-01,-8.80e-02,
514,-7.60e-02,-4.00e-03,
515,9.20e-02,2.00e-02,
516,-8.00e-02,-4.00e-03,
517,8.40e-02,1.00e-02,
518,9.60e-02,-2.40e-02,
519,-8.00e-02,1.80e-02,
520,9.20e-02,-6.00e-03,
521,-6.80e-02,1.80e-02,
522,-6.40e-02,8.00e-03,
523,8.40e-02,-1.40e-02,
524,-6.80e-02,-1.60e-02,
525,6.80e-02,1.00e-02,
526,7.60e-02,6.00e-03,
527,-6.40e-02,-6.00e-03,
528,-6.00e-02,8.00e-03,
529,6.40e-02,-6.00e-03,
530,-6.40e-02,-1.40e-02,
531,6.80e-02,1.20e-02,
532,-6.00e-02,8.00e-03,
533,7.20e-02,-6.00e-03,
534,-6.40e-02,-4.00e-03,
535,5.60e-02,1.00e-02,
536,6.80e-02,1.40e-02,
537,-6.40e-02,-1.00e-02,
538,6.40e-02,-2.20e-02,
539,-4.40e-02,2.40e-02,
540,-6.80e-02,-1.60e-02,
541,6.40e-02,2.80e-02,
542,4.16e-01,1.04e-01,
543,-5.12e-01,-1.92e-01,
544,-6.80e-02,8.00e-03,
545,6.00e-02,-1.00e-02,
546,5.60e-02,-1.20e-02,
547,-7.20e-02,8.00e-03,
548,6.80e-02,-4.00e-03,
549,-6.80e-02,8.00e-03,
550,6.80e-02,-4.00e-03,
551,-6.80e-02,8.00e-03,
552,6.80e-02,8.00e-03,
553,-5.20e-02,-6.00e-03,
554,-6.00e-02,8.00e-03,
555,6.40e-02,-6.00e-03,
556,-8.00e-02,6.00e-03,
557,6.80e-02,-6.00e-03,
558,-6.00e-02,1.00e-02,
559,6.00e-02,-1.00e-02,
560,-6.80e-02,1.40e-02,
561,6.40e-02,-1.00e-02,
562,6.40e-02,8.00e-03,
563,-7.20e-02,-1.80e-02,
564,6.00e-02,-4.00e-03,
565,-7.60e-02,3.00e-02,
566,-6.40e-02,-6.00e-03,
567,7.20e-02,2.00e-02,
568,-7.20e-02,2.20e-02,
569,6.40e-02,-1.80e-02,
570,-5.48e-01,-2.54e-01,
571,4.72e-01,2.04e-01,
572,5.20e-02,2.20e-02,
573,-4.00e-02,-1.00e-02,
574,6.00e-02,-4.00e-03,
575,-3.60e-02,2.00e-02,
576,-7.60e-02,-1.20e-02,
577,5.20e-02,8.00e-03,
578,6.00e-02,6.00e-03,
579,-4.40e-02,-1.40e-02,
580,-5.60e-02,-4.00e-03,
581,6.00e-02,8.00e-03,
582,6.80e-02,8.00e-03,
583,-6.80e-02,-1.00e-02,
584,6.00e-02,-4.00e-03,
585,-7.60e-02,8.00e-03,
586,-5.20e-02,6.00e-03,
587,6.00e-02,-4.00e-03,
588,6.40e-02,8.00e-03,
589,-6.40e-02,-6.00e-03,
590,-6.80e-02,1.00e-02,
591,6.40e-02,-1.80e-02,
592,-6.80e-02,-1.60e-02,
593,6.00e-02,8.00e-03,
594,-6.00e-02,-6.00e-03,
595,6.40e-02,2.80e-02,
596,-7.60e-02,8.00e-03,
597,6.80e-02,-1.80e-02,
598,6.40e-02,-6.00e-03,
599,-2.80e-01,9.20e-02,
600,4.72e-01,-1.30e-01,
601,-5.08e-01,1.80e-01,
602,7.20e-02,-1.20e-02,
603,-7.20e-02,1.20e-02,
604,6.00e-02,-4.00e-03,
605,-6.80e-02,1.00e-02,
606,6.40e-02,8.00e-03,
607,-7.60e-02,-6.00e-03,
608,-8.00e-02,-6.00e-03,
609,6.80e-02,8.00e-03,
610,-6.00e-02,8.00e-03,
611,6.40e-02,-4.00e-03,
612,-6.40e-02,-1.20e-02,
613,7.20e-02,1.40e-02,
614,2.80e-02,1.20e-02,
615,-6.40e-02,-1.80e-02,
616,5.20e-02,8.00e-03,
617,-7.20e-02,-1.40e-02,
618,-6.40e-02,-4.00e-03,
619,4.80e-02,2.80e-02,
620,7.60e-02,2.20e-02,
621,-7.20e-02,-1.80e-02,
622,-6.80e-02,-4.00e-03,
623,7.20e-02,1.40e-02,
624,-7.60e-02,-2.40e-02,
625,7.20e-02,2.20e-02,
626,4.64e-01,1.20e-02,
627,-5.48e-01,-2.54e-01,
628,6.80e-02,-4.00e-03,
629,-7.20e-02,8.00e-03,
630,-7.60e-02,1.20e-02,
631,6.40e-02,-1.00e-02,
632,-7.20e-02,-4.00e-03,
633,5.20e-02,8.00e-03,
634,-6.80e-02,1.00e-02,
635,6.00e-02,-6.00e-03,
636,-6.80e-02,1.00e-02,
637,7.20e-02,-1.20e-02,
638,-8.00e-02,8.00e-03,
639,6.40e-02,-1.20e-02,
640,6.40e-02,-4.00e-03,
641,-6.80e-02,8.00e-03,
642,6.80e-02,1.40e-02,
643,-5.20e-02,-8.00e-03,
644,8.00e-02,-1.80e-02,
645,-6.80e-02,2.40e-02,
646,-6.40e-02,-1.60e-02,
647,6.40e-02,2.60e-02,
648,-6.80e-02,-2.40e-02,
649,6.80e-02,2.20e-02,
650,6.00e-02,1.40e-02,
651,-6.80e-02,-1.60e-02,
652,7.20e-02,-1.20e-02,
653,-5.60e-02,1.80e-02,
654,-6.80e-02,-1.80e-02,
655,8.00e-02,1.80e-02,
656,9.20e-02,1.08e-01,
657,-5.24e-01,-1.06e-01,
658,9.60e-02,-6.00e-03,
659,-7.20e-02,1.00e-02,
660,-7.20e-02,-6.00e-03,
661,8.40e-02,8.00e-03,
662,-8.00e-02,-4.00e-03,
663,8.40e-02,8.00e-03,
664,-7.20e-02,8.00e-03,
665,6.00e-02,-1.20e-02,
666,8.40e-02,6.00e-03,
667,-8.40e-02,-1.00e-02,
668,-6.40e-02,8.00e-03,
669,8.00e-02,-1.60e-02,
670,-7.20e-02,-6.00e-03,
671,1.04e-01,3.00e-02,
672,-7.60e-02,-6.00e-03,
673,8.40e-02,2.40e-02,
674,-6.80e-02,2.20e-02,
675,8.40e-02,-1.20e-02,
676,-7.20e-02,-2.20e-02,
677,1.00e-01,2.60e-02,
678,8.00e-02,-8.00e-03,
679,-6.40e-02,1.80e-02,
680,-7.20e-02,1.80e-02,
681,8.40e-02,-6.00e-03,
682,-6.80e-02,8.00e-03,
683,1.00e-01,-1.40e-02,
684,-5.48e-01,-2.54e-01,
685,4.72e-01,2.14e-01,
686,7.60e-02,8.00e-03,
687,-7.20e-02,-6.00e-03,
688,9.20e-02,1.00e-02,
689,-6.80e-02,-1.20e-02,
690,-8.00e-02,1.00e-02,
691,7.60e-02,-1.20e-02,
692,6.40e-02,8.00e-03,
693,-6.80e-02,-6.00e-03,
694,-6.00e-02,-4.00e-03,
695,6.40e-02,1.40e-02,
696,-3.60e-02,1.80e-02,
697,7.20e-02,-1.40e-02,
698,6.00e-02,-4.00e-03,
699,-5.60e-02,2.20e-02,
700,6.40e-02,2.40e-02,
701,-7.60e-02,-2.00e-02,
702,-6.00e-02,-6.00e-03,
703,6.40e-02,1.80e-02,
704,5.60e-02,1.80e-02,
705,-6.80e-02,-6.00e-03,
706,7.60e-02,2.00e-02,
707,-6.80e-02,-1.80e-02,
708,6.40e-02,-1.20e-02,
709,-4.80e-02,1.20e-02,
710,5.60e-02,-4.00e-03,
711,-5.20e-02,8.00e-03,
712,4.72e-01,-6.00e-03,
713,-5.44e-01,1.80e-01,
714,6.40e-02,-4.00e-03,
715,-7.60e-02,8.00e-03,
716,7.20e-02,8.00e-03,
717,-5.60e-02,-6.00e-03,
718,7.60e-02,-1.20e-02,
719,-6.80e-02,1.60e-02,
720,-7.60e-02,1.20e-02,
721,6.00e-02,-2.00e-02,
722,5.60e-02,-1.40e-02,
723,-6.00e-02,8.00e-03,
724,5.60e-02,-4.00e-03,
725,-7.60e-02,2.60e-02,
726,-6.00e-02,2.00e-02,
727,6.80e-02,-1.40e-02,
728,7.20e-02,1.40e-02,
729,-7.60e-02,-1.20e-02,
730,-7.60e-02,-2.20e-02,
731,7.60e-02,2.20e-02,
732,-6.80e-02,1.80e-02,
733,4.40e-02,-6.00e-03,
734,-4.00e-02,6.00e-03,
735,7.20e-02,-1.20e-02,
736,-4.80e-02,-1.60e-02,
737,4.80e-02,8.00e-03,
738,7.20e-02,-8.00e-03,
739,-7.20e-02,6.00e-03,
740,-6.80e-02,8.00e-03,
741,6.80e-02,-6.00e-03,
742,-3.88e-01,1.82e-01,
743,4.60e-01,-2.54e-01,
744,-6.40e-02,8.00e-03,
745,7.20e-02,-1.00e-02,
746,7.60e-02,-4.00e-03,
747,-5.60e-02,1.20e-02,
748,8.40e-02,-4.00e-03,
749,-4.40e-02,1.40e-02,
750,-8.00e-02,-4.00e-03,
751,6.80e-02,2.40e-02,
752,6.00e-02,-1.20e-02,
753,-7.60e-02,2.40e-02,
754,-6.40e-02,-2.20e-02,
755,5.20e-02,2.20e-02,
756,-7.20e-02,1.00e-02,
757,6.00e-02,-1.20e-02,
758,6.80e-02,-1.20e-02,
759,-7.20e-02,2.20e-02,
760,7.20e-02,-1.40e-02,
761,-6.40e-02,1.60e-02,
762,8.00e-02,-4.00e-03,
763,-7.20e-02,8.00e-03,
764,-5.60e-02,8.00e-03,
765,5.60e-02,-6.00e-03,
766,-5.20e-02,-4.00e-03,
767,7.20e-02,8.00e-03,
768,-7.20e-02,-4.00e-03,
769,5.60e-02,8.00e-03,
770,-5.16e-01,-1.62e-01,
771,2.96e-01,1.20e-01,
772,7.60e-02,-1.00e-02,
773,-4.40e-02,1.40e-02,
774,8.40e-02,1.20e-02,
775,-5.60e-02,-1.80e-02,
776,8.40e-02,-4.00e-03,
777,-5.60e-02,2.60e-02,
778,-6.00e-02,-4.00e-03,
779,8.40e-02,1.40e-02,
780,-9.20e-02,2.40e-02,
781,9.60e-02,-1.80e-02,
782,-7.20e-02,-2.20e-02,
783,7.20e-02,2.00e-02,
784,-8.80e-02,-1.00e-02,
785,8.40e-02,1.60e-02,
786,-8.80e-02,-6.00e-03,
787,8.40e-02,8.00e-03,
788,-7.60e-02,6.00e-03,
789,8.40e-02,-2.00e-02,
790,-7.20e-02,-1.00e-02,
791,9.20e-02,8.00e-03,
792,-1.00e-01,6.00e-03,
793,7.60e-02,-4.00e-03,
794,-6.80e-02,1.00e-02,
795,8.00e-02,-1.00e-02,
796,-8.40e-02,-1.20e-02,
797,7.60e-02,8.00e-03,
798,-5.48e-01,1.36e-01,
799,4.72e-01,-1.20e-02,
800,6.40e-02,-6.00e-03,
801,-8.00e-02,1.60e-02,
802,8.80e-02,1.60e-02,
803,-8.00e-02,-1.60e-02,
804,9.60e-02,2.20e-02,
805,-9.60e-02,-1.60e-02,
806,-8.00e-02,2.20e-02,
807,7.20e-02,-2.00e-02,
808,-8.40e-02,1.40e-02,
809,8.00e-02,-1.40e-02,
810,-9.60e-02,1.80e-02,
811,8.00e-02,-1.00e-02,
812,8.00e-02,2.00e-02,
813,-8.40e-02,-1.60e-02,
814,-8.00e-02,-1.00e-02,
815,6.80e-02,1.20e-02,
816,-6.00e-02,8.00e-03,
817,8.80e-02,-6.00e-03,
818,8.00e-02,-4.00e-03,
819,-7.20e-02,8.00e-03,
820,-6.80e-02,-4.00e-03,
821,9.20e-02,8.00e-03,
822,-9.20e-02,-4.00e-03,
823,8.80e-02,8.00e-03,
824,8.00e-02,1.80e-02,
825,-7.20e-02,-1.40e-02,
826,9.20e-02,1.60e-02,
827,-8.80e-02,-1.60e-02,
828,-3.52e-01,-8.00e-02,
829,4.72e-01,1.00e-02,
830,7.20e-02,-6.00e-03,
831,-7.20e-02,3.00e-02,
832,-7.60e-02,8.00e-03,
833,6.80e-02,-1.60e-02,
