Laptop_2/LAPTOP_CHRGR_2_OFF/time domain/NewFile22.csv

X,CH1,Start,Increment,
Sequence,Volt,-1.500000e-01,2.000000e-04
0,1.60e-02,
1,-1.20e-02,
2,1.60e-02,
3,-1.20e-02,
4,1.60e-02,
5,-8.00e-03,
6,-1.20e-02,
7,1.60e-02,
8,-8.00e-03,
9,1.60e-02,
10,1.60e-02,
11,-1.20e-02,
12,-8.00e-03,
13,2.00e-02,
14,1.60e-02,
15,-1.20e-02,
16,1.60e-02,
17,-8.00e-03,
18,1.60e-02,
19,-1.20e-02,
20,-8.00e-03,
21,1.60e-02,
22,-1.20e-02,
23,2.80e-02,
24,-8.00e-03,
25,2.00e-02,
26,-1.20e-02,
27,2.00e-02,
28,-8.00e-03,
29,1.60e-02,
30,1.60e-02,
31,-1.20e-02,
32,1.60e-02,
33,-1.20e-02,
34,-8.00e-03,
35,1.60e-02,
36,1.60e-02,
37,-1.20e-02,
38,1.60e-02,
39,-8.00e-03,
40,-8.00e-03,
41,1.60e-02,
42,-8.00e-03,
43,2.00e-02,
44,1.60e-02,
45,-8.00e-03,
46,-8.00e-03,
47,2.00e-02,
48,-8.00e-03,
49,1.60e-02,
50,2.00e-02,
51,-1.20e-02,
52,-8.00e-03,
53,1.60e-02,
54,1.60e-02,
55,-1.20e-02,
56,1.60e-02,
57,-1.20e-02,
58,1.60e-02,
59,-8.00e-03,
60,1.60e-02,
61,-8.00e-03,
62,-8.00e-03,
63,1.60e-02,
64,1.60e-02,
65,-8.00e-03,
66,-8.00e-03,
67,1.60e-02,
68,1.60e-02,
69,-1.20e-02,
70,1.60e-02,
71,-1.20e-02,
72,2.00e-02,
73,-1.20e-02,
74,-1.20e-02,
75,1.64e-01,
76,1.60e-02,
77,-1.20e-02,
78,1.60e-02,
79,-8.00e-03,
80,1.60e-02,
81,-1.20e-02,
82,-1.20e-02,
83,1.60e-02,
84,1.60e-02,
85,-1.20e-02,
86,-8.00e-03,
87,1.60e-02,
88,1.60e-02,
89,-1.20e-02,
90,-8.00e-03,
91,1.60e-02,
92,1.60e-02,
93,-1.20e-02,
94,-8.00e-03,
95,1.60e-02,
96,-8.00e-03,
97,1.60e-02,
98,-8.00e-03,
99,1.60e-02,
100,1.60e-02,
101,-1.20e-02,
102,1.60e-02,
103,-1.20e-02,
104,1.60e-02,
105,-1.20e-02,
106,1.60e-02,
107,-1.20e-02,
108,1.60e-02,
109,-1.20e-02,
110,1.60e-02,
111,-1.20e-02,
112,1.60e-02,
113,-1.20e-02,
114,-1.20e-02,
115,1.60e-02,
116,1.60e-02,
117,-1.20e-02,
118,1.60e-02,
119,-1.20e-02,
120,-8.00e-03,
121,1.60e-02,
122,-1.20e-02,
123,2.00e-02,
124,1.60e-02,
125,-1.20e-02,
126,-1.72e-01,
127,2.80e-02,
128,2.80e-02,
129,-3.60e-02,
130,1.60e-02,
131,-1.20e-02,
132,-8.00e-03,
133,1.60e-02,
134,-1.20e-02,
135,1.60e-02,
136,1.60e-02,
137,-1.20e-02,
138,1.60e-02,
139,-8.00e-03,
140,-8.00e-03,
141,1.60e-02,
142,1.60e-02,
143,-1.20e-02,
144,1.60e-02,
145,-1.20e-02,
146,1.60e-02,
147,-1.20e-02,
148,-1.60e-02,
149,1.60e-02,
150,1.60e-02,
151,-1.20e-02,
152,1.60e-02,
153,-1.20e-02,
154,1.60e-02,
155,-1.20e-02,
156,1.60e-02,
157,-1.20e-02,
158,1.60e-02,
159,-1.20e-02,
160,1.60e-02,
161,-8.00e-03,
162,1.60e-02,
163,-1.20e-02,
164,2.00e-02,
165,-1.20e-02,
166,-8.00e-03,
167,1.60e-02,
168,1.60e-02,
169,-1.20e-02,
170,-1.20e-02,
171,2.00e-02,
172,-8.00e-03,
173,1.60e-02,
174,1.60e-02,
175,-1.20e-02,
176,-8.00e-03,
177,1.60e-02,
178,1.60e-02,
179,-1.60e-02,
180,4.80e-02,
181,-1.60e-02,
182,1.60e-02,
183,-1.20e-02,
184,1.60e-02,
185,-1.20e-02,
186,1.60e-02,
187,-1.20e-02,
188,1.60e-02,
189,-1.20e-02,
190,1.60e-02,
191,-1.20e-02,
192,2.00e-02,
193,-1.20e-02,
194,2.00e-02,
195,-1.20e-02,
196,1.60e-02,
197,-1.20e-02,
198,1.60e-02,
199,-8.00e-03,
200,1.60e-02,
201,-1.20e-02,
202,-8.00e-03,
203,1.60e-02,
204,-8.00e-03,
205,1.60e-02,
206,1.60e-02,
207,-1.20e-02,
208,-8.00e-03,
209,1.60e-02,
210,1.60e-02,
211,-1.20e-02,
212,1.60e-02,
213,-1.20e-02,
214,1.60e-02,
215,-1.20e-02,
216,-8.00e-03,
217,1.60e-02,
218,1.60e-02,
219,-1.20e-02,
220,1.60e-02,
221,-1.20e-02,
222,1.60e-02,
223,-1.20e-02,
224,1.60e-02,
225,-1.20e-02,
226,1.60e-02,
227,-1.20e-02,
228,1.60e-02,
229,-1.20e-02,
230,1.60e-02,
231,-1.20e-02,
232,-1.20e-02,
233,4.80e-02,
234,-8.00e-03,
235,1.60e-02,
236,-1.20e-02,
237,1.60e-02,
238,1.60e-02,
239,-1.20e-02,
240,-8.00e-03,
241,2.00e-02,
242,-8.00e-03,
243,2.00e-02,
244,1.60e-02,
245,-1.20e-02,
246,-8.00e-03,
247,2.00e-02,
248,1.60e-02,
249,-1.20e-02,
250,1.60e-02,
251,-1.20e-02,
252,-8.00e-03,
253,1.60e-02,
254,-8.00e-03,
255,1.60e-02,
256,1.60e-02,
257,-1.20e-02,
258,1.60e-02,
259,-1.20e-02,
260,1.60e-02,
261,-1.20e-02,
262,-8.00e-03,
263,2.00e-02,
264,-8.00e-03,
265,1.60e-02,
266,-8.00e-03,
267,2.00e-02,
268,2.00e-02,
269,-1.20e-02,
270,-8.00e-03,
271,2.00e-02,
272,-1.20e-02,
273,2.00e-02,
274,2.00e-02,
275,-1.20e-02,
276,-8.00e-03,
277,2.00e-02,
278,1.60e-02,
279,-1.60e-02,
280,-1.20e-02,
281,2.00e-02,
282,-8.00e-03,
283,1.60e-02,
284,-2.00e-02,
285,1.04e-01,
286,3.60e-02,
287,-3.20e-02,
288,-1.20e-02,
289,1.60e-02,
290,1.60e-02,
291,-1.20e-02,
292,1.60e-02,
293,-1.20e-02,
294,-8.00e-03,
295,2.00e-02,
296,1.60e-02,
297,-1.20e-02,
298,-1.20e-02,
299,1.60e-02,
300,1.60e-02,
301,-1.20e-02,
302,-1.20e-02,
303,2.00e-02,
304,2.00e-02,
305,-1.20e-02,
306,1.60e-02,
307,-1.20e-02,
308,1.60e-02,
309,-1.20e-02,
310,1.60e-02,
311,-1.20e-02,
312,-8.00e-03,
313,2.00e-02,
314,1.60e-02,
315,-1.20e-02,
316,1.60e-02,
317,-1.20e-02,
318,1.60e-02,
319,-1.20e-02,
320,1.60e-02,
321,-1.20e-02,
322,-8.00e-03,
323,2.00e-02,
324,1.60e-02,
325,-1.20e-02,
326,-8.00e-03,
327,1.60e-02,
328,-8.00e-03,
329,1.60e-02,
330,-8.00e-03,
331,2.00e-02,
332,-8.00e-03,
333,1.60e-02,
334,2.00e-02,
335,-1.20e-02,
336,-7.60e-02,
337,2.80e-02,
338,2.80e-02,
339,-1.60e-02,
340,1.60e-02,
341,-1.20e-02,
342,1.60e-02,
343,-8.00e-03,
344,-8.00e-03,
345,2.00e-02,
346,-1.20e-02,
347,2.00e-02,
348,-8.00e-03,
349,2.00e-02,
350,1.60e-02,
351,-1.20e-02,
352,1.60e-02,
353,-1.20e-02,
354,-8.00e-03,
355,1.60e-02,
356,1.60e-02,
357,-1.20e-02,
358,1.60e-02,
359,-8.00e-03,
360,1.60e-02,
361,-1.20e-02,
362,-1.20e-02,
363,1.60e-02,
364,1.60e-02,
365,-1.20e-02,
366,1.60e-02,
367,-1.20e-02,
368,1.60e-02,
369,-1.20e-02,
370,-1.20e-02,
371,1.60e-02,
372,-1.20e-02,
373,1.60e-02,
374,1.60e-02,
375,-1.20e-02,
376,1.60e-02,
377,-1.20e-02,
378,1.60e-02,
379,-1.20e-02,
380,-1.20e-02,
381,1.60e-02,
382,-8.00e-03,
383,1.60e-02,
384,1.60e-02,
385,-1.20e-02,
386,1.60e-02,
387,-1.20e-02,
388,1.60e-02,
389,-1.20e-02,
390,4.80e-02,
391,-1.20e-02,
392,-8.00e-03,
393,1.60e-02,
394,1.60e-02,
395,-1.20e-02,
396,-1.20e-02,
397,1.60e-02,
398,-1.20e-02,
399,2.00e-02,
400,-1.20e-02,
401,2.00e-02,
402,-8.00e-03,
403,1.60e-02,
404,1.60e-02,
405,-1.20e-02,
406,1.60e-02,
407,-1.20e-02,
408,1.60e-02,
409,-1.20e-02,
410,-8.00e-03,
411,1.60e-02,
412,1.60e-02,
413,-1.20e-02,
414,1.60e-02,
415,-1.20e-02,
416,2.00e-02,
417,-1.20e-02,
418,-1.20e-02,
419,1.60e-02,
420,-8.00e-03,
421,1.60e-02,
422,-8.00e-03,
423,2.00e-02,
424,1.60e-02,
425,-1.20e-02,
426,1.60e-02,
427,-1.20e-02,
428,1.60e-02,
429,-8.00e-03,
430,-8.00e-03,
431,1.60e-02,
432,1.60e-02,
433,-1.20e-02,
434,1.60e-02,
435,-1.20e-02,
436,-8.00e-03,
437,1.60e-02,
438,1.60e-02,
439,-1.20e-02,
440,1.60e-02,
441,-1.20e-02,
442,-1.60e-02,
443,1.32e-01,
444,-1.20e-02,
445,1.60e-02,
446,1.60e-02,
447,-1.20e-02,
448,1.60e-02,
449,-1.20e-02,
450,1.60e-02,
451,-1.20e-02,
452,1.60e-02,
453,-1.20e-02,
454,1.60e-02,
455,-1.20e-02,
456,1.60e-02,
457,-1.20e-02,
458,-8.00e-03,
459,1.60e-02,
460,1.60e-02,
461,-1.20e-02,
462,1.60e-02,
463,-1.20e-02,
464,-1.20e-02,
465,2.00e-02,
466,-8.00e-03,
467,1.60e-02,
468,1.60e-02,
469,-1.20e-02,
470,1.60e-02,
471,-1.20e-02,
472,-8.00e-03,
473,2.00e-02,
474,1.60e-02,
475,-1.20e-02,
476,-8.00e-03,
477,1.60e-02,
478,1.60e-02,
479,-1.20e-02,
480,1.60e-02,
481,-8.00e-03,
482,1.60e-02,
483,-1.20e-02,
484,1.60e-02,
485,-1.20e-02,
486,-1.20e-02,
487,1.60e-02,
488,1.60e-02,
489,-1.20e-02,
490,1.60e-02,
491,-8.00e-03,
492,-8.00e-03,
493,1.60e-02,
494,4.40e-02,
495,-2.40e-02,
496,-8.00e-03,
497,1.60e-02,
498,-1.20e-02,
499,1.60e-02,
500,-8.00e-03,
501,2.00e-02,
502,-8.00e-03,
503,1.60e-02,
504,1.60e-02,
505,-1.20e-02,
506,-8.00e-03,
507,1.60e-02,
508,1.60e-02,
509,-1.20e-02,
510,-8.00e-03,
511,1.60e-02,
512,-8.00e-03,
513,1.60e-02,
514,1.60e-02,
515,-1.20e-02,
516,-1.20e-02,
517,2.00e-02,
518,-8.00e-03,
519,1.60e-02,
520,-8.00e-03,
521,1.60e-02,
522,-1.20e-02,
523,1.60e-02,
524,1.60e-02,
525,-1.20e-02,
526,1.60e-02,
527,-1.20e-02,
528,1.60e-02,
529,-1.20e-02,
530,-1.20e-02,
531,2.00e-02,
532,-1.20e-02,
533,1.60e-02,
534,1.60e-02,
535,-1.20e-02,
536,1.60e-02,
537,-1.20e-02,
538,1.60e-02,
539,-1.20e-02,
540,1.60e-02,
541,-1.20e-02,
542,2.00e-02,
543,-1.20e-02,
544,1.60e-02,
545,-1.20e-02,
546,1.60e-02,
547,-4.00e-02,
548,-2.40e-02,
549,2.00e-02,
550,1.60e-02,
551,-1.20e-02,
552,-8.00e-03,
553,1.60e-02,
554,-8.00e-03,
555,1.60e-02,
556,1.60e-02,
557,-1.20e-02,
558,-8.00e-03,
559,2.00e-02,
560,-1.20e-02,
561,1.60e-02,
562,2.00e-02,
563,-1.20e-02,
564,-8.00e-03,
565,1.60e-02,
566,1.60e-02,
567,-1.20e-02,
568,-8.00e-03,
569,2.00e-02,
570,1.60e-02,
571,-1.20e-02,
572,-1.20e-02,
573,2.00e-02,
574,-1.20e-02,
575,1.60e-02,
576,1.60e-02,
577,-1.20e-02,
578,-8.00e-03,
579,1.60e-02,
580,1.60e-02,
581,-1.20e-02,
582,1.60e-02,
583,-1.20e-02,
584,1.60e-02,
585,-8.00e-03,
586,1.60e-02,
587,-1.20e-02,
588,1.60e-02,
589,-1.20e-02,
590,-8.00e-03,
591,1.60e-02,
592,-1.20e-02,
593,1.60e-02,
594,1.60e-02,
595,-1.20e-02,
596,-8.00e-03,
597,1.60e-02,
598,1.60e-02,
599,-1.20e-02,
600,1.56e-01,
601,-3.60e-02,
602,-8.00e-03,
603,1.60e-02,
604,-8.00e-03,
605,1.60e-02,
606,1.60e-02,
607,-1.20e-02,
608,1.60e-02,
609,-8.00e-03,
610,-1.20e-02,
611,1.60e-02,
612,1.60e-02,
613,-1.20e-02,
614,1.60e-02,
615,-1.20e-02,
616,-1.20e-02,
617,1.60e-02,
618,1.60e-02,
619,-1.20e-02,
620,1.60e-02,
621,-1.20e-02,
622,-8.00e-03,
623,1.60e-02,
624,-8.00e-03,
625,1.60e-02,
626,-1.20e-02,
627,1.60e-02,
628,-8.00e-03,
629,1.60e-02,
630,1.60e-02,
631,-1.20e-02,
632,2.00e-02,
633,-1.20e-02,
634,-8.00e-03,
635,1.60e-02,
636,1.60e-02,
637,-1.20e-02,
638,1.60e-02,
639,-8.00e-03,
640,-8.00e-03,
641,1.60e-02,
642,1.60e-02,
643,-1.20e-02,
644,-1.20e-02,
645,1.60e-02,
646,-8.00e-03,
647,1.60e-02,
648,2.00e-02,
649,-1.20e-02,
650,1.60e-02,
651,-1.20e-02,
652,-1.60e-02,
653,3.60e-02,
654,-1.20e-02,
655,2.00e-02,
656,1.60e-02,
657,-1.20e-02,
658,-1.20e-02,
659,1.60e-02,
660,1.60e-02,
661,-1.20e-02,
662,1.60e-02,
663,-8.00e-03,
664,1.60e-02,
665,-8.00e-03,
666,-8.00e-03,
667,1.60e-02,
668,1.60e-02,
669,-1.20e-02,
670,-8.00e-03,
671,1.60e-02,
672,-1.20e-02,
673,1.60e-02,
674,1.60e-02,
675,-1.20e-02,
676,1.60e-02,
677,-1.20e-02,
678,-8.00e-03,
679,1.60e-02,
680,-8.00e-03,
681,1.60e-02,
682,-8.00e-03,
683,1.60e-02,
684,-8.00e-03,
685,2.00e-02,
686,-8.00e-03,
687,1.60e-02,
688,-8.00e-03,
689,1.60e-02,
690,-1.20e-02,
691,2.00e-02,
692,1.60e-02,
693,-1.20e-02,
694,-1.20e-02,
695,2.00e-02,
696,1.60e-02,
697,-1.20e-02,
698,-8.00e-03,
699,1.60e-02,
700,-8.00e-03,
701,2.00e-02,
702,1.60e-02,
703,-8.00e-03,
704,-8.00e-03,
705,2.00e-02,
706,1.24e-01,
707,-2.80e-02,
708,-8.00e-03,
709,1.60e-02,
710,-8.00e-03,
711,1.60e-02,
712,-1.20e-02,
713,2.00e-02,
714,-8.00e-03,
715,1.60e-02,
716,-8.00e-03,
717,1.60e-02,
718,-8.00e-03,
719,2.00e-02,
720,-1.20e-02,
721,1.60e-02,
722,-1.20e-02,
723,2.00e-02,
724,-8.00e-03,
725,1.60e-02,
726,2.00e-02,
727,-1.20e-02,
728,-8.00e-03,
729,1.60e-02,
730,2.00e-02,
731,-1.20e-02,
732,1.60e-02,
733,-1.20e-02,
734,-8.00e-03,
735,1.60e-02,
736,1.60e-02,
737,-1.20e-02,
738,1.60e-02,
739,-1.20e-02,
740,1.60e-02,
741,-1.20e-02,
742,1.60e-02,
743,-1.20e-02,
744,1.60e-02,
745,-1.20e-02,
746,1.60e-02,
747,-1.20e-02,
748,-1.20e-02,
749,2.00e-02,
750,-8.00e-03,
751,1.60e-02,
752,1.60e-02,
753,-1.20e-02,
754,-1.20e-02,
755,1.60e-02,
756,-2.00e-02,
757,3.60e-02,
758,-4.00e-02,
759,1.60e-02,
760,-8.00e-03,
761,1.60e-02,
762,1.60e-02,
763,-1.20e-02,
764,1.60e-02,
765,-1.20e-02,
766,1.60e-02,
767,-1.20e-02,
768,1.60e-02,
769,-1.20e-02,
770,1.60e-02,
771,-1.20e-02,
772,1.60e-02,
773,-1.20e-02,
774,1.60e-02,
775,-1.20e-02,
776,1.60e-02,
777,-1.20e-02,
778,1.60e-02,
779,-1.20e-02,
780,1.60e-02,
781,-1.20e-02,
782,-8.00e-03,
783,1.60e-02,
784,1.60e-02,
785,-1.20e-02,
786,-8.00e-03,
787,1.60e-02,
788,-1.20e-02,
789,1.60e-02,
790,1.60e-02,
791,-8.00e-03,
792,-8.00e-03,
793,1.60e-02,
794,2.00e-02,
795,-1.20e-02,
796,1.60e-02,
797,-1.20e-02,
798,-1.20e-02,
799,2.00e-02,
800,1.60e-02,
801,-1.20e-02,
802,-1.20e-02,
803,2.00e-02,
804,1.60e-02,
805,-1.20e-02,
806,-8.00e-03,
807,1.60e-02,
808,-8.00e-03,
809,1.60e-02,
810,3.60e-02,
811,-2.80e-02,
812,-8.00e-03,
813,2.00e-02,
814,1.60e-02,
815,-8.00e-03,
816,2.00e-02,
817,-1.20e-02,
818,-1.20e-02,
819,2.00e-02,
820,-1.20e-02,
821,2.00e-02,
822,1.60e-02,
823,-1.20e-02,
824,-8.00e-03,
825,2.00e-02,
826,1.60e-02,
827,-8.00e-03,
828,1.60e-02,
829,-1.20e-02,
830,1.60e-02,
831,-1.20e-02,
832,1.60e-02,
833,-1.20e-02,
834,-8.00e-03,
835,1.60e-02,
836,-8.00e-03,
837,1.60e-02,
838,1.60e-02,
839,-1.20e-02,
840,1.60e-02,
841,-1.20e-02,
842,1.60e-02,
843,-1.20e-02,
844,1.60e-02,
845,-1.20e-02,
846,-8.00e-03,
847,2.00e-02,
848,1.60e-02,
849,-1.20e-02,
850,1.60e-02,
851,-1.20e-02,
852,-8.00e-03,
853,1.60e-02,
854,1.60e-02,
855,-1.20e-02,
856,1.60e-02,
857,-1.20e-02,
858,1.60e-02,
859,-1.20e-02,
860,1.60e-02,
861,-1.20e-02,
862,4.80e-02,
863,-2.40e-02,
864,-8.00e-03,
865,1.60e-02,
866,1.60e-02,
867,-1.20e-02,
868,1.60e-02,
869,-1.20e-02,
870,-1.20e-02,
871,2.00e-02,
872,1.60e-02,
873,-1.20e-02,
874,1.60e-02,
875,-1.20e-02,
876,1.60e-02,
877,-1.20e-02,
878,1.60e-02,
879,-1.20e-02,
880,1.60e-02,
881,-1.20e-02,
882,-8.00e-03,
883,1.60e-02,
884,-1.20e-02,
885,1.60e-02,
886,1.60e-02,
887,-1.20e-02,
888,1.60e-02,
889,-1.20e-02,
890,1.60e-02,
891,-1.20e-02,
892,-8.00e-03,
893,2.00e-02,
894,1.60e-02,
895,-1.20e-02,
896,1.60e-02,
897,-1.20e-02,
898,2.00e-02,
899,-1.20e-02,
900,-8.00e-03,
901,1.60e-02,
902,1.60e-02,
903,-1.20e-02,
904,-1.20e-02,
905,1.60e-02,
906,1.60e-02,
907,-1.20e-02,
908,2.00e-02,
909,-1.20e-02,
910,1.60e-02,
911,-8.00e-03,
912,1.60e-02,
913,-1.20e-02,
914,-1.20e-02,
915,2.00e-02,
916,1.60e-02,
917,-4.40e-02,
918,1.60e-02,
919,-1.20e-02,
920,1.60e-02,
921,-1.20e-02,
922,-1.20e-02,
923,2.00e-02,
924,1.60e-02,
925,-1.20e-02,
926,1.60e-02,
927,-1.20e-02,
928,2.00e-02,
929,-1.20e-02,
930,1.60e-02,
931,-1.20e-02,
932,1.60e-02,
933,-1.20e-02,
934,-8.00e-03,
935,2.00e-02,
936,1.60e-02,
937,-1.20e-02,
938,-8.00e-03,
939,1.60e-02,
940,1.60e-02,
941,-1.20e-02,
942,1.60e-02,
943,-1.20e-02,
944,1.60e-02,
945,-1.20e-02,
946,-1.20e-02,
947,1.60e-02,
948,1.60e-02,
949,-1.20e-02,
950,1.60e-02,
951,-1.20e-02,
952,1.60e-02,
953,-1.20e-02,
954,-1.20e-02,
955,1.60e-02,
956,1.60e-02,
957,-1.20e-02,
958,1.60e-02,
959,-8.00e-03,
960,1.60e-02,
961,-1.20e-02,
962,1.60e-02,
963,-1.20e-02,
964,-8.00e-03,
965,1.60e-02,
966,-8.00e-03,
967,1.60e-02,
968,-9.20e-02,
969,4.00e-02,
970,-1.20e-02,
971,1.60e-02,
972,-1.20e-02,
973,2.00e-02,
974,-1.20e-02,
975,2.00e-02,
976,1.60e-02,
977,-1.20e-02,
978,-8.00e-03,
979,1.60e-02,
980,-8.00e-03,
981,1.60e-02,
982,1.60e-02,
983,-1.20e-02,
984,-8.00e-03,
985,2.00e-02,
986,1.60e-02,
987,-1.20e-02,
988,1.60e-02,
989,-1.60e-02,
990,1.60e-02,
991,-1.20e-02,
992,-8.00e-03,
993,2.00e-02,
994,-8.00e-03,
995,1.60e-02,
996,1.60e-02,
997,-8.00e-03,
998,1.60e-02,
999,-1.20e-02,
1000,1.60e-02,
1001,-8.00e-03,
1002,1.60e-02,
1003,-1.20e-02,
1004,1.60e-02,
1005,-1.20e-02,
1006,1.60e-02,
1007,-1.20e-02,
1008,1.60e-02,
1009,-1.20e-02,
1010,-8.00e-03,
1011,2.00e-02,
1012,1.60e-02,
1013,-1.20e-02,
1014,-8.00e-03,
1015,2.00e-02,
1016,1.60e-02,
1017,-1.20e-02,
1018,1.60e-02,
1019,-1.20e-02,
1020,2.00e-02,
1021,-1.20e-02,
1022,-1.28e-01,
1023,2.80e-02,
1024,1.60e-02,
1025,-8.00e-03,
1026,-8.00e-03,
1027,1.60e-02,
1028,1.60e-02,
1029,-1.20e-02,
1030,1.60e-02,
1031,-1.20e-02,
1032,1.60e-02,
1033,-1.20e-02,
1034,1.60e-02,
1035,-1.20e-02,
1036,-1.20e-02,
1037,1.60e-02,
1038,1.60e-02,
1039,-1.20e-02,
1040,1.60e-02,
1041,-1.20e-02,
1042,1.60e-02,
1043,-1.20e-02,
1044,1.60e-02,
1045,-1.20e-02,
1046,-8.00e-03,
1047,1.60e-02,
1048,1.60e-02,
1049,-1.20e-02,
1050,-1.20e-02,
1051,2.00e-02,
1052,-1.20e-02,
1053,1.60e-02,
1054,1.60e-02,
1055,-1.20e-02,
1056,-1.20e-02,
1057,2.00e-02,
1058,1.60e-02,
1059,-1.20e-02,
1060,-1.20e-02,
1061,2.00e-02,
1062,2.00e-02,
1063,-1.20e-02,
1064,1.60e-02,
1065,-1.20e-02,
1066,1.60e-02,
1067,-1.20e-02,
1068,1.60e-02,
1069,-8.00e-03,
1070,1.60e-02,
1071,-1.20e-02,
1072,-1.20e-02,
1073,1.60e-02,
1074,4.80e-02,
1075,-2.40e-02,
1076,1.60e-02,
1077,-8.00e-03,
1078,1.60e-02,
1079,-1.20e-02,
1080,1.60e-02,
1081,-1.20e-02,
1082,1.60e-02,
1083,-1.20e-02,
1084,2.00e-02,
1085,-1.20e-02,
1086,1.60e-02,
1087,-1.20e-02,
1088,-1.20e-02,
1089,2.00e-02,
1090,1.60e-02,
1091,-1.20e-02,
1092,-8.00e-03,
1093,1.60e-02,
1094,-8.00e-03,
1095,2.00e-02,
1096,2.00e-02,
1097,-1.20e-02,
1098,1.60e-02,
1099,-1.20e-02,
1100,1.60e-02,
1101,-1.20e-02,
1102,-8.00e-03,
1103,2.00e-02,
1104,-1.20e-02,
1105,2.00e-02,
1106,1.60e-02,
1107,-1.20e-02,
1108,1.60e-02,
1109,-1.20e-02,
1110,2.00e-02,
1111,-1.20e-02,
1112,1.60e-02,
1113,-1.20e-02,
1114,1.60e-02,
1115,-1.20e-02,
1116,1.60e-02,
1117,-1.20e-02,
1118,1.60e-02,
1119,-1.20e-02,
1120,1.60e-02,
1121,-1.20e-02,
1122,1.60e-02,
1123,-1.20e-02,
1124,1.60e-02,
1125,-1.20e-02,
1126,1.60e-02,
1127,-9.20e-02,
1128,7.20e-02,
1129,-2.00e-02,
1130,1.60e-02,
1131,-1.20e-02,
1132,-8.00e-03,
1133,2.00e-02,
1134,1.60e-02,
1135,-1.20e-02,
1136,-1.20e-02,
1137,2.00e-02,
1138,-1.20e-02,
1139,2.00e-02,
1140,-8.00e-03,
1141,1.60e-02,
1142,1.60e-02,
1143,-8.00e-03,
1144,1.60e-02,
1145,-1.20e-02,
1146,-8.00e-03,
1147,2.00e-02,
1148,1.60e-02,
1149,-1.20e-02,
1150,2.00e-02,
1151,-8.00e-03,
1152,-8.00e-03,
1153,2.00e-02,
1154,-8.00e-03,
1155,1.60e-02,
1156,1.60e-02,
1157,-1.20e-02,
1158,1.60e-02,
1159,-1.20e-02,
1160,1.60e-02,
1161,-1.20e-02,
1162,-8.00e-03,
1163,1.60e-02,
1164,1.60e-02,
1165,-1.20e-02,
1166,1.60e-02,
1167,-1.20e-02,
1168,1.60e-02,
1169,-1.20e-02,
1170,-8.00e-03,
1171,1.60e-02,
1172,1.60e-02,
1173,-1.20e-02,
1174,1.60e-02,
1175,-1.20e-02,
1176,1.60e-02,
1177,-8.00e-03,
1178,1.60e-02,
1179,-1.20e-02,
1180,8.40e-02,
1181,-1.60e-02,
1182,-8.00e-03,
1183,2.00e-02,
1184,1.60e-02,
1185,-8.00e-03,
1186,-1.20e-02,
1187,2.00e-02,
1188,1.60e-02,
1189,-1.20e-02,
1190,1.60e-02,
1191,-1.20e-02,
1192,2.00e-02,
1193,-1.20e-02,
1194,-1.20e-02,
1195,1.60e-02,
1196,1.60e-02,
1197,-1.20e-02,
1198,1.60e-02,
1199,-1.20e-02,
