Laptop_2/LAPTOP_CHRGR_2_OFF/time domain/NewFile50.csv

X,CH1,Start,Increment,
Sequence,Volt,-1.500000e-01,2.000000e-04
0,-1.64e-01,
1,4.80e-02,
2,-8.00e-03,
3,1.60e-02,
4,-8.00e-03,
5,1.60e-02,
6,-8.00e-03,
7,1.60e-02,
8,1.60e-02,
9,-8.00e-03,
10,1.60e-02,
11,-8.00e-03,
12,-8.00e-03,
13,1.60e-02,
14,-8.00e-03,
15,1.60e-02,
16,-8.00e-03,
17,1.60e-02,
18,1.60e-02,
19,-1.20e-02,
20,-8.00e-03,
21,1.60e-02,
22,-8.00e-03,
23,1.60e-02,
24,-8.00e-03,
25,1.60e-02,
26,1.60e-02,
27,-8.00e-03,
28,-8.00e-03,
29,1.60e-02,
30,-8.00e-03,
31,1.60e-02,
32,-8.00e-03,
33,1.60e-02,
34,-8.00e-03,
35,1.60e-02,
36,-8.00e-03,
37,1.60e-02,
38,-8.00e-03,
39,1.60e-02,
40,1.60e-02,
41,-8.00e-03,
42,-8.00e-03,
43,1.60e-02,
44,-8.00e-03,
45,1.60e-02,
46,-8.00e-03,
47,1.60e-02,
48,-8.00e-03,
49,1.60e-02,
50,-8.00e-03,
51,1.60e-02,
52,-8.00e-03,
53,1.60e-02,
54,-2.40e-02,
55,5.20e-02,
56,-8.00e-03,
57,1.60e-02,
58,-8.00e-03,
59,1.60e-02,
60,-8.00e-03,
61,1.60e-02,
62,-8.00e-03,
63,1.60e-02,
64,1.60e-02,
65,-8.00e-03,
66,-8.00e-03,
67,1.60e-02,
68,-8.00e-03,
69,1.60e-02,
70,-8.00e-03,
71,1.60e-02,
72,-8.00e-03,
73,1.60e-02,
74,1.60e-02,
75,-8.00e-03,
76,-8.00e-03,
77,1.60e-02,
78,-8.00e-03,
79,1.60e-02,
80,-8.00e-03,
81,1.60e-02,
82,-8.00e-03,
83,1.60e-02,
84,-8.00e-03,
85,1.60e-02,
86,-8.00e-03,
87,1.60e-02,
88,-8.00e-03,
89,1.60e-02,
90,-8.00e-03,
91,1.60e-02,
92,-8.00e-03,
93,1.60e-02,
94,1.60e-02,
95,-1.20e-02,
96,-1.20e-02,
97,1.60e-02,
98,-8.00e-03,
99,1.60e-02,
100,-8.00e-03,
101,1.60e-02,
102,-8.00e-03,
103,1.60e-02,
104,-8.00e-03,
105,1.60e-02,
106,1.60e-02,
107,-1.20e-02,
108,-3.60e-02,
109,5.60e-02,
110,-8.00e-03,
111,1.60e-02,
112,-8.00e-03,
113,1.60e-02,
114,-8.00e-03,
115,1.60e-02,
116,-8.00e-03,
117,1.60e-02,
118,1.60e-02,
119,-1.20e-02,
120,1.60e-02,
121,-8.00e-03,
122,-1.20e-02,
123,1.60e-02,
124,-8.00e-03,
125,1.60e-02,
126,-8.00e-03,
127,1.60e-02,
128,-8.00e-03,
129,1.60e-02,
130,-8.00e-03,
131,1.60e-02,
132,1.60e-02,
133,-8.00e-03,
134,-8.00e-03,
135,1.60e-02,
136,-8.00e-03,
137,1.60e-02,
138,-8.00e-03,
139,1.60e-02,
140,-8.00e-03,
141,1.60e-02,
142,-8.00e-03,
143,1.60e-02,
144,-8.00e-03,
145,1.60e-02,
146,-8.00e-03,
147,1.60e-02,
148,-8.00e-03,
149,1.60e-02,
150,1.60e-02,
151,-8.00e-03,
152,1.60e-02,
153,-1.20e-02,
154,-8.00e-03,
155,1.60e-02,
156,-8.00e-03,
157,1.60e-02,
158,-8.00e-03,
159,1.60e-02,
160,-1.56e-01,
161,8.80e-02,
162,2.00e-02,
163,-3.20e-02,
164,-8.00e-03,
165,1.60e-02,
166,-8.00e-03,
167,1.60e-02,
168,-8.00e-03,
169,1.60e-02,
170,-8.00e-03,
171,1.60e-02,
172,-8.00e-03,
173,1.60e-02,
174,1.60e-02,
175,-8.00e-03,
176,-1.20e-02,
177,1.60e-02,
178,-8.00e-03,
179,1.60e-02,
180,-8.00e-03,
181,1.60e-02,
182,-8.00e-03,
183,1.60e-02,
184,-8.00e-03,
185,1.60e-02,
186,-8.00e-03,
187,1.60e-02,
188,-8.00e-03,
189,1.60e-02,
190,-8.00e-03,
191,1.60e-02,
192,-8.00e-03,
193,1.60e-02,
194,-8.00e-03,
195,1.60e-02,
196,-8.00e-03,
197,1.60e-02,
198,1.60e-02,
199,-1.20e-02,
200,-8.00e-03,
201,1.60e-02,
202,-8.00e-03,
203,1.60e-02,
204,-8.00e-03,
205,1.60e-02,
206,-8.00e-03,
207,1.60e-02,
208,-8.00e-03,
209,1.60e-02,
210,-8.00e-03,
211,1.60e-02,
212,-8.00e-03,
213,1.60e-02,
214,7.60e-02,
215,-8.80e-02,
216,1.60e-02,
217,-8.00e-03,
218,-8.00e-03,
219,1.60e-02,
220,-8.00e-03,
221,1.60e-02,
222,-8.00e-03,
223,1.60e-02,
224,-8.00e-03,
225,1.60e-02,
226,1.60e-02,
227,-8.00e-03,
228,-8.00e-03,
229,1.60e-02,
230,-8.00e-03,
231,1.60e-02,
232,-8.00e-03,
233,1.60e-02,
234,1.60e-02,
235,-8.00e-03,
236,-8.00e-03,
237,1.60e-02,
238,-8.00e-03,
239,1.60e-02,
240,-8.00e-03,
241,1.60e-02,
242,-8.00e-03,
243,1.60e-02,
244,-8.00e-03,
245,1.60e-02,
246,1.60e-02,
247,-1.20e-02,
248,-8.00e-03,
249,1.60e-02,
250,-8.00e-03,
251,1.60e-02,
252,-8.00e-03,
253,1.60e-02,
254,-8.00e-03,
255,1.60e-02,
256,-8.00e-03,
257,1.60e-02,
258,-8.00e-03,
259,1.60e-02,
260,-8.00e-03,
261,1.20e-02,
262,-8.00e-03,
263,1.60e-02,
264,1.60e-02,
265,-8.00e-03,
266,-8.00e-03,
267,1.60e-02,
268,-2.40e-02,
269,4.40e-02,
270,-8.00e-03,
271,1.60e-02,
272,-8.00e-03,
273,1.60e-02,
274,-8.00e-03,
275,1.60e-02,
276,1.60e-02,
277,-1.20e-02,
278,-8.00e-03,
279,1.60e-02,
280,-8.00e-03,
281,1.60e-02,
282,-8.00e-03,
283,1.60e-02,
284,-8.00e-03,
285,1.60e-02,
286,1.60e-02,
287,-1.20e-02,
288,1.60e-02,
289,-1.20e-02,
290,-8.00e-03,
291,1.60e-02,
292,-8.00e-03,
293,1.60e-02,
294,-8.00e-03,
295,1.60e-02,
296,-8.00e-03,
297,1.60e-02,
298,-8.00e-03,
299,1.60e-02,
300,-8.00e-03,
301,1.60e-02,
302,-8.00e-03,
303,1.60e-02,
304,-8.00e-03,
305,1.60e-02,
306,-8.00e-03,
307,1.60e-02,
308,1.60e-02,
309,-1.20e-02,
310,-8.00e-03,
311,1.60e-02,
312,-8.00e-03,
313,1.60e-02,
314,1.60e-02,
315,-8.00e-03,
316,-8.00e-03,
317,1.60e-02,
318,-8.00e-03,
319,1.60e-02,
320,-1.12e-01,
321,2.80e-02,
322,6.00e-02,
323,-2.00e-02,
324,-8.00e-03,
325,1.60e-02,
326,-8.00e-03,
327,1.60e-02,
328,-8.00e-03,
329,1.60e-02,
330,-8.00e-03,
331,1.60e-02,
332,-8.00e-03,
333,1.60e-02,
334,-8.00e-03,
335,1.60e-02,
336,-8.00e-03,
337,1.60e-02,
338,-8.00e-03,
339,1.60e-02,
340,-8.00e-03,
341,1.60e-02,
342,-8.00e-03,
343,1.60e-02,
344,-8.00e-03,
345,1.60e-02,
346,-8.00e-03,
347,1.60e-02,
348,-8.00e-03,
349,1.60e-02,
350,-8.00e-03,
351,1.60e-02,
352,-8.00e-03,
353,1.60e-02,
354,-8.00e-03,
355,1.60e-02,
356,-8.00e-03,
357,1.60e-02,
358,-8.00e-03,
359,1.60e-02,
360,-8.00e-03,
361,1.60e-02,
362,-8.00e-03,
363,1.60e-02,
364,-8.00e-03,
365,1.60e-02,
366,-8.00e-03,
367,1.60e-02,
368,-8.00e-03,
369,1.60e-02,
370,-8.00e-03,
371,1.60e-02,
372,-8.00e-03,
373,1.60e-02,
374,-1.60e-02,
375,8.00e-02,
376,-2.00e-02,
377,2.00e-02,
378,-8.00e-03,
379,1.60e-02,
380,-8.00e-03,
381,1.60e-02,
382,-8.00e-03,
383,1.60e-02,
384,-8.00e-03,
385,1.60e-02,
386,1.60e-02,
387,-8.00e-03,
388,-8.00e-03,
389,1.60e-02,
390,-8.00e-03,
391,1.60e-02,
392,-8.00e-03,
393,1.60e-02,
394,-8.00e-03,
395,1.60e-02,
396,-8.00e-03,
397,1.60e-02,
398,-8.00e-03,
399,1.60e-02,
400,-8.00e-03,
401,1.60e-02,
402,-8.00e-03,
403,1.60e-02,
404,-8.00e-03,
405,1.60e-02,
406,-8.00e-03,
407,1.60e-02,
408,1.60e-02,
409,-1.20e-02,
410,-8.00e-03,
411,1.60e-02,
412,-8.00e-03,
413,1.60e-02,
414,-8.00e-03,
415,1.60e-02,
416,-8.00e-03,
417,1.60e-02,
418,-8.00e-03,
419,1.60e-02,
420,-8.00e-03,
421,1.60e-02,
422,-8.00e-03,
423,1.60e-02,
424,-8.00e-03,
425,1.60e-02,
426,-8.00e-03,
427,1.60e-02,
428,-4.00e-02,
429,3.60e-02,
430,1.60e-02,
431,-8.00e-03,
432,-8.00e-03,
433,1.60e-02,
434,-8.00e-03,
435,1.60e-02,
436,-8.00e-03,
437,1.60e-02,
438,-8.00e-03,
439,1.60e-02,
440,-8.00e-03,
441,1.60e-02,
442,-8.00e-03,
443,1.60e-02,
444,-8.00e-03,
445,1.60e-02,
446,-8.00e-03,
447,1.60e-02,
448,-8.00e-03,
449,1.60e-02,
450,-8.00e-03,
451,1.60e-02,
452,1.60e-02,
453,-8.00e-03,
454,-8.00e-03,
455,1.60e-02,
456,1.60e-02,
457,-8.00e-03,
458,-8.00e-03,
459,1.60e-02,
460,-8.00e-03,
461,1.60e-02,
462,-8.00e-03,
463,1.60e-02,
464,1.60e-02,
465,-1.20e-02,
466,1.60e-02,
467,-8.00e-03,
468,-8.00e-03,
469,1.60e-02,
470,-8.00e-03,
471,1.60e-02,
472,-8.00e-03,
473,1.60e-02,
474,-8.00e-03,
475,1.20e-02,
476,-8.00e-03,
477,1.60e-02,
478,-8.00e-03,
479,1.60e-02,
480,-2.00e-02,
481,1.52e-01,
482,4.40e-02,
483,-1.60e-02,
484,-8.00e-03,
485,1.60e-02,
486,-8.00e-03,
487,1.60e-02,
488,-8.00e-03,
489,1.60e-02,
490,-8.00e-03,
491,1.60e-02,
492,-8.00e-03,
493,1.60e-02,
494,-8.00e-03,
495,1.60e-02,
496,-8.00e-03,
497,1.60e-02,
498,-8.00e-03,
499,1.60e-02,
500,-8.00e-03,
501,1.60e-02,
502,-8.00e-03,
503,1.60e-02,
504,-8.00e-03,
505,1.60e-02,
506,-8.00e-03,
507,1.60e-02,
508,-8.00e-03,
509,1.60e-02,
510,-8.00e-03,
511,1.60e-02,
512,-8.00e-03,
513,1.60e-02,
514,-8.00e-03,
515,1.60e-02,
516,-8.00e-03,
517,1.60e-02,
518,1.60e-02,
519,-8.00e-03,
520,-8.00e-03,
521,1.60e-02,
522,-8.00e-03,
523,1.60e-02,
524,-8.00e-03,
525,1.60e-02,
526,-8.00e-03,
527,1.20e-02,
528,1.60e-02,
529,-8.00e-03,
530,-8.00e-03,
531,1.60e-02,
532,1.60e-02,
533,-8.00e-03,
534,4.40e-02,
535,-2.40e-02,
536,-8.00e-03,
537,1.60e-02,
538,-8.00e-03,
539,1.60e-02,
540,-8.00e-03,
541,1.60e-02,
542,-8.00e-03,
543,1.60e-02,
544,-8.00e-03,
545,1.60e-02,
546,-8.00e-03,
547,1.60e-02,
548,-8.00e-03,
549,1.60e-02,
550,-8.00e-03,
551,1.60e-02,
552,-8.00e-03,
553,1.60e-02,
554,-8.00e-03,
555,1.60e-02,
556,-8.00e-03,
557,1.60e-02,
558,-8.00e-03,
559,1.60e-02,
560,-8.00e-03,
561,1.60e-02,
562,1.60e-02,
563,-8.00e-03,
564,-8.00e-03,
565,1.60e-02,
566,1.60e-02,
567,-1.20e-02,
568,-8.00e-03,
569,1.60e-02,
570,-8.00e-03,
571,1.60e-02,
572,-8.00e-03,
573,1.60e-02,
574,-8.00e-03,
575,1.60e-02,
576,-8.00e-03,
577,1.60e-02,
578,-8.00e-03,
579,1.60e-02,
580,-8.00e-03,
581,1.60e-02,
582,-8.00e-03,
583,1.60e-02,
584,-8.00e-03,
585,1.60e-02,
586,7.60e-02,
587,-1.04e-01,
588,-8.00e-03,
589,1.60e-02,
590,1.60e-02,
591,-1.20e-02,
592,-8.00e-03,
593,1.60e-02,
594,-8.00e-03,
595,1.60e-02,
596,1.60e-02,
597,-1.20e-02,
598,-8.00e-03,
599,1.60e-02,
600,-8.00e-03,
601,1.60e-02,
602,-8.00e-03,
603,1.60e-02,
604,-8.00e-03,
605,1.60e-02,
606,-8.00e-03,
607,1.60e-02,
608,-8.00e-03,
609,1.60e-02,
610,-8.00e-03,
611,1.60e-02,
612,-8.00e-03,
613,1.20e-02,
614,-8.00e-03,
615,1.60e-02,
616,-8.00e-03,
617,1.60e-02,
618,-8.00e-03,
619,1.60e-02,
620,-8.00e-03,
621,1.60e-02,
622,1.60e-02,
623,-1.20e-02,
624,-8.00e-03,
625,1.60e-02,
626,-8.00e-03,
627,1.60e-02,
628,-8.00e-03,
629,1.60e-02,
630,-8.00e-03,
631,1.60e-02,
632,-8.00e-03,
633,1.60e-02,
634,-1.20e-02,
635,1.60e-02,
636,-8.00e-03,
637,1.20e-02,
638,-8.00e-03,
639,1.60e-02,
640,-1.52e-01,
641,2.80e-02,
642,3.60e-02,
643,-2.00e-02,
644,-8.00e-03,
645,1.60e-02,
646,-8.00e-03,
647,1.60e-02,
648,-8.00e-03,
649,1.60e-02,
650,-8.00e-03,
651,1.60e-02,
652,-8.00e-03,
653,1.60e-02,
654,-8.00e-03,
655,1.60e-02,
656,-8.00e-03,
657,1.60e-02,
658,-8.00e-03,
659,1.60e-02,
660,-8.00e-03,
661,1.60e-02,
662,-8.00e-03,
663,1.60e-02,
664,-8.00e-03,
665,1.60e-02,
666,-8.00e-03,
667,1.60e-02,
668,-8.00e-03,
669,1.60e-02,
670,-8.00e-03,
671,1.60e-02,
672,-8.00e-03,
673,1.60e-02,
674,1.60e-02,
675,-8.00e-03,
676,-8.00e-03,
677,1.60e-02,
678,-8.00e-03,
679,1.60e-02,
680,-8.00e-03,
681,1.60e-02,
682,-8.00e-03,
683,1.60e-02,
684,1.60e-02,
685,-1.20e-02,
686,-8.00e-03,
687,1.60e-02,
688,-8.00e-03,
689,1.60e-02,
690,-8.00e-03,
691,1.60e-02,
692,-1.20e-02,
693,5.20e-02,
694,-1.20e-02,
695,4.00e-02,
696,-8.00e-03,
697,1.60e-02,
698,1.60e-02,
699,-1.20e-02,
700,-8.00e-03,
701,1.60e-02,
702,-8.00e-03,
703,1.60e-02,
704,-8.00e-03,
705,1.60e-02,
706,-8.00e-03,
707,1.60e-02,
708,-8.00e-03,
709,1.60e-02,
710,-8.00e-03,
711,1.60e-02,
712,-8.00e-03,
713,1.60e-02,
714,-8.00e-03,
715,1.60e-02,
716,-8.00e-03,
717,1.60e-02,
718,1.60e-02,
719,-8.00e-03,
720,-8.00e-03,
721,1.60e-02,
722,-8.00e-03,
723,1.60e-02,
724,1.60e-02,
725,-1.20e-02,
726,-8.00e-03,
727,1.60e-02,
728,-8.00e-03,
729,1.60e-02,
730,-8.00e-03,
731,1.60e-02,
732,-8.00e-03,
733,1.60e-02,
734,-8.00e-03,
735,1.60e-02,
736,-8.00e-03,
737,1.60e-02,
738,-8.00e-03,
739,1.60e-02,
740,-8.00e-03,
741,1.60e-02,
742,1.60e-02,
743,-1.20e-02,
744,-8.00e-03,
745,1.60e-02,
746,4.40e-02,
747,-6.80e-02,
748,-8.00e-03,
749,1.60e-02,
750,-8.00e-03,
751,1.60e-02,
752,-8.00e-03,
753,1.60e-02,
754,1.60e-02,
755,-1.20e-02,
756,-8.00e-03,
757,1.60e-02,
758,-8.00e-03,
759,1.20e-02,
760,-8.00e-03,
761,1.60e-02,
762,-8.00e-03,
763,1.20e-02,
764,-8.00e-03,
765,1.60e-02,
766,-8.00e-03,
767,1.60e-02,
768,-8.00e-03,
769,1.60e-02,
770,-8.00e-03,
771,1.60e-02,
772,-8.00e-03,
773,1.60e-02,
774,-8.00e-03,
775,1.60e-02,
776,-8.00e-03,
777,1.60e-02,
778,-8.00e-03,
779,1.60e-02,
780,-8.00e-03,
781,1.60e-02,
782,-8.00e-03,
783,1.60e-02,
784,-8.00e-03,
785,1.60e-02,
786,-8.00e-03,
787,1.60e-02,
788,-8.00e-03,
789,1.60e-02,
790,-8.00e-03,
791,1.60e-02,
792,1.60e-02,
793,-8.00e-03,
794,-8.00e-03,
795,1.60e-02,
796,-8.00e-03,
797,1.60e-02,
798,-8.00e-03,
799,1.60e-02,
800,-2.00e-02,
801,1.68e-01,
802,-8.00e-03,
803,1.60e-02,
804,1.60e-02,
805,-1.20e-02,
806,-8.00e-03,
807,1.60e-02,
808,-8.00e-03,
809,1.60e-02,
810,-8.00e-03,
811,1.60e-02,
812,-8.00e-03,
813,1.60e-02,
814,-8.00e-03,
815,1.60e-02,
816,-8.00e-03,
817,1.60e-02,
818,-8.00e-03,
819,1.60e-02,
820,-8.00e-03,
821,1.60e-02,
822,-8.00e-03,
823,1.60e-02,
824,-8.00e-03,
825,1.60e-02,
826,-8.00e-03,
827,1.60e-02,
828,1.60e-02,
829,-8.00e-03,
830,-8.00e-03,
831,1.60e-02,
832,-8.00e-03,
833,1.60e-02,
834,-8.00e-03,
835,1.60e-02,
836,1.60e-02,
837,-8.00e-03,
838,-8.00e-03,
839,1.60e-02,
840,-8.00e-03,
841,1.60e-02,
842,-8.00e-03,
843,1.60e-02,
844,-8.00e-03,
845,1.60e-02,
846,1.60e-02,
847,-8.00e-03,
848,-8.00e-03,
849,1.60e-02,
850,-8.00e-03,
851,1.60e-02,
852,1.60e-02,
853,-8.00e-03,
854,5.20e-02,
855,-2.40e-02,
856,-8.00e-03,
857,1.60e-02,
858,-8.00e-03,
859,1.60e-02,
860,1.60e-02,
861,-8.00e-03,
862,-8.00e-03,
863,1.60e-02,
864,-8.00e-03,
865,1.60e-02,
866,-8.00e-03,
867,1.60e-02,
868,-1.20e-02,
869,1.60e-02,
870,-8.00e-03,
871,1.60e-02,
872,1.60e-02,
873,-1.20e-02,
874,-8.00e-03,
875,1.60e-02,
876,-8.00e-03,
877,1.60e-02,
878,-8.00e-03,
879,1.60e-02,
880,-8.00e-03,
881,1.60e-02,
882,-8.00e-03,
883,1.60e-02,
884,-8.00e-03,
885,1.60e-02,
886,-8.00e-03,
887,1.60e-02,
888,-8.00e-03,
889,1.60e-02,
890,-8.00e-03,
891,1.60e-02,
892,-8.00e-03,
893,1.60e-02,
894,-8.00e-03,
895,1.60e-02,
896,-8.00e-03,
897,1.60e-02,
898,-8.00e-03,
899,1.60e-02,
900,-8.00e-03,
901,1.60e-02,
902,-8.00e-03,
903,1.60e-02,
904,-8.00e-03,
905,1.60e-02,
906,-1.20e-02,
907,6.40e-02,
908,-8.00e-03,
909,1.60e-02,
910,-8.00e-03,
911,1.60e-02,
912,-8.00e-03,
913,1.60e-02,
914,-8.00e-03,
915,1.60e-02,
916,-8.00e-03,
917,1.60e-02,
918,-8.00e-03,
919,1.60e-02,
920,-8.00e-03,
921,1.60e-02,
922,1.60e-02,
923,-1.20e-02,
924,-8.00e-03,
925,1.60e-02,
926,-8.00e-03,
927,1.60e-02,
928,-8.00e-03,
929,1.60e-02,
930,-8.00e-03,
931,1.60e-02,
932,-8.00e-03,
933,1.60e-02,
934,-8.00e-03,
935,1.60e-02,
936,-8.00e-03,
937,1.60e-02,
938,-8.00e-03,
939,1.60e-02,
940,1.60e-02,
941,-8.00e-03,
942,-8.00e-03,
943,1.60e-02,
944,-8.00e-03,
945,1.60e-02,
946,1.60e-02,
947,-1.20e-02,
948,1.60e-02,
949,-8.00e-03,
950,-8.00e-03,
951,1.60e-02,
952,-8.00e-03,
953,1.60e-02,
954,-8.00e-03,
955,1.60e-02,
956,-8.00e-03,
957,1.60e-02,
958,-8.00e-03,
959,1.60e-02,
960,-2.80e-02,
961,2.80e-02,
962,-8.00e-03,
963,1.60e-02,
964,-8.00e-03,
965,1.60e-02,
966,1.60e-02,
967,-8.00e-03,
968,-8.00e-03,
969,1.60e-02,
970,-8.00e-03,
971,1.60e-02,
972,-8.00e-03,
973,1.60e-02,
974,-8.00e-03,
975,1.60e-02,
976,-8.00e-03,
977,1.60e-02,
978,-8.00e-03,
979,1.60e-02,
980,-8.00e-03,
981,1.60e-02,
982,-8.00e-03,
983,1.60e-02,
984,-8.00e-03,
985,1.60e-02,
986,-8.00e-03,
987,1.60e-02,
988,-8.00e-03,
989,1.60e-02,
990,1.60e-02,
991,-8.00e-03,
992,-8.00e-03,
993,1.60e-02,
994,-8.00e-03,
995,1.60e-02,
996,-8.00e-03,
997,1.60e-02,
998,-8.00e-03,
999,1.60e-02,
1000,-8.00e-03,
1001,1.60e-02,
1002,-8.00e-03,
1003,1.60e-02,
1004,-8.00e-03,
1005,1.60e-02,
1006,-8.00e-03,
1007,1.60e-02,
1008,-8.00e-03,
1009,1.60e-02,
1010,-8.00e-03,
1011,1.60e-02,
1012,-2.80e-02,
1013,4.00e-02,
1014,-8.00e-03,
1015,1.60e-02,
1016,-8.00e-03,
1017,1.60e-02,
1018,-8.00e-03,
1019,1.60e-02,
1020,-8.00e-03,
1021,1.60e-02,
1022,-8.00e-03,
1023,1.60e-02,
1024,-8.00e-03,
1025,1.60e-02,
1026,-8.00e-03,
1027,1.60e-02,
1028,-8.00e-03,
1029,1.60e-02,
1030,-8.00e-03,
1031,1.60e-02,
1032,-8.00e-03,
1033,2.00e-02,
1034,-8.00e-03,
1035,1.60e-02,
1036,-8.00e-03,
1037,1.60e-02,
1038,-8.00e-03,
1039,2.00e-02,
1040,-8.00e-03,
1041,1.60e-02,
1042,-8.00e-03,
1043,1.60e-02,
1044,-8.00e-03,
1045,1.60e-02,
1046,-8.00e-03,
1047,1.60e-02,
1048,-8.00e-03,
1049,1.60e-02,
1050,-8.00e-03,
1051,1.60e-02,
1052,-8.00e-03,
1053,1.60e-02,
1054,-8.00e-03,
1055,1.60e-02,
1056,-8.00e-03,
1057,1.60e-02,
1058,-8.00e-03,
1059,1.60e-02,
1060,-8.00e-03,
1061,1.60e-02,
1062,-8.00e-03,
1063,1.60e-02,
1064,-8.00e-03,
1065,1.60e-02,
1066,-1.52e-01,
1067,1.28e-01,
1068,-8.00e-03,
1069,1.60e-02,
1070,-8.00e-03,
1071,1.60e-02,
1072,-8.00e-03,
1073,1.60e-02,
1074,-8.00e-03,
1075,1.60e-02,
1076,-8.00e-03,
1077,1.60e-02,
1078,-8.00e-03,
1079,1.60e-02,
1080,1.60e-02,
1081,-8.00e-03,
1082,-8.00e-03,
1083,1.60e-02,
1084,-8.00e-03,
1085,1.60e-02,
1086,-8.00e-03,
1087,1.60e-02,
1088,-8.00e-03,
1089,1.60e-02,
1090,-8.00e-03,
1091,1.60e-02,
1092,-8.00e-03,
1093,1.60e-02,
1094,-8.00e-03,
1095,1.60e-02,
1096,-8.00e-03,
1097,1.60e-02,
1098,-8.00e-03,
1099,1.60e-02,
1100,-8.00e-03,
1101,1.60e-02,
1102,-8.00e-03,
1103,1.60e-02,
1104,-8.00e-03,
1105,1.60e-02,
1106,-8.00e-03,
1107,1.60e-02,
1108,-8.00e-03,
1109,1.60e-02,
1110,1.60e-02,
1111,-8.00e-03,
1112,1.60e-02,
1113,-8.00e-03,
1114,-8.00e-03,
1115,1.60e-02,
1116,-8.00e-03,
1117,1.60e-02,
1118,-1.60e-02,
1119,1.04e-01,
1120,-8.00e-03,
1121,1.60e-02,
1122,-8.00e-03,
1123,1.60e-02,
1124,-8.00e-03,
1125,1.60e-02,
1126,-8.00e-03,
1127,1.60e-02,
1128,1.60e-02,
1129,-8.00e-03,
1130,-8.00e-03,
1131,1.60e-02,
1132,-8.00e-03,
1133,1.60e-02,
1134,-8.00e-03,
1135,1.60e-02,
1136,-8.00e-03,
1137,1.60e-02,
1138,-8.00e-03,
1139,1.60e-02,
1140,-8.00e-03,
1141,1.60e-02,
1142,-8.00e-03,
1143,1.60e-02,
1144,-8.00e-03,
1145,1.60e-02,
1146,-8.00e-03,
1147,1.60e-02,
1148,-8.00e-03,
1149,1.60e-02,
1150,-8.00e-03,
1151,1.60e-02,
1152,-8.00e-03,
1153,1.60e-02,
1154,-8.00e-03,
1155,1.60e-02,
1156,-8.00e-03,
1157,1.60e-02,
1158,-8.00e-03,
1159,1.60e-02,
1160,1.60e-02,
1161,-1.20e-02,
1162,1.60e-02,
1163,-1.20e-02,
1164,-8.00e-03,
1165,1.60e-02,
1166,-8.00e-03,
1167,1.60e-02,
1168,-8.00e-03,
1169,1.60e-02,
1170,3.20e-02,
1171,-1.60e-02,
1172,6.80e-02,
1173,-1.20e-02,
1174,-8.00e-03,
1175,1.60e-02,
1176,-8.00e-03,
1177,1.60e-02,
1178,-8.00e-03,
1179,2.00e-02,
1180,-8.00e-03,
1181,1.60e-02,
1182,-8.00e-03,
1183,1.60e-02,
1184,-8.00e-03,
1185,1.60e-02,
1186,-8.00e-03,
1187,1.60e-02,
1188,-8.00e-03,
1189,1.60e-02,
1190,-8.00e-03,
1191,1.60e-02,
1192,-8.00e-03,
1193,1.60e-02,
1194,-8.00e-03,
1195,1.60e-02,
1196,-8.00e-03,
1197,1.60e-02,
1198,-8.00e-03,
1199,1.60e-02,
