Laptop_2/LAPTOP_CHRGR_2_OFF/time domain/NewFile21.csv

X,CH1,Start,Increment,
Sequence,Volt,-1.500000e-01,2.000000e-04
0,-8.00e-03,
1,1.60e-02,
2,-8.00e-03,
3,1.60e-02,
4,-8.00e-03,
5,1.60e-02,
6,-8.00e-03,
7,1.60e-02,
8,-8.00e-03,
9,1.60e-02,
10,1.60e-02,
11,-8.00e-03,
12,1.60e-02,
13,-1.20e-02,
14,-8.00e-03,
15,1.60e-02,
16,-8.00e-03,
17,1.60e-02,
18,-8.00e-03,
19,1.60e-02,
20,-8.00e-03,
21,1.60e-02,
22,-8.00e-03,
23,1.60e-02,
24,-8.00e-03,
25,1.60e-02,
26,-8.00e-03,
27,1.60e-02,
28,-8.00e-03,
29,1.60e-02,
30,-8.00e-03,
31,1.60e-02,
32,-8.00e-03,
33,1.60e-02,
34,-8.00e-03,
35,1.60e-02,
36,-8.00e-03,
37,1.60e-02,
38,1.60e-02,
39,-8.00e-03,
40,-8.00e-03,
41,1.60e-02,
42,-8.00e-03,
43,1.60e-02,
44,1.60e-02,
45,-8.00e-03,
46,-1.04e-01,
47,4.80e-02,
48,1.60e-02,
49,-8.00e-03,
50,-8.00e-03,
51,1.60e-02,
52,1.60e-02,
53,-1.20e-02,
54,-8.00e-03,
55,1.60e-02,
56,-8.00e-03,
57,1.60e-02,
58,1.60e-02,
59,-1.20e-02,
60,1.60e-02,
61,-8.00e-03,
62,-8.00e-03,
63,1.60e-02,
64,-8.00e-03,
65,1.60e-02,
66,-8.00e-03,
67,1.60e-02,
68,-8.00e-03,
69,1.60e-02,
70,-8.00e-03,
71,1.60e-02,
72,-8.00e-03,
73,1.60e-02,
74,-8.00e-03,
75,1.60e-02,
76,-8.00e-03,
77,1.60e-02,
78,-8.00e-03,
79,1.60e-02,
80,-8.00e-03,
81,1.60e-02,
82,1.60e-02,
83,-8.00e-03,
84,-8.00e-03,
85,1.60e-02,
86,-8.00e-03,
87,1.60e-02,
88,-8.00e-03,
89,1.60e-02,
90,-8.00e-03,
91,1.60e-02,
92,-8.00e-03,
93,1.60e-02,
94,-8.00e-03,
95,1.60e-02,
96,-8.00e-03,
97,1.60e-02,
98,-8.00e-03,
99,1.60e-02,
100,1.60e-02,
101,-2.80e-02,
102,1.60e-02,
103,-8.00e-03,
104,-8.00e-03,
105,1.60e-02,
106,1.60e-02,
107,-8.00e-03,
108,-8.00e-03,
109,1.60e-02,
110,-8.00e-03,
111,1.60e-02,
112,1.60e-02,
113,-8.00e-03,
114,-8.00e-03,
115,1.60e-02,
116,-8.00e-03,
117,1.60e-02,
118,-8.00e-03,
119,1.60e-02,
120,1.60e-02,
121,-1.20e-02,
122,-8.00e-03,
123,1.60e-02,
124,-8.00e-03,
125,1.60e-02,
126,1.60e-02,
127,-8.00e-03,
128,1.60e-02,
129,-8.00e-03,
130,1.60e-02,
131,-8.00e-03,
132,-8.00e-03,
133,1.60e-02,
134,-8.00e-03,
135,1.60e-02,
136,1.60e-02,
137,-8.00e-03,
138,-8.00e-03,
139,1.60e-02,
140,-8.00e-03,
141,1.60e-02,
142,-8.00e-03,
143,1.60e-02,
144,-8.00e-03,
145,1.60e-02,
146,-8.00e-03,
147,1.60e-02,
148,1.60e-02,
149,-8.00e-03,
150,1.60e-02,
151,-8.00e-03,
152,1.60e-02,
153,-6.00e-02,
154,-8.00e-03,
155,1.60e-02,
156,-8.00e-03,
157,1.60e-02,
158,-8.00e-03,
159,1.60e-02,
160,1.60e-02,
161,-8.00e-03,
162,-8.00e-03,
163,1.60e-02,
164,-8.00e-03,
165,1.60e-02,
166,-8.00e-03,
167,1.60e-02,
168,-8.00e-03,
169,1.60e-02,
170,-8.00e-03,
171,1.60e-02,
172,-8.00e-03,
173,1.60e-02,
174,-8.00e-03,
175,1.60e-02,
176,1.60e-02,
177,-8.00e-03,
178,1.60e-02,
179,-8.00e-03,
180,-8.00e-03,
181,1.60e-02,
182,-8.00e-03,
183,1.60e-02,
184,1.60e-02,
185,-8.00e-03,
186,-8.00e-03,
187,1.60e-02,
188,1.60e-02,
189,-8.00e-03,
190,1.60e-02,
191,-8.00e-03,
192,1.60e-02,
193,-8.00e-03,
194,-8.00e-03,
195,1.60e-02,
196,1.60e-02,
197,-8.00e-03,
198,1.60e-02,
199,-8.00e-03,
200,-8.00e-03,
201,1.60e-02,
202,-8.00e-03,
203,1.60e-02,
204,-1.20e-02,
205,2.40e-02,
206,1.60e-02,
207,-2.80e-02,
208,-8.00e-03,
209,1.60e-02,
210,-8.00e-03,
211,1.60e-02,
212,1.60e-02,
213,-8.00e-03,
214,-8.00e-03,
215,1.60e-02,
216,1.60e-02,
217,-8.00e-03,
218,-8.00e-03,
219,1.60e-02,
220,-8.00e-03,
221,1.60e-02,
222,1.60e-02,
223,-8.00e-03,
224,1.60e-02,
225,-8.00e-03,
226,1.20e-02,
227,-8.00e-03,
228,-8.00e-03,
229,1.60e-02,
230,-8.00e-03,
231,1.60e-02,
232,-8.00e-03,
233,1.60e-02,
234,1.60e-02,
235,-8.00e-03,
236,-8.00e-03,
237,1.60e-02,
238,-8.00e-03,
239,1.60e-02,
240,1.20e-02,
241,-8.00e-03,
242,-8.00e-03,
243,1.60e-02,
244,-8.00e-03,
245,1.60e-02,
246,-8.00e-03,
247,1.60e-02,
248,-8.00e-03,
249,1.60e-02,
250,1.60e-02,
251,-8.00e-03,
252,1.60e-02,
253,-8.00e-03,
254,1.20e-02,
255,-8.00e-03,
256,-8.00e-03,
257,1.60e-02,
258,-8.00e-03,
259,3.20e-02,
260,2.40e-02,
261,-1.20e-02,
262,-8.00e-03,
263,1.60e-02,
264,1.60e-02,
265,-1.20e-02,
266,-8.00e-03,
267,1.60e-02,
268,-8.00e-03,
269,1.60e-02,
270,-8.00e-03,
271,1.60e-02,
272,-8.00e-03,
273,1.60e-02,
274,-8.00e-03,
275,1.60e-02,
276,1.60e-02,
277,-8.00e-03,
278,-8.00e-03,
279,1.60e-02,
280,-8.00e-03,
281,1.60e-02,
282,-8.00e-03,
283,1.60e-02,
284,-8.00e-03,
285,1.60e-02,
286,-8.00e-03,
287,1.60e-02,
288,-8.00e-03,
289,1.60e-02,
290,-8.00e-03,
291,1.60e-02,
292,-8.00e-03,
293,1.60e-02,
294,-8.00e-03,
295,1.60e-02,
296,-8.00e-03,
297,1.20e-02,
298,-8.00e-03,
299,1.60e-02,
300,-8.00e-03,
301,2.00e-02,
302,-8.00e-03,
303,1.60e-02,
304,-8.00e-03,
305,1.60e-02,
306,-8.00e-03,
307,1.60e-02,
308,-8.00e-03,
309,1.60e-02,
310,1.60e-02,
311,-8.00e-03,
312,1.60e-02,
313,-8.40e-02,
314,-8.00e-03,
315,1.60e-02,
316,-8.00e-03,
317,1.60e-02,
318,-8.00e-03,
319,1.60e-02,
320,-8.00e-03,
321,1.60e-02,
322,1.60e-02,
323,-8.00e-03,
324,-8.00e-03,
325,1.60e-02,
326,-8.00e-03,
327,1.60e-02,
328,-8.00e-03,
329,1.60e-02,
330,-8.00e-03,
331,1.60e-02,
332,-8.00e-03,
333,1.60e-02,
334,1.60e-02,
335,-8.00e-03,
336,1.60e-02,
337,-1.20e-02,
338,1.60e-02,
339,-8.00e-03,
340,-8.00e-03,
341,1.60e-02,
342,-8.00e-03,
343,1.60e-02,
344,-8.00e-03,
345,1.60e-02,
346,-8.00e-03,
347,1.60e-02,
348,-8.00e-03,
349,1.60e-02,
350,-8.00e-03,
351,1.60e-02,
352,-8.00e-03,
353,1.60e-02,
354,-8.00e-03,
355,1.60e-02,
356,-8.00e-03,
357,1.60e-02,
358,-8.00e-03,
359,1.60e-02,
360,-8.00e-03,
361,1.60e-02,
362,-8.00e-03,
363,1.60e-02,
364,1.60e-02,
365,-1.60e-02,
366,-8.00e-03,
367,1.60e-02,
368,1.60e-02,
369,-8.00e-03,
370,-8.00e-03,
371,1.60e-02,
372,-8.00e-03,
373,1.60e-02,
374,-8.00e-03,
375,1.60e-02,
376,-8.00e-03,
377,1.60e-02,
378,-8.00e-03,
379,1.60e-02,
380,-8.00e-03,
381,1.20e-02,
382,1.60e-02,
383,-1.20e-02,
384,-8.00e-03,
385,1.60e-02,
386,-8.00e-03,
387,1.60e-02,
388,-8.00e-03,
389,1.60e-02,
390,-8.00e-03,
391,1.60e-02,
392,-8.00e-03,
393,1.60e-02,
394,-8.00e-03,
395,1.60e-02,
396,-8.00e-03,
397,1.60e-02,
398,-8.00e-03,
399,1.60e-02,
400,-8.00e-03,
401,1.60e-02,
402,-8.00e-03,
403,1.60e-02,
404,-8.00e-03,
405,1.60e-02,
406,-8.00e-03,
407,1.60e-02,
408,-8.00e-03,
409,1.60e-02,
410,-8.00e-03,
411,1.60e-02,
412,-8.00e-03,
413,1.60e-02,
414,-8.00e-03,
415,1.60e-02,
416,-8.00e-03,
417,1.60e-02,
418,-9.20e-02,
419,4.40e-02,
420,1.60e-02,
421,-8.00e-03,
422,-8.00e-03,
423,1.60e-02,
424,-8.00e-03,
425,1.60e-02,
426,-8.00e-03,
427,1.60e-02,
428,-8.00e-03,
429,1.60e-02,
430,1.60e-02,
431,-1.20e-02,
432,-8.00e-03,
433,1.60e-02,
434,-8.00e-03,
435,1.60e-02,
436,-8.00e-03,
437,1.60e-02,
438,-8.00e-03,
439,1.60e-02,
440,-8.00e-03,
441,1.60e-02,
442,-8.00e-03,
443,1.60e-02,
444,-8.00e-03,
445,1.60e-02,
446,-8.00e-03,
447,1.60e-02,
448,-8.00e-03,
449,1.60e-02,
450,-8.00e-03,
451,1.60e-02,
452,-8.00e-03,
453,1.60e-02,
454,-8.00e-03,
455,1.60e-02,
456,-8.00e-03,
457,1.60e-02,
458,-8.00e-03,
459,1.60e-02,
460,-8.00e-03,
461,1.60e-02,
462,-8.00e-03,
463,1.60e-02,
464,-8.00e-03,
465,1.60e-02,
466,-8.00e-03,
467,1.60e-02,
468,-8.00e-03,
469,2.00e-02,
470,-8.00e-03,
471,1.60e-02,
472,3.60e-02,
473,-2.00e-02,
474,-8.00e-03,
475,1.60e-02,
476,-8.00e-03,
477,1.60e-02,
478,-8.00e-03,
479,1.60e-02,
480,1.60e-02,
481,-8.00e-03,
482,-8.00e-03,
483,1.60e-02,
484,-8.00e-03,
485,1.60e-02,
486,-8.00e-03,
487,1.60e-02,
488,-8.00e-03,
489,1.60e-02,
490,-8.00e-03,
491,1.60e-02,
492,-8.00e-03,
493,1.60e-02,
494,-8.00e-03,
495,1.60e-02,
496,-8.00e-03,
497,1.60e-02,
498,-8.00e-03,
499,1.60e-02,
500,-8.00e-03,
501,1.60e-02,
502,-8.00e-03,
503,1.60e-02,
504,-8.00e-03,
505,1.60e-02,
506,-8.00e-03,
507,1.60e-02,
508,-1.20e-02,
509,1.60e-02,
510,-8.00e-03,
511,1.60e-02,
512,-8.00e-03,
513,1.60e-02,
514,-8.00e-03,
515,1.60e-02,
516,-8.00e-03,
517,1.60e-02,
518,-8.00e-03,
519,1.60e-02,
520,-8.00e-03,
521,1.60e-02,
522,-8.00e-03,
523,1.60e-02,
524,-1.20e-02,
525,4.40e-02,
526,-8.00e-03,
527,1.60e-02,
528,-8.00e-03,
529,1.60e-02,
530,1.60e-02,
531,-8.00e-03,
532,-8.00e-03,
533,1.60e-02,
534,-8.00e-03,
535,1.60e-02,
536,-8.00e-03,
537,1.60e-02,
538,-8.00e-03,
539,1.60e-02,
540,-8.00e-03,
541,1.60e-02,
542,-8.00e-03,
543,1.60e-02,
544,-8.00e-03,
545,1.60e-02,
546,-8.00e-03,
547,1.60e-02,
548,-8.00e-03,
549,1.60e-02,
550,-8.00e-03,
551,2.00e-02,
552,-8.00e-03,
553,1.60e-02,
554,-8.00e-03,
555,1.60e-02,
556,1.60e-02,
557,-8.00e-03,
558,-8.00e-03,
559,1.60e-02,
560,-8.00e-03,
561,1.60e-02,
562,-8.00e-03,
563,1.60e-02,
564,-8.00e-03,
565,1.60e-02,
566,-8.00e-03,
567,1.60e-02,
568,-8.00e-03,
569,1.60e-02,
570,1.60e-02,
571,-8.00e-03,
572,-8.00e-03,
573,1.60e-02,
574,1.60e-02,
575,-8.00e-03,
576,-8.00e-03,
577,1.60e-02,
578,1.60e-02,
579,-6.40e-02,
580,-8.00e-03,
581,1.60e-02,
582,1.60e-02,
583,-8.00e-03,
584,1.60e-02,
585,-8.00e-03,
586,-8.00e-03,
587,1.60e-02,
588,1.60e-02,
589,-8.00e-03,
590,-8.00e-03,
591,1.60e-02,
592,-8.00e-03,
593,2.00e-02,
594,1.60e-02,
595,-8.00e-03,
596,-8.00e-03,
597,1.60e-02,
598,-8.00e-03,
599,1.60e-02,
600,-8.00e-03,
601,1.60e-02,
602,1.60e-02,
603,-8.00e-03,
604,1.60e-02,
605,-8.00e-03,
606,-8.00e-03,
607,1.60e-02,
608,1.60e-02,
609,-8.00e-03,
610,-8.00e-03,
611,1.60e-02,
612,-8.00e-03,
613,1.60e-02,
614,-8.00e-03,
615,1.60e-02,
616,-8.00e-03,
617,1.60e-02,
618,-8.00e-03,
619,1.60e-02,
620,1.60e-02,
621,-8.00e-03,
622,-8.00e-03,
623,1.60e-02,
624,1.60e-02,
625,-8.00e-03,
626,1.60e-02,
627,-8.00e-03,
628,-8.00e-03,
629,1.60e-02,
630,-1.60e-02,
631,2.00e-02,
632,-8.00e-03,
633,1.60e-02,
634,-8.00e-03,
635,1.60e-02,
636,-8.00e-03,
637,1.60e-02,
638,1.60e-02,
639,-8.00e-03,
640,-8.00e-03,
641,1.60e-02,
642,-8.00e-03,
643,1.60e-02,
644,1.60e-02,
645,-8.00e-03,
646,1.60e-02,
647,-8.00e-03,
648,1.60e-02,
649,-8.00e-03,
650,1.60e-02,
651,-8.00e-03,
652,1.60e-02,
653,-8.00e-03,
654,-8.00e-03,
655,1.60e-02,
656,-8.00e-03,
657,1.60e-02,
658,-8.00e-03,
659,1.60e-02,
660,1.60e-02,
661,-8.00e-03,
662,-8.00e-03,
663,1.60e-02,
664,-8.00e-03,
665,1.60e-02,
666,-8.00e-03,
667,1.60e-02,
668,1.60e-02,
669,-1.20e-02,
670,-8.00e-03,
671,1.60e-02,
672,-8.00e-03,
673,1.60e-02,
674,1.60e-02,
675,-1.20e-02,
676,-8.00e-03,
677,1.60e-02,
678,1.60e-02,
679,-8.00e-03,
680,1.60e-02,
681,-8.00e-03,
682,-8.00e-03,
683,4.00e-02,
684,-8.00e-03,
685,3.20e-02,
686,-8.00e-03,
687,1.60e-02,
688,1.60e-02,
689,-8.00e-03,
690,1.60e-02,
691,-8.00e-03,
692,-8.00e-03,
693,1.60e-02,
694,-8.00e-03,
695,1.60e-02,
696,1.60e-02,
697,-8.00e-03,
698,-8.00e-03,
699,1.60e-02,
700,-8.00e-03,
701,1.60e-02,
702,-8.00e-03,
703,1.60e-02,
704,-8.00e-03,
705,1.60e-02,
706,-8.00e-03,
707,1.60e-02,
708,-8.00e-03,
709,1.60e-02,
710,-8.00e-03,
711,1.60e-02,
712,-8.00e-03,
713,1.60e-02,
714,1.60e-02,
715,-1.20e-02,
716,1.60e-02,
717,-8.00e-03,
718,-8.00e-03,
719,1.60e-02,
720,1.60e-02,
721,-8.00e-03,
722,1.60e-02,
723,-8.00e-03,
724,-8.00e-03,
725,1.60e-02,
726,-8.00e-03,
727,1.60e-02,
728,-8.00e-03,
729,1.60e-02,
730,1.60e-02,
731,-8.00e-03,
732,1.60e-02,
733,-8.00e-03,
734,-8.00e-03,
735,1.60e-02,
736,4.80e-02,
737,-1.20e-02,
738,1.60e-02,
739,-8.00e-03,
740,-8.00e-03,
741,1.60e-02,
742,-8.00e-03,
743,1.60e-02,
744,-8.00e-03,
745,1.60e-02,
746,-8.00e-03,
747,1.60e-02,
748,-8.00e-03,
749,1.60e-02,
750,-8.00e-03,
751,1.60e-02,
752,-8.00e-03,
753,1.60e-02,
754,-8.00e-03,
755,1.60e-02,
756,1.60e-02,
757,-1.20e-02,
758,-8.00e-03,
759,1.60e-02,
760,-8.00e-03,
761,1.60e-02,
762,-8.00e-03,
763,1.60e-02,
764,-8.00e-03,
765,2.00e-02,
766,-8.00e-03,
767,1.60e-02,
768,-8.00e-03,
769,1.60e-02,
770,-8.00e-03,
771,1.60e-02,
772,-8.00e-03,
773,1.60e-02,
774,-8.00e-03,
775,1.60e-02,
776,1.60e-02,
777,-8.00e-03,
778,-8.00e-03,
779,1.60e-02,
780,-8.00e-03,
781,1.60e-02,
782,1.60e-02,
783,-8.00e-03,
784,-8.00e-03,
785,1.60e-02,
786,-8.00e-03,
787,1.60e-02,
788,-8.00e-03,
789,1.60e-02,
790,7.20e-02,
791,-1.60e-02,
792,-8.00e-03,
793,1.60e-02,
794,-8.00e-03,
795,1.60e-02,
796,-8.00e-03,
797,1.60e-02,
798,1.60e-02,
799,-8.00e-03,
800,1.60e-02,
801,-1.20e-02,
802,-8.00e-03,
803,1.60e-02,
804,-8.00e-03,
805,1.60e-02,
806,-8.00e-03,
807,1.60e-02,
808,-8.00e-03,
809,1.60e-02,
810,-8.00e-03,
811,1.60e-02,
812,-8.00e-03,
813,1.60e-02,
814,-8.00e-03,
815,1.60e-02,
816,-8.00e-03,
817,1.60e-02,
818,-8.00e-03,
819,1.60e-02,
820,1.60e-02,
821,-1.20e-02,
822,-8.00e-03,
823,1.60e-02,
824,1.60e-02,
825,-8.00e-03,
826,-8.00e-03,
827,2.00e-02,
828,-8.00e-03,
829,1.60e-02,
830,1.60e-02,
831,-8.00e-03,
832,-8.00e-03,
833,1.60e-02,
834,-8.00e-03,
835,1.60e-02,
836,1.60e-02,
837,-1.20e-02,
838,1.60e-02,
839,-8.00e-03,
840,-8.00e-03,
841,1.60e-02,
842,5.60e-02,
843,-1.60e-02,
844,1.60e-02,
845,-1.20e-02,
846,-8.00e-03,
847,1.60e-02,
848,-8.00e-03,
849,1.60e-02,
850,-8.00e-03,
851,1.60e-02,
852,-8.00e-03,
853,1.60e-02,
854,-8.00e-03,
855,1.60e-02,
856,-8.00e-03,
857,1.60e-02,
858,1.60e-02,
859,-8.00e-03,
860,-8.00e-03,
861,1.60e-02,
862,1.60e-02,
863,-8.00e-03,
864,-8.00e-03,
865,1.60e-02,
866,-8.00e-03,
867,1.60e-02,
868,-8.00e-03,
869,1.60e-02,
870,1.60e-02,
871,-8.00e-03,
872,1.60e-02,
873,-8.00e-03,
874,1.60e-02,
875,-8.00e-03,
876,-8.00e-03,
877,1.60e-02,
878,1.60e-02,
879,-8.00e-03,
880,-8.00e-03,
881,1.60e-02,
882,-8.00e-03,
883,1.60e-02,
884,-8.00e-03,
885,1.60e-02,
886,1.60e-02,
887,-8.00e-03,
888,-8.00e-03,
889,1.60e-02,
890,-8.00e-03,
891,1.60e-02,
892,-8.00e-03,
893,1.60e-02,
894,7.60e-02,
895,-2.00e-02,
896,-8.00e-03,
897,1.60e-02,
898,1.60e-02,
899,-8.00e-03,
900,-8.00e-03,
901,1.60e-02,
902,-8.00e-03,
903,1.60e-02,
904,-8.00e-03,
905,1.60e-02,
906,-8.00e-03,
907,1.60e-02,
908,-8.00e-03,
909,2.00e-02,
910,-8.00e-03,
911,1.60e-02,
912,-8.00e-03,
913,1.60e-02,
914,-8.00e-03,
915,1.60e-02,
916,-8.00e-03,
917,1.60e-02,
918,-8.00e-03,
919,1.60e-02,
920,1.60e-02,
921,-1.20e-02,
922,-8.00e-03,
923,1.60e-02,
924,-8.00e-03,
925,1.60e-02,
926,-8.00e-03,
927,1.60e-02,
928,-8.00e-03,
929,1.60e-02,
930,-8.00e-03,
931,1.60e-02,
932,1.60e-02,
933,-1.20e-02,
934,-8.00e-03,
935,1.60e-02,
936,-8.00e-03,
937,1.60e-02,
938,-8.00e-03,
939,1.60e-02,
940,-8.00e-03,
941,1.60e-02,
942,1.20e-02,
943,-8.00e-03,
944,-8.00e-03,
945,1.60e-02,
946,-8.00e-03,
947,1.60e-02,
948,-8.00e-03,
949,2.80e-02,
950,-8.00e-03,
951,1.60e-02,
952,-8.00e-03,
953,1.60e-02,
954,-8.00e-03,
955,1.60e-02,
956,-8.00e-03,
957,1.60e-02,
958,1.60e-02,
959,-8.00e-03,
960,-8.00e-03,
961,1.60e-02,
962,-8.00e-03,
963,1.60e-02,
964,-8.00e-03,
965,1.60e-02,
966,-8.00e-03,
967,1.60e-02,
968,-8.00e-03,
969,1.60e-02,
970,-1.20e-02,
971,1.60e-02,
972,-8.00e-03,
973,1.60e-02,
974,-8.00e-03,
975,1.60e-02,
976,1.60e-02,
977,-8.00e-03,
978,-8.00e-03,
979,1.60e-02,
980,1.60e-02,
981,-8.00e-03,
982,1.60e-02,
983,-8.00e-03,
984,-8.00e-03,
985,1.60e-02,
986,-8.00e-03,
987,1.60e-02,
988,-8.00e-03,
989,1.60e-02,
990,-8.00e-03,
991,1.60e-02,
992,1.60e-02,
993,-8.00e-03,
994,-8.00e-03,
995,1.60e-02,
996,-8.00e-03,
997,1.60e-02,
998,1.60e-02,
999,-1.20e-02,
1000,-1.20e-02,
1001,9.20e-02,
1002,-8.00e-03,
1003,1.60e-02,
1004,1.60e-02,
1005,-1.20e-02,
1006,1.60e-02,
1007,-8.00e-03,
1008,-8.00e-03,
1009,1.60e-02,
1010,-8.00e-03,
1011,1.60e-02,
1012,-8.00e-03,
1013,1.60e-02,
1014,-8.00e-03,
1015,1.60e-02,
1016,1.60e-02,
1017,-8.00e-03,
1018,-8.00e-03,
1019,1.60e-02,
1020,1.60e-02,
1021,-8.00e-03,
1022,-8.00e-03,
1023,1.60e-02,
1024,-8.00e-03,
1025,1.60e-02,
1026,1.60e-02,
1027,-8.00e-03,
1028,-8.00e-03,
1029,1.60e-02,
1030,-8.00e-03,
1031,1.60e-02,
1032,1.60e-02,
1033,-8.00e-03,
1034,-8.00e-03,
1035,1.60e-02,
1036,-8.00e-03,
1037,1.60e-02,
1038,-8.00e-03,
1039,1.60e-02,
1040,1.60e-02,
1041,-8.00e-03,
1042,1.60e-02,
1043,-8.00e-03,
1044,-8.00e-03,
1045,1.60e-02,
1046,-8.00e-03,
1047,1.60e-02,
1048,1.60e-02,
1049,-8.00e-03,
1050,-8.00e-03,
1051,1.60e-02,
1052,-8.00e-03,
1053,1.60e-02,
1054,-8.00e-02,
1055,1.60e-02,
1056,-8.00e-03,
1057,1.60e-02,
1058,1.60e-02,
1059,-8.00e-03,
1060,-8.00e-03,
1061,1.60e-02,
1062,1.60e-02,
1063,-8.00e-03,
1064,-8.00e-03,
1065,1.60e-02,
1066,-8.00e-03,
1067,1.60e-02,
1068,-8.00e-03,
1069,1.60e-02,
1070,-8.00e-03,
1071,1.60e-02,
1072,-8.00e-03,
1073,1.60e-02,
1074,-8.00e-03,
1075,1.60e-02,
1076,-8.00e-03,
1077,1.60e-02,
1078,-8.00e-03,
1079,1.60e-02,
1080,-8.00e-03,
1081,1.60e-02,
1082,-8.00e-03,
1083,1.60e-02,
1084,-8.00e-03,
1085,2.00e-02,
1086,1.60e-02,
1087,-8.00e-03,
1088,-8.00e-03,
1089,1.60e-02,
1090,-8.00e-03,
1091,1.60e-02,
1092,-8.00e-03,
1093,1.60e-02,
1094,-8.00e-03,
1095,1.60e-02,
1096,1.60e-02,
1097,-8.00e-03,
1098,-8.00e-03,
1099,1.60e-02,
1100,-8.00e-03,
1101,1.60e-02,
1102,1.60e-02,
1103,-8.00e-03,
1104,-8.00e-03,
1105,1.60e-02,
1106,1.60e-02,
1107,-4.00e-02,
1108,-8.00e-03,
1109,1.60e-02,
1110,-8.00e-03,
1111,1.60e-02,
1112,-8.00e-03,
1113,1.60e-02,
1114,-8.00e-03,
1115,1.60e-02,
1116,-8.00e-03,
1117,1.60e-02,
1118,-8.00e-03,
1119,1.60e-02,
1120,-8.00e-03,
1121,1.60e-02,
1122,-8.00e-03,
1123,1.60e-02,
1124,-8.00e-03,
1125,1.60e-02,
1126,-8.00e-03,
1127,1.60e-02,
1128,-8.00e-03,
1129,1.60e-02,
1130,-8.00e-03,
1131,1.60e-02,
1132,-8.00e-03,
1133,1.60e-02,
1134,-8.00e-03,
1135,1.60e-02,
1136,-8.00e-03,
1137,1.60e-02,
1138,-8.00e-03,
1139,1.60e-02,
1140,-8.00e-03,
1141,1.60e-02,
1142,-8.00e-03,
1143,1.60e-02,
1144,-8.00e-03,
1145,1.60e-02,
1146,-8.00e-03,
1147,1.60e-02,
1148,-8.00e-03,
1149,1.60e-02,
1150,-8.00e-03,
1151,1.60e-02,
1152,1.60e-02,
1153,-8.00e-03,
1154,-8.00e-03,
1155,1.60e-02,
1156,-8.00e-03,
1157,1.60e-02,
1158,-8.00e-03,
1159,1.60e-02,
1160,6.00e-02,
1161,-1.60e-02,
1162,-8.00e-03,
1163,1.60e-02,
1164,-8.00e-03,
1165,1.60e-02,
1166,-8.00e-03,
1167,1.60e-02,
1168,-8.00e-03,
1169,1.60e-02,
1170,1.60e-02,
1171,-8.00e-03,
1172,-8.00e-03,
1173,1.60e-02,
1174,1.60e-02,
1175,-8.00e-03,
1176,1.60e-02,
1177,-8.00e-03,
1178,-8.00e-03,
1179,1.60e-02,
1180,-8.00e-03,
1181,1.60e-02,
1182,1.60e-02,
1183,-1.20e-02,
1184,1.60e-02,
1185,-8.00e-03,
1186,-8.00e-03,
1187,1.60e-02,
1188,1.60e-02,
1189,-8.00e-03,
1190,1.60e-02,
1191,-8.00e-03,
1192,1.60e-02,
1193,-8.00e-03,
1194,-8.00e-03,
1195,1.60e-02,
1196,-8.00e-03,
1197,1.60e-02,
1198,-8.00e-03,
1199,1.60e-02,
