Laptop_2/LAPTOP_CHRGR_2_OFF/time domain/NewFile32.csv

X,CH1,Start,Increment,
Sequence,Volt,-1.500000e-01,2.000000e-04
0,1.60e-02,
1,-8.00e-03,
2,-8.00e-03,
3,1.60e-02,
4,-8.00e-03,
5,1.60e-02,
6,-8.00e-03,
7,1.60e-02,
8,-8.00e-03,
9,1.60e-02,
10,-8.00e-03,
11,1.60e-02,
12,-8.00e-03,
13,1.60e-02,
14,-8.00e-03,
15,1.60e-02,
16,-8.00e-03,
17,1.60e-02,
18,1.60e-02,
19,-8.00e-03,
20,-8.00e-03,
21,1.60e-02,
22,-8.00e-03,
23,1.60e-02,
24,-8.00e-03,
25,1.60e-02,
26,-8.00e-03,
27,1.60e-02,
28,-8.00e-03,
29,1.60e-02,
30,-8.00e-03,
31,1.20e-02,
32,1.60e-02,
33,-1.20e-02,
34,1.60e-02,
35,-1.20e-02,
36,-8.00e-03,
37,1.60e-02,
38,1.60e-02,
39,-8.00e-03,
40,-8.00e-03,
41,1.60e-02,
42,1.60e-02,
43,-8.00e-03,
44,1.48e-01,
45,-2.00e-02,
46,-8.00e-03,
47,1.60e-02,
48,1.60e-02,
49,-1.20e-02,
50,-8.00e-03,
51,1.60e-02,
52,-8.00e-03,
53,1.60e-02,
54,-8.00e-03,
55,1.60e-02,
56,-8.00e-03,
57,1.60e-02,
58,-8.00e-03,
59,1.60e-02,
60,-8.00e-03,
61,1.60e-02,
62,-8.00e-03,
63,1.60e-02,
64,1.60e-02,
65,-1.20e-02,
66,-8.00e-03,
67,1.60e-02,
68,-8.00e-03,
69,1.60e-02,
70,1.60e-02,
71,-8.00e-03,
72,-8.00e-03,
73,1.60e-02,
74,1.60e-02,
75,-8.00e-03,
76,2.00e-02,
77,-8.00e-03,
78,-1.20e-02,
79,1.60e-02,
80,-8.00e-03,
81,1.60e-02,
82,-8.00e-03,
83,1.60e-02,
84,-8.00e-03,
85,1.60e-02,
86,-8.00e-03,
87,1.60e-02,
88,-8.00e-03,
89,1.60e-02,
90,-8.00e-03,
91,1.60e-02,
92,-8.00e-03,
93,1.60e-02,
94,-8.00e-03,
95,1.60e-02,
96,-2.00e-02,
97,7.60e-02,
98,1.60e-02,
99,-8.00e-03,
100,1.60e-02,
101,-8.00e-03,
102,-8.00e-03,
103,1.60e-02,
104,-8.00e-03,
105,1.60e-02,
106,-8.00e-03,
107,1.60e-02,
108,-8.00e-03,
109,1.60e-02,
110,1.60e-02,
111,-8.00e-03,
112,1.60e-02,
113,-8.00e-03,
114,-8.00e-03,
115,1.60e-02,
116,-8.00e-03,
117,1.60e-02,
118,-1.20e-02,
119,2.00e-02,
120,1.60e-02,
121,-1.20e-02,
122,1.60e-02,
123,-8.00e-03,
124,1.60e-02,
125,-8.00e-03,
126,1.60e-02,
127,-8.00e-03,
128,1.60e-02,
129,-8.00e-03,
130,1.60e-02,
131,-1.20e-02,
132,-8.00e-03,
133,1.60e-02,
134,-8.00e-03,
135,1.60e-02,
136,-8.00e-03,
137,1.60e-02,
138,1.60e-02,
139,-8.00e-03,
140,-8.00e-03,
141,1.60e-02,
142,1.60e-02,
143,-8.00e-03,
144,1.60e-02,
145,-8.00e-03,
146,1.60e-02,
147,-8.00e-03,
148,-6.00e-02,
149,5.20e-02,
150,1.60e-02,
151,-1.20e-02,
152,-8.00e-03,
153,1.60e-02,
154,-8.00e-03,
155,1.60e-02,
156,-8.00e-03,
157,1.60e-02,
158,-8.00e-03,
159,1.60e-02,
160,-8.00e-03,
161,1.60e-02,
162,-8.00e-03,
163,1.60e-02,
164,-8.00e-03,
165,1.60e-02,
166,-8.00e-03,
167,1.60e-02,
168,-8.00e-03,
169,1.60e-02,
170,-8.00e-03,
171,1.60e-02,
172,-8.00e-03,
173,1.60e-02,
174,-8.00e-03,
175,1.60e-02,
176,-8.00e-03,
177,1.60e-02,
178,-8.00e-03,
179,1.60e-02,
180,-8.00e-03,
181,1.60e-02,
182,-8.00e-03,
183,1.60e-02,
184,-8.00e-03,
185,1.60e-02,
186,-8.00e-03,
187,1.60e-02,
188,-8.00e-03,
189,1.60e-02,
190,-8.00e-03,
191,1.60e-02,
192,-8.00e-03,
193,1.60e-02,
194,-8.00e-03,
195,1.60e-02,
196,1.60e-02,
197,-1.20e-02,
198,1.60e-02,
199,-8.00e-03,
200,1.60e-02,
201,-8.00e-03,
202,1.24e-01,
203,-1.60e-02,
204,1.60e-02,
205,-8.00e-03,
206,-8.00e-03,
207,1.60e-02,
208,-8.00e-03,
209,2.00e-02,
210,-8.00e-03,
211,2.00e-02,
212,-8.00e-03,
213,1.60e-02,
214,-8.00e-03,
215,1.60e-02,
216,1.60e-02,
217,-8.00e-03,
218,1.60e-02,
219,-8.00e-03,
220,-8.00e-03,
221,1.60e-02,
222,-8.00e-03,
223,1.60e-02,
224,-8.00e-03,
225,1.60e-02,
226,1.60e-02,
227,-8.00e-03,
228,-8.00e-03,
229,1.60e-02,
230,-8.00e-03,
231,1.60e-02,
232,-8.00e-03,
233,1.60e-02,
234,-8.00e-03,
235,1.60e-02,
236,-8.00e-03,
237,1.60e-02,
238,1.60e-02,
239,-8.00e-03,
240,1.60e-02,
241,-8.00e-03,
242,2.00e-02,
243,-1.20e-02,
244,-8.00e-03,
245,1.60e-02,
246,1.60e-02,
247,-1.20e-02,
248,-8.00e-03,
249,1.60e-02,
250,-8.00e-03,
251,1.60e-02,
252,1.60e-02,
253,-8.00e-03,
254,1.60e-02,
255,-1.72e-01,
256,-4.40e-02,
257,4.00e-02,
258,-8.00e-03,
259,1.60e-02,
260,-8.00e-03,
261,1.60e-02,
262,-8.00e-03,
263,1.60e-02,
264,-8.00e-03,
265,1.60e-02,
266,1.60e-02,
267,-8.00e-03,
268,-8.00e-03,
269,1.60e-02,
270,1.60e-02,
271,-8.00e-03,
272,-8.00e-03,
273,1.60e-02,
274,-8.00e-03,
275,1.60e-02,
276,-8.00e-03,
277,1.60e-02,
278,-8.00e-03,
279,1.60e-02,
280,1.60e-02,
281,-8.00e-03,
282,-8.00e-03,
283,1.60e-02,
284,-8.00e-03,
285,2.00e-02,
286,-1.20e-02,
287,1.60e-02,
288,1.60e-02,
289,-1.20e-02,
290,-8.00e-03,
291,1.60e-02,
292,-8.00e-03,
293,1.60e-02,
294,-8.00e-03,
295,1.60e-02,
296,-8.00e-03,
297,1.60e-02,
298,-8.00e-03,
299,1.60e-02,
300,1.60e-02,
301,-8.00e-03,
302,-8.00e-03,
303,1.60e-02,
304,-8.00e-03,
305,1.60e-02,
306,-8.00e-03,
307,1.60e-02,
308,6.00e-02,
309,-1.20e-02,
310,1.60e-02,
311,-8.00e-03,
312,1.60e-02,
313,-8.00e-03,
314,-8.00e-03,
315,2.00e-02,
316,1.60e-02,
317,-8.00e-03,
318,1.60e-02,
319,-8.00e-03,
320,-8.00e-03,
321,1.60e-02,
322,-8.00e-03,
323,1.60e-02,
324,1.60e-02,
325,-8.00e-03,
326,-8.00e-03,
327,1.60e-02,
328,-1.20e-02,
329,1.60e-02,
330,-8.00e-03,
331,1.60e-02,
332,1.60e-02,
333,-1.20e-02,
334,-8.00e-03,
335,2.00e-02,
336,-8.00e-03,
337,1.60e-02,
338,-8.00e-03,
339,1.60e-02,
340,-8.00e-03,
341,1.60e-02,
342,1.60e-02,
343,-8.00e-03,
344,-8.00e-03,
345,1.60e-02,
346,-8.00e-03,
347,1.60e-02,
348,-8.00e-03,
349,1.60e-02,
350,-8.00e-03,
351,1.60e-02,
352,-8.00e-03,
353,1.60e-02,
354,-8.00e-03,
355,1.60e-02,
356,-8.00e-03,
357,1.60e-02,
358,-8.00e-03,
359,1.60e-02,
360,1.56e-01,
361,-2.40e-02,
362,1.60e-02,
363,-8.00e-03,
364,1.60e-02,
365,-8.00e-03,
366,1.60e-02,
367,-8.00e-03,
368,1.60e-02,
369,-1.20e-02,
370,1.60e-02,
371,-1.20e-02,
372,-8.00e-03,
373,1.60e-02,
374,1.60e-02,
375,-8.00e-03,
376,-1.20e-02,
377,1.60e-02,
378,-8.00e-03,
379,1.60e-02,
380,-8.00e-03,
381,1.60e-02,
382,-8.00e-03,
383,1.60e-02,
384,-8.00e-03,
385,1.60e-02,
386,1.60e-02,
387,-8.00e-03,
388,-8.00e-03,
389,1.60e-02,
390,-8.00e-03,
391,1.60e-02,
392,-8.00e-03,
393,1.60e-02,
394,-8.00e-03,
395,1.60e-02,
396,1.60e-02,
397,-8.00e-03,
398,-8.00e-03,
399,1.60e-02,
400,-8.00e-03,
401,1.60e-02,
402,-8.00e-03,
403,1.60e-02,
404,-8.00e-03,
405,1.60e-02,
406,-8.00e-03,
407,1.60e-02,
408,-8.00e-03,
409,1.60e-02,
410,-8.00e-03,
411,1.60e-02,
412,-8.00e-03,
413,1.60e-02,
414,1.84e-01,
415,-8.00e-02,
416,1.60e-02,
417,-8.00e-03,
418,-8.00e-03,
419,1.60e-02,
420,1.60e-02,
421,-8.00e-03,
422,-8.00e-03,
423,1.60e-02,
424,-8.00e-03,
425,1.60e-02,
426,1.60e-02,
427,-8.00e-03,
428,-8.00e-03,
429,1.60e-02,
430,-8.00e-03,
431,1.60e-02,
432,-8.00e-03,
433,1.60e-02,
434,-8.00e-03,
435,1.60e-02,
436,-8.00e-03,
437,1.60e-02,
438,1.60e-02,
439,-8.00e-03,
440,-8.00e-03,
441,1.60e-02,
442,-8.00e-03,
443,1.60e-02,
444,-8.00e-03,
445,1.60e-02,
446,-8.00e-03,
447,1.60e-02,
448,-8.00e-03,
449,1.60e-02,
450,-8.00e-03,
451,1.60e-02,
452,-8.00e-03,
453,1.60e-02,
454,-8.00e-03,
455,1.60e-02,
456,1.60e-02,
457,-8.00e-03,
458,-8.00e-03,
459,1.60e-02,
460,-8.00e-03,
461,1.60e-02,
462,-8.00e-03,
463,1.60e-02,
464,-8.00e-03,
465,1.60e-02,
466,-8.00e-03,
467,1.60e-02,
468,1.20e-01,
469,-2.40e-02,
470,-8.00e-03,
471,1.60e-02,
472,1.60e-02,
473,-8.00e-03,
474,-8.00e-03,
475,1.60e-02,
476,-8.00e-03,
477,1.60e-02,
478,-8.00e-03,
479,1.60e-02,
480,-8.00e-03,
481,1.60e-02,
482,-8.00e-03,
483,1.60e-02,
484,-8.00e-03,
485,1.60e-02,
486,-8.00e-03,
487,1.60e-02,
488,-8.00e-03,
489,1.60e-02,
490,-8.00e-03,
491,1.60e-02,
492,-8.00e-03,
493,1.60e-02,
494,1.60e-02,
495,-8.00e-03,
496,1.60e-02,
497,-8.00e-03,
498,1.60e-02,
499,-8.00e-03,
500,-1.20e-02,
501,1.60e-02,
502,-8.00e-03,
503,1.60e-02,
504,-8.00e-03,
505,1.60e-02,
506,-8.00e-03,
507,1.60e-02,
508,-8.00e-03,
509,1.60e-02,
510,-8.00e-03,
511,1.60e-02,
512,1.60e-02,
513,-8.00e-03,
514,-8.00e-03,
515,1.60e-02,
516,-8.00e-03,
517,1.60e-02,
518,-8.00e-03,
519,1.60e-02,
520,-1.76e-01,
521,4.40e-02,
522,-8.00e-03,
523,1.60e-02,
524,-8.00e-03,
525,1.60e-02,
526,-8.00e-03,
527,1.60e-02,
528,-8.00e-03,
529,1.60e-02,
530,-8.00e-03,
531,1.60e-02,
532,1.60e-02,
533,-8.00e-03,
534,-1.20e-02,
535,1.60e-02,
536,-8.00e-03,
537,1.60e-02,
538,1.60e-02,
539,-1.20e-02,
540,-8.00e-03,
541,1.60e-02,
542,-8.00e-03,
543,1.60e-02,
544,-8.00e-03,
545,1.60e-02,
546,-8.00e-03,
547,1.60e-02,
548,1.60e-02,
549,-8.00e-03,
550,-8.00e-03,
551,1.60e-02,
552,-8.00e-03,
553,1.60e-02,
554,-8.00e-03,
555,1.60e-02,
556,-8.00e-03,
557,1.60e-02,
558,-8.00e-03,
559,1.60e-02,
560,-8.00e-03,
561,1.60e-02,
562,1.60e-02,
563,-8.00e-03,
564,-8.00e-03,
565,1.60e-02,
566,-8.00e-03,
567,1.60e-02,
568,1.20e-02,
569,-1.20e-02,
570,-8.00e-03,
571,1.60e-02,
572,1.60e-02,
573,-1.20e-02,
574,1.60e-01,
575,-2.00e-02,
576,-8.00e-03,
577,1.60e-02,
578,-8.00e-03,
579,1.60e-02,
580,-8.00e-03,
581,1.60e-02,
582,-8.00e-03,
583,1.60e-02,
584,1.60e-02,
585,-8.00e-03,
586,-8.00e-03,
587,1.60e-02,
588,1.60e-02,
589,-8.00e-03,
590,-8.00e-03,
591,1.60e-02,
592,-8.00e-03,
593,1.60e-02,
594,-8.00e-03,
595,1.60e-02,
596,1.60e-02,
597,-8.00e-03,
598,-8.00e-03,
599,1.60e-02,
600,-8.00e-03,
601,1.60e-02,
602,-8.00e-03,
603,1.60e-02,
604,-8.00e-03,
605,1.60e-02,
606,-8.00e-03,
607,1.60e-02,
608,1.60e-02,
609,-8.00e-03,
610,-8.00e-03,
611,1.60e-02,
612,-8.00e-03,
613,1.60e-02,
614,-8.00e-03,
615,1.60e-02,
616,-8.00e-03,
617,1.60e-02,
618,1.60e-02,
619,-8.00e-03,
620,-8.00e-03,
621,1.60e-02,
622,-8.00e-03,
623,1.60e-02,
624,-8.00e-03,
625,1.60e-02,
626,3.20e-02,
627,-2.40e-02,
628,-8.00e-03,
629,2.80e-02,
630,-8.00e-03,
631,1.60e-02,
632,-8.00e-03,
633,1.60e-02,
634,-8.00e-03,
635,1.60e-02,
636,-8.00e-03,
637,1.60e-02,
638,1.60e-02,
639,-8.00e-03,
640,-8.00e-03,
641,1.60e-02,
642,-8.00e-03,
643,1.60e-02,
644,1.60e-02,
645,-8.00e-03,
646,1.60e-02,
647,-1.20e-02,
648,1.60e-02,
649,-1.20e-02,
650,-8.00e-03,
651,2.00e-02,
652,-8.00e-03,
653,1.60e-02,
654,1.60e-02,
655,-8.00e-03,
656,-8.00e-03,
657,1.60e-02,
658,-8.00e-03,
659,1.60e-02,
660,1.60e-02,
661,-8.00e-03,
662,-8.00e-03,
663,1.60e-02,
664,-8.00e-03,
665,2.00e-02,
666,-8.00e-03,
667,1.60e-02,
668,1.60e-02,
669,-8.00e-03,
670,-8.00e-03,
671,1.60e-02,
672,1.60e-02,
673,-8.00e-03,
674,1.60e-02,
675,-8.00e-03,
676,1.60e-02,
677,-8.00e-03,
678,-8.00e-03,
679,1.60e-02,
680,-1.00e-01,
681,2.80e-02,
682,-8.00e-03,
683,1.60e-02,
684,-8.00e-03,
685,1.60e-02,
686,-8.00e-03,
687,1.60e-02,
688,-8.00e-03,
689,1.60e-02,
690,1.60e-02,
691,-1.20e-02,
692,-8.00e-03,
693,1.60e-02,
694,-8.00e-03,
695,1.60e-02,
696,1.60e-02,
697,-8.00e-03,
698,-8.00e-03,
699,1.60e-02,
700,-8.00e-03,
701,1.60e-02,
702,-8.00e-03,
703,1.60e-02,
704,2.00e-02,
705,-1.20e-02,
706,-8.00e-03,
707,1.60e-02,
708,-8.00e-03,
709,1.60e-02,
710,-8.00e-03,
711,1.60e-02,
712,-8.00e-03,
713,1.60e-02,
714,1.60e-02,
715,-8.00e-03,
716,-8.00e-03,
717,1.60e-02,
718,1.60e-02,
719,-8.00e-03,
720,-8.00e-03,
721,1.60e-02,
722,1.60e-02,
723,-8.00e-03,
724,-8.00e-03,
725,1.60e-02,
726,-8.00e-03,
727,1.60e-02,
728,-8.00e-03,
729,1.60e-02,
730,-8.00e-03,
731,1.60e-02,
732,1.68e-01,
733,-4.80e-02,
734,-8.00e-03,
735,1.60e-02,
736,1.60e-02,
737,-8.00e-03,
738,1.60e-02,
739,-8.00e-03,
740,-8.00e-03,
741,1.60e-02,
742,-8.00e-03,
743,1.60e-02,
744,1.60e-02,
745,-8.00e-03,
746,-8.00e-03,
747,2.00e-02,
748,1.60e-02,
749,-8.00e-03,
750,1.60e-02,
751,-8.00e-03,
752,1.60e-02,
753,-8.00e-03,
754,-8.00e-03,
755,1.60e-02,
756,-8.00e-03,
757,1.60e-02,
758,1.60e-02,
759,-8.00e-03,
760,-8.00e-03,
761,1.60e-02,
762,1.60e-02,
763,-8.00e-03,
764,-8.00e-03,
765,1.60e-02,
766,-8.00e-03,
767,1.60e-02,
768,1.60e-02,
769,-8.00e-03,
770,1.60e-02,
771,-8.00e-03,
772,-8.00e-03,
773,1.60e-02,
774,1.60e-02,
775,-8.00e-03,
776,-1.20e-02,
777,1.60e-02,
778,-8.00e-03,
779,1.60e-02,
780,-8.00e-03,
781,1.60e-02,
782,1.60e-02,
783,-8.00e-03,
784,-8.00e-03,
785,1.60e-02,
786,-1.56e-01,
787,3.20e-02,
788,-8.00e-03,
789,1.60e-02,
790,-8.00e-03,
791,1.60e-02,
792,-8.00e-03,
793,1.60e-02,
794,1.60e-02,
795,-8.00e-03,
796,1.60e-02,
797,-8.00e-03,
798,1.60e-02,
799,-8.00e-03,
800,-8.00e-03,
801,1.60e-02,
802,-8.00e-03,
803,1.60e-02,
804,1.60e-02,
805,-8.00e-03,
806,-8.00e-03,
807,1.60e-02,
808,-8.00e-03,
809,1.60e-02,
810,-8.00e-03,
811,1.60e-02,
812,1.60e-02,
813,-1.20e-02,
814,-8.00e-03,
815,1.60e-02,
816,-8.00e-03,
817,1.60e-02,
818,1.60e-02,
819,-1.20e-02,
820,1.60e-02,
821,-8.00e-03,
822,-8.00e-03,
823,1.60e-02,
824,1.60e-02,
825,-8.00e-03,
826,-8.00e-03,
827,1.60e-02,
828,-8.00e-03,
829,1.60e-02,
830,1.60e-02,
831,-1.20e-02,
832,-8.00e-03,
833,1.60e-02,
834,1.60e-02,
835,-8.00e-03,
836,-8.00e-03,
837,1.60e-02,
838,1.60e-02,
839,-8.00e-03,
840,-1.24e-01,
841,9.20e-02,
842,-8.00e-03,
843,1.60e-02,
844,-8.00e-03,
845,1.60e-02,
846,-8.00e-03,
847,1.60e-02,
848,-8.00e-03,
849,1.60e-02,
850,1.60e-02,
851,-8.00e-03,
852,-8.00e-03,
853,1.60e-02,
854,-8.00e-03,
855,1.60e-02,
856,-8.00e-03,
857,1.60e-02,
858,-8.00e-03,
859,1.60e-02,
860,-8.00e-03,
861,1.60e-02,
862,-8.00e-03,
863,1.60e-02,
864,1.60e-02,
865,-8.00e-03,
866,-8.00e-03,
867,1.60e-02,
868,1.60e-02,
869,-1.20e-02,
870,-8.00e-03,
871,1.60e-02,
872,-8.00e-03,
873,1.60e-02,
874,-8.00e-03,
875,1.60e-02,
876,-8.00e-03,
877,1.60e-02,
878,-8.00e-03,
879,1.60e-02,
880,-8.00e-03,
881,1.60e-02,
882,-8.00e-03,
883,1.60e-02,
884,-8.00e-03,
885,1.60e-02,
886,1.60e-02,
887,-8.00e-03,
888,-8.00e-03,
889,1.60e-02,
890,-8.00e-03,
891,2.00e-02,
892,1.60e-02,
893,-1.92e-01,
894,-5.60e-02,
895,2.00e-02,
896,1.60e-02,
897,-8.00e-03,
898,-8.00e-03,
899,1.60e-02,
900,-8.00e-03,
901,1.60e-02,
902,-8.00e-03,
903,1.60e-02,
904,-8.00e-03,
905,1.60e-02,
906,1.60e-02,
907,-8.00e-03,
908,-8.00e-03,
909,1.60e-02,
910,-8.00e-03,
911,1.60e-02,
912,2.00e-02,
913,-1.20e-02,
914,1.60e-02,
915,-1.20e-02,
916,-8.00e-03,
917,1.60e-02,
918,-8.00e-03,
919,1.60e-02,
920,1.60e-02,
921,-8.00e-03,
922,-8.00e-03,
923,1.60e-02,
924,-8.00e-03,
925,1.60e-02,
926,1.60e-02,
927,-8.00e-03,
928,-8.00e-03,
929,1.60e-02,
930,-8.00e-03,
931,1.60e-02,
932,-8.00e-03,
933,1.60e-02,
934,-8.00e-03,
935,1.60e-02,
936,-8.00e-03,
937,1.60e-02,
938,-8.00e-03,
939,1.60e-02,
940,-8.00e-03,
941,1.60e-02,
942,-8.00e-03,
943,1.60e-02,
944,1.60e-02,
945,-8.00e-03,
946,-2.00e-02,
947,7.20e-02,
948,1.60e-02,
949,-8.00e-03,
950,1.60e-02,
951,-8.00e-03,
952,-1.20e-02,
953,1.60e-02,
954,1.60e-02,
955,-8.00e-03,
956,-8.00e-03,
957,1.60e-02,
958,-8.00e-03,
959,1.60e-02,
960,-8.00e-03,
961,1.60e-02,
962,-8.00e-03,
963,1.60e-02,
964,-8.00e-03,
965,1.60e-02,
966,-8.00e-03,
967,1.60e-02,
968,-8.00e-03,
969,1.60e-02,
970,-1.20e-02,
971,1.60e-02,
972,-8.00e-03,
973,1.60e-02,
974,-8.00e-03,
975,1.60e-02,
976,-8.00e-03,
977,1.60e-02,
978,-8.00e-03,
979,1.60e-02,
980,-8.00e-03,
981,1.60e-02,
982,-8.00e-03,
983,1.60e-02,
984,-8.00e-03,
985,1.60e-02,
986,-8.00e-03,
987,1.60e-02,
988,-8.00e-03,
989,1.60e-02,
990,-8.00e-03,
991,1.60e-02,
992,1.60e-02,
993,-8.00e-03,
994,-8.00e-03,
995,1.60e-02,
996,-8.00e-03,
997,1.60e-02,
998,-8.00e-03,
999,1.60e-02,
1000,3.20e-02,
1001,-6.00e-02,
1002,1.60e-02,
1003,-8.00e-03,
1004,-8.00e-03,
1005,1.60e-02,
1006,-8.00e-03,
1007,1.60e-02,
1008,-8.00e-03,
1009,1.60e-02,
1010,-8.00e-03,
1011,1.60e-02,
1012,-8.00e-03,
1013,1.60e-02,
1014,-8.00e-03,
1015,1.60e-02,
1016,-8.00e-03,
1017,1.60e-02,
1018,1.60e-02,
1019,-8.00e-03,
1020,-8.00e-03,
1021,1.60e-02,
1022,-8.00e-03,
1023,1.60e-02,
1024,1.60e-02,
1025,-8.00e-03,
1026,-8.00e-03,
1027,1.60e-02,
1028,1.60e-02,
1029,-1.20e-02,
1030,-8.00e-03,
1031,1.60e-02,
1032,-8.00e-03,
1033,1.60e-02,
1034,-8.00e-03,
1035,1.60e-02,
1036,1.60e-02,
1037,-1.20e-02,
1038,-8.00e-03,
1039,2.00e-02,
1040,-8.00e-03,
1041,1.60e-02,
1042,-8.00e-03,
1043,1.60e-02,
1044,-8.00e-03,
1045,1.60e-02,
1046,-8.00e-03,
1047,1.60e-02,
1048,1.60e-02,
1049,-8.00e-03,
1050,-8.00e-03,
1051,1.60e-02,
1052,2.80e-02,
1053,-1.20e-01,
1054,7.20e-02,
1055,-2.40e-02,
1056,-8.00e-03,
1057,1.60e-02,
1058,-8.00e-03,
1059,1.60e-02,
1060,-8.00e-03,
1061,1.60e-02,
1062,-8.00e-03,
1063,2.00e-02,
1064,-8.00e-03,
1065,1.60e-02,
1066,-8.00e-03,
1067,1.60e-02,
1068,1.60e-02,
1069,-1.20e-02,
1070,-8.00e-03,
1071,1.60e-02,
1072,-8.00e-03,
1073,1.60e-02,
1074,1.60e-02,
1075,-8.00e-03,
1076,-8.00e-03,
1077,1.60e-02,
1078,-8.00e-03,
1079,1.60e-02,
1080,1.20e-02,
1081,-8.00e-03,
1082,1.60e-02,
1083,-1.20e-02,
1084,-8.00e-03,
1085,1.60e-02,
1086,-8.00e-03,
1087,1.60e-02,
1088,-8.00e-03,
1089,1.60e-02,
1090,-8.00e-03,
1091,1.60e-02,
1092,-8.00e-03,
1093,1.60e-02,
1094,-8.00e-03,
1095,1.60e-02,
1096,1.60e-02,
1097,-8.00e-03,
1098,1.60e-02,
1099,-8.00e-03,
1100,-8.00e-03,
1101,1.60e-02,
1102,-8.00e-03,
1103,1.60e-02,
1104,-8.00e-03,
1105,1.60e-02,
1106,-1.72e-01,
1107,3.20e-02,
1108,-8.00e-03,
1109,1.60e-02,
1110,-8.00e-03,
1111,1.60e-02,
1112,-8.00e-03,
1113,1.60e-02,
1114,-8.00e-03,
1115,1.60e-02,
1116,-1.20e-02,
1117,1.60e-02,
1118,1.60e-02,
1119,-1.20e-02,
1120,-8.00e-03,
1121,1.60e-02,
1122,-8.00e-03,
1123,1.60e-02,
1124,-1.20e-02,
1125,1.60e-02,
1126,-8.00e-03,
1127,1.60e-02,
1128,-8.00e-03,
1129,1.60e-02,
1130,-8.00e-03,
1131,1.60e-02,
1132,-8.00e-03,
1133,1.60e-02,
1134,1.60e-02,
1135,-8.00e-03,
1136,-8.00e-03,
1137,1.60e-02,
1138,-8.00e-03,
1139,1.60e-02,
1140,-8.00e-03,
1141,1.60e-02,
1142,-8.00e-03,
1143,1.60e-02,
1144,1.60e-02,
1145,-8.00e-03,
1146,1.60e-02,
1147,-1.20e-02,
1148,1.60e-02,
1149,-8.00e-03,
1150,-8.00e-03,
1151,1.60e-02,
1152,-8.00e-03,
1153,1.60e-02,
1154,-8.00e-03,
1155,1.60e-02,
1156,-8.00e-03,
1157,1.60e-02,
1158,-8.00e-03,
1159,1.60e-02,
1160,4.80e-02,
1161,-2.80e-02,
1162,1.60e-02,
1163,-1.20e-02,
1164,1.60e-02,
1165,-8.00e-03,
1166,-8.00e-03,
1167,1.60e-02,
1168,-8.00e-03,
1169,1.60e-02,
1170,1.60e-02,
1171,-8.00e-03,
1172,-8.00e-03,
1173,1.60e-02,
1174,-8.00e-03,
1175,1.60e-02,
1176,1.60e-02,
1177,-8.00e-03,
1178,-8.00e-03,
1179,1.60e-02,
1180,-8.00e-03,
1181,1.60e-02,
1182,-8.00e-03,
1183,1.60e-02,
1184,1.60e-02,
1185,-8.00e-03,
1186,-8.00e-03,
1187,1.60e-02,
1188,-8.00e-03,
1189,1.60e-02,
1190,-8.00e-03,
1191,1.60e-02,
1192,-8.00e-03,
1193,1.60e-02,
1194,-8.00e-03,
1195,1.60e-02,
1196,1.60e-02,
1197,-1.20e-02,
1198,-8.00e-03,
1199,1.60e-02,
