Laptop_2/LAPTOP_CHRGR_2_OFF/time domain/NewFile20.csv

X,CH1,Start,Increment,
Sequence,Volt,-1.500000e-01,2.000000e-04
0,-4.00e-03,
1,1.20e-02,
2,-4.00e-03,
3,1.20e-02,
4,-4.00e-03,
5,1.60e-02,
6,-4.00e-03,
7,1.20e-02,
8,-4.00e-03,
9,1.20e-02,
10,1.20e-02,
11,-4.00e-03,
12,1.20e-02,
13,-4.00e-03,
14,1.20e-02,
15,-8.00e-03,
16,1.20e-02,
17,-4.00e-03,
18,-4.00e-03,
19,1.20e-02,
20,1.20e-02,
21,-8.00e-03,
22,1.20e-02,
23,-8.00e-03,
24,1.20e-02,
25,-8.00e-03,
26,1.60e-02,
27,-8.00e-03,
28,-4.00e-03,
29,1.60e-02,
30,1.20e-02,
31,-8.00e-03,
32,-4.00e-03,
33,1.20e-02,
34,-4.00e-03,
35,1.20e-02,
36,1.20e-02,
37,-4.00e-03,
38,-4.00e-03,
39,1.20e-02,
40,1.20e-02,
41,-8.00e-03,
42,1.20e-02,
43,-4.00e-03,
44,1.20e-02,
45,-4.00e-03,
46,-4.00e-03,
47,1.20e-02,
48,1.20e-02,
49,-8.00e-03,
50,1.20e-02,
51,-7.20e-02,
52,2.00e-02,
53,-1.20e-02,
54,-4.00e-03,
55,1.20e-02,
56,-4.00e-03,
57,1.20e-02,
58,-4.00e-03,
59,1.60e-02,
60,1.20e-02,
61,-8.00e-03,
62,-4.00e-03,
63,1.20e-02,
64,1.20e-02,
65,-8.00e-03,
66,1.20e-02,
67,-8.00e-03,
68,-8.00e-03,
69,1.60e-02,
70,-4.00e-03,
71,1.20e-02,
72,1.20e-02,
73,-8.00e-03,
74,-8.00e-03,
75,1.20e-02,
76,-4.00e-03,
77,1.20e-02,
78,-4.00e-03,
79,1.20e-02,
80,-4.00e-03,
81,1.20e-02,
82,-4.00e-03,
83,1.20e-02,
84,-4.00e-03,
85,1.20e-02,
86,-4.00e-03,
87,1.60e-02,
88,1.20e-02,
89,-4.00e-03,
90,-4.00e-03,
91,1.20e-02,
92,-4.00e-03,
93,1.60e-02,
94,-8.00e-03,
95,1.20e-02,
96,1.60e-02,
97,-8.00e-03,
98,-4.00e-03,
99,1.20e-02,
100,-4.00e-03,
101,1.20e-02,
102,1.20e-02,
103,-4.00e-03,
104,1.20e-02,
105,-4.40e-02,
106,1.20e-02,
107,-8.00e-03,
108,-8.00e-03,
109,1.20e-02,
110,-4.00e-03,
111,1.20e-02,
112,-8.00e-03,
113,1.60e-02,
114,1.20e-02,
115,-8.00e-03,
116,1.20e-02,
117,-8.00e-03,
118,-4.00e-03,
119,1.20e-02,
120,1.20e-02,
121,-8.00e-03,
122,1.20e-02,
123,-8.00e-03,
124,1.20e-02,
125,-4.00e-03,
126,-4.00e-03,
127,1.20e-02,
128,-4.00e-03,
129,1.20e-02,
130,1.20e-02,
131,-8.00e-03,
132,-8.00e-03,
133,1.20e-02,
134,-8.00e-03,
135,1.20e-02,
136,1.20e-02,
137,-4.00e-03,
138,1.20e-02,
139,-8.00e-03,
140,-4.00e-03,
141,1.60e-02,
142,1.20e-02,
143,-8.00e-03,
144,1.20e-02,
145,-8.00e-03,
146,1.20e-02,
147,-4.00e-03,
148,1.20e-02,
149,-8.00e-03,
150,1.20e-02,
151,-8.00e-03,
152,1.20e-02,
153,-4.00e-03,
154,-8.00e-03,
155,1.20e-02,
156,-6.00e-02,
157,3.20e-02,
158,-4.00e-03,
159,1.20e-02,
160,1.20e-02,
161,-4.00e-03,
162,-4.00e-03,
163,1.20e-02,
164,1.20e-02,
165,-8.00e-03,
166,1.20e-02,
167,-8.00e-03,
168,1.20e-02,
169,-8.00e-03,
170,1.20e-02,
171,-8.00e-03,
172,1.20e-02,
173,-8.00e-03,
174,1.20e-02,
175,-8.00e-03,
176,-4.00e-03,
177,1.20e-02,
178,1.20e-02,
179,-8.00e-03,
180,1.20e-02,
181,-8.00e-03,
182,-4.00e-03,
183,1.20e-02,
184,-8.00e-03,
185,1.60e-02,
186,-4.00e-03,
187,1.20e-02,
188,-4.00e-03,
189,1.20e-02,
190,1.20e-02,
191,-8.00e-03,
192,1.20e-02,
193,-8.00e-03,
194,-8.00e-03,
195,1.60e-02,
196,1.20e-02,
197,-8.00e-03,
198,-8.00e-03,
199,1.60e-02,
200,-4.00e-03,
201,1.20e-02,
202,-4.00e-03,
203,1.20e-02,
204,1.20e-02,
205,-8.00e-03,
206,-4.00e-03,
207,1.20e-02,
208,-4.00e-03,
209,1.20e-02,
210,-2.40e-02,
211,4.00e-02,
212,-4.00e-03,
213,1.20e-02,
214,1.20e-02,
215,-8.00e-03,
216,1.20e-02,
217,-8.00e-03,
218,1.20e-02,
219,-8.00e-03,
220,1.20e-02,
221,-8.00e-03,
222,1.20e-02,
223,-4.00e-03,
224,1.20e-02,
225,-8.00e-03,
226,-8.00e-03,
227,1.60e-02,
228,-4.00e-03,
229,1.60e-02,
230,1.20e-02,
231,-4.00e-03,
232,1.20e-02,
233,-8.00e-03,
234,1.20e-02,
235,-8.00e-03,
236,-4.00e-03,
237,1.60e-02,
238,1.20e-02,
239,-8.00e-03,
240,-4.00e-03,
241,1.60e-02,
242,-4.00e-03,
243,1.20e-02,
244,1.20e-02,
245,-8.00e-03,
246,1.20e-02,
247,-8.00e-03,
248,1.60e-02,
249,-8.00e-03,
250,-4.00e-03,
251,1.20e-02,
252,-4.00e-03,
253,1.20e-02,
254,1.20e-02,
255,-8.00e-03,
256,-4.00e-03,
257,1.20e-02,
258,1.20e-02,
259,-8.00e-03,
260,1.20e-02,
261,-8.00e-03,
262,-2.80e-02,
263,1.60e-02,
264,1.20e-02,
265,-8.00e-03,
266,-4.00e-03,
267,1.20e-02,
268,1.20e-02,
269,-4.00e-03,
270,-4.00e-03,
271,1.20e-02,
272,-8.00e-03,
273,1.60e-02,
274,-4.00e-03,
275,1.60e-02,
276,1.20e-02,
277,-8.00e-03,
278,1.20e-02,
279,-8.00e-03,
280,1.20e-02,
281,-8.00e-03,
282,1.20e-02,
283,-8.00e-03,
284,1.20e-02,
285,-4.00e-03,
286,1.20e-02,
287,-8.00e-03,
288,-4.00e-03,
289,1.20e-02,
290,1.20e-02,
291,-8.00e-03,
292,1.20e-02,
293,-8.00e-03,
294,1.20e-02,
295,-8.00e-03,
296,-4.00e-03,
297,1.20e-02,
298,1.60e-02,
299,-8.00e-03,
300,-4.00e-03,
301,1.20e-02,
302,-4.00e-03,
303,1.20e-02,
304,-4.00e-03,
305,1.20e-02,
306,1.20e-02,
307,-8.00e-03,
308,1.20e-02,
309,-4.00e-03,
310,-4.00e-03,
311,1.60e-02,
312,1.20e-02,
313,-8.00e-03,
314,1.60e-02,
315,-8.00e-03,
316,5.60e-02,
317,-8.00e-03,
318,-8.00e-03,
319,1.60e-02,
320,-4.00e-03,
321,1.20e-02,
322,1.20e-02,
323,-8.00e-03,
324,-8.00e-03,
325,1.60e-02,
326,-4.00e-03,
327,1.20e-02,
328,-4.00e-03,
329,1.20e-02,
330,-4.00e-03,
331,1.20e-02,
332,1.20e-02,
333,-8.00e-03,
334,1.20e-02,
335,-4.00e-03,
336,-4.00e-03,
337,1.60e-02,
338,-4.00e-03,
339,1.60e-02,
340,-4.00e-03,
341,1.60e-02,
342,1.20e-02,
343,-8.00e-03,
344,1.20e-02,
345,-4.00e-03,
346,1.20e-02,
347,-8.00e-03,
348,-4.00e-03,
349,1.20e-02,
350,-4.00e-03,
351,1.20e-02,
352,1.20e-02,
353,-8.00e-03,
354,-4.00e-03,
355,1.20e-02,
356,-8.00e-03,
357,1.60e-02,
358,1.60e-02,
359,-8.00e-03,
360,-4.00e-03,
361,1.60e-02,
362,-8.00e-03,
363,1.60e-02,
364,1.20e-02,
365,-8.00e-03,
366,1.20e-02,
367,-8.00e-03,
368,-4.00e-03,
369,1.20e-02,
370,-2.80e-02,
371,2.40e-02,
372,-4.00e-03,
373,1.20e-02,
374,-4.00e-03,
375,1.60e-02,
376,-4.00e-03,
377,1.20e-02,
378,1.60e-02,
379,-8.00e-03,
380,-4.00e-03,
381,1.20e-02,
382,1.20e-02,
383,-8.00e-03,
384,-8.00e-03,
385,1.20e-02,
386,1.20e-02,
387,-8.00e-03,
388,-8.00e-03,
389,1.60e-02,
390,-4.00e-03,
391,1.60e-02,
392,-4.00e-03,
393,1.20e-02,
394,1.60e-02,
395,-8.00e-03,
396,1.20e-02,
397,-4.00e-03,
398,-4.00e-03,
399,1.20e-02,
400,1.60e-02,
401,-8.00e-03,
402,-4.00e-03,
403,1.60e-02,
404,-8.00e-03,
405,1.60e-02,
406,1.20e-02,
407,-8.00e-03,
408,-4.00e-03,
409,1.20e-02,
410,-4.00e-03,
411,1.20e-02,
412,-4.00e-03,
413,1.20e-02,
414,-4.00e-03,
415,1.60e-02,
416,-4.00e-03,
417,1.20e-02,
418,-4.00e-03,
419,1.20e-02,
420,-4.00e-03,
421,1.60e-02,
422,-3.20e-02,
423,1.60e-02,
424,1.20e-02,
425,-4.00e-03,
426,-4.00e-03,
427,1.20e-02,
428,1.20e-02,
429,-4.00e-03,
430,-4.00e-03,
431,1.20e-02,
432,-4.00e-03,
433,1.20e-02,
434,1.20e-02,
435,-8.00e-03,
436,1.20e-02,
437,-8.00e-03,
438,-8.00e-03,
439,1.60e-02,
440,1.20e-02,
441,-8.00e-03,
442,1.20e-02,
443,-8.00e-03,
444,1.20e-02,
445,-4.00e-03,
446,1.20e-02,
447,-4.00e-03,
448,-8.00e-03,
449,1.60e-02,
450,-4.00e-03,
451,1.60e-02,
452,-4.00e-03,
453,1.20e-02,
454,-4.00e-03,
455,1.20e-02,
456,-4.00e-03,
457,1.20e-02,
458,-4.00e-03,
459,1.60e-02,
460,-4.00e-03,
461,1.20e-02,
462,-8.00e-03,
463,1.60e-02,
464,-4.00e-03,
465,1.20e-02,
466,-4.00e-03,
467,1.60e-02,
468,-4.00e-03,
469,1.20e-02,
470,-4.00e-03,
471,1.60e-02,
472,-4.00e-03,
473,1.20e-02,
474,-8.00e-03,
475,4.80e-02,
476,-4.00e-03,
477,2.80e-02,
478,1.20e-02,
479,-8.00e-03,
480,-4.00e-03,
481,1.20e-02,
482,1.20e-02,
483,-8.00e-03,
484,1.20e-02,
485,-8.00e-03,
486,1.20e-02,
487,-4.00e-03,
488,-8.00e-03,
489,1.60e-02,
490,1.20e-02,
491,-8.00e-03,
492,-4.00e-03,
493,1.20e-02,
494,-4.00e-03,
495,1.20e-02,
496,-4.00e-03,
497,1.60e-02,
498,1.20e-02,
499,-8.00e-03,
500,-4.00e-03,
501,1.20e-02,
502,-4.00e-03,
503,1.20e-02,
504,-4.00e-03,
505,1.60e-02,
506,1.20e-02,
507,-8.00e-03,
508,1.20e-02,
509,-8.00e-03,
510,1.20e-02,
511,-8.00e-03,
512,1.20e-02,
513,-8.00e-03,
514,1.20e-02,
515,-8.00e-03,
516,-4.00e-03,
517,1.20e-02,
518,1.20e-02,
519,-8.00e-03,
520,-4.00e-03,
521,1.20e-02,
522,-4.00e-03,
523,1.60e-02,
524,1.60e-02,
525,-8.00e-03,
526,-8.00e-03,
527,1.60e-02,
528,-8.00e-02,
529,1.60e-02,
530,-4.00e-03,
531,1.60e-02,
532,1.60e-02,
533,-8.00e-03,
534,-4.00e-03,
535,1.20e-02,
536,1.20e-02,
537,-8.00e-03,
538,1.20e-02,
539,-4.00e-03,
540,-4.00e-03,
541,1.20e-02,
542,-4.00e-03,
543,1.20e-02,
544,1.20e-02,
545,-4.00e-03,
546,1.20e-02,
547,-4.00e-03,
548,1.20e-02,
549,-8.00e-03,
550,1.60e-02,
551,-8.00e-03,
552,-8.00e-03,
553,1.60e-02,
554,1.20e-02,
555,-4.00e-03,
556,-4.00e-03,
557,1.60e-02,
558,-4.00e-03,
559,1.20e-02,
560,-4.00e-03,
561,1.20e-02,
562,1.20e-02,
563,-8.00e-03,
564,1.20e-02,
565,-8.00e-03,
566,1.20e-02,
567,-8.00e-03,
568,1.20e-02,
569,-4.00e-03,
570,-4.00e-03,
571,1.20e-02,
572,1.20e-02,
573,-8.00e-03,
574,1.20e-02,
575,-8.00e-03,
576,-4.00e-03,
577,1.20e-02,
578,-4.00e-03,
579,1.60e-02,
580,1.20e-02,
581,-8.00e-03,
582,1.60e-02,
583,-2.40e-02,
584,-4.00e-03,
585,1.20e-02,
586,-4.00e-03,
587,1.20e-02,
588,-4.00e-03,
589,1.20e-02,
590,-4.00e-03,
591,1.20e-02,
592,-4.00e-03,
593,1.20e-02,
594,-4.00e-03,
595,1.20e-02,
596,1.20e-02,
597,-8.00e-03,
598,1.20e-02,
599,-8.00e-03,
600,-4.00e-03,
601,1.20e-02,
602,-4.00e-03,
603,1.20e-02,
604,-4.00e-03,
605,1.20e-02,
606,1.60e-02,
607,-8.00e-03,
608,1.20e-02,
609,-8.00e-03,
610,-4.00e-03,
611,1.20e-02,
612,-8.00e-03,
613,1.60e-02,
614,1.20e-02,
615,-8.00e-03,
616,-4.00e-03,
617,1.20e-02,
618,1.20e-02,
619,-4.00e-03,
620,-4.00e-03,
621,1.20e-02,
622,1.20e-02,
623,-4.00e-03,
624,1.20e-02,
625,-4.00e-03,
626,1.20e-02,
627,-8.00e-03,
628,1.20e-02,
629,-4.00e-03,
630,1.20e-02,
631,-4.00e-03,
632,1.20e-02,
633,-8.00e-03,
634,1.20e-02,
635,-8.00e-03,
636,1.20e-02,
637,-1.20e-02,
638,1.20e-02,
639,-8.00e-03,
640,-4.00e-03,
641,1.60e-02,
642,1.60e-02,
643,-8.00e-03,
644,1.20e-02,
645,-8.00e-03,
646,1.20e-02,
647,-8.00e-03,
648,-8.00e-03,
649,1.60e-02,
650,1.20e-02,
651,-8.00e-03,
652,1.20e-02,
653,-8.00e-03,
654,-8.00e-03,
655,1.60e-02,
656,1.20e-02,
657,-8.00e-03,
658,-4.00e-03,
659,1.20e-02,
660,1.20e-02,
661,-4.00e-03,
662,1.20e-02,
663,-4.00e-03,
664,1.20e-02,
665,-4.00e-03,
666,-4.00e-03,
667,1.20e-02,
668,-4.00e-03,
669,1.20e-02,
670,1.20e-02,
671,-8.00e-03,
672,-4.00e-03,
673,1.20e-02,
674,1.20e-02,
675,-8.00e-03,
676,1.20e-02,
677,-8.00e-03,
678,1.20e-02,
679,-8.00e-03,
680,1.20e-02,
681,-4.00e-03,
682,1.20e-02,
683,-8.00e-03,
684,1.20e-02,
685,-8.00e-03,
686,1.20e-02,
687,-8.00e-03,
688,1.20e-02,
689,-9.20e-02,
690,-4.00e-03,
691,1.20e-02,
692,1.20e-02,
693,-8.00e-03,
694,1.20e-02,
695,-8.00e-03,
696,-4.00e-03,
697,1.60e-02,
698,-4.00e-03,
699,1.20e-02,
700,-4.00e-03,
701,1.20e-02,
702,-4.00e-03,
703,1.20e-02,
704,-4.00e-03,
705,1.20e-02,
706,-4.00e-03,
707,1.20e-02,
708,-4.00e-03,
709,1.20e-02,
710,-4.00e-03,
711,1.20e-02,
712,-8.00e-03,
713,1.60e-02,
714,1.20e-02,
715,-8.00e-03,
716,1.20e-02,
717,-8.00e-03,
718,1.60e-02,
719,-8.00e-03,
720,1.60e-02,
721,-8.00e-03,
722,-4.00e-03,
723,1.20e-02,
724,-4.00e-03,
725,1.20e-02,
726,-4.00e-03,
727,1.20e-02,
728,-4.00e-03,
729,1.20e-02,
730,-4.00e-03,
731,1.20e-02,
732,-4.00e-03,
733,1.20e-02,
734,1.20e-02,
735,-8.00e-03,
736,1.20e-02,
737,-8.00e-03,
738,1.20e-02,
739,-8.00e-03,
740,1.20e-02,
741,-8.00e-03,
742,-9.20e-02,
743,1.60e-02,
744,-4.00e-03,
745,1.60e-02,
746,1.20e-02,
747,-4.00e-03,
748,1.20e-02,
749,-4.00e-03,
750,1.20e-02,
751,-8.00e-03,
752,1.20e-02,
753,-4.00e-03,
754,-4.00e-03,
755,1.20e-02,
756,-4.00e-03,
757,1.20e-02,
758,1.20e-02,
759,-4.00e-03,
760,-4.00e-03,
761,1.20e-02,
762,-4.00e-03,
763,1.60e-02,
764,1.20e-02,
765,-4.00e-03,
766,1.20e-02,
767,-8.00e-03,
768,1.20e-02,
769,-8.00e-03,
770,1.20e-02,
771,-4.00e-03,
772,1.20e-02,
773,-8.00e-03,
774,1.20e-02,
775,-8.00e-03,
776,1.60e-02,
777,-8.00e-03,
778,1.20e-02,
779,-8.00e-03,
780,1.20e-02,
781,-8.00e-03,
782,1.20e-02,
783,-8.00e-03,
784,1.20e-02,
785,-4.00e-03,
786,1.20e-02,
787,-4.00e-03,
788,1.20e-02,
789,-8.00e-03,
790,1.20e-02,
791,-8.00e-03,
792,-4.00e-03,
793,1.20e-02,
794,8.00e-02,
795,-2.40e-02,
796,1.20e-02,
797,-8.00e-03,
798,1.20e-02,
799,-8.00e-03,
800,1.20e-02,
801,-8.00e-03,
802,1.20e-02,
803,-8.00e-03,
804,1.20e-02,
805,-8.00e-03,
806,-4.00e-03,
807,1.20e-02,
808,1.20e-02,
809,-8.00e-03,
810,-8.00e-03,
811,1.20e-02,
812,1.20e-02,
813,-8.00e-03,
814,1.20e-02,
815,-8.00e-03,
816,1.20e-02,
817,-8.00e-03,
818,1.20e-02,
819,-8.00e-03,
820,1.20e-02,
821,-8.00e-03,
822,1.20e-02,
823,-8.00e-03,
824,-8.00e-03,
825,1.20e-02,
826,1.20e-02,
827,-4.00e-03,
828,-4.00e-03,
829,1.20e-02,
830,-4.00e-03,
831,1.20e-02,
832,-4.00e-03,
833,1.20e-02,
834,1.20e-02,
835,-4.00e-03,
836,-4.00e-03,
837,1.20e-02,
838,-4.00e-03,
839,1.20e-02,
840,-4.00e-03,
841,1.20e-02,
842,1.20e-02,
843,-4.00e-03,
844,-4.00e-03,
845,1.20e-02,
846,1.20e-02,
847,-8.00e-03,
848,1.20e-02,
849,-8.80e-02,
850,1.20e-02,
851,-8.00e-03,
852,1.20e-02,
853,-8.00e-03,
854,-4.00e-03,
855,1.20e-02,
856,1.60e-02,
857,-8.00e-03,
858,1.20e-02,
859,-8.00e-03,
860,-4.00e-03,
861,1.20e-02,
862,1.20e-02,
863,-8.00e-03,
864,-4.00e-03,
865,1.60e-02,
866,1.20e-02,
867,-8.00e-03,
868,1.20e-02,
869,-4.00e-03,
870,1.20e-02,
871,-8.00e-03,
872,1.60e-02,
873,-8.00e-03,
874,1.20e-02,
875,-8.00e-03,
876,-4.00e-03,
877,1.20e-02,
878,1.20e-02,
879,-8.00e-03,
880,1.20e-02,
881,-8.00e-03,
882,-8.00e-03,
883,1.60e-02,
884,1.20e-02,
885,-8.00e-03,
886,-8.00e-03,
887,1.20e-02,
888,-4.00e-03,
889,1.20e-02,
890,1.20e-02,
891,-8.00e-03,
892,1.20e-02,
893,-8.00e-03,
894,-8.00e-03,
895,1.60e-02,
896,1.20e-02,
897,-8.00e-03,
898,-4.00e-03,
899,1.20e-02,
900,1.60e-02,
901,-1.20e-02,
902,-1.20e-02,
903,1.60e-02,
904,-8.00e-03,
905,1.20e-02,
906,1.20e-02,
907,-8.00e-03,
908,1.20e-02,
909,-8.00e-03,
910,1.20e-02,
911,-8.00e-03,
912,1.20e-02,
913,-4.00e-03,
914,1.20e-02,
915,-8.00e-03,
916,1.20e-02,
917,-8.00e-03,
918,1.20e-02,
919,-8.00e-03,
920,1.20e-02,
921,-4.00e-03,
922,-4.00e-03,
923,1.20e-02,
924,1.20e-02,
925,-8.00e-03,
926,-4.00e-03,
927,1.20e-02,
928,-4.00e-03,
929,1.60e-02,
930,1.20e-02,
931,-8.00e-03,
932,-4.00e-03,
933,1.20e-02,
934,-4.00e-03,
935,1.20e-02,
936,-4.00e-03,
937,1.20e-02,
938,1.20e-02,
939,-8.00e-03,
940,-4.00e-03,
941,1.60e-02,
942,-4.00e-03,
943,1.60e-02,
944,1.20e-02,
945,-8.00e-03,
946,-8.00e-03,
947,1.20e-02,
948,-8.00e-03,
949,1.20e-02,
950,1.20e-02,
951,-4.00e-03,
952,-4.00e-03,
953,1.20e-02,
954,-3.20e-02,
955,3.20e-02,
956,1.20e-02,
957,-8.00e-03,
958,1.20e-02,
959,-4.00e-03,
960,1.20e-02,
961,-8.00e-03,
962,1.20e-02,
963,-4.00e-03,
964,-4.00e-03,
965,1.20e-02,
966,1.20e-02,
967,-8.00e-03,
968,1.20e-02,
969,-8.00e-03,
970,-8.00e-03,
971,1.20e-02,
972,-8.00e-03,
973,1.60e-02,
974,1.20e-02,
975,-8.00e-03,
976,1.20e-02,
977,-8.00e-03,
978,-4.00e-03,
979,1.20e-02,
980,1.60e-02,
981,-8.00e-03,
982,1.20e-02,
983,-8.00e-03,
984,1.60e-02,
985,-8.00e-03,
986,-4.00e-03,
987,1.20e-02,
988,-4.00e-03,
989,1.60e-02,
990,1.20e-02,
991,-4.00e-03,
992,-4.00e-03,
993,1.20e-02,
994,-4.00e-03,
995,1.20e-02,
996,1.20e-02,
997,-4.00e-03,
998,1.20e-02,
999,-8.00e-03,
1000,-4.00e-03,
1001,1.20e-02,
1002,-4.00e-03,
1003,1.20e-02,
1004,-4.00e-03,
1005,1.20e-02,
1006,1.20e-02,
1007,-8.00e-03,
1008,1.20e-02,
1009,-1.60e-02,
1010,-4.00e-03,
1011,1.20e-02,
1012,1.20e-02,
1013,-8.00e-03,
1014,1.20e-02,
1015,-8.00e-03,
1016,1.20e-02,
1017,-8.00e-03,
1018,1.20e-02,
1019,-8.00e-03,
1020,-4.00e-03,
1021,1.20e-02,
1022,-8.00e-03,
1023,1.60e-02,
1024,-8.00e-03,
1025,1.60e-02,
1026,1.20e-02,
1027,-8.00e-03,
1028,1.20e-02,
1029,-8.00e-03,
1030,1.60e-02,
1031,-8.00e-03,
1032,1.20e-02,
1033,-8.00e-03,
1034,1.20e-02,
1035,-8.00e-03,
1036,1.20e-02,
1037,-4.00e-03,
1038,1.20e-02,
1039,-4.00e-03,
1040,1.20e-02,
1041,-8.00e-03,
1042,1.20e-02,
1043,-8.00e-03,
1044,-4.00e-03,
1045,1.20e-02,
1046,-4.00e-03,
1047,1.20e-02,
1048,1.20e-02,
1049,-4.00e-03,
1050,1.20e-02,
1051,-8.00e-03,
1052,1.20e-02,
1053,-8.00e-03,
1054,1.20e-02,
1055,-8.00e-03,
1056,1.20e-02,
1057,-8.00e-03,
1058,1.60e-02,
1059,-8.00e-03,
1060,1.20e-02,
1061,-1.20e-02,
1062,1.20e-02,
1063,-8.00e-03,
1064,1.20e-02,
1065,-8.00e-03,
1066,1.20e-02,
1067,-8.00e-03,
1068,1.60e-02,
1069,-8.00e-03,
1070,1.20e-02,
1071,-8.00e-03,
1072,1.60e-02,
1073,-8.00e-03,
1074,1.20e-02,
1075,-8.00e-03,
1076,1.20e-02,
1077,-4.00e-03,
1078,1.20e-02,
1079,-4.00e-03,
1080,1.20e-02,
1081,-4.00e-03,
1082,1.20e-02,
1083,-4.00e-03,
1084,1.20e-02,
1085,-4.00e-03,
1086,-4.00e-03,
1087,1.20e-02,
1088,1.20e-02,
1089,-8.00e-03,
1090,1.20e-02,
1091,-8.00e-03,
1092,-4.00e-03,
1093,1.20e-02,
1094,-8.00e-03,
1095,1.60e-02,
1096,-8.00e-03,
1097,1.20e-02,
1098,1.20e-02,
1099,-8.00e-03,
1100,1.20e-02,
1101,-8.00e-03,
1102,1.20e-02,
1103,-8.00e-03,
1104,-8.00e-03,
1105,1.60e-02,
1106,1.20e-02,
1107,-8.00e-03,
1108,-8.00e-03,
1109,1.20e-02,
1110,1.20e-02,
1111,-8.00e-03,
1112,1.20e-02,
1113,-8.00e-03,
1114,-7.60e-02,
1115,4.00e-02,
1116,-8.00e-03,
1117,1.20e-02,
1118,1.20e-02,
1119,-4.00e-03,
1120,1.20e-02,
1121,-8.00e-03,
1122,-4.00e-03,
1123,1.20e-02,
1124,-4.00e-03,
1125,1.20e-02,
1126,-4.00e-03,
1127,1.20e-02,
1128,1.20e-02,
1129,-8.00e-03,
1130,1.20e-02,
1131,-8.00e-03,
1132,-8.00e-03,
1133,1.20e-02,
1134,1.60e-02,
1135,-8.00e-03,
1136,1.20e-02,
1137,-8.00e-03,
1138,1.20e-02,
1139,-8.00e-03,
1140,1.20e-02,
1141,-8.00e-03,
1142,1.20e-02,
1143,-4.00e-03,
1144,1.20e-02,
1145,-8.00e-03,
1146,1.20e-02,
1147,-8.00e-03,
1148,1.20e-02,
1149,-8.00e-03,
1150,1.60e-02,
1151,-8.00e-03,
1152,1.20e-02,
1153,-8.00e-03,
1154,1.20e-02,
1155,-8.00e-03,
1156,1.20e-02,
1157,-8.00e-03,
1158,1.20e-02,
1159,-8.00e-03,
1160,1.20e-02,
1161,-8.00e-03,
1162,1.20e-02,
1163,-8.00e-03,
1164,-4.00e-03,
1165,1.20e-02,
1166,-4.40e-02,
1167,2.00e-02,
1168,1.20e-02,
1169,-8.00e-03,
1170,1.20e-02,
1171,-4.00e-03,
1172,1.20e-02,
1173,-8.00e-03,
1174,1.20e-02,
1175,-8.00e-03,
1176,1.20e-02,
1177,-4.00e-03,
1178,1.60e-02,
1179,-8.00e-03,
1180,1.20e-02,
1181,-8.00e-03,
1182,1.20e-02,
1183,-8.00e-03,
1184,1.20e-02,
1185,-8.00e-03,
1186,1.20e-02,
1187,-8.00e-03,
1188,-4.00e-03,
1189,1.20e-02,
1190,1.60e-02,
1191,-8.00e-03,
1192,1.20e-02,
1193,-8.00e-03,
1194,1.20e-02,
1195,-8.00e-03,
1196,1.60e-02,
1197,-8.00e-03,
1198,-4.00e-03,
1199,1.60e-02,
