Laptop_2/LAPTOP_CHRGR_2_OFF/time domain/NewFile27.csv

X,CH1,Start,Increment,
Sequence,Volt,-1.500000e-01,2.000000e-04
0,-8.00e-03,
1,1.60e-02,
2,-8.00e-03,
3,1.60e-02,
4,-8.00e-03,
5,1.60e-02,
6,-8.00e-03,
7,1.60e-02,
8,-8.00e-03,
9,1.60e-02,
10,-8.00e-03,
11,1.60e-02,
12,-8.00e-03,
13,1.60e-02,
14,1.20e-02,
15,-8.00e-03,
16,-8.00e-03,
17,1.60e-02,
18,-8.00e-03,
19,1.20e-02,
20,-8.00e-03,
21,1.60e-02,
22,-8.00e-03,
23,1.20e-02,
24,-1.20e-02,
25,1.60e-02,
26,-8.00e-03,
27,1.60e-02,
28,-8.00e-03,
29,1.60e-02,
30,-8.00e-03,
31,1.20e-02,
32,1.60e-02,
33,-1.20e-02,
34,-8.00e-03,
35,1.60e-02,
36,-8.00e-03,
37,1.60e-02,
38,1.20e-02,
39,-8.00e-03,
40,-8.00e-03,
41,1.20e-02,
42,-1.08e-01,
43,4.00e-02,
44,1.20e-02,
45,-8.00e-03,
46,-8.00e-03,
47,1.60e-02,
48,-8.00e-03,
49,1.60e-02,
50,-8.00e-03,
51,1.20e-02,
52,-8.00e-03,
53,1.20e-02,
54,-1.20e-02,
55,1.60e-02,
56,-8.00e-03,
57,1.60e-02,
58,-8.00e-03,
59,1.60e-02,
60,1.20e-02,
61,-8.00e-03,
62,-8.00e-03,
63,1.60e-02,
64,-8.00e-03,
65,1.20e-02,
66,-8.00e-03,
67,1.60e-02,
68,-8.00e-03,
69,1.60e-02,
70,-8.00e-03,
71,1.60e-02,
72,-8.00e-03,
73,2.00e-02,
74,1.20e-02,
75,-8.00e-03,
76,-8.00e-03,
77,1.60e-02,
78,-8.00e-03,
79,1.60e-02,
80,1.20e-02,
81,-8.00e-03,
82,-8.00e-03,
83,1.60e-02,
84,-8.00e-03,
85,1.60e-02,
86,-8.00e-03,
87,1.60e-02,
88,-8.00e-03,
89,1.60e-02,
90,-8.00e-03,
91,1.60e-02,
92,-8.00e-03,
93,1.60e-02,
94,2.80e-02,
95,-2.00e-02,
96,-8.00e-03,
97,1.60e-02,
98,-8.00e-03,
99,1.20e-02,
100,1.60e-02,
101,-1.20e-02,
102,-8.00e-03,
103,1.60e-02,
104,-8.00e-03,
105,1.60e-02,
106,1.20e-02,
107,-8.00e-03,
108,-8.00e-03,
109,1.60e-02,
110,-8.00e-03,
111,1.60e-02,
112,1.60e-02,
113,-1.20e-02,
114,-8.00e-03,
115,1.60e-02,
116,-8.00e-03,
117,1.60e-02,
118,-8.00e-03,
119,1.60e-02,
120,1.60e-02,
121,-8.00e-03,
122,-8.00e-03,
123,1.20e-02,
124,-8.00e-03,
125,1.60e-02,
126,-8.00e-03,
127,1.60e-02,
128,-8.00e-03,
129,1.20e-02,
130,-8.00e-03,
131,1.20e-02,
132,-8.00e-03,
133,1.20e-02,
134,1.20e-02,
135,-8.00e-03,
136,1.20e-02,
137,-8.00e-03,
138,-8.00e-03,
139,1.60e-02,
140,-8.00e-03,
141,1.60e-02,
142,1.20e-02,
143,-8.00e-03,
144,1.20e-02,
145,-8.00e-03,
146,1.60e-02,
147,-4.40e-02,
148,-2.00e-02,
149,2.40e-02,
150,-8.00e-03,
151,1.20e-02,
152,-8.00e-03,
153,2.00e-02,
154,-8.00e-03,
155,1.60e-02,
156,-8.00e-03,
157,1.60e-02,
158,-8.00e-03,
159,1.60e-02,
160,1.20e-02,
161,-8.00e-03,
162,-8.00e-03,
163,1.60e-02,
164,1.20e-02,
165,-8.00e-03,
166,1.60e-02,
167,-8.00e-03,
168,-8.00e-03,
169,1.20e-02,
170,-8.00e-03,
171,1.20e-02,
172,-8.00e-03,
173,1.60e-02,
174,-8.00e-03,
175,1.60e-02,
176,-8.00e-03,
177,1.20e-02,
178,-8.00e-03,
179,1.60e-02,
180,1.60e-02,
181,-8.00e-03,
182,-8.00e-03,
183,1.60e-02,
184,-8.00e-03,
185,1.20e-02,
186,-8.00e-03,
187,1.60e-02,
188,-8.00e-03,
189,1.60e-02,
190,1.20e-02,
191,-8.00e-03,
192,-8.00e-03,
193,1.20e-02,
194,1.60e-02,
195,-1.20e-02,
196,-8.00e-03,
197,1.60e-02,
198,-8.00e-03,
199,1.60e-02,
200,-4.80e-02,
201,2.00e-02,
202,-8.00e-03,
203,1.60e-02,
204,1.20e-02,
205,-1.20e-02,
206,-8.00e-03,
207,1.20e-02,
208,-8.00e-03,
209,1.20e-02,
210,-8.00e-03,
211,1.60e-02,
212,1.20e-02,
213,-8.00e-03,
214,-8.00e-03,
215,1.60e-02,
216,-8.00e-03,
217,1.60e-02,
218,-8.00e-03,
219,1.60e-02,
220,1.20e-02,
221,-8.00e-03,
222,-8.00e-03,
223,1.60e-02,
224,-8.00e-03,
225,1.20e-02,
226,-8.00e-03,
227,1.60e-02,
228,-8.00e-03,
229,1.60e-02,
230,-8.00e-03,
231,1.60e-02,
232,-8.00e-03,
233,1.60e-02,
234,-8.00e-03,
235,1.60e-02,
236,-8.00e-03,
237,1.60e-02,
238,-8.00e-03,
239,1.60e-02,
240,-1.20e-02,
241,1.60e-02,
242,-1.20e-02,
243,1.60e-02,
244,1.20e-02,
245,-1.20e-02,
246,1.20e-02,
247,-8.00e-03,
248,-1.20e-02,
249,1.60e-02,
250,-8.00e-03,
251,1.20e-02,
252,1.00e-01,
253,-4.00e-02,
254,1.60e-02,
255,-1.60e-02,
256,-8.00e-03,
257,1.60e-02,
258,1.20e-02,
259,-8.00e-03,
260,-8.00e-03,
261,1.20e-02,
262,-8.00e-03,
263,1.20e-02,
264,-8.00e-03,
265,1.20e-02,
266,-8.00e-03,
267,1.60e-02,
268,-8.00e-03,
269,1.20e-02,
270,-8.00e-03,
271,1.60e-02,
272,-8.00e-03,
273,1.60e-02,
274,1.60e-02,
275,-1.20e-02,
276,-8.00e-03,
277,1.60e-02,
278,1.60e-02,
279,-1.20e-02,
280,-8.00e-03,
281,2.00e-02,
282,1.60e-02,
283,-1.20e-02,
284,-8.00e-03,
285,1.60e-02,
286,-8.00e-03,
287,1.20e-02,
288,-8.00e-03,
289,1.20e-02,
290,-8.00e-03,
291,1.60e-02,
292,1.20e-02,
293,-8.00e-03,
294,1.20e-02,
295,-8.00e-03,
296,1.60e-02,
297,-8.00e-03,
298,-8.00e-03,
299,1.60e-02,
300,-8.00e-03,
301,1.60e-02,
302,1.20e-02,
303,-8.00e-03,
304,-8.00e-03,
305,1.60e-02,
306,-6.40e-02,
307,1.12e-01,
308,1.20e-02,
309,-8.00e-03,
310,-8.00e-03,
311,1.60e-02,
312,1.60e-02,
313,-8.00e-03,
314,-8.00e-03,
315,1.60e-02,
316,-8.00e-03,
317,1.60e-02,
318,-8.00e-03,
319,1.20e-02,
320,-8.00e-03,
321,1.60e-02,
322,1.60e-02,
323,-8.00e-03,
324,-8.00e-03,
325,1.20e-02,
326,-8.00e-03,
327,1.60e-02,
328,-8.00e-03,
329,1.20e-02,
330,-8.00e-03,
331,1.60e-02,
332,-8.00e-03,
333,1.60e-02,
334,-8.00e-03,
335,1.60e-02,
336,-8.00e-03,
337,1.60e-02,
338,-8.00e-03,
339,1.60e-02,
340,-8.00e-03,
341,1.60e-02,
342,-8.00e-03,
343,1.60e-02,
344,-8.00e-03,
345,1.60e-02,
346,1.60e-02,
347,-8.00e-03,
348,-8.00e-03,
349,1.60e-02,
350,-8.00e-03,
351,1.20e-02,
352,-8.00e-03,
353,1.60e-02,
354,1.20e-02,
355,-8.00e-03,
356,-8.00e-03,
357,1.60e-02,
358,-5.20e-02,
359,4.80e-02,
360,-8.00e-03,
361,2.00e-02,
362,-8.00e-03,
363,1.60e-02,
364,-1.20e-02,
365,2.00e-02,
366,-8.00e-03,
367,1.60e-02,
368,-8.00e-03,
369,1.60e-02,
370,-8.00e-03,
371,1.60e-02,
372,-8.00e-03,
373,1.60e-02,
374,-8.00e-03,
375,1.60e-02,
376,-8.00e-03,
377,1.60e-02,
378,1.20e-02,
379,-8.00e-03,
380,-8.00e-03,
381,1.60e-02,
382,-8.00e-03,
383,1.60e-02,
384,-8.00e-03,
385,2.00e-02,
386,-8.00e-03,
387,1.60e-02,
388,-8.00e-03,
389,1.60e-02,
390,1.20e-02,
391,-1.20e-02,
392,-8.00e-03,
393,1.60e-02,
394,-8.00e-03,
395,1.60e-02,
396,-8.00e-03,
397,1.20e-02,
398,1.60e-02,
399,-8.00e-03,
400,1.60e-02,
401,-1.20e-02,
402,-8.00e-03,
403,1.60e-02,
404,-8.00e-03,
405,1.60e-02,
406,-8.00e-03,
407,1.60e-02,
408,-8.00e-03,
409,1.60e-02,
410,-8.00e-03,
411,1.60e-02,
412,1.36e-01,
413,-2.40e-02,
414,1.60e-02,
415,-8.00e-03,
416,-8.00e-03,
417,1.60e-02,
418,-8.00e-03,
419,1.60e-02,
420,-1.20e-02,
421,1.60e-02,
422,-8.00e-03,
423,1.60e-02,
424,-8.00e-03,
425,1.60e-02,
426,-8.00e-03,
427,1.60e-02,
428,-8.00e-03,
429,1.60e-02,
430,-8.00e-03,
431,1.20e-02,
432,-8.00e-03,
433,1.20e-02,
434,1.20e-02,
435,-8.00e-03,
436,-8.00e-03,
437,1.60e-02,
438,-8.00e-03,
439,1.60e-02,
440,-8.00e-03,
441,1.60e-02,
442,1.20e-02,
443,-8.00e-03,
444,1.60e-02,
445,-8.00e-03,
446,-8.00e-03,
447,1.60e-02,
448,-8.00e-03,
449,1.60e-02,
450,-8.00e-03,
451,1.60e-02,
452,1.20e-02,
453,-8.00e-03,
454,-8.00e-03,
455,1.60e-02,
456,1.20e-02,
457,-8.00e-03,
458,-8.00e-03,
459,1.60e-02,
460,-8.00e-03,
461,1.60e-02,
462,-8.00e-03,
463,1.60e-02,
464,-8.00e-03,
465,4.80e-02,
466,-8.00e-03,
467,1.60e-02,
468,-8.00e-03,
469,1.60e-02,
470,-8.00e-03,
471,1.20e-02,
472,1.20e-02,
473,-8.00e-03,
474,-8.00e-03,
475,1.20e-02,
476,-8.00e-03,
477,1.60e-02,
478,1.60e-02,
479,-1.20e-02,
480,1.60e-02,
481,-8.00e-03,
482,-8.00e-03,
483,1.60e-02,
484,-8.00e-03,
485,1.60e-02,
486,-8.00e-03,
487,1.60e-02,
488,-8.00e-03,
489,1.60e-02,
490,1.20e-02,
491,-1.20e-02,
492,-8.00e-03,
493,1.60e-02,
494,-8.00e-03,
495,1.60e-02,
496,-8.00e-03,
497,1.60e-02,
498,-8.00e-03,
499,1.60e-02,
500,-8.00e-03,
501,1.60e-02,
502,-8.00e-03,
503,1.60e-02,
504,-8.00e-03,
505,1.60e-02,
506,-8.00e-03,
507,1.60e-02,
508,1.60e-02,
509,-8.00e-03,
510,1.60e-02,
511,-1.20e-02,
512,-8.00e-03,
513,1.60e-02,
514,-8.00e-03,
515,1.60e-02,
516,1.60e-02,
517,-2.00e-02,
518,-8.00e-03,
519,1.60e-02,
520,-8.00e-03,
521,1.60e-02,
522,-8.00e-03,
523,1.20e-02,
524,-8.00e-03,
525,1.60e-02,
526,-8.00e-03,
527,1.60e-02,
528,-8.00e-03,
529,1.60e-02,
530,1.20e-02,
531,-8.00e-03,
532,-8.00e-03,
533,1.60e-02,
534,-8.00e-03,
535,1.60e-02,
536,-8.00e-03,
537,1.60e-02,
538,1.20e-02,
539,-8.00e-03,
540,-8.00e-03,
541,1.60e-02,
542,1.60e-02,
543,-8.00e-03,
544,-8.00e-03,
545,1.20e-02,
546,-8.00e-03,
547,1.60e-02,
548,-8.00e-03,
549,1.60e-02,
550,-8.00e-03,
551,1.60e-02,
552,1.60e-02,
553,-8.00e-03,
554,-8.00e-03,
555,1.60e-02,
556,-8.00e-03,
557,1.60e-02,
558,-8.00e-03,
559,1.60e-02,
560,1.60e-02,
561,-8.00e-03,
562,-8.00e-03,
563,1.60e-02,
564,1.60e-02,
565,-8.00e-03,
566,-8.00e-03,
567,1.60e-02,
568,-8.00e-03,
569,1.60e-02,
570,-2.00e-02,
571,6.80e-02,
572,-8.00e-03,
573,1.60e-02,
574,-8.00e-03,
575,1.60e-02,
576,-8.00e-03,
577,1.60e-02,
578,1.20e-02,
579,-8.00e-03,
580,-8.00e-03,
581,1.60e-02,
582,-8.00e-03,
583,1.60e-02,
584,-8.00e-03,
585,1.60e-02,
586,-8.00e-03,
587,1.60e-02,
588,-8.00e-03,
589,1.60e-02,
590,-8.00e-03,
591,1.60e-02,
592,-8.00e-03,
593,1.60e-02,
594,-8.00e-03,
595,1.60e-02,
596,-8.00e-03,
597,1.60e-02,
598,1.60e-02,
599,-1.20e-02,
600,-8.00e-03,
601,1.60e-02,
602,-8.00e-03,
603,1.60e-02,
604,-8.00e-03,
605,1.20e-02,
606,-8.00e-03,
607,1.60e-02,
608,-1.20e-02,
609,1.60e-02,
610,-8.00e-03,
611,1.60e-02,
612,1.60e-02,
613,-8.00e-03,
614,-8.00e-03,
615,1.60e-02,
616,1.20e-02,
617,-8.00e-03,
618,-8.00e-03,
619,1.60e-02,
620,-8.00e-03,
621,1.60e-02,
622,-4.40e-02,
623,6.00e-02,
624,1.60e-02,
625,-8.00e-03,
626,1.60e-02,
627,-8.00e-03,
628,1.20e-02,
629,-8.00e-03,
630,-8.00e-03,
631,1.60e-02,
632,-8.00e-03,
633,1.60e-02,
634,-8.00e-03,
635,1.60e-02,
636,-8.00e-03,
637,1.60e-02,
638,-8.00e-03,
639,1.20e-02,
640,-8.00e-03,
641,1.60e-02,
642,-8.00e-03,
643,1.20e-02,
644,1.20e-02,
645,-8.00e-03,
646,1.60e-02,
647,-8.00e-03,
648,1.20e-02,
649,-8.00e-03,
650,-8.00e-03,
651,1.60e-02,
652,-8.00e-03,
653,1.20e-02,
654,1.60e-02,
655,-1.20e-02,
656,-8.00e-03,
657,1.60e-02,
658,-8.00e-03,
659,1.60e-02,
660,1.60e-02,
661,-8.00e-03,
662,1.60e-02,
663,-8.00e-03,
664,1.20e-02,
665,-8.00e-03,
666,-8.00e-03,
667,1.60e-02,
668,-8.00e-03,
669,1.60e-02,
670,-8.00e-03,
671,1.60e-02,
672,-8.00e-03,
673,1.60e-02,
674,-3.60e-02,
675,3.20e-02,
676,-8.00e-03,
677,1.60e-02,
678,1.60e-02,
679,-8.00e-03,
680,1.60e-02,
681,-8.00e-03,
682,-8.00e-03,
683,1.60e-02,
684,-8.00e-03,
685,1.20e-02,
686,-8.00e-03,
687,1.60e-02,
688,-8.00e-03,
689,1.60e-02,
690,-8.00e-03,
691,1.20e-02,
692,-8.00e-03,
693,1.20e-02,
694,-8.00e-03,
695,1.20e-02,
696,-8.00e-03,
697,1.60e-02,
698,1.20e-02,
699,-8.00e-03,
700,1.60e-02,
701,-8.00e-03,
702,1.20e-02,
703,-8.00e-03,
704,-8.00e-03,
705,1.60e-02,
706,1.60e-02,
707,-1.20e-02,
708,-8.00e-03,
709,1.60e-02,
710,-8.00e-03,
711,1.60e-02,
712,-8.00e-03,
713,1.60e-02,
714,1.60e-02,
715,-8.00e-03,
716,-8.00e-03,
717,1.60e-02,
718,1.60e-02,
719,-8.00e-03,
720,-8.00e-03,
721,2.00e-02,
722,-8.00e-03,
723,1.60e-02,
724,-8.00e-03,
725,1.60e-02,
726,1.60e-02,
727,-6.40e-02,
728,3.20e-02,
729,-2.80e-02,
730,-8.00e-03,
731,1.60e-02,
732,-8.00e-03,
733,1.20e-02,
734,1.20e-02,
735,-8.00e-03,
736,1.60e-02,
737,-1.20e-02,
738,-8.00e-03,
739,1.60e-02,
740,1.20e-02,
741,-8.00e-03,
742,-8.00e-03,
743,1.60e-02,
744,-8.00e-03,
745,1.60e-02,
746,1.20e-02,
747,-8.00e-03,
748,-8.00e-03,
749,1.60e-02,
750,-8.00e-03,
751,1.60e-02,
752,-8.00e-03,
753,1.20e-02,
754,-8.00e-03,
755,1.60e-02,
756,-8.00e-03,
757,1.60e-02,
758,-8.00e-03,
759,1.20e-02,
760,-8.00e-03,
761,1.60e-02,
762,-8.00e-03,
763,1.60e-02,
764,-8.00e-03,
765,1.60e-02,
766,-8.00e-03,
767,1.20e-02,
768,-8.00e-03,
769,1.60e-02,
770,-8.00e-03,
771,1.60e-02,
772,-8.00e-03,
773,1.60e-02,
774,-8.00e-03,
775,1.60e-02,
776,-8.00e-03,
777,1.60e-02,
778,-8.00e-03,
779,1.60e-02,
780,2.40e-02,
781,-6.00e-02,
782,1.60e-02,
783,-8.00e-03,
784,-8.00e-03,
785,1.60e-02,
786,-8.00e-03,
787,1.60e-02,
788,-8.00e-03,
789,1.60e-02,
790,-8.00e-03,
791,1.60e-02,
792,-8.00e-03,
793,1.60e-02,
794,-8.00e-03,
795,1.60e-02,
796,1.20e-02,
797,-8.00e-03,
798,-8.00e-03,
799,1.60e-02,
800,-8.00e-03,
801,1.20e-02,
802,-8.00e-03,
803,1.20e-02,
804,-8.00e-03,
805,1.60e-02,
806,-8.00e-03,
807,1.60e-02,
808,-8.00e-03,
809,1.60e-02,
810,-8.00e-03,
811,1.60e-02,
812,-8.00e-03,
813,1.20e-02,
814,1.20e-02,
815,-8.00e-03,
816,-8.00e-03,
817,1.60e-02,
818,-8.00e-03,
819,1.20e-02,
820,-8.00e-03,
821,1.60e-02,
822,-8.00e-03,
823,1.60e-02,
824,-8.00e-03,
825,1.20e-02,
826,-8.00e-03,
827,1.20e-02,
828,-8.00e-03,
829,1.20e-02,
830,1.60e-02,
831,-8.00e-03,
832,1.08e-01,
833,-9.20e-02,
834,-8.00e-03,
835,1.20e-02,
836,-8.00e-03,
837,1.60e-02,
838,-8.00e-03,
839,1.60e-02,
840,-8.00e-03,
841,1.20e-02,
842,-8.00e-03,
843,1.20e-02,
844,1.60e-02,
845,-8.00e-03,
846,-8.00e-03,
847,1.60e-02,
848,1.60e-02,
849,-1.20e-02,
850,-8.00e-03,
851,1.60e-02,
852,1.20e-02,
853,-8.00e-03,
854,1.20e-02,
855,-8.00e-03,
856,-8.00e-03,
857,1.60e-02,
858,-8.00e-03,
859,1.60e-02,
860,-8.00e-03,
861,1.20e-02,
862,-8.00e-03,
863,1.60e-02,
864,-8.00e-03,
865,1.60e-02,
866,-8.00e-03,
867,1.60e-02,
868,-8.00e-03,
869,1.20e-02,
870,-8.00e-03,
871,1.60e-02,
872,-8.00e-03,
873,1.20e-02,
874,-8.00e-03,
875,1.60e-02,
876,-8.00e-03,
877,1.60e-02,
878,1.20e-02,
879,-8.00e-03,
880,-8.00e-03,
881,1.60e-02,
882,-8.00e-03,
883,1.60e-02,
884,1.28e-01,
885,-2.00e-02,
886,1.60e-02,
887,-8.00e-03,
888,-8.00e-03,
889,1.60e-02,
890,-8.00e-03,
891,1.60e-02,
892,-8.00e-03,
893,1.60e-02,
894,-8.00e-03,
895,1.60e-02,
896,-8.00e-03,
897,1.60e-02,
898,-8.00e-03,
899,1.60e-02,
900,-8.00e-03,
901,1.60e-02,
902,1.60e-02,
903,-1.20e-02,
904,-8.00e-03,
905,1.60e-02,
906,-8.00e-03,
907,1.20e-02,
908,-8.00e-03,
909,1.60e-02,
910,-8.00e-03,
911,1.20e-02,
912,-8.00e-03,
913,1.60e-02,
914,1.20e-02,
915,-8.00e-03,
916,-8.00e-03,
917,1.60e-02,
918,-8.00e-03,
919,1.60e-02,
920,1.20e-02,
921,-8.00e-03,
922,-8.00e-03,
923,1.60e-02,
924,-8.00e-03,
925,1.20e-02,
926,-8.00e-03,
927,1.20e-02,
928,-8.00e-03,
929,1.60e-02,
930,-1.20e-02,
931,1.60e-02,
932,-8.00e-03,
933,1.60e-02,
934,-8.00e-03,
935,1.60e-02,
936,6.80e-02,
937,-2.80e-02,
938,-7.20e-02,
939,2.00e-02,
940,1.60e-02,
941,-1.20e-02,
942,-8.00e-03,
943,1.60e-02,
944,-8.00e-03,
945,1.60e-02,
946,-8.00e-03,
947,1.60e-02,
948,1.60e-02,
949,-8.00e-03,
950,-8.00e-03,
951,1.60e-02,
952,-8.00e-03,
953,1.60e-02,
954,1.20e-02,
955,-8.00e-03,
956,-8.00e-03,
957,1.60e-02,
958,1.60e-02,
959,-8.00e-03,
960,-8.00e-03,
961,1.60e-02,
962,-8.00e-03,
963,1.60e-02,
964,-8.00e-03,
965,1.60e-02,
966,1.20e-02,
967,-8.00e-03,
968,1.20e-02,
969,-8.00e-03,
970,-8.00e-03,
971,1.60e-02,
972,-8.00e-03,
973,1.20e-02,
974,-8.00e-03,
975,1.20e-02,
976,-8.00e-03,
977,1.20e-02,
978,-8.00e-03,
979,1.60e-02,
980,-8.00e-03,
981,1.60e-02,
982,1.60e-02,
983,-1.20e-02,
984,-8.00e-03,
985,1.60e-02,
986,-8.00e-03,
987,1.20e-02,
988,-8.00e-03,
989,1.60e-02,
990,2.40e-02,
991,-3.60e-02,
992,-8.00e-03,
993,1.60e-02,
994,-8.00e-03,
995,1.20e-02,
996,1.60e-02,
997,-8.00e-03,
998,-8.00e-03,
999,1.20e-02,
1000,-8.00e-03,
1001,1.20e-02,
1002,-8.00e-03,
1003,1.60e-02,
1004,-8.00e-03,
1005,1.60e-02,
1006,1.20e-02,
1007,-8.00e-03,
1008,-8.00e-03,
1009,1.60e-02,
1010,-8.00e-03,
1011,1.60e-02,
1012,-1.20e-02,
1013,1.60e-02,
1014,-8.00e-03,
1015,1.60e-02,
1016,-8.00e-03,
1017,1.60e-02,
1018,1.20e-02,
1019,-8.00e-03,
1020,-8.00e-03,
1021,1.60e-02,
1022,-8.00e-03,
1023,1.60e-02,
1024,-8.00e-03,
1025,1.60e-02,
1026,-8.00e-03,
1027,1.60e-02,
1028,1.60e-02,
1029,-1.20e-02,
1030,-8.00e-03,
1031,1.60e-02,
1032,-8.00e-03,
1033,1.20e-02,
1034,-8.00e-03,
1035,1.60e-02,
1036,-8.00e-03,
1037,1.60e-02,
1038,-8.00e-03,
1039,1.60e-02,
1040,-8.00e-03,
1041,1.60e-02,
1042,-8.00e-03,
1043,1.60e-02,
1044,2.80e-02,
1045,-4.40e-02,
1046,-8.00e-03,
1047,1.20e-02,
1048,1.20e-02,
1049,-8.00e-03,
1050,1.20e-02,
1051,-8.00e-03,
1052,-8.00e-03,
1053,1.60e-02,
1054,-8.00e-03,
1055,1.60e-02,
1056,-8.00e-03,
1057,1.60e-02,
1058,1.60e-02,
1059,-8.00e-03,
1060,-8.00e-03,
1061,1.60e-02,
1062,-8.00e-03,
1063,1.20e-02,
1064,1.60e-02,
1065,-8.00e-03,
1066,-8.00e-03,
1067,1.60e-02,
1068,-8.00e-03,
1069,1.60e-02,
1070,1.60e-02,
1071,-8.00e-03,
1072,-8.00e-03,
1073,1.60e-02,
1074,1.60e-02,
1075,-1.20e-02,
1076,-8.00e-03,
1077,1.60e-02,
1078,-8.00e-03,
1079,1.60e-02,
1080,-8.00e-03,
1081,1.60e-02,
1082,-8.00e-03,
1083,1.60e-02,
1084,-8.00e-03,
1085,1.60e-02,
1086,1.60e-02,
1087,-8.00e-03,
1088,1.20e-02,
1089,-8.00e-03,
1090,1.60e-02,
1091,-8.00e-03,
1092,-8.00e-03,
1093,1.60e-02,
1094,-8.00e-03,
1095,1.60e-02,
1096,9.20e-02,
1097,-2.00e-02,
1098,1.20e-02,
1099,-8.00e-03,
1100,-8.00e-03,
1101,1.60e-02,
1102,1.60e-02,
1103,-8.00e-03,
1104,-8.00e-03,
1105,1.60e-02,
1106,-8.00e-03,
1107,1.60e-02,
1108,-8.00e-03,
1109,1.60e-02,
1110,-8.00e-03,
1111,1.60e-02,
1112,1.60e-02,
1113,-8.00e-03,
1114,-8.00e-03,
1115,1.60e-02,
1116,-1.20e-02,
1117,1.60e-02,
1118,-8.00e-03,
1119,1.20e-02,
1120,-8.00e-03,
1121,1.60e-02,
1122,-8.00e-03,
1123,1.60e-02,
1124,-8.00e-03,
1125,1.60e-02,
1126,-8.00e-03,
1127,1.60e-02,
1128,-8.00e-03,
1129,1.20e-02,
1130,-8.00e-03,
1131,1.20e-02,
1132,-8.00e-03,
1133,1.60e-02,
1134,-8.00e-03,
1135,1.20e-02,
1136,-8.00e-03,
1137,1.20e-02,
1138,-8.00e-03,
1139,1.20e-02,
1140,-8.00e-03,
1141,1.60e-02,
1142,-8.00e-03,
1143,1.60e-02,
1144,1.20e-02,
1145,-8.00e-03,
1146,-8.00e-03,
1147,1.20e-02,
1148,-2.80e-02,
1149,2.40e-02,
1150,-8.00e-03,
1151,1.20e-02,
1152,-8.00e-03,
1153,1.60e-02,
1154,-8.00e-03,
1155,1.60e-02,
1156,-8.00e-03,
1157,1.60e-02,
1158,-8.00e-03,
1159,1.60e-02,
1160,-8.00e-03,
1161,1.60e-02,
1162,-8.00e-03,
1163,1.60e-02,
1164,-8.00e-03,
1165,1.20e-02,
1166,-8.00e-03,
1167,1.60e-02,
1168,-8.00e-03,
1169,1.60e-02,
1170,-8.00e-03,
1171,1.60e-02,
1172,-8.00e-03,
1173,1.60e-02,
1174,-8.00e-03,
1175,1.60e-02,
1176,1.20e-02,
1177,-8.00e-03,
1178,1.20e-02,
1179,-8.00e-03,
1180,-8.00e-03,
1181,1.60e-02,
1182,-8.00e-03,
1183,1.60e-02,
1184,1.60e-02,
1185,-8.00e-03,
1186,-8.00e-03,
1187,1.60e-02,
1188,-8.00e-03,
1189,1.60e-02,
1190,-8.00e-03,
1191,1.20e-02,
1192,-8.00e-03,
1193,1.60e-02,
1194,-8.00e-03,
1195,1.60e-02,
1196,-1.20e-02,
1197,1.60e-02,
1198,-8.00e-03,
1199,1.60e-02,
