Laptop_2/LAPTOP_CHRGR_2_OFF/time domain/NewFile45.csv

X,CH1,Start,Increment,
Sequence,Volt,-1.500000e-01,2.000000e-04
0,1.60e-02,
1,-1.20e-02,
2,-8.00e-03,
3,1.60e-02,
4,-8.00e-03,
5,2.00e-02,
6,-8.00e-03,
7,1.60e-02,
8,1.60e-02,
9,-1.20e-02,
10,1.60e-02,
11,-8.00e-03,
12,-8.00e-03,
13,1.60e-02,
14,1.60e-02,
15,-8.00e-03,
16,-8.00e-03,
17,1.60e-02,
18,-8.00e-03,
19,1.60e-02,
20,-8.00e-03,
21,1.60e-02,
22,1.60e-02,
23,-8.00e-03,
24,-8.00e-03,
25,1.60e-02,
26,1.60e-02,
27,-8.00e-03,
28,-8.00e-03,
29,1.60e-02,
30,1.60e-02,
31,-1.20e-02,
32,1.60e-02,
33,-1.20e-02,
34,1.60e-02,
35,-1.20e-02,
36,-1.20e-02,
37,1.60e-02,
38,-8.00e-03,
39,9.60e-02,
40,1.60e-02,
41,-8.00e-03,
42,-8.00e-03,
43,1.60e-02,
44,-8.00e-03,
45,1.60e-02,
46,1.60e-02,
47,-8.00e-03,
48,1.60e-02,
49,-1.20e-02,
50,-8.00e-03,
51,1.60e-02,
52,1.60e-02,
53,-8.00e-03,
54,-8.00e-03,
55,1.60e-02,
56,-8.00e-03,
57,1.60e-02,
58,-8.00e-03,
59,1.60e-02,
60,1.60e-02,
61,-1.20e-02,
62,-8.00e-03,
63,1.60e-02,
64,1.60e-02,
65,-8.00e-03,
66,1.60e-02,
67,-1.20e-02,
68,1.60e-02,
69,-1.20e-02,
70,-8.00e-03,
71,1.60e-02,
72,1.60e-02,
73,-1.20e-02,
74,1.60e-02,
75,-1.20e-02,
76,-8.00e-03,
77,1.60e-02,
78,1.60e-02,
79,-1.20e-02,
80,-1.20e-02,
81,1.60e-02,
82,-8.00e-03,
83,1.60e-02,
84,-8.00e-03,
85,1.60e-02,
86,-8.00e-03,
87,2.00e-02,
88,-8.00e-03,
89,1.60e-02,
90,-2.08e-01,
91,7.60e-02,
92,-8.00e-03,
93,1.60e-02,
94,-8.00e-03,
95,1.60e-02,
96,-8.00e-03,
97,1.60e-02,
98,-8.00e-03,
99,1.60e-02,
100,-8.00e-03,
101,1.60e-02,
102,1.60e-02,
103,-8.00e-03,
104,-8.00e-03,
105,1.60e-02,
106,-8.00e-03,
107,1.60e-02,
108,-8.00e-03,
109,1.60e-02,
110,-1.20e-02,
111,1.60e-02,
112,-8.00e-03,
113,1.60e-02,
114,-8.00e-03,
115,1.60e-02,
116,-8.00e-03,
117,1.60e-02,
118,-8.00e-03,
119,1.60e-02,
120,1.60e-02,
121,-8.00e-03,
122,-8.00e-03,
123,1.60e-02,
124,-8.00e-03,
125,1.60e-02,
126,-8.00e-03,
127,1.60e-02,
128,-1.20e-02,
129,1.60e-02,
130,1.60e-02,
131,-1.20e-02,
132,-8.00e-03,
133,1.60e-02,
134,-8.00e-03,
135,1.60e-02,
136,-8.00e-03,
137,1.60e-02,
138,-8.00e-03,
139,1.60e-02,
140,-8.00e-03,
141,1.60e-02,
142,-8.00e-03,
143,1.60e-02,
144,7.20e-02,
145,-2.00e-02,
146,-8.00e-03,
147,1.60e-02,
148,1.60e-02,
149,-1.20e-02,
150,-8.00e-03,
151,1.60e-02,
152,-8.00e-03,
153,1.60e-02,
154,1.60e-02,
155,-1.20e-02,
156,-8.00e-03,
157,1.60e-02,
158,1.60e-02,
159,-1.20e-02,
160,-8.00e-03,
161,1.60e-02,
162,-8.00e-03,
163,1.60e-02,
164,-8.00e-03,
165,1.60e-02,
166,-8.00e-03,
167,1.60e-02,
168,-8.00e-03,
169,1.60e-02,
170,1.60e-02,
171,-1.20e-02,
172,-8.00e-03,
173,1.60e-02,
174,-8.00e-03,
175,1.60e-02,
176,-8.00e-03,
177,1.60e-02,
178,-1.20e-02,
179,1.60e-02,
180,-8.00e-03,
181,1.60e-02,
182,-8.00e-03,
183,1.60e-02,
184,-8.00e-03,
185,1.60e-02,
186,-8.00e-03,
187,1.60e-02,
188,1.60e-02,
189,-8.00e-03,
190,1.60e-02,
191,-8.00e-03,
192,1.60e-02,
193,-1.20e-02,
194,-8.00e-03,
195,1.60e-02,
196,-2.00e-02,
197,1.96e-01,
198,-8.00e-03,
199,1.60e-02,
200,1.60e-02,
201,-1.20e-02,
202,-8.00e-03,
203,1.60e-02,
204,-8.00e-03,
205,1.60e-02,
206,-8.00e-03,
207,1.60e-02,
208,1.60e-02,
209,-1.20e-02,
210,1.60e-02,
211,-8.00e-03,
212,1.60e-02,
213,-1.20e-02,
214,1.60e-02,
215,-8.00e-03,
216,-8.00e-03,
217,1.60e-02,
218,-8.00e-03,
219,1.60e-02,
220,1.60e-02,
221,-8.00e-03,
222,-8.00e-03,
223,1.60e-02,
224,-8.00e-03,
225,1.60e-02,
226,1.60e-02,
227,-1.20e-02,
228,-8.00e-03,
229,1.60e-02,
230,-8.00e-03,
231,1.60e-02,
232,-8.00e-03,
233,1.60e-02,
234,-8.00e-03,
235,1.60e-02,
236,1.60e-02,
237,-1.20e-02,
238,-8.00e-03,
239,1.60e-02,
240,-8.00e-03,
241,1.60e-02,
242,1.60e-02,
243,-1.20e-02,
244,1.60e-02,
245,-1.20e-02,
246,-8.00e-03,
247,1.60e-02,
248,-8.00e-03,
249,1.60e-02,
250,7.20e-02,
251,-3.60e-02,
252,-8.00e-03,
253,1.60e-02,
254,-8.00e-03,
255,1.60e-02,
256,1.60e-02,
257,-1.20e-02,
258,-8.00e-03,
259,1.60e-02,
260,-8.00e-03,
261,1.60e-02,
262,1.60e-02,
263,-1.20e-02,
264,1.60e-02,
265,-1.20e-02,
266,-8.00e-03,
267,1.60e-02,
268,1.60e-02,
269,-1.20e-02,
270,-8.00e-03,
271,1.60e-02,
272,1.60e-02,
273,-1.20e-02,
274,-8.00e-03,
275,1.60e-02,
276,-8.00e-03,
277,1.60e-02,
278,1.60e-02,
279,-1.20e-02,
280,-8.00e-03,
281,1.60e-02,
282,1.60e-02,
283,-1.20e-02,
284,-1.20e-02,
285,1.60e-02,
286,1.60e-02,
287,-1.20e-02,
288,-8.00e-03,
289,1.60e-02,
290,-8.00e-03,
291,1.60e-02,
292,-1.20e-02,
293,1.60e-02,
294,-8.00e-03,
295,1.60e-02,
296,-8.00e-03,
297,1.60e-02,
298,1.60e-02,
299,-1.20e-02,
300,-8.00e-03,
301,1.60e-02,
302,-8.00e-03,
303,9.20e-02,
304,1.60e-02,
305,-8.00e-03,
306,1.60e-02,
307,-8.00e-03,
308,1.60e-02,
309,-1.20e-02,
310,1.60e-02,
311,-8.00e-03,
312,-8.00e-03,
313,1.60e-02,
314,1.60e-02,
315,-8.00e-03,
316,-8.00e-03,
317,1.60e-02,
318,-8.00e-03,
319,1.60e-02,
320,-8.00e-03,
321,1.60e-02,
322,-8.00e-03,
323,1.60e-02,
324,-8.00e-03,
325,1.60e-02,
326,-1.20e-02,
327,1.60e-02,
328,-8.00e-03,
329,1.60e-02,
330,1.60e-02,
331,-8.00e-03,
332,-1.20e-02,
333,1.60e-02,
334,-8.00e-03,
335,1.60e-02,
336,-8.00e-03,
337,1.60e-02,
338,-8.00e-03,
339,1.60e-02,
340,-8.00e-03,
341,1.60e-02,
342,-8.00e-03,
343,1.60e-02,
344,-8.00e-03,
345,1.60e-02,
346,1.60e-02,
347,-1.20e-02,
348,1.60e-02,
349,-8.00e-03,
350,-8.00e-03,
351,1.60e-02,
352,-8.00e-03,
353,1.60e-02,
354,-8.00e-03,
355,7.20e-02,
356,-4.40e-02,
357,1.60e-02,
358,1.60e-02,
359,-8.00e-03,
360,-8.00e-03,
361,1.60e-02,
362,-8.00e-03,
363,1.60e-02,
364,-8.00e-03,
365,1.60e-02,
366,1.60e-02,
367,-1.20e-02,
368,-8.00e-03,
369,1.60e-02,
370,1.60e-02,
371,-1.20e-02,
372,1.60e-02,
373,-1.20e-02,
374,-1.20e-02,
375,1.60e-02,
376,-1.20e-02,
377,1.60e-02,
378,-8.00e-03,
379,1.60e-02,
380,-8.00e-03,
381,1.60e-02,
382,1.60e-02,
383,-1.20e-02,
384,-8.00e-03,
385,1.60e-02,
386,-8.00e-03,
387,1.60e-02,
388,1.60e-02,
389,-8.00e-03,
390,1.60e-02,
391,-1.20e-02,
392,-8.00e-03,
393,1.60e-02,
394,-8.00e-03,
395,1.60e-02,
396,-8.00e-03,
397,1.60e-02,
398,1.60e-02,
399,-8.00e-03,
400,1.60e-02,
401,-1.20e-02,
402,-8.00e-03,
403,1.60e-02,
404,1.60e-02,
405,-1.20e-02,
406,-8.00e-03,
407,1.60e-02,
408,-1.76e-01,
409,4.40e-02,
410,1.60e-02,
411,-1.20e-02,
412,-8.00e-03,
413,1.60e-02,
414,-1.20e-02,
415,1.60e-02,
416,-8.00e-03,
417,1.60e-02,
418,-8.00e-03,
419,1.60e-02,
420,-8.00e-03,
421,1.60e-02,
422,1.60e-02,
423,-1.20e-02,
424,1.60e-02,
425,-1.20e-02,
426,-8.00e-03,
427,1.60e-02,
428,1.60e-02,
429,-1.20e-02,
430,-8.00e-03,
431,1.60e-02,
432,-8.00e-03,
433,1.60e-02,
434,-8.00e-03,
435,1.60e-02,
436,-8.00e-03,
437,1.60e-02,
438,-8.00e-03,
439,1.60e-02,
440,-8.00e-03,
441,1.60e-02,
442,-8.00e-03,
443,1.60e-02,
444,1.60e-02,
445,-1.20e-02,
446,-8.00e-03,
447,1.60e-02,
448,1.60e-02,
449,-1.20e-02,
450,-8.00e-03,
451,1.60e-02,
452,1.60e-02,
453,-1.20e-02,
454,-8.00e-03,
455,1.60e-02,
456,1.60e-02,
457,-1.20e-02,
458,1.60e-02,
459,-1.20e-02,
460,6.80e-02,
461,-6.00e-02,
462,-8.00e-03,
463,1.60e-02,
464,1.60e-02,
465,-1.20e-02,
466,-8.00e-03,
467,1.60e-02,
468,-8.00e-03,
469,1.60e-02,
470,-8.00e-03,
471,1.60e-02,
472,-8.00e-03,
473,1.60e-02,
474,1.60e-02,
475,-1.20e-02,
476,-8.00e-03,
477,1.60e-02,
478,-8.00e-03,
479,1.60e-02,
480,-1.20e-02,
481,1.60e-02,
482,-8.00e-03,
483,1.60e-02,
484,-8.00e-03,
485,1.60e-02,
486,-8.00e-03,
487,1.60e-02,
488,1.60e-02,
489,-1.20e-02,
490,-8.00e-03,
491,1.60e-02,
492,-8.00e-03,
493,1.60e-02,
494,1.60e-02,
495,-8.00e-03,
496,1.60e-02,
497,-1.20e-02,
498,1.60e-02,
499,-1.20e-02,
500,-8.00e-03,
501,1.60e-02,
502,-8.00e-03,
503,1.60e-02,
504,-8.00e-03,
505,1.60e-02,
506,-8.00e-03,
507,1.60e-02,
508,1.60e-02,
509,-1.20e-02,
510,-8.00e-03,
511,1.60e-02,
512,-1.20e-02,
513,1.60e-02,
514,-4.00e-02,
515,3.20e-02,
516,-8.00e-03,
517,1.60e-02,
518,-8.00e-03,
519,1.60e-02,
520,1.60e-02,
521,-1.20e-02,
522,-1.20e-02,
523,1.60e-02,
524,-8.00e-03,
525,1.60e-02,
526,-8.00e-03,
527,1.60e-02,
528,1.60e-02,
529,-1.20e-02,
530,-8.00e-03,
531,1.60e-02,
532,1.60e-02,
533,-1.20e-02,
534,1.60e-02,
535,-1.20e-02,
536,-8.00e-03,
537,1.60e-02,
538,-8.00e-03,
539,1.60e-02,
540,-8.00e-03,
541,2.00e-02,
542,-8.00e-03,
543,1.60e-02,
544,-8.00e-03,
545,1.60e-02,
546,-8.00e-03,
547,1.60e-02,
548,1.60e-02,
549,-1.20e-02,
550,-8.00e-03,
551,1.60e-02,
552,-8.00e-03,
553,1.60e-02,
554,-8.00e-03,
555,1.60e-02,
556,-8.00e-03,
557,1.60e-02,
558,1.60e-02,
559,-1.20e-02,
560,-8.00e-03,
561,1.60e-02,
562,1.60e-02,
563,-1.20e-02,
564,-8.00e-03,
565,1.60e-02,
566,-1.72e-01,
567,6.40e-02,
568,-8.00e-03,
569,1.60e-02,
570,1.60e-02,
571,-1.20e-02,
572,1.60e-02,
573,-1.20e-02,
574,-1.20e-02,
575,1.60e-02,
576,-8.00e-03,
577,1.60e-02,
578,1.60e-02,
579,-1.20e-02,
580,-8.00e-03,
581,1.60e-02,
582,-8.00e-03,
583,1.60e-02,
584,1.60e-02,
585,-8.00e-03,
586,-8.00e-03,
587,1.60e-02,
588,1.60e-02,
589,-8.00e-03,
590,1.60e-02,
591,-1.20e-02,
592,-8.00e-03,
593,1.60e-02,
594,1.60e-02,
595,-1.20e-02,
596,1.60e-02,
597,-1.20e-02,
598,-8.00e-03,
599,1.60e-02,
600,-8.00e-03,
601,1.60e-02,
602,1.60e-02,
603,-1.20e-02,
604,-8.00e-03,
605,1.60e-02,
606,-8.00e-03,
607,1.60e-02,
608,1.60e-02,
609,-8.00e-03,
610,1.60e-02,
611,-1.20e-02,
612,-1.20e-02,
613,1.60e-02,
614,1.60e-02,
615,-1.20e-02,
616,1.60e-02,
617,-1.20e-02,
618,1.60e-02,
619,-1.20e-02,
620,1.12e-01,
621,-2.40e-02,
622,-8.00e-03,
623,1.60e-02,
624,1.60e-02,
625,-1.20e-02,
626,1.60e-02,
627,-1.20e-02,
628,-8.00e-03,
629,1.60e-02,
630,-8.00e-03,
631,1.60e-02,
632,1.60e-02,
633,-1.20e-02,
634,-8.00e-03,
635,1.60e-02,
636,-8.00e-03,
637,1.60e-02,
638,1.60e-02,
639,-1.20e-02,
640,-1.20e-02,
641,1.60e-02,
642,-8.00e-03,
643,1.60e-02,
644,-1.20e-02,
645,1.60e-02,
646,-8.00e-03,
647,1.60e-02,
648,-8.00e-03,
649,1.60e-02,
650,1.60e-02,
651,-1.20e-02,
652,1.60e-02,
653,-1.20e-02,
654,-8.00e-03,
655,1.60e-02,
656,1.60e-02,
657,-1.20e-02,
658,1.60e-02,
659,-1.20e-02,
660,1.60e-02,
661,-1.20e-02,
662,-1.20e-02,
663,1.60e-02,
664,-8.00e-03,
665,1.60e-02,
666,1.60e-02,
667,-1.20e-02,
668,1.60e-02,
669,-1.20e-02,
670,1.60e-02,
671,-1.20e-02,
672,2.00e-02,
673,-5.20e-02,
674,-8.00e-03,
675,1.60e-02,
676,-8.00e-03,
677,1.60e-02,
678,1.60e-02,
679,-1.20e-02,
680,1.60e-02,
681,-1.20e-02,
682,-8.00e-03,
683,1.60e-02,
684,1.60e-02,
685,-1.20e-02,
686,-8.00e-03,
687,1.60e-02,
688,1.60e-02,
689,-1.20e-02,
690,-8.00e-03,
691,1.60e-02,
692,-8.00e-03,
693,1.60e-02,
694,-8.00e-03,
695,1.60e-02,
696,1.60e-02,
697,-1.20e-02,
698,-8.00e-03,
699,1.60e-02,
700,-8.00e-03,
701,1.60e-02,
702,1.60e-02,
703,-1.20e-02,
704,-8.00e-03,
705,1.60e-02,
706,-8.00e-03,
707,1.60e-02,
708,1.60e-02,
709,-8.00e-03,
710,-8.00e-03,
711,1.60e-02,
712,-8.00e-03,
713,1.60e-02,
714,-8.00e-03,
715,1.60e-02,
716,-8.00e-03,
717,1.60e-02,
718,-8.00e-03,
719,1.60e-02,
720,-8.00e-03,
721,1.60e-02,
722,-8.00e-03,
723,1.60e-02,
724,4.80e-02,
725,-2.40e-02,
726,-8.00e-03,
727,1.60e-02,
728,-8.00e-03,
729,1.60e-02,
730,-8.00e-03,
731,1.60e-02,
732,1.60e-02,
733,-1.20e-02,
734,-8.00e-03,
735,1.60e-02,
736,-8.00e-03,
737,1.60e-02,
738,1.60e-02,
739,-8.00e-03,
740,-8.00e-03,
741,1.60e-02,
742,1.60e-02,
743,-1.20e-02,
744,1.60e-02,
745,-1.20e-02,
746,1.60e-02,
747,-8.00e-03,
748,1.60e-02,
749,-8.00e-03,
750,-8.00e-03,
751,1.60e-02,
752,1.60e-02,
753,-1.20e-02,
754,1.60e-02,
755,-8.00e-03,
756,1.60e-02,
757,-8.00e-03,
758,1.60e-02,
759,-8.00e-03,
760,1.60e-02,
761,-8.00e-03,
762,1.60e-02,
763,-1.20e-02,
764,1.60e-02,
765,-8.00e-03,
766,-8.00e-03,
767,1.60e-02,
768,-8.00e-03,
769,1.60e-02,
770,-8.00e-03,
771,1.60e-02,
772,-8.00e-03,
773,1.60e-02,
774,-8.00e-03,
775,1.60e-02,
776,1.16e-01,
777,-2.40e-02,
778,-8.00e-03,
779,1.60e-02,
780,1.60e-02,
781,-1.20e-02,
782,-8.00e-03,
783,1.60e-02,
784,-1.20e-02,
785,1.60e-02,
786,1.60e-02,
787,-8.00e-03,
788,-8.00e-03,
789,1.60e-02,
790,1.60e-02,
791,-1.20e-02,
792,-8.00e-03,
793,1.60e-02,
794,-8.00e-03,
795,1.60e-02,
796,1.60e-02,
797,-1.20e-02,
798,-8.00e-03,
799,1.60e-02,
800,-8.00e-03,
801,1.60e-02,
802,-8.00e-03,
803,1.60e-02,
804,-8.00e-03,
805,1.60e-02,
806,-8.00e-03,
807,1.60e-02,
808,-8.00e-03,
809,1.60e-02,
810,1.60e-02,
811,-1.20e-02,
812,1.60e-02,
813,-1.20e-02,
814,-8.00e-03,
815,1.60e-02,
816,1.60e-02,
817,-1.20e-02,
818,-8.00e-03,
819,1.60e-02,
820,1.60e-02,
821,-1.20e-02,
822,-8.00e-03,
823,1.60e-02,
824,-8.00e-03,
825,1.60e-02,
826,1.60e-02,
827,-8.00e-03,
828,1.60e-02,
829,-1.20e-02,
830,5.60e-02,
831,-4.40e-02,
832,1.60e-02,
833,-1.20e-02,
834,-8.00e-03,
835,1.60e-02,
836,1.60e-02,
837,-1.20e-02,
838,-8.00e-03,
839,1.60e-02,
840,-1.20e-02,
841,1.60e-02,
842,-8.00e-03,
843,1.60e-02,
844,-8.00e-03,
845,1.60e-02,
846,-8.00e-03,
847,1.60e-02,
848,-8.00e-03,
849,1.60e-02,
850,-8.00e-03,
851,1.60e-02,
852,-8.00e-03,
853,1.60e-02,
854,1.60e-02,
855,-8.00e-03,
856,-8.00e-03,
857,1.60e-02,
858,1.60e-02,
859,-1.20e-02,
860,1.60e-02,
861,-1.20e-02,
862,1.60e-02,
863,-1.20e-02,
864,1.60e-02,
865,-1.20e-02,
866,1.60e-02,
867,-1.20e-02,
868,-8.00e-03,
869,1.60e-02,
870,-8.00e-03,
871,1.60e-02,
872,1.60e-02,
873,-1.20e-02,
874,-8.00e-03,
875,1.60e-02,
876,-8.00e-03,
877,1.60e-02,
878,-8.00e-03,
879,1.60e-02,
880,-8.00e-03,
881,1.60e-02,
882,-2.00e-01,
883,7.60e-02,
884,-8.00e-03,
885,1.60e-02,
886,1.60e-02,
887,-8.00e-03,
888,-8.00e-03,
889,1.60e-02,
890,1.60e-02,
891,-1.20e-02,
892,-8.00e-03,
893,1.60e-02,
894,-8.00e-03,
895,1.60e-02,
896,-8.00e-03,
897,1.60e-02,
898,1.60e-02,
899,-1.20e-02,
900,-1.20e-02,
901,1.60e-02,
902,2.00e-02,
903,-1.20e-02,
904,1.60e-02,
905,-1.20e-02,
906,1.60e-02,
907,-1.20e-02,
908,1.60e-02,
909,-8.00e-03,
910,-8.00e-03,
911,1.60e-02,
912,1.60e-02,
913,-8.00e-03,
914,1.60e-02,
915,-1.20e-02,
916,-8.00e-03,
917,1.60e-02,
918,-8.00e-03,
919,1.60e-02,
920,1.60e-02,
921,-1.20e-02,
922,-8.00e-03,
923,1.60e-02,
924,-8.00e-03,
925,1.60e-02,
926,1.60e-02,
927,-1.20e-02,
928,-8.00e-03,
929,1.60e-02,
930,-8.00e-03,
931,1.60e-02,
932,1.60e-02,
933,-1.20e-02,
934,-4.40e-02,
935,1.80e-01,
936,-8.00e-03,
937,1.60e-02,
938,1.60e-02,
939,-1.20e-02,
940,1.60e-02,
941,-8.00e-03,
942,-8.00e-03,
943,1.60e-02,
944,-8.00e-03,
945,1.60e-02,
946,-8.00e-03,
947,2.00e-02,
948,1.60e-02,
949,-8.00e-03,
950,1.60e-02,
951,-1.20e-02,
952,1.60e-02,
953,-1.20e-02,
954,-8.00e-03,
955,1.60e-02,
956,1.60e-02,
957,-1.20e-02,
958,-8.00e-03,
959,1.60e-02,
960,-8.00e-03,
961,1.60e-02,
962,-1.20e-02,
963,1.60e-02,
964,-8.00e-03,
965,1.60e-02,
966,-1.20e-02,
967,1.60e-02,
968,1.60e-02,
969,-1.20e-02,
970,-8.00e-03,
971,1.60e-02,
972,-8.00e-03,
973,1.60e-02,
974,1.60e-02,
975,-1.20e-02,
976,-8.00e-03,
977,1.60e-02,
978,1.60e-02,
979,-1.20e-02,
980,-8.00e-03,
981,1.60e-02,
982,1.60e-02,
983,-8.00e-03,
984,-8.00e-03,
985,1.60e-02,
986,1.60e-02,
987,-1.76e-01,
988,1.60e-02,
989,-1.20e-02,
990,1.60e-02,
991,-1.20e-02,
992,-8.00e-03,
993,1.60e-02,
994,-8.00e-03,
995,1.60e-02,
996,-8.00e-03,
997,1.60e-02,
998,-8.00e-03,
999,1.60e-02,
1000,-8.00e-03,
1001,1.60e-02,
1002,-8.00e-03,
1003,1.60e-02,
1004,1.60e-02,
1005,-1.20e-02,
1006,1.60e-02,
1007,-1.20e-02,
1008,1.60e-02,
1009,-8.00e-03,
1010,1.60e-02,
1011,-8.00e-03,
1012,1.60e-02,
1013,-1.20e-02,
1014,1.60e-02,
1015,-1.20e-02,
1016,1.60e-02,
1017,-1.20e-02,
1018,1.60e-02,
1019,-1.20e-02,
1020,-8.00e-03,
1021,1.60e-02,
1022,-8.00e-03,
1023,1.60e-02,
1024,-8.00e-03,
1025,1.60e-02,
1026,-8.00e-03,
1027,2.00e-02,
1028,1.60e-02,
1029,-1.20e-02,
1030,-8.00e-03,
1031,1.60e-02,
1032,1.60e-02,
1033,-1.20e-02,
1034,-8.00e-03,
1035,1.60e-02,
1036,-8.00e-03,
1037,1.60e-02,
1038,1.60e-02,
1039,-1.20e-02,
1040,6.80e-02,
1041,-2.40e-02,
1042,-8.00e-03,
1043,1.60e-02,
1044,-8.00e-03,
1045,1.60e-02,
1046,1.60e-02,
1047,-1.20e-02,
1048,1.60e-02,
1049,-1.20e-02,
1050,1.60e-02,
1051,-1.20e-02,
1052,-8.00e-03,
1053,1.60e-02,
1054,1.60e-02,
1055,-8.00e-03,
1056,1.60e-02,
1057,-1.20e-02,
1058,1.60e-02,
1059,-1.20e-02,
1060,-8.00e-03,
1061,1.60e-02,
1062,1.60e-02,
1063,-1.20e-02,
1064,-8.00e-03,
1065,1.60e-02,
1066,-8.00e-03,
1067,1.60e-02,
1068,-8.00e-03,
1069,1.60e-02,
1070,-8.00e-03,
1071,1.60e-02,
1072,-8.00e-03,
1073,1.60e-02,
1074,-8.00e-03,
1075,1.60e-02,
1076,1.60e-02,
1077,-8.00e-03,
1078,1.60e-02,
1079,-1.20e-02,
1080,-8.00e-03,
1081,1.60e-02,
1082,1.60e-02,
1083,-1.20e-02,
1084,-8.00e-03,
1085,1.60e-02,
1086,-8.00e-03,
1087,1.60e-02,
1088,-8.00e-03,
1089,1.60e-02,
1090,1.60e-02,
1091,-1.20e-02,
1092,-1.88e-01,
1093,7.20e-02,
1094,-8.00e-03,
1095,1.60e-02,
1096,-8.00e-03,
1097,1.60e-02,
1098,-8.00e-03,
1099,1.60e-02,
1100,-8.00e-03,
1101,1.60e-02,
1102,-8.00e-03,
1103,1.60e-02,
1104,1.60e-02,
1105,-1.20e-02,
1106,-8.00e-03,
1107,1.60e-02,
1108,1.60e-02,
1109,-8.00e-03,
1110,-8.00e-03,
1111,1.60e-02,
1112,1.60e-02,
1113,-1.20e-02,
1114,1.60e-02,
1115,-8.00e-03,
1116,-8.00e-03,
1117,1.60e-02,
1118,-8.00e-03,
1119,1.60e-02,
1120,1.60e-02,
1121,-1.20e-02,
1122,-8.00e-03,
1123,1.60e-02,
1124,-8.00e-03,
1125,1.60e-02,
1126,1.60e-02,
1127,-1.20e-02,
1128,-8.00e-03,
1129,1.60e-02,
1130,-8.00e-03,
1131,1.60e-02,
1132,-8.00e-03,
1133,1.60e-02,
1134,-8.00e-03,
1135,1.60e-02,
1136,-8.00e-03,
1137,1.60e-02,
1138,1.60e-02,
1139,-8.00e-03,
1140,-8.00e-03,
1141,1.60e-02,
1142,1.60e-02,
1143,-8.00e-03,
1144,6.80e-02,
1145,-2.40e-02,
1146,-8.00e-03,
1147,1.60e-02,
1148,-8.00e-03,
1149,1.60e-02,
1150,-8.00e-03,
1151,1.60e-02,
1152,-8.00e-03,
1153,1.60e-02,
1154,1.60e-02,
1155,-1.20e-02,
1156,1.60e-02,
1157,-1.20e-02,
1158,1.60e-02,
1159,-1.20e-02,
1160,-1.20e-02,
1161,1.60e-02,
1162,-8.00e-03,
1163,1.60e-02,
1164,-8.00e-03,
1165,1.60e-02,
1166,-1.20e-02,
1167,1.60e-02,
1168,-8.00e-03,
1169,1.60e-02,
1170,1.60e-02,
1171,-1.20e-02,
1172,-8.00e-03,
1173,1.60e-02,
1174,1.60e-02,
1175,-8.00e-03,
1176,-8.00e-03,
1177,1.60e-02,
1178,-8.00e-03,
1179,1.60e-02,
1180,1.60e-02,
1181,-8.00e-03,
1182,-8.00e-03,
1183,1.60e-02,
1184,-8.00e-03,
1185,1.60e-02,
1186,-8.00e-03,
1187,1.60e-02,
1188,-8.00e-03,
1189,1.60e-02,
1190,-8.00e-03,
1191,2.00e-02,
1192,-8.00e-03,
1193,1.60e-02,
1194,-8.00e-03,
1195,1.60e-02,
1196,3.20e-02,
1197,-4.40e-02,
1198,-3.60e-02,
1199,1.60e-02,
