Laptop_2/LAPTOP_CHRGR_2_OFF/time domain/NewFile30.csv

X,CH1,Start,Increment,
Sequence,Volt,-1.500000e-01,2.000000e-04
0,-8.00e-03,
1,1.60e-02,
2,-8.00e-03,
3,1.20e-02,
4,-6.80e-02,
5,8.80e-02,
6,-8.00e-03,
7,1.60e-02,
8,-8.00e-03,
9,1.60e-02,
10,-8.00e-03,
11,1.60e-02,
12,1.60e-02,
13,-8.00e-03,
14,-8.00e-03,
15,1.60e-02,
16,1.60e-02,
17,-8.00e-03,
18,1.60e-02,
19,-8.00e-03,
20,-8.00e-03,
21,1.60e-02,
22,1.60e-02,
23,-8.00e-03,
24,-8.00e-03,
25,1.60e-02,
26,1.60e-02,
27,-8.00e-03,
28,-8.00e-03,
29,1.60e-02,
30,1.60e-02,
31,-1.20e-02,
32,-8.00e-03,
33,1.60e-02,
34,-8.00e-03,
35,1.60e-02,
36,1.20e-02,
37,-8.00e-03,
38,-8.00e-03,
39,1.20e-02,
40,1.20e-02,
41,-8.00e-03,
42,1.20e-02,
43,-8.00e-03,
44,-8.00e-03,
45,1.60e-02,
46,1.60e-02,
47,-8.00e-03,
48,-8.00e-03,
49,1.60e-02,
50,-8.00e-03,
51,1.60e-02,
52,-8.00e-03,
53,1.60e-02,
54,-8.00e-03,
55,1.60e-02,
56,-2.00e-02,
57,2.80e-02,
58,-8.00e-03,
59,2.00e-02,
60,1.60e-02,
61,-8.00e-03,
62,1.60e-02,
63,-8.00e-03,
64,-8.00e-03,
65,1.60e-02,
66,1.60e-02,
67,-8.00e-03,
68,1.20e-02,
69,-8.00e-03,
70,-8.00e-03,
71,1.60e-02,
72,1.20e-02,
73,-8.00e-03,
74,-8.00e-03,
75,1.20e-02,
76,-8.00e-03,
77,1.20e-02,
78,-8.00e-03,
79,1.60e-02,
80,1.20e-02,
81,-8.00e-03,
82,1.20e-02,
83,-8.00e-03,
84,1.20e-02,
85,-8.00e-03,
86,-8.00e-03,
87,1.20e-02,
88,-8.00e-03,
89,1.60e-02,
90,-8.00e-03,
91,1.60e-02,
92,-8.00e-03,
93,1.60e-02,
94,-8.00e-03,
95,1.60e-02,
96,1.20e-02,
97,-8.00e-03,
98,1.60e-02,
99,-8.00e-03,
100,1.60e-02,
101,-8.00e-03,
102,-8.00e-03,
103,1.60e-02,
104,-8.00e-03,
105,1.60e-02,
106,-8.00e-03,
107,1.60e-02,
108,1.60e-02,
109,-8.00e-03,
110,-4.00e-02,
111,9.60e-02,
112,1.60e-02,
113,-8.00e-03,
114,1.60e-02,
115,-8.00e-03,
116,-8.00e-03,
117,1.60e-02,
118,-8.00e-03,
119,1.60e-02,
120,-8.00e-03,
121,1.20e-02,
122,-8.00e-03,
123,1.60e-02,
124,1.20e-02,
125,-8.00e-03,
126,1.20e-02,
127,-8.00e-03,
128,-8.00e-03,
129,1.60e-02,
130,1.20e-02,
131,-8.00e-03,
132,-8.00e-03,
133,1.60e-02,
134,-1.20e-02,
135,1.60e-02,
136,-8.00e-03,
137,1.60e-02,
138,-8.00e-03,
139,1.60e-02,
140,-8.00e-03,
141,1.60e-02,
142,-8.00e-03,
143,1.60e-02,
144,-8.00e-03,
145,1.60e-02,
146,-8.00e-03,
147,1.60e-02,
148,-8.00e-03,
149,1.20e-02,
150,-8.00e-03,
151,1.60e-02,
152,-8.00e-03,
153,1.60e-02,
154,-8.00e-03,
155,1.60e-02,
156,-8.00e-03,
157,1.60e-02,
158,1.20e-02,
159,-8.00e-03,
160,-8.00e-03,
161,1.60e-02,
162,-3.20e-02,
163,2.40e-02,
164,-8.00e-03,
165,1.60e-02,
166,-8.00e-03,
167,1.60e-02,
168,-8.00e-03,
169,1.60e-02,
170,1.20e-02,
171,-8.00e-03,
172,-8.00e-03,
173,1.60e-02,
174,1.60e-02,
175,-8.00e-03,
176,1.60e-02,
177,-8.00e-03,
178,1.60e-02,
179,-8.00e-03,
180,1.20e-02,
181,-8.00e-03,
182,1.20e-02,
183,-8.00e-03,
184,1.60e-02,
185,-8.00e-03,
186,1.20e-02,
187,-8.00e-03,
188,-8.00e-03,
189,1.60e-02,
190,1.20e-02,
191,-8.00e-03,
192,1.60e-02,
193,-8.00e-03,
194,-8.00e-03,
195,1.60e-02,
196,1.60e-02,
197,-8.00e-03,
198,1.60e-02,
199,-1.20e-02,
200,-8.00e-03,
201,1.60e-02,
202,-8.00e-03,
203,1.60e-02,
204,-8.00e-03,
205,1.60e-02,
206,1.20e-02,
207,-8.00e-03,
208,1.20e-02,
209,-8.00e-03,
210,-8.00e-03,
211,1.60e-02,
212,-8.00e-03,
213,1.60e-02,
214,-1.20e-01,
215,2.00e-02,
216,1.60e-02,
217,-8.00e-03,
218,-8.00e-03,
219,1.60e-02,
220,1.20e-02,
221,-8.00e-03,
222,-8.00e-03,
223,1.60e-02,
224,1.20e-02,
225,-8.00e-03,
226,-8.00e-03,
227,1.60e-02,
228,1.20e-02,
229,-8.00e-03,
230,-8.00e-03,
231,1.60e-02,
232,-8.00e-03,
233,1.60e-02,
234,-8.00e-03,
235,1.60e-02,
236,1.20e-02,
237,-8.00e-03,
238,-8.00e-03,
239,1.60e-02,
240,-8.00e-03,
241,1.60e-02,
242,1.60e-02,
243,-8.00e-03,
244,-8.00e-03,
245,1.60e-02,
246,-1.20e-02,
247,1.60e-02,
248,1.20e-02,
249,-8.00e-03,
250,1.20e-02,
251,-8.00e-03,
252,-8.00e-03,
253,1.60e-02,
254,-8.00e-03,
255,2.00e-02,
256,1.20e-02,
257,-8.00e-03,
258,1.60e-02,
259,-8.00e-03,
260,1.60e-02,
261,-8.00e-03,
262,1.60e-02,
263,-8.00e-03,
264,-8.00e-03,
265,1.60e-02,
266,-8.00e-03,
267,1.20e-02,
268,1.24e-01,
269,-2.40e-02,
270,1.60e-02,
271,-8.00e-03,
272,1.60e-02,
273,-8.00e-03,
274,-8.00e-03,
275,1.60e-02,
276,1.20e-02,
277,-8.00e-03,
278,1.60e-02,
279,-8.00e-03,
280,-8.00e-03,
281,1.60e-02,
282,1.60e-02,
283,-8.00e-03,
284,1.60e-02,
285,-8.00e-03,
286,-8.00e-03,
287,1.60e-02,
288,1.60e-02,
289,-8.00e-03,
290,-8.00e-03,
291,1.60e-02,
292,-8.00e-03,
293,1.20e-02,
294,1.20e-02,
295,-8.00e-03,
296,-8.00e-03,
297,1.20e-02,
298,-8.00e-03,
299,1.60e-02,
300,-8.00e-03,
301,1.20e-02,
302,-8.00e-03,
303,1.60e-02,
304,-8.00e-03,
305,1.60e-02,
306,-8.00e-03,
307,1.20e-02,
308,1.20e-02,
309,-8.00e-03,
310,-8.00e-03,
311,1.60e-02,
312,-8.00e-03,
313,1.60e-02,
314,-8.00e-03,
315,1.60e-02,
316,1.20e-02,
317,-8.00e-03,
318,1.20e-02,
319,-8.00e-03,
320,1.20e-01,
321,-7.20e-02,
322,-1.20e-02,
323,1.20e-02,
324,-8.00e-03,
325,1.60e-02,
326,-8.00e-03,
327,1.20e-02,
328,-8.00e-03,
329,1.20e-02,
330,-8.00e-03,
331,1.60e-02,
332,-8.00e-03,
333,1.60e-02,
334,-8.00e-03,
335,1.60e-02,
336,-8.00e-03,
337,1.60e-02,
338,-8.00e-03,
339,1.60e-02,
340,-8.00e-03,
341,1.60e-02,
342,1.20e-02,
343,-8.00e-03,
344,1.20e-02,
345,-8.00e-03,
346,-8.00e-03,
347,1.60e-02,
348,-8.00e-03,
349,1.60e-02,
350,-8.00e-03,
351,1.20e-02,
352,-8.00e-03,
353,1.60e-02,
354,-8.00e-03,
355,1.60e-02,
356,-8.00e-03,
357,1.60e-02,
358,1.20e-02,
359,-8.00e-03,
360,-8.00e-03,
361,1.60e-02,
362,1.60e-02,
363,-8.00e-03,
364,1.60e-02,
365,-1.20e-02,
366,-8.00e-03,
367,1.60e-02,
368,1.60e-02,
369,-8.00e-03,
370,-8.00e-03,
371,1.60e-02,
372,1.20e-02,
373,-8.00e-03,
374,-9.60e-02,
375,2.00e-02,
376,1.60e-02,
377,-8.00e-03,
378,-8.00e-03,
379,1.60e-02,
380,-8.00e-03,
381,1.60e-02,
382,1.60e-02,
383,-1.20e-02,
384,-8.00e-03,
385,1.60e-02,
386,1.20e-02,
387,-8.00e-03,
388,-8.00e-03,
389,1.60e-02,
390,1.60e-02,
391,-8.00e-03,
392,-8.00e-03,
393,1.60e-02,
394,1.60e-02,
395,-8.00e-03,
396,1.20e-02,
397,-8.00e-03,
398,1.60e-02,
399,-8.00e-03,
400,-8.00e-03,
401,1.60e-02,
402,1.20e-02,
403,-8.00e-03,
404,1.20e-02,
405,-8.00e-03,
406,-8.00e-03,
407,1.60e-02,
408,-8.00e-03,
409,1.60e-02,
410,1.20e-02,
411,-8.00e-03,
412,-8.00e-03,
413,1.60e-02,
414,1.60e-02,
415,-8.00e-03,
416,1.20e-02,
417,-8.00e-03,
418,-8.00e-03,
419,1.60e-02,
420,-8.00e-03,
421,1.60e-02,
422,-8.00e-03,
423,1.60e-02,
424,-8.00e-03,
425,1.60e-02,
426,1.20e-02,
427,-1.24e-01,
428,2.00e-02,
429,-1.20e-02,
430,-8.00e-03,
431,1.60e-02,
432,-8.00e-03,
433,1.60e-02,
434,-8.00e-03,
435,1.60e-02,
436,1.60e-02,
437,-8.00e-03,
438,-8.00e-03,
439,1.60e-02,
440,1.60e-02,
441,-8.00e-03,
442,-8.00e-03,
443,1.20e-02,
444,-4.00e-03,
445,1.60e-02,
446,-8.00e-03,
447,1.60e-02,
448,1.60e-02,
449,-8.00e-03,
450,1.60e-02,
451,-8.00e-03,
452,1.60e-02,
453,-8.00e-03,
454,1.60e-02,
455,-8.00e-03,
456,1.20e-02,
457,-8.00e-03,
458,-8.00e-03,
459,1.60e-02,
460,1.60e-02,
461,-8.00e-03,
462,-8.00e-03,
463,2.00e-02,
464,-8.00e-03,
465,1.60e-02,
466,-8.00e-03,
467,1.60e-02,
468,1.60e-02,
469,-8.00e-03,
470,-8.00e-03,
471,1.60e-02,
472,1.20e-02,
473,-8.00e-03,
474,-8.00e-03,
475,1.60e-02,
476,-8.00e-03,
477,1.20e-02,
478,-8.00e-03,
479,1.20e-02,
480,-4.00e-02,
481,2.40e-02,
482,1.20e-02,
483,-8.00e-03,
484,-8.00e-03,
485,1.60e-02,
486,-8.00e-03,
487,1.60e-02,
488,1.20e-02,
489,-8.00e-03,
490,-8.00e-03,
491,1.60e-02,
492,1.60e-02,
493,-8.00e-03,
494,-8.00e-03,
495,1.60e-02,
496,-8.00e-03,
497,1.20e-02,
498,-8.00e-03,
499,1.20e-02,
500,1.20e-02,
501,-8.00e-03,
502,-8.00e-03,
503,1.60e-02,
504,1.60e-02,
505,-8.00e-03,
506,-8.00e-03,
507,1.60e-02,
508,-8.00e-03,
509,1.60e-02,
510,1.20e-02,
511,-8.00e-03,
512,-8.00e-03,
513,1.60e-02,
514,-8.00e-03,
515,1.20e-02,
516,1.60e-02,
517,-8.00e-03,
518,-8.00e-03,
519,1.60e-02,
520,-8.00e-03,
521,1.20e-02,
522,-8.00e-03,
523,1.60e-02,
524,-8.00e-03,
525,1.60e-02,
526,-8.00e-03,
527,1.60e-02,
528,-8.00e-03,
529,1.60e-02,
530,-8.00e-03,
531,1.60e-02,
532,1.60e-02,
533,-3.60e-02,
534,2.00e-02,
535,-1.60e-02,
536,-8.00e-03,
537,1.60e-02,
538,-8.00e-03,
539,1.60e-02,
540,-8.00e-03,
541,1.60e-02,
542,1.60e-02,
543,-8.00e-03,
544,-8.00e-03,
545,1.60e-02,
546,-8.00e-03,
547,1.60e-02,
548,-8.00e-03,
549,1.20e-02,
550,1.60e-02,
551,-8.00e-03,
552,-8.00e-03,
553,1.60e-02,
554,1.60e-02,
555,-8.00e-03,
556,-8.00e-03,
557,1.60e-02,
558,-8.00e-03,
559,1.20e-02,
560,-8.00e-03,
561,1.60e-02,
562,-8.00e-03,
563,1.60e-02,
564,1.20e-02,
565,-8.00e-03,
566,1.60e-02,
567,-8.00e-03,
568,1.20e-02,
569,-8.00e-03,
570,-8.00e-03,
571,1.60e-02,
572,1.20e-02,
573,-8.00e-03,
574,-8.00e-03,
575,1.60e-02,
576,1.20e-02,
577,-8.00e-03,
578,1.60e-02,
579,-8.00e-03,
580,-8.00e-03,
581,1.60e-02,
582,-8.00e-03,
583,1.20e-02,
584,-8.00e-03,
585,1.60e-02,
586,6.40e-02,
587,-1.20e-02,
588,-8.00e-03,
589,1.60e-02,
590,1.60e-02,
591,-1.20e-02,
592,-8.00e-03,
593,1.60e-02,
594,-8.00e-03,
595,1.60e-02,
596,-8.00e-03,
597,1.60e-02,
598,-8.00e-03,
599,1.60e-02,
600,-8.00e-03,
601,1.60e-02,
602,1.60e-02,
603,-8.00e-03,
604,1.20e-02,
605,-8.00e-03,
606,1.20e-02,
607,-8.00e-03,
608,1.60e-02,
609,-8.00e-03,
610,1.20e-02,
611,-8.00e-03,
612,-1.20e-02,
613,1.60e-02,
614,-8.00e-03,
615,1.20e-02,
616,1.20e-02,
617,-8.00e-03,
618,-8.00e-03,
619,1.60e-02,
620,-8.00e-03,
621,1.20e-02,
622,-8.00e-03,
623,1.60e-02,
624,1.20e-02,
625,-8.00e-03,
626,-1.20e-02,
627,1.60e-02,
628,-8.00e-03,
629,1.20e-02,
630,-8.00e-03,
631,1.60e-02,
632,1.20e-02,
633,-8.00e-03,
634,-8.00e-03,
635,1.60e-02,
636,1.60e-02,
637,-8.00e-03,
638,-8.00e-03,
639,1.60e-02,
640,-2.40e-02,
641,8.40e-02,
642,1.20e-02,
643,-8.00e-03,
644,-8.00e-03,
645,1.60e-02,
646,1.20e-02,
647,-8.00e-03,
648,-8.00e-03,
649,1.60e-02,
650,-8.00e-03,
651,1.60e-02,
652,-8.00e-03,
653,1.60e-02,
654,1.60e-02,
655,-8.00e-03,
656,-8.00e-03,
657,1.60e-02,
658,-8.00e-03,
659,1.60e-02,
660,-8.00e-03,
661,1.60e-02,
662,1.20e-02,
663,-8.00e-03,
664,1.60e-02,
665,-8.00e-03,
666,-8.00e-03,
667,1.60e-02,
668,-8.00e-03,
669,1.60e-02,
670,1.20e-02,
671,-8.00e-03,
672,-8.00e-03,
673,1.60e-02,
674,-8.00e-03,
675,1.60e-02,
676,1.20e-02,
677,-1.20e-02,
678,-8.00e-03,
679,1.20e-02,
680,1.20e-02,
681,-8.00e-03,
682,-8.00e-03,
683,1.60e-02,
684,-8.00e-03,
685,1.60e-02,
686,1.20e-02,
687,-8.00e-03,
688,1.20e-02,
689,-8.00e-03,
690,1.20e-02,
691,-8.00e-03,
692,1.36e-01,
693,-2.40e-02,
694,-8.00e-03,
695,1.60e-02,
696,-8.00e-03,
697,1.60e-02,
698,1.20e-02,
699,-8.00e-03,
700,-8.00e-03,
701,1.60e-02,
702,-8.00e-03,
703,1.60e-02,
704,1.20e-02,
705,-8.00e-03,
706,-8.00e-03,
707,1.60e-02,
708,-8.00e-03,
709,1.60e-02,
710,-8.00e-03,
711,1.60e-02,
712,-8.00e-03,
713,1.60e-02,
714,1.60e-02,
715,-8.00e-03,
716,1.60e-02,
717,-8.00e-03,
718,-8.00e-03,
719,1.60e-02,
720,-8.00e-03,
721,1.60e-02,
722,-8.00e-03,
723,1.60e-02,
724,-8.00e-03,
725,1.60e-02,
726,1.20e-02,
727,-8.00e-03,
728,1.20e-02,
729,-8.00e-03,
730,-8.00e-03,
731,1.60e-02,
732,1.60e-02,
733,-8.00e-03,
734,1.60e-02,
735,-8.00e-03,
736,-8.00e-03,
737,1.60e-02,
738,1.60e-02,
739,-8.00e-03,
740,1.20e-02,
741,-8.00e-03,
742,-8.00e-03,
743,1.60e-02,
744,-6.00e-02,
745,2.00e-02,
746,4.00e-02,
747,-8.00e-03,
748,1.20e-02,
749,-8.00e-03,
750,1.60e-02,
751,-8.00e-03,
752,-8.00e-03,
753,1.60e-02,
754,-8.00e-03,
755,1.60e-02,
756,1.60e-02,
757,-8.00e-03,
758,1.60e-02,
759,-8.00e-03,
760,-8.00e-03,
761,1.60e-02,
762,1.60e-02,
763,-8.00e-03,
764,1.60e-02,
765,-8.00e-03,
766,-8.00e-03,
767,1.60e-02,
768,1.20e-02,
769,-8.00e-03,
770,1.60e-02,
771,-8.00e-03,
772,-8.00e-03,
773,1.60e-02,
774,-8.00e-03,
775,1.60e-02,
776,1.60e-02,
777,-8.00e-03,
778,1.60e-02,
779,-8.00e-03,
780,1.20e-02,
781,-8.00e-03,
782,-8.00e-03,
783,1.60e-02,
784,1.60e-02,
785,-8.00e-03,
786,1.60e-02,
787,-8.00e-03,
788,-8.00e-03,
789,1.60e-02,
790,-8.00e-03,
791,1.60e-02,
792,-8.00e-03,
793,1.20e-02,
794,1.60e-02,
795,-8.00e-03,
796,1.20e-02,
797,-8.00e-03,
798,-8.00e-02,
799,2.40e-02,
800,-8.00e-03,
801,1.60e-02,
802,-8.00e-03,
803,1.60e-02,
804,-8.00e-03,
805,1.20e-02,
806,1.60e-02,
807,-8.00e-03,
808,1.60e-02,
809,-8.00e-03,
810,-8.00e-03,
811,1.60e-02,
812,1.20e-02,
813,-8.00e-03,
814,-8.00e-03,
815,1.20e-02,
816,-8.00e-03,
817,1.20e-02,
818,1.20e-02,
819,-8.00e-03,
820,-8.00e-03,
821,1.60e-02,
822,-8.00e-03,
823,1.60e-02,
824,-8.00e-03,
825,1.60e-02,
826,-8.00e-03,
827,1.20e-02,
828,-8.00e-03,
829,1.60e-02,
830,1.20e-02,
831,-8.00e-03,
832,-8.00e-03,
833,1.20e-02,
834,-8.00e-03,
835,1.60e-02,
836,1.60e-02,
837,-1.20e-02,
838,-8.00e-03,
839,1.60e-02,
840,-8.00e-03,
841,1.60e-02,
842,-8.00e-03,
843,1.60e-02,
844,-8.00e-03,
845,1.60e-02,
846,-8.00e-03,
847,1.20e-02,
848,-8.00e-03,
849,1.60e-02,
850,-8.00e-03,
851,1.60e-02,
852,-1.20e-02,
853,1.12e-01,
854,1.60e-02,
855,-8.00e-03,
856,-8.00e-03,
857,1.60e-02,
858,-8.00e-03,
859,1.60e-02,
860,1.20e-02,
861,-8.00e-03,
862,-1.20e-02,
863,1.60e-02,
864,1.60e-02,
865,-8.00e-03,
866,-8.00e-03,
867,1.60e-02,
868,1.20e-02,
869,-8.00e-03,
870,1.20e-02,
871,-8.00e-03,
872,-8.00e-03,
873,1.60e-02,
874,-8.00e-03,
875,1.60e-02,
876,1.60e-02,
877,-8.00e-03,
878,-8.00e-03,
879,1.20e-02,
880,-8.00e-03,
881,1.60e-02,
882,-8.00e-03,
883,1.60e-02,
884,-8.00e-03,
885,2.00e-02,
886,-8.00e-03,
887,1.60e-02,
888,-8.00e-03,
889,1.60e-02,
890,1.60e-02,
891,-8.00e-03,
892,-8.00e-03,
893,1.60e-02,
894,-8.00e-03,
895,1.60e-02,
896,-8.00e-03,
897,1.60e-02,
898,1.20e-02,
899,-8.00e-03,
900,1.20e-02,
901,-8.00e-03,
902,-8.00e-03,
903,1.60e-02,
904,-1.20e-02,
905,2.40e-02,
906,1.20e-02,
907,-8.00e-03,
908,-8.00e-03,
909,1.60e-02,
910,-1.20e-02,
911,1.60e-02,
912,-8.00e-03,
913,1.20e-02,
914,1.20e-02,
915,-8.00e-03,
916,1.20e-02,
917,-8.00e-03,
918,1.20e-02,
919,-8.00e-03,
920,-8.00e-03,
921,1.60e-02,
922,1.20e-02,
923,-8.00e-03,
924,1.20e-02,
925,-8.00e-03,
926,1.20e-02,
927,-8.00e-03,
928,1.60e-02,
929,-8.00e-03,
930,1.20e-02,
931,-8.00e-03,
932,-8.00e-03,
933,1.60e-02,
934,-8.00e-03,
935,1.60e-02,
936,1.20e-02,
937,-8.00e-03,
938,-8.00e-03,
939,1.60e-02,
940,1.20e-02,
941,-8.00e-03,
942,1.20e-02,
943,-8.00e-03,
944,1.20e-02,
945,-8.00e-03,
946,-8.00e-03,
947,1.60e-02,
948,1.60e-02,
949,-8.00e-03,
950,-8.00e-03,
951,1.60e-02,
952,1.20e-02,
953,-8.00e-03,
954,-8.00e-03,
955,1.60e-02,
956,-8.00e-03,
957,1.60e-02,
958,8.80e-02,
959,-3.60e-02,
960,-8.00e-03,
961,1.60e-02,
962,1.60e-02,
963,-1.20e-02,
964,-8.00e-03,
965,1.60e-02,
966,-8.00e-03,
967,1.60e-02,
968,-8.00e-03,
969,1.60e-02,
970,1.60e-02,
971,-8.00e-03,
972,-8.00e-03,
973,1.60e-02,
974,-8.00e-03,
975,1.60e-02,
976,1.20e-02,
977,-8.00e-03,
978,-8.00e-03,
979,1.60e-02,
980,1.60e-02,
981,-8.00e-03,
982,-8.00e-03,
983,1.60e-02,
984,1.60e-02,
985,-8.00e-03,
986,-8.00e-03,
987,1.60e-02,
988,1.20e-02,
989,-8.00e-03,
990,1.60e-02,
991,-8.00e-03,
992,-8.00e-03,
993,1.60e-02,
994,-8.00e-03,
995,1.60e-02,
996,1.20e-02,
997,-8.00e-03,
998,-8.00e-03,
999,1.60e-02,
1000,-8.00e-03,
1001,1.60e-02,
1002,-8.00e-03,
1003,1.60e-02,
1004,-8.00e-03,
1005,1.60e-02,
1006,1.20e-02,
1007,-8.00e-03,
1008,-8.00e-03,
1009,1.60e-02,
1010,9.20e-02,
1011,-6.00e-02,
1012,1.20e-02,
1013,-8.00e-03,
1014,-8.00e-03,
1015,1.60e-02,
1016,-8.00e-03,
1017,1.60e-02,
1018,-8.00e-03,
1019,1.60e-02,
1020,-8.00e-03,
1021,1.60e-02,
1022,-8.00e-03,
1023,1.60e-02,
1024,1.20e-02,
1025,-8.00e-03,
1026,-8.00e-03,
1027,1.60e-02,
1028,-8.00e-03,
1029,1.20e-02,
1030,1.20e-02,
1031,-8.00e-03,
1032,1.60e-02,
1033,-8.00e-03,
1034,-8.00e-03,
1035,1.60e-02,
1036,-8.00e-03,
1037,1.20e-02,
1038,-8.00e-03,
1039,1.60e-02,
1040,-8.00e-03,
1041,1.60e-02,
1042,1.20e-02,
1043,-8.00e-03,
1044,1.20e-02,
1045,-8.00e-03,
1046,-1.20e-02,
1047,1.60e-02,
1048,-8.00e-03,
1049,1.60e-02,
1050,-8.00e-03,
1051,1.60e-02,
1052,1.20e-02,
1053,-8.00e-03,
1054,1.20e-02,
1055,-8.00e-03,
1056,-8.00e-03,
1057,1.60e-02,
1058,1.20e-02,
1059,-8.00e-03,
1060,-8.00e-03,
1061,1.60e-02,
1062,1.60e-02,
1063,-2.40e-02,
1064,-7.60e-02,
1065,1.60e-02,
1066,1.20e-02,
1067,-8.00e-03,
1068,-8.00e-03,
1069,1.60e-02,
1070,-8.00e-03,
1071,1.20e-02,
1072,1.20e-02,
1073,-8.00e-03,
1074,-8.00e-03,
1075,1.60e-02,
1076,-8.00e-03,
1077,1.60e-02,
1078,1.20e-02,
1079,-8.00e-03,
1080,1.20e-02,
1081,-8.00e-03,
1082,1.60e-02,
1083,-8.00e-03,
1084,1.20e-02,
1085,-8.00e-03,
1086,-8.00e-03,
1087,1.60e-02,
1088,-8.00e-03,
1089,1.60e-02,
1090,-8.00e-03,
1091,1.60e-02,
1092,1.20e-02,
1093,-8.00e-03,
1094,-8.00e-03,
1095,1.60e-02,
1096,1.20e-02,
1097,-8.00e-03,
1098,1.20e-02,
1099,-8.00e-03,
1100,-8.00e-03,
1101,1.60e-02,
1102,-8.00e-03,
1103,1.60e-02,
1104,-8.00e-03,
1105,1.60e-02,
1106,1.20e-02,
1107,-8.00e-03,
1108,-8.00e-03,
1109,1.60e-02,
1110,-8.00e-03,
1111,1.20e-02,
1112,1.20e-02,
1113,-8.00e-03,
1114,-8.00e-03,
1115,1.60e-02,
1116,1.60e-02,
1117,-6.80e-02,
1118,-8.00e-03,
1119,2.00e-02,
1120,-8.00e-03,
1121,1.60e-02,
1122,1.20e-02,
1123,-8.00e-03,
1124,1.20e-02,
1125,-8.00e-03,
1126,1.20e-02,
1127,-8.00e-03,
1128,-8.00e-03,
1129,1.60e-02,
1130,-8.00e-03,
1131,1.20e-02,
1132,1.20e-02,
1133,-1.20e-02,
1134,1.60e-02,
1135,-1.20e-02,
1136,1.20e-02,
1137,-8.00e-03,
1138,-8.00e-03,
1139,1.20e-02,
1140,1.20e-02,
1141,-8.00e-03,
1142,-8.00e-03,
1143,1.60e-02,
1144,-8.00e-03,
1145,1.60e-02,
1146,-8.00e-03,
1147,1.60e-02,
1148,-8.00e-03,
1149,1.60e-02,
1150,-8.00e-03,
1151,1.60e-02,
1152,-8.00e-03,
1153,1.60e-02,
1154,-8.00e-03,
1155,1.20e-02,
1156,1.60e-02,
1157,-8.00e-03,
1158,-8.00e-03,
1159,1.60e-02,
1160,-8.00e-03,
1161,1.20e-02,
1162,1.20e-02,
1163,-8.00e-03,
1164,-8.00e-03,
1165,1.60e-02,
1166,-8.00e-03,
1167,1.60e-02,
1168,-8.00e-03,
1169,1.60e-02,
1170,2.40e-02,
1171,-3.60e-02,
1172,-8.00e-03,
1173,1.60e-02,
1174,-8.00e-03,
1175,1.60e-02,
1176,-8.00e-03,
1177,1.60e-02,
1178,1.20e-02,
1179,-8.00e-03,
1180,1.60e-02,
1181,-8.00e-03,
1182,-8.00e-03,
1183,1.60e-02,
1184,-8.00e-03,
1185,1.60e-02,
1186,-8.00e-03,
1187,1.60e-02,
1188,-8.00e-03,
1189,1.60e-02,
1190,1.20e-02,
1191,-8.00e-03,
1192,-8.00e-03,
1193,1.60e-02,
1194,1.20e-02,
1195,-8.00e-03,
1196,-8.00e-03,
1197,1.20e-02,
1198,-8.00e-03,
1199,1.20e-02,
