Laptop_2/LAPTOP_CHRGR_2_OFF/time domain/NewFile11.csv

X,CH1,Start,Increment,
Sequence,Volt,-1.500000e-01,2.000000e-04
0,-4.00e-03,
1,1.20e-02,
2,-4.00e-03,
3,1.20e-02,
4,1.20e-02,
5,-8.00e-03,
6,-4.00e-03,
7,1.20e-02,
8,-4.00e-03,
9,1.20e-02,
10,-4.00e-03,
11,1.20e-02,
12,1.20e-02,
13,-8.00e-03,
14,1.20e-02,
15,-8.00e-03,
16,-4.00e-03,
17,1.20e-02,
18,-4.00e-03,
19,1.20e-02,
20,-4.00e-03,
21,1.20e-02,
22,-4.00e-03,
23,1.20e-02,
24,1.60e-02,
25,-8.00e-03,
26,-4.00e-03,
27,1.20e-02,
28,-4.00e-03,
29,1.20e-02,
30,-4.00e-03,
31,1.20e-02,
32,-4.00e-03,
33,1.20e-02,
34,1.20e-02,
35,-2.40e-02,
36,-4.00e-03,
37,4.00e-02,
38,-4.00e-03,
39,1.20e-02,
40,1.20e-02,
41,-8.00e-03,
42,-4.00e-03,
43,1.20e-02,
44,-4.00e-03,
45,1.20e-02,
46,1.20e-02,
47,-4.00e-03,
48,1.20e-02,
49,-4.00e-03,
50,-4.00e-03,
51,1.20e-02,
52,-4.00e-03,
53,1.20e-02,
54,-4.00e-03,
55,1.20e-02,
56,-4.00e-03,
57,1.20e-02,
58,-4.00e-03,
59,1.20e-02,
60,1.20e-02,
61,-8.00e-03,
62,1.20e-02,
63,-4.00e-03,
64,1.20e-02,
65,-4.00e-03,
66,1.60e-02,
67,-8.00e-03,
68,-4.00e-03,
69,1.20e-02,
70,-4.00e-03,
71,1.20e-02,
72,-4.00e-03,
73,1.20e-02,
74,8.00e-03,
75,-8.00e-03,
76,-4.00e-03,
77,1.20e-02,
78,1.20e-02,
79,-4.00e-03,
80,-4.00e-03,
81,1.20e-02,
82,-4.00e-03,
83,1.20e-02,
84,-4.00e-03,
85,1.20e-02,
86,1.20e-02,
87,-4.00e-03,
88,-4.40e-02,
89,2.80e-02,
90,-4.00e-03,
91,1.60e-02,
92,-4.00e-03,
93,1.20e-02,
94,-4.00e-03,
95,1.20e-02,
96,-4.00e-03,
97,1.20e-02,
98,-4.00e-03,
99,1.60e-02,
100,-4.00e-03,
101,1.20e-02,
102,-4.00e-03,
103,1.20e-02,
104,-4.00e-03,
105,1.20e-02,
106,-4.00e-03,
107,1.20e-02,
108,1.20e-02,
109,-8.00e-03,
110,-4.00e-03,
111,1.20e-02,
112,-4.00e-03,
113,1.20e-02,
114,-4.00e-03,
115,1.20e-02,
116,-4.00e-03,
117,1.20e-02,
118,-4.00e-03,
119,1.20e-02,
120,-4.00e-03,
121,1.20e-02,
122,-4.00e-03,
123,1.20e-02,
124,-4.00e-03,
125,1.20e-02,
126,-4.00e-03,
127,1.20e-02,
128,-4.00e-03,
129,1.20e-02,
130,1.20e-02,
131,-4.00e-03,
132,1.20e-02,
133,-8.00e-03,
134,1.20e-02,
135,-8.00e-03,
136,1.20e-02,
137,-8.00e-03,
138,-4.00e-03,
139,1.20e-02,
140,-4.00e-03,
141,8.00e-02,
142,-4.00e-03,
143,2.80e-02,
144,-4.00e-03,
145,1.20e-02,
146,-8.00e-03,
147,1.20e-02,
148,-4.00e-03,
149,1.20e-02,
150,1.20e-02,
151,-8.00e-03,
152,1.20e-02,
153,-8.00e-03,
154,1.20e-02,
155,-4.00e-03,
156,-4.00e-03,
157,1.20e-02,
158,1.20e-02,
159,-4.00e-03,
160,-4.00e-03,
161,1.20e-02,
162,-4.00e-03,
163,1.20e-02,
164,-4.00e-03,
165,1.20e-02,
166,-4.00e-03,
167,1.20e-02,
168,-4.00e-03,
169,1.20e-02,
170,-4.00e-03,
171,1.20e-02,
172,-4.00e-03,
173,1.20e-02,
174,1.20e-02,
175,-8.00e-03,
176,1.20e-02,
177,-4.00e-03,
178,-8.00e-03,
179,1.20e-02,
180,-4.00e-03,
181,1.20e-02,
182,1.20e-02,
183,-4.00e-03,
184,1.20e-02,
185,-8.00e-03,
186,-4.00e-03,
187,1.20e-02,
188,-8.00e-03,
189,1.20e-02,
190,1.20e-02,
191,-8.00e-03,
192,1.20e-02,
193,-8.00e-03,
194,3.20e-02,
195,-2.40e-02,
196,-4.00e-03,
197,1.20e-02,
198,-4.00e-03,
199,1.20e-02,
200,-4.00e-03,
201,1.20e-02,
202,-4.00e-03,
203,1.20e-02,
204,-4.00e-03,
205,1.20e-02,
206,-4.00e-03,
207,1.20e-02,
208,-4.00e-03,
209,1.20e-02,
210,-4.00e-03,
211,1.20e-02,
212,-4.00e-03,
213,8.00e-03,
214,-4.00e-03,
215,1.20e-02,
216,-4.00e-03,
217,1.20e-02,
218,-4.00e-03,
219,1.20e-02,
220,-4.00e-03,
221,1.20e-02,
222,-4.00e-03,
223,1.20e-02,
224,-4.00e-03,
225,1.20e-02,
226,-4.00e-03,
227,1.20e-02,
228,-8.00e-03,
229,1.20e-02,
230,1.20e-02,
231,-8.00e-03,
232,-4.00e-03,
233,1.20e-02,
234,1.20e-02,
235,-8.00e-03,
236,1.20e-02,
237,-4.00e-03,
238,-4.00e-03,
239,1.20e-02,
240,-4.00e-03,
241,1.20e-02,
242,-4.00e-03,
243,1.20e-02,
244,-4.00e-03,
245,1.20e-02,
246,-4.00e-03,
247,1.20e-02,
248,-7.60e-02,
249,4.80e-02,
250,-4.00e-03,
251,1.20e-02,
252,-4.00e-03,
253,1.20e-02,
254,1.20e-02,
255,-8.00e-03,
256,1.20e-02,
257,-8.00e-03,
258,-8.00e-03,
259,1.20e-02,
260,-4.00e-03,
261,1.20e-02,
262,1.20e-02,
263,-8.00e-03,
264,1.20e-02,
265,-8.00e-03,
266,-8.00e-03,
267,1.20e-02,
268,1.20e-02,
269,-8.00e-03,
270,1.20e-02,
271,-8.00e-03,
272,1.20e-02,
273,-8.00e-03,
274,-4.00e-03,
275,1.20e-02,
276,-8.00e-03,
277,1.20e-02,
278,1.20e-02,
279,-8.00e-03,
280,8.00e-03,
281,-8.00e-03,
282,-4.00e-03,
283,1.20e-02,
284,-4.00e-03,
285,1.20e-02,
286,-4.00e-03,
287,1.20e-02,
288,-4.00e-03,
289,1.20e-02,
290,-4.00e-03,
291,1.20e-02,
292,-4.00e-03,
293,1.20e-02,
294,-4.00e-03,
295,1.20e-02,
296,-4.00e-03,
297,1.20e-02,
298,-4.00e-03,
299,1.20e-02,
300,1.20e-02,
301,-1.12e-01,
302,1.20e-02,
303,-4.00e-03,
304,-4.00e-03,
305,1.20e-02,
306,1.20e-02,
307,-8.00e-03,
308,1.20e-02,
309,-8.00e-03,
310,-8.00e-03,
311,1.20e-02,
312,1.20e-02,
313,-8.00e-03,
314,-8.00e-03,
315,1.20e-02,
316,-4.00e-03,
317,1.20e-02,
318,1.20e-02,
319,-8.00e-03,
320,1.20e-02,
321,-8.00e-03,
322,1.20e-02,
323,-4.00e-03,
324,-4.00e-03,
325,1.20e-02,
326,-4.00e-03,
327,1.20e-02,
328,-4.00e-03,
329,1.20e-02,
330,1.20e-02,
331,-4.00e-03,
332,-4.00e-03,
333,1.20e-02,
334,-4.00e-03,
335,1.20e-02,
336,-4.00e-03,
337,1.20e-02,
338,-4.00e-03,
339,1.20e-02,
340,-4.00e-03,
341,1.60e-02,
342,1.20e-02,
343,-8.00e-03,
344,-4.00e-03,
345,1.20e-02,
346,-4.00e-03,
347,1.20e-02,
348,-4.00e-03,
349,1.20e-02,
350,-4.00e-03,
351,1.20e-02,
352,1.20e-02,
353,-8.00e-03,
354,-8.00e-03,
355,3.20e-02,
356,-4.00e-03,
357,1.20e-02,
358,-4.00e-03,
359,1.20e-02,
360,-8.00e-03,
361,1.20e-02,
362,-4.00e-03,
363,1.20e-02,
364,-4.00e-03,
365,1.20e-02,
366,-4.00e-03,
367,1.20e-02,
368,-4.00e-03,
369,1.20e-02,
370,-4.00e-03,
371,1.20e-02,
372,-4.00e-03,
373,1.20e-02,
374,-4.00e-03,
375,1.20e-02,
376,-4.00e-03,
377,1.20e-02,
378,-4.00e-03,
379,1.20e-02,
380,-4.00e-03,
381,1.20e-02,
382,-4.00e-03,
383,1.20e-02,
384,-4.00e-03,
385,1.20e-02,
386,1.20e-02,
387,-4.00e-03,
388,-4.00e-03,
389,1.20e-02,
390,-4.00e-03,
391,1.20e-02,
392,1.20e-02,
393,-4.00e-03,
394,-4.00e-03,
395,1.60e-02,
396,1.20e-02,
397,-4.00e-03,
398,-4.00e-03,
399,1.20e-02,
400,-4.00e-03,
401,1.20e-02,
402,-8.00e-03,
403,1.20e-02,
404,-4.00e-03,
405,1.20e-02,
406,-4.00e-03,
407,1.20e-02,
408,-8.40e-02,
409,4.40e-02,
410,-4.00e-03,
411,1.20e-02,
412,-4.00e-03,
413,1.20e-02,
414,-4.00e-03,
415,1.20e-02,
416,-4.00e-03,
417,1.20e-02,
418,8.00e-03,
419,-4.00e-03,
420,1.20e-02,
421,-8.00e-03,
422,-4.00e-03,
423,1.20e-02,
424,-4.00e-03,
425,1.20e-02,
426,-4.00e-03,
427,1.20e-02,
428,-4.00e-03,
429,1.20e-02,
430,-4.00e-03,
431,1.20e-02,
432,-4.00e-03,
433,1.20e-02,
434,-4.00e-03,
435,1.20e-02,
436,-4.00e-03,
437,8.00e-03,
438,-4.00e-03,
439,1.20e-02,
440,1.20e-02,
441,-8.00e-03,
442,-4.00e-03,
443,1.20e-02,
444,-8.00e-03,
445,1.20e-02,
446,-4.00e-03,
447,1.20e-02,
448,-4.00e-03,
449,1.20e-02,
450,-4.00e-03,
451,1.20e-02,
452,-4.00e-03,
453,1.20e-02,
454,8.00e-03,
455,-4.00e-03,
456,-4.00e-03,
457,8.00e-03,
458,-4.00e-03,
459,8.00e-03,
460,-4.00e-03,
461,6.40e-02,
462,-4.00e-03,
463,8.00e-03,
464,-4.00e-03,
465,1.20e-02,
466,8.00e-03,
467,-8.00e-03,
468,-4.00e-03,
469,1.20e-02,
470,-4.00e-03,
471,1.20e-02,
472,1.20e-02,
473,-4.00e-03,
474,-4.00e-03,
475,1.20e-02,
476,-8.00e-03,
477,1.20e-02,
478,-8.00e-03,
479,1.20e-02,
480,1.20e-02,
481,-8.00e-03,
482,1.20e-02,
483,-8.00e-03,
484,1.20e-02,
485,-8.00e-03,
486,1.20e-02,
487,-8.00e-03,
488,-4.00e-03,
489,8.00e-03,
490,-4.00e-03,
491,1.20e-02,
492,-4.00e-03,
493,1.20e-02,
494,8.00e-03,
495,-4.00e-03,
496,-4.00e-03,
497,1.20e-02,
498,-4.00e-03,
499,8.00e-03,
500,-4.00e-03,
501,8.00e-03,
502,-4.00e-03,
503,1.20e-02,
504,-4.00e-03,
505,1.20e-02,
506,1.20e-02,
507,-8.00e-03,
508,-4.00e-03,
509,1.20e-02,
510,-4.00e-03,
511,1.20e-02,
512,-4.00e-03,
513,8.00e-02,
514,-4.00e-03,
515,1.20e-02,
516,1.20e-02,
517,-4.00e-03,
518,1.20e-02,
519,-4.00e-03,
520,1.20e-02,
521,-8.00e-03,
522,-4.00e-03,
523,1.20e-02,
524,-4.00e-03,
525,1.20e-02,
526,-8.00e-03,
527,1.20e-02,
528,-4.00e-03,
529,1.20e-02,
530,-4.00e-03,
531,8.00e-03,
532,-4.00e-03,
533,1.20e-02,
534,-4.00e-03,
535,1.20e-02,
536,-4.00e-03,
537,1.20e-02,
538,-4.00e-03,
539,1.20e-02,
540,-4.00e-03,
541,1.20e-02,
542,-4.00e-03,
543,1.20e-02,
544,-4.00e-03,
545,1.20e-02,
546,-4.00e-03,
547,1.20e-02,
548,-4.00e-03,
549,1.20e-02,
550,-4.00e-03,
551,1.20e-02,
552,-4.00e-03,
553,8.00e-03,
554,1.20e-02,
555,-8.00e-03,
556,-4.00e-03,
557,1.20e-02,
558,-8.00e-03,
559,1.20e-02,
560,-4.00e-03,
561,1.20e-02,
562,-4.00e-03,
563,1.20e-02,
564,1.20e-02,
565,-8.00e-03,
566,2.00e-02,
567,-2.40e-02,
568,2.40e-02,
569,-8.00e-03,
570,-4.00e-03,
571,1.20e-02,
572,-4.00e-03,
573,1.20e-02,
574,-4.00e-03,
575,1.20e-02,
576,-4.00e-03,
577,1.20e-02,
578,-4.00e-03,
579,1.20e-02,
580,-4.00e-03,
581,1.20e-02,
582,-4.00e-03,
583,1.20e-02,
584,-4.00e-03,
585,1.20e-02,
586,1.20e-02,
587,-8.00e-03,
588,-4.00e-03,
589,1.20e-02,
590,1.20e-02,
591,-4.00e-03,
592,-4.00e-03,
593,1.20e-02,
594,1.20e-02,
595,-4.00e-03,
596,1.20e-02,
597,-4.00e-03,
598,-4.00e-03,
599,1.20e-02,
600,-4.00e-03,
601,1.20e-02,
602,-4.00e-03,
603,1.20e-02,
604,-8.00e-03,
605,1.20e-02,
606,-4.00e-03,
607,1.20e-02,
608,1.20e-02,
609,-8.00e-03,
610,1.20e-02,
611,-4.00e-03,
612,-4.00e-03,
613,1.20e-02,
614,-4.00e-03,
615,1.20e-02,
616,-4.00e-03,
617,1.20e-02,
618,-4.00e-03,
619,1.20e-02,
620,-1.20e-02,
621,6.40e-02,
622,-4.00e-03,
623,1.20e-02,
624,-4.00e-03,
625,1.20e-02,
626,1.20e-02,
627,-4.00e-03,
628,1.20e-02,
629,-4.00e-03,
630,-4.00e-03,
631,1.20e-02,
632,-4.00e-03,
633,1.20e-02,
634,-4.00e-03,
635,1.20e-02,
636,-4.00e-03,
637,1.20e-02,
638,-4.00e-03,
639,1.20e-02,
640,-4.00e-03,
641,1.20e-02,
642,-4.00e-03,
643,1.20e-02,
644,-4.00e-03,
645,1.20e-02,
646,-4.00e-03,
647,1.20e-02,
648,-4.00e-03,
649,1.20e-02,
650,-4.00e-03,
651,1.20e-02,
652,1.20e-02,
653,-8.00e-03,
654,1.20e-02,
655,-8.00e-03,
656,-4.00e-03,
657,1.20e-02,
658,-4.00e-03,
659,1.20e-02,
660,-4.00e-03,
661,1.20e-02,
662,-4.00e-03,
663,1.20e-02,
664,-4.00e-03,
665,8.00e-03,
666,-4.00e-03,
667,1.20e-02,
668,-4.00e-03,
669,1.20e-02,
670,-4.00e-03,
671,8.00e-03,
672,-4.00e-03,
673,8.00e-02,
674,-4.00e-03,
675,2.40e-02,
676,-4.00e-03,
677,1.20e-02,
678,-4.00e-03,
679,1.20e-02,
680,-4.00e-03,
681,1.20e-02,
682,-4.00e-03,
683,1.20e-02,
684,-4.00e-03,
685,1.20e-02,
686,8.00e-03,
687,-4.00e-03,
688,1.20e-02,
689,-8.00e-03,
690,-4.00e-03,
691,1.20e-02,
692,1.20e-02,
693,-4.00e-03,
694,-4.00e-03,
695,1.20e-02,
696,-8.00e-03,
697,1.20e-02,
698,-4.00e-03,
699,1.20e-02,
700,-4.00e-03,
701,1.20e-02,
702,-4.00e-03,
703,1.20e-02,
704,-4.00e-03,
705,1.20e-02,
706,-4.00e-03,
707,1.20e-02,
708,-4.00e-03,
709,1.20e-02,
710,-4.00e-03,
711,1.20e-02,
712,-4.00e-03,
713,1.20e-02,
714,-4.00e-03,
715,1.20e-02,
716,-4.00e-03,
717,1.20e-02,
718,-4.00e-03,
719,1.20e-02,
720,-4.00e-03,
721,1.20e-02,
722,-4.00e-03,
723,1.20e-02,
724,-4.00e-03,
725,1.20e-02,
726,7.60e-02,
727,-5.20e-02,
728,-4.00e-03,
729,1.60e-02,
730,-4.00e-03,
731,1.20e-02,
732,1.20e-02,
733,-8.00e-03,
734,1.60e-02,
735,-8.00e-03,
736,-8.00e-03,
737,1.20e-02,
738,-4.00e-03,
739,1.20e-02,
740,-4.00e-03,
741,1.20e-02,
742,-4.00e-03,
743,1.20e-02,
744,-4.00e-03,
745,1.20e-02,
746,-4.00e-03,
747,1.20e-02,
748,-4.00e-03,
749,1.20e-02,
750,-4.00e-03,
751,1.20e-02,
752,-4.00e-03,
753,1.20e-02,
754,-4.00e-03,
755,1.20e-02,
756,-8.00e-03,
757,1.20e-02,
758,1.20e-02,
759,-8.00e-03,
760,1.20e-02,
761,-4.00e-03,
762,-4.00e-03,
763,1.20e-02,
764,-4.00e-03,
765,1.20e-02,
766,-4.00e-03,
767,1.20e-02,
768,1.20e-02,
769,-4.00e-03,
770,-4.00e-03,
771,1.20e-02,
772,1.20e-02,
773,-8.00e-03,
774,1.20e-02,
775,-4.00e-03,
776,-8.00e-03,
777,1.20e-02,
778,-4.00e-03,
779,1.20e-02,
780,-4.80e-02,
781,5.20e-02,
782,-4.00e-03,
783,1.20e-02,
784,-4.00e-03,
785,1.20e-02,
786,1.20e-02,
787,-4.00e-03,
788,-4.00e-03,
789,1.20e-02,
790,1.20e-02,
791,-4.00e-03,
792,-4.00e-03,
793,1.20e-02,
794,-4.00e-03,
795,1.20e-02,
796,-4.00e-03,
797,1.20e-02,
798,-4.00e-03,
799,1.20e-02,
800,-4.00e-03,
801,1.20e-02,
802,1.20e-02,
803,-8.00e-03,
804,-4.00e-03,
805,1.20e-02,
806,-4.00e-03,
807,1.20e-02,
808,-4.00e-03,
809,1.20e-02,
810,-4.00e-03,
811,1.20e-02,
812,1.20e-02,
813,-8.00e-03,
814,-4.00e-03,
815,1.20e-02,
816,1.20e-02,
817,-8.00e-03,
818,1.20e-02,
819,-8.00e-03,
820,-4.00e-03,
821,1.20e-02,
822,1.20e-02,
823,-4.00e-03,
824,-4.00e-03,
825,1.20e-02,
826,-4.00e-03,
827,1.20e-02,
828,-4.00e-03,
829,1.20e-02,
830,-4.00e-03,
831,1.20e-02,
832,3.60e-02,
833,-1.60e-02,
834,2.40e-02,
835,-1.20e-02,
836,-4.00e-03,
837,1.20e-02,
838,1.20e-02,
839,-4.00e-03,
840,-4.00e-03,
841,1.20e-02,
842,-4.00e-03,
843,1.20e-02,
844,1.20e-02,
845,-4.00e-03,
846,1.20e-02,
847,-4.00e-03,
848,1.20e-02,
849,-8.00e-03,
850,-8.00e-03,
851,1.20e-02,
852,-4.00e-03,
853,1.20e-02,
854,1.20e-02,
855,-8.00e-03,
856,-8.00e-03,
857,1.20e-02,
858,-4.00e-03,
859,1.20e-02,
860,-4.00e-03,
861,1.60e-02,
862,1.20e-02,
863,-8.00e-03,
864,-4.00e-03,
865,1.20e-02,
866,-4.00e-03,
867,1.20e-02,
868,-4.00e-03,
869,1.20e-02,
870,-4.00e-03,
871,1.20e-02,
872,-4.00e-03,
873,1.20e-02,
874,-4.00e-03,
875,1.20e-02,
876,-4.00e-03,
877,1.20e-02,
878,-4.00e-03,
879,1.20e-02,
880,-4.00e-03,
881,1.20e-02,
882,-4.00e-03,
883,1.20e-02,
884,-4.00e-03,
885,1.20e-02,
886,-8.00e-03,
887,7.20e-02,
888,-4.00e-03,
889,1.20e-02,
890,-4.00e-03,
891,1.20e-02,
892,1.20e-02,
893,-4.00e-03,
894,1.20e-02,
895,-4.00e-03,
896,-4.00e-03,
897,1.20e-02,
898,-4.00e-03,
899,1.20e-02,
900,-4.00e-03,
901,1.20e-02,
902,-4.00e-03,
903,1.20e-02,
904,-8.00e-03,
905,1.20e-02,
906,-4.00e-03,
907,1.20e-02,
908,-4.00e-03,
909,1.20e-02,
910,-4.00e-03,
911,1.20e-02,
912,-4.00e-03,
913,1.20e-02,
914,-4.00e-03,
915,1.20e-02,
916,-4.00e-03,
917,1.20e-02,
918,-4.00e-03,
919,1.20e-02,
920,-4.00e-03,
921,1.20e-02,
922,-4.00e-03,
923,1.20e-02,
924,-4.00e-03,
925,1.20e-02,
926,-4.00e-03,
927,1.20e-02,
928,-4.00e-03,
929,1.20e-02,
930,-4.00e-03,
931,1.20e-02,
932,1.20e-02,
933,-8.00e-03,
934,1.20e-02,
935,-4.00e-03,
936,-8.00e-03,
937,1.20e-02,
938,-4.00e-03,
939,1.20e-02,
940,-8.00e-03,
941,5.60e-02,
942,1.20e-02,
943,-8.00e-03,
944,1.20e-02,
945,-8.00e-03,
946,-4.00e-03,
947,8.00e-03,
948,1.20e-02,
949,-8.00e-03,
950,-4.00e-03,
951,8.00e-03,
952,-4.00e-03,
953,1.20e-02,
954,-4.00e-03,
955,1.20e-02,
956,-4.00e-03,
957,1.20e-02,
958,-4.00e-03,
959,1.20e-02,
960,-4.00e-03,
961,1.20e-02,
962,-4.00e-03,
963,1.20e-02,
964,-4.00e-03,
965,1.20e-02,
966,-4.00e-03,
967,1.20e-02,
968,1.20e-02,
969,-8.00e-03,
970,-4.00e-03,
971,1.20e-02,
972,-4.00e-03,
973,1.20e-02,
974,1.20e-02,
975,-4.00e-03,
976,-4.00e-03,
977,1.20e-02,
978,1.20e-02,
979,-8.00e-03,
980,-4.00e-03,
981,1.20e-02,
982,-4.00e-03,
983,1.20e-02,
984,-8.00e-03,
985,1.20e-02,
986,-4.00e-03,
987,1.20e-02,
988,-4.00e-03,
989,1.20e-02,
990,-4.00e-03,
991,1.20e-02,
992,-1.04e-01,
993,2.00e-02,
994,-4.00e-03,
995,1.20e-02,
996,-4.00e-03,
997,1.20e-02,
998,-4.00e-03,
999,1.20e-02,
1000,-4.00e-03,
1001,1.20e-02,
1002,-4.00e-03,
1003,1.20e-02,
1004,-4.00e-03,
1005,1.20e-02,
1006,-4.00e-03,
1007,1.20e-02,
1008,-4.00e-03,
1009,1.20e-02,
1010,-4.00e-03,
1011,1.20e-02,
1012,1.20e-02,
1013,-8.00e-03,
1014,-4.00e-03,
1015,1.20e-02,
1016,-4.00e-03,
1017,1.20e-02,
1018,-4.00e-03,
1019,1.20e-02,
1020,1.20e-02,
1021,-8.00e-03,
1022,1.20e-02,
1023,-4.00e-03,
1024,1.20e-02,
1025,-8.00e-03,
1026,-4.00e-03,
1027,1.20e-02,
1028,-4.00e-03,
1029,1.20e-02,
1030,-4.00e-03,
1031,1.20e-02,
1032,-4.00e-03,
1033,1.20e-02,
1034,-4.00e-03,
1035,8.00e-03,
1036,-4.00e-03,
1037,1.20e-02,
1038,1.20e-02,
1039,-4.00e-03,
1040,-4.00e-03,
1041,1.20e-02,
1042,-4.00e-03,
1043,1.20e-02,
1044,1.20e-02,
1045,-5.60e-02,
1046,-2.80e-02,
1047,2.00e-02,
1048,-4.00e-03,
1049,1.20e-02,
1050,-4.00e-03,
1051,1.20e-02,
1052,1.20e-02,
1053,-8.00e-03,
1054,1.20e-02,
1055,-4.00e-03,
1056,-4.00e-03,
1057,1.20e-02,
1058,-4.00e-03,
1059,1.20e-02,
1060,-4.00e-03,
1061,1.20e-02,
1062,-4.00e-03,
1063,1.20e-02,
1064,-4.00e-03,
1065,1.20e-02,
1066,-4.00e-03,
1067,1.20e-02,
1068,-8.00e-03,
1069,1.20e-02,
1070,-4.00e-03,
1071,1.20e-02,
1072,-4.00e-03,
1073,1.20e-02,
1074,-4.00e-03,
1075,8.00e-03,
1076,-4.00e-03,
1077,1.20e-02,
1078,-4.00e-03,
1079,1.20e-02,
1080,-4.00e-03,
1081,1.20e-02,
1082,-4.00e-03,
1083,1.20e-02,
1084,-4.00e-03,
1085,1.20e-02,
1086,-4.00e-03,
1087,1.20e-02,
1088,-4.00e-03,
1089,1.20e-02,
1090,-4.00e-03,
1091,1.20e-02,
1092,-4.00e-03,
1093,1.20e-02,
1094,-4.00e-03,
1095,1.20e-02,
1096,-4.00e-03,
1097,1.20e-02,
1098,-8.80e-02,
1099,1.60e-02,
1100,-4.00e-03,
1101,1.20e-02,
1102,-4.00e-03,
1103,1.60e-02,
1104,-4.00e-03,
1105,1.20e-02,
1106,1.20e-02,
1107,-8.00e-03,
1108,-4.00e-03,
1109,1.60e-02,
1110,-4.00e-03,
1111,1.60e-02,
1112,-4.00e-03,
1113,1.20e-02,
1114,-4.00e-03,
1115,1.20e-02,
1116,-4.00e-03,
1117,1.20e-02,
1118,-4.00e-03,
1119,1.20e-02,
1120,1.20e-02,
1121,-8.00e-03,
1122,1.20e-02,
1123,-4.00e-03,
1124,-4.00e-03,
1125,1.20e-02,
1126,-4.00e-03,
1127,1.20e-02,
1128,-4.00e-03,
1129,1.20e-02,
1130,-4.00e-03,
1131,1.20e-02,
1132,-4.00e-03,
1133,1.20e-02,
1134,-4.00e-03,
1135,1.20e-02,
1136,-4.00e-03,
1137,1.20e-02,
1138,-8.00e-03,
1139,1.20e-02,
1140,-4.00e-03,
1141,1.20e-02,
1142,-4.00e-03,
1143,1.20e-02,
1144,-8.00e-03,
1145,1.20e-02,
1146,1.20e-02,
1147,-8.00e-03,
1148,-4.00e-03,
1149,1.20e-02,
1150,-4.00e-03,
1151,1.20e-02,
1152,-8.40e-02,
1153,1.60e-02,
1154,-8.00e-03,
1155,1.20e-02,
1156,-4.00e-03,
1157,1.20e-02,
1158,-4.00e-03,
1159,1.20e-02,
1160,8.00e-03,
1161,-4.00e-03,
1162,-4.00e-03,
1163,1.20e-02,
1164,-4.00e-03,
1165,1.20e-02,
1166,-4.00e-03,
1167,8.00e-03,
1168,-4.00e-03,
1169,1.20e-02,
1170,-4.00e-03,
1171,1.20e-02,
1172,-4.00e-03,
1173,1.20e-02,
1174,-4.00e-03,
1175,1.20e-02,
1176,-4.00e-03,
1177,1.20e-02,
1178,-4.00e-03,
1179,1.20e-02,
1180,-4.00e-03,
1181,1.20e-02,
1182,1.20e-02,
1183,-4.00e-03,
1184,1.20e-02,
1185,-8.00e-03,
1186,-4.00e-03,
1187,1.20e-02,
1188,-8.00e-03,
1189,1.20e-02,
1190,-4.00e-03,
1191,1.20e-02,
1192,1.20e-02,
1193,-8.00e-03,
1194,-8.00e-03,
1195,1.20e-02,
1196,-4.00e-03,
1197,1.20e-02,
1198,-4.00e-03,
1199,1.20e-02,
