Laptop_2/LAPTOP_CHRGR_2_OFF/time domain/NewFile48.csv

X,CH1,Start,Increment,
Sequence,Volt,-1.500000e-01,2.000000e-04
0,-8.00e-03,
1,1.60e-02,
2,1.60e-02,
3,-1.20e-02,
4,-8.00e-03,
5,1.60e-02,
6,-8.00e-03,
7,1.60e-02,
8,-8.00e-03,
9,1.60e-02,
10,-8.00e-03,
11,1.60e-02,
12,-1.20e-02,
13,1.60e-02,
14,1.60e-02,
15,-1.20e-02,
16,-8.00e-03,
17,1.60e-02,
18,-8.00e-03,
19,1.60e-02,
20,-8.00e-03,
21,1.60e-02,
22,1.60e-02,
23,-8.00e-03,
24,-8.00e-03,
25,1.60e-02,
26,-8.00e-03,
27,1.60e-02,
28,-8.00e-03,
29,1.60e-02,
30,1.60e-02,
31,-1.20e-02,
32,-8.00e-03,
33,1.60e-02,
34,1.60e-02,
35,-1.20e-02,
36,-8.00e-03,
37,1.60e-02,
38,1.60e-02,
39,-1.64e-01,
40,-8.00e-03,
41,1.60e-02,
42,-8.00e-03,
43,1.60e-02,
44,-8.00e-03,
45,1.60e-02,
46,-8.00e-03,
47,1.60e-02,
48,-8.00e-03,
49,1.60e-02,
50,-8.00e-03,
51,1.60e-02,
52,-8.00e-03,
53,1.60e-02,
54,1.60e-02,
55,-8.00e-03,
56,1.60e-02,
57,-8.00e-03,
58,-8.00e-03,
59,1.60e-02,
60,1.60e-02,
61,-1.20e-02,
62,-8.00e-03,
63,1.60e-02,
64,1.60e-02,
65,-8.00e-03,
66,-8.00e-03,
67,1.60e-02,
68,-8.00e-03,
69,1.60e-02,
70,1.60e-02,
71,-1.20e-02,
72,-1.20e-02,
73,1.60e-02,
74,1.60e-02,
75,-8.00e-03,
76,-8.00e-03,
77,1.60e-02,
78,-8.00e-03,
79,1.60e-02,
80,-8.00e-03,
81,1.60e-02,
82,1.60e-02,
83,-1.20e-02,
84,-8.00e-03,
85,1.60e-02,
86,1.60e-02,
87,-1.20e-02,
88,-8.00e-03,
89,1.60e-02,
90,-1.80e-01,
91,1.64e-01,
92,-8.00e-03,
93,1.60e-02,
94,-8.00e-03,
95,1.60e-02,
96,-8.00e-03,
97,1.60e-02,
98,-8.00e-03,
99,1.60e-02,
100,-8.00e-03,
101,1.60e-02,
102,1.20e-02,
103,-8.00e-03,
104,-8.00e-03,
105,1.60e-02,
106,1.60e-02,
107,-1.20e-02,
108,-8.00e-03,
109,1.60e-02,
110,1.60e-02,
111,-1.20e-02,
112,-8.00e-03,
113,1.20e-02,
114,1.60e-02,
115,-1.20e-02,
116,-1.20e-02,
117,1.60e-02,
118,1.60e-02,
119,-1.20e-02,
120,1.60e-02,
121,-1.20e-02,
122,-8.00e-03,
123,1.60e-02,
124,1.60e-02,
125,-1.20e-02,
126,1.60e-02,
127,-8.00e-03,
128,-8.00e-03,
129,1.60e-02,
130,-8.00e-03,
131,1.60e-02,
132,-8.00e-03,
133,1.60e-02,
134,-8.00e-03,
135,1.60e-02,
136,-8.00e-03,
137,1.60e-02,
138,-8.00e-03,
139,1.60e-02,
140,-8.00e-03,
141,1.60e-02,
142,-8.00e-03,
143,1.60e-02,
144,3.60e-02,
145,-1.48e-01,
146,1.60e-02,
147,-1.20e-02,
148,-8.00e-03,
149,1.60e-02,
150,1.60e-02,
151,-1.20e-02,
152,-8.00e-03,
153,1.60e-02,
154,-8.00e-03,
155,1.20e-02,
156,-8.00e-03,
157,1.60e-02,
158,-1.20e-02,
159,1.60e-02,
160,1.60e-02,
161,-1.20e-02,
162,-8.00e-03,
163,1.60e-02,
164,1.60e-02,
165,-1.20e-02,
166,1.60e-02,
167,-1.20e-02,
168,-8.00e-03,
169,1.60e-02,
170,-8.00e-03,
171,1.60e-02,
172,-8.00e-03,
173,1.60e-02,
174,-8.00e-03,
175,1.60e-02,
176,-8.00e-03,
177,1.60e-02,
178,-8.00e-03,
179,1.60e-02,
180,-8.00e-03,
181,1.60e-02,
182,-8.00e-03,
183,1.60e-02,
184,-8.00e-03,
185,1.60e-02,
186,-8.00e-03,
187,1.60e-02,
188,-8.00e-03,
189,1.60e-02,
190,-8.00e-03,
191,1.60e-02,
192,1.60e-02,
193,-8.00e-03,
194,-8.00e-03,
195,1.60e-02,
196,-1.68e-01,
197,1.40e-01,
198,-8.00e-03,
199,1.60e-02,
200,-8.00e-03,
201,1.60e-02,
202,-8.00e-03,
203,1.60e-02,
204,1.60e-02,
205,-1.20e-02,
206,1.60e-02,
207,-1.20e-02,
208,-8.00e-03,
209,1.60e-02,
210,-8.00e-03,
211,1.60e-02,
212,1.60e-02,
213,-1.20e-02,
214,-8.00e-03,
215,1.60e-02,
216,-8.00e-03,
217,1.20e-02,
218,-8.00e-03,
219,1.60e-02,
220,-8.00e-03,
221,1.60e-02,
222,-8.00e-03,
223,1.60e-02,
224,-8.00e-03,
225,1.60e-02,
226,1.20e-02,
227,-8.00e-03,
228,1.60e-02,
229,-1.20e-02,
230,-8.00e-03,
231,1.60e-02,
232,-8.00e-03,
233,1.60e-02,
234,-8.00e-03,
235,1.60e-02,
236,1.60e-02,
237,-8.00e-03,
238,-8.00e-03,
239,1.60e-02,
240,-8.00e-03,
241,1.60e-02,
242,-8.00e-03,
243,1.60e-02,
244,1.60e-02,
245,-8.00e-03,
246,-8.00e-03,
247,1.60e-02,
248,-1.20e-02,
249,1.60e-02,
250,-1.52e-01,
251,5.60e-02,
252,-8.00e-03,
253,1.60e-02,
254,-8.00e-03,
255,1.60e-02,
256,-8.00e-03,
257,1.60e-02,
258,-8.00e-03,
259,1.60e-02,
260,-1.20e-02,
261,1.60e-02,
262,-8.00e-03,
263,1.60e-02,
264,-8.00e-03,
265,1.60e-02,
266,-8.00e-03,
267,1.60e-02,
268,1.60e-02,
269,-8.00e-03,
270,-8.00e-03,
271,1.60e-02,
272,1.60e-02,
273,-1.20e-02,
274,-8.00e-03,
275,1.60e-02,
276,-8.00e-03,
277,1.60e-02,
278,1.60e-02,
279,-1.20e-02,
280,-8.00e-03,
281,1.60e-02,
282,-8.00e-03,
283,1.60e-02,
284,-8.00e-03,
285,1.60e-02,
286,-8.00e-03,
287,1.60e-02,
288,1.60e-02,
289,-1.20e-02,
290,-8.00e-03,
291,1.60e-02,
292,-8.00e-03,
293,1.60e-02,
294,-8.00e-03,
295,1.60e-02,
296,-8.00e-03,
297,1.60e-02,
298,-8.00e-03,
299,1.60e-02,
300,1.60e-02,
301,-1.20e-02,
302,-8.00e-03,
303,1.60e-02,
304,5.60e-02,
305,-1.20e-02,
306,1.60e-02,
307,-1.20e-02,
308,-8.00e-03,
309,1.60e-02,
310,-8.00e-03,
311,1.60e-02,
312,-8.00e-03,
313,1.60e-02,
314,1.60e-02,
315,-1.20e-02,
316,-8.00e-03,
317,1.60e-02,
318,1.60e-02,
319,-1.20e-02,
320,-8.00e-03,
321,1.60e-02,
322,-1.20e-02,
323,1.60e-02,
324,-8.00e-03,
325,1.60e-02,
326,1.60e-02,
327,-1.20e-02,
328,-8.00e-03,
329,1.60e-02,
330,-8.00e-03,
331,1.20e-02,
332,-8.00e-03,
333,1.60e-02,
334,-8.00e-03,
335,1.60e-02,
336,-8.00e-03,
337,1.60e-02,
338,-8.00e-03,
339,1.60e-02,
340,-8.00e-03,
341,1.20e-02,
342,-8.00e-03,
343,1.60e-02,
344,-8.00e-03,
345,1.60e-02,
346,-8.00e-03,
347,1.60e-02,
348,1.20e-02,
349,-1.20e-02,
350,1.60e-02,
351,-1.20e-02,
352,-8.00e-03,
353,1.60e-02,
354,-8.00e-03,
355,1.60e-02,
356,-2.00e-01,
357,1.84e-01,
358,1.60e-02,
359,-1.20e-02,
360,1.60e-02,
361,-1.20e-02,
362,-8.00e-03,
363,1.20e-02,
364,1.20e-02,
365,-1.20e-02,
366,1.20e-02,
367,-1.20e-02,
368,1.60e-02,
369,-1.20e-02,
370,1.20e-02,
371,-1.20e-02,
372,1.20e-02,
373,-1.20e-02,
374,-1.20e-02,
375,1.60e-02,
376,1.20e-02,
377,-1.20e-02,
378,-8.00e-03,
379,1.60e-02,
380,1.60e-02,
381,-1.20e-02,
382,-8.00e-03,
383,1.60e-02,
384,-1.20e-02,
385,1.60e-02,
386,-8.00e-03,
387,1.60e-02,
388,1.60e-02,
389,-8.00e-03,
390,-8.00e-03,
391,1.60e-02,
392,-8.00e-03,
393,1.60e-02,
394,1.60e-02,
395,-1.20e-02,
396,-8.00e-03,
397,1.60e-02,
398,-8.00e-03,
399,1.60e-02,
400,-8.00e-03,
401,1.60e-02,
402,1.60e-02,
403,-8.00e-03,
404,-8.00e-03,
405,1.60e-02,
406,-8.00e-03,
407,1.60e-02,
408,-8.00e-03,
409,1.60e-02,
410,6.40e-02,
411,-2.40e-02,
412,-8.00e-03,
413,1.60e-02,
414,-8.00e-03,
415,1.60e-02,
416,-8.00e-03,
417,1.60e-02,
418,-8.00e-03,
419,1.20e-02,
420,-8.00e-03,
421,1.60e-02,
422,-8.00e-03,
423,1.60e-02,
424,-8.00e-03,
425,1.60e-02,
426,-8.00e-03,
427,1.60e-02,
428,-8.00e-03,
429,1.60e-02,
430,-8.00e-03,
431,1.60e-02,
432,-8.00e-03,
433,1.60e-02,
434,-8.00e-03,
435,1.60e-02,
436,-8.00e-03,
437,1.60e-02,
438,-8.00e-03,
439,1.60e-02,
440,-8.00e-03,
441,1.60e-02,
442,-8.00e-03,
443,1.60e-02,
444,-8.00e-03,
445,1.60e-02,
446,1.60e-02,
447,-1.20e-02,
448,-8.00e-03,
449,1.60e-02,
450,-1.20e-02,
451,1.60e-02,
452,-8.00e-03,
453,2.00e-02,
454,-8.00e-03,
455,1.60e-02,
456,-8.00e-03,
457,1.60e-02,
458,-8.00e-03,
459,1.60e-02,
460,1.60e-02,
461,-1.20e-02,
462,-8.00e-03,
463,1.60e-02,
464,6.00e-02,
465,-3.20e-02,
466,-8.00e-03,
467,1.60e-02,
468,1.60e-02,
469,-8.00e-03,
470,-8.00e-03,
471,1.60e-02,
472,-8.00e-03,
473,1.60e-02,
474,-8.00e-03,
475,1.60e-02,
476,-8.00e-03,
477,1.60e-02,
478,-8.00e-03,
479,1.60e-02,
480,-1.20e-02,
481,1.60e-02,
482,1.60e-02,
483,-8.00e-03,
484,-1.20e-02,
485,2.00e-02,
486,1.60e-02,
487,-8.00e-03,
488,-8.00e-03,
489,1.60e-02,
490,-8.00e-03,
491,1.60e-02,
492,1.60e-02,
493,-1.20e-02,
494,-8.00e-03,
495,1.60e-02,
496,-8.00e-03,
497,1.60e-02,
498,-8.00e-03,
499,1.60e-02,
500,-8.00e-03,
501,1.60e-02,
502,1.60e-02,
503,-1.20e-02,
504,-8.00e-03,
505,1.60e-02,
506,-8.00e-03,
507,1.60e-02,
508,-8.00e-03,
509,1.60e-02,
510,-8.00e-03,
511,1.60e-02,
512,-8.00e-03,
513,1.60e-02,
514,-8.00e-03,
515,1.60e-02,
516,4.00e-02,
517,-3.60e-02,
518,-8.00e-03,
519,1.60e-02,
520,-8.00e-03,
521,2.00e-02,
522,-8.00e-03,
523,1.60e-02,
524,-8.00e-03,
525,2.00e-02,
526,-8.00e-03,
527,1.60e-02,
528,1.60e-02,
529,-8.00e-03,
530,-8.00e-03,
531,1.60e-02,
532,-8.00e-03,
533,1.60e-02,
534,1.60e-02,
535,-8.00e-03,
536,-8.00e-03,
537,1.60e-02,
538,-1.20e-02,
539,1.60e-02,
540,-8.00e-03,
541,1.60e-02,
542,-8.00e-03,
543,1.60e-02,
544,-8.00e-03,
545,1.20e-02,
546,1.60e-02,
547,-1.20e-02,
548,-8.00e-03,
549,1.60e-02,
550,-8.00e-03,
551,1.60e-02,
552,-1.20e-02,
553,1.60e-02,
554,-8.00e-03,
555,1.60e-02,
556,-8.00e-03,
557,1.60e-02,
558,-8.00e-03,
559,1.60e-02,
560,-8.00e-03,
561,1.60e-02,
562,-8.00e-03,
563,1.60e-02,
564,1.60e-02,
565,-1.20e-02,
566,-8.00e-03,
567,1.60e-02,
568,-8.00e-03,
569,1.60e-02,
570,-1.64e-01,
571,1.52e-01,
572,-8.00e-03,
573,1.60e-02,
574,1.60e-02,
575,-1.20e-02,
576,1.60e-02,
577,-1.20e-02,
578,-8.00e-03,
579,1.60e-02,
580,-8.00e-03,
581,1.60e-02,
582,-8.00e-03,
583,1.60e-02,
584,-8.00e-03,
585,1.60e-02,
586,-8.00e-03,
587,1.60e-02,
588,-8.00e-03,
589,1.60e-02,
590,-8.00e-03,
591,1.60e-02,
592,-8.00e-03,
593,1.60e-02,
594,-8.00e-03,
595,1.60e-02,
596,1.60e-02,
597,-8.00e-03,
598,-8.00e-03,
599,1.60e-02,
600,-8.00e-03,
601,1.60e-02,
602,-8.00e-03,
603,1.60e-02,
604,-8.00e-03,
605,1.60e-02,
606,1.60e-02,
607,-1.20e-02,
608,-8.00e-03,
609,1.60e-02,
610,-8.00e-03,
611,1.60e-02,
612,1.60e-02,
613,-1.20e-02,
614,-8.00e-03,
615,1.60e-02,
616,-8.00e-03,
617,1.60e-02,
618,-8.00e-03,
619,1.60e-02,
620,1.60e-02,
621,-1.20e-02,
622,-3.20e-02,
623,1.36e-01,
624,-6.00e-02,
625,1.60e-02,
626,1.60e-02,
627,-1.20e-02,
628,1.60e-02,
629,-8.00e-03,
630,-8.00e-03,
631,1.60e-02,
632,-8.00e-03,
633,1.60e-02,
634,-1.20e-02,
635,1.60e-02,
636,-8.00e-03,
637,1.60e-02,
638,-8.00e-03,
639,1.60e-02,
640,-8.00e-03,
641,1.60e-02,
642,-8.00e-03,
643,1.60e-02,
644,-8.00e-03,
645,1.60e-02,
646,1.60e-02,
647,-8.00e-03,
648,-8.00e-03,
649,1.60e-02,
650,-8.00e-03,
651,1.60e-02,
652,-8.00e-03,
653,1.60e-02,
654,-8.00e-03,
655,1.60e-02,
656,-8.00e-03,
657,1.60e-02,
658,-8.00e-03,
659,1.60e-02,
660,-8.00e-03,
661,1.60e-02,
662,-8.00e-03,
663,1.60e-02,
664,1.60e-02,
665,-1.20e-02,
666,-8.00e-03,
667,1.60e-02,
668,-8.00e-03,
669,1.60e-02,
670,-1.20e-02,
671,1.60e-02,
672,1.60e-02,
673,-8.00e-03,
674,1.60e-02,
675,-8.00e-03,
676,2.16e-01,
677,-4.80e-02,
678,-8.00e-03,
679,1.60e-02,
680,-8.00e-03,
681,1.60e-02,
682,-8.00e-03,
683,1.60e-02,
684,-8.00e-03,
685,1.60e-02,
686,-8.00e-03,
687,1.60e-02,
688,1.60e-02,
689,-1.20e-02,
690,-8.00e-03,
691,1.60e-02,
692,1.60e-02,
693,-1.20e-02,
694,-8.00e-03,
695,1.60e-02,
696,-8.00e-03,
697,1.60e-02,
698,-8.00e-03,
699,1.60e-02,
700,1.60e-02,
701,-1.20e-02,
702,1.60e-02,
703,-1.20e-02,
704,-8.00e-03,
705,1.60e-02,
706,-8.00e-03,
707,1.60e-02,
708,-8.00e-03,
709,1.60e-02,
710,1.20e-02,
711,-8.00e-03,
712,-8.00e-03,
713,1.60e-02,
714,-1.20e-02,
715,1.60e-02,
716,-8.00e-03,
717,1.60e-02,
718,-8.00e-03,
719,1.60e-02,
720,-8.00e-03,
721,1.60e-02,
722,1.60e-02,
723,-1.20e-02,
724,1.60e-02,
725,-1.20e-02,
726,-8.00e-03,
727,1.60e-02,
728,-2.00e-02,
729,1.48e-01,
730,1.44e-01,
731,-2.00e-02,
732,-8.00e-03,
733,1.60e-02,
734,1.60e-02,
735,-1.20e-02,
736,-8.00e-03,
737,1.60e-02,
738,1.60e-02,
739,-1.20e-02,
740,-8.00e-03,
741,1.60e-02,
742,1.60e-02,
743,-1.20e-02,
744,-8.00e-03,
745,1.60e-02,
746,1.60e-02,
747,-1.20e-02,
748,-8.00e-03,
749,1.60e-02,
750,-8.00e-03,
751,1.60e-02,
752,-8.00e-03,
753,1.60e-02,
754,-8.00e-03,
755,1.60e-02,
756,-8.00e-03,
757,1.60e-02,
758,-1.20e-02,
759,1.60e-02,
760,1.60e-02,
761,-8.00e-03,
762,-8.00e-03,
763,1.60e-02,
764,-8.00e-03,
765,1.60e-02,
766,-8.00e-03,
767,1.60e-02,
768,-8.00e-03,
769,1.60e-02,
770,-8.00e-03,
771,1.60e-02,
772,-8.00e-03,
773,1.60e-02,
774,-8.00e-03,
775,1.60e-02,
776,-8.00e-03,
777,1.60e-02,
778,1.60e-02,
779,-8.00e-03,
780,-8.00e-03,
781,1.60e-02,
782,-8.00e-03,
783,8.00e-02,
784,-8.00e-03,
785,1.60e-02,
786,-8.00e-03,
787,1.60e-02,
788,1.60e-02,
789,-1.20e-02,
790,-8.00e-03,
791,1.60e-02,
792,1.60e-02,
793,-1.20e-02,
794,-8.00e-03,
795,1.60e-02,
796,-8.00e-03,
797,1.60e-02,
798,-8.00e-03,
799,1.60e-02,
800,1.20e-02,
801,-8.00e-03,
802,-8.00e-03,
803,1.60e-02,
804,-8.00e-03,
805,1.60e-02,
806,-8.00e-03,
807,1.60e-02,
808,-8.00e-03,
809,1.60e-02,
810,-8.00e-03,
811,1.60e-02,
812,-8.00e-03,
813,1.60e-02,
814,1.60e-02,
815,-1.20e-02,
816,1.60e-02,
817,-1.20e-02,
818,-8.00e-03,
819,1.60e-02,
820,-1.20e-02,
821,2.00e-02,
822,-8.00e-03,
823,1.60e-02,
824,-8.00e-03,
825,1.60e-02,
826,1.60e-02,
827,-1.20e-02,
828,-8.00e-03,
829,1.60e-02,
830,1.60e-02,
831,-1.20e-02,
832,-8.00e-03,
833,1.60e-02,
834,-8.00e-03,
835,1.60e-02,
836,2.24e-01,
837,-1.20e-02,
838,-8.00e-03,
839,1.60e-02,
840,-8.00e-03,
841,1.60e-02,
842,-8.00e-03,
843,1.60e-02,
844,-8.00e-03,
845,1.60e-02,
846,1.60e-02,
847,-1.20e-02,
848,-8.00e-03,
849,1.60e-02,
850,-8.00e-03,
851,1.60e-02,
852,-8.00e-03,
853,1.60e-02,
854,1.60e-02,
855,-8.00e-03,
856,-8.00e-03,
857,1.60e-02,
858,1.60e-02,
859,-1.20e-02,
860,-8.00e-03,
861,1.60e-02,
862,-8.00e-03,
863,1.60e-02,
864,1.60e-02,
865,-1.20e-02,
866,-8.00e-03,
867,1.60e-02,
868,-8.00e-03,
869,1.60e-02,
870,-8.00e-03,
871,1.60e-02,
872,-8.00e-03,
873,1.60e-02,
874,1.60e-02,
875,-1.20e-02,
876,-8.00e-03,
877,1.60e-02,
878,-8.00e-03,
879,1.60e-02,
880,-8.00e-03,
881,1.60e-02,
882,-8.00e-03,
883,1.60e-02,
884,-8.00e-03,
885,1.60e-02,
886,-8.00e-03,
887,1.60e-02,
888,6.40e-02,
889,-4.80e-02,
890,-8.00e-03,
891,1.60e-02,
892,-8.00e-03,
893,1.60e-02,
894,-8.00e-03,
895,1.60e-02,
896,-8.00e-03,
897,1.60e-02,
898,1.60e-02,
899,-8.00e-03,
900,-8.00e-03,
901,1.60e-02,
902,-8.00e-03,
903,1.60e-02,
904,-8.00e-03,
905,1.60e-02,
906,1.60e-02,
907,-8.00e-03,
908,1.60e-02,
909,-1.20e-02,
910,-8.00e-03,
911,1.60e-02,
912,-8.00e-03,
913,1.60e-02,
914,-8.00e-03,
915,1.60e-02,
916,-8.00e-03,
917,1.60e-02,
918,1.60e-02,
919,-1.20e-02,
920,-8.00e-03,
921,1.60e-02,
922,-8.00e-03,
923,1.60e-02,
924,-8.00e-03,
925,1.60e-02,
926,-8.00e-03,
927,1.60e-02,
928,1.60e-02,
929,-1.20e-02,
930,-8.00e-03,
931,1.60e-02,
932,-8.00e-03,
933,1.60e-02,
934,-8.00e-03,
935,1.60e-02,
936,-8.00e-03,
937,1.60e-02,
938,-8.00e-03,
939,1.60e-02,
940,-8.00e-03,
941,1.60e-02,
942,7.20e-02,
943,-5.20e-02,
944,-8.00e-03,
945,1.60e-02,
946,-8.00e-03,
947,1.60e-02,
948,1.60e-02,
949,-8.00e-03,
950,-8.00e-03,
951,1.60e-02,
952,-1.20e-02,
953,1.60e-02,
954,-8.00e-03,
955,1.60e-02,
956,-8.00e-03,
957,1.20e-02,
958,-8.00e-03,
959,1.60e-02,
960,1.60e-02,
961,-8.00e-03,
962,-8.00e-03,
963,1.60e-02,
964,-8.00e-03,
965,1.60e-02,
966,-8.00e-03,
967,1.60e-02,
968,-8.00e-03,
969,1.60e-02,
970,-8.00e-03,
971,1.60e-02,
972,-8.00e-03,
973,1.60e-02,
974,-8.00e-03,
975,1.60e-02,
976,1.60e-02,
977,-1.20e-02,
978,1.60e-02,
979,-1.20e-02,
980,1.60e-02,
981,-1.20e-02,
982,-8.00e-03,
983,1.60e-02,
984,-8.00e-03,
985,1.60e-02,
986,-8.00e-03,
987,1.60e-02,
988,-8.00e-03,
989,1.60e-02,
990,-8.00e-03,
991,1.60e-02,
992,-1.20e-02,
993,1.60e-02,
994,-1.48e-01,
995,7.20e-02,
996,-1.20e-02,
997,1.60e-02,
998,-8.00e-03,
999,1.60e-02,
1000,-8.00e-03,
1001,1.60e-02,
1002,-8.00e-03,
1003,1.60e-02,
1004,1.60e-02,
1005,-1.20e-02,
1006,1.60e-02,
1007,-1.20e-02,
1008,-8.00e-03,
1009,1.60e-02,
1010,1.20e-02,
1011,-8.00e-03,
1012,-8.00e-03,
1013,1.60e-02,
1014,-8.00e-03,
1015,1.60e-02,
1016,-8.00e-03,
1017,1.60e-02,
1018,-8.00e-03,
1019,1.60e-02,
1020,-8.00e-03,
1021,1.60e-02,
1022,1.60e-02,
1023,-1.20e-02,
1024,-8.00e-03,
1025,1.60e-02,
1026,-8.00e-03,
1027,1.60e-02,
1028,-8.00e-03,
1029,1.60e-02,
1030,-8.00e-03,
1031,1.60e-02,
1032,-8.00e-03,
1033,1.60e-02,
1034,-8.00e-03,
1035,1.60e-02,
1036,-8.00e-03,
1037,1.60e-02,
1038,-8.00e-03,
1039,1.60e-02,
1040,-8.00e-03,
1041,1.60e-02,
1042,1.60e-02,
1043,-1.20e-02,
1044,-8.00e-03,
1045,1.60e-02,
1046,-8.00e-03,
1047,1.60e-02,
1048,-2.00e-02,
1049,8.00e-02,
1050,-8.00e-03,
1051,1.60e-02,
1052,-8.00e-03,
1053,1.60e-02,
1054,1.60e-02,
1055,-1.20e-02,
1056,-8.00e-03,
1057,1.60e-02,
1058,-8.00e-03,
1059,1.60e-02,
1060,-8.00e-03,
1061,1.60e-02,
1062,1.60e-02,
1063,-1.20e-02,
1064,1.60e-02,
1065,-1.20e-02,
1066,-8.00e-03,
1067,1.60e-02,
1068,-8.00e-03,
1069,1.60e-02,
1070,-8.00e-03,
1071,1.60e-02,
1072,-8.00e-03,
1073,1.60e-02,
1074,-8.00e-03,
1075,1.60e-02,
1076,-8.00e-03,
1077,1.60e-02,
1078,-8.00e-03,
1079,1.60e-02,
1080,1.60e-02,
1081,-1.20e-02,
1082,1.60e-02,
1083,-8.00e-03,
1084,-8.00e-03,
1085,1.60e-02,
1086,-8.00e-03,
1087,1.60e-02,
1088,-8.00e-03,
1089,1.60e-02,
1090,1.60e-02,
1091,-1.20e-02,
1092,-8.00e-03,
1093,1.60e-02,
1094,-8.00e-03,
1095,2.00e-02,
1096,1.60e-02,
1097,-1.20e-02,
1098,-8.00e-03,
1099,1.60e-02,
1100,-4.80e-02,
1101,4.80e-02,
1102,-8.00e-03,
1103,1.60e-02,
1104,1.60e-02,
1105,-1.20e-02,
1106,-8.00e-03,
1107,1.60e-02,
1108,-1.20e-02,
1109,1.60e-02,
1110,-8.00e-03,
1111,1.60e-02,
1112,1.60e-02,
1113,-8.00e-03,
1114,-1.20e-02,
1115,1.60e-02,
1116,-8.00e-03,
1117,1.60e-02,
1118,-8.00e-03,
1119,1.60e-02,
1120,-8.00e-03,
1121,1.60e-02,
1122,-8.00e-03,
1123,1.60e-02,
1124,-8.00e-03,
1125,1.60e-02,
1126,-8.00e-03,
1127,1.60e-02,
1128,-8.00e-03,
1129,1.60e-02,
1130,-8.00e-03,
1131,1.60e-02,
1132,1.60e-02,
1133,-1.20e-02,
1134,1.60e-02,
1135,-1.20e-02,
1136,1.60e-02,
1137,-1.20e-02,
1138,-8.00e-03,
1139,1.60e-02,
1140,1.60e-02,
1141,-1.20e-02,
1142,-8.00e-03,
1143,1.60e-02,
1144,-8.00e-03,
1145,1.60e-02,
1146,-8.00e-03,
1147,1.60e-02,
1148,-8.00e-03,
1149,1.60e-02,
1150,-8.00e-03,
1151,1.60e-02,
1152,-8.00e-03,
1153,1.60e-02,
1154,-1.72e-01,
1155,2.40e-02,
1156,-8.00e-03,
1157,1.60e-02,
1158,-8.00e-03,
1159,1.60e-02,
1160,-8.00e-03,
1161,1.60e-02,
1162,-8.00e-03,
1163,1.60e-02,
1164,1.60e-02,
1165,-1.20e-02,
1166,-8.00e-03,
1167,1.60e-02,
1168,-8.00e-03,
1169,1.60e-02,
1170,-8.00e-03,
1171,1.60e-02,
1172,-8.00e-03,
1173,1.60e-02,
1174,-8.00e-03,
1175,1.60e-02,
1176,1.60e-02,
1177,-1.20e-02,
1178,-8.00e-03,
1179,1.60e-02,
1180,-8.00e-03,
1181,1.60e-02,
1182,-8.00e-03,
1183,1.60e-02,
1184,-8.00e-03,
1185,1.60e-02,
1186,1.60e-02,
1187,-8.00e-03,
1188,-8.00e-03,
1189,1.60e-02,
1190,-8.00e-03,
1191,1.60e-02,
1192,-8.00e-03,
1193,1.60e-02,
1194,-8.00e-03,
1195,1.60e-02,
1196,-8.00e-03,
1197,1.60e-02,
1198,-8.00e-03,
1199,1.60e-02,
