Laptop_2/LAPTOP_CHRGR_2_OFF/time domain/NewFile15.csv

X,CH1,Start,Increment,
Sequence,Volt,-1.500000e-01,2.000000e-04
0,1.20e-02,
1,-8.00e-03,
2,-4.00e-03,
3,1.20e-02,
4,-8.00e-03,
5,1.60e-02,
6,-8.00e-03,
7,1.20e-02,
8,1.60e-02,
9,-8.00e-03,
10,-4.00e-03,
11,1.20e-02,
12,-4.00e-03,
13,1.20e-02,
14,-8.00e-03,
15,1.60e-02,
16,-8.00e-03,
17,1.60e-02,
18,1.20e-02,
19,-4.00e-03,
20,1.20e-02,
21,-4.00e-03,
22,-4.00e-03,
23,1.60e-02,
24,-4.00e-03,
25,1.60e-02,
26,-4.00e-03,
27,4.80e-02,
28,-1.60e-02,
29,1.20e-02,
30,1.20e-02,
31,-8.00e-03,
32,-4.00e-03,
33,1.20e-02,
34,-4.00e-03,
35,1.20e-02,
36,-4.00e-03,
37,1.20e-02,
38,-4.00e-03,
39,1.20e-02,
40,-4.00e-03,
41,1.20e-02,
42,-4.00e-03,
43,1.20e-02,
44,1.20e-02,
45,-8.00e-03,
46,-4.00e-03,
47,1.20e-02,
48,-4.00e-03,
49,1.20e-02,
50,-4.00e-03,
51,1.20e-02,
52,1.20e-02,
53,-8.00e-03,
54,-8.00e-03,
55,1.60e-02,
56,-4.00e-03,
57,1.20e-02,
58,1.20e-02,
59,-1.20e-02,
60,-4.00e-03,
61,1.20e-02,
62,-4.00e-03,
63,1.20e-02,
64,1.20e-02,
65,-4.00e-03,
66,-4.00e-03,
67,1.20e-02,
68,1.20e-02,
69,-8.00e-03,
70,1.20e-02,
71,-4.00e-03,
72,-4.00e-03,
73,1.20e-02,
74,-4.00e-03,
75,1.20e-02,
76,1.20e-02,
77,-8.00e-03,
78,1.20e-02,
79,-4.00e-03,
80,1.12e-01,
81,-3.60e-02,
82,1.60e-02,
83,-8.00e-03,
84,1.20e-02,
85,-8.00e-03,
86,-4.00e-03,
87,1.20e-02,
88,1.20e-02,
89,-8.00e-03,
90,1.20e-02,
91,-8.00e-03,
92,-4.00e-03,
93,1.60e-02,
94,1.60e-02,
95,-8.00e-03,
96,1.20e-02,
97,-8.00e-03,
98,1.20e-02,
99,-8.00e-03,
100,1.20e-02,
101,-8.00e-03,
102,-4.00e-03,
103,1.20e-02,
104,1.20e-02,
105,-4.00e-03,
106,-4.00e-03,
107,1.20e-02,
108,-4.00e-03,
109,1.20e-02,
110,-4.00e-03,
111,1.20e-02,
112,-4.00e-03,
113,1.60e-02,
114,1.20e-02,
115,-8.00e-03,
116,-8.00e-03,
117,1.20e-02,
118,1.20e-02,
119,-8.00e-03,
120,-4.00e-03,
121,1.20e-02,
122,1.20e-02,
123,-8.00e-03,
124,-4.00e-03,
125,1.20e-02,
126,1.20e-02,
127,-8.00e-03,
128,1.20e-02,
129,-4.00e-03,
130,-4.00e-03,
131,1.20e-02,
132,-5.20e-02,
133,4.00e-02,
134,2.00e-02,
135,-1.20e-02,
136,1.20e-02,
137,-8.00e-03,
138,1.20e-02,
139,-8.00e-03,
140,-4.00e-03,
141,1.20e-02,
142,-4.00e-03,
143,1.20e-02,
144,1.20e-02,
145,-8.00e-03,
146,1.60e-02,
147,-4.00e-03,
148,-4.00e-03,
149,1.20e-02,
150,-4.00e-03,
151,1.20e-02,
152,1.20e-02,
153,-8.00e-03,
154,-4.00e-03,
155,1.20e-02,
156,-4.00e-03,
157,1.20e-02,
158,1.20e-02,
159,-8.00e-03,
160,1.20e-02,
161,-8.00e-03,
162,1.20e-02,
163,-8.00e-03,
164,-4.00e-03,
165,1.20e-02,
166,-4.00e-03,
167,1.60e-02,
168,1.20e-02,
169,-8.00e-03,
170,-4.00e-03,
171,1.20e-02,
172,1.20e-02,
173,-8.00e-03,
174,-4.00e-03,
175,1.20e-02,
176,-4.00e-03,
177,1.60e-02,
178,-8.00e-03,
179,1.60e-02,
180,-8.00e-03,
181,1.60e-02,
182,1.20e-02,
183,-8.00e-03,
184,-4.00e-03,
185,1.20e-02,
186,-4.00e-03,
187,4.00e-02,
188,-4.00e-03,
189,1.60e-02,
190,-4.00e-03,
191,1.20e-02,
192,-4.00e-03,
193,1.60e-02,
194,-4.00e-03,
195,1.20e-02,
196,-4.00e-03,
197,1.20e-02,
198,-4.00e-03,
199,1.20e-02,
200,-4.00e-03,
201,1.20e-02,
202,-4.00e-03,
203,1.20e-02,
204,1.60e-02,
205,-8.00e-03,
206,1.20e-02,
207,-8.00e-03,
208,1.20e-02,
209,-8.00e-03,
210,1.20e-02,
211,-8.00e-03,
212,-8.00e-03,
213,1.20e-02,
214,1.20e-02,
215,-8.00e-03,
216,1.20e-02,
217,-8.00e-03,
218,1.60e-02,
219,-8.00e-03,
220,1.20e-02,
221,-4.00e-03,
222,1.20e-02,
223,-8.00e-03,
224,1.20e-02,
225,-8.00e-03,
226,1.20e-02,
227,-8.00e-03,
228,1.20e-02,
229,-4.00e-03,
230,1.20e-02,
231,-4.00e-03,
232,1.20e-02,
233,-4.00e-03,
234,1.20e-02,
235,-4.00e-03,
236,-4.00e-03,
237,1.20e-02,
238,-6.40e-02,
239,2.80e-02,
240,-1.20e-02,
241,3.60e-02,
242,-4.00e-03,
243,1.20e-02,
244,-8.00e-03,
245,1.20e-02,
246,-8.00e-03,
247,1.60e-02,
248,1.20e-02,
249,-8.00e-03,
250,-4.00e-03,
251,1.60e-02,
252,-8.00e-03,
253,1.20e-02,
254,-4.00e-03,
255,1.20e-02,
256,1.60e-02,
257,-8.00e-03,
258,1.20e-02,
259,-8.00e-03,
260,-8.00e-03,
261,1.60e-02,
262,1.20e-02,
263,-8.00e-03,
264,-8.00e-03,
265,1.20e-02,
266,1.20e-02,
267,-8.00e-03,
268,1.20e-02,
269,-8.00e-03,
270,-4.00e-03,
271,1.20e-02,
272,-4.00e-03,
273,1.20e-02,
274,1.20e-02,
275,-8.00e-03,
276,-4.00e-03,
277,1.20e-02,
278,-4.00e-03,
279,1.20e-02,
280,1.20e-02,
281,-8.00e-03,
282,-4.00e-03,
283,1.20e-02,
284,1.20e-02,
285,-8.00e-03,
286,-8.00e-03,
287,1.20e-02,
288,1.20e-02,
289,-4.00e-03,
290,1.20e-02,
291,-8.00e-03,
292,2.40e-02,
293,-1.20e-02,
294,1.60e-02,
295,-8.00e-03,
296,1.20e-02,
297,-8.00e-03,
298,-8.00e-03,
299,1.60e-02,
300,-4.00e-03,
301,1.60e-02,
302,1.20e-02,
303,-8.00e-03,
304,-8.00e-03,
305,1.60e-02,
306,1.60e-02,
307,-8.00e-03,
308,1.20e-02,
309,-4.00e-03,
310,1.20e-02,
311,-8.00e-03,
312,1.20e-02,
313,-4.00e-03,
314,-4.00e-03,
315,1.20e-02,
316,1.20e-02,
317,-4.00e-03,
318,1.20e-02,
319,-8.00e-03,
320,-4.00e-03,
321,1.20e-02,
322,-4.00e-03,
323,1.20e-02,
324,-4.00e-03,
325,1.20e-02,
326,1.20e-02,
327,-8.00e-03,
328,-8.00e-03,
329,1.60e-02,
330,-4.00e-03,
331,1.60e-02,
332,-4.00e-03,
333,1.20e-02,
334,1.20e-02,
335,-8.00e-03,
336,1.20e-02,
337,-8.00e-03,
338,-4.00e-03,
339,1.20e-02,
340,-4.00e-03,
341,1.60e-02,
342,-8.00e-03,
343,1.60e-02,
344,-8.00e-03,
345,1.60e-02,
346,2.40e-02,
347,-8.00e-03,
348,1.60e-02,
349,-8.00e-03,
350,-4.00e-03,
351,1.20e-02,
352,-4.00e-03,
353,1.20e-02,
354,1.20e-02,
355,-4.00e-03,
356,-4.00e-03,
357,1.20e-02,
358,-4.00e-03,
359,1.20e-02,
360,-4.00e-03,
361,1.20e-02,
362,-4.00e-03,
363,1.20e-02,
364,-4.00e-03,
365,1.20e-02,
366,-4.00e-03,
367,1.20e-02,
368,1.20e-02,
369,-8.00e-03,
370,-4.00e-03,
371,1.20e-02,
372,1.20e-02,
373,-8.00e-03,
374,-4.00e-03,
375,1.20e-02,
376,1.20e-02,
377,-8.00e-03,
378,-8.00e-03,
379,1.20e-02,
380,-4.00e-03,
381,1.20e-02,
382,-4.00e-03,
383,1.20e-02,
384,-4.00e-03,
385,1.20e-02,
386,-4.00e-03,
387,1.20e-02,
388,-8.00e-03,
389,1.60e-02,
390,1.60e-02,
391,-8.00e-03,
392,1.20e-02,
393,-8.00e-03,
394,-4.00e-03,
395,1.20e-02,
396,1.20e-02,
397,-4.00e-03,
398,5.60e-02,
399,-2.40e-02,
400,1.20e-02,
401,-8.00e-03,
402,1.20e-02,
403,-8.00e-03,
404,1.20e-02,
405,-4.00e-03,
406,-4.00e-03,
407,1.20e-02,
408,-4.00e-03,
409,1.20e-02,
410,-4.00e-03,
411,1.20e-02,
412,1.20e-02,
413,-4.00e-03,
414,-4.00e-03,
415,1.20e-02,
416,-4.00e-03,
417,1.20e-02,
418,1.20e-02,
419,-8.00e-03,
420,1.20e-02,
421,-8.00e-03,
422,1.20e-02,
423,-8.00e-03,
424,-4.00e-03,
425,1.20e-02,
426,1.20e-02,
427,-8.00e-03,
428,1.20e-02,
429,-4.00e-03,
430,-8.00e-03,
431,1.20e-02,
432,-8.00e-03,
433,1.60e-02,
434,-4.00e-03,
435,1.60e-02,
436,1.20e-02,
437,-8.00e-03,
438,-4.00e-03,
439,1.20e-02,
440,-4.00e-03,
441,1.60e-02,
442,1.20e-02,
443,-8.00e-03,
444,-4.00e-03,
445,1.20e-02,
446,-4.00e-03,
447,1.60e-02,
448,-4.00e-03,
449,1.20e-02,
450,-3.60e-02,
451,5.20e-02,
452,-1.20e-02,
453,1.20e-02,
454,-4.00e-03,
455,1.60e-02,
456,1.20e-02,
457,-8.00e-03,
458,-4.00e-03,
459,1.20e-02,
460,-4.00e-03,
461,1.20e-02,
462,-4.00e-03,
463,1.20e-02,
464,1.20e-02,
465,-8.00e-03,
466,-4.00e-03,
467,1.60e-02,
468,-4.00e-03,
469,1.20e-02,
470,1.20e-02,
471,-4.00e-03,
472,1.20e-02,
473,-8.00e-03,
474,-8.00e-03,
475,1.60e-02,
476,-4.00e-03,
477,1.20e-02,
478,1.20e-02,
479,-4.00e-03,
480,-4.00e-03,
481,1.20e-02,
482,1.20e-02,
483,-4.00e-03,
484,1.20e-02,
485,-8.00e-03,
486,-4.00e-03,
487,1.20e-02,
488,1.20e-02,
489,-4.00e-03,
490,-4.00e-03,
491,1.20e-02,
492,-4.00e-03,
493,1.20e-02,
494,-4.00e-03,
495,1.20e-02,
496,1.20e-02,
497,-8.00e-03,
498,-4.00e-03,
499,1.20e-02,
500,1.20e-02,
501,-8.00e-03,
502,-4.00e-03,
503,1.20e-02,
504,9.60e-02,
505,-4.80e-02,
506,1.20e-02,
507,-4.00e-03,
508,1.20e-02,
509,-8.00e-03,
510,-4.00e-03,
511,1.20e-02,
512,1.20e-02,
513,-4.00e-03,
514,1.20e-02,
515,-8.00e-03,
516,1.20e-02,
517,-8.00e-03,
518,-4.00e-03,
519,1.20e-02,
520,-4.00e-03,
521,1.20e-02,
522,1.20e-02,
523,-4.00e-03,
524,-4.00e-03,
525,1.20e-02,
526,-4.00e-03,
527,1.20e-02,
528,1.20e-02,
529,-8.00e-03,
530,-8.00e-03,
531,1.20e-02,
532,1.20e-02,
533,-4.00e-03,
534,1.20e-02,
535,-8.00e-03,
536,1.20e-02,
537,-8.00e-03,
538,1.20e-02,
539,-8.00e-03,
540,-4.00e-03,
541,1.20e-02,
542,1.20e-02,
543,-4.00e-03,
544,-4.00e-03,
545,1.20e-02,
546,-4.00e-03,
547,1.20e-02,
548,-4.00e-03,
549,1.20e-02,
550,1.20e-02,
551,-8.00e-03,
552,-4.00e-03,
553,1.20e-02,
554,1.60e-02,
555,-8.00e-03,
556,-1.60e-02,
557,9.60e-02,
558,8.80e-02,
559,-2.00e-02,
560,1.20e-02,
561,-8.00e-03,
562,1.20e-02,
563,-8.00e-03,
564,1.20e-02,
565,-8.00e-03,
566,1.20e-02,
567,-4.00e-03,
568,1.20e-02,
569,-8.00e-03,
570,1.20e-02,
571,-8.00e-03,
572,1.20e-02,
573,-8.00e-03,
574,1.20e-02,
575,-8.00e-03,
576,1.20e-02,
577,-8.00e-03,
578,1.20e-02,
579,-8.00e-03,
580,-4.00e-03,
581,1.20e-02,
582,1.20e-02,
583,-4.00e-03,
584,1.20e-02,
585,-8.00e-03,
586,1.20e-02,
587,-8.00e-03,
588,1.20e-02,
589,-8.00e-03,
590,1.20e-02,
591,-8.00e-03,
592,1.20e-02,
593,-8.00e-03,
594,1.20e-02,
595,-8.00e-03,
596,-8.00e-03,
597,1.60e-02,
598,1.20e-02,
599,-8.00e-03,
600,-8.00e-03,
601,1.20e-02,
602,1.20e-02,
603,-8.00e-03,
604,-8.00e-03,
605,1.20e-02,
606,1.20e-02,
607,-8.00e-03,
608,1.20e-02,
609,-8.00e-03,
610,-8.80e-02,
611,3.20e-02,
612,-4.00e-03,
613,1.20e-02,
614,1.20e-02,
615,-8.00e-03,
616,1.20e-02,
617,-8.00e-03,
618,-4.00e-03,
619,1.20e-02,
620,1.20e-02,
621,-8.00e-03,
622,-4.00e-03,
623,1.60e-02,
624,1.60e-02,
625,-8.00e-03,
626,-4.00e-03,
627,1.60e-02,
628,-4.00e-03,
629,1.20e-02,
630,1.20e-02,
631,-8.00e-03,
632,1.20e-02,
633,-8.00e-03,
634,1.20e-02,
635,-8.00e-03,
636,1.20e-02,
637,-8.00e-03,
638,1.60e-02,
639,-8.00e-03,
640,-4.00e-03,
641,1.20e-02,
642,-8.00e-03,
643,1.20e-02,
644,-4.00e-03,
645,1.20e-02,
646,-4.00e-03,
647,1.20e-02,
648,-4.00e-03,
649,1.20e-02,
650,1.20e-02,
651,-8.00e-03,
652,1.20e-02,
653,-8.00e-03,
654,1.20e-02,
655,-4.00e-03,
656,1.20e-02,
657,-4.00e-03,
658,-4.00e-03,
659,1.20e-02,
660,1.20e-02,
661,-8.00e-03,
662,8.40e-02,
663,-4.00e-02,
664,1.20e-02,
665,-4.00e-03,
666,1.60e-02,
667,-8.00e-03,
668,1.20e-02,
669,-8.00e-03,
670,1.20e-02,
671,-8.00e-03,
672,-8.00e-03,
673,1.20e-02,
674,-4.00e-03,
675,1.60e-02,
676,1.60e-02,
677,-8.00e-03,
678,1.20e-02,
679,-8.00e-03,
680,-4.00e-03,
681,1.20e-02,
682,1.20e-02,
683,-4.00e-03,
684,1.20e-02,
685,-8.00e-03,
686,1.20e-02,
687,-8.00e-03,
688,-4.00e-03,
689,1.20e-02,
690,1.20e-02,
691,-4.00e-03,
692,-4.00e-03,
693,1.20e-02,
694,-4.00e-03,
695,1.20e-02,
696,1.20e-02,
697,-4.00e-03,
698,1.20e-02,
699,-8.00e-03,
700,-4.00e-03,
701,1.20e-02,
702,1.20e-02,
703,-8.00e-03,
704,1.20e-02,
705,-8.00e-03,
706,1.20e-02,
707,-8.00e-03,
708,1.20e-02,
709,-8.00e-03,
710,-4.00e-03,
711,1.60e-02,
712,-4.00e-03,
713,1.20e-02,
714,-4.00e-03,
715,1.20e-02,
716,5.60e-02,
717,-8.00e-03,
718,1.20e-02,
719,-8.00e-03,
720,-4.00e-03,
721,1.20e-02,
722,1.20e-02,
723,-8.00e-03,
724,1.60e-02,
725,-8.00e-03,
726,1.20e-02,
727,-8.00e-03,
728,1.20e-02,
729,-8.00e-03,
730,1.20e-02,
731,-8.00e-03,
732,-4.00e-03,
733,1.20e-02,
734,1.20e-02,
735,-8.00e-03,
736,1.20e-02,
737,-8.00e-03,
738,1.20e-02,
739,-8.00e-03,
740,-4.00e-03,
741,1.20e-02,
742,-8.00e-03,
743,1.20e-02,
744,1.20e-02,
745,-8.00e-03,
746,-4.00e-03,
747,1.20e-02,
748,1.20e-02,
749,-8.00e-03,
750,-8.00e-03,
751,1.60e-02,
752,-4.00e-03,
753,1.60e-02,
754,1.20e-02,
755,-4.00e-03,
756,-8.00e-03,
757,1.60e-02,
758,-4.00e-03,
759,1.20e-02,
760,1.20e-02,
761,-8.00e-03,
762,1.20e-02,
763,-8.00e-03,
764,1.20e-02,
765,-8.00e-03,
766,1.20e-02,
767,-8.00e-03,
768,-2.40e-02,
769,4.40e-02,
770,-4.00e-03,
771,1.60e-02,
772,1.20e-02,
773,-8.00e-03,
774,-4.00e-03,
775,1.20e-02,
776,1.20e-02,
777,-4.00e-03,
778,1.20e-02,
779,-4.00e-03,
780,1.20e-02,
781,-4.00e-03,
782,-4.00e-03,
783,1.20e-02,
784,1.20e-02,
785,-4.00e-03,
786,-4.00e-03,
787,1.20e-02,
788,-4.00e-03,
789,1.20e-02,
790,1.20e-02,
791,-8.00e-03,
792,1.20e-02,
793,-8.00e-03,
794,-4.00e-03,
795,1.20e-02,
796,-4.00e-03,
797,1.20e-02,
798,1.20e-02,
799,-4.00e-03,
800,1.20e-02,
801,-8.00e-03,
802,1.20e-02,
803,-8.00e-03,
804,-8.00e-03,
805,1.60e-02,
806,1.60e-02,
807,-8.00e-03,
808,1.20e-02,
809,-8.00e-03,
810,-4.00e-03,
811,1.20e-02,
812,1.20e-02,
813,-4.00e-03,
814,1.20e-02,
815,-8.00e-03,
816,-4.00e-03,
817,1.20e-02,
818,1.20e-02,
819,-8.00e-03,
820,-4.40e-02,
821,9.20e-02,
822,-4.00e-03,
823,1.60e-02,
824,1.20e-02,
825,-8.00e-03,
826,-8.00e-03,
827,1.60e-02,
828,-8.00e-03,
829,1.60e-02,
830,-4.00e-03,
831,1.20e-02,
832,-4.00e-03,
833,1.60e-02,
834,-4.00e-03,
835,1.20e-02,
836,-4.00e-03,
837,1.20e-02,
838,1.20e-02,
839,-8.00e-03,
840,1.20e-02,
841,-8.00e-03,
842,1.20e-02,
843,-8.00e-03,
844,1.20e-02,
845,-8.00e-03,
846,1.60e-02,
847,-8.00e-03,
848,1.20e-02,
849,-8.00e-03,
850,1.60e-02,
851,-8.00e-03,
852,-4.00e-03,
853,1.20e-02,
854,-4.00e-03,
855,1.20e-02,
856,1.20e-02,
857,-4.00e-03,
858,-8.00e-03,
859,1.20e-02,
860,-4.00e-03,
861,1.20e-02,
862,1.20e-02,
863,-4.00e-03,
864,1.20e-02,
865,-4.00e-03,
866,-4.00e-03,
867,1.20e-02,
868,-4.00e-03,
869,1.20e-02,
870,1.20e-02,
871,-4.00e-03,
872,1.20e-02,
873,-8.00e-03,
874,-7.20e-02,
875,2.40e-02,
876,1.20e-02,
877,-8.00e-03,
878,1.20e-02,
879,-8.00e-03,
880,1.20e-02,
881,-8.00e-03,
882,1.20e-02,
883,-8.00e-03,
884,1.60e-02,
885,-8.00e-03,
886,1.60e-02,
887,-8.00e-03,
888,-4.00e-03,
889,1.20e-02,
890,1.20e-02,
891,-8.00e-03,
892,-4.00e-03,
893,1.20e-02,
894,-4.00e-03,
895,1.20e-02,
896,-4.00e-03,
897,1.60e-02,
898,-4.00e-03,
899,1.60e-02,
900,-4.00e-03,
901,1.20e-02,
902,-4.00e-03,
903,1.20e-02,
904,1.60e-02,
905,-8.00e-03,
906,-4.00e-03,
907,1.20e-02,
908,-4.00e-03,
909,1.20e-02,
910,-4.00e-03,
911,1.60e-02,
912,1.20e-02,
913,-8.00e-03,
914,-8.00e-03,
915,1.20e-02,
916,-4.00e-03,
917,1.60e-02,
918,-4.00e-03,
919,1.20e-02,
920,-8.00e-03,
921,1.60e-02,
922,1.20e-02,
923,-4.00e-03,
924,1.60e-02,
925,-8.00e-03,
926,-7.20e-02,
927,3.20e-02,
928,-4.00e-03,
929,1.20e-02,
930,-4.00e-03,
931,1.60e-02,
932,-4.00e-03,
933,1.60e-02,
934,1.20e-02,
935,-8.00e-03,
936,1.20e-02,
937,-8.00e-03,
938,-4.00e-03,
939,1.20e-02,
940,-4.00e-03,
941,1.20e-02,
942,1.20e-02,
943,-8.00e-03,
944,-8.00e-03,
945,1.20e-02,
946,-4.00e-03,
947,1.20e-02,
948,1.20e-02,
949,-4.00e-03,
950,-4.00e-03,
951,1.20e-02,
952,1.20e-02,
953,-4.00e-03,
954,-4.00e-03,
955,1.20e-02,
956,1.20e-02,
957,-8.00e-03,
958,1.20e-02,
959,-4.00e-03,
960,-4.00e-03,
961,1.20e-02,
962,-4.00e-03,
963,1.60e-02,
964,1.20e-02,
965,-8.00e-03,
966,1.20e-02,
967,-8.00e-03,
968,-4.00e-03,
969,1.20e-02,
970,1.20e-02,
971,-8.00e-03,
972,1.20e-02,
973,-8.00e-03,
974,1.60e-02,
975,-8.00e-03,
976,-8.00e-03,
977,1.20e-02,
978,-1.36e-01,
979,2.80e-02,
980,-4.00e-03,
981,1.20e-02,
982,-4.00e-03,
983,1.20e-02,
984,1.20e-02,
985,-4.00e-03,
986,-4.00e-03,
987,1.20e-02,
988,1.20e-02,
989,-8.00e-03,
990,1.20e-02,
991,-8.00e-03,
992,1.20e-02,
993,-8.00e-03,
994,-4.00e-03,
995,1.20e-02,
996,-4.00e-03,
997,1.20e-02,
998,1.20e-02,
999,-4.00e-03,
1000,1.20e-02,
1001,-8.00e-03,
1002,1.20e-02,
1003,-8.00e-03,
1004,1.20e-02,
1005,-4.00e-03,
1006,1.20e-02,
1007,-8.00e-03,
1008,-8.00e-03,
1009,1.60e-02,
1010,-8.00e-03,
1011,1.20e-02,
1012,1.20e-02,
1013,-8.00e-03,
1014,1.20e-02,
1015,-4.00e-03,
1016,1.20e-02,
1017,-4.00e-03,
1018,-4.00e-03,
1019,1.20e-02,
1020,-4.00e-03,
1021,1.20e-02,
1022,-4.00e-03,
1023,1.20e-02,
1024,1.20e-02,
1025,-8.00e-03,
1026,1.20e-02,
1027,-8.00e-03,
1028,-4.00e-03,
1029,1.60e-02,
1030,-4.00e-03,
1031,5.20e-02,
1032,2.80e-02,
1033,-8.00e-03,
1034,1.20e-02,
1035,-8.00e-03,
1036,1.20e-02,
1037,-4.00e-03,
1038,1.20e-02,
1039,-8.00e-03,
1040,1.20e-02,
1041,-8.00e-03,
1042,1.20e-02,
1043,-8.00e-03,
1044,1.20e-02,
1045,-4.00e-03,
1046,1.20e-02,
1047,-8.00e-03,
1048,-4.00e-03,
1049,1.20e-02,
1050,1.20e-02,
1051,-8.00e-03,
1052,-4.00e-03,
1053,1.20e-02,
1054,1.20e-02,
1055,-8.00e-03,
1056,-4.00e-03,
1057,1.20e-02,
1058,-8.00e-03,
1059,1.60e-02,
1060,1.20e-02,
1061,-8.00e-03,
1062,1.20e-02,
1063,-8.00e-03,
1064,-4.00e-03,
1065,1.20e-02,
1066,-4.00e-03,
1067,1.20e-02,
1068,-4.00e-03,
1069,1.20e-02,
1070,1.20e-02,
1071,-4.00e-03,
1072,1.20e-02,
1073,-8.00e-03,
1074,-4.00e-03,
1075,1.20e-02,
1076,1.20e-02,
1077,-8.00e-03,
1078,1.60e-02,
1079,-4.00e-03,
1080,1.20e-02,
1081,-4.00e-03,
1082,1.20e-02,
1083,-1.40e-01,
1084,-2.00e-02,
1085,2.80e-02,
1086,1.20e-02,
1087,-4.00e-03,
1088,1.20e-02,
1089,-8.00e-03,
1090,1.20e-02,
1091,-4.00e-03,
1092,1.20e-02,
1093,-8.00e-03,
1094,1.20e-02,
1095,-8.00e-03,
1096,1.20e-02,
1097,-8.00e-03,
1098,1.20e-02,
1099,-8.00e-03,
1100,-8.00e-03,
1101,1.60e-02,
1102,1.20e-02,
1103,-4.00e-03,
1104,1.20e-02,
1105,-4.00e-03,
1106,1.20e-02,
1107,-4.00e-03,
1108,1.20e-02,
1109,-8.00e-03,
1110,1.20e-02,
1111,-4.00e-03,
1112,1.20e-02,
1113,-8.00e-03,
1114,1.20e-02,
1115,-8.00e-03,
1116,-4.00e-03,
1117,1.20e-02,
1118,-4.00e-03,
1119,1.20e-02,
1120,1.20e-02,
1121,-4.00e-03,
1122,1.20e-02,
1123,-8.00e-03,
1124,-4.00e-03,
1125,1.20e-02,
1126,1.20e-02,
1127,-4.00e-03,
1128,1.20e-02,
1129,-8.00e-03,
1130,1.20e-02,
1131,-8.00e-03,
1132,1.20e-02,
1133,-8.00e-03,
1134,1.20e-02,
1135,-8.00e-03,
1136,-6.80e-02,
1137,5.60e-02,
1138,1.20e-02,
1139,-4.00e-03,
1140,1.20e-02,
1141,-8.00e-03,
1142,1.20e-02,
1143,-8.00e-03,
1144,1.20e-02,
1145,-8.00e-03,
1146,-4.00e-03,
1147,1.20e-02,
1148,-4.00e-03,
1149,1.20e-02,
1150,-4.00e-03,
1151,1.20e-02,
1152,1.20e-02,
1153,-8.00e-03,
1154,1.20e-02,
1155,-8.00e-03,
1156,1.20e-02,
1157,-4.00e-03,
1158,-4.00e-03,
1159,1.20e-02,
1160,1.20e-02,
1161,-8.00e-03,
1162,-4.00e-03,
1163,1.20e-02,
1164,1.20e-02,
1165,-8.00e-03,
1166,1.20e-02,
1167,-8.00e-03,
1168,-4.00e-03,
1169,1.60e-02,
1170,1.20e-02,
1171,-8.00e-03,
1172,1.20e-02,
1173,-8.00e-03,
1174,1.20e-02,
1175,-8.00e-03,
1176,-8.00e-03,
1177,1.60e-02,
1178,1.20e-02,
1179,-8.00e-03,
1180,1.20e-02,
1181,-8.00e-03,
1182,1.20e-02,
1183,-8.00e-03,
1184,-4.00e-03,
1185,1.20e-02,
1186,-4.00e-03,
1187,1.20e-02,
1188,8.80e-02,
1189,-1.20e-02,
1190,1.20e-02,
1191,-8.00e-03,
1192,1.20e-02,
1193,-4.00e-03,
1194,-4.00e-03,
1195,1.20e-02,
1196,-4.00e-03,
1197,1.20e-02,
1198,1.20e-02,
1199,-4.00e-03,
