Laptop_2/LAPTOP_CHRGR_2_OFF/time domain/NewFile12.csv

X,CH1,Start,Increment,
Sequence,Volt,-1.500000e-01,2.000000e-04
0,1.20e-02,
1,-8.00e-03,
2,-4.00e-03,
3,1.20e-02,
4,-4.00e-03,
5,1.20e-02,
6,-4.00e-03,
7,1.20e-02,
8,1.20e-02,
9,-4.00e-03,
10,1.20e-02,
11,-4.00e-03,
12,1.20e-02,
13,-8.00e-03,
14,-4.00e-03,
15,1.20e-02,
16,1.20e-02,
17,-8.00e-03,
18,1.20e-02,
19,-8.00e-03,
20,-4.00e-03,
21,1.20e-02,
22,-4.00e-03,
23,1.20e-02,
24,-8.00e-03,
25,1.20e-02,
26,-4.00e-03,
27,1.20e-02,
28,1.20e-02,
29,-8.00e-03,
30,-4.00e-03,
31,1.20e-02,
32,1.20e-02,
33,-4.00e-03,
34,-4.00e-03,
35,1.20e-02,
36,-4.00e-03,
37,1.20e-02,
38,-4.00e-03,
39,1.20e-02,
40,-4.00e-03,
41,1.60e-02,
42,5.60e-02,
43,-2.40e-02,
44,1.20e-02,
45,-4.00e-03,
46,1.20e-02,
47,-8.00e-03,
48,-4.00e-03,
49,1.20e-02,
50,-4.00e-03,
51,1.20e-02,
52,-4.00e-03,
53,1.20e-02,
54,1.20e-02,
55,-8.00e-03,
56,-4.00e-03,
57,1.20e-02,
58,-4.00e-03,
59,1.20e-02,
60,1.20e-02,
61,-8.00e-03,
62,1.20e-02,
63,-8.00e-03,
64,-4.00e-03,
65,1.20e-02,
66,-4.00e-03,
67,1.20e-02,
68,-4.00e-03,
69,1.20e-02,
70,1.20e-02,
71,-8.00e-03,
72,-4.00e-03,
73,1.20e-02,
74,-4.00e-03,
75,1.20e-02,
76,-4.00e-03,
77,1.20e-02,
78,-4.00e-03,
79,1.20e-02,
80,-4.00e-03,
81,1.20e-02,
82,1.20e-02,
83,-8.00e-03,
84,-4.00e-03,
85,1.20e-02,
86,1.20e-02,
87,-4.00e-03,
88,1.20e-02,
89,-8.00e-03,
90,-4.00e-03,
91,1.20e-02,
92,1.20e-02,
93,-8.00e-03,
94,1.20e-02,
95,-8.00e-03,
96,1.60e-02,
97,-9.60e-02,
98,1.20e-02,
99,-8.00e-03,
100,-8.00e-03,
101,1.60e-02,
102,1.20e-02,
103,-8.00e-03,
104,-4.00e-03,
105,1.60e-02,
106,1.20e-02,
107,-8.00e-03,
108,-4.00e-03,
109,1.20e-02,
110,1.20e-02,
111,-8.00e-03,
112,-4.00e-03,
113,1.20e-02,
114,-4.00e-03,
115,1.20e-02,
116,-4.00e-03,
117,1.20e-02,
118,-4.00e-03,
119,1.20e-02,
120,1.20e-02,
121,-4.00e-03,
122,1.20e-02,
123,-4.00e-03,
124,1.20e-02,
125,-8.00e-03,
126,-4.00e-03,
127,1.20e-02,
128,1.20e-02,
129,-8.00e-03,
130,-8.00e-03,
131,1.60e-02,
132,1.20e-02,
133,-8.00e-03,
134,1.20e-02,
135,-8.00e-03,
136,1.20e-02,
137,-8.00e-03,
138,1.20e-02,
139,-4.00e-03,
140,1.20e-02,
141,-8.00e-03,
142,-4.00e-03,
143,1.60e-02,
144,-4.00e-03,
145,1.20e-02,
146,-4.00e-03,
147,1.60e-02,
148,8.40e-02,
149,-2.80e-02,
150,-4.00e-03,
151,1.20e-02,
152,-4.00e-03,
153,1.20e-02,
154,1.20e-02,
155,-4.00e-03,
156,-4.00e-03,
157,1.20e-02,
158,-4.00e-03,
159,1.20e-02,
160,1.20e-02,
161,-4.00e-03,
162,1.20e-02,
163,-8.00e-03,
164,1.20e-02,
165,-8.00e-03,
166,1.20e-02,
167,-8.00e-03,
168,1.20e-02,
169,-8.00e-03,
170,-4.00e-03,
171,1.20e-02,
172,-4.00e-03,
173,1.20e-02,
174,-4.00e-03,
175,1.20e-02,
176,1.20e-02,
177,-8.00e-03,
178,1.20e-02,
179,-8.00e-03,
180,1.20e-02,
181,-8.00e-03,
182,1.20e-02,
183,-8.00e-03,
184,1.20e-02,
185,-8.00e-03,
186,-4.00e-03,
187,1.20e-02,
188,-4.00e-03,
189,1.20e-02,
190,-8.00e-03,
191,1.20e-02,
192,-4.00e-03,
193,1.20e-02,
194,-4.00e-03,
195,1.20e-02,
196,-4.00e-03,
197,1.20e-02,
198,-4.00e-03,
199,1.20e-02,
200,-4.00e-03,
201,1.20e-02,
202,8.00e-02,
203,-1.60e-02,
204,-4.00e-03,
205,1.20e-02,
206,1.20e-02,
207,-8.00e-03,
208,-4.00e-03,
209,1.20e-02,
210,-8.00e-03,
211,1.20e-02,
212,1.20e-02,
213,-8.00e-03,
214,-4.00e-03,
215,1.60e-02,
216,-4.00e-03,
217,1.60e-02,
218,1.20e-02,
219,-4.00e-03,
220,1.20e-02,
221,-8.00e-03,
222,1.60e-02,
223,-8.00e-03,
224,1.20e-02,
225,-8.00e-03,
226,1.60e-02,
227,-8.00e-03,
228,-8.00e-03,
229,1.20e-02,
230,-4.00e-03,
231,1.20e-02,
232,-4.00e-03,
233,1.20e-02,
234,-4.00e-03,
235,1.20e-02,
236,1.20e-02,
237,-4.00e-03,
238,-4.00e-03,
239,1.20e-02,
240,1.20e-02,
241,-4.00e-03,
242,1.20e-02,
243,-8.00e-03,
244,-4.00e-03,
245,1.20e-02,
246,-4.00e-03,
247,1.20e-02,
248,1.20e-02,
249,-8.00e-03,
250,1.20e-02,
251,-8.00e-03,
252,-4.00e-03,
253,1.20e-02,
254,-1.20e-02,
255,1.08e-01,
256,2.00e-02,
257,-1.60e-02,
258,-4.00e-03,
259,1.20e-02,
260,-4.00e-03,
261,1.20e-02,
262,-4.00e-03,
263,1.20e-02,
264,1.20e-02,
265,-8.00e-03,
266,-4.00e-03,
267,1.20e-02,
268,-4.00e-03,
269,1.20e-02,
270,1.20e-02,
271,-8.00e-03,
272,1.20e-02,
273,-4.00e-03,
274,-4.00e-03,
275,1.20e-02,
276,-4.00e-03,
277,1.20e-02,
278,-4.00e-03,
279,1.20e-02,
280,1.20e-02,
281,-4.00e-03,
282,-4.00e-03,
283,1.20e-02,
284,1.20e-02,
285,-4.00e-03,
286,1.20e-02,
287,-8.00e-03,
288,-4.00e-03,
289,1.20e-02,
290,1.20e-02,
291,-8.00e-03,
292,-4.00e-03,
293,1.20e-02,
294,-4.00e-03,
295,1.20e-02,
296,-4.00e-03,
297,1.20e-02,
298,-4.00e-03,
299,1.20e-02,
300,-4.00e-03,
301,1.20e-02,
302,-4.00e-03,
303,1.20e-02,
304,-4.00e-03,
305,1.20e-02,
306,1.20e-02,
307,-8.00e-03,
308,8.00e-02,
309,-2.00e-02,
310,1.20e-02,
311,-8.00e-03,
312,1.20e-02,
313,-8.00e-03,
314,-4.00e-03,
315,1.60e-02,
316,-4.00e-03,
317,1.20e-02,
318,1.20e-02,
319,-4.00e-03,
320,1.20e-02,
321,-8.00e-03,
322,-4.00e-03,
323,1.20e-02,
324,-4.00e-03,
325,1.20e-02,
326,-4.00e-03,
327,1.20e-02,
328,-8.00e-03,
329,1.20e-02,
330,-4.00e-03,
331,1.20e-02,
332,-4.00e-03,
333,1.20e-02,
334,1.20e-02,
335,-8.00e-03,
336,-4.00e-03,
337,1.20e-02,
338,-4.00e-03,
339,1.20e-02,
340,1.20e-02,
341,-4.00e-03,
342,-4.00e-03,
343,1.20e-02,
344,-4.00e-03,
345,1.20e-02,
346,1.20e-02,
347,-1.20e-02,
348,-4.00e-03,
349,1.20e-02,
350,-4.00e-03,
351,1.60e-02,
352,-8.00e-03,
353,1.20e-02,
354,1.20e-02,
355,-8.00e-03,
356,-4.00e-03,
357,1.20e-02,
358,-4.00e-03,
359,1.20e-02,
360,-4.00e-03,
361,1.20e-02,
362,-8.00e-02,
363,2.40e-02,
364,-4.00e-03,
365,1.20e-02,
366,-4.00e-03,
367,1.20e-02,
368,-4.00e-03,
369,1.20e-02,
370,-4.00e-03,
371,1.20e-02,
372,-8.00e-03,
373,1.60e-02,
374,1.20e-02,
375,-8.00e-03,
376,1.20e-02,
377,-8.00e-03,
378,-4.00e-03,
379,1.20e-02,
380,-4.00e-03,
381,1.60e-02,
382,-8.00e-03,
383,1.20e-02,
384,1.20e-02,
385,-8.00e-03,
386,1.20e-02,
387,-8.00e-03,
388,1.20e-02,
389,-8.00e-03,
390,1.20e-02,
391,-8.00e-03,
392,1.20e-02,
393,-4.00e-03,
394,1.20e-02,
395,-8.00e-03,
396,-4.00e-03,
397,1.60e-02,
398,-4.00e-03,
399,1.20e-02,
400,-4.00e-03,
401,1.20e-02,
402,-4.00e-03,
403,1.20e-02,
404,1.20e-02,
405,-4.00e-03,
406,-4.00e-03,
407,1.20e-02,
408,-4.00e-03,
409,1.20e-02,
410,-4.00e-03,
411,1.20e-02,
412,1.20e-02,
413,-4.00e-03,
414,-1.60e-02,
415,9.60e-02,
416,-8.00e-03,
417,1.20e-02,
418,1.20e-02,
419,-8.00e-03,
420,-4.00e-03,
421,1.20e-02,
422,-4.00e-03,
423,1.20e-02,
424,1.20e-02,
425,-8.00e-03,
426,1.20e-02,
427,-4.00e-03,
428,1.20e-02,
429,-4.00e-03,
430,1.20e-02,
431,-1.20e-02,
432,1.20e-02,
433,-4.00e-03,
434,-8.00e-03,
435,1.60e-02,
436,-4.00e-03,
437,1.20e-02,
438,-4.00e-03,
439,1.60e-02,
440,1.20e-02,
441,-4.00e-03,
442,-4.00e-03,
443,1.20e-02,
444,-4.00e-03,
445,1.20e-02,
446,-4.00e-03,
447,1.20e-02,
448,-4.00e-03,
449,1.20e-02,
450,1.20e-02,
451,-4.00e-03,
452,-4.00e-03,
453,1.20e-02,
454,-4.00e-03,
455,1.20e-02,
456,1.20e-02,
457,-4.00e-03,
458,1.20e-02,
459,-8.00e-03,
460,1.20e-02,
461,-8.00e-03,
462,1.20e-02,
463,-8.00e-03,
464,-4.00e-03,
465,1.60e-02,
466,-8.80e-02,
467,2.00e-02,
468,-4.00e-03,
469,3.20e-02,
470,1.20e-02,
471,-8.00e-03,
472,1.20e-02,
473,-4.00e-03,
474,1.20e-02,
475,-8.00e-03,
476,-4.00e-03,
477,1.20e-02,
478,1.60e-02,
479,-8.00e-03,
480,-4.00e-03,
481,1.20e-02,
482,-4.00e-03,
483,1.20e-02,
484,-4.00e-03,
485,1.20e-02,
486,-4.00e-03,
487,1.20e-02,
488,1.20e-02,
489,-8.00e-03,
490,1.20e-02,
491,-4.00e-03,
492,-4.00e-03,
493,1.20e-02,
494,-4.00e-03,
495,1.20e-02,
496,1.20e-02,
497,-8.00e-03,
498,1.20e-02,
499,-4.00e-03,
500,-4.00e-03,
501,1.20e-02,
502,1.20e-02,
503,-8.00e-03,
504,1.20e-02,
505,-4.00e-03,
506,-4.00e-03,
507,1.20e-02,
508,-4.00e-03,
509,1.20e-02,
510,-4.00e-03,
511,1.20e-02,
512,1.20e-02,
513,-8.00e-03,
514,-8.00e-03,
515,1.20e-02,
516,1.20e-02,
517,-8.00e-03,
518,1.20e-02,
519,-8.00e-03,
520,2.80e-02,
521,-1.20e-02,
522,-4.00e-03,
523,1.20e-02,
524,-4.00e-03,
525,1.20e-02,
526,-4.00e-03,
527,1.20e-02,
528,-4.00e-03,
529,1.20e-02,
530,-4.00e-03,
531,1.60e-02,
532,-4.00e-03,
533,1.20e-02,
534,-4.00e-03,
535,1.20e-02,
536,-4.00e-03,
537,1.20e-02,
538,1.20e-02,
539,-8.00e-03,
540,-4.00e-03,
541,1.60e-02,
542,1.20e-02,
543,-8.00e-03,
544,1.20e-02,
545,-8.00e-03,
546,-4.00e-03,
547,1.20e-02,
548,-4.00e-03,
549,1.20e-02,
550,-4.00e-03,
551,1.20e-02,
552,1.60e-02,
553,-8.00e-03,
554,-8.00e-03,
555,1.20e-02,
556,-4.00e-03,
557,2.00e-02,
558,-4.00e-03,
559,1.60e-02,
560,1.20e-02,
561,-8.00e-03,
562,1.20e-02,
563,-8.00e-03,
564,-4.00e-03,
565,1.20e-02,
566,1.20e-02,
567,-4.00e-03,
568,-4.00e-03,
569,1.20e-02,
570,-4.00e-03,
571,1.20e-02,
572,-4.00e-03,
573,1.20e-02,
574,-1.20e-01,
575,3.60e-02,
576,-4.00e-03,
577,1.20e-02,
578,-4.00e-03,
579,1.20e-02,
580,1.20e-02,
581,-4.00e-03,
582,1.20e-02,
583,-8.00e-03,
584,1.20e-02,
585,-4.00e-03,
586,-4.00e-03,
587,1.20e-02,
588,-4.00e-03,
589,1.20e-02,
590,-4.00e-03,
591,1.20e-02,
592,1.20e-02,
593,-8.00e-03,
594,1.20e-02,
595,-8.00e-03,
596,-4.00e-03,
597,1.20e-02,
598,-4.00e-03,
599,1.60e-02,
600,-4.00e-03,
601,1.20e-02,
602,1.20e-02,
603,-8.00e-03,
604,1.60e-02,
605,-8.00e-03,
606,-4.00e-03,
607,1.20e-02,
608,-4.00e-03,
609,1.20e-02,
610,-4.00e-03,
611,1.20e-02,
612,1.20e-02,
613,-8.00e-03,
614,-4.00e-03,
615,1.20e-02,
616,-4.00e-03,
617,1.20e-02,
618,1.20e-02,
619,-8.00e-03,
620,-4.00e-03,
621,1.20e-02,
622,1.20e-02,
623,-8.00e-03,
624,-4.00e-03,
625,1.20e-02,
626,-8.00e-03,
627,2.80e-02,
628,1.20e-02,
629,-8.00e-03,
630,1.20e-02,
631,-8.00e-03,
632,-4.00e-03,
633,1.20e-02,
634,1.20e-02,
635,-8.00e-03,
636,-4.00e-03,
637,1.60e-02,
638,-8.00e-03,
639,1.20e-02,
640,1.20e-02,
641,-8.00e-03,
642,1.20e-02,
643,-8.00e-03,
644,1.20e-02,
645,-8.00e-03,
646,1.60e-02,
647,-8.00e-03,
648,1.20e-02,
649,-4.00e-03,
650,1.20e-02,
651,-4.00e-03,
652,1.20e-02,
653,-4.00e-03,
654,1.20e-02,
655,-4.00e-03,
656,-4.00e-03,
657,1.20e-02,
658,1.20e-02,
659,-8.00e-03,
660,-4.00e-03,
661,1.20e-02,
662,1.20e-02,
663,-4.00e-03,
664,1.20e-02,
665,-4.00e-03,
666,-4.00e-03,
667,1.20e-02,
668,1.20e-02,
669,-8.00e-03,
670,-4.00e-03,
671,1.20e-02,
672,1.20e-02,
673,-8.00e-03,
674,1.20e-02,
675,-8.00e-03,
676,1.20e-02,
677,-8.00e-03,
678,-4.00e-03,
679,1.60e-02,
680,-1.20e-02,
681,2.40e-02,
682,1.20e-02,
683,-8.00e-03,
684,1.20e-02,
685,-8.00e-03,
686,-8.00e-03,
687,1.20e-02,
688,1.20e-02,
689,-8.00e-03,
690,-4.00e-03,
691,1.20e-02,
692,-4.00e-03,
693,1.20e-02,
694,1.20e-02,
695,-8.00e-03,
696,-8.00e-03,
697,1.20e-02,
698,1.20e-02,
699,-8.00e-03,
700,-4.00e-03,
701,1.20e-02,
702,1.20e-02,
703,-4.00e-03,
704,-4.00e-03,
705,1.20e-02,
706,-4.00e-03,
707,1.20e-02,
708,-4.00e-03,
709,1.20e-02,
710,-8.00e-03,
711,1.20e-02,
712,1.20e-02,
713,-8.00e-03,
714,1.20e-02,
715,-8.00e-03,
716,1.20e-02,
717,-8.00e-03,
718,-4.00e-03,
719,1.20e-02,
720,1.20e-02,
721,-8.00e-03,
722,1.20e-02,
723,-8.00e-03,
724,-4.00e-03,
725,1.60e-02,
726,-4.00e-03,
727,1.20e-02,
728,1.20e-02,
729,-8.00e-03,
730,1.20e-02,
731,-8.00e-03,
732,-4.00e-03,
733,1.20e-02,
734,3.20e-02,
735,-1.20e-02,
736,1.20e-02,
737,-4.00e-03,
738,1.20e-02,
739,-4.00e-03,
740,-4.00e-03,
741,1.20e-02,
742,-4.00e-03,
743,1.20e-02,
744,-4.00e-03,
745,1.20e-02,
746,1.20e-02,
747,-4.00e-03,
748,1.20e-02,
749,-4.00e-03,
750,-4.00e-03,
751,1.20e-02,
752,1.20e-02,
753,-4.00e-03,
754,-4.00e-03,
755,1.20e-02,
756,-4.00e-03,
757,1.20e-02,
758,-4.00e-03,
759,1.20e-02,
760,1.20e-02,
761,-8.00e-03,
762,1.20e-02,
763,-8.00e-03,
764,1.20e-02,
765,-4.00e-03,
766,1.20e-02,
767,-1.20e-02,
768,1.20e-02,
769,-8.00e-03,
770,-8.00e-03,
771,1.60e-02,
772,1.20e-02,
773,-8.00e-03,
774,1.20e-02,
775,-4.00e-03,
776,1.20e-02,
777,-4.00e-03,
778,-4.00e-03,
779,1.20e-02,
780,-4.00e-03,
781,1.20e-02,
782,1.20e-02,
783,-4.00e-03,
784,-4.00e-03,
785,1.20e-02,
786,6.40e-02,
787,-2.00e-02,
788,-4.00e-03,
789,1.20e-02,
790,1.20e-02,
791,-8.00e-03,
792,1.20e-02,
793,-4.00e-03,
794,1.20e-02,
795,-4.00e-03,
796,-4.00e-03,
797,1.20e-02,
798,-4.00e-03,
799,1.20e-02,
800,-8.00e-03,
801,1.20e-02,
802,-4.00e-03,
803,1.60e-02,
804,1.20e-02,
805,-1.20e-02,
806,-4.00e-03,
807,1.60e-02,
808,-8.00e-03,
809,1.20e-02,
810,-4.00e-03,
811,1.60e-02,
812,1.60e-02,
813,-8.00e-03,
814,1.20e-02,
815,-4.00e-03,
816,-4.00e-03,
817,1.20e-02,
818,-4.00e-03,
819,1.20e-02,
820,-4.00e-03,
821,1.20e-02,
822,1.20e-02,
823,-4.00e-03,
824,-4.00e-03,
825,1.20e-02,
826,-4.00e-03,
827,1.20e-02,
828,-4.00e-03,
829,1.20e-02,
830,1.20e-02,
831,-4.00e-03,
832,-4.00e-03,
833,1.20e-02,
834,1.20e-02,
835,-8.00e-03,
836,1.20e-02,
837,-4.00e-03,
838,1.20e-02,
839,-4.00e-03,
840,-2.80e-02,
841,2.80e-02,
842,-8.00e-03,
843,1.20e-02,
844,1.20e-02,
845,-8.00e-03,
846,1.20e-02,
847,-8.00e-03,
848,-8.00e-03,
849,1.60e-02,
850,1.20e-02,
851,-8.00e-03,
852,1.20e-02,
853,-8.00e-03,
854,1.20e-02,
855,-8.00e-03,
856,-4.00e-03,
857,1.20e-02,
858,1.20e-02,
859,-4.00e-03,
860,-4.00e-03,
861,1.60e-02,
862,-4.00e-03,
863,1.20e-02,
864,1.20e-02,
865,-4.00e-03,
866,-4.00e-03,
867,1.20e-02,
868,1.20e-02,
869,-4.00e-03,
870,-4.00e-03,
871,1.20e-02,
872,1.20e-02,
873,-8.00e-03,
874,1.20e-02,
875,-4.00e-03,
876,-4.00e-03,
877,1.20e-02,
878,1.20e-02,
879,-4.00e-03,
880,1.20e-02,
881,-8.00e-03,
882,1.20e-02,
883,-8.00e-03,
884,-8.00e-03,
885,1.20e-02,
886,-4.00e-03,
887,1.20e-02,
888,1.20e-02,
889,-8.00e-03,
890,-4.00e-03,
891,1.20e-02,
892,8.80e-02,
893,-3.20e-02,
894,1.20e-02,
895,-8.00e-03,
896,-4.00e-03,
897,1.20e-02,
898,-4.00e-03,
899,1.20e-02,
900,-4.00e-03,
901,1.20e-02,
902,1.20e-02,
903,-4.00e-03,
904,-4.00e-03,
905,1.20e-02,
906,-4.00e-03,
907,1.20e-02,
908,-4.00e-03,
909,1.20e-02,
910,-4.00e-03,
911,1.20e-02,
912,-4.00e-03,
913,1.20e-02,
914,1.20e-02,
915,-4.00e-03,
916,-4.00e-03,
917,1.20e-02,
918,-4.00e-03,
919,1.20e-02,
920,1.20e-02,
921,-4.00e-03,
922,-4.00e-03,
923,1.20e-02,
924,-4.00e-03,
925,1.20e-02,
926,1.20e-02,
927,-4.00e-03,
928,1.20e-02,
929,-8.00e-03,
930,1.20e-02,
931,-8.00e-03,
932,1.60e-02,
933,-8.00e-03,
934,1.20e-02,
935,-8.00e-03,
936,1.20e-02,
937,-8.00e-03,
938,1.20e-02,
939,-4.00e-03,
940,-4.00e-03,
941,1.20e-02,
942,-4.00e-03,
943,1.20e-02,
944,1.20e-02,
945,-8.00e-03,
946,-5.60e-02,
947,3.20e-02,
948,1.20e-02,
949,-8.00e-03,
950,1.20e-02,
951,-8.00e-03,
952,1.20e-02,
953,-4.00e-03,
954,-4.00e-03,
955,1.20e-02,
956,1.20e-02,
957,-8.00e-03,
958,-4.00e-03,
959,1.20e-02,
960,-8.00e-03,
961,1.20e-02,
962,-4.00e-03,
963,1.20e-02,
964,-4.00e-03,
965,1.60e-02,
966,1.20e-02,
967,-4.00e-03,
968,-4.00e-03,
969,1.60e-02,
970,1.20e-02,
971,-8.00e-03,
972,1.20e-02,
973,-8.00e-03,
974,1.20e-02,
975,-8.00e-03,
976,-4.00e-03,
977,1.20e-02,
978,1.20e-02,
979,-8.00e-03,
980,-4.00e-03,
981,1.20e-02,
982,-8.00e-03,
983,1.20e-02,
984,-4.00e-03,
985,1.20e-02,
986,1.20e-02,
987,-4.00e-03,
988,-4.00e-03,
989,1.20e-02,
990,-4.00e-03,
991,1.20e-02,
992,-4.00e-03,
993,1.20e-02,
994,-4.00e-03,
995,1.20e-02,
996,1.20e-02,
997,-4.00e-03,
998,1.20e-02,
999,-8.00e-03,
1000,-2.00e-02,
1001,6.00e-02,
1002,1.20e-02,
1003,-8.00e-03,
1004,-4.00e-03,
1005,1.20e-02,
1006,-4.00e-03,
1007,1.20e-02,
1008,-4.00e-03,
1009,1.20e-02,
1010,-4.00e-03,
1011,1.20e-02,
1012,1.20e-02,
1013,-8.00e-03,
1014,-4.00e-03,
1015,1.20e-02,
1016,-4.00e-03,
1017,1.20e-02,
1018,-8.00e-03,
1019,1.60e-02,
1020,-4.00e-03,
1021,1.60e-02,
1022,-4.00e-03,
1023,1.20e-02,
1024,1.20e-02,
1025,-8.00e-03,
1026,1.20e-02,
1027,-8.00e-03,
1028,-4.00e-03,
1029,1.20e-02,
1030,-4.00e-03,
1031,1.20e-02,
1032,-4.00e-03,
1033,1.20e-02,
1034,1.20e-02,
1035,-8.00e-03,
1036,1.20e-02,
1037,-4.00e-03,
1038,1.20e-02,
1039,-8.00e-03,
1040,-8.00e-03,
1041,1.60e-02,
1042,-8.00e-03,
1043,1.20e-02,
1044,1.20e-02,
1045,-8.00e-03,
1046,-4.00e-03,
1047,1.20e-02,
1048,1.20e-02,
1049,-8.00e-03,
1050,1.20e-02,
1051,-8.00e-03,
1052,-8.00e-03,
1053,3.20e-02,
1054,1.20e-02,
1055,-8.00e-03,
1056,1.20e-02,
1057,-8.00e-03,
1058,1.60e-02,
1059,-8.00e-03,
1060,-8.00e-03,
1061,1.60e-02,
1062,1.20e-02,
1063,-8.00e-03,
1064,1.20e-02,
1065,-4.00e-03,
1066,-4.00e-03,
1067,1.20e-02,
1068,-4.00e-03,
1069,1.20e-02,
1070,-4.00e-03,
1071,1.20e-02,
1072,-4.00e-03,
1073,1.20e-02,
1074,-4.00e-03,
1075,1.20e-02,
1076,1.20e-02,
1077,-4.00e-03,
1078,1.20e-02,
1079,-4.00e-03,
1080,1.20e-02,
1081,-4.00e-03,
1082,1.20e-02,
1083,-4.00e-03,
1084,1.20e-02,
1085,-4.00e-03,
1086,1.20e-02,
1087,-4.00e-03,
1088,-4.00e-03,
1089,1.20e-02,
1090,-4.00e-03,
1091,1.20e-02,
1092,-4.00e-03,
1093,1.20e-02,
1094,1.20e-02,
1095,-8.00e-03,
1096,1.20e-02,
1097,-4.00e-03,
1098,1.60e-02,
1099,-8.00e-03,
1100,-4.00e-03,
1101,1.60e-02,
1102,-4.00e-03,
1103,1.60e-02,
1104,-4.00e-03,
1105,1.60e-02,
1106,4.40e-02,
1107,-8.00e-03,
1108,1.20e-02,
1109,-4.00e-03,
1110,-4.00e-03,
1111,1.20e-02,
1112,1.20e-02,
1113,-4.00e-03,
1114,-4.00e-03,
1115,1.20e-02,
1116,-4.00e-03,
1117,1.20e-02,
1118,-4.00e-03,
1119,1.20e-02,
1120,-4.00e-03,
1121,1.20e-02,
1122,-4.00e-03,
1123,1.20e-02,
1124,-4.00e-03,
1125,1.20e-02,
1126,-4.00e-03,
1127,1.20e-02,
1128,1.20e-02,
1129,-8.00e-03,
1130,-4.00e-03,
1131,1.20e-02,
1132,-4.00e-03,
1133,1.20e-02,
1134,-4.00e-03,
1135,1.20e-02,
1136,-4.00e-03,
1137,1.20e-02,
1138,1.20e-02,
1139,-8.00e-03,
1140,-4.00e-03,
1141,1.20e-02,
1142,-4.00e-03,
1143,1.20e-02,
1144,1.20e-02,
1145,-8.00e-03,
1146,-4.00e-03,
1147,1.20e-02,
1148,1.20e-02,
1149,-4.00e-03,
1150,-4.00e-03,
1151,1.20e-02,
1152,-4.00e-03,
1153,1.20e-02,
1154,-4.00e-03,
1155,1.20e-02,
1156,-4.00e-03,
1157,1.20e-02,
1158,2.80e-02,
1159,-1.60e-02,
1160,-4.00e-03,
1161,1.20e-02,
1162,-4.00e-03,
1163,1.20e-02,
1164,-4.00e-03,
1165,1.20e-02,
1166,1.20e-02,
1167,-4.00e-03,
1168,1.20e-02,
1169,-4.00e-03,
1170,-4.00e-03,
1171,1.20e-02,
1172,-4.00e-03,
1173,1.20e-02,
1174,1.20e-02,
1175,-4.00e-03,
1176,1.20e-02,
1177,-4.00e-03,
1178,1.20e-02,
1179,-8.00e-03,
1180,1.60e-02,
1181,-8.00e-03,
1182,1.20e-02,
1183,-8.00e-03,
1184,1.20e-02,
1185,-4.00e-03,
1186,1.20e-02,
1187,-8.00e-03,
1188,-4.00e-03,
1189,1.60e-02,
1190,-4.00e-03,
1191,1.20e-02,
1192,1.20e-02,
1193,-4.00e-03,
1194,-4.00e-03,
1195,1.20e-02,
1196,1.60e-02,
1197,-4.00e-03,
1198,-4.00e-03,
1199,1.20e-02,
