Laptop_2/LAPTOP_CHRGR_2_OFF/time domain/NewFile46.csv

X,CH1,Start,Increment,
Sequence,Volt,-1.500000e-01,2.000000e-04
0,-8.00e-03,
1,1.60e-02,
2,-8.00e-03,
3,1.60e-02,
4,-8.00e-03,
5,1.60e-02,
6,-8.00e-03,
7,1.60e-02,
8,-8.00e-03,
9,1.60e-02,
10,-1.60e-02,
11,1.12e-01,
12,-1.60e-02,
13,3.60e-02,
14,-8.00e-03,
15,1.60e-02,
16,-8.00e-03,
17,1.60e-02,
18,-8.00e-03,
19,1.60e-02,
20,-8.00e-03,
21,1.60e-02,
22,-8.00e-03,
23,1.60e-02,
24,1.20e-02,
25,-8.00e-03,
26,-8.00e-03,
27,1.60e-02,
28,-8.00e-03,
29,1.20e-02,
30,-8.00e-03,
31,1.60e-02,
32,-8.00e-03,
33,1.60e-02,
34,1.20e-02,
35,-8.00e-03,
36,-8.00e-03,
37,1.20e-02,
38,-8.00e-03,
39,1.60e-02,
40,1.20e-02,
41,-8.00e-03,
42,-8.00e-03,
43,1.60e-02,
44,-8.00e-03,
45,1.60e-02,
46,-8.00e-03,
47,1.20e-02,
48,1.20e-02,
49,-8.00e-03,
50,-8.00e-03,
51,1.60e-02,
52,1.20e-02,
53,-8.00e-03,
54,-8.00e-03,
55,1.60e-02,
56,-8.00e-03,
57,1.60e-02,
58,1.20e-02,
59,-8.00e-03,
60,1.20e-02,
61,-8.00e-03,
62,-8.00e-03,
63,1.20e-02,
64,-8.00e-03,
65,7.60e-02,
66,-8.00e-03,
67,1.60e-02,
68,-8.00e-03,
69,1.60e-02,
70,-8.00e-03,
71,1.60e-02,
72,-8.00e-03,
73,1.60e-02,
74,-8.00e-03,
75,1.60e-02,
76,-8.00e-03,
77,1.60e-02,
78,-8.00e-03,
79,1.60e-02,
80,-8.00e-03,
81,1.60e-02,
82,-8.00e-03,
83,1.60e-02,
84,1.20e-02,
85,-8.00e-03,
86,-8.00e-03,
87,1.60e-02,
88,-8.00e-03,
89,1.60e-02,
90,1.20e-02,
91,-8.00e-03,
92,-8.00e-03,
93,1.60e-02,
94,-8.00e-03,
95,1.20e-02,
96,1.20e-02,
97,-8.00e-03,
98,-8.00e-03,
99,1.60e-02,
100,-8.00e-03,
101,1.60e-02,
102,-8.00e-03,
103,1.60e-02,
104,1.20e-02,
105,-8.00e-03,
106,-8.00e-03,
107,1.60e-02,
108,-8.00e-03,
109,1.60e-02,
110,-8.00e-03,
111,1.60e-02,
112,1.60e-02,
113,-8.00e-03,
114,-8.00e-03,
115,1.60e-02,
116,-1.20e-02,
117,4.00e-02,
118,4.00e-02,
119,-8.00e-03,
120,-8.00e-03,
121,1.60e-02,
122,1.60e-02,
123,-8.00e-03,
124,-8.00e-03,
125,1.60e-02,
126,-8.00e-03,
127,1.60e-02,
128,-8.00e-03,
129,1.60e-02,
130,-8.00e-03,
131,1.60e-02,
132,-8.00e-03,
133,1.60e-02,
134,1.20e-02,
135,-8.00e-03,
136,1.60e-02,
137,-8.00e-03,
138,-8.00e-03,
139,1.60e-02,
140,-8.00e-03,
141,1.60e-02,
142,-8.00e-03,
143,1.60e-02,
144,-8.00e-03,
145,1.60e-02,
146,1.60e-02,
147,-8.00e-03,
148,-8.00e-03,
149,1.60e-02,
150,-8.00e-03,
151,1.60e-02,
152,-8.00e-03,
153,1.60e-02,
154,-8.00e-03,
155,1.60e-02,
156,-8.00e-03,
157,1.60e-02,
158,-8.00e-03,
159,1.60e-02,
160,-8.00e-03,
161,1.60e-02,
162,-8.00e-03,
163,1.60e-02,
164,-8.00e-03,
165,1.60e-02,
166,-8.00e-03,
167,1.60e-02,
168,-8.00e-03,
169,1.60e-02,
170,1.24e-01,
171,-2.80e-02,
172,-8.00e-03,
173,1.20e-02,
174,1.20e-02,
175,-8.00e-03,
176,-8.00e-03,
177,1.60e-02,
178,-8.00e-03,
179,1.20e-02,
180,-8.00e-03,
181,1.60e-02,
182,-8.00e-03,
183,1.60e-02,
184,-8.00e-03,
185,1.60e-02,
186,-8.00e-03,
187,1.60e-02,
188,-8.00e-03,
189,1.20e-02,
190,1.20e-02,
191,-8.00e-03,
192,1.20e-02,
193,-8.00e-03,
194,-8.00e-03,
195,1.20e-02,
196,1.60e-02,
197,-1.20e-02,
198,-8.00e-03,
199,1.60e-02,
200,-8.00e-03,
201,1.60e-02,
202,-8.00e-03,
203,1.60e-02,
204,-8.00e-03,
205,1.20e-02,
206,-8.00e-03,
207,1.20e-02,
208,1.20e-02,
209,-8.00e-03,
210,1.20e-02,
211,-8.00e-03,
212,-8.00e-03,
213,1.60e-02,
214,-8.00e-03,
215,1.20e-02,
216,-8.00e-03,
217,1.60e-02,
218,-8.00e-03,
219,1.60e-02,
220,-8.00e-03,
221,1.60e-02,
222,4.40e-02,
223,-1.20e-02,
224,-8.00e-03,
225,1.60e-02,
226,-8.00e-03,
227,1.60e-02,
228,-8.00e-03,
229,1.60e-02,
230,-8.00e-03,
231,1.60e-02,
232,-8.00e-03,
233,1.20e-02,
234,-8.00e-03,
235,1.20e-02,
236,-8.00e-03,
237,1.60e-02,
238,-8.00e-03,
239,1.60e-02,
240,1.60e-02,
241,-8.00e-03,
242,-8.00e-03,
243,1.60e-02,
244,1.20e-02,
245,-8.00e-03,
246,-8.00e-03,
247,1.20e-02,
248,-8.00e-03,
249,1.20e-02,
250,1.20e-02,
251,-8.00e-03,
252,-8.00e-03,
253,1.20e-02,
254,-8.00e-03,
255,1.20e-02,
256,-8.00e-03,
257,1.20e-02,
258,-8.00e-03,
259,1.20e-02,
260,-8.00e-03,
261,1.20e-02,
262,-8.00e-03,
263,1.60e-02,
264,1.20e-02,
265,-1.20e-02,
266,1.20e-02,
267,-8.00e-03,
268,1.20e-02,
269,-8.00e-03,
270,-8.00e-03,
271,1.60e-02,
272,-8.00e-03,
273,1.20e-02,
274,-8.00e-03,
275,1.20e-02,
276,1.48e-01,
277,-2.40e-02,
278,-8.00e-03,
279,1.60e-02,
280,1.20e-02,
281,-8.00e-03,
282,-8.00e-03,
283,1.60e-02,
284,-8.00e-03,
285,1.60e-02,
286,-8.00e-03,
287,1.60e-02,
288,1.60e-02,
289,-8.00e-03,
290,-8.00e-03,
291,1.60e-02,
292,-8.00e-03,
293,1.20e-02,
294,-8.00e-03,
295,1.60e-02,
296,-8.00e-03,
297,1.20e-02,
298,-8.00e-03,
299,1.60e-02,
300,-8.00e-03,
301,1.60e-02,
302,-8.00e-03,
303,1.60e-02,
304,1.20e-02,
305,-8.00e-03,
306,-8.00e-03,
307,1.20e-02,
308,-8.00e-03,
309,1.20e-02,
310,1.20e-02,
311,-8.00e-03,
312,1.20e-02,
313,-8.00e-03,
314,-8.00e-03,
315,1.60e-02,
316,-8.00e-03,
317,1.20e-02,
318,-8.00e-03,
319,1.60e-02,
320,-8.00e-03,
321,1.60e-02,
322,-8.00e-03,
323,1.20e-02,
324,-8.00e-03,
325,1.20e-02,
326,-8.00e-03,
327,1.60e-02,
328,-6.80e-02,
329,6.40e-02,
330,-8.00e-03,
331,1.60e-02,
332,1.20e-02,
333,-8.00e-03,
334,1.20e-02,
335,-8.00e-03,
336,1.20e-02,
337,-8.00e-03,
338,-8.00e-03,
339,1.20e-02,
340,-8.00e-03,
341,1.20e-02,
342,-8.00e-03,
343,1.60e-02,
344,-8.00e-03,
345,1.60e-02,
346,-8.00e-03,
347,1.60e-02,
348,-8.00e-03,
349,1.60e-02,
350,1.20e-02,
351,-1.20e-02,
352,-8.00e-03,
353,1.20e-02,
354,-8.00e-03,
355,1.20e-02,
356,-8.00e-03,
357,1.20e-02,
358,1.20e-02,
359,-8.00e-03,
360,1.20e-02,
361,-8.00e-03,
362,-8.00e-03,
363,1.20e-02,
364,1.20e-02,
365,-1.20e-02,
366,-8.00e-03,
367,1.60e-02,
368,-8.00e-03,
369,1.20e-02,
370,1.20e-02,
371,-8.00e-03,
372,-8.00e-03,
373,1.20e-02,
374,-8.00e-03,
375,1.60e-02,
376,-8.00e-03,
377,1.60e-02,
378,-8.00e-03,
379,1.20e-02,
380,-8.00e-03,
381,1.20e-02,
382,-8.00e-03,
383,4.40e-02,
384,-8.00e-03,
385,1.20e-02,
386,-8.00e-03,
387,1.60e-02,
388,1.20e-02,
389,-8.00e-03,
390,-8.00e-03,
391,1.20e-02,
392,-8.00e-03,
393,1.60e-02,
394,1.20e-02,
395,-8.00e-03,
396,-8.00e-03,
397,1.60e-02,
398,1.20e-02,
399,-8.00e-03,
400,-8.00e-03,
401,1.20e-02,
402,-8.00e-03,
403,1.60e-02,
404,-8.00e-03,
405,1.20e-02,
406,-8.00e-03,
407,1.20e-02,
408,-8.00e-03,
409,1.60e-02,
410,-8.00e-03,
411,1.60e-02,
412,-8.00e-03,
413,1.60e-02,
414,-8.00e-03,
415,1.20e-02,
416,-8.00e-03,
417,1.20e-02,
418,-8.00e-03,
419,1.20e-02,
420,1.60e-02,
421,-8.00e-03,
422,-8.00e-03,
423,1.20e-02,
424,-8.00e-03,
425,1.20e-02,
426,-8.00e-03,
427,1.60e-02,
428,1.20e-02,
429,-8.00e-03,
430,-8.00e-03,
431,1.20e-02,
432,-8.00e-03,
433,1.60e-02,
434,-1.00e-01,
435,3.60e-02,
436,-8.00e-03,
437,5.20e-02,
438,-8.00e-03,
439,1.60e-02,
440,-8.00e-03,
441,1.60e-02,
442,1.20e-02,
443,-8.00e-03,
444,-8.00e-03,
445,1.60e-02,
446,-8.00e-03,
447,1.60e-02,
448,-8.00e-03,
449,1.60e-02,
450,-8.00e-03,
451,1.60e-02,
452,-8.00e-03,
453,1.60e-02,
454,-8.00e-03,
455,1.60e-02,
456,-8.00e-03,
457,1.60e-02,
458,-8.00e-03,
459,1.20e-02,
460,-8.00e-03,
461,1.60e-02,
462,-8.00e-03,
463,1.20e-02,
464,1.20e-02,
465,-8.00e-03,
466,-8.00e-03,
467,1.60e-02,
468,-8.00e-03,
469,1.20e-02,
470,-8.00e-03,
471,1.20e-02,
472,-8.00e-03,
473,1.60e-02,
474,-8.00e-03,
475,1.60e-02,
476,1.20e-02,
477,-8.00e-03,
478,-8.00e-03,
479,1.60e-02,
480,1.20e-02,
481,-8.00e-03,
482,1.20e-02,
483,-8.00e-03,
484,-8.00e-03,
485,1.20e-02,
486,1.20e-02,
487,-8.00e-03,
488,4.00e-02,
489,-1.60e-02,
490,-8.00e-03,
491,1.60e-02,
492,1.60e-02,
493,-8.00e-03,
494,-8.00e-03,
495,1.60e-02,
496,-8.00e-03,
497,1.20e-02,
498,1.20e-02,
499,-8.00e-03,
500,1.60e-02,
501,-8.00e-03,
502,-8.00e-03,
503,1.20e-02,
504,-8.00e-03,
505,1.20e-02,
506,-8.00e-03,
507,1.20e-02,
508,-8.00e-03,
509,1.20e-02,
510,-8.00e-03,
511,1.20e-02,
512,-8.00e-03,
513,1.20e-02,
514,-8.00e-03,
515,1.60e-02,
516,-8.00e-03,
517,1.20e-02,
518,-8.00e-03,
519,1.60e-02,
520,1.20e-02,
521,-8.00e-03,
522,-8.00e-03,
523,1.60e-02,
524,-8.00e-03,
525,1.20e-02,
526,1.20e-02,
527,-1.20e-02,
528,1.20e-02,
529,-8.00e-03,
530,-8.00e-03,
531,1.60e-02,
532,-8.00e-03,
533,1.20e-02,
534,-8.00e-03,
535,1.60e-02,
536,-8.00e-03,
537,1.20e-02,
538,-8.00e-03,
539,1.20e-02,
540,-1.72e-01,
541,4.40e-02,
542,-4.40e-02,
543,1.20e-02,
544,1.20e-02,
545,-8.00e-03,
546,-8.00e-03,
547,1.60e-02,
548,-8.00e-03,
549,1.60e-02,
550,-8.00e-03,
551,1.60e-02,
552,-8.00e-03,
553,1.60e-02,
554,-8.00e-03,
555,1.60e-02,
556,-8.00e-03,
557,1.60e-02,
558,-8.00e-03,
559,1.60e-02,
560,-8.00e-03,
561,1.60e-02,
562,-8.00e-03,
563,1.60e-02,
564,-8.00e-03,
565,1.60e-02,
566,-8.00e-03,
567,1.60e-02,
568,-8.00e-03,
569,1.20e-02,
570,1.20e-02,
571,-1.20e-02,
572,-8.00e-03,
573,1.20e-02,
574,-8.00e-03,
575,1.60e-02,
576,-8.00e-03,
577,1.60e-02,
578,-8.00e-03,
579,1.20e-02,
580,-8.00e-03,
581,1.60e-02,
582,-8.00e-03,
583,1.20e-02,
584,1.20e-02,
585,-8.00e-03,
586,-8.00e-03,
587,1.20e-02,
588,1.20e-02,
589,-8.00e-03,
590,-8.00e-03,
591,1.20e-02,
592,-8.00e-03,
593,1.60e-02,
594,1.12e-01,
595,-2.00e-02,
596,-8.00e-03,
597,1.60e-02,
598,-8.00e-03,
599,1.20e-02,
600,-8.00e-03,
601,1.60e-02,
602,-8.00e-03,
603,1.60e-02,
604,-8.00e-03,
605,1.60e-02,
606,-8.00e-03,
607,1.60e-02,
608,-8.00e-03,
609,1.60e-02,
610,-8.00e-03,
611,1.60e-02,
612,1.20e-02,
613,-8.00e-03,
614,1.20e-02,
615,-8.00e-03,
616,-8.00e-03,
617,1.60e-02,
618,-8.00e-03,
619,1.60e-02,
620,1.60e-02,
621,-8.00e-03,
622,-8.00e-03,
623,1.20e-02,
624,1.20e-02,
625,-8.00e-03,
626,-8.00e-03,
627,1.60e-02,
628,-8.00e-03,
629,1.60e-02,
630,-8.00e-03,
631,1.60e-02,
632,1.60e-02,
633,-1.20e-02,
634,-8.00e-03,
635,1.20e-02,
636,-8.00e-03,
637,1.60e-02,
638,-8.00e-03,
639,1.20e-02,
640,-8.00e-03,
641,1.60e-02,
642,-8.00e-03,
643,1.60e-02,
644,-8.00e-03,
645,1.20e-02,
646,-1.48e-01,
647,5.60e-02,
648,-1.60e-02,
649,2.00e-02,
650,-8.00e-03,
651,1.20e-02,
652,-8.00e-03,
653,1.60e-02,
654,-8.00e-03,
655,1.60e-02,
656,-8.00e-03,
657,1.20e-02,
658,-8.00e-03,
659,1.60e-02,
660,-8.00e-03,
661,1.60e-02,
662,-8.00e-03,
663,1.20e-02,
664,-8.00e-03,
665,1.20e-02,
666,-8.00e-03,
667,1.60e-02,
668,1.20e-02,
669,-8.00e-03,
670,1.20e-02,
671,-8.00e-03,
672,-8.00e-03,
673,1.20e-02,
674,-8.00e-03,
675,1.60e-02,
676,-8.00e-03,
677,1.60e-02,
678,1.20e-02,
679,-8.00e-03,
680,-1.20e-02,
681,1.60e-02,
682,1.20e-02,
683,-8.00e-03,
684,-8.00e-03,
685,1.60e-02,
686,1.20e-02,
687,-8.00e-03,
688,-8.00e-03,
689,1.20e-02,
690,1.60e-02,
691,-1.20e-02,
692,-8.00e-03,
693,1.20e-02,
694,-8.00e-03,
695,1.60e-02,
696,1.20e-02,
697,-8.00e-03,
698,-8.00e-03,
699,1.60e-02,
700,-3.20e-02,
701,4.40e-02,
702,-8.00e-03,
703,1.20e-02,
704,-8.00e-03,
705,1.60e-02,
706,-8.00e-03,
707,1.20e-02,
708,-8.00e-03,
709,1.60e-02,
710,-8.00e-03,
711,1.60e-02,
712,-8.00e-03,
713,1.60e-02,
714,-8.00e-03,
715,1.60e-02,
716,-8.00e-03,
717,1.60e-02,
718,-8.00e-03,
719,1.60e-02,
720,1.20e-02,
721,-8.00e-03,
722,-8.00e-03,
723,1.60e-02,
724,-8.00e-03,
725,1.60e-02,
726,-8.00e-03,
727,1.20e-02,
728,-8.00e-03,
729,1.60e-02,
730,-8.00e-03,
731,1.60e-02,
732,1.20e-02,
733,-8.00e-03,
734,-8.00e-03,
735,1.60e-02,
736,-8.00e-03,
737,1.60e-02,
738,-8.00e-03,
739,1.20e-02,
740,-8.00e-03,
741,1.60e-02,
742,-8.00e-03,
743,1.60e-02,
744,-8.00e-03,
745,1.60e-02,
746,-8.00e-03,
747,1.60e-02,
748,-8.00e-03,
749,1.60e-02,
750,-8.00e-03,
751,1.60e-02,
752,-8.00e-03,
753,1.60e-02,
754,-1.48e-01,
755,4.40e-02,
756,1.20e-02,
757,-8.00e-03,
758,1.60e-02,
759,-8.00e-03,
760,1.20e-02,
761,-8.00e-03,
762,-8.00e-03,
763,1.60e-02,
764,-8.00e-03,
765,1.60e-02,
766,1.60e-02,
767,-8.00e-03,
768,-8.00e-03,
769,1.60e-02,
770,-8.00e-03,
771,1.60e-02,
772,-8.00e-03,
773,1.60e-02,
774,1.20e-02,
775,-8.00e-03,
776,-8.00e-03,
777,1.60e-02,
778,-8.00e-03,
779,1.60e-02,
780,-8.00e-03,
781,1.20e-02,
782,-8.00e-03,
783,1.60e-02,
784,-8.00e-03,
785,1.60e-02,
786,-8.00e-03,
787,1.60e-02,
788,-8.00e-03,
789,1.20e-02,
790,-8.00e-03,
791,1.60e-02,
792,-8.00e-03,
793,1.60e-02,
794,-8.00e-03,
795,1.60e-02,
796,-8.00e-03,
797,1.60e-02,
798,-8.00e-03,
799,1.60e-02,
800,1.60e-02,
801,-8.00e-03,
802,-8.00e-03,
803,1.20e-02,
804,-8.00e-03,
805,1.60e-02,
806,-2.00e-02,
807,1.08e-01,
808,1.20e-02,
809,-8.00e-03,
810,-8.00e-03,
811,1.60e-02,
812,-8.00e-03,
813,1.20e-02,
814,1.20e-02,
815,-1.20e-02,
816,-8.00e-03,
817,1.60e-02,
818,-8.00e-03,
819,1.60e-02,
820,-8.00e-03,
821,1.60e-02,
822,-8.00e-03,
823,1.60e-02,
824,-8.00e-03,
825,1.60e-02,
826,-8.00e-03,
827,1.60e-02,
828,1.60e-02,
829,-8.00e-03,
830,1.20e-02,
831,-8.00e-03,
832,-8.00e-03,
833,1.20e-02,
834,-8.00e-03,
835,1.20e-02,
836,-8.00e-03,
837,1.60e-02,
838,-8.00e-03,
839,1.60e-02,
840,-8.00e-03,
841,1.20e-02,
842,-8.00e-03,
843,1.60e-02,
844,-8.00e-03,
845,1.60e-02,
846,-8.00e-03,
847,1.60e-02,
848,-8.00e-03,
849,1.20e-02,
850,1.60e-02,
851,-8.00e-03,
852,-8.00e-03,
853,1.60e-02,
854,-8.00e-03,
855,1.60e-02,
856,-8.00e-03,
857,1.60e-02,
858,-8.00e-03,
859,1.60e-02,
860,-5.20e-02,
861,4.00e-02,
862,1.20e-02,
863,-8.00e-03,
864,1.60e-02,
865,-1.20e-02,
866,-8.00e-03,
867,1.60e-02,
868,-8.00e-03,
869,1.60e-02,
870,-8.00e-03,
871,1.60e-02,
872,1.60e-02,
873,-8.00e-03,
874,-8.00e-03,
875,1.20e-02,
876,-8.00e-03,
877,1.60e-02,
878,1.60e-02,
879,-8.00e-03,
880,-8.00e-03,
881,1.60e-02,
882,1.60e-02,
883,-8.00e-03,
884,1.60e-02,
885,-8.00e-03,
886,-8.00e-03,
887,1.60e-02,
888,-8.00e-03,
889,1.60e-02,
890,-8.00e-03,
891,1.60e-02,
892,-8.00e-03,
893,1.60e-02,
894,1.20e-02,
895,-1.20e-02,
896,-8.00e-03,
897,1.20e-02,
898,-8.00e-03,
899,1.60e-02,
900,-8.00e-03,
901,1.60e-02,
902,-8.00e-03,
903,1.60e-02,
904,-8.00e-03,
905,1.20e-02,
906,-8.00e-03,
907,1.60e-02,
908,-8.00e-03,
909,1.20e-02,
910,-8.00e-03,
911,1.20e-02,
912,-8.00e-03,
913,1.60e-02,
914,-1.16e-01,
915,6.80e-02,
916,1.20e-02,
917,-8.00e-03,
918,-8.00e-03,
919,1.60e-02,
920,-8.00e-03,
921,1.60e-02,
922,-8.00e-03,
923,1.20e-02,
924,-8.00e-03,
925,1.20e-02,
926,-8.00e-03,
927,1.20e-02,
928,-8.00e-03,
929,1.60e-02,
930,-8.00e-03,
931,1.60e-02,
932,-8.00e-03,
933,1.60e-02,
934,-8.00e-03,
935,1.60e-02,
936,-8.00e-03,
937,1.60e-02,
938,-8.00e-03,
939,1.60e-02,
940,-8.00e-03,
941,1.60e-02,
942,-8.00e-03,
943,1.60e-02,
944,1.20e-02,
945,-8.00e-03,
946,-8.00e-03,
947,1.20e-02,
948,-8.00e-03,
949,1.20e-02,
950,-8.00e-03,
951,1.20e-02,
952,1.60e-02,
953,-1.20e-02,
954,1.20e-02,
955,-8.00e-03,
956,-8.00e-03,
957,1.60e-02,
958,-8.00e-03,
959,1.60e-02,
960,1.20e-02,
961,-8.00e-03,
962,1.20e-02,
963,-8.00e-03,
964,-8.00e-03,
965,1.60e-02,
966,-1.04e-01,
967,7.60e-02,
968,-8.00e-03,
969,1.20e-02,
970,-8.00e-03,
971,1.60e-02,
972,-8.00e-03,
973,1.60e-02,
974,-8.00e-03,
975,1.60e-02,
976,-8.00e-03,
977,1.20e-02,
978,-8.00e-03,
979,1.20e-02,
980,-8.00e-03,
981,1.60e-02,
982,-8.00e-03,
983,1.20e-02,
984,1.20e-02,
985,-8.00e-03,
986,-8.00e-03,
987,1.20e-02,
988,-8.00e-03,
989,1.60e-02,
990,-8.00e-03,
991,1.20e-02,
992,-8.00e-03,
993,1.60e-02,
994,1.20e-02,
995,-8.00e-03,
996,-8.00e-03,
997,1.20e-02,
998,-8.00e-03,
999,1.20e-02,
1000,-8.00e-03,
1001,1.20e-02,
1002,1.20e-02,
1003,-8.00e-03,
1004,-8.00e-03,
1005,1.20e-02,
1006,-8.00e-03,
1007,1.60e-02,
1008,-8.00e-03,
1009,1.20e-02,
1010,-8.00e-03,
1011,1.20e-02,
1012,-8.00e-03,
1013,1.60e-02,
1014,-8.00e-03,
1015,1.60e-02,
1016,-8.00e-03,
1017,1.60e-02,
1018,-8.00e-03,
1019,2.00e-02,
1020,-1.48e-01,
1021,4.40e-02,
1022,-8.00e-03,
1023,1.20e-02,
1024,-8.00e-03,
1025,1.60e-02,
1026,-8.00e-03,
1027,1.20e-02,
1028,-8.00e-03,
1029,1.20e-02,
1030,-8.00e-03,
1031,1.60e-02,
1032,-8.00e-03,
1033,1.60e-02,
1034,-8.00e-03,
1035,1.20e-02,
1036,-8.00e-03,
1037,1.60e-02,
1038,-8.00e-03,
1039,1.60e-02,
1040,-8.00e-03,
1041,1.20e-02,
1042,-8.00e-03,
1043,1.20e-02,
1044,-8.00e-03,
1045,1.20e-02,
1046,-8.00e-03,
1047,1.60e-02,
1048,-8.00e-03,
1049,1.60e-02,
1050,-8.00e-03,
1051,1.60e-02,
1052,-8.00e-03,
1053,1.60e-02,
1054,-8.00e-03,
1055,1.20e-02,
1056,1.20e-02,
1057,-8.00e-03,
1058,-8.00e-03,
1059,1.20e-02,
1060,-8.00e-03,
1061,1.20e-02,
1062,-8.00e-03,
1063,1.20e-02,
1064,-8.00e-03,
1065,1.60e-02,
1066,-8.00e-03,
1067,1.20e-02,
1068,-8.00e-03,
1069,1.60e-02,
1070,-8.00e-03,
1071,1.60e-02,
1072,1.60e-02,
1073,-1.04e-01,
1074,-8.00e-03,
1075,5.20e-02,
1076,-8.00e-03,
1077,1.20e-02,
1078,1.20e-02,
1079,-8.00e-03,
1080,-8.00e-03,
1081,1.20e-02,
1082,1.60e-02,
1083,-8.00e-03,
1084,-8.00e-03,
1085,1.60e-02,
1086,-8.00e-03,
1087,1.60e-02,
1088,-8.00e-03,
1089,1.20e-02,
1090,-8.00e-03,
1091,1.60e-02,
1092,-8.00e-03,
1093,1.60e-02,
1094,1.60e-02,
1095,-8.00e-03,
1096,1.20e-02,
1097,-8.00e-03,
1098,-8.00e-03,
1099,1.60e-02,
1100,1.60e-02,
1101,-8.00e-03,
1102,-8.00e-03,
1103,1.60e-02,
1104,-8.00e-03,
1105,1.60e-02,
1106,-8.00e-03,
1107,1.60e-02,
1108,-8.00e-03,
1109,1.60e-02,
1110,-8.00e-03,
1111,1.60e-02,
1112,1.20e-02,
1113,-8.00e-03,
1114,-8.00e-03,
1115,1.20e-02,
1116,-1.20e-02,
1117,1.60e-02,
1118,-8.00e-03,
1119,1.60e-02,
1120,-8.00e-03,
1121,1.20e-02,
1122,1.20e-02,
1123,-8.00e-03,
1124,-8.00e-03,
1125,1.20e-02,
1126,3.20e-02,
1127,-1.24e-01,
1128,-8.00e-03,
1129,1.20e-02,
1130,-8.00e-03,
1131,1.20e-02,
1132,-8.00e-03,
1133,1.60e-02,
1134,1.20e-02,
1135,-8.00e-03,
1136,-8.00e-03,
1137,1.60e-02,
1138,-8.00e-03,
1139,1.60e-02,
1140,-8.00e-03,
1141,1.60e-02,
1142,-8.00e-03,
1143,1.60e-02,
1144,-8.00e-03,
1145,1.60e-02,
1146,-8.00e-03,
1147,1.20e-02,
1148,1.60e-02,
1149,-8.00e-03,
1150,-8.00e-03,
1151,1.60e-02,
1152,-8.00e-03,
1153,1.60e-02,
1154,1.60e-02,
1155,-8.00e-03,
1156,-8.00e-03,
1157,1.20e-02,
1158,-8.00e-03,
1159,1.20e-02,
1160,1.20e-02,
1161,-8.00e-03,
1162,-8.00e-03,
1163,1.60e-02,
1164,-8.00e-03,
1165,1.60e-02,
1166,-8.00e-03,
1167,1.60e-02,
1168,1.20e-02,
1169,-8.00e-03,
1170,-8.00e-03,
1171,1.20e-02,
1172,-8.00e-03,
1173,1.60e-02,
1174,-8.00e-03,
1175,1.20e-02,
1176,-8.00e-03,
1177,1.60e-02,
1178,1.20e-02,
1179,-8.00e-03,
1180,-2.80e-02,
1181,6.00e-02,
1182,1.60e-02,
1183,-8.00e-03,
1184,-8.00e-03,
1185,1.20e-02,
1186,-8.00e-03,
1187,1.60e-02,
1188,-8.00e-03,
1189,1.60e-02,
1190,-8.00e-03,
1191,1.60e-02,
1192,-8.00e-03,
1193,1.60e-02,
1194,-8.00e-03,
1195,1.60e-02,
1196,-8.00e-03,
1197,1.60e-02,
1198,-8.00e-03,
1199,1.60e-02,
