Laptop_2/LAPTOP_CHRGR_2_OFF/time domain/NewFile43.csv

X,CH1,Start,Increment,
Sequence,Volt,-1.500000e-01,2.000000e-04
0,1.60e-02,
1,-1.20e-02,
2,1.60e-02,
3,-1.20e-02,
4,1.60e-02,
5,-1.20e-02,
6,2.24e-01,
7,-4.00e-02,
8,3.20e-02,
9,-7.60e-02,
10,1.60e-02,
11,-1.20e-02,
12,-1.20e-02,
13,1.60e-02,
14,1.60e-02,
15,-1.20e-02,
16,-1.20e-02,
17,2.00e-02,
18,1.60e-02,
19,-1.20e-02,
20,1.60e-02,
21,-1.20e-02,
22,1.60e-02,
23,-1.20e-02,
24,-8.00e-03,
25,1.60e-02,
26,1.60e-02,
27,-1.20e-02,
28,1.60e-02,
29,-1.20e-02,
30,1.60e-02,
31,-1.20e-02,
32,1.60e-02,
33,-1.20e-02,
34,1.60e-02,
35,-8.00e-03,
36,-1.20e-02,
37,2.00e-02,
38,1.60e-02,
39,-1.20e-02,
40,1.60e-02,
41,-1.20e-02,
42,1.60e-02,
43,-1.20e-02,
44,2.00e-02,
45,-1.20e-02,
46,1.60e-02,
47,-1.20e-02,
48,1.60e-02,
49,-1.20e-02,
50,1.60e-02,
51,-1.20e-02,
52,1.60e-02,
53,-1.20e-02,
54,-1.20e-02,
55,1.60e-02,
56,1.60e-02,
57,-1.60e-02,
58,-1.20e-02,
59,1.60e-02,
60,-1.24e-01,
61,6.80e-02,
62,1.60e-02,
63,-1.20e-02,
64,1.60e-02,
65,-1.20e-02,
66,1.60e-02,
67,-1.20e-02,
68,-1.20e-02,
69,1.60e-02,
70,-1.20e-02,
71,2.00e-02,
72,2.00e-02,
73,-1.20e-02,
74,-1.20e-02,
75,2.00e-02,
76,1.60e-02,
77,-1.20e-02,
78,1.60e-02,
79,-1.20e-02,
80,1.60e-02,
81,-1.20e-02,
82,-1.20e-02,
83,2.00e-02,
84,2.00e-02,
85,-1.20e-02,
86,1.60e-02,
87,-1.60e-02,
88,-1.20e-02,
89,1.60e-02,
90,1.60e-02,
91,-1.20e-02,
92,-1.20e-02,
93,1.60e-02,
94,1.60e-02,
95,-1.20e-02,
96,1.60e-02,
97,-1.20e-02,
98,1.60e-02,
99,-1.20e-02,
100,1.60e-02,
101,-1.20e-02,
102,-1.20e-02,
103,2.00e-02,
104,-1.20e-02,
105,1.60e-02,
106,-1.20e-02,
107,2.00e-02,
108,-1.20e-02,
109,1.60e-02,
110,-1.20e-02,
111,2.00e-02,
112,-3.60e-02,
113,4.00e-02,
114,-1.20e-02,
115,2.00e-02,
116,-1.20e-02,
117,2.00e-02,
118,2.00e-02,
119,-1.20e-02,
120,-1.20e-02,
121,2.00e-02,
122,2.00e-02,
123,-1.20e-02,
124,-1.20e-02,
125,2.00e-02,
126,-1.20e-02,
127,2.00e-02,
128,1.60e-02,
129,-1.60e-02,
130,1.60e-02,
131,-1.20e-02,
132,-1.20e-02,
133,2.00e-02,
134,-1.20e-02,
135,2.00e-02,
136,1.60e-02,
137,-1.60e-02,
138,-1.20e-02,
139,2.00e-02,
140,1.60e-02,
141,-1.20e-02,
142,1.60e-02,
143,-1.20e-02,
144,1.60e-02,
145,-1.20e-02,
146,1.60e-02,
147,-1.20e-02,
148,-1.20e-02,
149,1.60e-02,
150,-1.20e-02,
151,2.00e-02,
152,-1.20e-02,
153,2.00e-02,
154,-1.20e-02,
155,2.00e-02,
156,-1.20e-02,
157,2.00e-02,
158,-1.20e-02,
159,2.00e-02,
160,-1.20e-02,
161,1.60e-02,
162,-1.20e-02,
163,1.60e-02,
164,1.60e-02,
165,-1.20e-02,
166,-1.00e-01,
167,3.60e-02,
168,-1.20e-02,
169,2.00e-02,
170,-1.20e-02,
171,2.00e-02,
172,-1.20e-02,
173,1.60e-02,
174,1.60e-02,
175,-1.20e-02,
176,-1.20e-02,
177,2.00e-02,
178,-1.20e-02,
179,2.00e-02,
180,1.60e-02,
181,-1.60e-02,
182,-1.20e-02,
183,2.00e-02,
184,-1.20e-02,
185,1.60e-02,
186,-1.20e-02,
187,2.00e-02,
188,-1.20e-02,
189,2.00e-02,
190,-1.20e-02,
191,2.00e-02,
192,-1.20e-02,
193,2.00e-02,
194,-1.20e-02,
195,2.00e-02,
196,2.00e-02,
197,-1.60e-02,
198,-1.20e-02,
199,2.00e-02,
200,-1.20e-02,
201,2.00e-02,
202,-1.20e-02,
203,2.00e-02,
204,-1.20e-02,
205,2.00e-02,
206,-1.20e-02,
207,2.00e-02,
208,-1.20e-02,
209,2.00e-02,
210,2.00e-02,
211,-1.60e-02,
212,-1.20e-02,
213,2.00e-02,
214,-1.20e-02,
215,2.00e-02,
216,-1.20e-02,
217,2.00e-02,
218,6.40e-02,
219,-4.40e-02,
220,-1.20e-02,
221,2.00e-02,
222,2.00e-02,
223,-1.20e-02,
224,-1.20e-02,
225,2.00e-02,
226,-1.20e-02,
227,2.00e-02,
228,-1.20e-02,
229,2.00e-02,
230,-1.20e-02,
231,2.00e-02,
232,-1.20e-02,
233,2.00e-02,
234,-1.20e-02,
235,2.00e-02,
236,-1.20e-02,
237,2.00e-02,
238,-1.20e-02,
239,2.00e-02,
240,-1.20e-02,
241,2.00e-02,
242,-1.20e-02,
243,2.00e-02,
244,2.00e-02,
245,-1.20e-02,
246,-1.20e-02,
247,2.00e-02,
248,-1.20e-02,
249,2.00e-02,
250,-1.20e-02,
251,2.00e-02,
252,1.60e-02,
253,-1.20e-02,
254,-1.20e-02,
255,2.00e-02,
256,-1.20e-02,
257,2.00e-02,
258,2.00e-02,
259,-1.60e-02,
260,-1.20e-02,
261,2.00e-02,
262,2.00e-02,
263,-1.20e-02,
264,-1.20e-02,
265,2.00e-02,
266,-1.20e-02,
267,2.00e-02,
268,-1.20e-02,
269,2.00e-02,
270,-1.96e-01,
271,2.40e-02,
272,-3.20e-02,
273,2.00e-02,
274,-1.20e-02,
275,2.00e-02,
276,-1.20e-02,
277,2.00e-02,
278,-1.20e-02,
279,2.00e-02,
280,-1.20e-02,
281,2.00e-02,
282,-1.20e-02,
283,2.00e-02,
284,2.00e-02,
285,-1.60e-02,
286,1.60e-02,
287,-1.60e-02,
288,-1.20e-02,
289,2.00e-02,
290,-1.20e-02,
291,2.00e-02,
292,-1.20e-02,
293,2.00e-02,
294,-1.20e-02,
295,2.00e-02,
296,-1.20e-02,
297,2.00e-02,
298,-1.20e-02,
299,2.00e-02,
300,-1.20e-02,
301,2.00e-02,
302,2.00e-02,
303,-1.60e-02,
304,-1.20e-02,
305,2.00e-02,
306,-1.20e-02,
307,2.00e-02,
308,-1.20e-02,
309,2.00e-02,
310,-1.20e-02,
311,2.00e-02,
312,-1.20e-02,
313,2.00e-02,
314,-1.20e-02,
315,2.00e-02,
316,2.00e-02,
317,-1.20e-02,
318,2.00e-02,
319,-1.20e-02,
320,-1.20e-02,
321,2.00e-02,
322,1.60e-02,
323,-1.60e-02,
324,1.40e-01,
325,-4.80e-02,
326,1.60e-02,
327,-1.20e-02,
328,-1.20e-02,
329,1.60e-02,
330,-1.20e-02,
331,2.00e-02,
332,-1.20e-02,
333,2.00e-02,
334,-1.20e-02,
335,2.00e-02,
336,-1.20e-02,
337,2.00e-02,
338,-1.60e-02,
339,2.00e-02,
340,-1.20e-02,
341,2.00e-02,
342,2.00e-02,
343,-1.60e-02,
344,-1.20e-02,
345,2.00e-02,
346,-1.20e-02,
347,2.00e-02,
348,-1.20e-02,
349,2.00e-02,
350,-1.20e-02,
351,2.00e-02,
352,-1.20e-02,
353,2.00e-02,
354,-1.20e-02,
355,2.00e-02,
356,2.00e-02,
357,-1.20e-02,
358,2.00e-02,
359,-1.20e-02,
360,-1.20e-02,
361,2.00e-02,
362,2.00e-02,
363,-1.60e-02,
364,-1.20e-02,
365,2.00e-02,
366,2.00e-02,
367,-1.20e-02,
368,-1.20e-02,
369,2.00e-02,
370,-1.20e-02,
371,2.00e-02,
372,-1.20e-02,
373,2.00e-02,
374,-1.20e-02,
375,2.00e-02,
376,-1.20e-02,
377,2.00e-02,
378,9.20e-02,
379,-1.44e-01,
380,-1.20e-02,
381,2.00e-02,
382,-1.20e-02,
383,2.00e-02,
384,2.00e-02,
385,-1.20e-02,
386,-1.20e-02,
387,2.00e-02,
388,-1.20e-02,
389,2.00e-02,
390,-1.20e-02,
391,2.00e-02,
392,-1.20e-02,
393,2.00e-02,
394,-1.20e-02,
395,2.00e-02,
396,-1.20e-02,
397,2.00e-02,
398,-1.20e-02,
399,2.00e-02,
400,-1.60e-02,
401,2.00e-02,
402,-1.20e-02,
403,2.00e-02,
404,-1.20e-02,
405,2.00e-02,
406,-1.20e-02,
407,2.00e-02,
408,-1.20e-02,
409,2.00e-02,
410,-1.20e-02,
411,2.00e-02,
412,-1.20e-02,
413,2.00e-02,
414,-1.20e-02,
415,1.60e-02,
416,-1.20e-02,
417,2.00e-02,
418,-1.20e-02,
419,2.00e-02,
420,-1.20e-02,
421,2.00e-02,
422,1.60e-02,
423,-1.20e-02,
424,-1.20e-02,
425,2.00e-02,
426,-1.20e-02,
427,2.00e-02,
428,-1.20e-02,
429,2.00e-02,
430,2.00e-02,
431,-7.20e-02,
432,-1.20e-02,
433,2.00e-02,
434,-1.20e-02,
435,2.00e-02,
436,-1.20e-02,
437,1.60e-02,
438,-1.60e-02,
439,2.00e-02,
440,-1.20e-02,
441,2.00e-02,
442,-1.20e-02,
443,2.00e-02,
444,-1.20e-02,
445,2.00e-02,
446,-1.20e-02,
447,2.00e-02,
448,2.00e-02,
449,-1.20e-02,
450,-1.20e-02,
451,2.00e-02,
452,-1.20e-02,
453,2.00e-02,
454,-1.20e-02,
455,2.00e-02,
456,-1.60e-02,
457,2.00e-02,
458,-1.20e-02,
459,2.00e-02,
460,2.00e-02,
461,-1.60e-02,
462,-1.20e-02,
463,2.00e-02,
464,1.60e-02,
465,-1.20e-02,
466,-1.20e-02,
467,2.00e-02,
468,-1.20e-02,
469,2.00e-02,
470,-1.20e-02,
471,1.60e-02,
472,2.00e-02,
473,-1.60e-02,
474,-1.20e-02,
475,2.00e-02,
476,-1.20e-02,
477,2.40e-02,
478,-1.20e-02,
479,2.00e-02,
480,-1.20e-02,
481,2.00e-02,
482,-1.20e-02,
483,2.00e-02,
484,1.56e-01,
485,-2.80e-02,
486,2.00e-02,
487,-1.20e-02,
488,-1.20e-02,
489,2.00e-02,
490,1.60e-02,
491,-1.60e-02,
492,-1.20e-02,
493,2.00e-02,
494,-1.20e-02,
495,2.00e-02,
496,-1.20e-02,
497,2.00e-02,
498,-1.20e-02,
499,2.00e-02,
500,-1.20e-02,
501,2.00e-02,
502,-1.20e-02,
503,2.00e-02,
504,2.00e-02,
505,-1.20e-02,
506,2.00e-02,
507,-1.60e-02,
508,-1.20e-02,
509,2.00e-02,
510,-1.20e-02,
511,2.00e-02,
512,-1.20e-02,
513,2.00e-02,
514,-1.20e-02,
515,2.00e-02,
516,-1.20e-02,
517,2.00e-02,
518,-1.20e-02,
519,2.00e-02,
520,2.00e-02,
521,-1.60e-02,
522,-1.20e-02,
523,2.00e-02,
524,-1.20e-02,
525,2.00e-02,
526,-1.20e-02,
527,2.00e-02,
528,-1.20e-02,
529,2.00e-02,
530,-1.20e-02,
531,2.00e-02,
532,-1.20e-02,
533,2.00e-02,
534,-1.20e-02,
535,2.00e-02,
536,-1.96e-01,
537,1.28e-01,
538,-1.20e-02,
539,1.60e-02,
540,-1.20e-02,
541,2.00e-02,
542,-1.20e-02,
543,2.00e-02,
544,-1.20e-02,
545,2.00e-02,
546,2.00e-02,
547,-1.20e-02,
548,1.60e-02,
549,-1.20e-02,
550,-1.20e-02,
551,2.00e-02,
552,-1.20e-02,
553,2.00e-02,
554,1.60e-02,
555,-1.60e-02,
556,-1.20e-02,
557,2.00e-02,
558,1.60e-02,
559,-1.20e-02,
560,-1.20e-02,
561,2.00e-02,
562,-1.20e-02,
563,2.00e-02,
564,-1.20e-02,
565,2.00e-02,
566,-1.20e-02,
567,2.00e-02,
568,2.00e-02,
569,-1.60e-02,
570,-1.20e-02,
571,2.00e-02,
572,1.60e-02,
573,-1.60e-02,
574,-1.20e-02,
575,2.00e-02,
576,-1.20e-02,
577,2.00e-02,
578,-1.60e-02,
579,2.00e-02,
580,2.00e-02,
581,-1.60e-02,
582,-1.20e-02,
583,2.00e-02,
584,-1.20e-02,
585,2.00e-02,
586,-1.20e-02,
587,2.00e-02,
588,-1.20e-02,
589,2.00e-02,
590,-4.00e-02,
591,2.40e-02,
592,-1.20e-02,
593,2.00e-02,
594,-1.20e-02,
595,2.00e-02,
596,-1.20e-02,
597,2.00e-02,
598,-1.20e-02,
599,2.00e-02,
600,-1.20e-02,
601,2.00e-02,
602,-1.20e-02,
603,2.00e-02,
604,-1.20e-02,
605,2.00e-02,
606,-1.20e-02,
607,2.00e-02,
608,-1.20e-02,
609,2.00e-02,
610,-1.20e-02,
611,2.00e-02,
612,-1.20e-02,
613,2.00e-02,
614,-1.20e-02,
615,2.00e-02,
616,-1.20e-02,
617,2.00e-02,
618,2.00e-02,
619,-1.20e-02,
620,-1.20e-02,
621,2.00e-02,
622,2.00e-02,
623,-1.60e-02,
624,-1.20e-02,
625,2.00e-02,
626,2.00e-02,
627,-1.20e-02,
628,-1.20e-02,
629,2.00e-02,
630,-1.20e-02,
631,2.00e-02,
632,2.00e-02,
633,-1.20e-02,
634,-1.20e-02,
635,2.00e-02,
636,-1.20e-02,
637,1.60e-02,
638,-1.20e-02,
639,2.00e-02,
640,2.00e-02,
641,-1.20e-02,
642,1.60e-01,
643,-3.60e-02,
644,-1.20e-02,
645,5.20e-02,
646,-1.20e-02,
647,2.00e-02,
648,-1.20e-02,
649,2.00e-02,
650,-1.60e-02,
651,2.00e-02,
652,-1.20e-02,
653,2.00e-02,
654,-1.20e-02,
655,2.00e-02,
656,-1.20e-02,
657,2.00e-02,
658,-1.20e-02,
659,2.00e-02,
660,1.60e-02,
661,-1.20e-02,
662,1.60e-02,
663,-1.60e-02,
664,-1.20e-02,
665,2.00e-02,
666,-1.20e-02,
667,2.00e-02,
668,-1.20e-02,
669,2.00e-02,
670,2.00e-02,
671,-1.20e-02,
672,1.60e-02,
673,-1.20e-02,
674,-1.20e-02,
675,2.00e-02,
676,-1.20e-02,
677,2.00e-02,
678,-1.20e-02,
679,2.00e-02,
680,-1.20e-02,
681,2.00e-02,
682,2.00e-02,
683,-1.60e-02,
684,-1.20e-02,
685,2.00e-02,
686,-1.20e-02,
687,2.00e-02,
688,-1.20e-02,
689,2.00e-02,
690,-1.20e-02,
691,2.00e-02,
692,-1.20e-02,
693,1.60e-02,
694,-1.20e-02,
695,2.00e-02,
696,-1.20e-01,
697,5.60e-02,
698,-1.20e-02,
699,2.00e-02,
700,-1.20e-02,
701,2.00e-02,
702,1.60e-02,
703,-1.60e-02,
704,1.60e-02,
705,-1.20e-02,
706,-1.20e-02,
707,2.00e-02,
708,-1.20e-02,
709,2.00e-02,
710,-1.20e-02,
711,2.00e-02,
712,-1.20e-02,
713,2.40e-02,
714,-1.20e-02,
715,2.00e-02,
716,-1.20e-02,
717,2.00e-02,
718,2.00e-02,
719,-1.20e-02,
720,-1.20e-02,
721,2.00e-02,
722,-1.20e-02,
723,2.00e-02,
724,2.00e-02,
725,-1.60e-02,
726,-1.20e-02,
727,1.60e-02,
728,-1.20e-02,
729,2.00e-02,
730,1.60e-02,
731,-1.20e-02,
732,-1.20e-02,
733,2.00e-02,
734,-1.20e-02,
735,2.00e-02,
736,-1.20e-02,
737,2.00e-02,
738,-1.20e-02,
739,2.00e-02,
740,2.00e-02,
741,-1.60e-02,
742,2.00e-02,
743,-1.60e-02,
744,-1.20e-02,
745,2.00e-02,
746,-1.20e-02,
747,2.00e-02,
748,-1.60e-02,
749,8.80e-02,
750,-1.20e-02,
751,2.00e-02,
752,2.00e-02,
753,-1.20e-02,
754,-1.20e-02,
755,2.00e-02,
756,-1.20e-02,
757,2.00e-02,
758,-1.20e-02,
759,2.00e-02,
760,-1.20e-02,
761,2.00e-02,
762,-1.20e-02,
763,2.00e-02,
764,-1.20e-02,
765,2.00e-02,
766,1.60e-02,
767,-1.60e-02,
768,-1.20e-02,
769,2.00e-02,
770,-1.20e-02,
771,2.00e-02,
772,2.00e-02,
773,-1.60e-02,
774,2.00e-02,
775,-1.60e-02,
776,-1.20e-02,
777,2.00e-02,
778,-1.20e-02,
779,2.00e-02,
780,-1.20e-02,
781,2.00e-02,
782,2.00e-02,
783,-1.60e-02,
784,-1.20e-02,
785,1.60e-02,
786,-1.20e-02,
787,2.00e-02,
788,2.00e-02,
789,-1.20e-02,
790,-1.20e-02,
791,2.00e-02,
792,-1.20e-02,
793,2.00e-02,
794,-1.20e-02,
795,2.00e-02,
796,-1.20e-02,
797,2.00e-02,
798,-1.20e-02,
799,2.00e-02,
800,-1.20e-02,
801,2.00e-02,
802,1.36e-01,
803,-3.60e-02,
804,1.60e-02,
805,-1.20e-02,
806,2.00e-02,
807,-1.60e-02,
808,2.00e-02,
809,-1.20e-02,
810,-1.20e-02,
811,2.00e-02,
812,2.00e-02,
813,-1.20e-02,
814,-1.20e-02,
815,2.00e-02,
816,-1.20e-02,
817,2.00e-02,
818,-1.20e-02,
819,2.00e-02,
820,-1.20e-02,
821,2.00e-02,
822,2.00e-02,
823,-1.20e-02,
824,-1.20e-02,
825,2.00e-02,
826,-1.20e-02,
827,2.00e-02,
828,-1.20e-02,
829,2.00e-02,
830,2.00e-02,
831,-1.20e-02,
832,2.00e-02,
833,-1.20e-02,
834,-1.20e-02,
835,2.00e-02,
836,-1.20e-02,
837,2.00e-02,
838,-1.20e-02,
839,2.00e-02,
840,-1.20e-02,
841,2.00e-02,
842,-1.20e-02,
843,2.00e-02,
844,-1.20e-02,
845,2.00e-02,
846,-1.20e-02,
847,2.00e-02,
848,-1.20e-02,
849,2.00e-02,
850,-1.20e-02,
851,2.00e-02,
852,-1.20e-02,
853,2.00e-02,
854,-1.08e-01,
855,1.28e-01,
856,2.00e-02,
857,-1.60e-02,
858,1.60e-02,
859,-1.20e-02,
860,-1.20e-02,
861,2.00e-02,
862,-1.20e-02,
863,2.00e-02,
864,2.00e-02,
865,-1.60e-02,
866,-1.20e-02,
867,2.00e-02,
868,-1.20e-02,
869,2.00e-02,
870,-1.20e-02,
871,2.00e-02,
872,-1.20e-02,
873,2.00e-02,
874,-1.20e-02,
875,2.00e-02,
876,-1.20e-02,
877,2.00e-02,
878,-1.20e-02,
879,2.00e-02,
880,-1.20e-02,
881,2.00e-02,
882,1.60e-02,
883,-1.20e-02,
884,-1.20e-02,
885,2.00e-02,
886,-1.20e-02,
887,1.60e-02,
888,-1.20e-02,
889,2.00e-02,
890,1.60e-02,
891,-1.60e-02,
892,-1.20e-02,
893,1.60e-02,
894,-1.20e-02,
895,2.00e-02,
896,-1.20e-02,
897,2.00e-02,
898,-1.20e-02,
899,2.00e-02,
900,-1.20e-02,
901,2.00e-02,
902,-1.20e-02,
903,2.00e-02,
904,-1.20e-02,
905,2.00e-02,
906,-1.60e-02,
907,4.80e-02,
908,-1.60e-02,
909,4.00e-02,
910,-1.20e-02,
911,2.00e-02,
912,-1.20e-02,
913,2.00e-02,
914,-1.20e-02,
915,2.00e-02,
916,2.00e-02,
917,-1.20e-02,
918,2.00e-02,
919,-1.20e-02,
920,-1.20e-02,
921,2.00e-02,
922,-1.20e-02,
923,2.00e-02,
924,-1.20e-02,
925,2.00e-02,
926,2.00e-02,
927,-1.20e-02,
928,-1.20e-02,
929,2.00e-02,
930,2.00e-02,
931,-1.60e-02,
932,-1.20e-02,
933,2.00e-02,
934,2.00e-02,
935,-1.60e-02,
936,-1.60e-02,
937,2.00e-02,
938,-1.60e-02,
939,1.60e-02,
940,-1.60e-02,
941,2.00e-02,
942,-1.20e-02,
943,2.00e-02,
944,-1.20e-02,
945,2.00e-02,
946,-1.20e-02,
947,2.00e-02,
948,-1.20e-02,
949,2.00e-02,
950,-1.20e-02,
951,2.00e-02,
952,-1.20e-02,
953,2.00e-02,
954,-1.20e-02,
955,2.00e-02,
956,-1.20e-02,
957,2.00e-02,
958,2.00e-02,
959,-1.60e-02,
960,-2.20e-01,
961,1.96e-01,
962,-1.20e-02,
963,2.00e-02,
964,-1.20e-02,
965,2.00e-02,
966,-1.20e-02,
967,2.00e-02,
968,2.00e-02,
969,-1.20e-02,
970,-1.20e-02,
971,2.40e-02,
972,2.00e-02,
973,-1.20e-02,
974,-1.20e-02,
975,2.00e-02,
976,-1.20e-02,
977,2.00e-02,
978,2.00e-02,
979,-1.60e-02,
980,-1.20e-02,
981,2.00e-02,
982,-1.20e-02,
983,2.00e-02,
984,-1.20e-02,
985,2.00e-02,
986,-1.20e-02,
987,2.00e-02,
988,-1.20e-02,
989,2.40e-02,
990,-1.20e-02,
991,2.00e-02,
992,-1.20e-02,
993,2.00e-02,
994,-1.20e-02,
995,2.00e-02,
996,-1.20e-02,
997,2.00e-02,
998,-1.20e-02,
999,2.00e-02,
1000,-1.20e-02,
1001,2.00e-02,
1002,-1.20e-02,
1003,2.00e-02,
1004,-1.20e-02,
1005,2.00e-02,
1006,-1.20e-02,
1007,2.00e-02,
1008,-1.20e-02,
1009,2.00e-02,
1010,2.00e-02,
1011,-1.20e-02,
1012,6.00e-02,
1013,-3.60e-02,
1014,-1.20e-02,
1015,2.00e-02,
1016,2.00e-02,
1017,-1.20e-02,
1018,-1.20e-02,
1019,2.00e-02,
1020,-1.20e-02,
1021,2.00e-02,
1022,1.60e-02,
1023,-1.60e-02,
1024,2.00e-02,
1025,-1.20e-02,
1026,-1.20e-02,
1027,2.00e-02,
1028,-1.20e-02,
1029,1.60e-02,
1030,-1.20e-02,
1031,2.00e-02,
1032,-1.20e-02,
1033,2.00e-02,
1034,-1.20e-02,
1035,2.00e-02,
1036,-1.20e-02,
1037,2.00e-02,
1038,-1.20e-02,
1039,2.00e-02,
1040,1.60e-02,
1041,-1.20e-02,
1042,-1.20e-02,
1043,2.00e-02,
1044,-1.20e-02,
1045,2.00e-02,
1046,2.00e-02,
1047,-1.20e-02,
1048,1.60e-02,
1049,-1.20e-02,
1050,-1.20e-02,
1051,2.00e-02,
1052,-1.20e-02,
1053,2.00e-02,
1054,-1.20e-02,
1055,2.00e-02,
1056,-1.20e-02,
1057,2.00e-02,
1058,-1.20e-02,
1059,2.00e-02,
1060,-1.20e-02,
1061,2.00e-02,
1062,-1.20e-02,
1063,2.00e-02,
1064,2.00e-02,
1065,-3.20e-02,
1066,-1.20e-02,
1067,2.00e-02,
1068,-1.20e-02,
1069,2.00e-02,
1070,-1.20e-02,
1071,2.00e-02,
1072,-1.20e-02,
1073,2.00e-02,
1074,-1.20e-02,
1075,2.00e-02,
1076,-1.20e-02,
1077,2.00e-02,
1078,-1.20e-02,
1079,2.00e-02,
1080,2.00e-02,
1081,-1.60e-02,
1082,-1.20e-02,
1083,2.00e-02,
1084,2.00e-02,
1085,-1.60e-02,
1086,-1.20e-02,
1087,2.00e-02,
1088,-1.20e-02,
1089,2.00e-02,
1090,-1.20e-02,
1091,2.00e-02,
1092,-1.20e-02,
1093,2.00e-02,
1094,-1.20e-02,
1095,2.00e-02,
1096,-1.20e-02,
1097,2.00e-02,
1098,2.00e-02,
1099,-1.60e-02,
1100,2.00e-02,
1101,-1.20e-02,
1102,-1.20e-02,
1103,2.00e-02,
1104,-1.20e-02,
1105,2.00e-02,
1106,-1.20e-02,
1107,2.00e-02,
1108,2.00e-02,
1109,-1.20e-02,
1110,-1.20e-02,
1111,2.00e-02,
1112,-1.20e-02,
1113,2.00e-02,
1114,-1.20e-02,
1115,2.00e-02,
1116,-1.20e-02,
1117,2.00e-02,
1118,1.76e-01,
1119,-1.60e-02,
1120,-1.20e-02,
1121,2.00e-02,
1122,-1.20e-02,
1123,2.00e-02,
1124,1.60e-02,
1125,-1.20e-02,
1126,-1.20e-02,
1127,2.00e-02,
1128,2.00e-02,
1129,-1.20e-02,
1130,-1.20e-02,
1131,2.00e-02,
1132,-1.20e-02,
1133,2.00e-02,
1134,-1.20e-02,
1135,2.00e-02,
1136,-1.20e-02,
1137,2.00e-02,
1138,1.60e-02,
1139,-1.20e-02,
1140,-1.20e-02,
1141,2.00e-02,
1142,2.00e-02,
1143,-1.20e-02,
1144,-1.20e-02,
1145,2.00e-02,
1146,-1.20e-02,
1147,2.00e-02,
1148,1.60e-02,
1149,-1.20e-02,
1150,-1.20e-02,
1151,2.00e-02,
1152,-1.20e-02,
1153,2.00e-02,
1154,-1.20e-02,
1155,2.00e-02,
1156,-1.20e-02,
1157,2.00e-02,
1158,-1.20e-02,
1159,2.00e-02,
1160,-1.20e-02,
1161,2.00e-02,
1162,1.60e-02,
1163,-1.20e-02,
1164,-1.20e-02,
1165,2.00e-02,
1166,-1.20e-02,
1167,2.00e-02,
1168,-1.20e-02,
1169,2.00e-02,
1170,-1.56e-01,
1171,4.00e-02,
1172,-1.20e-02,
1173,2.00e-02,
1174,-1.20e-02,
1175,2.00e-02,
1176,-1.20e-02,
1177,2.00e-02,
1178,-1.20e-02,
1179,2.00e-02,
1180,-1.20e-02,
1181,2.00e-02,
1182,-1.60e-02,
1183,2.00e-02,
1184,-1.20e-02,
1185,2.00e-02,
1186,-1.20e-02,
1187,2.00e-02,
1188,-1.20e-02,
1189,2.00e-02,
1190,-1.20e-02,
1191,2.00e-02,
1192,-1.20e-02,
1193,2.00e-02,
1194,-1.20e-02,
1195,2.00e-02,
1196,-1.20e-02,
1197,2.00e-02,
1198,2.00e-02,
1199,-1.60e-02,
