Laptop_2/LAPTOP_CHRGR_2_OFF/time domain/NewFile47.csv

X,CH1,Start,Increment,
Sequence,Volt,-1.500000e-01,2.000000e-04
0,1.20e-02,
1,-8.00e-03,
2,-4.00e-03,
3,1.20e-02,
4,1.20e-02,
5,-8.00e-03,
6,1.20e-02,
7,-8.00e-03,
8,-4.00e-03,
9,1.20e-02,
10,1.20e-02,
11,-8.00e-03,
12,-8.00e-03,
13,1.20e-02,
14,-4.00e-03,
15,1.20e-02,
16,-4.00e-03,
17,1.20e-02,
18,-4.00e-03,
19,1.20e-02,
20,1.20e-02,
21,-4.00e-03,
22,-4.00e-03,
23,1.20e-02,
24,-4.00e-03,
25,1.20e-02,
26,-4.00e-03,
27,1.20e-02,
28,-4.00e-03,
29,1.20e-02,
30,-4.00e-03,
31,1.20e-02,
32,-4.00e-03,
33,1.20e-02,
34,-4.00e-03,
35,1.20e-02,
36,1.20e-02,
37,-8.00e-03,
38,-4.00e-03,
39,1.20e-02,
40,-8.00e-02,
41,2.00e-02,
42,-4.00e-03,
43,1.20e-02,
44,-4.00e-03,
45,1.20e-02,
46,-4.00e-03,
47,1.20e-02,
48,-8.00e-03,
49,1.20e-02,
50,-4.00e-03,
51,1.20e-02,
52,-8.00e-03,
53,1.20e-02,
54,-4.00e-03,
55,1.20e-02,
56,1.20e-02,
57,-8.00e-03,
58,-4.00e-03,
59,1.20e-02,
60,-4.00e-03,
61,1.20e-02,
62,-4.00e-03,
63,1.20e-02,
64,1.20e-02,
65,-8.00e-03,
66,-4.00e-03,
67,1.20e-02,
68,-4.00e-03,
69,1.20e-02,
70,-4.00e-03,
71,1.20e-02,
72,-4.00e-03,
73,1.20e-02,
74,-4.00e-03,
75,1.20e-02,
76,-4.00e-03,
77,1.20e-02,
78,-4.00e-03,
79,1.20e-02,
80,-4.00e-03,
81,1.20e-02,
82,-4.00e-03,
83,1.20e-02,
84,-4.00e-03,
85,1.20e-02,
86,-4.00e-03,
87,1.20e-02,
88,-4.00e-03,
89,1.20e-02,
90,1.20e-02,
91,-8.00e-03,
92,1.20e-02,
93,-2.00e-02,
94,-4.00e-03,
95,2.80e-02,
96,-4.00e-03,
97,1.20e-02,
98,-4.00e-03,
99,1.20e-02,
100,-4.00e-03,
101,1.20e-02,
102,-4.00e-03,
103,1.20e-02,
104,-4.00e-03,
105,1.20e-02,
106,1.20e-02,
107,-4.00e-03,
108,-4.00e-03,
109,1.20e-02,
110,-4.00e-03,
111,1.20e-02,
112,-4.00e-03,
113,1.20e-02,
114,-4.00e-03,
115,1.20e-02,
116,-4.00e-03,
117,1.20e-02,
118,-4.00e-03,
119,1.20e-02,
120,-4.00e-03,
121,1.20e-02,
122,1.20e-02,
123,-4.00e-03,
124,-4.00e-03,
125,1.20e-02,
126,-4.00e-03,
127,1.20e-02,
128,-4.00e-03,
129,1.20e-02,
130,1.20e-02,
131,-8.00e-03,
132,-4.00e-03,
133,1.20e-02,
134,-4.00e-03,
135,1.20e-02,
136,-4.00e-03,
137,1.20e-02,
138,-4.00e-03,
139,1.20e-02,
140,-4.00e-03,
141,1.20e-02,
142,-4.00e-03,
143,1.20e-02,
144,-4.00e-03,
145,1.20e-02,
146,-4.40e-02,
147,1.60e-02,
148,-4.00e-03,
149,1.20e-02,
150,-4.00e-03,
151,1.20e-02,
152,1.20e-02,
153,-4.00e-03,
154,-4.00e-03,
155,1.20e-02,
156,-4.00e-03,
157,1.20e-02,
158,-4.00e-03,
159,1.20e-02,
160,1.20e-02,
161,-8.00e-03,
162,-4.00e-03,
163,1.20e-02,
164,1.20e-02,
165,-8.00e-03,
166,1.20e-02,
167,-8.00e-03,
168,-4.00e-03,
169,1.20e-02,
170,1.20e-02,
171,-8.00e-03,
172,1.20e-02,
173,-8.00e-03,
174,-4.00e-03,
175,1.20e-02,
176,1.20e-02,
177,-4.00e-03,
178,1.20e-02,
179,-8.00e-03,
180,-4.00e-03,
181,1.20e-02,
182,-4.00e-03,
183,1.20e-02,
184,-4.00e-03,
185,1.20e-02,
186,-4.00e-03,
187,1.20e-02,
188,-4.00e-03,
189,1.20e-02,
190,-4.00e-03,
191,1.20e-02,
192,1.20e-02,
193,-4.00e-03,
194,-4.00e-03,
195,1.20e-02,
196,-4.00e-03,
197,1.20e-02,
198,1.20e-02,
199,-4.40e-02,
200,-4.00e-03,
201,1.20e-02,
202,1.20e-02,
203,-8.00e-03,
204,1.20e-02,
205,-4.00e-03,
206,-4.00e-03,
207,1.20e-02,
208,1.20e-02,
209,-8.00e-03,
210,-4.00e-03,
211,1.20e-02,
212,-4.00e-03,
213,1.20e-02,
214,-4.00e-03,
215,1.20e-02,
216,-4.00e-03,
217,1.20e-02,
218,-4.00e-03,
219,1.20e-02,
220,-4.00e-03,
221,1.20e-02,
222,-4.00e-03,
223,1.20e-02,
224,-4.00e-03,
225,1.20e-02,
226,-4.00e-03,
227,1.20e-02,
228,-4.00e-03,
229,1.20e-02,
230,1.20e-02,
231,-4.00e-03,
232,-4.00e-03,
233,1.20e-02,
234,-4.00e-03,
235,1.20e-02,
236,-4.00e-03,
237,1.20e-02,
238,1.20e-02,
239,-4.00e-03,
240,1.20e-02,
241,-8.00e-03,
242,-4.00e-03,
243,1.20e-02,
244,-4.00e-03,
245,1.20e-02,
246,-4.00e-03,
247,1.20e-02,
248,-4.00e-03,
249,1.20e-02,
250,-4.00e-03,
251,1.20e-02,
252,2.00e-02,
253,-3.20e-02,
254,-4.00e-03,
255,1.20e-02,
256,-4.00e-03,
257,1.20e-02,
258,1.20e-02,
259,-8.00e-03,
260,-4.00e-03,
261,1.20e-02,
262,-4.00e-03,
263,1.20e-02,
264,-4.00e-03,
265,1.20e-02,
266,1.20e-02,
267,-4.00e-03,
268,-4.00e-03,
269,1.20e-02,
270,1.20e-02,
271,-8.00e-03,
272,-4.00e-03,
273,1.20e-02,
274,-4.00e-03,
275,1.20e-02,
276,1.20e-02,
277,-4.00e-03,
278,-4.00e-03,
279,1.20e-02,
280,-4.00e-03,
281,1.20e-02,
282,1.20e-02,
283,-8.00e-03,
284,-4.00e-03,
285,1.20e-02,
286,-4.00e-03,
287,1.20e-02,
288,-4.00e-03,
289,1.20e-02,
290,-4.00e-03,
291,1.20e-02,
292,-4.00e-03,
293,1.20e-02,
294,1.20e-02,
295,-4.00e-03,
296,-4.00e-03,
297,1.20e-02,
298,1.20e-02,
299,-8.00e-03,
300,-4.00e-03,
301,1.20e-02,
302,-8.00e-03,
303,1.20e-02,
304,-4.00e-03,
305,1.20e-02,
306,-4.00e-03,
307,2.40e-02,
308,-4.00e-03,
309,1.20e-02,
310,1.20e-02,
311,-4.00e-03,
312,-4.00e-03,
313,1.20e-02,
314,-4.00e-03,
315,1.20e-02,
316,-4.00e-03,
317,1.20e-02,
318,-4.00e-03,
319,1.20e-02,
320,-4.00e-03,
321,1.20e-02,
322,-4.00e-03,
323,1.20e-02,
324,-4.00e-03,
325,1.20e-02,
326,-4.00e-03,
327,1.20e-02,
328,1.20e-02,
329,-8.00e-03,
330,-8.00e-03,
331,1.20e-02,
332,-4.00e-03,
333,1.20e-02,
334,-4.00e-03,
335,1.20e-02,
336,-4.00e-03,
337,1.20e-02,
338,-4.00e-03,
339,1.20e-02,
340,-4.00e-03,
341,1.20e-02,
342,1.20e-02,
343,-8.00e-03,
344,-4.00e-03,
345,1.20e-02,
346,1.20e-02,
347,-4.00e-03,
348,-4.00e-03,
349,1.20e-02,
350,-4.00e-03,
351,1.20e-02,
352,-4.00e-03,
353,1.20e-02,
354,-4.00e-03,
355,1.20e-02,
356,-4.00e-03,
357,1.20e-02,
358,1.20e-02,
359,-8.00e-03,
360,4.80e-02,
361,-2.40e-02,
362,-4.00e-03,
363,1.20e-02,
364,-4.00e-03,
365,1.20e-02,
366,-4.00e-03,
367,1.20e-02,
368,-4.00e-03,
369,1.20e-02,
370,1.20e-02,
371,-4.00e-03,
372,-4.00e-03,
373,1.20e-02,
374,1.20e-02,
375,-8.00e-03,
376,-4.00e-03,
377,1.20e-02,
378,-8.00e-03,
379,1.20e-02,
380,-4.00e-03,
381,1.20e-02,
382,1.20e-02,
383,-4.00e-03,
384,-4.00e-03,
385,1.20e-02,
386,1.20e-02,
387,-8.00e-03,
388,-4.00e-03,
389,1.20e-02,
390,1.20e-02,
391,-4.00e-03,
392,-4.00e-03,
393,1.20e-02,
394,1.20e-02,
395,-4.00e-03,
396,-4.00e-03,
397,1.20e-02,
398,-4.00e-03,
399,1.20e-02,
400,-4.00e-03,
401,1.20e-02,
402,-4.00e-03,
403,1.20e-02,
404,-4.00e-03,
405,1.20e-02,
406,-4.00e-03,
407,1.20e-02,
408,1.20e-02,
409,-8.00e-03,
410,-4.00e-03,
411,1.20e-02,
412,-2.00e-02,
413,3.60e-02,
414,-4.00e-03,
415,1.20e-02,
416,-4.00e-03,
417,1.20e-02,
418,1.20e-02,
419,-8.00e-03,
420,1.20e-02,
421,-8.00e-03,
422,-4.00e-03,
423,1.20e-02,
424,-4.00e-03,
425,1.20e-02,
426,-4.00e-03,
427,1.20e-02,
428,-4.00e-03,
429,1.20e-02,
430,-4.00e-03,
431,1.20e-02,
432,-4.00e-03,
433,1.20e-02,
434,-4.00e-03,
435,1.20e-02,
436,-4.00e-03,
437,1.20e-02,
438,1.20e-02,
439,-4.00e-03,
440,-4.00e-03,
441,1.20e-02,
442,1.20e-02,
443,-8.00e-03,
444,-4.00e-03,
445,1.20e-02,
446,-4.00e-03,
447,1.20e-02,
448,-4.00e-03,
449,1.20e-02,
450,-8.00e-03,
451,1.20e-02,
452,-4.00e-03,
453,1.20e-02,
454,-4.00e-03,
455,1.20e-02,
456,1.20e-02,
457,-8.00e-03,
458,-4.00e-03,
459,1.20e-02,
460,-4.00e-03,
461,1.20e-02,
462,-4.00e-03,
463,1.20e-02,
464,-4.00e-03,
465,1.20e-02,
466,-9.20e-02,
467,2.40e-02,
468,1.20e-02,
469,-4.00e-03,
470,-4.00e-03,
471,1.20e-02,
472,-4.00e-03,
473,1.20e-02,
474,-4.00e-03,
475,1.20e-02,
476,-4.00e-03,
477,1.20e-02,
478,-4.00e-03,
479,1.20e-02,
480,-4.00e-03,
481,1.20e-02,
482,-4.00e-03,
483,1.20e-02,
484,-4.00e-03,
485,1.20e-02,
486,1.20e-02,
487,-4.00e-03,
488,1.20e-02,
489,-4.00e-03,
490,-4.00e-03,
491,1.20e-02,
492,-4.00e-03,
493,1.20e-02,
494,-4.00e-03,
495,1.20e-02,
496,-4.00e-03,
497,1.20e-02,
498,-4.00e-03,
499,1.20e-02,
500,-4.00e-03,
501,1.20e-02,
502,-4.00e-03,
503,1.20e-02,
504,1.20e-02,
505,-4.00e-03,
506,-4.00e-03,
507,1.20e-02,
508,-4.00e-03,
509,1.20e-02,
510,-4.00e-03,
511,1.20e-02,
512,-4.00e-03,
513,1.20e-02,
514,-4.00e-03,
515,1.20e-02,
516,-4.00e-03,
517,1.20e-02,
518,-4.00e-03,
519,1.20e-02,
520,-4.40e-02,
521,2.40e-02,
522,-4.00e-03,
523,1.20e-02,
524,-4.00e-03,
525,8.00e-03,
526,-4.00e-03,
527,1.20e-02,
528,-4.00e-03,
529,1.20e-02,
530,-4.00e-03,
531,8.00e-03,
532,1.20e-02,
533,-8.00e-03,
534,-8.00e-03,
535,1.20e-02,
536,-4.00e-03,
537,1.20e-02,
538,-4.00e-03,
539,1.20e-02,
540,-4.00e-03,
541,1.20e-02,
542,-4.00e-03,
543,1.20e-02,
544,-4.00e-03,
545,1.20e-02,
546,-4.00e-03,
547,1.20e-02,
548,-4.00e-03,
549,1.20e-02,
550,1.20e-02,
551,-8.00e-03,
552,1.20e-02,
553,-8.00e-03,
554,-4.00e-03,
555,1.20e-02,
556,-4.00e-03,
557,1.20e-02,
558,-4.00e-03,
559,1.20e-02,
560,-4.00e-03,
561,1.20e-02,
562,-4.00e-03,
563,1.20e-02,
564,-4.00e-03,
565,1.20e-02,
566,-4.00e-03,
567,1.20e-02,
568,-4.00e-03,
569,1.20e-02,
570,-4.00e-03,
571,1.20e-02,
572,1.20e-02,
573,-4.00e-02,
574,2.00e-02,
575,-3.20e-02,
576,-4.00e-03,
577,1.20e-02,
578,-4.00e-03,
579,1.20e-02,
580,-4.00e-03,
581,1.20e-02,
582,-4.00e-03,
583,1.20e-02,
584,1.20e-02,
585,-8.00e-03,
586,-4.00e-03,
587,1.20e-02,
588,1.20e-02,
589,-8.00e-03,
590,-4.00e-03,
591,1.20e-02,
592,1.20e-02,
593,-8.00e-03,
594,1.20e-02,
595,-8.00e-03,
596,-4.00e-03,
597,1.20e-02,
598,-4.00e-03,
599,1.20e-02,
600,-4.00e-03,
601,1.20e-02,
602,1.20e-02,
603,-4.00e-03,
604,-4.00e-03,
605,1.20e-02,
606,-4.00e-03,
607,1.20e-02,
608,-4.00e-03,
609,1.20e-02,
610,-4.00e-03,
611,1.20e-02,
612,-4.00e-03,
613,1.20e-02,
614,-4.00e-03,
615,1.20e-02,
616,-4.00e-03,
617,1.20e-02,
618,1.20e-02,
619,-8.00e-03,
620,-4.00e-03,
621,1.20e-02,
622,-4.00e-03,
623,1.20e-02,
624,-4.00e-03,
625,1.20e-02,
626,1.60e-02,
627,-2.40e-02,
628,1.20e-02,
629,-8.00e-03,
630,1.20e-02,
631,-8.00e-03,
632,-4.00e-03,
633,1.20e-02,
634,-4.00e-03,
635,1.20e-02,
636,1.20e-02,
637,-8.00e-03,
638,-4.00e-03,
639,1.20e-02,
640,1.20e-02,
641,-8.00e-03,
642,-8.00e-03,
643,1.20e-02,
644,-4.00e-03,
645,1.20e-02,
646,1.20e-02,
647,-4.00e-03,
648,-4.00e-03,
649,1.20e-02,
650,-4.00e-03,
651,1.20e-02,
652,1.20e-02,
653,-4.00e-03,
654,-4.00e-03,
655,1.20e-02,
656,-4.00e-03,
657,1.20e-02,
658,1.20e-02,
659,-8.00e-03,
660,-4.00e-03,
661,1.20e-02,
662,-4.00e-03,
663,1.20e-02,
664,1.20e-02,
665,-8.00e-03,
666,-4.00e-03,
667,1.20e-02,
668,-4.00e-03,
669,1.20e-02,
670,1.20e-02,
671,-8.00e-03,
672,-4.00e-03,
673,1.20e-02,
674,-4.00e-03,
675,1.20e-02,
676,1.20e-02,
677,-8.00e-03,
678,1.20e-02,
679,-8.00e-03,
680,-3.20e-02,
681,2.80e-02,
682,1.20e-02,
683,-4.00e-03,
684,-4.00e-03,
685,1.20e-02,
686,-4.00e-03,
687,1.20e-02,
688,-4.00e-03,
689,1.20e-02,
690,-4.00e-03,
691,1.20e-02,
692,-4.00e-03,
693,1.20e-02,
694,-4.00e-03,
695,1.20e-02,
696,-4.00e-03,
697,1.20e-02,
698,-4.00e-03,
699,1.20e-02,
700,-4.00e-03,
701,1.20e-02,
702,-4.00e-03,
703,1.20e-02,
704,-4.00e-03,
705,1.20e-02,
706,-4.00e-03,
707,1.20e-02,
708,-4.00e-03,
709,1.20e-02,
710,-4.00e-03,
711,1.20e-02,
712,-4.00e-03,
713,1.20e-02,
714,1.20e-02,
715,-4.00e-03,
716,1.20e-02,
717,-4.00e-03,
718,-4.00e-03,
719,1.20e-02,
720,-4.00e-03,
721,1.20e-02,
722,-4.00e-03,
723,1.20e-02,
724,-4.00e-03,
725,1.20e-02,
726,1.20e-02,
727,-4.00e-03,
728,-4.00e-03,
729,1.20e-02,
730,-4.00e-03,
731,1.20e-02,
732,-4.00e-03,
733,1.20e-02,
734,-1.20e-02,
735,4.00e-02,
736,-4.00e-03,
737,1.20e-02,
738,1.20e-02,
739,-8.00e-03,
740,-4.00e-03,
741,1.20e-02,
742,-4.00e-03,
743,1.20e-02,
744,1.20e-02,
745,-8.00e-03,
746,-4.00e-03,
747,1.20e-02,
748,-4.00e-03,
749,1.20e-02,
750,1.20e-02,
751,-8.00e-03,
752,1.20e-02,
753,-4.00e-03,
754,-4.00e-03,
755,1.20e-02,
756,1.20e-02,
757,-8.00e-03,
758,-4.00e-03,
759,1.20e-02,
760,-4.00e-03,
761,1.20e-02,
762,-4.00e-03,
763,1.20e-02,
764,-4.00e-03,
765,1.20e-02,
766,1.20e-02,
767,-4.00e-03,
768,-4.00e-03,
769,1.20e-02,
770,-4.00e-03,
771,1.20e-02,
772,-4.00e-03,
773,1.20e-02,
774,-4.00e-03,
775,1.20e-02,
776,-4.00e-03,
777,1.20e-02,
778,-4.00e-03,
779,1.20e-02,
780,-4.00e-03,
781,1.20e-02,
782,-4.00e-03,
783,1.20e-02,
784,-4.00e-03,
785,1.20e-02,
786,-3.60e-02,
787,3.60e-02,
788,-4.00e-03,
789,1.20e-02,
790,-4.00e-03,
791,1.20e-02,
792,-4.00e-03,
793,1.20e-02,
794,1.20e-02,
795,-4.00e-03,
796,-4.00e-03,
797,1.20e-02,
798,1.20e-02,
799,-4.00e-03,
800,1.20e-02,
801,-8.00e-03,
802,1.20e-02,
803,-8.00e-03,
804,1.20e-02,
805,-4.00e-03,
806,-4.00e-03,
807,1.20e-02,
808,-4.00e-03,
809,1.20e-02,
810,-4.00e-03,
811,1.20e-02,
812,-4.00e-03,
813,1.20e-02,
814,-4.00e-03,
815,1.20e-02,
816,-4.00e-03,
817,1.20e-02,
818,-4.00e-03,
819,1.20e-02,
820,-4.00e-03,
821,1.20e-02,
822,-4.00e-03,
823,1.20e-02,
824,1.20e-02,
825,-8.00e-03,
826,-4.00e-03,
827,1.20e-02,
828,-4.00e-03,
829,1.20e-02,
830,-4.00e-03,
831,1.20e-02,
832,-4.00e-03,
833,1.20e-02,
834,-4.00e-03,
835,1.20e-02,
836,-4.00e-03,
837,1.20e-02,
838,-4.00e-03,
839,1.20e-02,
840,1.60e-02,
841,-3.60e-02,
842,1.20e-02,
843,-4.00e-03,
844,1.20e-02,
845,-8.00e-03,
846,-4.00e-03,
847,1.20e-02,
848,-4.00e-03,
849,1.20e-02,
850,-4.00e-03,
851,1.20e-02,
852,-4.00e-03,
853,1.20e-02,
854,-4.00e-03,
855,1.20e-02,
856,-4.00e-03,
857,1.20e-02,
858,-4.00e-03,
859,1.20e-02,
860,1.20e-02,
861,-4.00e-03,
862,-4.00e-03,
863,1.20e-02,
864,-4.00e-03,
865,1.20e-02,
866,-4.00e-03,
867,1.20e-02,
868,-8.00e-03,
869,1.20e-02,
870,-4.00e-03,
871,1.20e-02,
872,1.20e-02,
873,-4.00e-03,
874,1.20e-02,
875,-8.00e-03,
876,-4.00e-03,
877,1.20e-02,
878,-4.00e-03,
879,1.20e-02,
880,1.20e-02,
881,-8.00e-03,
882,-4.00e-03,
883,1.20e-02,
884,-4.00e-03,
885,1.20e-02,
886,1.20e-02,
887,-8.00e-03,
888,-4.00e-03,
889,1.20e-02,
890,-4.00e-03,
891,1.20e-02,
892,-4.00e-03,
893,1.20e-02,
894,-8.80e-02,
895,2.40e-02,
896,1.20e-02,
897,-4.00e-03,
898,-4.00e-03,
899,1.20e-02,
900,-4.00e-03,
901,1.20e-02,
902,-4.00e-03,
903,1.20e-02,
904,1.20e-02,
905,-8.00e-03,
906,-4.00e-03,
907,1.20e-02,
908,1.20e-02,
909,-4.00e-03,
910,-4.00e-03,
911,1.20e-02,
912,1.20e-02,
913,-4.00e-03,
914,1.20e-02,
915,-4.00e-03,
916,-4.00e-03,
917,1.20e-02,
918,-4.00e-03,
919,1.20e-02,
920,1.20e-02,
921,-4.00e-03,
922,-4.00e-03,
923,1.20e-02,
924,1.20e-02,
925,-8.00e-03,
926,-4.00e-03,
927,1.20e-02,
928,1.20e-02,
929,-8.00e-03,
930,-4.00e-03,
931,1.20e-02,
932,-4.00e-03,
933,1.20e-02,
934,-4.00e-03,
935,1.20e-02,
936,-4.00e-03,
937,1.20e-02,
938,-4.00e-03,
939,1.20e-02,
940,1.20e-02,
941,-4.00e-03,
942,-4.00e-03,
943,1.20e-02,
944,-4.00e-03,
945,1.20e-02,
946,-8.40e-02,
947,4.80e-02,
948,-4.00e-03,
949,1.20e-02,
950,-4.00e-03,
951,1.20e-02,
952,1.20e-02,
953,-4.00e-03,
954,-4.00e-03,
955,1.20e-02,
956,-4.00e-03,
957,1.20e-02,
958,1.20e-02,
959,-4.00e-03,
960,-4.00e-03,
961,1.20e-02,
962,-4.00e-03,
963,1.20e-02,
964,-4.00e-03,
965,1.20e-02,
966,-4.00e-03,
967,1.20e-02,
968,-4.00e-03,
969,1.20e-02,
970,-4.00e-03,
971,1.20e-02,
972,-4.00e-03,
973,1.20e-02,
974,-4.00e-03,
975,1.20e-02,
976,-4.00e-03,
977,1.20e-02,
978,-4.00e-03,
979,1.20e-02,
980,-4.00e-03,
981,1.20e-02,
982,-4.00e-03,
983,1.20e-02,
984,-4.00e-03,
985,1.20e-02,
986,-4.00e-03,
987,1.20e-02,
988,-4.00e-03,
989,1.20e-02,
990,-4.00e-03,
991,1.20e-02,
992,-4.00e-03,
993,1.20e-02,
994,-8.00e-03,
995,1.20e-02,
996,1.20e-02,
997,-8.00e-03,
998,-4.00e-03,
999,1.20e-02,
1000,-7.60e-02,
1001,3.20e-02,
1002,-4.00e-03,
1003,1.20e-02,
1004,1.20e-02,
1005,-4.00e-03,
1006,1.20e-02,
1007,-8.00e-03,
1008,1.20e-02,
1009,-4.00e-03,
1010,-4.00e-03,
1011,1.20e-02,
1012,-4.00e-03,
1013,1.20e-02,
1014,1.20e-02,
1015,-4.00e-03,
1016,1.20e-02,
1017,-4.00e-03,
1018,-4.00e-03,
1019,1.20e-02,
1020,-4.00e-03,
1021,1.20e-02,
1022,-4.00e-03,
1023,1.20e-02,
1024,-4.00e-03,
1025,1.20e-02,
1026,-4.00e-03,
1027,1.20e-02,
1028,1.20e-02,
1029,-4.00e-03,
1030,-4.00e-03,
1031,1.20e-02,
1032,-4.00e-03,
1033,1.20e-02,
1034,1.20e-02,
1035,-4.00e-03,
1036,-4.00e-03,
1037,1.20e-02,
1038,1.20e-02,
1039,-8.00e-03,
1040,-4.00e-03,
1041,1.20e-02,
1042,-4.00e-03,
1043,1.20e-02,
1044,-4.00e-03,
1045,1.20e-02,
1046,-4.00e-03,
1047,1.20e-02,
1048,-4.00e-03,
1049,1.20e-02,
1050,1.20e-02,
1051,-4.00e-03,
1052,-4.00e-02,
1053,2.00e-02,
1054,-8.00e-03,
1055,1.20e-02,
1056,-4.00e-03,
1057,1.20e-02,
1058,-4.00e-03,
1059,1.20e-02,
1060,1.20e-02,
1061,-8.00e-03,
1062,-4.00e-03,
1063,1.20e-02,
1064,-4.00e-03,
1065,1.20e-02,
1066,-4.00e-03,
1067,1.20e-02,
1068,-4.00e-03,
1069,1.20e-02,
1070,-4.00e-03,
1071,1.20e-02,
1072,-4.00e-03,
1073,1.20e-02,
1074,1.20e-02,
1075,-8.00e-03,
1076,1.20e-02,
1077,-4.00e-03,
1078,-4.00e-03,
1079,1.20e-02,
1080,1.20e-02,
1081,-8.00e-03,
1082,1.20e-02,
1083,-4.00e-03,
1084,-4.00e-03,
1085,1.20e-02,
1086,-4.00e-03,
1087,1.20e-02,
1088,-4.00e-03,
1089,1.20e-02,
1090,-4.00e-03,
1091,1.20e-02,
1092,-4.00e-03,
1093,1.20e-02,
1094,1.20e-02,
1095,-8.00e-03,
1096,-4.00e-03,
1097,1.20e-02,
1098,-4.00e-03,
1099,1.20e-02,
1100,-4.00e-03,
1101,1.20e-02,
1102,-4.00e-03,
1103,1.20e-02,
1104,-6.80e-02,
1105,2.00e-02,
1106,1.20e-02,
1107,-1.20e-02,
1108,1.20e-02,
1109,-4.00e-03,
1110,1.20e-02,
1111,-4.00e-03,
1112,-4.00e-03,
1113,1.20e-02,
1114,-4.00e-03,
1115,1.20e-02,
1116,-4.00e-03,
1117,1.20e-02,
1118,-4.00e-03,
1119,1.20e-02,
1120,-4.00e-03,
1121,1.20e-02,
1122,-4.00e-03,
1123,1.20e-02,
1124,-4.00e-03,
1125,1.20e-02,
1126,-4.00e-03,
1127,1.20e-02,
1128,-4.00e-03,
1129,1.20e-02,
1130,1.20e-02,
1131,-4.00e-03,
1132,-4.00e-03,
1133,1.20e-02,
1134,-4.00e-03,
1135,1.20e-02,
1136,-4.00e-03,
1137,1.20e-02,
1138,-4.00e-03,
1139,1.20e-02,
1140,-4.00e-03,
1141,1.20e-02,
1142,-4.00e-03,
1143,1.20e-02,
1144,1.20e-02,
1145,-4.00e-03,
1146,-4.00e-03,
1147,1.20e-02,
1148,-4.00e-03,
1149,1.20e-02,
1150,-4.00e-03,
1151,1.20e-02,
1152,-4.00e-03,
1153,1.20e-02,
1154,1.20e-02,
1155,-8.00e-03,
1156,-4.00e-03,
1157,1.20e-02,
1158,-1.60e-02,
1159,3.60e-02,
1160,-4.00e-03,
1161,1.20e-02,
1162,-8.00e-03,
1163,1.20e-02,
1164,-8.00e-03,
1165,1.20e-02,
1166,1.20e-02,
1167,-8.00e-03,
1168,-4.00e-03,
1169,1.20e-02,
1170,1.20e-02,
1171,-8.00e-03,
1172,-4.00e-03,
1173,1.20e-02,
1174,1.20e-02,
1175,-8.00e-03,
1176,1.20e-02,
1177,-8.00e-03,
1178,-4.00e-03,
1179,1.20e-02,
1180,-4.00e-03,
1181,1.20e-02,
1182,-4.00e-03,
1183,1.20e-02,
1184,-4.00e-03,
1185,1.20e-02,
1186,-4.00e-03,
1187,1.20e-02,
1188,-4.00e-03,
1189,1.20e-02,
1190,1.20e-02,
1191,-8.00e-03,
1192,1.20e-02,
1193,-4.00e-03,
1194,-4.00e-03,
1195,1.20e-02,
1196,1.20e-02,
1197,-8.00e-03,
1198,-4.00e-03,
1199,1.20e-02,
