Laptop_2/LAPTOP_CHRGR_2_OFF/time domain/NewFile29.csv

X,CH1,Start,Increment,
Sequence,Volt,-1.500000e-01,2.000000e-04
0,-8.00e-03,
1,1.60e-02,
2,-8.00e-03,
3,1.60e-02,
4,-8.00e-03,
5,1.60e-02,
6,-8.00e-03,
7,1.60e-02,
8,-8.00e-03,
9,1.60e-02,
10,-1.20e-02,
11,1.60e-02,
12,-8.00e-03,
13,1.60e-02,
14,-8.00e-03,
15,1.60e-02,
16,-8.00e-03,
17,1.60e-02,
18,1.60e-02,
19,-1.20e-02,
20,-8.00e-03,
21,1.60e-02,
22,-8.00e-03,
23,1.60e-02,
24,-8.00e-03,
25,1.60e-02,
26,1.60e-02,
27,-8.00e-03,
28,-8.00e-03,
29,1.60e-02,
30,1.60e-02,
31,-8.00e-03,
32,1.60e-02,
33,-8.00e-03,
34,2.00e-02,
35,-1.20e-02,
36,-8.00e-03,
37,1.60e-02,
38,-8.00e-03,
39,1.60e-02,
40,-8.00e-03,
41,1.60e-02,
42,1.60e-02,
43,-8.00e-03,
44,-8.00e-03,
45,1.60e-02,
46,-8.00e-03,
47,1.60e-02,
48,2.40e-02,
49,-5.20e-02,
50,1.60e-02,
51,-8.00e-03,
52,1.60e-02,
53,-1.20e-02,
54,-8.00e-03,
55,1.60e-02,
56,1.60e-02,
57,-8.00e-03,
58,1.60e-02,
59,-1.20e-02,
60,1.60e-02,
61,-1.20e-02,
62,-8.00e-03,
63,1.60e-02,
64,1.60e-02,
65,-1.60e-02,
66,-8.00e-03,
67,1.60e-02,
68,1.60e-02,
69,-8.00e-03,
70,-1.20e-02,
71,1.60e-02,
72,-8.00e-03,
73,1.60e-02,
74,1.60e-02,
75,-8.00e-03,
76,-8.00e-03,
77,1.60e-02,
78,-8.00e-03,
79,1.60e-02,
80,-8.00e-03,
81,1.60e-02,
82,-8.00e-03,
83,1.60e-02,
84,-8.00e-03,
85,1.60e-02,
86,-8.00e-03,
87,1.60e-02,
88,-8.00e-03,
89,2.00e-02,
90,-8.00e-03,
91,1.60e-02,
92,-8.00e-03,
93,1.60e-02,
94,1.60e-02,
95,-1.20e-02,
96,1.60e-02,
97,-1.20e-02,
98,-8.00e-03,
99,1.60e-02,
100,-8.00e-03,
101,4.00e-02,
102,6.80e-02,
103,-2.80e-02,
104,-8.00e-03,
105,1.60e-02,
106,1.60e-02,
107,-1.20e-02,
108,1.60e-02,
109,-1.20e-02,
110,-8.00e-03,
111,1.60e-02,
112,-8.00e-03,
113,1.60e-02,
114,-8.00e-03,
115,1.60e-02,
116,-8.00e-03,
117,1.60e-02,
118,-8.00e-03,
119,1.60e-02,
120,1.60e-02,
121,-8.00e-03,
122,1.60e-02,
123,-1.20e-02,
124,1.60e-02,
125,-8.00e-03,
126,1.60e-02,
127,-1.20e-02,
128,-8.00e-03,
129,1.60e-02,
130,-8.00e-03,
131,1.60e-02,
132,-8.00e-03,
133,1.60e-02,
134,-8.00e-03,
135,1.60e-02,
136,1.60e-02,
137,-8.00e-03,
138,-8.00e-03,
139,1.60e-02,
140,-8.00e-03,
141,1.60e-02,
142,1.60e-02,
143,-1.20e-02,
144,-8.00e-03,
145,1.60e-02,
146,-8.00e-03,
147,2.00e-02,
148,1.60e-02,
149,-1.20e-02,
150,-8.00e-03,
151,1.60e-02,
152,-8.00e-03,
153,1.60e-02,
154,-1.12e-01,
155,4.00e-02,
156,1.60e-02,
157,-8.00e-03,
158,-8.00e-03,
159,1.60e-02,
160,-8.00e-03,
161,1.60e-02,
162,-8.00e-03,
163,1.60e-02,
164,1.60e-02,
165,-8.00e-03,
166,-8.00e-03,
167,1.60e-02,
168,1.60e-02,
169,-1.20e-02,
170,-8.00e-03,
171,1.60e-02,
172,2.00e-02,
173,-1.20e-02,
174,1.60e-02,
175,-1.20e-02,
176,-8.00e-03,
177,1.60e-02,
178,1.60e-02,
179,-1.20e-02,
180,-8.00e-03,
181,1.60e-02,
182,-8.00e-03,
183,1.60e-02,
184,-8.00e-03,
185,1.60e-02,
186,-8.00e-03,
187,1.60e-02,
188,-8.00e-03,
189,1.60e-02,
190,-8.00e-03,
191,1.60e-02,
192,-8.00e-03,
193,1.60e-02,
194,-8.00e-03,
195,1.60e-02,
196,1.60e-02,
197,-8.00e-03,
198,-8.00e-03,
199,1.60e-02,
200,-8.00e-03,
201,1.60e-02,
202,1.60e-02,
203,-8.00e-03,
204,1.60e-02,
205,-8.00e-03,
206,4.00e-02,
207,-3.20e-02,
208,-1.20e-02,
209,5.20e-02,
210,1.60e-02,
211,-8.00e-03,
212,1.60e-02,
213,-8.00e-03,
214,1.60e-02,
215,-8.00e-03,
216,1.60e-02,
217,-1.20e-02,
218,-8.00e-03,
219,1.60e-02,
220,-8.00e-03,
221,1.60e-02,
222,-8.00e-03,
223,1.60e-02,
224,-8.00e-03,
225,1.60e-02,
226,-8.00e-03,
227,1.60e-02,
228,1.60e-02,
229,-1.20e-02,
230,1.60e-02,
231,-8.00e-03,
232,-8.00e-03,
233,2.00e-02,
234,-8.00e-03,
235,1.60e-02,
236,-8.00e-03,
237,1.60e-02,
238,-8.00e-03,
239,1.60e-02,
240,1.60e-02,
241,-8.00e-03,
242,1.60e-02,
243,-8.00e-03,
244,1.60e-02,
245,-8.00e-03,
246,-8.00e-03,
247,1.60e-02,
248,-8.00e-03,
249,1.60e-02,
250,-8.00e-03,
251,1.60e-02,
252,-8.00e-03,
253,1.60e-02,
254,-8.00e-03,
255,1.60e-02,
256,-8.00e-03,
257,1.60e-02,
258,1.60e-02,
259,-8.00e-03,
260,-1.36e-01,
261,3.20e-02,
262,1.60e-02,
263,-1.20e-02,
264,-8.00e-03,
265,1.60e-02,
266,-8.00e-03,
267,1.60e-02,
268,-8.00e-03,
269,1.60e-02,
270,-8.00e-03,
271,1.60e-02,
272,1.60e-02,
273,-1.20e-02,
274,-8.00e-03,
275,2.00e-02,
276,1.60e-02,
277,-1.20e-02,
278,-8.00e-03,
279,1.60e-02,
280,-8.00e-03,
281,1.60e-02,
282,-8.00e-03,
283,1.60e-02,
284,-8.00e-03,
285,1.60e-02,
286,-8.00e-03,
287,1.60e-02,
288,-8.00e-03,
289,1.60e-02,
290,-8.00e-03,
291,1.60e-02,
292,-8.00e-03,
293,1.60e-02,
294,-8.00e-03,
295,1.60e-02,
296,-8.00e-03,
297,1.60e-02,
298,1.60e-02,
299,-8.00e-03,
300,-8.00e-03,
301,1.60e-02,
302,-8.00e-03,
303,1.60e-02,
304,-8.00e-03,
305,1.60e-02,
306,-8.00e-03,
307,1.20e-02,
308,-8.00e-03,
309,1.60e-02,
310,-8.00e-03,
311,1.60e-02,
312,2.00e-02,
313,-1.20e-02,
314,8.80e-02,
315,-1.00e-01,
316,1.60e-02,
317,-1.20e-02,
318,-8.00e-03,
319,1.60e-02,
320,-8.00e-03,
321,1.60e-02,
322,-8.00e-03,
323,1.60e-02,
324,-8.00e-03,
325,1.60e-02,
326,-8.00e-03,
327,1.60e-02,
328,-8.00e-03,
329,1.60e-02,
330,-8.00e-03,
331,1.60e-02,
332,-8.00e-03,
333,1.60e-02,
334,-8.00e-03,
335,1.60e-02,
336,-8.00e-03,
337,1.60e-02,
338,-8.00e-03,
339,1.60e-02,
340,-1.20e-02,
341,1.60e-02,
342,-8.00e-03,
343,1.60e-02,
344,-8.00e-03,
345,1.60e-02,
346,-8.00e-03,
347,1.60e-02,
348,-8.00e-03,
349,2.00e-02,
350,-8.00e-03,
351,1.60e-02,
352,1.60e-02,
353,-1.20e-02,
354,1.60e-02,
355,-1.20e-02,
356,-8.00e-03,
357,1.60e-02,
358,-8.00e-03,
359,1.60e-02,
360,-8.00e-03,
361,1.60e-02,
362,1.60e-02,
363,-8.00e-03,
364,1.60e-02,
365,-8.00e-03,
366,1.12e-01,
367,-5.60e-02,
368,-8.00e-03,
369,1.60e-02,
370,-8.00e-03,
371,1.60e-02,
372,-8.00e-03,
373,1.60e-02,
374,1.60e-02,
375,-8.00e-03,
376,-8.00e-03,
377,1.60e-02,
378,-8.00e-03,
379,1.60e-02,
380,-8.00e-03,
381,1.60e-02,
382,-8.00e-03,
383,1.60e-02,
384,1.60e-02,
385,-8.00e-03,
386,-1.20e-02,
387,1.60e-02,
388,-8.00e-03,
389,1.60e-02,
390,-8.00e-03,
391,1.60e-02,
392,-8.00e-03,
393,1.60e-02,
394,-8.00e-03,
395,1.60e-02,
396,1.60e-02,
397,-8.00e-03,
398,-8.00e-03,
399,1.60e-02,
400,-8.00e-03,
401,1.60e-02,
402,-8.00e-03,
403,1.60e-02,
404,-8.00e-03,
405,1.60e-02,
406,-8.00e-03,
407,1.60e-02,
408,-8.00e-03,
409,1.60e-02,
410,-8.00e-03,
411,1.60e-02,
412,-8.00e-03,
413,1.60e-02,
414,-8.00e-03,
415,1.60e-02,
416,-8.00e-03,
417,1.60e-02,
418,-8.00e-03,
419,1.60e-02,
420,-1.24e-01,
421,7.60e-02,
422,1.60e-02,
423,-1.20e-02,
424,1.60e-02,
425,-1.20e-02,
426,1.60e-02,
427,-8.00e-03,
428,-8.00e-03,
429,1.60e-02,
430,1.60e-02,
431,-1.20e-02,
432,-8.00e-03,
433,1.60e-02,
434,-8.00e-03,
435,2.00e-02,
436,-8.00e-03,
437,1.60e-02,
438,1.60e-02,
439,-8.00e-03,
440,1.60e-02,
441,-1.20e-02,
442,1.60e-02,
443,-8.00e-03,
444,-8.00e-03,
445,1.60e-02,
446,-8.00e-03,
447,1.60e-02,
448,-8.00e-03,
449,1.60e-02,
450,-8.00e-03,
451,1.60e-02,
452,-8.00e-03,
453,1.60e-02,
454,-8.00e-03,
455,1.60e-02,
456,-8.00e-03,
457,1.60e-02,
458,1.60e-02,
459,-8.00e-03,
460,-8.00e-03,
461,1.60e-02,
462,-8.00e-03,
463,1.60e-02,
464,-8.00e-03,
465,1.60e-02,
466,-8.00e-03,
467,1.60e-02,
468,1.60e-02,
469,-8.00e-03,
470,-8.00e-03,
471,1.60e-02,
472,1.60e-02,
473,-1.52e-01,
474,-8.00e-03,
475,1.60e-02,
476,-8.00e-03,
477,1.60e-02,
478,-8.00e-03,
479,2.00e-02,
480,-8.00e-03,
481,1.60e-02,
482,1.60e-02,
483,-1.20e-02,
484,-8.00e-03,
485,1.60e-02,
486,-8.00e-03,
487,1.60e-02,
488,-8.00e-03,
489,1.60e-02,
490,1.60e-02,
491,-8.00e-03,
492,-8.00e-03,
493,1.60e-02,
494,-8.00e-03,
495,1.60e-02,
496,-8.00e-03,
497,1.60e-02,
498,1.60e-02,
499,-8.00e-03,
500,-8.00e-03,
501,1.60e-02,
502,1.60e-02,
503,-1.20e-02,
504,-8.00e-03,
505,1.60e-02,
506,-1.20e-02,
507,1.60e-02,
508,-8.00e-03,
509,1.60e-02,
510,-8.00e-03,
511,2.00e-02,
512,-8.00e-03,
513,1.60e-02,
514,1.60e-02,
515,-8.00e-03,
516,-8.00e-03,
517,1.60e-02,
518,-8.00e-03,
519,1.60e-02,
520,-8.00e-03,
521,1.60e-02,
522,-8.00e-03,
523,1.60e-02,
524,1.60e-02,
525,-1.20e-02,
526,1.24e-01,
527,-4.00e-02,
528,-8.00e-03,
529,1.60e-02,
530,-8.00e-03,
531,1.60e-02,
532,-8.00e-03,
533,1.60e-02,
534,1.60e-02,
535,-8.00e-03,
536,-8.00e-03,
537,1.60e-02,
538,-8.00e-03,
539,1.60e-02,
540,-8.00e-03,
541,1.60e-02,
542,1.60e-02,
543,-8.00e-03,
544,-8.00e-03,
545,1.60e-02,
546,-8.00e-03,
547,1.60e-02,
548,-8.00e-03,
549,1.60e-02,
550,-8.00e-03,
551,1.60e-02,
552,-8.00e-03,
553,1.60e-02,
554,-8.00e-03,
555,1.60e-02,
556,-8.00e-03,
557,1.60e-02,
558,-8.00e-03,
559,1.60e-02,
560,-8.00e-03,
561,1.60e-02,
562,-8.00e-03,
563,1.60e-02,
564,-8.00e-03,
565,1.60e-02,
566,1.60e-02,
567,-1.20e-02,
568,-8.00e-03,
569,1.60e-02,
570,-8.00e-03,
571,1.60e-02,
572,-8.00e-03,
573,1.60e-02,
574,-8.00e-03,
575,1.60e-02,
576,-8.00e-03,
577,1.60e-02,
578,-6.40e-02,
579,1.60e-02,
580,1.16e-01,
581,-3.20e-02,
582,-8.00e-03,
583,1.60e-02,
584,-8.00e-03,
585,1.60e-02,
586,-8.00e-03,
587,1.60e-02,
588,-8.00e-03,
589,1.60e-02,
590,-8.00e-03,
591,1.60e-02,
592,-8.00e-03,
593,1.60e-02,
594,-8.00e-03,
595,1.60e-02,
596,-8.00e-03,
597,1.60e-02,
598,1.60e-02,
599,-8.00e-03,
600,-8.00e-03,
601,1.60e-02,
602,1.60e-02,
603,-8.00e-03,
604,-8.00e-03,
605,1.60e-02,
606,1.60e-02,
607,-1.20e-02,
608,1.60e-02,
609,-8.00e-03,
610,1.60e-02,
611,-1.20e-02,
612,1.60e-02,
613,-8.00e-03,
614,-8.00e-03,
615,1.60e-02,
616,-8.00e-03,
617,1.60e-02,
618,-8.00e-03,
619,1.60e-02,
620,-8.00e-03,
621,1.60e-02,
622,-8.00e-03,
623,1.60e-02,
624,-8.00e-03,
625,1.60e-02,
626,-8.00e-03,
627,1.60e-02,
628,-8.00e-03,
629,1.60e-02,
630,1.60e-02,
631,-1.20e-02,
632,-1.76e-01,
633,4.80e-02,
634,-8.00e-03,
635,1.60e-02,
636,-8.00e-03,
637,1.60e-02,
638,-8.00e-03,
639,1.60e-02,
640,-8.00e-03,
641,1.60e-02,
642,1.60e-02,
643,-1.20e-02,
644,-8.00e-03,
645,1.60e-02,
646,-8.00e-03,
647,1.60e-02,
648,1.60e-02,
649,-1.20e-02,
650,1.60e-02,
651,-8.00e-03,
652,-8.00e-03,
653,1.60e-02,
654,-8.00e-03,
655,1.60e-02,
656,-8.00e-03,
657,1.60e-02,
658,1.60e-02,
659,-8.00e-03,
660,1.60e-02,
661,-8.00e-03,
662,-8.00e-03,
663,1.60e-02,
664,1.60e-02,
665,-8.00e-03,
666,-8.00e-03,
667,1.60e-02,
668,-8.00e-03,
669,1.60e-02,
670,-8.00e-03,
671,1.60e-02,
672,-8.00e-03,
673,1.60e-02,
674,-8.00e-03,
675,1.60e-02,
676,-8.00e-03,
677,1.60e-02,
678,1.60e-02,
679,-8.00e-03,
680,1.60e-02,
681,-8.00e-03,
682,-8.00e-03,
683,1.60e-02,
684,9.20e-02,
685,-6.40e-02,
686,-1.20e-02,
687,6.40e-02,
688,1.60e-02,
689,-1.20e-02,
690,-8.00e-03,
691,1.60e-02,
692,-8.00e-03,
693,1.60e-02,
694,-8.00e-03,
695,1.60e-02,
696,-8.00e-03,
697,1.60e-02,
698,-8.00e-03,
699,1.60e-02,
700,-8.00e-03,
701,1.60e-02,
702,-8.00e-03,
703,1.60e-02,
704,1.60e-02,
705,-1.20e-02,
706,1.60e-02,
707,-8.00e-03,
708,-8.00e-03,
709,2.00e-02,
710,-8.00e-03,
711,1.60e-02,
712,-8.00e-03,
713,1.60e-02,
714,-8.00e-03,
715,1.60e-02,
716,-8.00e-03,
717,1.60e-02,
718,-8.00e-03,
719,1.60e-02,
720,-8.00e-03,
721,1.60e-02,
722,-8.00e-03,
723,1.60e-02,
724,-8.00e-03,
725,1.60e-02,
726,-8.00e-03,
727,1.60e-02,
728,-8.00e-03,
729,1.60e-02,
730,-8.00e-03,
731,1.60e-02,
732,-8.00e-03,
733,1.60e-02,
734,-8.00e-03,
735,1.60e-02,
736,-8.00e-03,
737,1.60e-02,
738,-1.28e-01,
739,2.00e-02,
740,-8.00e-03,
741,1.60e-02,
742,1.60e-02,
743,-8.00e-03,
744,1.60e-02,
745,-8.00e-03,
746,1.60e-02,
747,-8.00e-03,
748,-8.00e-03,
749,1.60e-02,
750,-8.00e-03,
751,1.60e-02,
752,-8.00e-03,
753,1.60e-02,
754,-8.00e-03,
755,1.60e-02,
756,-8.00e-03,
757,1.60e-02,
758,-8.00e-03,
759,1.60e-02,
760,-8.00e-03,
761,1.60e-02,
762,-8.00e-03,
763,1.60e-02,
764,-8.00e-03,
765,1.60e-02,
766,-8.00e-03,
767,1.60e-02,
768,-8.00e-03,
769,1.60e-02,
770,2.00e-02,
771,-8.00e-03,
772,-8.00e-03,
773,1.60e-02,
774,-8.00e-03,
775,1.60e-02,
776,-8.00e-03,
777,1.60e-02,
778,-8.00e-03,
779,1.60e-02,
780,-8.00e-03,
781,1.60e-02,
782,1.60e-02,
783,-8.00e-03,
784,-8.00e-03,
785,1.60e-02,
786,-8.00e-03,
787,1.60e-02,
788,-8.00e-03,
789,1.60e-02,
790,1.60e-02,
791,-7.60e-02,
792,1.60e-02,
793,-3.60e-02,
794,1.60e-02,
795,-8.00e-03,
796,-8.00e-03,
797,1.60e-02,
798,-8.00e-03,
799,1.60e-02,
800,-8.00e-03,
801,1.60e-02,
802,-8.00e-03,
803,1.60e-02,
804,-8.00e-03,
805,1.60e-02,
806,-1.20e-02,
807,1.60e-02,
808,1.60e-02,
809,-1.20e-02,
810,-1.20e-02,
811,1.60e-02,
812,1.60e-02,
813,-1.20e-02,
814,1.60e-02,
815,-1.20e-02,
816,1.60e-02,
817,-8.00e-03,
818,-8.00e-03,
819,1.60e-02,
820,-8.00e-03,
821,1.60e-02,
822,1.60e-02,
823,-8.00e-03,
824,-8.00e-03,
825,1.60e-02,
826,1.60e-02,
827,-8.00e-03,
828,-8.00e-03,
829,1.60e-02,
830,-8.00e-03,
831,1.60e-02,
832,1.60e-02,
833,-8.00e-03,
834,-8.00e-03,
835,2.00e-02,
836,1.60e-02,
837,-8.00e-03,
838,-8.00e-03,
839,1.60e-02,
840,-8.00e-03,
841,1.60e-02,
842,-8.00e-03,
843,1.60e-02,
844,-4.80e-02,
845,6.00e-02,
846,-8.00e-03,
847,1.60e-02,
848,-8.00e-03,
849,1.60e-02,
850,-8.00e-03,
851,1.60e-02,
852,-8.00e-03,
853,1.60e-02,
854,-8.00e-03,
855,1.60e-02,
856,-8.00e-03,
857,1.60e-02,
858,-8.00e-03,
859,1.60e-02,
860,-8.00e-03,
861,1.60e-02,
862,1.60e-02,
863,-8.00e-03,
864,1.60e-02,
865,-8.00e-03,
866,-8.00e-03,
867,1.60e-02,
868,-8.00e-03,
869,1.60e-02,
870,-8.00e-03,
871,1.60e-02,
872,-8.00e-03,
873,1.60e-02,
874,-8.00e-03,
875,1.60e-02,
876,-8.00e-03,
877,1.60e-02,
878,-8.00e-03,
879,1.60e-02,
880,1.60e-02,
881,-8.00e-03,
882,-8.00e-03,
883,1.60e-02,
884,-8.00e-03,
885,1.60e-02,
886,-8.00e-03,
887,1.60e-02,
888,-8.00e-03,
889,1.60e-02,
890,1.60e-02,
891,-1.20e-02,
892,1.60e-02,
893,-1.20e-02,
894,-8.00e-03,
895,1.60e-02,
896,-8.00e-03,
897,1.60e-02,
898,-5.20e-02,
899,6.00e-02,
900,-8.00e-03,
901,1.60e-02,
902,-8.00e-03,
903,1.60e-02,
904,-8.00e-03,
905,1.60e-02,
906,-1.20e-02,
907,1.60e-02,
908,-8.00e-03,
909,1.60e-02,
910,-8.00e-03,
911,1.60e-02,
912,1.60e-02,
913,-8.00e-03,
914,-8.00e-03,
915,1.60e-02,
916,-8.00e-03,
917,1.60e-02,
918,-8.00e-03,
919,1.60e-02,
920,-8.00e-03,
921,1.60e-02,
922,-8.00e-03,
923,1.60e-02,
924,-8.00e-03,
925,1.60e-02,
926,-8.00e-03,
927,2.00e-02,
928,1.60e-02,
929,-1.20e-02,
930,-8.00e-03,
931,1.60e-02,
932,1.60e-02,
933,-1.20e-02,
934,-8.00e-03,
935,1.60e-02,
936,-8.00e-03,
937,1.60e-02,
938,-8.00e-03,
939,1.60e-02,
940,1.60e-02,
941,-1.20e-02,
942,-8.00e-03,
943,1.60e-02,
944,1.60e-02,
945,-8.00e-03,
946,-8.00e-03,
947,1.60e-02,
948,-8.00e-03,
949,1.60e-02,
950,1.60e-02,
951,-1.20e-02,
952,-1.16e-01,
953,6.80e-02,
954,-8.00e-03,
955,1.60e-02,
956,-8.00e-03,
957,1.60e-02,
958,-8.00e-03,
959,1.60e-02,
960,-8.00e-03,
961,1.60e-02,
962,-8.00e-03,
963,1.60e-02,
964,-8.00e-03,
965,1.60e-02,
966,1.60e-02,
967,-1.20e-02,
968,1.60e-02,
969,-8.00e-03,
970,-8.00e-03,
971,1.60e-02,
972,1.60e-02,
973,-8.00e-03,
974,-8.00e-03,
975,1.60e-02,
976,-1.20e-02,
977,1.60e-02,
978,-8.00e-03,
979,1.60e-02,
980,-8.00e-03,
981,1.60e-02,
982,-8.00e-03,
983,1.60e-02,
984,-8.00e-03,
985,1.60e-02,
986,1.60e-02,
987,-1.20e-02,
988,-1.20e-02,
989,1.60e-02,
990,-8.00e-03,
991,1.60e-02,
992,-8.00e-03,
993,1.60e-02,
994,-8.00e-03,
995,1.60e-02,
996,-8.00e-03,
997,1.60e-02,
998,-8.00e-03,
999,1.60e-02,
1000,-8.00e-03,
1001,1.60e-02,
1002,-8.00e-03,
1003,2.00e-02,
1004,-6.80e-02,
1005,5.60e-02,
1006,-8.00e-03,
1007,1.60e-02,
1008,1.60e-02,
1009,-1.20e-02,
1010,-8.00e-03,
1011,1.60e-02,
1012,-8.00e-03,
1013,1.60e-02,
1014,-8.00e-03,
1015,1.60e-02,
1016,-1.20e-02,
1017,1.60e-02,
1018,1.60e-02,
1019,-8.00e-03,
1020,-8.00e-03,
1021,1.60e-02,
1022,-8.00e-03,
1023,1.60e-02,
1024,1.60e-02,
1025,-1.20e-02,
1026,-8.00e-03,
1027,1.60e-02,
1028,-8.00e-03,
1029,1.60e-02,
1030,-8.00e-03,
1031,1.60e-02,
1032,-8.00e-03,
1033,1.60e-02,
1034,-8.00e-03,
1035,1.60e-02,
1036,1.60e-02,
1037,-8.00e-03,
1038,-8.00e-03,
1039,1.60e-02,
1040,-8.00e-03,
1041,1.60e-02,
1042,-8.00e-03,
1043,1.20e-02,
1044,-8.00e-03,
1045,1.60e-02,
1046,-8.00e-03,
1047,1.60e-02,
1048,-8.00e-03,
1049,1.60e-02,
1050,-8.00e-03,
1051,1.20e-02,
1052,-8.00e-03,
1053,1.60e-02,
1054,-8.00e-03,
1055,1.60e-02,
1056,-8.00e-03,
1057,1.60e-02,
1058,1.08e-01,
1059,-4.00e-02,
1060,1.60e-02,
1061,-1.20e-02,
1062,-8.00e-03,
1063,1.60e-02,
1064,-1.20e-02,
1065,1.60e-02,
1066,-8.00e-03,
1067,1.60e-02,
1068,-8.00e-03,
1069,1.60e-02,
1070,-8.00e-03,
1071,1.60e-02,
1072,-8.00e-03,
1073,1.60e-02,
1074,1.60e-02,
1075,-8.00e-03,
1076,1.60e-02,
1077,-8.00e-03,
1078,-8.00e-03,
1079,1.60e-02,
1080,1.60e-02,
1081,-8.00e-03,
1082,1.60e-02,
1083,-8.00e-03,
1084,1.20e-02,
1085,-8.00e-03,
1086,-8.00e-03,
1087,1.60e-02,
1088,-8.00e-03,
1089,1.60e-02,
1090,-8.00e-03,
1091,1.60e-02,
1092,1.60e-02,
1093,-1.20e-02,
1094,-8.00e-03,
1095,1.60e-02,
1096,-8.00e-03,
1097,1.60e-02,
1098,-8.00e-03,
1099,1.60e-02,
1100,-1.20e-02,
1101,1.60e-02,
1102,-8.00e-03,
1103,1.60e-02,
1104,1.60e-02,
1105,-1.20e-02,
1106,1.60e-02,
1107,-1.60e-02,
1108,-8.00e-03,
1109,2.00e-02,
1110,8.00e-02,
1111,-1.60e-02,
1112,-8.00e-03,
1113,1.60e-02,
1114,-8.00e-03,
1115,1.60e-02,
1116,-8.00e-03,
1117,1.60e-02,
1118,-8.00e-03,
1119,1.60e-02,
1120,-8.00e-03,
1121,1.60e-02,
1122,-8.00e-03,
1123,1.60e-02,
1124,-8.00e-03,
1125,1.60e-02,
1126,-8.00e-03,
1127,1.60e-02,
1128,-8.00e-03,
1129,2.00e-02,
1130,-8.00e-03,
1131,1.60e-02,
1132,-8.00e-03,
1133,1.60e-02,
1134,1.60e-02,
1135,-8.00e-03,
1136,1.60e-02,
1137,-8.00e-03,
1138,-8.00e-03,
1139,1.60e-02,
1140,-8.00e-03,
1141,1.60e-02,
1142,-8.00e-03,
1143,1.60e-02,
1144,1.60e-02,
1145,-8.00e-03,
1146,-8.00e-03,
1147,1.60e-02,
1148,1.60e-02,
1149,-8.00e-03,
1150,1.60e-02,
1151,-1.20e-02,
1152,-1.20e-02,
1153,1.60e-02,
1154,-8.00e-03,
1155,1.60e-02,
1156,-8.00e-03,
1157,1.60e-02,
1158,-8.00e-03,
1159,1.60e-02,
1160,-8.00e-03,
1161,1.60e-02,
1162,-8.00e-03,
1163,1.60e-02,
1164,1.16e-01,
1165,-3.20e-02,
1166,1.60e-02,
1167,-1.20e-02,
1168,1.60e-02,
1169,-8.00e-03,
1170,-8.00e-03,
1171,1.60e-02,
1172,-8.00e-03,
1173,1.60e-02,
1174,-8.00e-03,
1175,1.60e-02,
1176,-8.00e-03,
1177,1.60e-02,
1178,-8.00e-03,
1179,1.60e-02,
1180,-8.00e-03,
1181,2.00e-02,
1182,-8.00e-03,
1183,1.60e-02,
1184,1.60e-02,
1185,-8.00e-03,
1186,-8.00e-03,
1187,1.60e-02,
1188,-8.00e-03,
1189,1.60e-02,
1190,-8.00e-03,
1191,1.60e-02,
1192,1.60e-02,
1193,-8.00e-03,
1194,-8.00e-03,
1195,1.60e-02,
1196,-8.00e-03,
1197,1.60e-02,
1198,-8.00e-03,
1199,1.60e-02,
