Laptop_2/LAPTOP_CHRGR_2_OFF/time domain/NewFile34.csv

X,CH1,Start,Increment,
Sequence,Volt,-1.500000e-01,2.000000e-04
0,1.60e-02,
1,-1.20e-02,
2,1.60e-02,
3,-1.20e-02,
4,1.60e-02,
5,-1.20e-02,
6,1.60e-02,
7,-1.20e-02,
8,1.60e-02,
9,-1.20e-02,
10,1.60e-02,
11,-1.20e-02,
12,4.00e-02,
13,-6.00e-02,
14,1.60e-02,
15,-1.20e-02,
16,1.60e-02,
17,-1.20e-02,
18,-1.20e-02,
19,2.00e-02,
20,1.60e-02,
21,-1.20e-02,
22,1.60e-02,
23,-1.20e-02,
24,1.60e-02,
25,-1.20e-02,
26,2.00e-02,
27,-1.20e-02,
28,1.60e-02,
29,-1.20e-02,
30,1.60e-02,
31,-8.00e-03,
32,1.60e-02,
33,-1.20e-02,
34,1.60e-02,
35,-1.20e-02,
36,-1.20e-02,
37,1.60e-02,
38,1.60e-02,
39,-1.20e-02,
40,1.60e-02,
41,-1.20e-02,
42,-8.00e-03,
43,1.60e-02,
44,-8.00e-03,
45,1.60e-02,
46,-8.00e-03,
47,1.60e-02,
48,1.60e-02,
49,-1.20e-02,
50,-8.00e-03,
51,1.60e-02,
52,1.60e-02,
53,-1.20e-02,
54,1.60e-02,
55,-1.20e-02,
56,-8.00e-03,
57,1.60e-02,
58,1.60e-02,
59,-1.20e-02,
60,1.60e-02,
61,-1.20e-02,
62,1.60e-02,
63,-1.20e-02,
64,-1.60e-02,
65,4.80e-02,
66,-4.00e-02,
67,2.00e-02,
68,1.60e-02,
69,-1.20e-02,
70,-1.20e-02,
71,2.00e-02,
72,-1.20e-02,
73,2.00e-02,
74,-8.00e-03,
75,2.00e-02,
76,1.60e-02,
77,-1.20e-02,
78,-8.00e-03,
79,1.60e-02,
80,-8.00e-03,
81,1.60e-02,
82,1.60e-02,
83,-1.20e-02,
84,1.60e-02,
85,-1.20e-02,
86,1.60e-02,
87,-1.20e-02,
88,1.60e-02,
89,-1.20e-02,
90,1.60e-02,
91,-1.20e-02,
92,1.60e-02,
93,-1.20e-02,
94,-8.00e-03,
95,2.00e-02,
96,1.60e-02,
97,-1.20e-02,
98,1.60e-02,
99,-8.00e-03,
100,-1.20e-02,
101,2.00e-02,
102,-8.00e-03,
103,1.60e-02,
104,-8.00e-03,
105,2.00e-02,
106,-1.20e-02,
107,2.00e-02,
108,-8.00e-03,
109,2.00e-02,
110,-1.20e-02,
111,1.60e-02,
112,2.00e-02,
113,-1.20e-02,
114,-8.00e-03,
115,1.60e-02,
116,-8.00e-03,
117,1.60e-02,
118,9.20e-02,
119,-4.40e-02,
120,1.60e-02,
121,-1.20e-02,
122,1.60e-02,
123,-1.20e-02,
124,-8.00e-03,
125,1.60e-02,
126,-8.00e-03,
127,1.60e-02,
128,1.60e-02,
129,-1.20e-02,
130,1.60e-02,
131,-8.00e-03,
132,1.60e-02,
133,-1.20e-02,
134,-8.00e-03,
135,2.00e-02,
136,1.60e-02,
137,-1.20e-02,
138,1.60e-02,
139,-1.20e-02,
140,-8.00e-03,
141,1.60e-02,
142,-8.00e-03,
143,1.60e-02,
144,1.60e-02,
145,-8.00e-03,
146,-8.00e-03,
147,1.60e-02,
148,-8.00e-03,
149,1.60e-02,
150,-8.00e-03,
151,2.00e-02,
152,-8.00e-03,
153,1.60e-02,
154,1.60e-02,
155,-8.00e-03,
156,1.60e-02,
157,-8.00e-03,
158,-8.00e-03,
159,1.60e-02,
160,1.60e-02,
161,-1.20e-02,
162,-8.00e-03,
163,1.60e-02,
164,-8.00e-03,
165,1.60e-02,
166,-1.20e-02,
167,1.60e-02,
168,1.60e-02,
169,-1.20e-02,
170,-7.20e-02,
171,8.40e-02,
172,1.60e-02,
173,-1.20e-02,
174,-1.20e-02,
175,1.60e-02,
176,-8.00e-03,
177,1.60e-02,
178,-8.00e-03,
179,1.60e-02,
180,-1.20e-02,
181,2.00e-02,
182,-8.00e-03,
183,1.60e-02,
184,-8.00e-03,
185,2.00e-02,
186,-8.00e-03,
187,2.00e-02,
188,-8.00e-03,
189,1.60e-02,
190,-8.00e-03,
191,1.60e-02,
192,1.60e-02,
193,-1.20e-02,
194,1.60e-02,
195,-1.20e-02,
196,-8.00e-03,
197,1.60e-02,
198,-8.00e-03,
199,1.60e-02,
200,-1.20e-02,
201,1.60e-02,
202,1.60e-02,
203,-1.20e-02,
204,-8.00e-03,
205,1.60e-02,
206,1.60e-02,
207,-1.20e-02,
208,1.60e-02,
209,-1.20e-02,
210,1.60e-02,
211,-1.20e-02,
212,1.60e-02,
213,-1.20e-02,
214,-8.00e-03,
215,1.60e-02,
216,-8.00e-03,
217,1.60e-02,
218,1.60e-02,
219,-1.20e-02,
220,-8.00e-03,
221,1.60e-02,
222,4.80e-02,
223,-4.00e-02,
224,1.60e-02,
225,-1.20e-02,
226,-8.00e-03,
227,1.60e-02,
228,1.60e-02,
229,-1.20e-02,
230,1.60e-02,
231,-1.20e-02,
232,1.60e-02,
233,-1.20e-02,
234,1.60e-02,
235,-8.00e-03,
236,1.60e-02,
237,-1.20e-02,
238,1.60e-02,
239,-1.20e-02,
240,1.60e-02,
241,-1.20e-02,
242,1.60e-02,
243,-1.20e-02,
244,1.60e-02,
245,-8.00e-03,
246,1.60e-02,
247,-1.20e-02,
248,1.60e-02,
249,-1.20e-02,
250,-8.00e-03,
251,1.60e-02,
252,1.60e-02,
253,-1.20e-02,
254,1.60e-02,
255,-1.20e-02,
256,1.60e-02,
257,-1.20e-02,
258,1.60e-02,
259,-1.20e-02,
260,1.60e-02,
261,-1.20e-02,
262,1.60e-02,
263,-1.20e-02,
264,1.60e-02,
265,-1.20e-02,
266,1.60e-02,
267,-1.20e-02,
268,1.60e-02,
269,-8.00e-03,
270,1.60e-02,
271,-1.20e-02,
272,-1.20e-02,
273,1.60e-02,
274,-8.00e-03,
275,2.00e-02,
276,-1.56e-01,
277,6.00e-02,
278,-8.00e-03,
279,1.60e-02,
280,-1.20e-02,
281,2.00e-02,
282,1.60e-02,
283,-8.00e-03,
284,-1.20e-02,
285,1.60e-02,
286,-8.00e-03,
287,1.60e-02,
288,1.60e-02,
289,-1.20e-02,
290,-8.00e-03,
291,1.60e-02,
292,-8.00e-03,
293,1.60e-02,
294,-8.00e-03,
295,1.60e-02,
296,1.60e-02,
297,-1.20e-02,
298,-8.00e-03,
299,1.60e-02,
300,-1.20e-02,
301,2.00e-02,
302,1.60e-02,
303,-1.20e-02,
304,1.60e-02,
305,-1.20e-02,
306,1.60e-02,
307,-1.20e-02,
308,-1.20e-02,
309,2.00e-02,
310,1.60e-02,
311,-1.20e-02,
312,-8.00e-03,
313,1.60e-02,
314,-1.20e-02,
315,2.00e-02,
316,1.60e-02,
317,-8.00e-03,
318,1.60e-02,
319,-1.20e-02,
320,1.60e-02,
321,-1.20e-02,
322,1.60e-02,
323,-1.20e-02,
324,1.60e-02,
325,-1.20e-02,
326,-8.00e-03,
327,1.60e-02,
328,-1.36e-01,
329,6.40e-02,
330,-8.00e-03,
331,1.60e-02,
332,1.60e-02,
333,-1.20e-02,
334,1.60e-02,
335,-8.00e-03,
336,-8.00e-03,
337,1.60e-02,
338,-8.00e-03,
339,1.60e-02,
340,-1.20e-02,
341,2.00e-02,
342,1.60e-02,
343,-1.20e-02,
344,-1.20e-02,
345,2.00e-02,
346,-8.00e-03,
347,2.00e-02,
348,-8.00e-03,
349,1.60e-02,
350,-1.20e-02,
351,2.00e-02,
352,1.60e-02,
353,-1.20e-02,
354,2.00e-02,
355,-1.20e-02,
356,1.60e-02,
357,-1.20e-02,
358,1.60e-02,
359,-1.20e-02,
360,1.60e-02,
361,-1.20e-02,
362,-8.00e-03,
363,1.60e-02,
364,2.00e-02,
365,-1.20e-02,
366,-8.00e-03,
367,1.60e-02,
368,1.60e-02,
369,-1.20e-02,
370,1.60e-02,
371,-8.00e-03,
372,-8.00e-03,
373,1.60e-02,
374,1.60e-02,
375,-1.20e-02,
376,1.60e-02,
377,-1.20e-02,
378,-8.00e-03,
379,1.60e-02,
380,-5.60e-02,
381,3.60e-02,
382,1.60e-02,
383,-1.20e-02,
384,1.60e-02,
385,-1.20e-02,
386,1.60e-02,
387,-1.20e-02,
388,-8.00e-03,
389,1.60e-02,
390,-8.00e-03,
391,2.00e-02,
392,1.60e-02,
393,-1.20e-02,
394,1.60e-02,
395,-1.20e-02,
396,1.60e-02,
397,-1.20e-02,
398,1.60e-02,
399,-8.00e-03,
400,-8.00e-03,
401,1.60e-02,
402,-8.00e-03,
403,1.60e-02,
404,-1.20e-02,
405,1.60e-02,
406,-8.00e-03,
407,1.60e-02,
408,-8.00e-03,
409,1.60e-02,
410,1.60e-02,
411,-1.20e-02,
412,-1.20e-02,
413,1.60e-02,
414,1.60e-02,
415,-1.20e-02,
416,-8.00e-03,
417,1.60e-02,
418,1.60e-02,
419,-1.20e-02,
420,1.60e-02,
421,-1.20e-02,
422,1.60e-02,
423,-1.20e-02,
424,1.60e-02,
425,-1.20e-02,
426,1.60e-02,
427,-8.00e-03,
428,-8.00e-03,
429,1.60e-02,
430,-8.00e-03,
431,2.00e-02,
432,1.60e-02,
433,-1.20e-02,
434,1.16e-01,
435,-6.00e-02,
436,-1.20e-02,
437,2.00e-02,
438,1.60e-02,
439,-1.20e-02,
440,1.60e-02,
441,-1.60e-02,
442,1.60e-02,
443,-1.20e-02,
444,-8.00e-03,
445,1.60e-02,
446,-8.00e-03,
447,1.60e-02,
448,-8.00e-03,
449,1.60e-02,
450,-8.00e-03,
451,1.60e-02,
452,1.60e-02,
453,-1.20e-02,
454,-8.00e-03,
455,1.60e-02,
456,1.60e-02,
457,-1.20e-02,
458,-8.00e-03,
459,2.00e-02,
460,1.60e-02,
461,-8.00e-03,
462,-8.00e-03,
463,1.60e-02,
464,2.00e-02,
465,-8.00e-03,
466,-1.20e-02,
467,1.60e-02,
468,-8.00e-03,
469,2.00e-02,
470,1.60e-02,
471,-1.20e-02,
472,-8.00e-03,
473,1.60e-02,
474,1.60e-02,
475,-1.20e-02,
476,1.60e-02,
477,-1.20e-02,
478,-8.00e-03,
479,1.60e-02,
480,1.60e-02,
481,-1.20e-02,
482,-1.20e-02,
483,2.00e-02,
484,-1.20e-02,
485,1.60e-02,
486,-3.60e-02,
487,9.20e-02,
488,1.60e-02,
489,-1.20e-02,
490,1.60e-02,
491,-1.20e-02,
492,-8.00e-03,
493,1.60e-02,
494,-8.00e-03,
495,1.60e-02,
496,1.60e-02,
497,-1.20e-02,
498,-8.00e-03,
499,1.60e-02,
500,-8.00e-03,
501,1.60e-02,
502,2.00e-02,
503,-1.20e-02,
504,1.60e-02,
505,-1.20e-02,
506,1.60e-02,
507,-1.20e-02,
508,-8.00e-03,
509,2.00e-02,
510,1.60e-02,
511,-8.00e-03,
512,-8.00e-03,
513,2.00e-02,
514,1.60e-02,
515,-8.00e-03,
516,-8.00e-03,
517,1.60e-02,
518,-8.00e-03,
519,1.60e-02,
520,1.60e-02,
521,-1.20e-02,
522,1.60e-02,
523,-1.20e-02,
524,1.60e-02,
525,-1.20e-02,
526,1.60e-02,
527,-1.20e-02,
528,1.60e-02,
529,-8.00e-03,
530,-8.00e-03,
531,1.60e-02,
532,1.60e-02,
533,-1.20e-02,
534,-8.00e-03,
535,1.60e-02,
536,1.60e-02,
537,-1.20e-02,
538,-2.00e-02,
539,7.60e-02,
540,2.00e-02,
541,-1.20e-02,
542,1.60e-02,
543,-8.00e-03,
544,1.60e-02,
545,-1.20e-02,
546,1.60e-02,
547,-1.20e-02,
548,1.60e-02,
549,-1.20e-02,
550,-8.00e-03,
551,2.00e-02,
552,-8.00e-03,
553,2.00e-02,
554,1.60e-02,
555,-1.20e-02,
556,-8.00e-03,
557,1.60e-02,
558,-8.00e-03,
559,1.60e-02,
560,1.60e-02,
561,-1.20e-02,
562,1.60e-02,
563,-1.20e-02,
564,1.60e-02,
565,-1.20e-02,
566,1.60e-02,
567,-1.20e-02,
568,1.60e-02,
569,-1.20e-02,
570,-8.00e-03,
571,1.60e-02,
572,-8.00e-03,
573,2.00e-02,
574,1.60e-02,
575,-1.20e-02,
576,1.60e-02,
577,-1.20e-02,
578,1.60e-02,
579,-1.20e-02,
580,-1.20e-02,
581,2.00e-02,
582,1.60e-02,
583,-1.20e-02,
584,-1.20e-02,
585,1.60e-02,
586,1.60e-02,
587,-1.20e-02,
588,-8.00e-03,
589,1.60e-02,
590,1.48e-01,
591,-2.80e-02,
592,-1.20e-02,
593,2.00e-02,
594,-8.00e-03,
595,1.60e-02,
596,-8.00e-03,
597,1.60e-02,
598,1.60e-02,
599,-1.20e-02,
600,-1.20e-02,
601,2.00e-02,
602,1.60e-02,
603,-1.20e-02,
604,-1.20e-02,
605,2.00e-02,
606,1.60e-02,
607,-1.20e-02,
608,1.60e-02,
609,-1.20e-02,
610,-8.00e-03,
611,1.60e-02,
612,-8.00e-03,
613,2.00e-02,
614,1.60e-02,
615,-8.00e-03,
616,-8.00e-03,
617,1.60e-02,
618,-8.00e-03,
619,2.00e-02,
620,-8.00e-03,
621,2.00e-02,
622,1.60e-02,
623,-8.00e-03,
624,-8.00e-03,
625,1.60e-02,
626,-8.00e-03,
627,1.60e-02,
628,-8.00e-03,
629,2.00e-02,
630,1.60e-02,
631,-8.00e-03,
632,-8.00e-03,
633,1.60e-02,
634,-8.00e-03,
635,1.60e-02,
636,-8.00e-03,
637,1.60e-02,
638,-8.00e-03,
639,2.00e-02,
640,1.60e-02,
641,-8.00e-03,
642,1.60e-02,
643,-8.00e-03,
644,7.20e-02,
645,-5.20e-02,
646,1.60e-02,
647,-8.00e-03,
648,1.60e-02,
649,-1.60e-02,
650,-8.00e-03,
651,1.60e-02,
652,1.60e-02,
653,-1.20e-02,
654,1.60e-02,
655,-8.00e-03,
656,1.60e-02,
657,-1.20e-02,
658,-8.00e-03,
659,1.60e-02,
660,1.60e-02,
661,-1.20e-02,
662,1.60e-02,
663,-1.20e-02,
664,-8.00e-03,
665,1.60e-02,
666,1.60e-02,
667,-1.20e-02,
668,-8.00e-03,
669,1.60e-02,
670,2.00e-02,
671,-1.20e-02,
672,-8.00e-03,
673,1.60e-02,
674,1.60e-02,
675,-8.00e-03,
676,1.60e-02,
677,-1.20e-02,
678,1.60e-02,
679,-8.00e-03,
680,1.60e-02,
681,-1.20e-02,
682,-8.00e-03,
683,1.60e-02,
684,1.60e-02,
685,-1.20e-02,
686,1.60e-02,
687,-1.60e-02,
688,-8.00e-03,
689,2.00e-02,
690,1.60e-02,
691,-1.20e-02,
692,1.60e-02,
693,-1.20e-02,
694,-8.00e-03,
695,1.60e-02,
696,-8.40e-02,
697,2.80e-02,
698,-1.20e-02,
699,1.60e-02,
700,1.60e-02,
701,-1.20e-02,
702,-1.20e-02,
703,2.00e-02,
704,-8.00e-03,
705,1.60e-02,
706,-8.00e-03,
707,1.60e-02,
708,1.60e-02,
709,-1.20e-02,
710,1.60e-02,
711,-1.20e-02,
712,1.60e-02,
713,-1.20e-02,
714,1.60e-02,
715,-1.20e-02,
716,1.60e-02,
717,-1.20e-02,
718,1.60e-02,
719,-8.00e-03,
720,-8.00e-03,
721,1.60e-02,
722,-8.00e-03,
723,1.60e-02,
724,1.60e-02,
725,-1.20e-02,
726,1.60e-02,
727,-1.20e-02,
728,-8.00e-03,
729,1.60e-02,
730,1.60e-02,
731,-1.20e-02,
732,1.60e-02,
733,-1.20e-02,
734,1.60e-02,
735,-1.20e-02,
736,1.60e-02,
737,-1.20e-02,
738,1.60e-02,
739,-1.20e-02,
740,-8.00e-03,
741,1.60e-02,
742,1.60e-02,
743,-8.00e-03,
744,1.60e-02,
745,-1.20e-02,
746,1.60e-02,
747,-1.20e-02,
748,1.60e-01,
749,-4.40e-02,
750,1.60e-02,
751,-1.20e-02,
752,1.60e-02,
753,-8.00e-03,
754,-8.00e-03,
755,1.60e-02,
756,1.60e-02,
757,-1.20e-02,
758,1.60e-02,
759,-1.20e-02,
760,-8.00e-03,
761,1.60e-02,
762,-8.00e-03,
763,1.60e-02,
764,1.60e-02,
765,-1.20e-02,
766,2.00e-02,
767,-8.00e-03,
768,-8.00e-03,
769,1.60e-02,
770,1.60e-02,
771,-1.20e-02,
772,1.60e-02,
773,-1.20e-02,
774,1.60e-02,
775,-1.20e-02,
776,1.60e-02,
777,-1.20e-02,
778,1.60e-02,
779,-1.20e-02,
780,1.60e-02,
781,-1.20e-02,
782,-8.00e-03,
783,1.60e-02,
784,1.60e-02,
785,-8.00e-03,
786,1.60e-02,
787,-1.20e-02,
788,1.60e-02,
789,-1.20e-02,
790,1.60e-02,
791,-1.20e-02,
792,-8.00e-03,
793,1.60e-02,
794,-8.00e-03,
795,1.60e-02,
796,-8.00e-03,
797,1.60e-02,
798,1.60e-02,
799,-1.20e-02,
800,8.80e-02,
801,-4.00e-02,
802,-8.00e-03,
803,1.60e-02,
804,1.60e-02,
805,-1.20e-02,
806,1.60e-02,
807,-1.20e-02,
808,1.60e-02,
809,-1.20e-02,
810,1.60e-02,
811,-1.20e-02,
812,-1.20e-02,
813,1.60e-02,
814,1.60e-02,
815,-1.20e-02,
816,-8.00e-03,
817,1.60e-02,
818,1.60e-02,
819,-1.20e-02,
820,-8.00e-03,
821,1.60e-02,
822,1.60e-02,
823,-1.20e-02,
824,1.60e-02,
825,-8.00e-03,
826,-8.00e-03,
827,2.00e-02,
828,1.60e-02,
829,-1.20e-02,
830,1.60e-02,
831,-8.00e-03,
832,1.60e-02,
833,-8.00e-03,
834,1.60e-02,
835,-1.20e-02,
836,1.60e-02,
837,-1.20e-02,
838,-1.20e-02,
839,1.60e-02,
840,1.60e-02,
841,-1.20e-02,
842,-8.00e-03,
843,1.60e-02,
844,1.60e-02,
845,-1.20e-02,
846,1.60e-02,
847,-1.20e-02,
848,2.00e-02,
849,-1.20e-02,
850,1.60e-02,
851,-8.00e-03,
852,1.60e-02,
853,-1.20e-02,
854,-1.48e-01,
855,3.20e-02,
856,1.60e-02,
857,-1.20e-02,
858,-8.00e-03,
859,1.60e-02,
860,-8.00e-03,
861,1.60e-02,
862,-8.00e-03,
863,1.60e-02,
864,-8.00e-03,
865,1.60e-02,
866,1.60e-02,
867,-1.20e-02,
868,-8.00e-03,
869,1.60e-02,
870,1.60e-02,
871,-1.20e-02,
872,1.60e-02,
873,-1.20e-02,
874,1.60e-02,
875,-1.20e-02,
876,1.60e-02,
877,-1.20e-02,
878,1.60e-02,
879,-1.20e-02,
880,-1.20e-02,
881,2.00e-02,
882,1.60e-02,
883,-1.20e-02,
884,1.60e-02,
885,-1.20e-02,
886,1.60e-02,
887,-1.20e-02,
888,-8.00e-03,
889,1.60e-02,
890,1.60e-02,
891,-8.00e-03,
892,-8.00e-03,
893,2.00e-02,
894,-8.00e-03,
895,1.60e-02,
896,-1.20e-02,
897,1.60e-02,
898,1.60e-02,
899,-1.20e-02,
900,1.60e-02,
901,-1.20e-02,
902,-8.00e-03,
903,1.60e-02,
904,2.00e-02,
905,-1.20e-02,
906,1.24e-01,
907,-6.80e-02,
908,-8.00e-03,
909,1.60e-02,
910,1.60e-02,
911,-1.20e-02,
912,1.60e-02,
913,-1.20e-02,
914,-8.00e-03,
915,1.60e-02,
916,1.60e-02,
917,-1.20e-02,
918,1.60e-02,
919,-1.20e-02,
920,-8.00e-03,
921,1.60e-02,
922,1.60e-02,
923,-1.20e-02,
924,1.60e-02,
925,-1.20e-02,
926,1.60e-02,
927,-1.20e-02,
928,-1.20e-02,
929,1.60e-02,
930,1.60e-02,
931,-1.20e-02,
932,1.60e-02,
933,-1.20e-02,
934,1.60e-02,
935,-1.20e-02,
936,1.60e-02,
937,-1.20e-02,
938,1.60e-02,
939,-1.20e-02,
940,-8.00e-03,
941,2.00e-02,
942,1.60e-02,
943,-1.20e-02,
944,1.60e-02,
945,-1.20e-02,
946,-1.20e-02,
947,1.60e-02,
948,-8.00e-03,
949,1.60e-02,
950,-1.20e-02,
951,2.00e-02,
952,1.60e-02,
953,-1.20e-02,
954,1.60e-02,
955,-1.20e-02,
956,1.60e-02,
957,-8.00e-03,
958,-5.20e-02,
959,7.60e-02,
960,1.60e-02,
961,-1.20e-02,
962,1.60e-02,
963,-1.20e-02,
964,1.60e-02,
965,-1.20e-02,
966,1.60e-02,
967,-1.20e-02,
968,1.60e-02,
969,-1.20e-02,
970,1.60e-02,
971,-1.20e-02,
972,1.60e-02,
973,-1.20e-02,
974,1.60e-02,
975,-1.20e-02,
976,1.60e-02,
977,-1.20e-02,
978,-8.00e-03,
979,1.60e-02,
980,-8.00e-03,
981,1.60e-02,
982,1.60e-02,
983,-1.20e-02,
984,1.60e-02,
985,-1.20e-02,
986,1.60e-02,
987,-1.20e-02,
988,-8.00e-03,
989,1.60e-02,
990,-8.00e-03,
991,1.60e-02,
992,1.60e-02,
993,-1.20e-02,
994,-8.00e-03,
995,1.60e-02,
996,-8.00e-03,
997,1.60e-02,
998,-8.00e-03,
999,1.60e-02,
1000,1.60e-02,
1001,-1.20e-02,
1002,1.60e-02,
1003,-8.00e-03,
1004,-1.20e-02,
1005,2.00e-02,
1006,-8.00e-03,
1007,2.00e-02,
1008,-8.00e-03,
1009,1.60e-02,
1010,1.60e-02,
1011,-1.20e-02,
1012,-1.44e-01,
1013,2.40e-02,
1014,1.60e-02,
1015,-1.20e-02,
1016,1.60e-02,
1017,-1.20e-02,
1018,1.60e-02,
1019,-1.20e-02,
1020,1.60e-02,
1021,-1.20e-02,
1022,1.60e-02,
1023,-1.20e-02,
1024,-8.00e-03,
1025,1.60e-02,
1026,1.60e-02,
1027,-1.20e-02,
1028,-8.00e-03,
1029,1.60e-02,
1030,-8.00e-03,
1031,1.60e-02,
1032,1.60e-02,
1033,-1.20e-02,
1034,1.60e-02,
1035,-1.20e-02,
1036,1.60e-02,
1037,-1.20e-02,
1038,1.60e-02,
1039,-8.00e-03,
1040,1.60e-02,
1041,-1.20e-02,
1042,-1.20e-02,
1043,2.00e-02,
1044,-1.20e-02,
1045,1.60e-02,
1046,1.60e-02,
1047,-1.20e-02,
1048,1.60e-02,
1049,-1.20e-02,
1050,1.60e-02,
1051,-1.20e-02,
1052,-1.20e-02,
1053,1.60e-02,
1054,1.60e-02,
1055,-1.20e-02,
1056,1.60e-02,
1057,-1.20e-02,
1058,1.60e-02,
1059,-1.20e-02,
1060,1.60e-02,
1061,-1.20e-02,
1062,-8.00e-03,
1063,1.60e-02,
1064,1.76e-01,
1065,-3.20e-02,
1066,5.20e-02,
1067,-3.60e-02,
1068,1.60e-02,
1069,-1.20e-02,
1070,-1.20e-02,
1071,2.00e-02,
1072,1.60e-02,
1073,-1.20e-02,
1074,-8.00e-03,
1075,1.60e-02,
1076,2.00e-02,
1077,-1.20e-02,
1078,1.60e-02,
1079,-8.00e-03,
1080,-8.00e-03,
1081,1.60e-02,
1082,1.60e-02,
1083,-1.20e-02,
1084,-8.00e-03,
1085,1.60e-02,
1086,1.60e-02,
1087,-1.20e-02,
1088,-8.00e-03,
1089,1.60e-02,
1090,1.60e-02,
1091,-1.20e-02,
1092,1.60e-02,
1093,-1.20e-02,
1094,1.60e-02,
1095,-1.20e-02,
1096,1.60e-02,
1097,-1.20e-02,
1098,1.60e-02,
1099,-1.20e-02,
1100,1.60e-02,
1101,-8.00e-03,
1102,-1.20e-02,
1103,2.00e-02,
1104,1.60e-02,
1105,-1.20e-02,
1106,1.60e-02,
1107,-1.20e-02,
1108,1.60e-02,
1109,-1.20e-02,
1110,1.60e-02,
1111,-1.20e-02,
1112,1.60e-02,
1113,-1.20e-02,
1114,-8.00e-03,
1115,1.60e-02,
1116,1.60e-02,
1117,-1.20e-02,
1118,8.00e-02,
1119,-4.80e-02,
1120,1.60e-02,
1121,-1.20e-02,
1122,1.60e-02,
1123,-1.20e-02,
1124,1.60e-02,
1125,-1.20e-02,
1126,-8.00e-03,
1127,1.60e-02,
1128,1.60e-02,
1129,-1.20e-02,
1130,1.60e-02,
1131,-1.20e-02,
1132,1.60e-02,
1133,-1.20e-02,
1134,2.00e-02,
1135,-8.00e-03,
1136,1.60e-02,
1137,-1.20e-02,
1138,1.60e-02,
1139,-1.20e-02,
1140,1.60e-02,
1141,-1.20e-02,
1142,1.60e-02,
1143,-1.20e-02,
1144,-1.20e-02,
1145,2.00e-02,
1146,1.60e-02,
1147,-1.20e-02,
1148,1.60e-02,
1149,-1.20e-02,
1150,1.60e-02,
1151,-1.20e-02,
1152,-8.00e-03,
1153,1.60e-02,
1154,1.60e-02,
1155,-1.20e-02,
1156,-8.00e-03,
1157,1.60e-02,
1158,1.60e-02,
1159,-1.20e-02,
1160,-8.00e-03,
1161,1.60e-02,
1162,1.60e-02,
1163,-1.20e-02,
1164,-8.00e-03,
1165,1.60e-02,
1166,1.60e-02,
1167,-1.20e-02,
1168,1.60e-02,
1169,-1.20e-02,
1170,-2.40e-02,
1171,1.76e-01,
1172,-3.20e-02,
1173,3.20e-02,
1174,1.60e-02,
1175,-1.20e-02,
1176,-1.20e-02,
1177,2.00e-02,
1178,1.60e-02,
1179,-1.20e-02,
1180,1.60e-02,
1181,-8.00e-03,
1182,1.60e-02,
1183,-1.20e-02,
1184,1.60e-02,
1185,-1.20e-02,
1186,-1.20e-02,
1187,1.60e-02,
1188,1.60e-02,
1189,-1.20e-02,
1190,1.60e-02,
1191,-1.20e-02,
1192,-1.20e-02,
1193,1.60e-02,
1194,1.60e-02,
1195,-1.20e-02,
1196,1.60e-02,
1197,-1.20e-02,
1198,1.60e-02,
1199,-1.20e-02,
