Laptop_2/LAPTOP_CHRGR_2_OFF/time domain/NewFile17.csv

X,CH1,Start,Increment,
Sequence,Volt,-1.500000e-01,2.000000e-04
0,-4.00e-03,
1,1.20e-02,
2,-8.00e-03,
3,1.20e-02,
4,1.20e-02,
5,-8.00e-03,
6,-4.00e-03,
7,1.20e-02,
8,1.20e-02,
9,-8.00e-03,
10,-4.00e-03,
11,1.20e-02,
12,1.20e-02,
13,-8.00e-03,
14,1.20e-02,
15,-4.00e-03,
16,-4.00e-03,
17,1.20e-02,
18,1.20e-02,
19,-4.00e-03,
20,-4.00e-03,
21,1.20e-02,
22,-4.00e-03,
23,1.20e-02,
24,-4.00e-03,
25,1.20e-02,
26,-4.00e-03,
27,1.20e-02,
28,-4.00e-03,
29,1.20e-02,
30,1.20e-02,
31,-4.00e-03,
32,-4.00e-03,
33,1.20e-02,
34,1.20e-02,
35,-8.00e-03,
36,1.20e-02,
37,-4.00e-03,
38,-4.00e-03,
39,1.20e-02,
40,-4.00e-03,
41,1.20e-02,
42,-8.00e-03,
43,1.20e-02,
44,1.20e-02,
45,-8.00e-03,
46,4.00e-02,
47,-1.60e-02,
48,1.20e-02,
49,-8.00e-03,
50,1.20e-02,
51,-8.00e-03,
52,-4.00e-03,
53,1.20e-02,
54,-8.00e-03,
55,1.20e-02,
56,-4.00e-03,
57,1.20e-02,
58,-4.00e-03,
59,1.20e-02,
60,-4.00e-03,
61,1.20e-02,
62,1.20e-02,
63,-8.00e-03,
64,1.20e-02,
65,-8.00e-03,
66,-4.00e-03,
67,1.20e-02,
68,1.20e-02,
69,-4.00e-03,
70,1.20e-02,
71,-8.00e-03,
72,-4.00e-03,
73,1.20e-02,
74,1.20e-02,
75,-8.00e-03,
76,-4.00e-03,
77,1.20e-02,
78,-4.00e-03,
79,1.20e-02,
80,-4.00e-03,
81,1.20e-02,
82,1.20e-02,
83,-8.00e-03,
84,-8.00e-03,
85,1.20e-02,
86,1.20e-02,
87,-8.00e-03,
88,-4.00e-03,
89,1.20e-02,
90,-8.00e-03,
91,1.60e-02,
92,1.20e-02,
93,-4.00e-03,
94,-4.00e-03,
95,1.20e-02,
96,-4.00e-03,
97,1.20e-02,
98,2.80e-02,
99,-7.20e-02,
100,-4.00e-03,
101,1.20e-02,
102,-4.00e-03,
103,1.20e-02,
104,1.20e-02,
105,-8.00e-03,
106,-4.00e-03,
107,1.20e-02,
108,1.20e-02,
109,-8.00e-03,
110,-4.00e-03,
111,1.20e-02,
112,-4.00e-03,
113,1.20e-02,
114,-4.00e-03,
115,1.20e-02,
116,1.20e-02,
117,-8.00e-03,
118,1.20e-02,
119,-8.00e-03,
120,1.20e-02,
121,-8.00e-03,
122,-4.00e-03,
123,1.20e-02,
124,-4.00e-03,
125,1.20e-02,
126,1.20e-02,
127,-8.00e-03,
128,1.20e-02,
129,-4.00e-03,
130,-8.00e-03,
131,1.60e-02,
132,-4.00e-03,
133,1.20e-02,
134,-4.00e-03,
135,1.20e-02,
136,-4.00e-03,
137,1.20e-02,
138,-4.00e-03,
139,1.20e-02,
140,-4.00e-03,
141,1.20e-02,
142,1.20e-02,
143,-4.00e-03,
144,1.20e-02,
145,-8.00e-03,
146,1.20e-02,
147,-4.00e-03,
148,1.20e-02,
149,-4.00e-03,
150,-4.00e-03,
151,1.20e-02,
152,-4.40e-02,
153,3.20e-02,
154,-4.00e-03,
155,1.20e-02,
156,1.20e-02,
157,-8.00e-03,
158,-4.00e-03,
159,1.20e-02,
160,1.20e-02,
161,-8.00e-03,
162,1.20e-02,
163,-8.00e-03,
164,-8.00e-03,
165,1.20e-02,
166,-4.00e-03,
167,1.20e-02,
168,-8.00e-03,
169,1.60e-02,
170,-8.00e-03,
171,1.20e-02,
172,-8.00e-03,
173,1.60e-02,
174,1.20e-02,
175,-8.00e-03,
176,-4.00e-03,
177,1.20e-02,
178,1.20e-02,
179,-4.00e-03,
180,-4.00e-03,
181,1.20e-02,
182,1.20e-02,
183,-8.00e-03,
184,-4.00e-03,
185,1.20e-02,
186,-8.00e-03,
187,1.20e-02,
188,-4.00e-03,
189,1.20e-02,
190,1.20e-02,
191,-8.00e-03,
192,1.20e-02,
193,-4.00e-03,
194,-4.00e-03,
195,1.20e-02,
196,-4.00e-03,
197,1.20e-02,
198,1.20e-02,
199,-8.00e-03,
200,-4.00e-03,
201,1.20e-02,
202,1.20e-02,
203,-8.00e-03,
204,-4.00e-03,
205,1.20e-02,
206,-6.80e-02,
207,5.60e-02,
208,1.20e-02,
209,-8.00e-03,
210,-4.00e-03,
211,1.20e-02,
212,1.60e-02,
213,-8.00e-03,
214,1.20e-02,
215,-8.00e-03,
216,1.20e-02,
217,-8.00e-03,
218,-4.00e-03,
219,1.20e-02,
220,1.20e-02,
221,-8.00e-03,
222,-4.00e-03,
223,1.20e-02,
224,1.20e-02,
225,-4.00e-03,
226,1.20e-02,
227,-4.00e-03,
228,1.20e-02,
229,-4.00e-03,
230,1.20e-02,
231,-8.00e-03,
232,-4.00e-03,
233,1.20e-02,
234,1.20e-02,
235,-8.00e-03,
236,1.20e-02,
237,-8.00e-03,
238,-4.00e-03,
239,1.20e-02,
240,1.20e-02,
241,-8.00e-03,
242,1.20e-02,
243,-8.00e-03,
244,1.20e-02,
245,-4.00e-03,
246,-4.00e-03,
247,1.20e-02,
248,-4.00e-03,
249,1.20e-02,
250,1.20e-02,
251,-8.00e-03,
252,1.60e-02,
253,-8.00e-03,
254,1.20e-02,
255,-1.20e-02,
256,1.20e-02,
257,-8.00e-03,
258,-3.60e-02,
259,2.80e-02,
260,1.20e-02,
261,-8.00e-03,
262,-4.00e-03,
263,1.20e-02,
264,-4.00e-03,
265,1.20e-02,
266,-4.00e-03,
267,1.20e-02,
268,-4.00e-03,
269,1.20e-02,
270,1.20e-02,
271,-4.00e-03,
272,-4.00e-03,
273,1.20e-02,
274,1.20e-02,
275,-4.00e-03,
276,1.20e-02,
277,-4.00e-03,
278,1.20e-02,
279,-8.00e-03,
280,1.20e-02,
281,-8.00e-03,
282,-4.00e-03,
283,1.20e-02,
284,1.20e-02,
285,-8.00e-03,
286,-8.00e-03,
287,1.20e-02,
288,-4.00e-03,
289,1.20e-02,
290,-4.00e-03,
291,1.20e-02,
292,1.60e-02,
293,-8.00e-03,
294,-4.00e-03,
295,1.20e-02,
296,-4.00e-03,
297,1.20e-02,
298,-8.00e-03,
299,1.60e-02,
300,1.20e-02,
301,-8.00e-03,
302,-4.00e-03,
303,1.60e-02,
304,1.20e-02,
305,-4.00e-03,
306,-4.00e-03,
307,1.20e-02,
308,-4.00e-03,
309,1.20e-02,
310,-4.00e-03,
311,1.20e-02,
312,4.80e-02,
313,-4.00e-02,
314,1.20e-02,
315,-8.00e-03,
316,1.20e-02,
317,-8.00e-03,
318,1.20e-02,
319,-8.00e-03,
320,1.20e-02,
321,-8.00e-03,
322,1.20e-02,
323,-8.00e-03,
324,1.20e-02,
325,-4.00e-03,
326,-4.00e-03,
327,1.20e-02,
328,1.60e-02,
329,-8.00e-03,
330,-4.00e-03,
331,1.20e-02,
332,-8.00e-03,
333,1.20e-02,
334,1.20e-02,
335,-8.00e-03,
336,-4.00e-03,
337,1.60e-02,
338,-8.00e-03,
339,1.60e-02,
340,-8.00e-03,
341,1.60e-02,
342,-4.00e-03,
343,1.20e-02,
344,1.20e-02,
345,-4.00e-03,
346,1.20e-02,
347,-4.00e-03,
348,-4.00e-03,
349,1.20e-02,
350,-4.00e-03,
351,1.20e-02,
352,-4.00e-03,
353,1.20e-02,
354,-4.00e-03,
355,1.20e-02,
356,-4.00e-03,
357,1.20e-02,
358,-4.00e-03,
359,1.20e-02,
360,-4.00e-03,
361,1.20e-02,
362,-4.00e-03,
363,1.20e-02,
364,-5.60e-02,
365,4.80e-02,
366,1.20e-02,
367,-4.00e-03,
368,-4.00e-03,
369,1.20e-02,
370,-4.00e-03,
371,1.20e-02,
372,-4.00e-03,
373,1.20e-02,
374,-4.00e-03,
375,1.20e-02,
376,1.20e-02,
377,-8.00e-03,
378,1.20e-02,
379,-8.00e-03,
380,-4.00e-03,
381,1.20e-02,
382,1.20e-02,
383,-8.00e-03,
384,-4.00e-03,
385,1.20e-02,
386,-4.00e-03,
387,1.20e-02,
388,-4.00e-03,
389,1.20e-02,
390,-4.00e-03,
391,1.20e-02,
392,1.20e-02,
393,-4.00e-03,
394,1.20e-02,
395,-4.00e-03,
396,-4.00e-03,
397,1.20e-02,
398,-4.00e-03,
399,1.20e-02,
400,-4.00e-03,
401,1.60e-02,
402,1.60e-02,
403,-8.00e-03,
404,-4.00e-03,
405,1.20e-02,
406,1.20e-02,
407,-8.00e-03,
408,1.60e-02,
409,-8.00e-03,
410,-4.00e-03,
411,1.20e-02,
412,1.20e-02,
413,-8.00e-03,
414,-4.00e-03,
415,1.60e-02,
416,1.20e-02,
417,-8.00e-03,
418,4.00e-02,
419,-1.60e-02,
420,1.20e-02,
421,-8.00e-03,
422,-8.00e-03,
423,1.20e-02,
424,1.20e-02,
425,-8.00e-03,
426,-4.00e-03,
427,1.20e-02,
428,-4.00e-03,
429,1.20e-02,
430,-4.00e-03,
431,1.20e-02,
432,-4.00e-03,
433,1.20e-02,
434,-4.00e-03,
435,1.20e-02,
436,-4.00e-03,
437,1.20e-02,
438,1.20e-02,
439,-4.00e-03,
440,1.20e-02,
441,-8.00e-03,
442,1.20e-02,
443,-4.00e-03,
444,-4.00e-03,
445,1.20e-02,
446,-4.00e-03,
447,1.20e-02,
448,1.20e-02,
449,-8.00e-03,
450,-4.00e-03,
451,1.60e-02,
452,1.20e-02,
453,-8.00e-03,
454,1.20e-02,
455,-4.00e-03,
456,-4.00e-03,
457,1.20e-02,
458,-8.00e-03,
459,1.60e-02,
460,-8.00e-03,
461,1.20e-02,
462,-4.00e-03,
463,1.20e-02,
464,1.20e-02,
465,-8.00e-03,
466,1.20e-02,
467,-8.00e-03,
468,-4.00e-03,
469,1.20e-02,
470,1.20e-02,
471,-6.00e-02,
472,-4.00e-03,
473,2.80e-02,
474,-4.00e-03,
475,1.20e-02,
476,-4.00e-03,
477,1.20e-02,
478,-4.00e-03,
479,1.20e-02,
480,-4.00e-03,
481,1.20e-02,
482,-4.00e-03,
483,1.20e-02,
484,1.20e-02,
485,-8.00e-03,
486,1.20e-02,
487,-8.00e-03,
488,-4.00e-03,
489,1.20e-02,
490,1.20e-02,
491,-8.00e-03,
492,-4.00e-03,
493,1.20e-02,
494,-4.00e-03,
495,1.20e-02,
496,-4.00e-03,
497,1.20e-02,
498,-4.00e-03,
499,1.60e-02,
500,1.20e-02,
501,-8.00e-03,
502,1.20e-02,
503,-8.00e-03,
504,1.20e-02,
505,-8.00e-03,
506,1.20e-02,
507,-8.00e-03,
508,1.20e-02,
509,-8.00e-03,
510,1.20e-02,
511,-8.00e-03,
512,1.20e-02,
513,-4.00e-03,
514,-4.00e-03,
515,1.20e-02,
516,1.20e-02,
517,-8.00e-03,
518,-4.00e-03,
519,1.20e-02,
520,-4.00e-03,
521,1.20e-02,
522,-4.00e-03,
523,1.20e-02,
524,1.44e-01,
525,-7.60e-02,
526,-4.00e-03,
527,1.20e-02,
528,1.20e-02,
529,-4.00e-03,
530,-4.00e-03,
531,1.20e-02,
532,-8.00e-03,
533,1.60e-02,
534,-4.00e-03,
535,1.20e-02,
536,1.20e-02,
537,-4.00e-03,
538,1.20e-02,
539,-8.00e-03,
540,-4.00e-03,
541,1.20e-02,
542,1.20e-02,
543,-8.00e-03,
544,1.20e-02,
545,-8.00e-03,
546,1.20e-02,
547,-8.00e-03,
548,-4.00e-03,
549,1.60e-02,
550,-4.00e-03,
551,1.20e-02,
552,-4.00e-03,
553,1.20e-02,
554,-4.00e-03,
555,1.20e-02,
556,-4.00e-03,
557,1.20e-02,
558,-4.00e-03,
559,1.20e-02,
560,1.20e-02,
561,-4.00e-03,
562,1.60e-02,
563,-8.00e-03,
564,1.20e-02,
565,-4.00e-03,
566,1.20e-02,
567,-8.00e-03,
568,1.20e-02,
569,-8.00e-03,
570,-4.00e-03,
571,1.20e-02,
572,-4.00e-03,
573,1.20e-02,
574,-4.00e-03,
575,1.20e-02,
576,1.20e-02,
577,-5.20e-02,
578,2.40e-02,
579,-2.00e-02,
580,-4.00e-03,
581,1.20e-02,
582,-4.00e-03,
583,1.60e-02,
584,-4.00e-03,
585,1.20e-02,
586,1.20e-02,
587,-8.00e-03,
588,1.20e-02,
589,-8.00e-03,
590,-4.00e-03,
591,1.60e-02,
592,-4.00e-03,
593,1.20e-02,
594,-4.00e-03,
595,1.20e-02,
596,1.20e-02,
597,-8.00e-03,
598,-4.00e-03,
599,1.20e-02,
600,-4.00e-03,
601,1.20e-02,
602,-4.00e-03,
603,1.20e-02,
604,-4.00e-03,
605,1.20e-02,
606,-4.00e-03,
607,1.20e-02,
608,-4.00e-03,
609,1.20e-02,
610,-4.00e-03,
611,1.20e-02,
612,1.20e-02,
613,-8.00e-03,
614,-4.00e-03,
615,1.20e-02,
616,1.20e-02,
617,-8.00e-03,
618,-4.00e-03,
619,1.60e-02,
620,-4.00e-03,
621,1.20e-02,
622,-4.00e-03,
623,1.20e-02,
624,-4.00e-03,
625,1.20e-02,
626,-4.00e-03,
627,1.20e-02,
628,1.20e-02,
629,-4.00e-03,
630,-8.00e-02,
631,2.00e-02,
632,-4.00e-03,
633,1.60e-02,
634,-4.00e-03,
635,1.20e-02,
636,1.20e-02,
637,-4.00e-03,
638,-4.00e-03,
639,1.20e-02,
640,-4.00e-03,
641,1.20e-02,
642,-4.00e-03,
643,1.20e-02,
644,-4.00e-03,
645,1.20e-02,
646,-4.00e-03,
647,1.20e-02,
648,1.20e-02,
649,-4.00e-03,
650,1.20e-02,
651,-8.00e-03,
652,1.20e-02,
653,-8.00e-03,
654,-4.00e-03,
655,1.20e-02,
656,1.20e-02,
657,-8.00e-03,
658,-4.00e-03,
659,1.20e-02,
660,-8.00e-03,
661,1.20e-02,
662,1.20e-02,
663,-8.00e-03,
664,1.20e-02,
665,-8.00e-03,
666,1.20e-02,
667,-8.00e-03,
668,1.20e-02,
669,-8.00e-03,
670,1.20e-02,
671,-8.00e-03,
672,-8.00e-03,
673,1.20e-02,
674,-4.00e-03,
675,1.60e-02,
676,-4.00e-03,
677,1.20e-02,
678,-4.00e-03,
679,1.20e-02,
680,-4.00e-03,
681,1.20e-02,
682,3.60e-02,
683,-2.00e-02,
684,4.80e-02,
685,-1.20e-02,
686,1.20e-02,
687,-4.00e-03,
688,-4.00e-03,
689,1.20e-02,
690,-4.00e-03,
691,1.20e-02,
692,-4.00e-03,
693,1.20e-02,
694,-4.00e-03,
695,1.20e-02,
696,-8.00e-03,
697,1.20e-02,
698,-4.00e-03,
699,1.20e-02,
700,1.20e-02,
701,-8.00e-03,
702,-4.00e-03,
703,1.20e-02,
704,1.20e-02,
705,-8.00e-03,
706,-4.00e-03,
707,1.20e-02,
708,-4.00e-03,
709,1.20e-02,
710,1.20e-02,
711,-8.00e-03,
712,1.20e-02,
713,-8.00e-03,
714,-4.00e-03,
715,1.20e-02,
716,1.60e-02,
717,-8.00e-03,
718,1.20e-02,
719,-4.00e-03,
720,-4.00e-03,
721,1.20e-02,
722,-4.00e-03,
723,1.20e-02,
724,-4.00e-03,
725,1.20e-02,
726,-4.00e-03,
727,1.20e-02,
728,-4.00e-03,
729,1.20e-02,
730,-4.00e-03,
731,1.20e-02,
732,1.20e-02,
733,-4.00e-03,
734,-4.00e-03,
735,1.20e-02,
736,-4.80e-02,
737,2.80e-02,
738,1.20e-02,
739,-8.00e-03,
740,-8.00e-03,
741,1.60e-02,
742,-4.00e-03,
743,1.20e-02,
744,1.20e-02,
745,-8.00e-03,
746,-4.00e-03,
747,1.20e-02,
748,-4.00e-03,
749,1.20e-02,
750,-8.00e-03,
751,1.60e-02,
752,1.20e-02,
753,-8.00e-03,
754,1.60e-02,
755,-8.00e-03,
756,1.20e-02,
757,-8.00e-03,
758,1.20e-02,
759,-8.00e-03,
760,-4.00e-03,
761,1.20e-02,
762,-4.00e-03,
763,1.20e-02,
764,-4.00e-03,
765,1.20e-02,
766,-4.00e-03,
767,1.20e-02,
768,-4.00e-03,
769,1.20e-02,
770,-4.00e-03,
771,1.20e-02,
772,-4.00e-03,
773,1.20e-02,
774,-4.00e-03,
775,1.60e-02,
776,1.20e-02,
777,-8.00e-03,
778,-4.00e-03,
779,1.20e-02,
780,1.20e-02,
781,-4.00e-03,
782,1.20e-02,
783,-4.00e-03,
784,-4.00e-03,
785,1.20e-02,
786,1.20e-02,
787,-4.00e-03,
788,-4.00e-03,
789,3.20e-02,
790,-4.00e-03,
791,5.20e-02,
792,1.20e-02,
793,-8.00e-03,
794,-4.00e-03,
795,1.60e-02,
796,-4.00e-03,
797,1.20e-02,
798,1.20e-02,
799,-4.00e-03,
800,1.20e-02,
801,-8.00e-03,
802,1.20e-02,
803,-8.00e-03,
804,-8.00e-03,
805,1.20e-02,
806,-4.00e-03,
807,1.20e-02,
808,-4.00e-03,
809,1.20e-02,
810,-4.00e-03,
811,1.20e-02,
812,1.60e-02,
813,-8.00e-03,
814,-4.00e-03,
815,1.20e-02,
816,-4.00e-03,
817,1.20e-02,
818,1.20e-02,
819,-8.00e-03,
820,-4.00e-03,
821,1.20e-02,
822,-4.00e-03,
823,1.20e-02,
824,1.20e-02,
825,-8.00e-03,
826,-4.00e-03,
827,1.20e-02,
828,1.20e-02,
829,-8.00e-03,
830,1.20e-02,
831,-4.00e-03,
832,1.20e-02,
833,-8.00e-03,
834,1.20e-02,
835,-8.00e-03,
836,-4.00e-03,
837,1.20e-02,
838,1.20e-02,
839,-8.00e-03,
840,1.60e-02,
841,-8.00e-03,
842,-4.00e-02,
843,2.40e-02,
844,1.20e-02,
845,-8.00e-03,
846,-4.00e-03,
847,1.20e-02,
848,-4.00e-03,
849,1.20e-02,
850,-4.00e-03,
851,1.20e-02,
852,-4.00e-03,
853,1.20e-02,
854,-4.00e-03,
855,1.20e-02,
856,-8.00e-03,
857,1.20e-02,
858,-4.00e-03,
859,1.20e-02,
860,1.20e-02,
861,-8.00e-03,
862,1.20e-02,
863,-4.00e-03,
864,-4.00e-03,
865,1.20e-02,
866,1.20e-02,
867,-8.00e-03,
868,1.20e-02,
869,-4.00e-03,
870,-4.00e-03,
871,1.60e-02,
872,1.20e-02,
873,-8.00e-03,
874,-4.00e-03,
875,1.20e-02,
876,1.20e-02,
877,-8.00e-03,
878,1.20e-02,
879,-8.00e-03,
880,1.20e-02,
881,-8.00e-03,
882,-8.00e-03,
883,1.20e-02,
884,-4.00e-03,
885,1.20e-02,
886,-4.00e-03,
887,1.20e-02,
888,-4.00e-03,
889,1.20e-02,
890,-4.00e-03,
891,1.20e-02,
892,1.20e-02,
893,-4.00e-03,
894,1.20e-02,
895,-1.08e-01,
896,-1.20e-02,
897,2.80e-02,
898,1.20e-02,
899,-8.00e-03,
900,-4.00e-03,
901,1.20e-02,
902,1.20e-02,
903,-8.00e-03,
904,-4.00e-03,
905,1.20e-02,
906,1.20e-02,
907,-4.00e-03,
908,-4.00e-03,
909,1.20e-02,
910,-4.00e-03,
911,1.20e-02,
912,1.20e-02,
913,-8.00e-03,
914,-4.00e-03,
915,1.60e-02,
916,1.20e-02,
917,-8.00e-03,
918,1.20e-02,
919,-8.00e-03,
920,1.20e-02,
921,-8.00e-03,
922,1.20e-02,
923,-8.00e-03,
924,1.20e-02,
925,-4.00e-03,
926,1.20e-02,
927,-8.00e-03,
928,-4.00e-03,
929,1.20e-02,
930,-4.00e-03,
931,1.20e-02,
932,1.20e-02,
933,-4.00e-03,
934,1.20e-02,
935,-4.00e-03,
936,1.20e-02,
937,-8.00e-03,
938,-4.00e-03,
939,1.20e-02,
940,1.20e-02,
941,-8.00e-03,
942,-4.00e-03,
943,1.20e-02,
944,-4.00e-03,
945,1.20e-02,
946,1.20e-02,
947,-8.00e-03,
948,-5.60e-02,
949,1.60e-02,
950,-8.00e-03,
951,1.20e-02,
952,-4.00e-03,
953,1.20e-02,
954,1.20e-02,
955,-8.00e-03,
956,-4.00e-03,
957,1.20e-02,
958,1.20e-02,
959,-8.00e-03,
960,-4.00e-03,
961,1.20e-02,
962,-4.00e-03,
963,1.20e-02,
964,1.20e-02,
965,-8.00e-03,
966,1.20e-02,
967,-8.00e-03,
968,1.20e-02,
969,-8.00e-03,
970,1.20e-02,
971,-8.00e-03,
972,-4.00e-03,
973,1.20e-02,
974,-4.00e-03,
975,1.20e-02,
976,-4.00e-03,
977,1.20e-02,
978,1.20e-02,
979,-8.00e-03,
980,-4.00e-03,
981,1.20e-02,
982,-4.00e-03,
983,1.20e-02,
984,-4.00e-03,
985,1.20e-02,
986,1.60e-02,
987,-8.00e-03,
988,1.20e-02,
989,-8.00e-03,
990,1.20e-02,
991,-8.00e-03,
992,1.20e-02,
993,-8.00e-03,
994,1.20e-02,
995,-8.00e-03,
996,1.20e-02,
997,-8.00e-03,
998,1.20e-02,
999,-8.00e-03,
1000,-5.20e-02,
1001,9.20e-02,
1002,-8.00e-03,
1003,1.20e-02,
1004,1.20e-02,
1005,-8.00e-03,
1006,1.20e-02,
1007,-8.00e-03,
1008,1.20e-02,
1009,-8.00e-03,
1010,1.20e-02,
1011,-8.00e-03,
1012,-4.00e-03,
1013,1.20e-02,
1014,-4.00e-03,
1015,1.20e-02,
1016,-4.00e-03,
1017,1.20e-02,
1018,1.20e-02,
1019,-8.00e-03,
1020,1.20e-02,
1021,-8.00e-03,
1022,1.20e-02,
1023,-8.00e-03,
1024,-4.00e-03,
1025,1.20e-02,
1026,-4.00e-03,
1027,1.20e-02,
1028,-4.00e-03,
1029,1.20e-02,
1030,-4.00e-03,
1031,1.20e-02,
1032,-4.00e-03,
1033,1.20e-02,
1034,-8.00e-03,
1035,1.20e-02,
1036,1.20e-02,
1037,-8.00e-03,
1038,1.20e-02,
1039,-8.00e-03,
1040,-4.00e-03,
1041,1.20e-02,
1042,1.20e-02,
1043,-8.00e-03,
1044,1.20e-02,
1045,-8.00e-03,
1046,-4.00e-03,
1047,1.20e-02,
1048,1.20e-02,
1049,-8.00e-03,
1050,1.20e-02,
1051,-8.00e-03,
1052,-4.00e-03,
1053,1.20e-02,
1054,-6.00e-02,
1055,2.40e-02,
1056,-4.00e-03,
1057,1.20e-02,
1058,-4.00e-03,
1059,1.20e-02,
1060,-4.00e-03,
1061,1.20e-02,
1062,-4.00e-03,
1063,1.20e-02,
1064,-4.00e-03,
1065,1.20e-02,
1066,-4.00e-03,
1067,1.20e-02,
1068,1.20e-02,
1069,-4.00e-03,
1070,-4.00e-03,
1071,1.20e-02,
1072,-4.00e-03,
1073,1.20e-02,
1074,1.20e-02,
1075,-4.00e-03,
1076,1.20e-02,
1077,-8.00e-03,
1078,1.20e-02,
1079,-4.00e-03,
1080,-4.00e-03,
1081,1.20e-02,
1082,-4.00e-03,
1083,1.20e-02,
1084,1.60e-02,
1085,-8.00e-03,
1086,1.20e-02,
1087,-8.00e-03,
1088,1.20e-02,
1089,-8.00e-03,
1090,1.20e-02,
1091,-8.00e-03,
1092,-4.00e-03,
1093,1.20e-02,
1094,-4.00e-03,
1095,1.20e-02,
1096,-4.00e-03,
1097,1.20e-02,
1098,1.20e-02,
1099,-8.00e-03,
1100,-4.00e-03,
1101,1.20e-02,
1102,1.20e-02,
1103,-4.00e-03,
1104,-4.00e-03,
1105,1.20e-02,
1106,1.20e-02,
1107,-4.80e-02,
1108,-4.00e-03,
1109,1.20e-02,
1110,-4.00e-03,
1111,1.20e-02,
1112,1.20e-02,
1113,-8.00e-03,
1114,1.20e-02,
1115,-4.00e-03,
1116,1.20e-02,
1117,-8.00e-03,
1118,-4.00e-03,
1119,1.20e-02,
1120,1.20e-02,
1121,-8.00e-03,
1122,-4.00e-03,
1123,1.60e-02,
1124,-4.00e-03,
1125,1.20e-02,
1126,1.20e-02,
1127,-8.00e-03,
1128,-4.00e-03,
1129,1.20e-02,
1130,1.20e-02,
1131,-4.00e-03,
1132,1.20e-02,
1133,-8.00e-03,
1134,-4.00e-03,
1135,1.20e-02,
1136,-4.00e-03,
1137,1.20e-02,
1138,-4.00e-03,
1139,1.20e-02,
1140,1.20e-02,
1141,-8.00e-03,
1142,-4.00e-03,
1143,1.20e-02,
1144,-4.00e-03,
1145,1.20e-02,
1146,-4.00e-03,
1147,1.20e-02,
1148,1.20e-02,
1149,-4.00e-03,
1150,-4.00e-03,
1151,1.20e-02,
1152,-4.00e-03,
1153,1.20e-02,
1154,-4.00e-03,
1155,1.20e-02,
1156,-4.00e-03,
1157,1.20e-02,
1158,-4.00e-03,
1159,1.20e-02,
1160,-2.00e-02,
1161,3.60e-02,
1162,-4.00e-03,
1163,1.20e-02,
1164,-4.00e-03,
1165,1.60e-02,
1166,-8.00e-03,
1167,1.20e-02,
1168,1.20e-02,
1169,-8.00e-03,
1170,1.20e-02,
1171,-8.00e-03,
1172,-4.00e-03,
1173,1.20e-02,
1174,-8.00e-03,
1175,1.60e-02,
1176,-4.00e-03,
1177,1.20e-02,
1178,-4.00e-03,
1179,1.20e-02,
1180,1.20e-02,
1181,-4.00e-03,
1182,1.20e-02,
1183,-4.00e-03,
1184,-4.00e-03,
1185,1.20e-02,
1186,-4.00e-03,
1187,1.20e-02,
1188,1.20e-02,
1189,-4.00e-03,
1190,-4.00e-03,
1191,1.20e-02,
1192,-4.00e-03,
1193,1.20e-02,
1194,-4.00e-03,
1195,1.20e-02,
1196,1.20e-02,
1197,-4.00e-03,
1198,1.20e-02,
1199,-4.00e-03,
