Laptop_2/LAPTOP_CHRGR_2_OFF/time domain/NewFile31.csv

X,CH1,Start,Increment,
Sequence,Volt,-1.500000e-01,2.000000e-04
0,1.20e-02,
1,-8.00e-03,
2,-8.00e-03,
3,1.60e-02,
4,-8.00e-03,
5,1.60e-02,
6,-8.00e-03,
7,1.60e-02,
8,-8.00e-03,
9,2.00e-02,
10,2.00e-02,
11,-1.20e-02,
12,-8.00e-03,
13,1.60e-02,
14,1.60e-02,
15,-1.20e-02,
16,-8.00e-03,
17,1.60e-02,
18,-8.00e-03,
19,1.60e-02,
20,1.60e-02,
21,-1.20e-02,
22,1.60e-02,
23,-8.00e-03,
24,-8.00e-03,
25,1.60e-02,
26,1.60e-02,
27,-8.00e-03,
28,1.60e-02,
29,-1.20e-02,
30,-8.00e-03,
31,1.60e-02,
32,-8.00e-03,
33,1.60e-02,
34,-8.00e-03,
35,1.60e-02,
36,-8.00e-03,
37,1.60e-02,
38,-8.00e-03,
39,1.60e-02,
40,1.60e-02,
41,-8.00e-03,
42,1.60e-02,
43,-8.00e-03,
44,2.40e-02,
45,-1.28e-01,
46,1.60e-02,
47,-8.00e-03,
48,-8.00e-03,
49,1.60e-02,
50,-8.00e-03,
51,1.60e-02,
52,-8.00e-03,
53,1.60e-02,
54,1.20e-02,
55,-8.00e-03,
56,-8.00e-03,
57,1.60e-02,
58,1.60e-02,
59,-1.20e-02,
60,2.00e-02,
61,-1.20e-02,
62,2.00e-02,
63,-1.20e-02,
64,-8.00e-03,
65,2.00e-02,
66,-8.00e-03,
67,1.60e-02,
68,-1.20e-02,
69,1.60e-02,
70,-8.00e-03,
71,1.60e-02,
72,-8.00e-03,
73,1.60e-02,
74,-8.00e-03,
75,1.60e-02,
76,-1.20e-02,
77,1.60e-02,
78,-8.00e-03,
79,1.60e-02,
80,-8.00e-03,
81,1.60e-02,
82,-8.00e-03,
83,1.60e-02,
84,-8.00e-03,
85,1.60e-02,
86,-8.00e-03,
87,1.60e-02,
88,-8.00e-03,
89,1.60e-02,
90,-8.00e-03,
91,1.60e-02,
92,1.60e-02,
93,-1.20e-02,
94,1.60e-02,
95,-8.00e-03,
96,3.60e-02,
97,-4.00e-02,
98,-8.00e-03,
99,1.60e-02,
100,-8.00e-03,
101,1.60e-02,
102,-8.00e-03,
103,1.60e-02,
104,1.60e-02,
105,-1.20e-02,
106,-8.00e-03,
107,1.60e-02,
108,-8.00e-03,
109,1.60e-02,
110,-8.00e-03,
111,2.00e-02,
112,-8.00e-03,
113,1.60e-02,
114,-8.00e-03,
115,1.20e-02,
116,1.60e-02,
117,-1.20e-02,
118,1.60e-02,
119,-1.20e-02,
120,1.60e-02,
121,-8.00e-03,
122,-8.00e-03,
123,1.60e-02,
124,-8.00e-03,
125,1.60e-02,
126,-8.00e-03,
127,1.60e-02,
128,-8.00e-03,
129,1.60e-02,
130,-8.00e-03,
131,1.60e-02,
132,-8.00e-03,
133,1.60e-02,
134,1.60e-02,
135,-1.20e-02,
136,-8.00e-03,
137,1.60e-02,
138,1.60e-02,
139,-1.20e-02,
140,-8.00e-03,
141,1.20e-02,
142,-8.00e-03,
143,1.60e-02,
144,-8.00e-03,
145,1.60e-02,
146,1.60e-02,
147,-1.20e-02,
148,-8.00e-03,
149,1.60e-02,
150,1.60e-02,
151,-2.80e-02,
152,-8.00e-03,
153,1.60e-02,
154,1.60e-02,
155,-1.20e-02,
156,-8.00e-03,
157,1.60e-02,
158,-8.00e-03,
159,1.60e-02,
160,-8.00e-03,
161,1.60e-02,
162,-8.00e-03,
163,1.60e-02,
164,-8.00e-03,
165,1.60e-02,
166,1.60e-02,
167,-8.00e-03,
168,-8.00e-03,
169,1.60e-02,
170,-8.00e-03,
171,1.60e-02,
172,1.60e-02,
173,-8.00e-03,
174,-8.00e-03,
175,1.60e-02,
176,-8.00e-03,
177,2.00e-02,
178,-8.00e-03,
179,1.60e-02,
180,-8.00e-03,
181,1.60e-02,
182,-8.00e-03,
183,1.60e-02,
184,1.60e-02,
185,-1.20e-02,
186,-8.00e-03,
187,1.60e-02,
188,-8.00e-03,
189,1.60e-02,
190,1.60e-02,
191,-1.20e-02,
192,1.60e-02,
193,-1.20e-02,
194,-8.00e-03,
195,1.60e-02,
196,-8.00e-03,
197,1.60e-02,
198,-8.00e-03,
199,1.60e-02,
200,1.60e-02,
201,-1.20e-02,
202,-1.20e-01,
203,8.00e-02,
204,-8.00e-03,
205,1.60e-02,
206,-8.00e-03,
207,1.60e-02,
208,-8.00e-03,
209,1.60e-02,
210,-8.00e-03,
211,1.60e-02,
212,1.60e-02,
213,-8.00e-03,
214,1.20e-02,
215,-8.00e-03,
216,-1.20e-02,
217,1.60e-02,
218,1.60e-02,
219,-8.00e-03,
220,-8.00e-03,
221,1.60e-02,
222,-8.00e-03,
223,1.60e-02,
224,-8.00e-03,
225,1.60e-02,
226,-8.00e-03,
227,1.60e-02,
228,2.00e-02,
229,-1.20e-02,
230,-8.00e-03,
231,1.60e-02,
232,-8.00e-03,
233,1.60e-02,
234,1.60e-02,
235,-1.20e-02,
236,-1.20e-02,
237,1.60e-02,
238,-8.00e-03,
239,1.60e-02,
240,-8.00e-03,
241,1.60e-02,
242,-8.00e-03,
243,1.60e-02,
244,-8.00e-03,
245,1.60e-02,
246,1.20e-02,
247,-8.00e-03,
248,-8.00e-03,
249,1.60e-02,
250,-8.00e-03,
251,1.60e-02,
252,-8.00e-03,
253,1.60e-02,
254,-8.00e-03,
255,1.60e-02,
256,1.32e-01,
257,-3.20e-02,
258,-1.20e-02,
259,1.60e-02,
260,-8.00e-03,
261,1.60e-02,
262,1.20e-02,
263,-1.20e-02,
264,-8.00e-03,
265,1.60e-02,
266,-8.00e-03,
267,1.60e-02,
268,1.60e-02,
269,-8.00e-03,
270,-8.00e-03,
271,1.60e-02,
272,-8.00e-03,
273,1.60e-02,
274,2.00e-02,
275,-1.20e-02,
276,-8.00e-03,
277,1.60e-02,
278,-8.00e-03,
279,1.60e-02,
280,1.60e-02,
281,-1.20e-02,
282,-8.00e-03,
283,1.60e-02,
284,-8.00e-03,
285,1.60e-02,
286,-8.00e-03,
287,1.60e-02,
288,-8.00e-03,
289,1.60e-02,
290,-8.00e-03,
291,1.60e-02,
292,-8.00e-03,
293,1.60e-02,
294,-8.00e-03,
295,1.60e-02,
296,-8.00e-03,
297,1.60e-02,
298,-8.00e-03,
299,1.60e-02,
300,-8.00e-03,
301,1.60e-02,
302,-8.00e-03,
303,1.60e-02,
304,-8.00e-03,
305,1.60e-02,
306,-8.00e-03,
307,1.60e-02,
308,-5.60e-02,
309,7.60e-02,
310,-8.00e-03,
311,1.20e-02,
312,-8.00e-03,
313,1.60e-02,
314,1.60e-02,
315,-1.20e-02,
316,-1.20e-02,
317,1.20e-02,
318,-8.00e-03,
319,1.60e-02,
320,-8.00e-03,
321,1.60e-02,
322,1.20e-02,
323,-1.20e-02,
324,-8.00e-03,
325,1.60e-02,
326,-8.00e-03,
327,1.20e-02,
328,-8.00e-03,
329,1.60e-02,
330,-8.00e-03,
331,1.60e-02,
332,-8.00e-03,
333,1.60e-02,
334,-8.00e-03,
335,1.60e-02,
336,-8.00e-03,
337,1.60e-02,
338,-8.00e-03,
339,1.60e-02,
340,-8.00e-03,
341,1.60e-02,
342,-8.00e-03,
343,1.60e-02,
344,-8.00e-03,
345,1.60e-02,
346,-8.00e-03,
347,1.60e-02,
348,-8.00e-03,
349,1.60e-02,
350,-8.00e-03,
351,1.60e-02,
352,1.60e-02,
353,-1.20e-02,
354,-8.00e-03,
355,1.60e-02,
356,1.60e-02,
357,-1.20e-02,
358,1.60e-02,
359,-1.20e-02,
360,-8.00e-03,
361,1.60e-02,
362,-4.40e-02,
363,8.00e-02,
364,-1.20e-02,
365,1.60e-02,
366,-8.00e-03,
367,1.60e-02,
368,-8.00e-03,
369,1.60e-02,
370,-8.00e-03,
371,1.60e-02,
372,-8.00e-03,
373,1.60e-02,
374,-8.00e-03,
375,1.60e-02,
376,-8.00e-03,
377,1.60e-02,
378,-8.00e-03,
379,1.60e-02,
380,1.60e-02,
381,-8.00e-03,
382,-8.00e-03,
383,1.60e-02,
384,1.60e-02,
385,-8.00e-03,
386,-8.00e-03,
387,1.60e-02,
388,-8.00e-03,
389,1.60e-02,
390,1.60e-02,
391,-1.20e-02,
392,-8.00e-03,
393,2.00e-02,
394,-8.00e-03,
395,1.60e-02,
396,-8.00e-03,
397,1.60e-02,
398,-8.00e-03,
399,1.60e-02,
400,-8.00e-03,
401,1.60e-02,
402,1.60e-02,
403,-1.20e-02,
404,-8.00e-03,
405,1.60e-02,
406,-8.00e-03,
407,1.60e-02,
408,-8.00e-03,
409,1.60e-02,
410,-8.00e-03,
411,1.60e-02,
412,-8.00e-03,
413,1.60e-02,
414,-1.20e-02,
415,6.00e-02,
416,4.00e-02,
417,-2.00e-02,
418,-8.00e-03,
419,1.60e-02,
420,1.60e-02,
421,-1.20e-02,
422,-8.00e-03,
423,1.60e-02,
424,-8.00e-03,
425,1.60e-02,
426,-8.00e-03,
427,1.60e-02,
428,1.60e-02,
429,-1.20e-02,
430,-8.00e-03,
431,1.60e-02,
432,-8.00e-03,
433,1.60e-02,
434,1.60e-02,
435,-8.00e-03,
436,-8.00e-03,
437,1.60e-02,
438,-8.00e-03,
439,1.60e-02,
440,-8.00e-03,
441,1.60e-02,
442,-8.00e-03,
443,1.60e-02,
444,1.60e-02,
445,-1.20e-02,
446,-8.00e-03,
447,1.60e-02,
448,-8.00e-03,
449,1.60e-02,
450,-8.00e-03,
451,1.60e-02,
452,-8.00e-03,
453,1.60e-02,
454,-8.00e-03,
455,1.60e-02,
456,1.20e-02,
457,-1.20e-02,
458,-8.00e-03,
459,1.20e-02,
460,-8.00e-03,
461,1.60e-02,
462,-8.00e-03,
463,1.60e-02,
464,1.20e-02,
465,-8.00e-03,
466,1.60e-02,
467,-1.20e-02,
468,-1.12e-01,
469,2.40e-02,
470,-8.00e-03,
471,1.60e-02,
472,-8.00e-03,
473,1.60e-02,
474,-8.00e-03,
475,1.60e-02,
476,-8.00e-03,
477,1.60e-02,
478,-8.00e-03,
479,1.60e-02,
480,1.20e-02,
481,-8.00e-03,
482,-8.00e-03,
483,1.60e-02,
484,-8.00e-03,
485,1.60e-02,
486,-8.00e-03,
487,1.60e-02,
488,-8.00e-03,
489,1.60e-02,
490,-8.00e-03,
491,1.60e-02,
492,-8.00e-03,
493,1.60e-02,
494,-8.00e-03,
495,1.60e-02,
496,-8.00e-03,
497,2.00e-02,
498,1.20e-02,
499,-8.00e-03,
500,-8.00e-03,
501,1.60e-02,
502,-8.00e-03,
503,1.60e-02,
504,-8.00e-03,
505,2.00e-02,
506,-8.00e-03,
507,1.60e-02,
508,-8.00e-03,
509,1.20e-02,
510,-8.00e-03,
511,1.20e-02,
512,-8.00e-03,
513,1.60e-02,
514,-8.00e-03,
515,1.60e-02,
516,-8.00e-03,
517,1.60e-02,
518,-8.00e-03,
519,1.60e-02,
520,1.20e-02,
521,-1.20e-02,
522,5.60e-02,
523,-3.60e-02,
524,1.60e-02,
525,-1.20e-02,
526,1.60e-02,
527,-1.20e-02,
528,1.60e-02,
529,-1.20e-02,
530,1.60e-02,
531,-8.00e-03,
532,-8.00e-03,
533,1.60e-02,
534,-8.00e-03,
535,1.60e-02,
536,-8.00e-03,
537,1.60e-02,
538,-8.00e-03,
539,1.60e-02,
540,1.60e-02,
541,-8.00e-03,
542,-8.00e-03,
543,1.60e-02,
544,-8.00e-03,
545,1.60e-02,
546,1.20e-02,
547,-8.00e-03,
548,1.60e-02,
549,-1.20e-02,
550,-8.00e-03,
551,1.60e-02,
552,-8.00e-03,
553,1.60e-02,
554,-8.00e-03,
555,1.60e-02,
556,-8.00e-03,
557,1.60e-02,
558,1.20e-02,
559,-1.20e-02,
560,-8.00e-03,
561,1.60e-02,
562,2.00e-02,
563,-1.20e-02,
564,1.60e-02,
565,-8.00e-03,
566,-8.00e-03,
567,1.60e-02,
568,-8.00e-03,
569,1.60e-02,
570,1.60e-02,
571,-8.00e-03,
572,-8.00e-03,
573,1.60e-02,
574,1.20e-01,
575,-2.80e-02,
576,-8.00e-03,
577,1.60e-02,
578,-8.00e-03,
579,1.60e-02,
580,-8.00e-03,
581,1.60e-02,
582,1.60e-02,
583,-8.00e-03,
584,-8.00e-03,
585,1.60e-02,
586,1.60e-02,
587,-1.20e-02,
588,-8.00e-03,
589,1.60e-02,
590,1.60e-02,
591,-1.20e-02,
592,-1.20e-02,
593,1.60e-02,
594,-8.00e-03,
595,1.60e-02,
596,-8.00e-03,
597,1.60e-02,
598,-8.00e-03,
599,1.60e-02,
600,-8.00e-03,
601,1.60e-02,
602,-1.20e-02,
603,1.60e-02,
604,-1.20e-02,
605,2.00e-02,
606,-8.00e-03,
607,1.60e-02,
608,-8.00e-03,
609,1.60e-02,
610,-8.00e-03,
611,1.60e-02,
612,-8.00e-03,
613,2.00e-02,
614,-8.00e-03,
615,1.60e-02,
616,-8.00e-03,
617,1.60e-02,
618,1.20e-02,
619,-8.00e-03,
620,-8.00e-03,
621,1.20e-02,
622,-8.00e-03,
623,1.60e-02,
624,1.60e-02,
625,-1.20e-02,
626,-8.00e-03,
627,1.60e-02,
628,1.00e-01,
629,-3.60e-02,
630,-8.00e-03,
631,1.60e-02,
632,-8.00e-03,
633,1.60e-02,
634,-8.00e-03,
635,1.60e-02,
636,-8.00e-03,
637,1.60e-02,
638,-8.00e-03,
639,1.60e-02,
640,1.60e-02,
641,-8.00e-03,
642,-8.00e-03,
643,1.60e-02,
644,-8.00e-03,
645,1.60e-02,
646,-8.00e-03,
647,1.60e-02,
648,-8.00e-03,
649,1.60e-02,
650,-8.00e-03,
651,2.00e-02,
652,1.60e-02,
653,-1.20e-02,
654,-8.00e-03,
655,1.60e-02,
656,-8.00e-03,
657,1.60e-02,
658,-8.00e-03,
659,1.20e-02,
660,1.60e-02,
661,-8.00e-03,
662,-1.20e-02,
663,1.60e-02,
664,-8.00e-03,
665,1.60e-02,
666,-1.20e-02,
667,1.60e-02,
668,-8.00e-03,
669,1.60e-02,
670,-8.00e-03,
671,1.60e-02,
672,1.60e-02,
673,-8.00e-03,
674,-8.00e-03,
675,1.60e-02,
676,-8.00e-03,
677,1.60e-02,
678,1.60e-02,
679,-8.00e-03,
680,-3.60e-02,
681,6.80e-02,
682,-8.00e-03,
683,1.60e-02,
684,-8.00e-03,
685,1.60e-02,
686,-8.00e-03,
687,1.60e-02,
688,-8.00e-03,
689,1.60e-02,
690,-8.00e-03,
691,1.60e-02,
692,-8.00e-03,
693,1.60e-02,
694,-8.00e-03,
695,1.60e-02,
696,-8.00e-03,
697,1.60e-02,
698,1.60e-02,
699,-8.00e-03,
700,-8.00e-03,
701,1.60e-02,
702,1.60e-02,
703,-8.00e-03,
704,-8.00e-03,
705,1.60e-02,
706,-8.00e-03,
707,1.60e-02,
708,-8.00e-03,
709,1.60e-02,
710,-8.00e-03,
711,1.60e-02,
712,-8.00e-03,
713,1.60e-02,
714,1.60e-02,
715,-8.00e-03,
716,-8.00e-03,
717,1.60e-02,
718,-8.00e-03,
719,1.60e-02,
720,-8.00e-03,
721,1.60e-02,
722,-8.00e-03,
723,1.60e-02,
724,-8.00e-03,
725,1.60e-02,
726,-8.00e-03,
727,1.60e-02,
728,-8.00e-03,
729,1.60e-02,
730,-8.00e-03,
731,2.00e-02,
732,-8.00e-03,
733,1.60e-02,
734,-1.72e-01,
735,8.80e-02,
736,-8.00e-03,
737,1.60e-02,
738,-8.00e-03,
739,1.60e-02,
740,1.60e-02,
741,-8.00e-03,
742,1.60e-02,
743,-8.00e-03,
744,-8.00e-03,
745,1.20e-02,
746,-8.00e-03,
747,1.60e-02,
748,-8.00e-03,
749,1.60e-02,
750,-8.00e-03,
751,1.60e-02,
752,-8.00e-03,
753,1.20e-02,
754,-8.00e-03,
755,1.60e-02,
756,-8.00e-03,
757,1.60e-02,
758,-8.00e-03,
759,1.60e-02,
760,-8.00e-03,
761,1.60e-02,
762,-8.00e-03,
763,1.60e-02,
764,-8.00e-03,
765,1.60e-02,
766,-8.00e-03,
767,1.60e-02,
768,-8.00e-03,
769,1.60e-02,
770,-8.00e-03,
771,1.60e-02,
772,1.60e-02,
773,-1.20e-02,
774,1.60e-02,
775,-1.20e-02,
776,-8.00e-03,
777,1.60e-02,
778,-8.00e-03,
779,2.00e-02,
780,-8.00e-03,
781,1.60e-02,
782,-8.00e-03,
783,1.60e-02,
784,-8.00e-03,
785,1.60e-02,
786,1.60e-02,
787,-3.60e-02,
788,1.24e-01,
789,-1.20e-02,
790,-8.00e-03,
791,1.60e-02,
792,-8.00e-03,
793,1.60e-02,
794,-8.00e-03,
795,1.60e-02,
796,1.60e-02,
797,-8.00e-03,
798,-8.00e-03,
799,1.60e-02,
800,-8.00e-03,
801,1.60e-02,
802,-8.00e-03,
803,1.60e-02,
804,-8.00e-03,
805,1.60e-02,
806,-8.00e-03,
807,1.60e-02,
808,-8.00e-03,
809,1.60e-02,
810,-8.00e-03,
811,1.20e-02,
812,-8.00e-03,
813,1.60e-02,
814,-8.00e-03,
815,1.60e-02,
816,-8.00e-03,
817,1.60e-02,
818,-8.00e-03,
819,1.60e-02,
820,-8.00e-03,
821,1.60e-02,
822,-8.00e-03,
823,1.60e-02,
824,-8.00e-03,
825,1.60e-02,
826,-8.00e-03,
827,1.60e-02,
828,-8.00e-03,
829,1.60e-02,
830,-1.20e-02,
831,1.60e-02,
832,-8.00e-03,
833,1.60e-02,
834,-8.00e-03,
835,1.60e-02,
836,-8.00e-03,
837,1.60e-02,
838,-8.00e-03,
839,1.60e-02,
840,9.20e-02,
841,-2.80e-02,
842,1.60e-02,
843,-1.20e-02,
844,-8.00e-03,
845,1.60e-02,
846,-8.00e-03,
847,1.60e-02,
848,1.60e-02,
849,-1.20e-02,
850,-8.00e-03,
851,1.20e-02,
852,-8.00e-03,
853,2.00e-02,
854,2.00e-02,
855,-1.20e-02,
856,-1.20e-02,
857,2.00e-02,
858,1.60e-02,
859,-8.00e-03,
860,-8.00e-03,
861,1.60e-02,
862,1.20e-02,
863,-8.00e-03,
864,-8.00e-03,
865,1.60e-02,
866,1.60e-02,
867,-8.00e-03,
868,-8.00e-03,
869,1.60e-02,
870,1.60e-02,
871,-1.20e-02,
872,1.60e-02,
873,-8.00e-03,
874,-8.00e-03,
875,1.60e-02,
876,-8.00e-03,
877,1.60e-02,
878,-8.00e-03,
879,1.60e-02,
880,-8.00e-03,
881,1.60e-02,
882,-8.00e-03,
883,1.60e-02,
884,-8.00e-03,
885,1.60e-02,
886,-8.00e-03,
887,1.60e-02,
888,-8.00e-03,
889,1.60e-02,
890,-8.00e-03,
891,1.60e-02,
892,-8.00e-03,
893,1.60e-02,
894,-2.40e-02,
895,8.00e-02,
896,-8.00e-03,
897,1.60e-02,
898,-1.20e-02,
899,1.60e-02,
900,-8.00e-03,
901,1.60e-02,
902,1.60e-02,
903,-1.20e-02,
904,-8.00e-03,
905,1.60e-02,
906,-8.00e-03,
907,1.60e-02,
908,-8.00e-03,
909,1.60e-02,
910,-8.00e-03,
911,1.60e-02,
912,-8.00e-03,
913,1.60e-02,
914,-8.00e-03,
915,1.60e-02,
916,1.60e-02,
917,-8.00e-03,
918,-8.00e-03,
919,1.60e-02,
920,-8.00e-03,
921,1.60e-02,
922,-8.00e-03,
923,1.60e-02,
924,-8.00e-03,
925,1.60e-02,
926,-8.00e-03,
927,1.60e-02,
928,-8.00e-03,
929,1.20e-02,
930,-8.00e-03,
931,1.60e-02,
932,-8.00e-03,
933,1.60e-02,
934,1.60e-02,
935,-1.20e-02,
936,-1.20e-02,
937,2.00e-02,
938,-8.00e-03,
939,1.60e-02,
940,-1.20e-02,
941,1.60e-02,
942,-1.20e-02,
943,1.60e-02,
944,-1.20e-02,
945,1.60e-02,
946,-8.00e-03,
947,1.60e-02,
948,-2.80e-02,
949,4.00e-02,
950,-8.00e-03,
951,1.60e-02,
952,-8.00e-03,
953,1.60e-02,
954,-8.00e-03,
955,1.60e-02,
956,-8.00e-03,
957,1.60e-02,
958,-8.00e-03,
959,1.60e-02,
960,1.60e-02,
961,-8.00e-03,
962,-8.00e-03,
963,1.60e-02,
964,-8.00e-03,
965,1.60e-02,
966,-8.00e-03,
967,1.60e-02,
968,-8.00e-03,
969,1.60e-02,
970,1.60e-02,
971,-8.00e-03,
972,-8.00e-03,
973,1.60e-02,
974,-8.00e-03,
975,1.60e-02,
976,1.60e-02,
977,-1.20e-02,
978,-8.00e-03,
979,1.60e-02,
980,1.60e-02,
981,-1.20e-02,
982,-1.20e-02,
983,1.60e-02,
984,1.60e-02,
985,-1.20e-02,
986,-8.00e-03,
987,1.60e-02,
988,-8.00e-03,
989,1.60e-02,
990,-8.00e-03,
991,1.60e-02,
992,-8.00e-03,
993,1.60e-02,
994,-8.00e-03,
995,1.60e-02,
996,-8.00e-03,
997,1.20e-02,
998,-8.00e-03,
999,1.60e-02,
1000,2.40e-02,
1001,-2.00e-02,
1002,-8.00e-03,
1003,1.60e-02,
1004,-8.00e-03,
1005,1.60e-02,
1006,-8.00e-03,
1007,1.60e-02,
1008,1.60e-02,
1009,-1.20e-02,
1010,1.60e-02,
1011,-8.00e-03,
1012,1.60e-02,
1013,-8.00e-03,
1014,1.60e-02,
1015,-8.00e-03,
1016,-8.00e-03,
1017,1.60e-02,
1018,-8.00e-03,
1019,1.60e-02,
1020,-8.00e-03,
1021,1.60e-02,
1022,-8.00e-03,
1023,1.60e-02,
1024,1.60e-02,
1025,-1.20e-02,
1026,1.60e-02,
1027,-1.20e-02,
1028,-8.00e-03,
1029,1.60e-02,
1030,1.60e-02,
1031,-8.00e-03,
1032,-8.00e-03,
1033,1.60e-02,
1034,1.60e-02,
1035,-8.00e-03,
1036,-8.00e-03,
1037,1.60e-02,
1038,1.60e-02,
1039,-8.00e-03,
1040,-8.00e-03,
1041,1.60e-02,
1042,-8.00e-03,
1043,1.60e-02,
1044,-8.00e-03,
1045,1.60e-02,
1046,-8.00e-03,
1047,1.60e-02,
1048,1.60e-02,
1049,-8.00e-03,
1050,-8.00e-03,
1051,1.60e-02,
1052,1.60e-02,
1053,-8.00e-03,
1054,-7.20e-02,
1055,2.80e-02,
1056,1.60e-02,
1057,-8.00e-03,
1058,-8.00e-03,
1059,1.60e-02,
1060,-8.00e-03,
1061,1.20e-02,
1062,-8.00e-03,
1063,1.60e-02,
1064,-8.00e-03,
1065,1.60e-02,
1066,-8.00e-03,
1067,1.60e-02,
1068,-8.00e-03,
1069,2.00e-02,
1070,-8.00e-03,
1071,1.60e-02,
1072,-8.00e-03,
1073,1.60e-02,
1074,-8.00e-03,
1075,1.60e-02,
1076,-8.00e-03,
1077,1.60e-02,
1078,-8.00e-03,
1079,1.60e-02,
1080,-8.00e-03,
1081,1.60e-02,
1082,-8.00e-03,
1083,1.60e-02,
1084,-8.00e-03,
1085,1.60e-02,
1086,-8.00e-03,
1087,1.60e-02,
1088,-8.00e-03,
1089,1.60e-02,
1090,-8.00e-03,
1091,2.00e-02,
1092,-8.00e-03,
1093,1.60e-02,
1094,-8.00e-03,
1095,2.00e-02,
1096,-8.00e-03,
1097,1.60e-02,
1098,-8.00e-03,
1099,1.60e-02,
1100,-8.00e-03,
1101,2.00e-02,
1102,1.60e-02,
1103,-8.00e-03,
1104,-8.00e-03,
1105,1.60e-02,
1106,1.60e-02,
1107,-1.20e-02,
1108,1.16e-01,
1109,-3.60e-02,
1110,1.60e-02,
1111,-1.20e-02,
1112,-8.00e-03,
1113,1.60e-02,
1114,-8.00e-03,
1115,1.60e-02,
1116,-8.00e-03,
1117,1.60e-02,
1118,-8.00e-03,
1119,1.60e-02,
1120,-8.00e-03,
1121,1.60e-02,
1122,1.60e-02,
1123,-8.00e-03,
1124,-8.00e-03,
1125,1.60e-02,
1126,-8.00e-03,
1127,1.60e-02,
1128,-8.00e-03,
1129,1.60e-02,
1130,1.60e-02,
1131,-8.00e-03,
1132,-8.00e-03,
1133,1.60e-02,
1134,-8.00e-03,
1135,1.60e-02,
1136,-8.00e-03,
1137,1.60e-02,
1138,-8.00e-03,
1139,1.60e-02,
1140,-8.00e-03,
1141,1.60e-02,
1142,1.60e-02,
1143,-1.20e-02,
1144,1.20e-02,
1145,-1.20e-02,
1146,-8.00e-03,
1147,1.60e-02,
1148,-1.20e-02,
1149,1.60e-02,
1150,-8.00e-03,
1151,1.60e-02,
1152,2.00e-02,
1153,-8.00e-03,
1154,-8.00e-03,
1155,1.60e-02,
1156,-8.00e-03,
1157,1.60e-02,
1158,-8.00e-03,
1159,1.60e-02,
1160,6.40e-02,
1161,-2.40e-02,
1162,-2.00e-02,
1163,2.80e-02,
1164,-8.00e-03,
1165,1.60e-02,
1166,1.60e-02,
1167,-8.00e-03,
1168,1.20e-02,
1169,-8.00e-03,
1170,-8.00e-03,
1171,1.60e-02,
1172,1.20e-02,
1173,-1.20e-02,
1174,-8.00e-03,
1175,1.20e-02,
1176,-8.00e-03,
1177,1.60e-02,
1178,-8.00e-03,
1179,1.60e-02,
1180,-8.00e-03,
1181,1.60e-02,
1182,-8.00e-03,
1183,1.60e-02,
1184,-1.20e-02,
1185,1.60e-02,
1186,-8.00e-03,
1187,1.60e-02,
1188,-8.00e-03,
1189,1.60e-02,
1190,-8.00e-03,
1191,1.60e-02,
1192,-8.00e-03,
1193,1.60e-02,
1194,-8.00e-03,
1195,1.60e-02,
1196,-8.00e-03,
1197,1.60e-02,
1198,-8.00e-03,
1199,1.60e-02,
