Laptop_2/LAPTOP_CHRGR_2_OFF/time domain/NewFile5.csv

X,CH1,Start,Increment,
Sequence,Volt,-1.500000e-01,2.000000e-04
0,-4.00e-03,
1,1.60e-02,
2,-4.00e-03,
3,1.20e-02,
4,-4.00e-03,
5,1.20e-02,
6,-4.00e-03,
7,1.20e-02,
8,-4.00e-03,
9,1.20e-02,
10,-4.00e-03,
11,1.20e-02,
12,-4.00e-03,
13,1.20e-02,
14,-4.00e-03,
15,1.20e-02,
16,-4.00e-03,
17,1.20e-02,
18,1.08e-01,
19,-1.12e-01,
20,-4.00e-03,
21,1.20e-02,
22,1.20e-02,
23,-8.00e-03,
24,-4.00e-03,
25,1.20e-02,
26,-4.00e-03,
27,1.20e-02,
28,-4.00e-03,
29,1.20e-02,
30,-4.00e-03,
31,1.20e-02,
32,-4.00e-03,
33,1.20e-02,
34,1.60e-02,
35,-8.00e-03,
36,-8.00e-03,
37,1.20e-02,
38,1.20e-02,
39,-8.00e-03,
40,-4.00e-03,
41,1.20e-02,
42,-4.00e-03,
43,1.60e-02,
44,1.20e-02,
45,-8.00e-03,
46,1.20e-02,
47,-4.00e-03,
48,1.20e-02,
49,-4.00e-03,
50,1.20e-02,
51,-4.00e-03,
52,1.20e-02,
53,-4.00e-03,
54,-4.00e-03,
55,1.20e-02,
56,-4.00e-03,
57,1.20e-02,
58,-4.00e-03,
59,1.20e-02,
60,-4.00e-03,
61,1.20e-02,
62,-8.00e-03,
63,1.20e-02,
64,1.20e-02,
65,-8.00e-03,
66,1.20e-02,
67,-8.00e-03,
68,1.20e-02,
69,-8.00e-03,
70,-8.00e-03,
71,1.44e-01,
72,6.00e-02,
73,-2.00e-02,
74,1.20e-02,
75,-8.00e-03,
76,-8.00e-03,
77,1.20e-02,
78,1.20e-02,
79,-8.00e-03,
80,-4.00e-03,
81,1.20e-02,
82,1.20e-02,
83,-8.00e-03,
84,1.20e-02,
85,-8.00e-03,
86,-4.00e-03,
87,1.20e-02,
88,-4.00e-03,
89,1.20e-02,
90,-4.00e-03,
91,1.20e-02,
92,-4.00e-03,
93,1.20e-02,
94,1.20e-02,
95,-4.00e-03,
96,1.20e-02,
97,-8.00e-03,
98,-4.00e-03,
99,1.20e-02,
100,-4.00e-03,
101,1.20e-02,
102,-4.00e-03,
103,1.20e-02,
104,-4.00e-03,
105,1.20e-02,
106,-4.00e-03,
107,1.20e-02,
108,-4.00e-03,
109,1.20e-02,
110,-4.00e-03,
111,1.20e-02,
112,-4.00e-03,
113,1.20e-02,
114,-4.00e-03,
115,1.20e-02,
116,1.20e-02,
117,-8.00e-03,
118,1.20e-02,
119,-8.00e-03,
120,-8.00e-03,
121,1.20e-02,
122,1.20e-02,
123,-8.00e-03,
124,4.80e-02,
125,-2.40e-02,
126,1.20e-02,
127,-8.00e-03,
128,-4.00e-03,
129,1.20e-02,
130,-4.00e-03,
131,1.20e-02,
132,-4.00e-03,
133,1.20e-02,
134,-4.00e-03,
135,1.20e-02,
136,1.20e-02,
137,-4.00e-03,
138,-4.00e-03,
139,1.20e-02,
140,-4.00e-03,
141,1.20e-02,
142,-4.00e-03,
143,1.20e-02,
144,1.20e-02,
145,-4.00e-03,
146,1.20e-02,
147,-8.00e-03,
148,-4.00e-03,
149,1.20e-02,
150,1.60e-02,
151,-8.00e-03,
152,-4.00e-03,
153,1.20e-02,
154,-4.00e-03,
155,1.20e-02,
156,1.20e-02,
157,-8.00e-03,
158,-4.00e-03,
159,1.60e-02,
160,1.20e-02,
161,-8.00e-03,
162,1.20e-02,
163,-8.00e-03,
164,1.20e-02,
165,-8.00e-03,
166,-8.00e-03,
167,1.20e-02,
168,-4.00e-03,
169,1.60e-02,
170,1.20e-02,
171,-4.00e-03,
172,-4.00e-03,
173,1.20e-02,
174,-4.00e-03,
175,1.20e-02,
176,5.60e-02,
177,-6.00e-02,
178,-4.00e-03,
179,1.20e-02,
180,-4.00e-03,
181,1.20e-02,
182,-4.00e-03,
183,1.20e-02,
184,-4.00e-03,
185,1.20e-02,
186,-4.00e-03,
187,1.20e-02,
188,-4.00e-03,
189,1.20e-02,
190,-4.00e-03,
191,1.60e-02,
192,1.20e-02,
193,-8.00e-03,
194,1.20e-02,
195,-8.00e-03,
196,1.20e-02,
197,-8.00e-03,
198,1.60e-02,
199,-4.00e-03,
200,1.20e-02,
201,-8.00e-03,
202,-8.00e-03,
203,1.20e-02,
204,-8.00e-03,
205,1.60e-02,
206,1.60e-02,
207,-8.00e-03,
208,-8.00e-03,
209,1.20e-02,
210,-8.00e-03,
211,1.60e-02,
212,1.20e-02,
213,-8.00e-03,
214,-4.00e-03,
215,1.20e-02,
216,-4.00e-03,
217,1.20e-02,
218,-4.00e-03,
219,1.20e-02,
220,-4.00e-03,
221,1.20e-02,
222,1.20e-02,
223,-8.00e-03,
224,-4.00e-03,
225,1.20e-02,
226,-4.00e-03,
227,1.20e-02,
228,1.20e-02,
229,-8.00e-03,
230,-2.40e-02,
231,3.60e-02,
232,-8.00e-03,
233,1.20e-02,
234,-4.00e-03,
235,1.20e-02,
236,-4.00e-03,
237,1.20e-02,
238,1.20e-02,
239,-8.00e-03,
240,1.20e-02,
241,-8.00e-03,
242,1.20e-02,
243,-8.00e-03,
244,1.20e-02,
245,-8.00e-03,
246,-8.00e-03,
247,1.20e-02,
248,-8.00e-03,
249,1.20e-02,
250,1.20e-02,
251,-8.00e-03,
252,-8.00e-03,
253,1.20e-02,
254,-4.00e-03,
255,1.20e-02,
256,1.20e-02,
257,-4.00e-03,
258,-4.00e-03,
259,1.20e-02,
260,1.20e-02,
261,-4.00e-03,
262,-4.00e-03,
263,1.20e-02,
264,-4.00e-03,
265,1.20e-02,
266,1.20e-02,
267,-8.00e-03,
268,1.20e-02,
269,-8.00e-03,
270,-8.00e-03,
271,1.20e-02,
272,-8.00e-03,
273,1.20e-02,
274,1.20e-02,
275,-8.00e-03,
276,1.20e-02,
277,-8.00e-03,
278,1.20e-02,
279,-8.00e-03,
280,-8.00e-03,
281,1.20e-02,
282,2.40e-02,
283,-1.12e-01,
284,1.20e-02,
285,-8.00e-03,
286,1.20e-02,
287,-1.20e-02,
288,-8.00e-03,
289,1.60e-02,
290,1.20e-02,
291,-8.00e-03,
292,1.20e-02,
293,-8.00e-03,
294,-4.00e-03,
295,1.20e-02,
296,-4.00e-03,
297,1.20e-02,
298,-4.00e-03,
299,1.20e-02,
300,1.20e-02,
301,-8.00e-03,
302,-4.00e-03,
303,1.20e-02,
304,-4.00e-03,
305,1.20e-02,
306,1.20e-02,
307,-8.00e-03,
308,-4.00e-03,
309,1.20e-02,
310,-4.00e-03,
311,1.20e-02,
312,1.20e-02,
313,-8.00e-03,
314,1.60e-02,
315,-4.00e-03,
316,-4.00e-03,
317,1.20e-02,
318,-4.00e-03,
319,1.20e-02,
320,-4.00e-03,
321,1.20e-02,
322,-4.00e-03,
323,1.20e-02,
324,-4.00e-03,
325,1.60e-02,
326,1.20e-02,
327,-8.00e-03,
328,1.20e-02,
329,-8.00e-03,
330,1.20e-02,
331,-8.00e-03,
332,1.20e-02,
333,-8.00e-03,
334,1.20e-02,
335,-8.00e-03,
336,-5.20e-02,
337,2.80e-02,
338,-4.00e-03,
339,1.20e-02,
340,-4.00e-03,
341,1.20e-02,
342,-4.00e-03,
343,1.20e-02,
344,-4.00e-03,
345,1.20e-02,
346,-4.00e-03,
347,1.20e-02,
348,-4.00e-03,
349,1.20e-02,
350,-4.00e-03,
351,1.20e-02,
352,-4.00e-03,
353,1.20e-02,
354,-4.00e-03,
355,1.20e-02,
356,-4.00e-03,
357,1.20e-02,
358,1.20e-02,
359,-8.00e-03,
360,-4.00e-03,
361,1.20e-02,
362,1.20e-02,
363,-8.00e-03,
364,-4.00e-03,
365,1.20e-02,
366,1.20e-02,
367,-8.00e-03,
368,-4.00e-03,
369,1.20e-02,
370,1.20e-02,
371,-8.00e-03,
372,-8.00e-03,
373,1.60e-02,
374,1.20e-02,
375,-8.00e-03,
376,-8.00e-03,
377,1.20e-02,
378,-4.00e-03,
379,1.20e-02,
380,-4.00e-03,
381,1.20e-02,
382,-4.00e-03,
383,1.20e-02,
384,-4.00e-03,
385,1.20e-02,
386,-4.00e-03,
387,1.20e-02,
388,-9.20e-02,
389,9.60e-02,
390,-4.00e-03,
391,1.20e-02,
392,-4.00e-03,
393,1.20e-02,
394,-4.00e-03,
395,1.20e-02,
396,-4.00e-03,
397,1.20e-02,
398,1.60e-02,
399,-8.00e-03,
400,-4.00e-03,
401,1.60e-02,
402,1.20e-02,
403,-8.00e-03,
404,1.20e-02,
405,-8.00e-03,
406,1.20e-02,
407,-8.00e-03,
408,1.60e-02,
409,-8.00e-03,
410,1.20e-02,
411,-8.00e-03,
412,1.20e-02,
413,-4.00e-03,
414,1.20e-02,
415,-8.00e-03,
416,1.20e-02,
417,-8.00e-03,
418,-4.00e-03,
419,1.20e-02,
420,-4.00e-03,
421,1.20e-02,
422,1.20e-02,
423,-4.00e-03,
424,1.20e-02,
425,-4.00e-03,
426,-4.00e-03,
427,1.20e-02,
428,-4.00e-03,
429,1.20e-02,
430,-4.00e-03,
431,1.20e-02,
432,-4.00e-03,
433,1.20e-02,
434,-4.00e-03,
435,1.20e-02,
436,1.20e-02,
437,-8.00e-03,
438,-4.00e-03,
439,1.20e-02,
440,1.00e-01,
441,-1.60e-02,
442,3.20e-02,
443,-1.60e-02,
444,1.20e-02,
445,-8.00e-03,
446,-4.00e-03,
447,1.20e-02,
448,-4.00e-03,
449,1.60e-02,
450,-8.00e-03,
451,1.20e-02,
452,-8.00e-03,
453,1.60e-02,
454,1.20e-02,
455,-8.00e-03,
456,1.20e-02,
457,-8.00e-03,
458,1.60e-02,
459,-8.00e-03,
460,1.20e-02,
461,-8.00e-03,
462,1.20e-02,
463,-4.00e-03,
464,-4.00e-03,
465,1.20e-02,
466,-4.00e-03,
467,1.20e-02,
468,-4.00e-03,
469,1.20e-02,
470,-4.00e-03,
471,1.20e-02,
472,-4.00e-03,
473,1.20e-02,
474,-4.00e-03,
475,1.20e-02,
476,-4.00e-03,
477,1.20e-02,
478,-8.00e-03,
479,1.20e-02,
480,1.60e-02,
481,-8.00e-03,
482,1.20e-02,
483,-8.00e-03,
484,-4.00e-03,
485,1.20e-02,
486,-8.00e-03,
487,1.60e-02,
488,1.60e-02,
489,-8.00e-03,
490,1.20e-02,
491,-8.00e-03,
492,2.00e-02,
493,-8.00e-03,
494,-8.40e-02,
495,6.80e-02,
496,1.60e-02,
497,-8.00e-03,
498,1.60e-02,
499,-8.00e-03,
500,-8.00e-03,
501,1.60e-02,
502,-4.00e-03,
503,1.60e-02,
504,-4.00e-03,
505,1.20e-02,
506,-4.00e-03,
507,1.20e-02,
508,-4.00e-03,
509,1.20e-02,
510,1.20e-02,
511,-4.00e-03,
512,-4.00e-03,
513,1.20e-02,
514,1.20e-02,
515,-8.00e-03,
516,1.20e-02,
517,-4.00e-03,
518,1.20e-02,
519,-8.00e-03,
520,-8.00e-03,
521,1.20e-02,
522,-4.00e-03,
523,1.20e-02,
524,1.20e-02,
525,-4.00e-03,
526,1.20e-02,
527,-8.00e-03,
528,1.20e-02,
529,-8.00e-03,
530,-4.00e-03,
531,1.20e-02,
532,-4.00e-03,
533,1.20e-02,
534,1.20e-02,
535,-8.00e-03,
536,1.20e-02,
537,-8.00e-03,
538,1.20e-02,
539,-8.00e-03,
540,-4.00e-03,
541,1.20e-02,
542,1.20e-02,
543,-4.00e-03,
544,-4.00e-03,
545,1.20e-02,
546,4.40e-02,
547,-2.00e-02,
548,-4.00e-03,
549,1.20e-02,
550,-4.00e-03,
551,1.20e-02,
552,-4.00e-03,
553,1.20e-02,
554,-4.00e-03,
555,1.20e-02,
556,-4.00e-03,
557,1.20e-02,
558,-4.00e-03,
559,1.20e-02,
560,-4.00e-03,
561,1.20e-02,
562,-4.00e-03,
563,1.20e-02,
564,1.20e-02,
565,-8.00e-03,
566,1.20e-02,
567,-8.00e-03,
568,1.20e-02,
569,-8.00e-03,
570,1.20e-02,
571,-4.00e-03,
572,-4.00e-03,
573,1.60e-02,
574,-4.00e-03,
575,1.20e-02,
576,1.60e-02,
577,-8.00e-03,
578,1.60e-02,
579,-8.00e-03,
580,1.20e-02,
581,-8.00e-03,
582,1.20e-02,
583,-8.00e-03,
584,1.20e-02,
585,-8.00e-03,
586,-4.00e-03,
587,1.20e-02,
588,-4.00e-03,
589,1.20e-02,
590,-4.00e-03,
591,1.20e-02,
592,1.20e-02,
593,-4.00e-03,
594,1.20e-02,
595,-4.00e-03,
596,-4.00e-03,
597,1.20e-02,
598,1.40e-01,
599,-1.60e-02,
600,-4.00e-03,
601,1.20e-02,
602,-4.00e-03,
603,1.20e-02,
604,-4.00e-03,
605,1.20e-02,
606,-4.00e-03,
607,1.20e-02,
608,-4.00e-03,
609,1.20e-02,
610,-4.00e-03,
611,1.20e-02,
612,-4.00e-03,
613,1.20e-02,
614,-8.00e-03,
615,1.20e-02,
616,-8.00e-03,
617,1.20e-02,
618,-8.00e-03,
619,1.20e-02,
620,1.20e-02,
621,-8.00e-03,
622,1.20e-02,
623,-8.00e-03,
624,1.20e-02,
625,-8.00e-03,
626,-4.00e-03,
627,1.20e-02,
628,1.20e-02,
629,-4.00e-03,
630,-4.00e-03,
631,1.20e-02,
632,-4.00e-03,
633,1.20e-02,
634,1.20e-02,
635,-8.00e-03,
636,-4.00e-03,
637,1.20e-02,
638,1.20e-02,
639,-4.00e-03,
640,-4.00e-03,
641,1.20e-02,
642,-4.00e-03,
643,1.20e-02,
644,-4.00e-03,
645,1.20e-02,
646,1.20e-02,
647,-4.00e-03,
648,-4.00e-03,
649,1.20e-02,
650,1.36e-01,
651,-6.40e-02,
652,-4.00e-03,
653,1.60e-02,
654,1.20e-02,
655,-8.00e-03,
656,1.20e-02,
657,-8.00e-03,
658,-4.00e-03,
659,1.20e-02,
660,-4.00e-03,
661,1.60e-02,
662,1.20e-02,
663,-8.00e-03,
664,1.20e-02,
665,-8.00e-03,
666,-8.00e-03,
667,1.60e-02,
668,-4.00e-03,
669,1.20e-02,
670,-4.00e-03,
671,1.20e-02,
672,-4.00e-03,
673,1.20e-02,
674,-4.00e-03,
675,1.20e-02,
676,1.20e-02,
677,-8.00e-03,
678,-4.00e-03,
679,1.20e-02,
680,-4.00e-03,
681,1.20e-02,
682,-4.00e-03,
683,1.20e-02,
684,-4.00e-03,
685,1.20e-02,
686,-4.00e-03,
687,1.20e-02,
688,-4.00e-03,
689,1.20e-02,
690,-4.00e-03,
691,1.20e-02,
692,1.20e-02,
693,-4.00e-03,
694,-4.00e-03,
695,1.20e-02,
696,1.20e-02,
697,-4.00e-03,
698,1.20e-02,
699,-4.00e-03,
700,1.20e-02,
701,-8.00e-03,
702,-4.00e-03,
703,1.20e-02,
704,9.20e-02,
705,-2.40e-02,
706,-4.00e-03,
707,1.20e-02,
708,1.20e-02,
709,-8.00e-03,
710,-4.00e-03,
711,1.20e-02,
712,-4.00e-03,
713,1.20e-02,
714,-4.00e-03,
715,1.20e-02,
716,-4.00e-03,
717,1.20e-02,
718,-4.00e-03,
719,1.20e-02,
720,-4.00e-03,
721,1.20e-02,
722,-4.00e-03,
723,1.20e-02,
724,-4.00e-03,
725,1.20e-02,
726,-4.00e-03,
727,1.20e-02,
728,1.20e-02,
729,-8.00e-03,
730,1.20e-02,
731,-8.00e-03,
732,-8.00e-03,
733,1.20e-02,
734,-4.00e-03,
735,1.20e-02,
736,1.20e-02,
737,-8.00e-03,
738,-4.00e-03,
739,1.20e-02,
740,-8.00e-03,
741,1.20e-02,
742,-4.00e-03,
743,1.20e-02,
744,1.60e-02,
745,-8.00e-03,
746,1.20e-02,
747,-4.00e-03,
748,1.20e-02,
749,-4.00e-03,
750,-8.00e-03,
751,1.60e-02,
752,1.20e-02,
753,-4.00e-03,
754,-4.00e-03,
755,1.20e-02,
756,-6.00e-02,
757,2.00e-02,
758,-4.00e-03,
759,1.20e-02,
760,1.20e-02,
761,-8.00e-03,
762,-4.00e-03,
763,1.20e-02,
764,-4.00e-03,
765,1.20e-02,
766,-4.00e-03,
767,1.20e-02,
768,-4.00e-03,
769,1.20e-02,
770,-8.00e-03,
771,1.20e-02,
772,1.20e-02,
773,-8.00e-03,
774,-4.00e-03,
775,1.20e-02,
776,1.20e-02,
777,-8.00e-03,
778,1.20e-02,
779,-4.00e-03,
780,1.20e-02,
781,-8.00e-03,
782,-4.00e-03,
783,1.20e-02,
784,1.20e-02,
785,-8.00e-03,
786,1.20e-02,
787,-8.00e-03,
788,-8.00e-03,
789,1.20e-02,
790,-4.00e-03,
791,1.20e-02,
792,1.20e-02,
793,-8.00e-03,
794,1.20e-02,
795,-4.00e-03,
796,-4.00e-03,
797,1.20e-02,
798,-4.00e-03,
799,1.20e-02,
800,-4.00e-03,
801,1.20e-02,
802,-4.00e-03,
803,1.20e-02,
804,-4.00e-03,
805,1.20e-02,
806,-4.00e-03,
807,1.20e-02,
808,-6.40e-02,
809,3.20e-02,
810,1.20e-02,
811,-4.00e-03,
812,-4.00e-03,
813,1.20e-02,
814,-4.00e-03,
815,1.20e-02,
816,1.20e-02,
817,-8.00e-03,
818,1.20e-02,
819,-8.00e-03,
820,-4.00e-03,
821,1.20e-02,
822,1.20e-02,
823,-8.00e-03,
824,1.20e-02,
825,-8.00e-03,
826,-8.00e-03,
827,1.20e-02,
828,1.20e-02,
829,-4.00e-03,
830,1.20e-02,
831,-8.00e-03,
832,1.20e-02,
833,-8.00e-03,
834,1.20e-02,
835,-8.00e-03,
836,-8.00e-03,
837,1.20e-02,
838,-4.00e-03,
839,1.20e-02,
840,-4.00e-03,
841,1.20e-02,
842,-4.00e-03,
843,1.20e-02,
844,-4.00e-03,
845,1.20e-02,
846,-4.00e-03,
847,1.20e-02,
848,-4.00e-03,
849,1.20e-02,
850,1.20e-02,
851,-8.00e-03,
852,1.20e-02,
853,-8.00e-03,
854,-4.00e-03,
855,1.20e-02,
856,1.20e-02,
857,-8.00e-03,
858,1.20e-02,
859,-8.00e-03,
860,-1.20e-02,
861,3.20e-02,
862,-4.00e-03,
863,1.20e-02,
864,-4.00e-03,
865,1.20e-02,
866,-4.00e-03,
867,1.20e-02,
868,-4.00e-03,
869,1.20e-02,
870,1.20e-02,
871,-8.00e-03,
872,1.20e-02,
873,-8.00e-03,
874,-8.00e-03,
875,1.60e-02,
876,-4.00e-03,
877,1.20e-02,
878,1.20e-02,
879,-4.00e-03,
880,-4.00e-03,
881,1.20e-02,
882,-4.00e-03,
883,1.20e-02,
884,-4.00e-03,
885,1.20e-02,
886,-4.00e-03,
887,1.20e-02,
888,-4.00e-03,
889,1.20e-02,
890,-4.00e-03,
891,1.20e-02,
892,-4.00e-03,
893,1.20e-02,
894,-4.00e-03,
895,1.20e-02,
896,1.20e-02,
897,-8.00e-03,
898,-4.00e-03,
899,1.20e-02,
900,-4.00e-03,
901,1.20e-02,
902,-4.00e-03,
903,1.60e-02,
904,1.20e-02,
905,-8.00e-03,
906,-4.00e-03,
907,1.20e-02,
908,1.20e-02,
909,-8.00e-03,
910,-8.00e-03,
911,1.60e-02,
912,4.00e-02,
913,-4.80e-02,
914,-2.40e-02,
915,1.20e-02,
916,1.60e-02,
917,-8.00e-03,
918,1.20e-02,
919,-8.00e-03,
920,-4.00e-03,
921,1.20e-02,
922,-4.00e-03,
923,1.20e-02,
924,1.20e-02,
925,-4.00e-03,
926,-4.00e-03,
927,1.20e-02,
928,-4.00e-03,
929,1.20e-02,
930,1.20e-02,
931,-4.00e-03,
932,-4.00e-03,
933,1.20e-02,
934,-4.00e-03,
935,1.20e-02,
936,1.60e-02,
937,-8.00e-03,
938,-4.00e-03,
939,1.20e-02,
940,1.20e-02,
941,-4.00e-03,
942,-4.00e-03,
943,1.20e-02,
944,-4.00e-03,
945,1.20e-02,
946,1.20e-02,
947,-4.00e-03,
948,1.20e-02,
949,-8.00e-03,
950,1.20e-02,
951,-8.00e-03,
952,1.20e-02,
953,-8.00e-03,
954,-4.00e-03,
955,1.20e-02,
956,1.20e-02,
957,-8.00e-03,
958,-8.00e-03,
959,1.20e-02,
960,-4.00e-03,
961,1.20e-02,
962,-4.00e-03,
963,1.20e-02,
964,-4.00e-03,
965,1.20e-02,
966,-1.20e-01,
967,5.60e-02,
968,-4.00e-03,
969,1.20e-02,
970,-4.00e-03,
971,1.20e-02,
972,-4.00e-03,
973,1.20e-02,
974,-4.00e-03,
975,1.20e-02,
976,-4.00e-03,
977,1.20e-02,
978,1.20e-02,
979,-8.00e-03,
980,-4.00e-03,
981,1.20e-02,
982,-4.00e-03,
983,1.20e-02,
984,1.20e-02,
985,-4.00e-03,
986,1.20e-02,
987,-4.00e-03,
988,1.20e-02,
989,-8.00e-03,
990,1.20e-02,
991,-8.00e-03,
992,1.20e-02,
993,-4.00e-03,
994,1.60e-02,
995,-8.00e-03,
996,1.20e-02,
997,-8.00e-03,
998,1.20e-02,
999,-8.00e-03,
1000,1.60e-02,
1001,-8.00e-03,
1002,1.20e-02,
1003,-4.00e-03,
1004,1.20e-02,
1005,-4.00e-03,
1006,-4.00e-03,
1007,1.20e-02,
1008,-4.00e-03,
1009,1.20e-02,
1010,-4.00e-03,
1011,1.20e-02,
1012,-4.00e-03,
1013,1.20e-02,
1014,-4.00e-03,
1015,1.20e-02,
1016,-4.00e-03,
1017,1.20e-02,
1018,-1.56e-01,
1019,4.00e-02,
1020,-4.00e-03,
1021,1.20e-02,
1022,1.20e-02,
1023,-8.00e-03,
1024,-4.00e-03,
1025,1.20e-02,
1026,-4.00e-03,
1027,1.20e-02,
1028,1.60e-02,
1029,-4.00e-03,
1030,1.20e-02,
1031,-8.00e-03,
1032,-4.00e-03,
1033,1.20e-02,
1034,1.20e-02,
1035,-8.00e-03,
1036,1.20e-02,
1037,-8.00e-03,
1038,-8.00e-03,
1039,1.20e-02,
1040,1.20e-02,
1041,-8.00e-03,
1042,-4.00e-03,
1043,1.20e-02,
1044,1.20e-02,
1045,-8.00e-03,
1046,1.20e-02,
1047,-4.00e-03,
1048,-4.00e-03,
1049,1.20e-02,
1050,-4.00e-03,
1051,1.20e-02,
1052,-4.00e-03,
1053,1.20e-02,
1054,-4.00e-03,
1055,1.20e-02,
1056,-4.00e-03,
1057,1.20e-02,
1058,-4.00e-03,
1059,1.20e-02,
1060,-4.00e-03,
1061,1.20e-02,
1062,1.20e-02,
1063,-8.00e-03,
1064,-4.00e-03,
1065,1.20e-02,
1066,1.20e-02,
1067,-8.00e-03,
1068,1.20e-02,
1069,-8.00e-03,
1070,1.20e-02,
1071,-8.00e-03,
1072,-8.00e-03,
1073,1.00e-01,
1074,1.20e-02,
1075,-8.00e-03,
1076,-8.00e-03,
1077,1.20e-02,
1078,1.20e-02,
1079,-8.00e-03,
1080,1.20e-02,
1081,-8.00e-03,
1082,-8.00e-03,
1083,1.20e-02,
1084,-4.00e-03,
1085,1.60e-02,
1086,1.20e-02,
1087,-8.00e-03,
1088,-4.00e-03,
1089,1.20e-02,
1090,-4.00e-03,
1091,1.20e-02,
1092,-4.00e-03,
1093,1.20e-02,
1094,-4.00e-03,
1095,1.20e-02,
1096,1.20e-02,
1097,-8.00e-03,
1098,-4.00e-03,
1099,1.20e-02,
1100,1.20e-02,
1101,-8.00e-03,
1102,-4.00e-03,
1103,1.20e-02,
1104,1.20e-02,
1105,-8.00e-03,
1106,-4.00e-03,
1107,1.20e-02,
1108,1.20e-02,
1109,-8.00e-03,
1110,-4.00e-03,
1111,1.20e-02,
1112,-4.00e-03,
1113,1.20e-02,
1114,-8.00e-03,
1115,1.20e-02,
1116,-4.00e-03,
1117,1.20e-02,
1118,1.20e-02,
1119,-8.00e-03,
1120,1.20e-02,
1121,-8.00e-03,
1122,1.20e-02,
1123,-8.00e-03,
1124,1.12e-01,
1125,-1.60e-02,
1126,1.20e-02,
1127,-8.00e-03,
1128,1.20e-02,
1129,-4.00e-03,
1130,1.20e-02,
1131,-8.00e-03,
1132,-4.00e-03,
1133,1.20e-02,
1134,-4.00e-03,
1135,1.20e-02,
1136,-4.00e-03,
1137,1.20e-02,
1138,-4.00e-03,
1139,1.20e-02,
1140,-4.00e-03,
1141,1.20e-02,
1142,1.20e-02,
1143,-8.00e-03,
1144,1.20e-02,
1145,-8.00e-03,
1146,-4.00e-03,
1147,1.20e-02,
1148,1.20e-02,
1149,-8.00e-03,
1150,-4.00e-03,
1151,1.20e-02,
1152,1.20e-02,
1153,-8.00e-03,
1154,-4.00e-03,
1155,1.20e-02,
1156,-4.00e-03,
1157,1.20e-02,
1158,1.60e-02,
1159,-8.00e-03,
1160,1.20e-02,
1161,-8.00e-03,
1162,1.20e-02,
1163,-8.00e-03,
1164,-4.00e-03,
1165,1.20e-02,
1166,-4.00e-03,
1167,1.20e-02,
1168,-4.00e-03,
1169,1.20e-02,
1170,-4.00e-03,
1171,1.20e-02,
1172,-4.00e-03,
1173,1.20e-02,
1174,-4.00e-03,
1175,1.20e-02,
1176,1.12e-01,
1177,-9.20e-02,
1178,-4.00e-03,
1179,1.20e-02,
1180,-4.00e-03,
1181,1.20e-02,
1182,-4.00e-03,
1183,1.20e-02,
1184,-4.00e-03,
1185,1.20e-02,
1186,-4.00e-03,
1187,1.20e-02,
1188,-4.00e-03,
1189,1.20e-02,
1190,1.20e-02,
1191,-8.00e-03,
1192,-4.00e-03,
1193,1.20e-02,
1194,-4.00e-03,
1195,1.20e-02,
1196,-4.00e-03,
1197,1.20e-02,
1198,1.20e-02,
1199,-4.00e-03,
