Laptop_2/LAPTOP_CHRGR_2_OFF/time domain/NewFile1.csv

X,CH1,Start,Increment,
Sequence,Volt,-1.500000e-01,2.000000e-04
0,-4.00e-03,
1,1.20e-02,
2,8.00e-03,
3,-4.00e-03,
4,-4.00e-03,
5,8.00e-03,
6,-4.00e-03,
7,8.00e-03,
8,-4.00e-03,
9,1.20e-02,
10,-4.00e-03,
11,8.00e-03,
12,8.00e-03,
13,-4.00e-03,
14,8.00e-03,
15,-4.00e-03,
16,-4.00e-03,
17,1.20e-02,
18,-4.00e-03,
19,1.20e-02,
20,-4.00e-03,
21,1.20e-02,
22,-4.00e-03,
23,1.20e-02,
24,-4.00e-03,
25,1.20e-02,
26,-4.00e-03,
27,8.00e-03,
28,1.20e-02,
29,-8.00e-03,
30,-4.00e-03,
31,1.20e-02,
32,-4.00e-03,
33,1.20e-02,
34,-8.00e-03,
35,1.20e-02,
36,1.20e-02,
37,-8.00e-03,
38,8.00e-03,
39,-8.00e-03,
40,-4.00e-03,
41,1.20e-02,
42,-4.00e-03,
43,1.20e-02,
44,4.00e-02,
45,-8.00e-03,
46,-4.00e-03,
47,1.20e-02,
48,-4.00e-03,
49,1.20e-02,
50,8.00e-03,
51,-4.00e-03,
52,-4.00e-03,
53,1.20e-02,
54,-4.00e-03,
55,1.20e-02,
56,8.00e-03,
57,-4.00e-03,
58,8.00e-03,
59,-4.00e-03,
60,8.00e-03,
61,-4.00e-03,
62,-4.00e-03,
63,8.00e-03,
64,-4.00e-03,
65,8.00e-03,
66,-4.00e-03,
67,1.20e-02,
68,-4.00e-03,
69,1.20e-02,
70,-4.00e-03,
71,1.20e-02,
72,-4.00e-03,
73,1.20e-02,
74,-4.00e-03,
75,1.20e-02,
76,-4.00e-03,
77,1.20e-02,
78,-4.00e-03,
79,1.20e-02,
80,8.00e-03,
81,-4.00e-03,
82,-4.00e-03,
83,1.20e-02,
84,-4.00e-03,
85,1.20e-02,
86,-4.00e-03,
87,1.20e-02,
88,8.00e-03,
89,-4.00e-03,
90,-4.00e-03,
91,1.20e-02,
92,-4.00e-03,
93,8.00e-03,
94,8.00e-03,
95,-4.00e-03,
96,8.00e-03,
97,-4.00e-03,
98,8.00e-03,
99,-8.00e-03,
100,-4.00e-03,
101,1.20e-02,
102,-4.00e-03,
103,1.20e-02,
104,-4.00e-03,
105,8.00e-03,
106,-4.00e-03,
107,1.20e-02,
108,-4.00e-03,
109,8.00e-03,
110,-8.00e-03,
111,1.20e-02,
112,8.00e-03,
113,-8.00e-03,
114,-4.00e-03,
115,1.20e-02,
116,-4.00e-03,
117,1.20e-02,
118,-8.00e-03,
119,1.60e-02,
120,-4.00e-03,
121,1.20e-02,
122,1.60e-02,
123,-8.00e-03,
124,1.20e-02,
125,-8.00e-03,
126,-4.00e-03,
127,1.20e-02,
128,-4.00e-03,
129,1.20e-02,
130,-4.00e-03,
131,1.20e-02,
132,-4.00e-03,
133,1.20e-02,
134,8.00e-03,
135,-4.00e-03,
136,-4.00e-03,
137,1.20e-02,
138,-4.00e-03,
139,1.20e-02,
140,1.20e-02,
141,-4.00e-03,
142,-4.00e-03,
143,1.20e-02,
144,1.20e-02,
145,-4.00e-03,
146,-4.00e-03,
147,1.20e-02,
148,-4.00e-03,
149,1.20e-02,
150,-4.00e-03,
151,4.00e-02,
152,1.20e-02,
153,-4.00e-03,
154,-4.00e-03,
155,1.20e-02,
156,-4.00e-03,
157,1.20e-02,
158,-4.00e-03,
159,1.20e-02,
160,-4.00e-03,
161,1.20e-02,
162,-4.00e-03,
163,1.20e-02,
164,8.00e-03,
165,-4.00e-03,
166,-4.00e-03,
167,1.20e-02,
168,-4.00e-03,
169,1.20e-02,
170,8.00e-03,
171,-4.00e-03,
172,-4.00e-03,
173,1.20e-02,
174,8.00e-03,
175,-4.00e-03,
176,-4.00e-03,
177,8.00e-03,
178,-4.00e-03,
179,8.00e-03,
180,-4.00e-03,
181,1.20e-02,
182,-4.00e-03,
183,8.00e-03,
184,8.00e-03,
185,-4.00e-03,
186,-4.00e-03,
187,1.20e-02,
188,-4.00e-03,
189,1.20e-02,
190,1.20e-02,
191,-8.00e-03,
192,-4.00e-03,
193,1.20e-02,
194,-4.00e-03,
195,1.20e-02,
196,8.00e-03,
197,-4.00e-03,
198,-4.00e-03,
199,1.20e-02,
200,1.20e-02,
201,-4.00e-03,
202,1.20e-02,
203,-8.00e-03,
204,-4.40e-02,
205,1.60e-02,
206,8.00e-03,
207,-4.00e-03,
208,-4.00e-03,
209,1.20e-02,
210,-4.00e-03,
211,1.20e-02,
212,-4.00e-03,
213,8.00e-03,
214,8.00e-03,
215,-4.00e-03,
216,8.00e-03,
217,-4.00e-03,
218,-4.00e-03,
219,1.20e-02,
220,-4.00e-03,
221,1.20e-02,
222,8.00e-03,
223,-4.00e-03,
224,-4.00e-03,
225,1.20e-02,
226,-4.00e-03,
227,1.20e-02,
228,8.00e-03,
229,-4.00e-03,
230,-4.00e-03,
231,8.00e-03,
232,-4.00e-03,
233,1.20e-02,
234,-4.00e-03,
235,1.20e-02,
236,-4.00e-03,
237,1.20e-02,
238,-4.00e-03,
239,1.20e-02,
240,8.00e-03,
241,-4.00e-03,
242,8.00e-03,
243,-8.00e-03,
244,-4.00e-03,
245,1.20e-02,
246,8.00e-03,
247,-4.00e-03,
248,1.20e-02,
249,-4.00e-03,
250,-4.00e-03,
251,1.20e-02,
252,8.00e-03,
253,-4.00e-03,
254,8.00e-03,
255,-4.00e-03,
256,-3.20e-02,
257,2.40e-02,
258,-4.00e-03,
259,1.20e-02,
260,0.00e+00,
261,8.00e-03,
262,8.00e-03,
263,-4.00e-03,
264,-4.00e-03,
265,1.20e-02,
266,-4.00e-03,
267,1.20e-02,
268,8.00e-03,
269,-4.00e-03,
270,-4.00e-03,
271,1.20e-02,
272,-4.00e-03,
273,1.20e-02,
274,-4.00e-03,
275,1.20e-02,
276,-4.00e-03,
277,8.00e-03,
278,-4.00e-03,
279,1.20e-02,
280,-4.00e-03,
281,1.20e-02,
282,8.00e-03,
283,-4.00e-03,
284,-4.00e-03,
285,1.20e-02,
286,1.20e-02,
287,-8.00e-03,
288,-8.00e-03,
289,1.20e-02,
290,1.20e-02,
291,-8.00e-03,
292,-4.00e-03,
293,1.20e-02,
294,-4.00e-03,
295,1.20e-02,
296,8.00e-03,
297,-4.00e-03,
298,-4.00e-03,
299,8.00e-03,
300,8.00e-03,
301,-4.00e-03,
302,-4.00e-03,
303,1.20e-02,
304,-4.00e-03,
305,1.20e-02,
306,-4.00e-03,
307,1.20e-02,
308,1.20e-02,
309,-3.20e-02,
310,-8.00e-03,
311,2.40e-02,
312,-4.00e-03,
313,1.20e-02,
314,-4.00e-03,
315,1.20e-02,
316,-4.00e-03,
317,1.20e-02,
318,1.20e-02,
319,-4.00e-03,
320,-4.00e-03,
321,8.00e-03,
322,-4.00e-03,
323,8.00e-03,
324,-4.00e-03,
325,1.20e-02,
326,-4.00e-03,
327,1.20e-02,
328,-4.00e-03,
329,1.20e-02,
330,-4.00e-03,
331,1.20e-02,
332,-4.00e-03,
333,1.20e-02,
334,1.20e-02,
335,-8.00e-03,
336,-4.00e-03,
337,1.20e-02,
338,8.00e-03,
339,-4.00e-03,
340,-4.00e-03,
341,1.20e-02,
342,8.00e-03,
343,-4.00e-03,
344,-4.00e-03,
345,8.00e-03,
346,-4.00e-03,
347,1.20e-02,
348,-4.00e-03,
349,1.20e-02,
350,-4.00e-03,
351,8.00e-03,
352,8.00e-03,
353,-4.00e-03,
354,-4.00e-03,
355,1.20e-02,
356,8.00e-03,
357,-8.00e-03,
358,8.00e-03,
359,-4.00e-03,
360,-8.00e-03,
361,1.20e-02,
362,-4.00e-02,
363,2.00e-02,
364,-4.00e-03,
365,1.20e-02,
366,-4.00e-03,
367,8.00e-03,
368,-8.00e-03,
369,1.20e-02,
370,1.20e-02,
371,-8.00e-03,
372,-4.00e-03,
373,1.20e-02,
374,-4.00e-03,
375,1.20e-02,
376,-4.00e-03,
377,1.60e-02,
378,8.00e-03,
379,-4.00e-03,
380,8.00e-03,
381,-4.00e-03,
382,8.00e-03,
383,-4.00e-03,
384,1.20e-02,
385,-4.00e-03,
386,-4.00e-03,
387,1.20e-02,
388,1.20e-02,
389,-4.00e-03,
390,8.00e-03,
391,-4.00e-03,
392,-4.00e-03,
393,8.00e-03,
394,-4.00e-03,
395,1.20e-02,
396,-4.00e-03,
397,1.20e-02,
398,-4.00e-03,
399,1.20e-02,
400,-4.00e-03,
401,1.20e-02,
402,8.00e-03,
403,-4.00e-03,
404,8.00e-03,
405,-4.00e-03,
406,-4.00e-03,
407,1.20e-02,
408,-4.00e-03,
409,1.20e-02,
410,1.20e-02,
411,-4.00e-03,
412,-8.00e-03,
413,1.20e-02,
414,-4.00e-03,
415,2.40e-02,
416,1.20e-02,
417,-4.00e-03,
418,-4.00e-03,
419,1.20e-02,
420,-4.00e-03,
421,1.20e-02,
422,-4.00e-03,
423,8.00e-03,
424,8.00e-03,
425,-4.00e-03,
426,-4.00e-03,
427,1.20e-02,
428,8.00e-03,
429,-4.00e-03,
430,8.00e-03,
431,-4.00e-03,
432,-4.00e-03,
433,8.00e-03,
434,-4.00e-03,
435,8.00e-03,
436,-4.00e-03,
437,1.20e-02,
438,-4.00e-03,
439,8.00e-03,
440,-4.00e-03,
441,8.00e-03,
442,8.00e-03,
443,-4.00e-03,
444,-4.00e-03,
445,1.20e-02,
446,-4.00e-03,
447,1.20e-02,
448,-4.00e-03,
449,8.00e-03,
450,8.00e-03,
451,-4.00e-03,
452,-4.00e-03,
453,1.20e-02,
454,8.00e-03,
455,-8.00e-03,
456,-4.00e-03,
457,1.20e-02,
458,1.20e-02,
459,-8.00e-03,
460,-8.00e-03,
461,1.20e-02,
462,-4.00e-03,
463,8.00e-03,
464,8.00e-03,
465,-4.00e-03,
466,8.00e-03,
467,-4.00e-03,
468,-4.00e-03,
469,2.80e-02,
470,8.00e-03,
471,-4.00e-03,
472,-4.00e-03,
473,1.20e-02,
474,1.20e-02,
475,-4.00e-03,
476,-4.00e-03,
477,1.20e-02,
478,-4.00e-03,
479,1.20e-02,
480,1.20e-02,
481,-4.00e-03,
482,-4.00e-03,
483,1.20e-02,
484,8.00e-03,
485,-4.00e-03,
486,-4.00e-03,
487,8.00e-03,
488,-4.00e-03,
489,8.00e-03,
490,8.00e-03,
491,-4.00e-03,
492,8.00e-03,
493,-8.00e-03,
494,1.20e-02,
495,-8.00e-03,
496,-8.00e-03,
497,1.20e-02,
498,8.00e-03,
499,-4.00e-03,
500,1.20e-02,
501,-8.00e-03,
502,8.00e-03,
503,-4.00e-03,
504,8.00e-03,
505,-4.00e-03,
506,8.00e-03,
507,-4.00e-03,
508,8.00e-03,
509,-4.00e-03,
510,-4.00e-03,
511,8.00e-03,
512,-4.00e-03,
513,8.00e-03,
514,-4.00e-03,
515,1.20e-02,
516,-4.00e-03,
517,8.00e-03,
518,8.00e-03,
519,-4.00e-03,
520,-4.00e-03,
521,1.20e-02,
522,4.00e-02,
523,-1.60e-02,
524,1.20e-02,
525,-8.00e-03,
526,-4.00e-03,
527,1.20e-02,
528,-4.00e-03,
529,1.20e-02,
530,8.00e-03,
531,-4.00e-03,
532,-4.00e-03,
533,1.20e-02,
534,-4.00e-03,
535,1.20e-02,
536,-4.00e-03,
537,1.20e-02,
538,1.20e-02,
539,-8.00e-03,
540,-4.00e-03,
541,1.20e-02,
542,-4.00e-03,
543,1.20e-02,
544,-4.00e-03,
545,8.00e-03,
546,1.20e-02,
547,-4.00e-03,
548,8.00e-03,
549,-4.00e-03,
550,-4.00e-03,
551,8.00e-03,
552,8.00e-03,
553,-4.00e-03,
554,-4.00e-03,
555,1.20e-02,
556,8.00e-03,
557,-4.00e-03,
558,8.00e-03,
559,-4.00e-03,
560,8.00e-03,
561,-4.00e-03,
562,-4.00e-03,
563,1.20e-02,
564,1.20e-02,
565,-8.00e-03,
566,-8.00e-03,
567,8.00e-03,
568,1.20e-02,
569,-4.00e-03,
570,-4.00e-03,
571,1.20e-02,
572,1.20e-02,
573,-4.00e-03,
574,-4.40e-02,
575,2.00e-02,
576,1.20e-02,
577,-4.00e-03,
578,-4.00e-03,
579,1.20e-02,
580,-4.00e-03,
581,1.20e-02,
582,-4.00e-03,
583,1.20e-02,
584,-4.00e-03,
585,1.20e-02,
586,1.20e-02,
587,-4.00e-03,
588,-4.00e-03,
589,1.20e-02,
590,-4.00e-03,
591,1.20e-02,
592,1.20e-02,
593,-4.00e-03,
594,1.20e-02,
595,-4.00e-03,
596,-4.00e-03,
597,1.20e-02,
598,-4.00e-03,
599,1.20e-02,
600,-4.00e-03,
601,1.20e-02,
602,8.00e-03,
603,-4.00e-03,
604,-4.00e-03,
605,8.00e-03,
606,1.20e-02,
607,-4.00e-03,
608,-4.00e-03,
609,1.20e-02,
610,-4.00e-03,
611,1.20e-02,
612,-4.00e-03,
613,1.20e-02,
614,1.20e-02,
615,-4.00e-03,
616,-4.00e-03,
617,1.20e-02,
618,-4.00e-03,
619,1.20e-02,
620,8.00e-03,
621,-8.00e-03,
622,1.20e-02,
623,-4.00e-03,
624,-4.00e-03,
625,1.20e-02,
626,-4.00e-03,
627,1.20e-02,
628,-1.60e-02,
629,2.00e-02,
630,-4.00e-03,
631,1.20e-02,
632,-4.00e-03,
633,1.20e-02,
634,-4.00e-03,
635,1.20e-02,
636,-4.00e-03,
637,1.20e-02,
638,8.00e-03,
639,-4.00e-03,
640,8.00e-03,
641,-4.00e-03,
642,8.00e-03,
643,-4.00e-03,
644,1.20e-02,
645,-4.00e-03,
646,1.20e-02,
647,-4.00e-03,
648,-4.00e-03,
649,1.20e-02,
650,8.00e-03,
651,-4.00e-03,
652,8.00e-03,
653,-4.00e-03,
654,-4.00e-03,
655,1.20e-02,
656,8.00e-03,
657,-4.00e-03,
658,-4.00e-03,
659,1.20e-02,
660,-4.00e-03,
661,1.20e-02,
662,-4.00e-03,
663,1.20e-02,
664,-8.00e-03,
665,1.20e-02,
666,-4.00e-03,
667,1.20e-02,
668,1.20e-02,
669,-8.00e-03,
670,-4.00e-03,
671,1.20e-02,
672,1.20e-02,
673,-4.00e-03,
674,-4.00e-03,
675,1.20e-02,
676,-4.00e-03,
677,1.20e-02,
678,-4.00e-03,
679,1.20e-02,
680,-4.00e-03,
681,1.20e-02,
682,1.60e-02,
683,-8.00e-03,
684,8.00e-03,
685,-4.00e-03,
686,-4.00e-03,
687,1.20e-02,
688,-4.00e-03,
689,1.20e-02,
690,-4.00e-03,
691,1.20e-02,
692,8.00e-03,
693,-4.00e-03,
694,1.20e-02,
695,-4.00e-03,
696,-4.00e-03,
697,1.20e-02,
698,-4.00e-03,
699,1.20e-02,
700,-4.00e-03,
701,1.20e-02,
702,-4.00e-03,
703,1.20e-02,
704,-4.00e-03,
705,1.60e-02,
706,-4.00e-03,
707,1.20e-02,
708,-4.00e-03,
709,1.20e-02,
710,-4.00e-03,
711,1.20e-02,
712,-4.00e-03,
713,1.20e-02,
714,8.00e-03,
715,-4.00e-03,
716,-4.00e-03,
717,8.00e-03,
718,8.00e-03,
719,-4.00e-03,
720,-4.00e-03,
721,8.00e-03,
722,8.00e-03,
723,-4.00e-03,
724,8.00e-03,
725,-4.00e-03,
726,-4.00e-03,
727,1.20e-02,
728,-4.00e-03,
729,8.00e-03,
730,-4.00e-03,
731,1.20e-02,
732,-4.00e-03,
733,1.20e-02,
734,2.80e-02,
735,-1.60e-02,
736,8.00e-03,
737,-4.00e-03,
738,-4.00e-03,
739,1.20e-02,
740,-4.00e-03,
741,1.20e-02,
742,-4.00e-03,
743,1.20e-02,
744,-4.00e-03,
745,1.20e-02,
746,-4.00e-03,
747,1.20e-02,
748,-4.00e-03,
749,1.20e-02,
750,-4.00e-03,
751,1.20e-02,
752,1.20e-02,
753,-4.00e-03,
754,8.00e-03,
755,-4.00e-03,
756,8.00e-03,
757,-4.00e-03,
758,-4.00e-03,
759,1.20e-02,
760,8.00e-03,
761,-4.00e-03,
762,-4.00e-03,
763,1.20e-02,
764,-4.00e-03,
765,1.20e-02,
766,8.00e-03,
767,-4.00e-03,
768,-4.00e-03,
769,1.20e-02,
770,-4.00e-03,
771,1.20e-02,
772,-4.00e-03,
773,1.20e-02,
774,-4.00e-03,
775,1.20e-02,
776,-4.00e-03,
777,1.20e-02,
778,-4.00e-03,
779,1.20e-02,
780,-4.00e-03,
781,1.20e-02,
782,-4.00e-03,
783,1.20e-02,
784,-4.00e-03,
785,1.20e-02,
786,-4.00e-03,
787,5.20e-02,
788,2.00e-02,
789,-8.00e-03,
790,1.20e-02,
791,-8.00e-03,
792,-4.00e-03,
793,1.20e-02,
794,-4.00e-03,
795,1.20e-02,
796,8.00e-03,
797,-4.00e-03,
798,8.00e-03,
799,-4.00e-03,
800,-4.00e-03,
801,8.00e-03,
802,-4.00e-03,
803,8.00e-03,
804,8.00e-03,
805,-4.00e-03,
806,8.00e-03,
807,-4.00e-03,
808,8.00e-03,
809,-4.00e-03,
810,8.00e-03,
811,-4.00e-03,
812,8.00e-03,
813,-4.00e-03,
814,-4.00e-03,
815,1.20e-02,
816,-4.00e-03,
817,1.20e-02,
818,-4.00e-03,
819,1.20e-02,
820,1.20e-02,
821,-4.00e-03,
822,-4.00e-03,
823,1.20e-02,
824,-4.00e-03,
825,8.00e-03,
826,-4.00e-03,
827,1.20e-02,
828,1.20e-02,
829,-8.00e-03,
830,1.20e-02,
831,-8.00e-03,
832,-4.00e-03,
833,1.20e-02,
834,-4.00e-03,
835,8.00e-03,
836,8.00e-03,
837,-4.00e-03,
838,-4.00e-03,
839,8.00e-03,
840,-4.00e-03,
841,3.20e-02,
842,-4.00e-03,
843,8.00e-03,
844,-4.00e-03,
845,8.00e-03,
846,8.00e-03,
847,-4.00e-03,
848,-4.00e-03,
849,8.00e-03,
850,-4.00e-03,
851,1.20e-02,
852,8.00e-03,
853,-4.00e-03,
854,1.20e-02,
855,-4.00e-03,
856,-4.00e-03,
857,1.20e-02,
858,1.20e-02,
859,-4.00e-03,
860,1.20e-02,
861,-4.00e-03,
862,-4.00e-03,
863,1.20e-02,
864,-4.00e-03,
865,1.20e-02,
866,8.00e-03,
867,-4.00e-03,
868,-4.00e-03,
869,1.20e-02,
870,-4.00e-03,
871,1.20e-02,
872,-4.00e-03,
873,1.20e-02,
874,1.20e-02,
875,-4.00e-03,
876,-4.00e-03,
877,1.20e-02,
878,8.00e-03,
879,-4.00e-03,
880,-4.00e-03,
881,1.20e-02,
882,8.00e-03,
883,-4.00e-03,
884,8.00e-03,
885,-4.00e-03,
886,8.00e-03,
887,-4.00e-03,
888,-4.00e-03,
889,1.20e-02,
890,-4.00e-03,
891,1.20e-02,
892,-4.00e-03,
893,8.00e-03,
894,-8.00e-03,
895,2.40e-02,
896,-4.00e-03,
897,1.20e-02,
898,-4.00e-03,
899,8.00e-03,
900,-4.00e-03,
901,1.20e-02,
902,-4.00e-03,
903,8.00e-03,
904,-4.00e-03,
905,1.20e-02,
906,-4.00e-03,
907,1.20e-02,
908,1.20e-02,
909,-4.00e-03,
910,-4.00e-03,
911,1.20e-02,
912,1.20e-02,
913,-4.00e-03,
914,1.20e-02,
915,-8.00e-03,
916,1.20e-02,
917,-4.00e-03,
918,-4.00e-03,
919,1.20e-02,
920,8.00e-03,
921,-4.00e-03,
922,-4.00e-03,
923,1.20e-02,
924,-4.00e-03,
925,8.00e-03,
926,-4.00e-03,
927,8.00e-03,
928,-4.00e-03,
929,1.20e-02,
930,-4.00e-03,
931,1.20e-02,
932,8.00e-03,
933,-4.00e-03,
934,-4.00e-03,
935,1.20e-02,
936,-4.00e-03,
937,1.20e-02,
938,-4.00e-03,
939,1.20e-02,
940,-4.00e-03,
941,1.20e-02,
942,-4.00e-03,
943,1.20e-02,
944,-4.00e-03,
945,1.20e-02,
946,-3.60e-02,
947,1.20e-02,
948,-4.00e-03,
949,1.20e-02,
950,1.20e-02,
951,-8.00e-03,
952,8.00e-03,
953,-8.00e-03,
954,8.00e-03,
955,-8.00e-03,
956,-4.00e-03,
957,1.20e-02,
958,-4.00e-03,
959,1.20e-02,
960,1.20e-02,
961,-4.00e-03,
962,-4.00e-03,
963,8.00e-03,
964,-4.00e-03,
965,8.00e-03,
966,-4.00e-03,
967,1.20e-02,
968,-4.00e-03,
969,8.00e-03,
970,8.00e-03,
971,-4.00e-03,
972,-4.00e-03,
973,1.20e-02,
974,8.00e-03,
975,-4.00e-03,
976,-4.00e-03,
977,1.20e-02,
978,8.00e-03,
979,-4.00e-03,
980,8.00e-03,
981,-4.00e-03,
982,8.00e-03,
983,-4.00e-03,
984,8.00e-03,
985,-4.00e-03,
986,-4.00e-03,
987,1.20e-02,
988,-4.00e-03,
989,8.00e-03,
990,1.20e-02,
991,-4.00e-03,
992,-4.00e-03,
993,1.20e-02,
994,-4.00e-03,
995,1.20e-02,
996,-4.00e-03,
997,1.20e-02,
998,-4.00e-03,
999,1.20e-02,
1000,3.60e-02,
1001,-1.20e-02,
1002,-4.00e-03,
1003,1.20e-02,
1004,-4.00e-03,
1005,1.20e-02,
1006,8.00e-03,
1007,-4.00e-03,
1008,-4.00e-03,
1009,1.20e-02,
1010,-4.00e-03,
1011,8.00e-03,
1012,-4.00e-03,
1013,1.20e-02,
1014,-4.00e-03,
1015,8.00e-03,
1016,1.20e-02,
1017,-4.00e-03,
1018,8.00e-03,
1019,-4.00e-03,
1020,-4.00e-03,
1021,1.20e-02,
1022,1.20e-02,
1023,-4.00e-03,
1024,-4.00e-03,
1025,8.00e-03,
1026,-4.00e-03,
1027,1.20e-02,
1028,-4.00e-03,
1029,1.20e-02,
1030,-4.00e-03,
1031,1.20e-02,
1032,-4.00e-03,
1033,1.20e-02,
1034,1.20e-02,
1035,-4.00e-03,
1036,-4.00e-03,
1037,1.20e-02,
1038,-4.00e-03,
1039,1.20e-02,
1040,-4.00e-03,
1041,1.20e-02,
1042,-4.00e-03,
1043,1.20e-02,
1044,-4.00e-03,
1045,1.20e-02,
1046,-4.00e-03,
1047,1.20e-02,
1048,-4.00e-03,
1049,1.20e-02,
1050,-4.00e-03,
1051,1.20e-02,
1052,8.00e-03,
1053,-2.80e-02,
1054,1.20e-02,
1055,-4.00e-03,
1056,-4.00e-03,
1057,1.20e-02,
1058,-4.00e-03,
1059,8.00e-03,
1060,-4.00e-03,
1061,1.20e-02,
1062,-4.00e-03,
1063,1.20e-02,
1064,-4.00e-03,
1065,1.20e-02,
1066,8.00e-03,
1067,-4.00e-03,
1068,-4.00e-03,
1069,1.20e-02,
1070,-4.00e-03,
1071,1.20e-02,
1072,-4.00e-03,
1073,1.20e-02,
1074,-4.00e-03,
1075,1.20e-02,
1076,-4.00e-03,
1077,1.20e-02,
1078,-4.00e-03,
1079,1.20e-02,
1080,-4.00e-03,
1081,1.20e-02,
1082,-4.00e-03,
1083,8.00e-03,
1084,-4.00e-03,
1085,1.20e-02,
1086,8.00e-03,
1087,-4.00e-03,
1088,8.00e-03,
1089,-4.00e-03,
1090,-4.00e-03,
1091,8.00e-03,
1092,8.00e-03,
1093,-4.00e-03,
1094,-4.00e-03,
1095,1.20e-02,
1096,8.00e-03,
1097,-4.00e-03,
1098,8.00e-03,
1099,-4.00e-03,
1100,-4.00e-03,
1101,1.20e-02,
1102,-4.00e-03,
1103,1.20e-02,
1104,-4.00e-03,
1105,8.00e-03,
1106,1.20e-02,
1107,-4.40e-02,
1108,-4.00e-03,
1109,1.20e-02,
1110,-4.00e-03,
1111,1.20e-02,
1112,-4.00e-03,
1113,1.20e-02,
1114,-4.00e-03,
1115,1.20e-02,
1116,-4.00e-03,
1117,1.20e-02,
1118,-4.00e-03,
1119,1.20e-02,
1120,-4.00e-03,
1121,1.20e-02,
1122,1.20e-02,
1123,-8.00e-03,
1124,-4.00e-03,
1125,1.20e-02,
1126,-4.00e-03,
1127,1.20e-02,
1128,8.00e-03,
1129,-4.00e-03,
1130,8.00e-03,
1131,-4.00e-03,
1132,8.00e-03,
1133,-4.00e-03,
1134,-4.00e-03,
1135,1.20e-02,
1136,-4.00e-03,
1137,1.20e-02,
1138,8.00e-03,
1139,-4.00e-03,
1140,8.00e-03,
1141,-4.00e-03,
1142,-4.00e-03,
1143,1.20e-02,
1144,-4.00e-03,
1145,1.20e-02,
1146,-4.00e-03,
1147,1.20e-02,
1148,-4.00e-03,
1149,1.20e-02,
1150,-8.00e-03,
1151,1.20e-02,
1152,-4.00e-03,
1153,1.20e-02,
1154,1.20e-02,
1155,-4.00e-03,
1156,-4.00e-03,
1157,1.20e-02,
1158,2.00e-02,
1159,-2.80e-02,
1160,-4.00e-03,
1161,1.20e-02,
1162,-4.00e-03,
1163,1.20e-02,
1164,-4.00e-03,
1165,1.20e-02,
1166,-4.00e-03,
1167,1.20e-02,
1168,-4.00e-03,
1169,1.20e-02,
1170,-4.00e-03,
1171,8.00e-03,
1172,-4.00e-03,
1173,1.20e-02,
1174,-4.00e-03,
1175,1.20e-02,
1176,8.00e-03,
1177,-4.00e-03,
1178,-4.00e-03,
1179,8.00e-03,
1180,-4.00e-03,
1181,1.20e-02,
1182,8.00e-03,
1183,-4.00e-03,
1184,-4.00e-03,
1185,1.20e-02,
1186,-4.00e-03,
1187,1.20e-02,
1188,1.20e-02,
1189,-4.00e-03,
1190,8.00e-03,
1191,-4.00e-03,
1192,1.20e-02,
1193,-4.00e-03,
1194,-4.00e-03,
1195,1.20e-02,
1196,1.20e-02,
1197,-4.00e-03,
1198,-4.00e-03,
1199,8.00e-03,
