Laptop_2/LAPTOP_CHRGR_2_OFF/time domain/NewFile4.csv

X,CH1,Start,Increment,
Sequence,Volt,-1.500000e-01,2.000000e-04
0,-4.00e-03,
1,1.20e-02,
2,-4.00e-03,
3,1.20e-02,
4,-4.00e-03,
5,1.20e-02,
6,-4.00e-03,
7,1.20e-02,
8,1.20e-02,
9,-4.00e-03,
10,1.20e-02,
11,-8.00e-02,
12,-8.00e-03,
13,3.20e-02,
14,-4.00e-03,
15,1.20e-02,
16,1.20e-02,
17,-4.00e-03,
18,1.20e-02,
19,-4.00e-03,
20,1.20e-02,
21,-4.00e-03,
22,-4.00e-03,
23,1.20e-02,
24,-4.00e-03,
25,1.20e-02,
26,-4.00e-03,
27,1.20e-02,
28,-4.00e-03,
29,1.20e-02,
30,-4.00e-03,
31,1.20e-02,
32,-4.00e-03,
33,1.20e-02,
34,-4.00e-03,
35,1.20e-02,
36,-8.00e-03,
37,1.20e-02,
38,-4.00e-03,
39,1.20e-02,
40,1.20e-02,
41,-4.00e-03,
42,-4.00e-03,
43,1.20e-02,
44,-4.00e-03,
45,1.20e-02,
46,-4.00e-03,
47,1.20e-02,
48,1.20e-02,
49,-4.00e-03,
50,-4.00e-03,
51,1.20e-02,
52,-4.00e-03,
53,1.20e-02,
54,-4.00e-03,
55,1.20e-02,
56,-4.00e-03,
57,1.20e-02,
58,1.20e-02,
59,-4.00e-03,
60,-4.00e-03,
61,1.20e-02,
62,-4.00e-03,
63,1.20e-02,
64,2.00e-02,
65,-2.80e-02,
66,-4.00e-03,
67,1.20e-02,
68,-4.00e-03,
69,1.20e-02,
70,-4.00e-03,
71,1.20e-02,
72,-4.00e-03,
73,1.20e-02,
74,1.20e-02,
75,-8.00e-03,
76,-4.00e-03,
77,1.20e-02,
78,-4.00e-03,
79,1.20e-02,
80,-4.00e-03,
81,1.20e-02,
82,-4.00e-03,
83,1.20e-02,
84,-4.00e-03,
85,1.20e-02,
86,-4.00e-03,
87,1.20e-02,
88,-4.00e-03,
89,1.20e-02,
90,-4.00e-03,
91,8.00e-03,
92,-4.00e-03,
93,1.20e-02,
94,-4.00e-03,
95,8.00e-03,
96,-4.00e-03,
97,8.00e-03,
98,-4.00e-03,
99,1.20e-02,
100,-4.00e-03,
101,1.20e-02,
102,-4.00e-03,
103,1.20e-02,
104,-4.00e-03,
105,1.20e-02,
106,-4.00e-03,
107,1.20e-02,
108,-4.00e-03,
109,1.20e-02,
110,1.20e-02,
111,-4.00e-03,
112,1.20e-02,
113,-4.00e-03,
114,-4.00e-03,
115,1.20e-02,
116,1.60e-02,
117,-4.00e-03,
118,3.20e-02,
119,-8.00e-03,
120,1.20e-02,
121,-8.00e-03,
122,-4.00e-03,
123,1.20e-02,
124,-4.00e-03,
125,1.20e-02,
126,-4.00e-03,
127,1.20e-02,
128,-4.00e-03,
129,1.60e-02,
130,-4.00e-03,
131,1.20e-02,
132,-4.00e-03,
133,1.20e-02,
134,-4.00e-03,
135,1.20e-02,
136,-4.00e-03,
137,1.20e-02,
138,-4.00e-03,
139,1.20e-02,
140,-4.00e-03,
141,1.20e-02,
142,-8.00e-03,
143,1.20e-02,
144,1.20e-02,
145,-8.00e-03,
146,1.20e-02,
147,-4.00e-03,
148,1.20e-02,
149,-8.00e-03,
150,-4.00e-03,
151,1.20e-02,
152,-4.00e-03,
153,1.20e-02,
154,1.20e-02,
155,-4.00e-03,
156,-4.00e-03,
157,1.20e-02,
158,-4.00e-03,
159,1.20e-02,
160,1.20e-02,
161,-4.00e-03,
162,-4.00e-03,
163,1.20e-02,
164,-4.00e-03,
165,1.20e-02,
166,-4.00e-03,
167,8.00e-03,
168,-4.00e-03,
169,1.20e-02,
170,-4.40e-02,
171,4.40e-02,
172,-4.00e-03,
173,1.20e-02,
174,8.00e-03,
175,-4.00e-03,
176,-4.00e-03,
177,1.20e-02,
178,-4.00e-03,
179,1.20e-02,
180,-4.00e-03,
181,1.20e-02,
182,-4.00e-03,
183,8.00e-03,
184,-4.00e-03,
185,1.20e-02,
186,-4.00e-03,
187,1.20e-02,
188,8.00e-03,
189,-4.00e-03,
190,-4.00e-03,
191,1.20e-02,
192,1.20e-02,
193,-4.00e-03,
194,-4.00e-03,
195,1.20e-02,
196,-4.00e-03,
197,1.20e-02,
198,1.20e-02,
199,-8.00e-03,
200,1.20e-02,
201,-8.00e-03,
202,-4.00e-03,
203,1.20e-02,
204,-4.00e-03,
205,1.20e-02,
206,-4.00e-03,
207,1.20e-02,
208,1.20e-02,
209,-4.00e-03,
210,-4.00e-03,
211,1.20e-02,
212,-4.00e-03,
213,1.20e-02,
214,1.20e-02,
215,-4.00e-03,
216,-4.00e-03,
217,1.20e-02,
218,-4.00e-03,
219,1.20e-02,
220,1.20e-02,
221,-4.00e-03,
222,-4.00e-03,
223,1.20e-02,
224,4.40e-02,
225,-8.00e-03,
226,-4.00e-03,
227,1.20e-02,
228,1.20e-02,
229,-4.00e-03,
230,-4.00e-03,
231,1.20e-02,
232,-4.00e-03,
233,1.20e-02,
234,-4.00e-03,
235,1.20e-02,
236,1.20e-02,
237,-4.00e-03,
238,-4.00e-03,
239,1.20e-02,
240,-4.00e-03,
241,1.20e-02,
242,-4.00e-03,
243,1.20e-02,
244,-4.00e-03,
245,1.20e-02,
246,1.20e-02,
247,-8.00e-03,
248,-4.00e-03,
249,1.20e-02,
250,-4.00e-03,
251,8.00e-03,
252,-4.00e-03,
253,1.20e-02,
254,-4.00e-03,
255,1.20e-02,
256,1.20e-02,
257,-4.00e-03,
258,-4.00e-03,
259,1.20e-02,
260,-4.00e-03,
261,1.20e-02,
262,-4.00e-03,
263,1.20e-02,
264,-4.00e-03,
265,8.00e-03,
266,8.00e-03,
267,-4.00e-03,
268,-4.00e-03,
269,1.20e-02,
270,-4.00e-03,
271,1.20e-02,
272,-4.00e-03,
273,1.20e-02,
274,-4.00e-03,
275,1.20e-02,
276,-4.00e-02,
277,3.20e-02,
278,4.00e-02,
279,-4.00e-03,
280,-4.00e-03,
281,1.20e-02,
282,-4.00e-03,
283,8.00e-03,
284,-8.00e-03,
285,1.20e-02,
286,1.20e-02,
287,-4.00e-03,
288,-4.00e-03,
289,1.20e-02,
290,-4.00e-03,
291,1.20e-02,
292,-4.00e-03,
293,1.20e-02,
294,-4.00e-03,
295,1.20e-02,
296,-4.00e-03,
297,1.20e-02,
298,-4.00e-03,
299,1.20e-02,
300,-4.00e-03,
301,1.20e-02,
302,-4.00e-03,
303,1.20e-02,
304,-4.00e-03,
305,1.20e-02,
306,-4.00e-03,
307,1.20e-02,
308,1.20e-02,
309,-4.00e-03,
310,-4.00e-03,
311,1.20e-02,
312,-4.00e-03,
313,1.20e-02,
314,-4.00e-03,
315,1.20e-02,
316,1.20e-02,
317,-4.00e-03,
318,-4.00e-03,
319,1.20e-02,
320,-4.00e-03,
321,1.20e-02,
322,-4.00e-03,
323,1.20e-02,
324,1.20e-02,
325,-4.00e-03,
326,-4.00e-03,
327,1.20e-02,
328,-4.00e-03,
329,1.20e-02,
330,-8.00e-02,
331,3.60e-02,
332,-4.00e-03,
333,8.00e-03,
334,-4.00e-03,
335,1.20e-02,
336,-4.00e-03,
337,8.00e-03,
338,-4.00e-03,
339,1.20e-02,
340,-4.00e-03,
341,1.20e-02,
342,8.00e-03,
343,-4.00e-03,
344,-4.00e-03,
345,1.20e-02,
346,-4.00e-03,
347,1.20e-02,
348,-4.00e-03,
349,1.20e-02,
350,-4.00e-03,
351,1.20e-02,
352,-4.00e-03,
353,1.20e-02,
354,-4.00e-03,
355,1.20e-02,
356,-4.00e-03,
357,8.00e-03,
358,-4.00e-03,
359,1.20e-02,
360,-4.00e-03,
361,1.20e-02,
362,-4.00e-03,
363,1.20e-02,
364,-4.00e-03,
365,1.20e-02,
366,1.20e-02,
367,-8.00e-03,
368,1.20e-02,
369,-8.00e-03,
370,-4.00e-03,
371,1.20e-02,
372,-4.00e-03,
373,1.20e-02,
374,8.00e-03,
375,-4.00e-03,
376,-4.00e-03,
377,1.20e-02,
378,-4.00e-03,
379,1.20e-02,
380,-4.00e-03,
381,1.20e-02,
382,1.20e-02,
383,-2.80e-02,
384,3.60e-02,
385,-2.00e-02,
386,-4.00e-03,
387,1.20e-02,
388,-4.00e-03,
389,1.20e-02,
390,-4.00e-03,
391,1.20e-02,
392,-4.00e-03,
393,1.20e-02,
394,-4.00e-03,
395,1.20e-02,
396,-4.00e-03,
397,1.20e-02,
398,-4.00e-03,
399,1.20e-02,
400,-4.00e-03,
401,1.20e-02,
402,-4.00e-03,
403,1.20e-02,
404,-4.00e-03,
405,8.00e-03,
406,-4.00e-03,
407,1.20e-02,
408,-4.00e-03,
409,1.20e-02,
410,-4.00e-03,
411,1.20e-02,
412,-4.00e-03,
413,1.20e-02,
414,-8.00e-03,
415,1.20e-02,
416,1.20e-02,
417,-4.00e-03,
418,8.00e-03,
419,-4.00e-03,
420,-4.00e-03,
421,1.20e-02,
422,-4.00e-03,
423,1.20e-02,
424,-4.00e-03,
425,1.20e-02,
426,-4.00e-03,
427,1.20e-02,
428,-4.00e-03,
429,8.00e-03,
430,-4.00e-03,
431,8.00e-03,
432,-4.00e-03,
433,8.00e-03,
434,-4.00e-03,
435,8.00e-03,
436,-4.40e-02,
437,1.20e-02,
438,-4.00e-03,
439,1.20e-02,
440,-4.00e-03,
441,1.20e-02,
442,-4.00e-03,
443,1.20e-02,
444,-4.00e-03,
445,8.00e-03,
446,-4.00e-03,
447,1.20e-02,
448,-4.00e-03,
449,1.20e-02,
450,-4.00e-03,
451,1.20e-02,
452,-8.00e-03,
453,1.20e-02,
454,-4.00e-03,
455,1.20e-02,
456,1.20e-02,
457,-8.00e-03,
458,-4.00e-03,
459,1.20e-02,
460,-4.00e-03,
461,1.20e-02,
462,-4.00e-03,
463,1.20e-02,
464,-4.00e-03,
465,1.20e-02,
466,-4.00e-03,
467,8.00e-03,
468,8.00e-03,
469,-4.00e-03,
470,-4.00e-03,
471,1.20e-02,
472,-4.00e-03,
473,1.20e-02,
474,-4.00e-03,
475,1.20e-02,
476,-4.00e-03,
477,1.20e-02,
478,-4.00e-03,
479,1.20e-02,
480,-4.00e-03,
481,1.20e-02,
482,-8.00e-03,
483,1.20e-02,
484,-4.00e-03,
485,8.00e-03,
486,-4.00e-03,
487,1.20e-02,
488,-8.00e-03,
489,7.20e-02,
490,-4.00e-03,
491,1.20e-02,
492,-4.00e-03,
493,1.20e-02,
494,1.20e-02,
495,-4.00e-03,
496,-4.00e-03,
497,1.20e-02,
498,-4.00e-03,
499,1.20e-02,
500,-4.00e-03,
501,1.20e-02,
502,-4.00e-03,
503,1.20e-02,
504,-4.00e-03,
505,1.20e-02,
506,-4.00e-03,
507,1.20e-02,
508,-4.00e-03,
509,1.20e-02,
510,1.20e-02,
511,-4.00e-03,
512,-4.00e-03,
513,1.20e-02,
514,-4.00e-03,
515,1.20e-02,
516,-4.00e-03,
517,1.20e-02,
518,-4.00e-03,
519,1.20e-02,
520,-4.00e-03,
521,1.20e-02,
522,1.20e-02,
523,-4.00e-03,
524,-4.00e-03,
525,1.20e-02,
526,1.20e-02,
527,-4.00e-03,
528,1.20e-02,
529,-4.00e-03,
530,-4.00e-03,
531,1.20e-02,
532,-4.00e-03,
533,1.20e-02,
534,1.20e-02,
535,-4.00e-03,
536,-4.00e-03,
537,1.20e-02,
538,-4.00e-03,
539,1.20e-02,
540,-4.00e-03,
541,1.20e-02,
542,7.60e-02,
543,-3.20e-02,
544,-4.00e-03,
545,1.20e-02,
546,-4.00e-03,
547,1.20e-02,
548,-4.00e-03,
549,1.20e-02,
550,1.20e-02,
551,-4.00e-03,
552,-4.00e-03,
553,1.20e-02,
554,-4.00e-03,
555,1.20e-02,
556,-4.00e-03,
557,1.20e-02,
558,-4.00e-03,
559,1.20e-02,
560,8.00e-03,
561,-4.00e-03,
562,-4.00e-03,
563,1.20e-02,
564,1.20e-02,
565,-4.00e-03,
566,-4.00e-03,
567,1.20e-02,
568,1.20e-02,
569,-8.00e-03,
570,-4.00e-03,
571,1.60e-02,
572,-4.00e-03,
573,1.60e-02,
574,-4.00e-03,
575,1.20e-02,
576,-4.00e-03,
577,1.20e-02,
578,-4.00e-03,
579,1.20e-02,
580,1.20e-02,
581,-8.00e-03,
582,-4.00e-03,
583,1.20e-02,
584,-4.00e-03,
585,1.20e-02,
586,-4.00e-03,
587,1.20e-02,
588,-4.00e-03,
589,1.20e-02,
590,-4.00e-03,
591,1.20e-02,
592,1.20e-02,
593,-4.00e-03,
594,4.00e-02,
595,-1.20e-02,
596,-4.00e-03,
597,1.20e-02,
598,-4.00e-03,
599,1.20e-02,
600,-4.00e-03,
601,1.20e-02,
602,1.20e-02,
603,-4.00e-03,
604,-4.00e-03,
605,1.20e-02,
606,1.20e-02,
607,-4.00e-03,
608,-4.00e-03,
609,1.20e-02,
610,-4.00e-03,
611,1.20e-02,
612,-4.00e-03,
613,1.20e-02,
614,-4.00e-03,
615,1.20e-02,
616,-4.00e-03,
617,1.20e-02,
618,1.20e-02,
619,-8.00e-03,
620,-4.00e-03,
621,1.20e-02,
622,1.20e-02,
623,-8.00e-03,
624,-4.00e-03,
625,1.20e-02,
626,-4.00e-03,
627,1.20e-02,
628,8.00e-03,
629,-4.00e-03,
630,-4.00e-03,
631,8.00e-03,
632,-4.00e-03,
633,1.20e-02,
634,-4.00e-03,
635,1.20e-02,
636,1.20e-02,
637,-4.00e-03,
638,1.20e-02,
639,-4.00e-03,
640,-4.00e-03,
641,1.20e-02,
642,1.20e-02,
643,-8.00e-03,
644,-4.00e-03,
645,1.20e-02,
646,-4.00e-03,
647,1.20e-02,
648,-4.40e-02,
649,2.80e-02,
650,-4.00e-03,
651,1.20e-02,
652,1.20e-02,
653,-4.00e-03,
654,-4.00e-03,
655,1.20e-02,
656,-4.00e-03,
657,1.20e-02,
658,1.20e-02,
659,-4.00e-03,
660,-4.00e-03,
661,1.20e-02,
662,1.20e-02,
663,-4.00e-03,
664,-4.00e-03,
665,1.20e-02,
666,-4.00e-03,
667,1.20e-02,
668,-4.00e-03,
669,1.20e-02,
670,-4.00e-03,
671,1.20e-02,
672,-4.00e-03,
673,8.00e-03,
674,-4.00e-03,
675,1.20e-02,
676,-4.00e-03,
677,8.00e-03,
678,-4.00e-03,
679,8.00e-03,
680,-4.00e-03,
681,8.00e-03,
682,-4.00e-03,
683,1.20e-02,
684,-4.00e-03,
685,1.20e-02,
686,-4.00e-03,
687,1.20e-02,
688,-4.00e-03,
689,1.20e-02,
690,-4.00e-03,
691,1.20e-02,
692,-4.00e-03,
693,1.20e-02,
694,-4.00e-03,
695,1.20e-02,
696,-4.00e-03,
697,1.20e-02,
698,-4.00e-03,
699,1.20e-02,
700,-8.40e-02,
701,3.20e-02,
702,-4.00e-03,
703,1.20e-02,
704,-4.00e-03,
705,1.20e-02,
706,-4.00e-03,
707,1.20e-02,
708,-4.00e-03,
709,1.20e-02,
710,-4.00e-03,
711,8.00e-03,
712,-4.00e-03,
713,1.20e-02,
714,-4.00e-03,
715,1.20e-02,
716,-4.00e-03,
717,1.20e-02,
718,-4.00e-03,
719,1.20e-02,
720,-4.00e-03,
721,1.20e-02,
722,-4.00e-03,
723,1.20e-02,
724,1.20e-02,
725,-4.00e-03,
726,-4.00e-03,
727,1.60e-02,
728,-4.00e-03,
729,1.20e-02,
730,1.20e-02,
731,-4.00e-03,
732,-4.00e-03,
733,1.20e-02,
734,-4.00e-03,
735,1.20e-02,
736,-4.00e-03,
737,1.20e-02,
738,-4.00e-03,
739,1.20e-02,
740,1.20e-02,
741,-4.00e-03,
742,1.20e-02,
743,-8.00e-03,
744,-4.00e-03,
745,1.20e-02,
746,1.20e-02,
747,-4.00e-03,
748,-4.00e-03,
749,1.20e-02,
750,-4.00e-03,
751,1.20e-02,
752,-4.00e-03,
753,1.20e-02,
754,2.00e-02,
755,-3.60e-02,
756,-4.00e-03,
757,1.20e-02,
758,-4.00e-03,
759,8.00e-03,
760,-4.00e-03,
761,1.20e-02,
762,-4.00e-03,
763,1.20e-02,
764,-4.00e-03,
765,8.00e-03,
766,-4.00e-03,
767,1.20e-02,
768,-4.00e-03,
769,1.20e-02,
770,1.20e-02,
771,-4.00e-03,
772,-4.00e-03,
773,1.20e-02,
774,-4.00e-03,
775,1.20e-02,
776,-4.00e-03,
777,1.20e-02,
778,-4.00e-03,
779,1.20e-02,
780,1.20e-02,
781,-4.00e-03,
782,-4.00e-03,
783,1.20e-02,
784,-4.00e-03,
785,1.20e-02,
786,-8.00e-03,
787,1.20e-02,
788,-4.00e-03,
789,1.20e-02,
790,-4.00e-03,
791,1.20e-02,
792,-4.00e-03,
793,1.20e-02,
794,1.20e-02,
795,-4.00e-03,
796,-4.00e-03,
797,1.20e-02,
798,-4.00e-03,
799,1.20e-02,
800,-4.00e-03,
801,1.20e-02,
802,-4.00e-03,
803,1.20e-02,
804,8.00e-03,
805,-4.00e-03,
806,-2.40e-02,
807,3.60e-02,
808,-4.00e-03,
809,1.20e-02,
810,-4.00e-03,
811,1.20e-02,
812,-4.00e-03,
813,1.20e-02,
814,-4.00e-03,
815,1.20e-02,
816,-4.00e-03,
817,1.20e-02,
818,-4.00e-03,
819,1.20e-02,
820,1.20e-02,
821,-4.00e-03,
822,-4.00e-03,
823,1.20e-02,
824,1.20e-02,
825,-8.00e-03,
826,-8.00e-03,
827,1.20e-02,
828,-4.00e-03,
829,1.20e-02,
830,-4.00e-03,
831,8.00e-03,
832,-4.00e-03,
833,1.20e-02,
834,-4.00e-03,
835,8.00e-03,
836,-4.00e-03,
837,8.00e-03,
838,-4.00e-03,
839,8.00e-03,
840,-4.00e-03,
841,1.20e-02,
842,-4.00e-03,
843,8.00e-03,
844,-4.00e-03,
845,8.00e-03,
846,-4.00e-03,
847,1.20e-02,
848,-4.00e-03,
849,8.00e-03,
850,8.00e-03,
851,-8.00e-03,
852,-4.00e-03,
853,1.20e-02,
854,-4.00e-03,
855,1.20e-02,
856,-4.00e-03,
857,1.20e-02,
858,8.00e-03,
859,-3.60e-02,
860,1.60e-02,
861,-2.80e-02,
862,-4.00e-03,
863,1.20e-02,
864,-4.00e-03,
865,1.20e-02,
866,-4.00e-03,
867,1.20e-02,
868,-4.00e-03,
869,1.20e-02,
870,-4.00e-03,
871,1.20e-02,
872,1.20e-02,
873,-8.00e-03,
874,-4.00e-03,
875,1.20e-02,
876,-4.00e-03,
877,1.20e-02,
878,-4.00e-03,
879,1.20e-02,
880,1.20e-02,
881,-4.00e-03,
882,-4.00e-03,
883,1.20e-02,
884,-4.00e-03,
885,1.20e-02,
886,-4.00e-03,
887,1.20e-02,
888,-4.00e-03,
889,1.20e-02,
890,-4.00e-03,
891,1.20e-02,
892,1.20e-02,
893,-8.00e-03,
894,1.20e-02,
895,-8.00e-03,
896,-4.00e-03,
897,1.20e-02,
898,1.20e-02,
899,-4.00e-03,
900,-4.00e-03,
901,1.20e-02,
902,1.20e-02,
903,-4.00e-03,
904,-4.00e-03,
905,1.20e-02,
906,-4.00e-03,
907,1.20e-02,
908,-4.00e-03,
909,1.20e-02,
910,-4.00e-03,
911,1.20e-02,
912,-1.60e-02,
913,4.40e-02,
914,1.20e-02,
915,-4.00e-03,
916,-4.00e-03,
917,1.20e-02,
918,-4.00e-03,
919,1.20e-02,
920,-4.00e-03,
921,1.20e-02,
922,-4.00e-03,
923,1.20e-02,
924,-4.00e-03,
925,8.00e-03,
926,-4.00e-03,
927,1.20e-02,
928,-4.00e-03,
929,1.20e-02,
930,1.20e-02,
931,-4.00e-03,
932,1.20e-02,
933,-4.00e-03,
934,-4.00e-03,
935,1.20e-02,
936,-4.00e-03,
937,1.20e-02,
938,1.20e-02,
939,-4.00e-03,
940,-4.00e-03,
941,1.20e-02,
942,-4.00e-03,
943,1.20e-02,
944,-4.00e-03,
945,1.20e-02,
946,1.20e-02,
947,-4.00e-03,
948,-4.00e-03,
949,1.20e-02,
950,1.20e-02,
951,-4.00e-03,
952,-4.00e-03,
953,1.20e-02,
954,-4.00e-03,
955,1.20e-02,
956,-4.00e-03,
957,1.20e-02,
958,-4.00e-03,
959,1.20e-02,
960,-4.00e-03,
961,1.20e-02,
962,-4.00e-03,
963,1.20e-02,
964,-4.00e-03,
965,1.20e-02,
966,2.80e-02,
967,-2.00e-02,
968,-4.00e-03,
969,1.20e-02,
970,-4.00e-03,
971,8.00e-03,
972,-4.00e-03,
973,1.20e-02,
974,-4.00e-03,
975,1.20e-02,
976,-4.00e-03,
977,1.20e-02,
978,-4.00e-03,
979,1.20e-02,
980,1.20e-02,
981,-4.00e-03,
982,1.20e-02,
983,-8.00e-03,
984,-4.00e-03,
985,1.20e-02,
986,-4.00e-03,
987,1.20e-02,
988,-4.00e-03,
989,1.20e-02,
990,-4.00e-03,
991,1.20e-02,
992,-4.00e-03,
993,1.20e-02,
994,-4.00e-03,
995,1.20e-02,
996,-4.00e-03,
997,1.20e-02,
998,-4.00e-03,
999,1.20e-02,
1000,-4.00e-03,
1001,1.20e-02,
1002,1.20e-02,
1003,-4.00e-03,
1004,1.20e-02,
1005,-4.00e-03,
1006,8.00e-03,
1007,-4.00e-03,
1008,8.00e-03,
1009,-4.00e-03,
1010,-4.00e-03,
1011,1.20e-02,
1012,-4.00e-03,
1013,1.20e-02,
1014,8.00e-03,
1015,-4.00e-03,
1016,-4.00e-03,
1017,8.00e-03,
1018,-6.40e-02,
1019,1.60e-02,
1020,8.00e-03,
1021,-4.00e-03,
1022,-4.00e-03,
1023,1.20e-02,
1024,-4.00e-03,
1025,1.20e-02,
1026,-4.00e-03,
1027,1.20e-02,
1028,-4.00e-03,
1029,1.20e-02,
1030,-4.00e-03,
1031,1.20e-02,
1032,1.20e-02,
1033,-4.00e-03,
1034,1.20e-02,
1035,-8.00e-03,
1036,-4.00e-03,
1037,1.20e-02,
1038,-4.00e-03,
1039,1.20e-02,
1040,-4.00e-03,
1041,1.20e-02,
1042,-4.00e-03,
1043,1.20e-02,
1044,-4.00e-03,
1045,1.20e-02,
1046,-4.00e-03,
1047,1.20e-02,
1048,-4.00e-03,
1049,8.00e-03,
1050,-4.00e-03,
1051,1.20e-02,
1052,-4.00e-03,
1053,1.20e-02,
1054,-4.00e-03,
1055,1.20e-02,
1056,-4.00e-03,
1057,1.20e-02,
1058,-4.00e-03,
1059,8.00e-03,
1060,-4.00e-03,
1061,8.00e-03,
1062,-4.00e-03,
1063,1.20e-02,
1064,-4.00e-03,
1065,1.20e-02,
1066,-4.00e-03,
1067,1.20e-02,
1068,-4.00e-03,
1069,1.20e-02,
1070,-4.00e-03,
1071,8.00e-03,
1072,-4.00e-02,
1073,1.20e-02,
1074,-4.00e-03,
1075,1.20e-02,
1076,-4.00e-03,
1077,1.20e-02,
1078,1.20e-02,
1079,-8.00e-03,
1080,-4.00e-03,
1081,1.20e-02,
1082,-4.00e-03,
1083,8.00e-03,
1084,-4.00e-03,
1085,1.20e-02,
1086,-4.00e-03,
1087,1.20e-02,
1088,-4.00e-03,
1089,1.20e-02,
1090,-4.00e-03,
1091,1.20e-02,
1092,-4.00e-03,
1093,1.20e-02,
1094,-4.00e-03,
1095,1.20e-02,
1096,-4.00e-03,
1097,1.20e-02,
1098,8.00e-03,
1099,-4.00e-03,
1100,-4.00e-03,
1101,1.20e-02,
1102,-4.00e-03,
1103,8.00e-03,
1104,-4.00e-03,
1105,8.00e-03,
1106,-4.00e-03,
1107,1.20e-02,
1108,-4.00e-03,
1109,1.20e-02,
1110,-4.00e-03,
1111,1.20e-02,
1112,-4.00e-03,
1113,1.20e-02,
1114,-4.00e-03,
1115,1.20e-02,
1116,-4.00e-03,
1117,1.20e-02,
1118,-4.00e-03,
1119,1.20e-02,
1120,-4.00e-03,
1121,1.20e-02,
1122,1.20e-02,
1123,-8.00e-03,
1124,-7.20e-02,
1125,4.00e-02,
1126,-4.00e-03,
1127,1.20e-02,
1128,-4.00e-03,
1129,1.20e-02,
1130,-4.00e-03,
1131,1.20e-02,
1132,-4.00e-03,
1133,1.20e-02,
1134,8.00e-03,
1135,-4.00e-03,
1136,-4.00e-03,
1137,1.20e-02,
1138,-4.00e-03,
1139,1.20e-02,
1140,-4.00e-03,
1141,1.20e-02,
1142,-4.00e-03,
1143,1.20e-02,
1144,-4.00e-03,
1145,1.20e-02,
1146,-4.00e-03,
1147,1.20e-02,
1148,-4.00e-03,
1149,1.20e-02,
1150,-4.00e-03,
1151,1.60e-02,
1152,1.20e-02,
1153,-4.00e-03,
1154,-4.00e-03,
1155,1.20e-02,
1156,1.20e-02,
1157,-8.00e-03,
1158,1.20e-02,
1159,-8.00e-03,
1160,1.20e-02,
1161,-8.00e-03,
1162,1.20e-02,
1163,-8.00e-03,
1164,-4.00e-03,
1165,1.20e-02,
1166,-4.00e-03,
1167,1.20e-02,
1168,8.00e-03,
1169,-4.00e-03,
1170,-4.00e-03,
1171,1.20e-02,
1172,-4.00e-03,
1173,8.00e-03,
1174,-4.00e-03,
1175,1.20e-02,
1176,-6.00e-02,
1177,3.20e-02,
1178,1.60e-02,
1179,-4.00e-03,
1180,-4.00e-03,
1181,1.20e-02,
1182,-4.00e-03,
1183,1.20e-02,
1184,-4.00e-03,
1185,1.20e-02,
1186,-4.00e-03,
1187,1.20e-02,
1188,1.20e-02,
1189,-4.00e-03,
1190,-4.00e-03,
1191,1.20e-02,
1192,1.20e-02,
1193,-4.00e-03,
1194,-4.00e-03,
1195,1.20e-02,
1196,-4.00e-03,
1197,1.20e-02,
1198,1.20e-02,
1199,-8.00e-03,
