Laptop_2/LAPTOP_CHRGR_2_OFF/time domain/NewFile3.csv

X,CH1,Start,Increment,
Sequence,Volt,-1.500000e-01,2.000000e-04
0,-4.00e-03,
1,1.20e-02,
2,-2.00e-02,
3,4.00e-02,
4,-4.00e-03,
5,1.20e-02,
6,-4.00e-03,
7,1.20e-02,
8,-4.00e-03,
9,1.20e-02,
10,-4.00e-03,
11,1.20e-02,
12,-4.00e-03,
13,1.20e-02,
14,1.20e-02,
15,-8.00e-03,
16,-4.00e-03,
17,1.20e-02,
18,-8.00e-03,
19,1.20e-02,
20,-4.00e-03,
21,8.00e-03,
22,-4.00e-03,
23,1.20e-02,
24,-4.00e-03,
25,1.20e-02,
26,1.20e-02,
27,-4.00e-03,
28,-4.00e-03,
29,1.20e-02,
30,-4.00e-03,
31,8.00e-03,
32,-4.00e-03,
33,1.20e-02,
34,-4.00e-03,
35,1.20e-02,
36,-4.00e-03,
37,1.20e-02,
38,-4.00e-03,
39,1.20e-02,
40,-4.00e-03,
41,1.20e-02,
42,-4.00e-03,
43,8.00e-03,
44,-4.00e-03,
45,1.20e-02,
46,-4.00e-03,
47,1.20e-02,
48,-4.00e-03,
49,1.20e-02,
50,1.20e-02,
51,-4.00e-03,
52,-4.00e-03,
53,1.20e-02,
54,1.20e-02,
55,-8.00e-03,
56,-3.60e-02,
57,3.20e-02,
58,1.20e-02,
59,-4.00e-03,
60,-4.00e-03,
61,1.20e-02,
62,1.20e-02,
63,-8.00e-03,
64,-4.00e-03,
65,1.20e-02,
66,8.00e-03,
67,-4.00e-03,
68,8.00e-03,
69,-4.00e-03,
70,-4.00e-03,
71,1.20e-02,
72,-4.00e-03,
73,1.20e-02,
74,-4.00e-03,
75,8.00e-03,
76,8.00e-03,
77,-4.00e-03,
78,-4.00e-03,
79,8.00e-03,
80,-4.00e-03,
81,1.20e-02,
82,-4.00e-03,
83,8.00e-03,
84,-4.00e-03,
85,1.20e-02,
86,-4.00e-03,
87,8.00e-03,
88,-4.00e-03,
89,1.20e-02,
90,-4.00e-03,
91,1.20e-02,
92,-4.00e-03,
93,1.20e-02,
94,-4.00e-03,
95,1.20e-02,
96,1.20e-02,
97,-8.00e-03,
98,1.20e-02,
99,-4.00e-03,
100,-4.00e-03,
101,1.20e-02,
102,-4.00e-03,
103,1.20e-02,
104,-4.00e-03,
105,1.20e-02,
106,-4.00e-03,
107,1.20e-02,
108,4.80e-02,
109,-2.80e-02,
110,-4.00e-03,
111,1.20e-02,
112,-4.00e-03,
113,1.20e-02,
114,-4.00e-03,
115,8.00e-03,
116,-4.00e-03,
117,1.20e-02,
118,1.20e-02,
119,-4.00e-03,
120,1.20e-02,
121,-4.00e-03,
122,-4.00e-03,
123,1.20e-02,
124,-4.00e-03,
125,8.00e-03,
126,-4.00e-03,
127,1.20e-02,
128,-4.00e-03,
129,1.20e-02,
130,-4.00e-03,
131,1.20e-02,
132,-4.00e-03,
133,1.20e-02,
134,-4.00e-03,
135,1.20e-02,
136,1.20e-02,
137,-4.00e-03,
138,1.20e-02,
139,-4.00e-03,
140,-4.00e-03,
141,1.20e-02,
142,-4.00e-03,
143,1.20e-02,
144,-4.00e-03,
145,1.20e-02,
146,1.20e-02,
147,-4.00e-03,
148,-4.00e-03,
149,1.20e-02,
150,-4.00e-03,
151,1.20e-02,
152,1.20e-02,
153,-4.00e-03,
154,-4.00e-03,
155,1.20e-02,
156,-4.00e-03,
157,1.20e-02,
158,1.20e-02,
159,-4.00e-03,
160,-6.80e-02,
161,4.40e-02,
162,-4.00e-03,
163,1.20e-02,
164,1.20e-02,
165,-4.00e-03,
166,8.00e-03,
167,-4.00e-03,
168,-4.00e-03,
169,1.20e-02,
170,-4.00e-03,
171,1.20e-02,
172,-4.00e-03,
173,1.20e-02,
174,-4.00e-03,
175,1.20e-02,
176,1.20e-02,
177,-4.00e-03,
178,-4.00e-03,
179,1.20e-02,
180,1.20e-02,
181,-8.00e-03,
182,-4.00e-03,
183,1.20e-02,
184,-4.00e-03,
185,1.20e-02,
186,-4.00e-03,
187,1.20e-02,
188,-4.00e-03,
189,1.20e-02,
190,-4.00e-03,
191,1.20e-02,
192,-4.00e-03,
193,1.20e-02,
194,-4.00e-03,
195,1.20e-02,
196,-4.00e-03,
197,1.20e-02,
198,1.20e-02,
199,-4.00e-03,
200,-4.00e-03,
201,1.20e-02,
202,-4.00e-03,
203,1.20e-02,
204,-4.00e-03,
205,1.20e-02,
206,-4.00e-03,
207,1.20e-02,
208,-4.00e-03,
209,1.20e-02,
210,-4.00e-03,
211,1.20e-02,
212,4.40e-02,
213,-4.00e-02,
214,1.20e-02,
215,-4.00e-03,
216,-4.00e-03,
217,1.20e-02,
218,8.00e-03,
219,-4.00e-03,
220,-4.00e-03,
221,1.20e-02,
222,1.20e-02,
223,-4.00e-03,
224,-4.00e-03,
225,1.20e-02,
226,-4.00e-03,
227,1.20e-02,
228,1.20e-02,
229,-8.00e-03,
230,1.20e-02,
231,-4.00e-03,
232,8.00e-03,
233,-4.00e-03,
234,-4.00e-03,
235,1.20e-02,
236,-4.00e-03,
237,1.20e-02,
238,-4.00e-03,
239,1.20e-02,
240,-4.00e-03,
241,1.20e-02,
242,-4.00e-03,
243,1.20e-02,
244,-4.00e-03,
245,1.20e-02,
246,-4.00e-03,
247,1.20e-02,
248,-4.00e-03,
249,1.20e-02,
250,-4.00e-03,
251,1.20e-02,
252,-4.00e-03,
253,1.20e-02,
254,-4.00e-03,
255,1.20e-02,
256,-4.00e-03,
257,1.20e-02,
258,-4.00e-03,
259,1.20e-02,
260,8.00e-03,
261,-4.00e-03,
262,-4.00e-03,
263,1.20e-02,
264,-4.00e-03,
265,1.20e-02,
266,8.00e-03,
267,-3.20e-02,
268,1.20e-02,
269,-8.00e-03,
270,-4.00e-03,
271,1.20e-02,
272,-4.00e-03,
273,1.20e-02,
274,-4.00e-03,
275,8.00e-03,
276,-4.00e-03,
277,1.20e-02,
278,-4.00e-03,
279,8.00e-03,
280,-4.00e-03,
281,1.20e-02,
282,-4.00e-03,
283,1.20e-02,
284,1.20e-02,
285,-4.00e-03,
286,-4.00e-03,
287,1.20e-02,
288,-4.00e-03,
289,1.20e-02,
290,-4.00e-03,
291,1.20e-02,
292,-4.00e-03,
293,1.20e-02,
294,-4.00e-03,
295,1.20e-02,
296,-4.00e-03,
297,1.20e-02,
298,-4.00e-03,
299,1.20e-02,
300,-4.00e-03,
301,1.20e-02,
302,-4.00e-03,
303,1.20e-02,
304,-4.00e-03,
305,1.20e-02,
306,1.20e-02,
307,-8.00e-03,
308,-4.00e-03,
309,1.20e-02,
310,-4.00e-03,
311,1.20e-02,
312,-4.00e-03,
313,1.20e-02,
314,-4.00e-03,
315,1.20e-02,
316,-4.00e-03,
317,1.20e-02,
318,2.80e-02,
319,-2.40e-02,
320,-4.00e-03,
321,1.20e-02,
322,8.00e-03,
323,-4.00e-03,
324,-4.00e-03,
325,1.20e-02,
326,-4.00e-03,
327,1.20e-02,
328,-4.00e-03,
329,1.20e-02,
330,-4.00e-03,
331,1.20e-02,
332,-4.00e-03,
333,1.20e-02,
334,-4.00e-03,
335,1.20e-02,
336,-4.00e-03,
337,1.20e-02,
338,-4.00e-03,
339,8.00e-03,
340,-4.00e-03,
341,1.20e-02,
342,-4.00e-03,
343,1.20e-02,
344,-4.00e-03,
345,1.20e-02,
346,1.20e-02,
347,-8.00e-03,
348,-4.00e-03,
349,1.20e-02,
350,-8.00e-03,
351,1.20e-02,
352,-4.00e-03,
353,1.20e-02,
354,8.00e-03,
355,-4.00e-03,
356,-4.00e-03,
357,8.00e-03,
358,-4.00e-03,
359,8.00e-03,
360,-4.00e-03,
361,8.00e-03,
362,-4.00e-03,
363,8.00e-03,
364,-4.00e-03,
365,8.00e-03,
366,-4.00e-03,
367,8.00e-03,
368,1.20e-02,
369,-2.00e-02,
370,-4.00e-03,
371,1.20e-02,
372,-4.00e-03,
373,1.20e-02,
374,-8.00e-03,
375,1.20e-02,
376,-4.00e-03,
377,1.20e-02,
378,1.20e-02,
379,-4.00e-03,
380,-4.00e-03,
381,1.20e-02,
382,-4.00e-03,
383,1.20e-02,
384,-4.00e-03,
385,1.20e-02,
386,1.20e-02,
387,-8.00e-03,
388,-4.00e-03,
389,1.20e-02,
390,-4.00e-03,
391,1.20e-02,
392,-4.00e-03,
393,1.60e-02,
394,1.20e-02,
395,-4.00e-03,
396,-4.00e-03,
397,1.20e-02,
398,-4.00e-03,
399,1.20e-02,
400,-4.00e-03,
401,1.20e-02,
402,-4.00e-03,
403,1.20e-02,
404,-4.00e-03,
405,1.20e-02,
406,-4.00e-03,
407,1.20e-02,
408,-4.00e-03,
409,1.20e-02,
410,-4.00e-03,
411,1.20e-02,
412,-4.00e-03,
413,1.20e-02,
414,-4.00e-03,
415,1.20e-02,
416,-4.00e-03,
417,1.20e-02,
418,-4.00e-03,
419,1.20e-02,
420,-4.00e-03,
421,1.20e-02,
422,-1.20e-02,
423,3.60e-02,
424,-4.00e-03,
425,8.00e-03,
426,-4.00e-03,
427,1.20e-02,
428,-4.00e-03,
429,1.20e-02,
430,-8.00e-03,
431,1.20e-02,
432,1.20e-02,
433,-8.00e-03,
434,1.20e-02,
435,-8.00e-03,
436,-4.00e-03,
437,1.20e-02,
438,-4.00e-03,
439,1.20e-02,
440,-4.00e-03,
441,1.20e-02,
442,-4.00e-03,
443,1.20e-02,
444,-4.00e-03,
445,1.20e-02,
446,-4.00e-03,
447,1.20e-02,
448,-4.00e-03,
449,1.20e-02,
450,-4.00e-03,
451,8.00e-03,
452,-4.00e-03,
453,8.00e-03,
454,-4.00e-03,
455,1.20e-02,
456,-4.00e-03,
457,8.00e-03,
458,-4.00e-03,
459,1.20e-02,
460,-4.00e-03,
461,1.20e-02,
462,-4.00e-03,
463,1.20e-02,
464,-4.00e-03,
465,1.20e-02,
466,-4.00e-03,
467,1.20e-02,
468,-4.00e-03,
469,1.20e-02,
470,-4.00e-03,
471,1.20e-02,
472,-4.00e-03,
473,1.20e-02,
474,-4.80e-02,
475,4.40e-02,
476,-4.00e-03,
477,1.20e-02,
478,-4.00e-03,
479,1.20e-02,
480,-4.00e-03,
481,1.20e-02,
482,-4.00e-03,
483,1.20e-02,
484,-4.00e-03,
485,8.00e-03,
486,-4.00e-03,
487,1.20e-02,
488,-4.00e-03,
489,1.20e-02,
490,-4.00e-03,
491,1.20e-02,
492,-4.00e-03,
493,1.20e-02,
494,-4.00e-03,
495,1.20e-02,
496,-4.00e-03,
497,1.20e-02,
498,-4.00e-03,
499,1.20e-02,
500,-4.00e-03,
501,1.20e-02,
502,-4.00e-03,
503,1.20e-02,
504,-4.00e-03,
505,8.00e-03,
506,-4.00e-03,
507,1.20e-02,
508,-4.00e-03,
509,1.20e-02,
510,1.20e-02,
511,-4.00e-03,
512,-4.00e-03,
513,1.20e-02,
514,-4.00e-03,
515,1.20e-02,
516,-4.00e-03,
517,1.20e-02,
518,-8.00e-03,
519,1.20e-02,
520,-4.00e-03,
521,1.20e-02,
522,-4.00e-03,
523,1.20e-02,
524,-4.00e-03,
525,1.20e-02,
526,2.80e-02,
527,-2.00e-02,
528,-4.00e-03,
529,1.20e-02,
530,-4.00e-03,
531,8.00e-03,
532,-4.00e-03,
533,1.20e-02,
534,1.20e-02,
535,-4.00e-03,
536,-4.00e-03,
537,1.20e-02,
538,-4.00e-03,
539,1.20e-02,
540,1.20e-02,
541,-8.00e-03,
542,-4.00e-03,
543,1.20e-02,
544,-4.00e-03,
545,1.20e-02,
546,-4.00e-03,
547,1.20e-02,
548,-4.00e-03,
549,1.20e-02,
550,-4.00e-03,
551,1.20e-02,
552,-4.00e-03,
553,1.20e-02,
554,1.20e-02,
555,-4.00e-03,
556,-4.00e-03,
557,1.20e-02,
558,-4.00e-03,
559,1.20e-02,
560,-4.00e-03,
561,1.20e-02,
562,1.20e-02,
563,-8.00e-03,
564,8.00e-03,
565,-4.00e-03,
566,-4.00e-03,
567,8.00e-03,
568,-4.00e-03,
569,1.20e-02,
570,-4.00e-03,
571,8.00e-03,
572,-4.00e-03,
573,1.20e-02,
574,8.00e-03,
575,-4.00e-03,
576,8.00e-03,
577,-4.00e-03,
578,1.60e-02,
579,-4.40e-02,
580,-4.00e-03,
581,1.20e-02,
582,-4.00e-03,
583,8.00e-03,
584,-4.00e-03,
585,1.20e-02,
586,-4.00e-03,
587,1.20e-02,
588,-4.00e-03,
589,1.20e-02,
590,-4.00e-03,
591,1.20e-02,
592,-4.00e-03,
593,1.20e-02,
594,1.20e-02,
595,-8.00e-03,
596,-4.00e-03,
597,1.20e-02,
598,-4.00e-03,
599,1.20e-02,
600,1.20e-02,
601,-8.00e-03,
602,-8.00e-03,
603,1.20e-02,
604,-4.00e-03,
605,1.20e-02,
606,8.00e-03,
607,-4.00e-03,
608,-4.00e-03,
609,1.20e-02,
610,1.20e-02,
611,-4.00e-03,
612,-4.00e-03,
613,8.00e-03,
614,-4.00e-03,
615,8.00e-03,
616,-4.00e-03,
617,1.20e-02,
618,-4.00e-03,
619,1.20e-02,
620,-4.00e-03,
621,1.20e-02,
622,-4.00e-03,
623,1.20e-02,
624,-4.00e-03,
625,1.20e-02,
626,-4.00e-03,
627,1.20e-02,
628,-4.00e-03,
629,1.20e-02,
630,1.20e-02,
631,-1.20e-02,
632,1.60e-02,
633,-2.80e-02,
634,-4.00e-03,
635,1.20e-02,
636,-4.00e-03,
637,1.20e-02,
638,-4.00e-03,
639,1.20e-02,
640,-4.00e-03,
641,1.20e-02,
642,-4.00e-03,
643,1.20e-02,
644,-4.00e-03,
645,1.20e-02,
646,-4.00e-03,
647,1.20e-02,
648,-4.00e-03,
649,1.20e-02,
650,-4.00e-03,
651,1.20e-02,
652,-4.00e-03,
653,1.20e-02,
654,-4.00e-03,
655,1.20e-02,
656,-4.00e-03,
657,1.20e-02,
658,8.00e-03,
659,-4.00e-03,
660,-4.00e-03,
661,1.20e-02,
662,1.20e-02,
663,-4.00e-03,
664,-4.00e-03,
665,1.20e-02,
666,-4.00e-03,
667,1.20e-02,
668,-4.00e-03,
669,1.20e-02,
670,-4.00e-03,
671,1.20e-02,
672,-4.00e-03,
673,1.20e-02,
674,-4.00e-03,
675,1.20e-02,
676,-4.00e-03,
677,1.20e-02,
678,1.20e-02,
679,-4.00e-03,
680,-4.00e-03,
681,1.20e-02,
682,-4.00e-03,
683,1.20e-02,
684,-7.20e-02,
685,1.20e-02,
686,-4.00e-03,
687,1.20e-02,
688,-4.00e-03,
689,1.20e-02,
690,8.00e-03,
691,-4.00e-03,
692,-4.00e-03,
693,8.00e-03,
694,-4.00e-03,
695,8.00e-03,
696,8.00e-03,
697,-4.00e-03,
698,8.00e-03,
699,-4.00e-03,
700,-4.00e-03,
701,1.20e-02,
702,-4.00e-03,
703,8.00e-03,
704,-4.00e-03,
705,1.20e-02,
706,-4.00e-03,
707,1.20e-02,
708,-4.00e-03,
709,1.20e-02,
710,8.00e-03,
711,-4.00e-03,
712,-4.00e-03,
713,1.20e-02,
714,-4.00e-03,
715,1.20e-02,
716,1.20e-02,
717,-4.00e-03,
718,-4.00e-03,
719,1.20e-02,
720,-4.00e-03,
721,1.20e-02,
722,-4.00e-03,
723,1.20e-02,
724,1.20e-02,
725,-8.00e-03,
726,-4.00e-03,
727,1.60e-02,
728,-4.00e-03,
729,1.20e-02,
730,1.20e-02,
731,-4.00e-03,
732,-4.00e-03,
733,8.00e-03,
734,-4.00e-03,
735,1.20e-02,
736,3.60e-02,
737,-2.80e-02,
738,-4.00e-03,
739,1.20e-02,
740,-4.00e-03,
741,1.20e-02,
742,-4.00e-03,
743,1.20e-02,
744,-4.00e-03,
745,8.00e-03,
746,-4.00e-03,
747,1.20e-02,
748,-4.00e-03,
749,1.20e-02,
750,1.20e-02,
751,-4.00e-03,
752,-4.00e-03,
753,1.20e-02,
754,-4.00e-03,
755,8.00e-03,
756,-4.00e-03,
757,1.20e-02,
758,-4.00e-03,
759,1.20e-02,
760,-4.00e-03,
761,8.00e-03,
762,-4.00e-03,
763,1.20e-02,
764,-4.00e-03,
765,1.20e-02,
766,-4.00e-03,
767,1.20e-02,
768,-4.00e-03,
769,1.20e-02,
770,1.20e-02,
771,-4.00e-03,
772,-4.00e-03,
773,1.20e-02,
774,-4.00e-03,
775,1.20e-02,
776,-4.00e-03,
777,8.00e-03,
778,1.20e-02,
779,-4.00e-03,
780,-4.00e-03,
781,1.20e-02,
782,-4.00e-03,
783,1.20e-02,
784,-4.00e-03,
785,1.20e-02,
786,-4.00e-03,
787,1.20e-02,
788,-4.00e-03,
789,8.00e-03,
790,6.40e-02,
791,-4.00e-03,
792,-4.00e-03,
793,1.20e-02,
794,1.20e-02,
795,-4.00e-03,
796,-4.00e-03,
797,1.20e-02,
798,1.20e-02,
799,-4.00e-03,
800,8.00e-03,
801,-4.00e-03,
802,-4.00e-03,
803,1.20e-02,
804,8.00e-03,
805,-8.00e-03,
806,-4.00e-03,
807,1.20e-02,
808,8.00e-03,
809,-4.00e-03,
810,1.20e-02,
811,-4.00e-03,
812,-4.00e-03,
813,1.20e-02,
814,-4.00e-03,
815,1.20e-02,
816,8.00e-03,
817,-4.00e-03,
818,-4.00e-03,
819,1.20e-02,
820,-4.00e-03,
821,1.20e-02,
822,-4.00e-03,
823,1.20e-02,
824,-4.00e-03,
825,1.20e-02,
826,-4.00e-03,
827,1.20e-02,
828,-4.00e-03,
829,1.20e-02,
830,-4.00e-03,
831,1.20e-02,
832,-4.00e-03,
833,1.20e-02,
834,-4.00e-03,
835,1.20e-02,
836,-4.00e-03,
837,1.20e-02,
838,-4.00e-03,
839,8.00e-03,
840,-4.00e-03,
841,1.20e-02,
842,-4.00e-03,
843,4.40e-02,
844,-4.00e-03,
845,1.20e-02,
846,-4.00e-03,
847,1.60e-02,
848,1.20e-02,
849,-4.00e-03,
850,-4.00e-03,
851,1.20e-02,
852,-4.00e-03,
853,1.20e-02,
854,-4.00e-03,
855,1.20e-02,
856,-4.00e-03,
857,1.20e-02,
858,-4.00e-03,
859,1.20e-02,
860,1.20e-02,
861,-4.00e-03,
862,8.00e-03,
863,-4.00e-03,
864,-4.00e-03,
865,1.20e-02,
866,1.20e-02,
867,-4.00e-03,
868,1.20e-02,
869,-4.00e-03,
870,-4.00e-03,
871,1.20e-02,
872,1.20e-02,
873,-4.00e-03,
874,-4.00e-03,
875,1.20e-02,
876,-4.00e-03,
877,1.20e-02,
878,-4.00e-03,
879,1.20e-02,
880,-8.00e-03,
881,1.20e-02,
882,-4.00e-03,
883,1.20e-02,
884,-4.00e-03,
885,1.20e-02,
886,1.20e-02,
887,-4.00e-03,
888,-4.00e-03,
889,1.20e-02,
890,-4.00e-03,
891,1.20e-02,
892,-4.00e-03,
893,1.20e-02,
894,-3.60e-02,
895,2.40e-02,
896,-4.00e-03,
897,4.00e-02,
898,-4.00e-03,
899,1.20e-02,
900,1.20e-02,
901,-4.00e-03,
902,-4.00e-03,
903,1.20e-02,
904,-4.00e-03,
905,1.20e-02,
906,1.20e-02,
907,-4.00e-03,
908,-4.00e-03,
909,1.20e-02,
910,-4.00e-03,
911,1.20e-02,
912,-4.00e-03,
913,1.20e-02,
914,-4.00e-03,
915,1.20e-02,
916,-4.00e-03,
917,1.20e-02,
918,-4.00e-03,
919,1.20e-02,
920,-4.00e-03,
921,1.20e-02,
922,-4.00e-03,
923,1.20e-02,
924,-4.00e-03,
925,1.20e-02,
926,8.00e-03,
927,-4.00e-03,
928,-4.00e-03,
929,1.20e-02,
930,-4.00e-03,
931,1.20e-02,
932,-4.00e-03,
933,1.20e-02,
934,8.00e-03,
935,-4.00e-03,
936,8.00e-03,
937,-4.00e-03,
938,-4.00e-03,
939,1.20e-02,
940,-4.00e-03,
941,1.20e-02,
942,-4.00e-03,
943,1.20e-02,
944,-4.00e-03,
945,1.20e-02,
946,-4.00e-03,
947,1.20e-02,
948,-3.60e-02,
949,4.00e-02,
950,-4.00e-03,
951,1.20e-02,
952,-4.00e-03,
953,1.20e-02,
954,-4.00e-03,
955,1.20e-02,
956,-4.00e-03,
957,1.20e-02,
958,-4.00e-03,
959,1.20e-02,
960,-4.00e-03,
961,1.20e-02,
962,-4.00e-03,
963,1.20e-02,
964,1.20e-02,
965,-4.00e-03,
966,-4.00e-03,
967,1.20e-02,
968,-4.00e-03,
969,1.20e-02,
970,1.20e-02,
971,-8.00e-03,
972,-4.00e-03,
973,1.20e-02,
974,1.20e-02,
975,-4.00e-03,
976,-4.00e-03,
977,1.20e-02,
978,-8.00e-03,
979,1.20e-02,
980,-4.00e-03,
981,1.20e-02,
982,-4.00e-03,
983,1.20e-02,
984,1.20e-02,
985,-4.00e-03,
986,-4.00e-03,
987,1.20e-02,
988,-4.00e-03,
989,1.20e-02,
990,-4.00e-03,
991,1.20e-02,
992,-4.00e-03,
993,1.20e-02,
994,-4.00e-03,
995,8.00e-03,
996,1.20e-02,
997,-4.00e-03,
998,-4.00e-03,
999,1.20e-02,
1000,-8.00e-02,
1001,2.40e-02,
1002,-4.00e-03,
1003,1.20e-02,
1004,-4.00e-03,
1005,1.20e-02,
1006,8.00e-03,
1007,-4.00e-03,
1008,-4.00e-03,
1009,1.20e-02,
1010,-4.00e-03,
1011,1.20e-02,
1012,-4.00e-03,
1013,1.20e-02,
1014,8.00e-03,
1015,-4.00e-03,
1016,-4.00e-03,
1017,8.00e-03,
1018,-4.00e-03,
1019,8.00e-03,
1020,-4.00e-03,
1021,1.20e-02,
1022,-4.00e-03,
1023,1.20e-02,
1024,1.20e-02,
1025,-4.00e-03,
1026,-4.00e-03,
1027,8.00e-03,
1028,-4.00e-03,
1029,1.20e-02,
1030,-4.00e-03,
1031,1.20e-02,
1032,-4.00e-03,
1033,1.20e-02,
1034,-4.00e-03,
1035,1.20e-02,
1036,-4.00e-03,
1037,1.20e-02,
1038,-4.00e-03,
1039,1.20e-02,
1040,-4.00e-03,
1041,1.20e-02,
1042,-4.00e-03,
1043,1.20e-02,
1044,-4.00e-03,
1045,1.20e-02,
1046,-4.00e-03,
1047,1.20e-02,
1048,-4.00e-03,
1049,1.20e-02,
1050,-4.00e-03,
1051,1.20e-02,
1052,-4.00e-03,
1053,6.40e-02,
1054,3.20e-02,
1055,-8.00e-03,
1056,-4.00e-03,
1057,1.20e-02,
1058,1.20e-02,
1059,-4.00e-03,
1060,-4.00e-03,
1061,1.20e-02,
1062,-4.00e-03,
1063,1.20e-02,
1064,8.00e-03,
1065,-8.00e-03,
1066,-4.00e-03,
1067,1.20e-02,
1068,-4.00e-03,
1069,1.20e-02,
1070,-4.00e-03,
1071,8.00e-03,
1072,-4.00e-03,
1073,8.00e-03,
1074,-4.00e-03,
1075,1.20e-02,
1076,-4.00e-03,
1077,1.20e-02,
1078,-4.00e-03,
1079,1.20e-02,
1080,-4.00e-03,
1081,1.20e-02,
1082,-4.00e-03,
1083,1.20e-02,
1084,-4.00e-03,
1085,1.20e-02,
1086,-4.00e-03,
1087,1.20e-02,
1088,-4.00e-03,
1089,1.20e-02,
1090,-4.00e-03,
1091,1.20e-02,
1092,8.00e-03,
1093,-4.00e-03,
1094,-4.00e-03,
1095,1.20e-02,
1096,-4.00e-03,
1097,1.20e-02,
1098,1.20e-02,
1099,-4.00e-03,
1100,8.00e-03,
1101,-4.00e-03,
1102,-4.00e-03,
1103,1.20e-02,
1104,-4.00e-03,
1105,1.20e-02,
1106,-4.00e-03,
1107,6.80e-02,
1108,-4.00e-03,
1109,1.20e-02,
1110,-8.00e-03,
1111,1.20e-02,
1112,-4.00e-03,
1113,1.20e-02,
1114,-4.00e-03,
1115,1.20e-02,
1116,-4.00e-03,
1117,1.20e-02,
1118,-4.00e-03,
1119,1.20e-02,
1120,-4.00e-03,
1121,1.20e-02,
1122,-4.00e-03,
1123,1.20e-02,
1124,-4.00e-03,
1125,1.20e-02,
1126,-4.00e-03,
1127,1.20e-02,
1128,-4.00e-03,
1129,1.20e-02,
1130,1.20e-02,
1131,-4.00e-03,
1132,-4.00e-03,
1133,1.20e-02,
1134,-4.00e-03,
1135,1.20e-02,
1136,-4.00e-03,
1137,8.00e-03,
1138,-4.00e-03,
1139,1.20e-02,
1140,-4.00e-03,
1141,1.20e-02,
1142,-4.00e-03,
1143,8.00e-03,
1144,-4.00e-03,
1145,1.20e-02,
1146,-4.00e-03,
1147,1.20e-02,
1148,-4.00e-03,
1149,1.20e-02,
1150,-4.00e-03,
1151,1.20e-02,
1152,8.00e-03,
1153,-4.00e-03,
1154,-4.00e-03,
1155,1.20e-02,
1156,-4.00e-03,
1157,1.20e-02,
1158,5.20e-02,
1159,-8.00e-03,
1160,-1.20e-02,
1161,3.60e-02,
1162,-4.00e-03,
1163,1.20e-02,
1164,-4.00e-03,
1165,1.20e-02,
1166,8.00e-03,
1167,-4.00e-03,
1168,-4.00e-03,
1169,1.20e-02,
1170,-4.00e-03,
1171,1.20e-02,
1172,-4.00e-03,
1173,8.00e-03,
1174,-4.00e-03,
1175,1.20e-02,
1176,1.20e-02,
1177,-4.00e-03,
1178,1.20e-02,
1179,-4.00e-03,
1180,1.20e-02,
1181,-4.00e-03,
1182,1.20e-02,
1183,-8.00e-03,
1184,-8.00e-03,
1185,1.20e-02,
1186,-4.00e-03,
1187,1.20e-02,
1188,-4.00e-03,
1189,1.20e-02,
1190,-4.00e-03,
1191,1.20e-02,
1192,1.20e-02,
1193,-4.00e-03,
1194,1.20e-02,
1195,-4.00e-03,
1196,-4.00e-03,
1197,1.20e-02,
1198,-4.00e-03,
1199,1.20e-02,
