Laptop_2/LAPTOP_CHRGR_2_OFF/time domain/NewFile9.csv

X,CH1,Start,Increment,
Sequence,Volt,-1.500000e-01,2.000000e-04
0,-8.00e-03,
1,1.60e-02,
2,-4.00e-03,
3,1.20e-02,
4,-4.00e-03,
5,1.20e-02,
6,-4.00e-03,
7,1.20e-02,
8,-4.00e-03,
9,1.20e-02,
10,-4.00e-03,
11,1.20e-02,
12,-4.00e-03,
13,1.20e-02,
14,-4.00e-03,
15,1.20e-02,
16,-4.00e-03,
17,1.20e-02,
18,1.20e-02,
19,-4.00e-03,
20,1.20e-02,
21,-4.00e-03,
22,1.20e-02,
23,-4.00e-03,
24,-4.00e-03,
25,1.20e-02,
26,1.20e-02,
27,-4.00e-03,
28,-4.00e-03,
29,1.20e-02,
30,-4.00e-03,
31,1.20e-02,
32,-4.00e-03,
33,1.20e-02,
34,-4.00e-03,
35,1.20e-02,
36,-4.00e-03,
37,1.20e-02,
38,3.20e-02,
39,-1.60e-02,
40,-4.00e-03,
41,1.20e-02,
42,1.20e-02,
43,-8.00e-03,
44,-8.00e-03,
45,1.20e-02,
46,1.20e-02,
47,-8.00e-03,
48,1.20e-02,
49,-4.00e-03,
50,-4.00e-03,
51,1.20e-02,
52,-4.00e-03,
53,1.20e-02,
54,1.20e-02,
55,-8.00e-03,
56,-4.00e-03,
57,1.20e-02,
58,-4.00e-03,
59,1.20e-02,
60,-4.00e-03,
61,1.20e-02,
62,1.20e-02,
63,-4.00e-03,
64,-4.00e-03,
65,1.20e-02,
66,1.20e-02,
67,-8.00e-03,
68,1.20e-02,
69,-4.00e-03,
70,1.20e-02,
71,-4.00e-03,
72,-4.00e-03,
73,1.60e-02,
74,-4.00e-03,
75,1.60e-02,
76,-4.00e-03,
77,1.20e-02,
78,1.20e-02,
79,-4.00e-03,
80,1.20e-02,
81,-8.00e-03,
82,-4.00e-03,
83,1.60e-02,
84,-4.00e-03,
85,1.20e-02,
86,1.20e-02,
87,-8.00e-03,
88,1.20e-02,
89,-8.00e-03,
90,-4.00e-03,
91,1.20e-02,
92,6.80e-02,
93,-3.60e-02,
94,1.20e-02,
95,-4.00e-03,
96,-4.00e-03,
97,1.20e-02,
98,1.20e-02,
99,-8.00e-03,
100,-4.00e-03,
101,1.20e-02,
102,-4.00e-03,
103,1.20e-02,
104,-4.00e-03,
105,1.20e-02,
106,-4.00e-03,
107,1.20e-02,
108,-4.00e-03,
109,1.20e-02,
110,-4.00e-03,
111,1.20e-02,
112,-4.00e-03,
113,1.20e-02,
114,1.20e-02,
115,-4.00e-03,
116,1.20e-02,
117,-4.00e-03,
118,-4.00e-03,
119,1.20e-02,
120,-4.00e-03,
121,1.20e-02,
122,1.20e-02,
123,-8.00e-03,
124,1.20e-02,
125,-8.00e-03,
126,-8.00e-03,
127,1.20e-02,
128,-8.00e-03,
129,1.60e-02,
130,1.20e-02,
131,-8.00e-03,
132,-4.00e-03,
133,1.20e-02,
134,-4.00e-03,
135,1.20e-02,
136,-4.00e-03,
137,1.20e-02,
138,-4.00e-03,
139,1.20e-02,
140,1.20e-02,
141,-4.00e-03,
142,1.20e-02,
143,-8.00e-03,
144,1.20e-02,
145,-7.60e-02,
146,-4.00e-03,
147,1.20e-02,
148,-8.00e-03,
149,8.00e-03,
150,-4.00e-03,
151,1.20e-02,
152,-8.00e-03,
153,1.20e-02,
154,1.20e-02,
155,-8.00e-03,
156,1.20e-02,
157,-4.00e-03,
158,-4.00e-03,
159,1.20e-02,
160,1.20e-02,
161,-8.00e-03,
162,1.20e-02,
163,-8.00e-03,
164,1.20e-02,
165,-8.00e-03,
166,-8.00e-03,
167,1.60e-02,
168,1.20e-02,
169,-4.00e-03,
170,1.20e-02,
171,-8.00e-03,
172,1.20e-02,
173,-8.00e-03,
174,-4.00e-03,
175,1.20e-02,
176,-4.00e-03,
177,1.20e-02,
178,1.20e-02,
179,-4.00e-03,
180,-4.00e-03,
181,1.20e-02,
182,-4.00e-03,
183,1.20e-02,
184,1.20e-02,
185,-4.00e-03,
186,-4.00e-03,
187,1.20e-02,
188,-4.00e-03,
189,1.20e-02,
190,-4.00e-03,
191,1.20e-02,
192,-4.00e-03,
193,1.20e-02,
194,1.20e-02,
195,-8.00e-03,
196,3.20e-02,
197,-2.00e-02,
198,-4.00e-03,
199,1.20e-02,
200,1.20e-02,
201,-4.00e-03,
202,-4.00e-03,
203,1.20e-02,
204,-4.00e-03,
205,1.60e-02,
206,1.20e-02,
207,-8.00e-03,
208,-4.00e-03,
209,1.20e-02,
210,1.20e-02,
211,-4.00e-03,
212,1.20e-02,
213,-4.00e-03,
214,-4.00e-03,
215,1.20e-02,
216,1.20e-02,
217,-4.00e-03,
218,-4.00e-03,
219,1.20e-02,
220,1.20e-02,
221,-4.00e-03,
222,-4.00e-03,
223,1.20e-02,
224,1.20e-02,
225,-8.00e-03,
226,1.20e-02,
227,-4.00e-03,
228,1.20e-02,
229,-8.00e-03,
230,1.20e-02,
231,-8.00e-03,
232,-8.00e-03,
233,1.20e-02,
234,1.20e-02,
235,-8.00e-03,
236,1.20e-02,
237,-4.00e-03,
238,-4.00e-03,
239,1.20e-02,
240,1.20e-02,
241,-8.00e-03,
242,-4.00e-03,
243,1.20e-02,
244,1.20e-02,
245,-8.00e-03,
246,-8.00e-03,
247,1.20e-02,
248,1.20e-02,
249,-8.00e-03,
250,9.20e-02,
251,-8.00e-03,
252,1.20e-02,
253,-8.00e-03,
254,-8.00e-03,
255,1.20e-02,
256,-4.00e-03,
257,1.20e-02,
258,-4.00e-03,
259,1.20e-02,
260,-4.00e-03,
261,1.20e-02,
262,-4.00e-03,
263,1.20e-02,
264,-4.00e-03,
265,1.20e-02,
266,-4.00e-03,
267,1.20e-02,
268,-4.00e-03,
269,1.20e-02,
270,-4.00e-03,
271,1.20e-02,
272,-4.00e-03,
273,1.20e-02,
274,-4.00e-03,
275,1.20e-02,
276,1.20e-02,
277,-4.00e-03,
278,-4.00e-03,
279,1.20e-02,
280,-4.00e-03,
281,1.20e-02,
282,1.20e-02,
283,-8.00e-03,
284,1.20e-02,
285,-8.00e-03,
286,-4.00e-03,
287,1.20e-02,
288,1.20e-02,
289,-8.00e-03,
290,1.20e-02,
291,-8.00e-03,
292,1.20e-02,
293,-8.00e-03,
294,-8.00e-03,
295,1.20e-02,
296,-4.00e-03,
297,1.20e-02,
298,-4.00e-03,
299,1.20e-02,
300,-4.00e-03,
301,1.20e-02,
302,1.04e-01,
303,-3.60e-02,
304,-4.00e-03,
305,1.20e-02,
306,-4.00e-03,
307,1.20e-02,
308,-4.00e-03,
309,1.20e-02,
310,-4.00e-03,
311,1.20e-02,
312,-4.00e-03,
313,1.20e-02,
314,1.20e-02,
315,-8.00e-03,
316,-4.00e-03,
317,1.20e-02,
318,8.00e-03,
319,-8.00e-03,
320,1.20e-02,
321,-8.00e-03,
322,1.20e-02,
323,-4.00e-03,
324,1.20e-02,
325,-8.00e-03,
326,-4.00e-03,
327,1.20e-02,
328,1.20e-02,
329,-8.00e-03,
330,1.20e-02,
331,-8.00e-03,
332,1.20e-02,
333,-8.00e-03,
334,1.20e-02,
335,-8.00e-03,
336,-4.00e-03,
337,1.20e-02,
338,1.20e-02,
339,-8.00e-03,
340,-4.00e-03,
341,1.20e-02,
342,-4.00e-03,
343,1.20e-02,
344,-4.00e-03,
345,1.20e-02,
346,-4.00e-03,
347,1.20e-02,
348,-4.00e-03,
349,1.20e-02,
350,-4.00e-03,
351,1.20e-02,
352,-4.00e-03,
353,1.20e-02,
354,-4.00e-03,
355,8.00e-02,
356,-4.00e-03,
357,1.20e-02,
358,1.20e-02,
359,-8.00e-03,
360,-4.00e-03,
361,1.20e-02,
362,-8.00e-03,
363,1.20e-02,
364,-4.00e-03,
365,1.20e-02,
366,-4.00e-03,
367,1.20e-02,
368,-4.00e-03,
369,1.20e-02,
370,1.20e-02,
371,-8.00e-03,
372,-8.00e-03,
373,1.20e-02,
374,1.20e-02,
375,-8.00e-03,
376,1.20e-02,
377,-8.00e-03,
378,1.20e-02,
379,-8.00e-03,
380,1.60e-02,
381,-8.00e-03,
382,-8.00e-03,
383,1.20e-02,
384,-4.00e-03,
385,1.20e-02,
386,1.20e-02,
387,-4.00e-03,
388,-4.00e-03,
389,1.20e-02,
390,1.20e-02,
391,-4.00e-03,
392,-4.00e-03,
393,1.20e-02,
394,-4.00e-03,
395,1.20e-02,
396,-4.00e-03,
397,1.20e-02,
398,-4.00e-03,
399,1.20e-02,
400,-4.00e-03,
401,1.20e-02,
402,-4.00e-03,
403,1.20e-02,
404,-4.00e-03,
405,1.20e-02,
406,1.20e-02,
407,-8.00e-03,
408,-8.00e-03,
409,8.80e-02,
410,1.20e-02,
411,-8.00e-03,
412,1.20e-02,
413,-8.00e-03,
414,1.20e-02,
415,-8.00e-03,
416,-4.00e-03,
417,1.20e-02,
418,-8.00e-03,
419,1.20e-02,
420,-4.00e-03,
421,1.60e-02,
422,-4.00e-03,
423,1.20e-02,
424,-4.00e-03,
425,1.20e-02,
426,-4.00e-03,
427,1.20e-02,
428,-4.00e-03,
429,1.20e-02,
430,-4.00e-03,
431,1.20e-02,
432,1.20e-02,
433,-4.00e-03,
434,-4.00e-03,
435,1.20e-02,
436,1.20e-02,
437,-4.00e-03,
438,-4.00e-03,
439,1.20e-02,
440,1.20e-02,
441,-8.00e-03,
442,-4.00e-03,
443,1.20e-02,
444,-4.00e-03,
445,1.20e-02,
446,-4.00e-03,
447,1.20e-02,
448,1.20e-02,
449,-8.00e-03,
450,-4.00e-03,
451,1.20e-02,
452,1.20e-02,
453,-4.00e-03,
454,1.20e-02,
455,-8.00e-03,
456,-4.00e-03,
457,1.60e-02,
458,-4.00e-03,
459,1.60e-02,
460,-8.00e-03,
461,9.60e-02,
462,-8.00e-03,
463,1.20e-02,
464,-4.00e-03,
465,1.20e-02,
466,-4.00e-03,
467,1.20e-02,
468,-4.00e-03,
469,1.20e-02,
470,-4.00e-03,
471,1.20e-02,
472,-4.00e-03,
473,1.20e-02,
474,-4.00e-03,
475,1.20e-02,
476,-4.00e-03,
477,1.20e-02,
478,1.20e-02,
479,-4.00e-03,
480,-4.00e-03,
481,1.20e-02,
482,1.20e-02,
483,-8.00e-03,
484,1.20e-02,
485,-4.00e-03,
486,-4.00e-03,
487,1.20e-02,
488,-4.00e-03,
489,1.20e-02,
490,-4.00e-03,
491,1.20e-02,
492,1.20e-02,
493,-4.00e-03,
494,-4.00e-03,
495,1.20e-02,
496,1.20e-02,
497,-4.00e-03,
498,-8.00e-03,
499,1.20e-02,
500,1.20e-02,
501,-8.00e-03,
502,-4.00e-03,
503,1.20e-02,
504,1.60e-02,
505,-8.00e-03,
506,-4.00e-03,
507,1.20e-02,
508,-4.00e-03,
509,1.20e-02,
510,-4.00e-03,
511,1.20e-02,
512,-6.40e-02,
513,3.20e-02,
514,-4.00e-03,
515,1.20e-02,
516,-4.00e-03,
517,1.20e-02,
518,-4.00e-03,
519,1.20e-02,
520,-4.00e-03,
521,1.20e-02,
522,-4.00e-03,
523,1.20e-02,
524,-4.00e-03,
525,1.20e-02,
526,-4.00e-03,
527,1.20e-02,
528,-4.00e-03,
529,1.20e-02,
530,-4.00e-03,
531,1.20e-02,
532,-4.00e-03,
533,1.20e-02,
534,-4.00e-03,
535,1.20e-02,
536,1.20e-02,
537,-4.00e-03,
538,1.20e-02,
539,-8.00e-03,
540,-4.00e-03,
541,1.20e-02,
542,1.20e-02,
543,-8.00e-03,
544,-8.00e-03,
545,1.60e-02,
546,-4.00e-03,
547,1.20e-02,
548,-4.00e-03,
549,1.20e-02,
550,-4.00e-03,
551,1.20e-02,
552,-4.00e-03,
553,1.20e-02,
554,-4.00e-03,
555,1.20e-02,
556,-4.00e-03,
557,1.20e-02,
558,-4.00e-03,
559,1.20e-02,
560,1.20e-02,
561,-8.00e-03,
562,-4.00e-03,
563,1.20e-02,
564,1.20e-02,
565,-8.00e-03,
566,-8.40e-02,
567,2.40e-02,
568,-4.00e-03,
569,1.20e-02,
570,1.20e-02,
571,-4.00e-03,
572,-8.00e-03,
573,1.20e-02,
574,-4.00e-03,
575,1.20e-02,
576,1.20e-02,
577,-8.00e-03,
578,1.20e-02,
579,-8.00e-03,
580,-8.00e-03,
581,1.20e-02,
582,1.20e-02,
583,-8.00e-03,
584,-8.00e-03,
585,1.60e-02,
586,1.20e-02,
587,-8.00e-03,
588,1.20e-02,
589,-8.00e-03,
590,-4.00e-03,
591,1.20e-02,
592,-4.00e-03,
593,1.20e-02,
594,-4.00e-03,
595,1.20e-02,
596,-4.00e-03,
597,1.20e-02,
598,-4.00e-03,
599,1.20e-02,
600,-4.00e-03,
601,1.20e-02,
602,-4.00e-03,
603,1.20e-02,
604,-4.00e-03,
605,1.20e-02,
606,-4.00e-03,
607,1.20e-02,
608,-4.00e-03,
609,1.20e-02,
610,-4.00e-03,
611,1.20e-02,
612,-4.00e-03,
613,1.20e-02,
614,1.20e-02,
615,-4.00e-03,
616,-4.00e-03,
617,1.20e-02,
618,-4.00e-02,
619,2.40e-02,
620,-4.00e-03,
621,1.20e-02,
622,-4.00e-03,
623,1.20e-02,
624,1.20e-02,
625,-8.00e-03,
626,-4.00e-03,
627,1.20e-02,
628,1.20e-02,
629,-8.00e-03,
630,-4.00e-03,
631,1.60e-02,
632,-4.00e-03,
633,1.20e-02,
634,-4.00e-03,
635,1.20e-02,
636,-4.00e-03,
637,1.20e-02,
638,1.20e-02,
639,-4.00e-03,
640,-4.00e-03,
641,1.20e-02,
642,-4.00e-03,
643,1.20e-02,
644,-4.00e-03,
645,1.20e-02,
646,-4.00e-03,
647,1.20e-02,
648,1.20e-02,
649,-8.00e-03,
650,-4.00e-03,
651,1.60e-02,
652,-4.00e-03,
653,1.20e-02,
654,-4.00e-03,
655,1.20e-02,
656,-4.00e-03,
657,1.20e-02,
658,-4.00e-03,
659,1.60e-02,
660,-4.00e-03,
661,1.20e-02,
662,1.20e-02,
663,-4.00e-03,
664,-4.00e-03,
665,1.60e-02,
666,-4.00e-03,
667,1.20e-02,
668,1.20e-02,
669,-8.00e-03,
670,1.00e-01,
671,-3.20e-02,
672,-1.60e-02,
673,1.20e-02,
674,-4.00e-03,
675,1.20e-02,
676,-4.00e-03,
677,1.20e-02,
678,1.20e-02,
679,-4.00e-03,
680,-4.00e-03,
681,1.20e-02,
682,1.20e-02,
683,-4.00e-03,
684,-4.00e-03,
685,1.20e-02,
686,-4.00e-03,
687,1.20e-02,
688,1.20e-02,
689,-4.00e-03,
690,-4.00e-03,
691,1.20e-02,
692,1.20e-02,
693,-4.00e-03,
694,1.20e-02,
695,-4.00e-03,
696,1.20e-02,
697,-4.00e-03,
698,-4.00e-03,
699,1.20e-02,
700,1.20e-02,
701,-4.00e-03,
702,-4.00e-03,
703,1.20e-02,
704,-4.00e-03,
705,1.20e-02,
706,1.20e-02,
707,-8.00e-03,
708,1.20e-02,
709,-8.00e-03,
710,1.60e-02,
711,-8.00e-03,
712,1.60e-02,
713,-8.00e-03,
714,-4.00e-03,
715,1.20e-02,
716,-4.00e-03,
717,1.20e-02,
718,-4.00e-03,
719,1.20e-02,
720,-4.00e-03,
721,1.20e-02,
722,-4.00e-03,
723,1.20e-02,
724,1.60e-02,
725,-2.40e-02,
726,-4.00e-03,
727,1.20e-02,
728,-4.00e-03,
729,1.20e-02,
730,1.20e-02,
731,-8.00e-03,
732,1.20e-02,
733,-8.00e-03,
734,-4.00e-03,
735,1.20e-02,
736,-4.00e-03,
737,1.20e-02,
738,1.20e-02,
739,-8.00e-03,
740,-4.00e-03,
741,1.60e-02,
742,-4.00e-03,
743,1.20e-02,
744,1.20e-02,
745,-8.00e-03,
746,1.60e-02,
747,-8.00e-03,
748,1.20e-02,
749,-4.00e-03,
750,-4.00e-03,
751,1.20e-02,
752,-4.00e-03,
753,1.20e-02,
754,1.20e-02,
755,-8.00e-03,
756,-4.00e-03,
757,1.20e-02,
758,-4.00e-03,
759,1.20e-02,
760,-4.00e-03,
761,1.20e-02,
762,-4.00e-03,
763,1.20e-02,
764,-4.00e-03,
765,1.20e-02,
766,-4.00e-03,
767,1.20e-02,
768,1.20e-02,
769,-4.00e-03,
770,1.20e-02,
771,-8.00e-03,
772,-4.00e-03,
773,1.20e-02,
774,1.20e-02,
775,-4.00e-03,
776,-5.60e-02,
777,2.00e-02,
778,-4.00e-03,
779,1.20e-02,
780,-4.00e-03,
781,1.20e-02,
782,-4.00e-03,
783,1.20e-02,
784,1.20e-02,
785,-8.00e-03,
786,-4.00e-03,
787,1.20e-02,
788,-4.00e-03,
789,1.20e-02,
790,-4.00e-03,
791,1.20e-02,
792,-8.00e-03,
793,1.20e-02,
794,1.20e-02,
795,-4.00e-03,
796,1.20e-02,
797,-8.00e-03,
798,-4.00e-03,
799,1.20e-02,
800,-4.00e-03,
801,1.20e-02,
802,-4.00e-03,
803,1.20e-02,
804,-4.00e-03,
805,1.20e-02,
806,-4.00e-03,
807,1.20e-02,
808,-4.00e-03,
809,1.20e-02,
810,-4.00e-03,
811,1.20e-02,
812,1.20e-02,
813,-8.00e-03,
814,1.20e-02,
815,-8.00e-03,
816,-4.00e-03,
817,1.20e-02,
818,-4.00e-03,
819,1.20e-02,
820,-4.00e-03,
821,1.20e-02,
822,1.20e-02,
823,-8.00e-03,
824,-4.00e-03,
825,1.20e-02,
826,-4.00e-03,
827,1.20e-02,
828,-8.00e-03,
829,2.80e-02,
830,-4.00e-03,
831,1.60e-02,
832,-4.00e-03,
833,1.60e-02,
834,1.60e-02,
835,-8.00e-03,
836,1.20e-02,
837,-8.00e-03,
838,1.60e-02,
839,-4.00e-03,
840,-4.00e-03,
841,1.20e-02,
842,1.20e-02,
843,-4.00e-03,
844,-4.00e-03,
845,1.20e-02,
846,-4.00e-03,
847,1.20e-02,
848,-4.00e-03,
849,1.20e-02,
850,-4.00e-03,
851,1.20e-02,
852,-4.00e-03,
853,1.20e-02,
854,1.20e-02,
855,-8.00e-03,
856,-4.00e-03,
857,1.20e-02,
858,-4.00e-03,
859,1.20e-02,
860,-4.00e-03,
861,1.20e-02,
862,-4.00e-03,
863,1.20e-02,
864,-4.00e-03,
865,1.20e-02,
866,-4.00e-03,
867,1.20e-02,
868,1.20e-02,
869,-8.00e-03,
870,-4.00e-03,
871,1.20e-02,
872,1.20e-02,
873,-8.00e-03,
874,-4.00e-03,
875,1.60e-02,
876,1.20e-02,
877,-4.00e-03,
878,1.20e-02,
879,-8.00e-03,
880,1.04e-01,
881,-5.60e-02,
882,-4.00e-03,
883,2.40e-02,
884,1.20e-02,
885,-8.00e-03,
886,-4.00e-03,
887,1.20e-02,
888,-4.00e-03,
889,1.20e-02,
890,-4.00e-03,
891,1.20e-02,
892,-4.00e-03,
893,1.20e-02,
894,1.20e-02,
895,-4.00e-03,
896,-4.00e-03,
897,1.20e-02,
898,-4.00e-03,
899,1.20e-02,
900,1.20e-02,
901,-8.00e-03,
902,-4.00e-03,
903,1.20e-02,
904,-4.00e-03,
905,1.20e-02,
906,-4.00e-03,
907,1.20e-02,
908,-4.00e-03,
909,1.20e-02,
910,-4.00e-03,
911,1.20e-02,
912,-4.00e-03,
913,1.20e-02,
914,1.60e-02,
915,-8.00e-03,
916,-4.00e-03,
917,1.60e-02,
918,1.20e-02,
919,-8.00e-03,
920,1.20e-02,
921,-8.00e-03,
922,-4.00e-03,
923,1.20e-02,
924,-4.00e-03,
925,1.20e-02,
926,1.20e-02,
927,-4.00e-03,
928,-4.00e-03,
929,1.20e-02,
930,-4.00e-03,
931,1.20e-02,
932,-3.20e-02,
933,2.40e-02,
934,-4.00e-03,
935,1.20e-02,
936,-4.00e-03,
937,1.20e-02,
938,-4.00e-03,
939,1.20e-02,
940,-4.00e-03,
941,1.20e-02,
942,-4.00e-03,
943,1.20e-02,
944,-4.00e-03,
945,1.20e-02,
946,-4.00e-03,
947,1.20e-02,
948,-4.00e-03,
949,1.20e-02,
950,-4.00e-03,
951,1.20e-02,
952,-4.00e-03,
953,1.20e-02,
954,1.20e-02,
955,-8.00e-03,
956,1.20e-02,
957,-8.00e-03,
958,-8.00e-03,
959,1.20e-02,
960,-4.00e-03,
961,1.20e-02,
962,1.20e-02,
963,-8.00e-03,
964,-8.00e-03,
965,1.20e-02,
966,-4.00e-03,
967,1.20e-02,
968,1.20e-02,
969,-4.00e-03,
970,-4.00e-03,
971,1.20e-02,
972,1.20e-02,
973,-4.00e-03,
974,-4.00e-03,
975,1.60e-02,
976,-4.00e-03,
977,1.20e-02,
978,1.20e-02,
979,-8.00e-03,
980,-4.00e-03,
981,1.20e-02,
982,-8.00e-03,
983,1.60e-02,
984,-4.00e-03,
985,1.20e-02,
986,-6.80e-02,
987,1.60e-02,
988,1.20e-02,
989,-4.00e-03,
990,-4.00e-03,
991,1.20e-02,
992,-4.00e-03,
993,1.20e-02,
994,-4.00e-03,
995,1.20e-02,
996,1.20e-02,
997,-8.00e-03,
998,1.20e-02,
999,-8.00e-03,
1000,1.60e-02,
1001,-8.00e-03,
1002,1.20e-02,
1003,-4.00e-03,
1004,-4.00e-03,
1005,1.20e-02,
1006,-4.00e-03,
1007,1.20e-02,
1008,-4.00e-03,
1009,1.20e-02,
1010,-4.00e-03,
1011,1.20e-02,
1012,-4.00e-03,
1013,1.20e-02,
1014,-4.00e-03,
1015,1.20e-02,
1016,-4.00e-03,
1017,1.20e-02,
1018,1.20e-02,
1019,-4.00e-03,
1020,1.20e-02,
1021,-4.00e-03,
1022,-4.00e-03,
1023,1.20e-02,
1024,-4.00e-03,
1025,1.20e-02,
1026,-4.00e-03,
1027,1.20e-02,
1028,-4.00e-03,
1029,1.20e-02,
1030,1.20e-02,
1031,-4.00e-03,
1032,1.20e-02,
1033,-4.00e-03,
1034,-4.00e-03,
1035,1.20e-02,
1036,1.20e-02,
1037,-4.00e-03,
1038,-4.00e-03,
1039,4.40e-02,
1040,1.60e-02,
1041,-8.00e-03,
1042,-8.00e-03,
1043,1.60e-02,
1044,-4.00e-03,
1045,1.20e-02,
1046,-8.00e-03,
1047,1.20e-02,
1048,-4.00e-03,
1049,1.20e-02,
1050,-4.00e-03,
1051,1.20e-02,
1052,-4.00e-03,
1053,1.20e-02,
1054,-4.00e-03,
1055,1.20e-02,
1056,-4.00e-03,
1057,1.20e-02,
1058,-4.00e-03,
1059,1.20e-02,
1060,1.20e-02,
1061,-4.00e-03,
1062,-4.00e-03,
1063,1.20e-02,
1064,1.20e-02,
1065,-4.00e-03,
1066,1.20e-02,
1067,-8.00e-03,
1068,1.20e-02,
1069,-8.00e-03,
1070,-4.00e-03,
1071,1.60e-02,
1072,-4.00e-03,
1073,1.20e-02,
1074,1.20e-02,
1075,-8.00e-03,
1076,1.20e-02,
1077,-4.00e-03,
1078,1.20e-02,
1079,-8.00e-03,
1080,1.20e-02,
1081,-8.00e-03,
1082,1.20e-02,
1083,-8.00e-03,
1084,-4.00e-03,
1085,1.60e-02,
1086,-4.00e-03,
1087,1.20e-02,
1088,1.20e-02,
1089,-8.00e-03,
1090,2.80e-02,
1091,-1.60e-02,
1092,-4.00e-03,
1093,1.20e-02,
1094,1.20e-02,
1095,-4.00e-03,
1096,1.20e-02,
1097,-4.00e-03,
1098,-4.00e-03,
1099,1.20e-02,
1100,-4.00e-03,
1101,1.20e-02,
1102,-4.00e-03,
1103,1.20e-02,
1104,-4.00e-03,
1105,1.20e-02,
1106,-4.00e-03,
1107,1.20e-02,
1108,-4.00e-03,
1109,1.20e-02,
1110,-4.00e-03,
1111,1.20e-02,
1112,-4.00e-03,
1113,1.20e-02,
1114,1.20e-02,
1115,-4.00e-03,
1116,-4.00e-03,
1117,1.20e-02,
1118,1.20e-02,
1119,-4.00e-03,
1120,-4.00e-03,
1121,1.20e-02,
1122,1.20e-02,
1123,-8.00e-03,
1124,-4.00e-03,
1125,1.20e-02,
1126,1.20e-02,
1127,-8.00e-03,
1128,1.20e-02,
1129,-8.00e-03,
1130,1.20e-02,
1131,-4.00e-03,
1132,1.20e-02,
1133,-8.00e-03,
1134,-4.00e-03,
1135,1.20e-02,
1136,-4.00e-03,
1137,1.20e-02,
1138,-4.00e-03,
1139,1.20e-02,
1140,-4.00e-03,
1141,1.20e-02,
1142,-1.12e-01,
1143,3.20e-02,
1144,1.20e-02,
1145,-4.00e-03,
1146,-4.00e-03,
1147,1.20e-02,
1148,-4.00e-03,
1149,1.20e-02,
1150,1.20e-02,
1151,-8.00e-03,
1152,1.20e-02,
1153,-8.00e-03,
1154,-8.00e-03,
1155,1.20e-02,
1156,-8.00e-03,
1157,1.20e-02,
1158,-4.00e-03,
1159,1.20e-02,
1160,-8.00e-03,
1161,1.20e-02,
1162,1.20e-02,
1163,-8.00e-03,
1164,1.20e-02,
1165,-8.00e-03,
1166,1.20e-02,
1167,-8.00e-03,
1168,1.20e-02,
1169,-8.00e-03,
1170,1.20e-02,
1171,-8.00e-03,
1172,-4.00e-03,
1173,1.20e-02,
1174,-4.00e-03,
1175,1.20e-02,
1176,-4.00e-03,
1177,1.20e-02,
1178,1.20e-02,
1179,-4.00e-03,
1180,-4.00e-03,
1181,1.20e-02,
1182,-4.00e-03,
1183,1.20e-02,
1184,-4.00e-03,
1185,1.20e-02,
1186,1.20e-02,
1187,-4.00e-03,
1188,1.20e-02,
1189,-4.00e-03,
1190,-4.00e-03,
1191,1.20e-02,
1192,-4.00e-03,
1193,1.20e-02,
1194,-4.00e-03,
1195,1.20e-02,
1196,-2.80e-02,
1197,3.60e-02,
1198,-4.00e-03,
1199,1.20e-02,
