Laptop_2/LAPTOP_CHRGR_2_OFF/time domain/NewFile6.csv

X,CH1,Start,Increment,
Sequence,Volt,-1.500000e-01,2.000000e-04
0,1.20e-02,
1,-8.00e-03,
2,1.20e-02,
3,-8.00e-03,
4,1.20e-02,
5,-8.00e-03,
6,1.20e-02,
7,-8.00e-03,
8,1.20e-02,
9,-8.00e-03,
10,-8.00e-03,
11,1.20e-02,
12,1.20e-02,
13,-8.00e-03,
14,1.20e-02,
15,-8.00e-03,
16,1.20e-02,
17,-8.00e-03,
18,-4.00e-03,
19,1.20e-02,
20,1.20e-02,
21,-4.00e-03,
22,1.20e-02,
23,-4.00e-03,
24,1.20e-02,
25,-8.00e-03,
26,1.20e-02,
27,-8.00e-03,
28,-4.00e-03,
29,6.80e-02,
30,-4.00e-03,
31,1.60e-02,
32,1.20e-02,
33,-8.00e-03,
34,1.20e-02,
35,-8.00e-03,
36,1.20e-02,
37,-8.00e-03,
38,-4.00e-03,
39,1.20e-02,
40,1.20e-02,
41,-8.00e-03,
42,1.20e-02,
43,-8.00e-03,
44,1.60e-02,
45,-8.00e-03,
46,1.20e-02,
47,-8.00e-03,
48,-4.00e-03,
49,1.20e-02,
50,1.20e-02,
51,-8.00e-03,
52,-8.00e-03,
53,1.60e-02,
54,1.20e-02,
55,-8.00e-03,
56,-4.00e-03,
57,1.60e-02,
58,1.20e-02,
59,-8.00e-03,
60,-8.00e-03,
61,1.60e-02,
62,1.20e-02,
63,-8.00e-03,
64,1.20e-02,
65,-8.00e-03,
66,-4.00e-03,
67,1.20e-02,
68,1.20e-02,
69,-8.00e-03,
70,1.20e-02,
71,-8.00e-03,
72,-4.00e-03,
73,1.20e-02,
74,1.20e-02,
75,-4.00e-03,
76,-4.00e-03,
77,1.20e-02,
78,1.20e-02,
79,-4.00e-03,
80,-4.00e-03,
81,1.60e-02,
82,-1.20e-02,
83,6.40e-02,
84,-4.00e-03,
85,1.20e-02,
86,-8.00e-03,
87,1.20e-02,
88,1.20e-02,
89,-8.00e-03,
90,1.20e-02,
91,-8.00e-03,
92,1.60e-02,
93,-8.00e-03,
94,1.20e-02,
95,-8.00e-03,
96,1.20e-02,
97,-8.00e-03,
98,1.20e-02,
99,-8.00e-03,
100,1.20e-02,
101,-1.20e-02,
102,-8.00e-03,
103,1.20e-02,
104,-8.00e-03,
105,1.20e-02,
106,-4.00e-03,
107,1.20e-02,
108,-8.00e-03,
109,1.60e-02,
110,-4.00e-03,
111,1.20e-02,
112,1.20e-02,
113,-8.00e-03,
114,-4.00e-03,
115,1.60e-02,
116,1.20e-02,
117,-8.00e-03,
118,1.20e-02,
119,-8.00e-03,
120,1.20e-02,
121,-8.00e-03,
122,1.20e-02,
123,-8.00e-03,
124,1.60e-02,
125,-8.00e-03,
126,1.20e-02,
127,-8.00e-03,
128,1.20e-02,
129,-8.00e-03,
130,1.20e-02,
131,-4.00e-03,
132,1.20e-02,
133,-8.00e-03,
134,1.48e-01,
135,-2.80e-02,
136,-4.00e-03,
137,1.20e-02,
138,-8.00e-03,
139,1.60e-02,
140,1.20e-02,
141,-8.00e-03,
142,1.20e-02,
143,-8.00e-03,
144,-8.00e-03,
145,1.20e-02,
146,-4.00e-03,
147,1.20e-02,
148,1.20e-02,
149,-8.00e-03,
150,-4.00e-03,
151,1.20e-02,
152,-4.00e-03,
153,1.20e-02,
154,-4.00e-03,
155,1.20e-02,
156,1.20e-02,
157,-4.00e-03,
158,1.20e-02,
159,-8.00e-03,
160,-4.00e-03,
161,1.20e-02,
162,1.20e-02,
163,-8.00e-03,
164,1.20e-02,
165,-8.00e-03,
166,1.60e-02,
167,-8.00e-03,
168,1.20e-02,
169,-4.00e-03,
170,-8.00e-03,
171,1.20e-02,
172,1.20e-02,
173,-8.00e-03,
174,-4.00e-03,
175,1.20e-02,
176,-4.00e-03,
177,1.20e-02,
178,-4.00e-03,
179,1.20e-02,
180,-8.00e-03,
181,1.60e-02,
182,1.20e-02,
183,-4.00e-03,
184,1.20e-02,
185,-4.00e-03,
186,-8.00e-03,
187,1.48e-01,
188,-6.80e-02,
189,1.60e-02,
190,1.20e-02,
191,-4.00e-03,
192,1.20e-02,
193,-8.00e-03,
194,-4.00e-03,
195,1.20e-02,
196,-4.00e-03,
197,1.20e-02,
198,-4.00e-03,
199,1.20e-02,
200,-4.00e-03,
201,1.20e-02,
202,1.20e-02,
203,-8.00e-03,
204,-8.00e-03,
205,1.20e-02,
206,1.20e-02,
207,-8.00e-03,
208,1.20e-02,
209,-8.00e-03,
210,-4.00e-03,
211,1.60e-02,
212,1.20e-02,
213,-8.00e-03,
214,1.20e-02,
215,-8.00e-03,
216,1.20e-02,
217,-4.00e-03,
218,1.20e-02,
219,-8.00e-03,
220,1.20e-02,
221,-1.20e-02,
222,-8.00e-03,
223,1.60e-02,
224,1.20e-02,
225,-8.00e-03,
226,1.20e-02,
227,-8.00e-03,
228,1.20e-02,
229,-8.00e-03,
230,1.20e-02,
231,-8.00e-03,
232,-8.00e-03,
233,1.20e-02,
234,1.20e-02,
235,-4.00e-03,
236,1.20e-02,
237,-4.00e-03,
238,-4.00e-03,
239,1.20e-02,
240,-6.80e-02,
241,5.20e-02,
242,1.20e-02,
243,-8.00e-03,
244,1.20e-02,
245,-4.00e-03,
246,-4.00e-03,
247,1.20e-02,
248,1.20e-02,
249,-8.00e-03,
250,1.60e-02,
251,-8.00e-03,
252,1.20e-02,
253,-8.00e-03,
254,1.20e-02,
255,-8.00e-03,
256,1.20e-02,
257,-8.00e-03,
258,-8.00e-03,
259,1.60e-02,
260,1.20e-02,
261,-8.00e-03,
262,-4.00e-03,
263,1.20e-02,
264,1.60e-02,
265,-8.00e-03,
266,1.20e-02,
267,-8.00e-03,
268,-8.00e-03,
269,1.20e-02,
270,1.20e-02,
271,-8.00e-03,
272,1.20e-02,
273,-8.00e-03,
274,1.20e-02,
275,-8.00e-03,
276,-4.00e-03,
277,1.20e-02,
278,-4.00e-03,
279,1.20e-02,
280,-4.00e-03,
281,1.20e-02,
282,1.20e-02,
283,-8.00e-03,
284,1.20e-02,
285,-8.00e-03,
286,1.20e-02,
287,-8.00e-03,
288,-8.00e-03,
289,1.60e-02,
290,1.20e-02,
291,-8.00e-03,
292,1.48e-01,
293,-1.20e-02,
294,-1.00e-01,
295,3.20e-02,
296,1.20e-02,
297,-8.00e-03,
298,-4.00e-03,
299,1.20e-02,
300,1.60e-02,
301,-8.00e-03,
302,-8.00e-03,
303,1.60e-02,
304,1.20e-02,
305,-8.00e-03,
306,1.60e-02,
307,-8.00e-03,
308,1.20e-02,
309,-8.00e-03,
310,-4.00e-03,
311,1.60e-02,
312,1.20e-02,
313,-8.00e-03,
314,1.20e-02,
315,-8.00e-03,
316,-4.00e-03,
317,1.20e-02,
318,1.20e-02,
319,-8.00e-03,
320,-4.00e-03,
321,1.20e-02,
322,-4.00e-03,
323,1.20e-02,
324,-4.00e-03,
325,1.20e-02,
326,-4.00e-03,
327,1.20e-02,
328,1.20e-02,
329,-8.00e-03,
330,-4.00e-03,
331,1.20e-02,
332,-4.00e-03,
333,1.20e-02,
334,1.20e-02,
335,-8.00e-03,
336,1.20e-02,
337,-8.00e-03,
338,1.20e-02,
339,-8.00e-03,
340,-4.00e-03,
341,1.20e-02,
342,1.20e-02,
343,-4.00e-03,
344,1.60e-02,
345,-8.00e-03,
346,-2.00e-02,
347,2.00e-02,
348,1.20e-02,
349,-8.00e-03,
350,1.20e-02,
351,-8.00e-03,
352,1.20e-02,
353,-8.00e-03,
354,1.20e-02,
355,-4.00e-03,
356,1.20e-02,
357,-8.00e-03,
358,1.20e-02,
359,-4.00e-03,
360,1.20e-02,
361,-8.00e-03,
362,-4.00e-03,
363,1.20e-02,
364,-4.00e-03,
365,1.20e-02,
366,-4.00e-03,
367,1.20e-02,
368,1.20e-02,
369,-8.00e-03,
370,-4.00e-03,
371,1.20e-02,
372,-4.00e-03,
373,1.20e-02,
374,1.20e-02,
375,-8.00e-03,
376,-4.00e-03,
377,1.20e-02,
378,1.20e-02,
379,-8.00e-03,
380,1.20e-02,
381,-8.00e-03,
382,-4.00e-03,
383,1.20e-02,
384,1.20e-02,
385,-8.00e-03,
386,1.20e-02,
387,-8.00e-03,
388,1.20e-02,
389,-8.00e-03,
390,1.20e-02,
391,-8.00e-03,
392,-8.00e-03,
393,1.60e-02,
394,1.20e-02,
395,-8.00e-03,
396,1.20e-02,
397,-8.00e-03,
398,1.20e-01,
399,-1.20e-02,
400,1.20e-02,
401,-8.00e-03,
402,1.20e-02,
403,-8.00e-03,
404,-8.00e-03,
405,1.20e-02,
406,-4.00e-03,
407,1.20e-02,
408,1.20e-02,
409,-4.00e-03,
410,-8.00e-03,
411,1.20e-02,
412,-8.00e-03,
413,1.20e-02,
414,1.20e-02,
415,-8.00e-03,
416,1.60e-02,
417,-8.00e-03,
418,1.20e-02,
419,-4.00e-03,
420,-4.00e-03,
421,1.20e-02,
422,1.20e-02,
423,-8.00e-03,
424,-4.00e-03,
425,1.60e-02,
426,1.60e-02,
427,-8.00e-03,
428,-8.00e-03,
429,1.60e-02,
430,1.20e-02,
431,-4.00e-03,
432,-4.00e-03,
433,1.60e-02,
434,1.20e-02,
435,-8.00e-03,
436,-4.00e-03,
437,1.20e-02,
438,1.20e-02,
439,-4.00e-03,
440,-4.00e-03,
441,1.20e-02,
442,1.20e-02,
443,-4.00e-03,
444,-4.00e-03,
445,1.20e-02,
446,-8.00e-03,
447,1.20e-02,
448,1.20e-02,
449,-8.00e-03,
450,1.20e-02,
451,-8.00e-03,
452,6.00e-02,
453,-2.80e-02,
454,1.20e-02,
455,-8.00e-03,
456,1.20e-02,
457,-8.00e-03,
458,-4.00e-03,
459,1.20e-02,
460,1.20e-02,
461,-8.00e-03,
462,1.20e-02,
463,-8.00e-03,
464,-4.00e-03,
465,1.60e-02,
466,-4.00e-03,
467,1.20e-02,
468,1.20e-02,
469,-8.00e-03,
470,1.20e-02,
471,-4.00e-03,
472,1.20e-02,
473,-8.00e-03,
474,1.20e-02,
475,-8.00e-03,
476,-4.00e-03,
477,1.20e-02,
478,1.20e-02,
479,-8.00e-03,
480,1.20e-02,
481,-8.00e-03,
482,-4.00e-03,
483,1.20e-02,
484,-4.00e-03,
485,1.20e-02,
486,1.20e-02,
487,-8.00e-03,
488,-4.00e-03,
489,1.20e-02,
490,-8.00e-03,
491,1.20e-02,
492,1.20e-02,
493,-8.00e-03,
494,1.20e-02,
495,-8.00e-03,
496,-4.00e-03,
497,1.20e-02,
498,-4.00e-03,
499,1.20e-02,
500,1.20e-02,
501,-8.00e-03,
502,-8.00e-03,
503,1.20e-02,
504,1.20e-02,
505,-2.40e-02,
506,-8.00e-03,
507,3.60e-02,
508,1.20e-02,
509,-8.00e-03,
510,1.20e-02,
511,-8.00e-03,
512,-8.00e-03,
513,1.20e-02,
514,1.20e-02,
515,-8.00e-03,
516,1.60e-02,
517,-8.00e-03,
518,-8.00e-03,
519,1.60e-02,
520,1.20e-02,
521,-8.00e-03,
522,-4.00e-03,
523,1.20e-02,
524,1.20e-02,
525,-8.00e-03,
526,1.20e-02,
527,-8.00e-03,
528,-4.00e-03,
529,1.20e-02,
530,-4.00e-03,
531,1.20e-02,
532,-4.00e-03,
533,1.20e-02,
534,-4.00e-03,
535,1.20e-02,
536,-4.00e-03,
537,1.20e-02,
538,-4.00e-03,
539,1.20e-02,
540,-8.00e-03,
541,1.60e-02,
542,1.20e-02,
543,-8.00e-03,
544,1.20e-02,
545,-8.00e-03,
546,1.20e-02,
547,-4.00e-03,
548,-4.00e-03,
549,1.20e-02,
550,-8.00e-03,
551,1.20e-02,
552,1.20e-02,
553,-8.00e-03,
554,1.60e-02,
555,-8.00e-03,
556,-8.00e-03,
557,1.60e-02,
558,-8.80e-02,
559,2.40e-02,
560,1.20e-02,
561,-4.00e-03,
562,-4.00e-03,
563,1.20e-02,
564,1.20e-02,
565,-4.00e-03,
566,1.20e-02,
567,-8.00e-03,
568,-4.00e-03,
569,1.20e-02,
570,-4.00e-03,
571,1.20e-02,
572,1.20e-02,
573,-8.00e-03,
574,1.20e-02,
575,-8.00e-03,
576,1.20e-02,
577,-8.00e-03,
578,1.20e-02,
579,-8.00e-03,
580,-4.00e-03,
581,1.20e-02,
582,-8.00e-03,
583,1.20e-02,
584,1.20e-02,
585,-8.00e-03,
586,1.20e-02,
587,-8.00e-03,
588,1.20e-02,
589,-8.00e-03,
590,1.20e-02,
591,-8.00e-03,
592,1.60e-02,
593,-8.00e-03,
594,1.20e-02,
595,-8.00e-03,
596,1.60e-02,
597,-8.00e-03,
598,1.20e-02,
599,-8.00e-03,
600,1.20e-02,
601,-8.00e-03,
602,-4.00e-03,
603,1.20e-02,
604,1.20e-02,
605,-8.00e-03,
606,-4.00e-03,
607,1.20e-02,
608,-4.00e-03,
609,1.20e-02,
610,-1.24e-01,
611,3.60e-02,
612,1.20e-02,
613,-8.00e-03,
614,1.20e-02,
615,-4.00e-03,
616,-4.00e-03,
617,1.20e-02,
618,-4.00e-03,
619,1.20e-02,
620,1.20e-02,
621,-8.00e-03,
622,-4.00e-03,
623,1.20e-02,
624,1.20e-02,
625,-4.00e-03,
626,1.20e-02,
627,-8.00e-03,
628,1.20e-02,
629,-8.00e-03,
630,-4.00e-03,
631,1.20e-02,
632,1.20e-02,
633,-4.00e-03,
634,-4.00e-03,
635,1.20e-02,
636,1.20e-02,
637,-8.00e-03,
638,-4.00e-03,
639,1.20e-02,
640,1.20e-02,
641,-8.00e-03,
642,1.20e-02,
643,-8.00e-03,
644,1.20e-02,
645,-8.00e-03,
646,-4.00e-03,
647,1.20e-02,
648,-4.00e-03,
649,1.20e-02,
650,-4.00e-03,
651,1.20e-02,
652,-4.00e-03,
653,1.20e-02,
654,1.20e-02,
655,-8.00e-03,
656,1.20e-02,
657,-8.00e-03,
658,-4.00e-03,
659,1.20e-02,
660,1.20e-02,
661,-8.00e-03,
662,1.20e-02,
663,-4.00e-03,
664,-1.68e-01,
665,1.16e-01,
666,1.20e-02,
667,-8.00e-03,
668,-4.00e-03,
669,1.20e-02,
670,1.20e-02,
671,-8.00e-03,
672,1.20e-02,
673,-4.00e-03,
674,1.20e-02,
675,-8.00e-03,
676,1.20e-02,
677,-8.00e-03,
678,1.20e-02,
679,-8.00e-03,
680,1.20e-02,
681,-8.00e-03,
682,-8.00e-03,
683,1.60e-02,
684,-8.00e-03,
685,1.60e-02,
686,-4.00e-03,
687,1.60e-02,
688,1.20e-02,
689,-4.00e-03,
690,1.20e-02,
691,-8.00e-03,
692,1.20e-02,
693,-8.00e-03,
694,-4.00e-03,
695,1.20e-02,
696,-4.00e-03,
697,1.20e-02,
698,-4.00e-03,
699,1.20e-02,
700,-4.00e-03,
701,1.20e-02,
702,1.20e-02,
703,-4.00e-03,
704,1.20e-02,
705,-8.00e-03,
706,1.20e-02,
707,-8.00e-03,
708,-4.00e-03,
709,1.60e-02,
710,-4.00e-03,
711,1.20e-02,
712,1.20e-02,
713,-4.00e-03,
714,-4.00e-03,
715,1.20e-02,
716,-1.16e-01,
717,4.40e-02,
718,1.20e-02,
719,-8.00e-03,
720,-4.00e-03,
721,1.20e-02,
722,1.20e-02,
723,-8.00e-03,
724,1.20e-02,
725,-8.00e-03,
726,-8.00e-03,
727,1.60e-02,
728,-8.00e-03,
729,1.20e-02,
730,-4.00e-03,
731,1.60e-02,
732,-4.00e-03,
733,1.20e-02,
734,-4.00e-03,
735,1.20e-02,
736,-4.00e-03,
737,1.20e-02,
738,-4.00e-03,
739,1.20e-02,
740,1.20e-02,
741,-8.00e-03,
742,-4.00e-03,
743,1.20e-02,
744,-8.00e-03,
745,1.20e-02,
746,-4.00e-03,
747,1.20e-02,
748,1.20e-02,
749,-4.00e-03,
750,1.60e-02,
751,-8.00e-03,
752,-4.00e-03,
753,1.20e-02,
754,1.20e-02,
755,-4.00e-03,
756,1.20e-02,
757,-4.00e-03,
758,1.20e-02,
759,-4.00e-03,
760,1.20e-02,
761,-8.00e-03,
762,-8.00e-03,
763,1.60e-02,
764,1.20e-02,
765,-8.00e-03,
766,1.20e-02,
767,-8.00e-03,
768,1.20e-02,
769,-8.00e-03,
770,6.00e-02,
771,-2.80e-02,
772,1.20e-02,
773,-8.00e-03,
774,1.20e-02,
775,-4.00e-03,
776,-4.00e-03,
777,1.20e-02,
778,-4.00e-03,
779,1.20e-02,
780,-8.00e-03,
781,1.20e-02,
782,1.20e-02,
783,-8.00e-03,
784,-4.00e-03,
785,1.20e-02,
786,1.20e-02,
787,-8.00e-03,
788,-8.00e-03,
789,1.60e-02,
790,1.20e-02,
791,-4.00e-03,
792,-4.00e-03,
793,1.20e-02,
794,1.20e-02,
795,-8.00e-03,
796,1.20e-02,
797,-8.00e-03,
798,-4.00e-03,
799,1.20e-02,
800,-4.00e-03,
801,1.20e-02,
802,1.20e-02,
803,-8.00e-03,
804,-4.00e-03,
805,1.20e-02,
806,1.20e-02,
807,-8.00e-03,
808,1.20e-02,
809,-8.00e-03,
810,-8.00e-03,
811,1.20e-02,
812,-4.00e-03,
813,1.20e-02,
814,1.20e-02,
815,-8.00e-03,
816,-4.00e-03,
817,1.20e-02,
818,-8.00e-03,
819,1.20e-02,
820,-4.00e-03,
821,1.20e-02,
822,-4.00e-03,
823,1.20e-02,
824,1.32e-01,
825,-1.20e-02,
826,1.20e-02,
827,-8.00e-03,
828,-4.00e-03,
829,1.20e-02,
830,1.60e-02,
831,-8.00e-03,
832,1.20e-02,
833,-8.00e-03,
834,1.20e-02,
835,-8.00e-03,
836,1.20e-02,
837,-4.00e-03,
838,1.20e-02,
839,-8.00e-03,
840,-4.00e-03,
841,1.20e-02,
842,-4.00e-03,
843,1.60e-02,
844,-4.00e-03,
845,1.20e-02,
846,1.20e-02,
847,-8.00e-03,
848,1.60e-02,
849,-8.00e-03,
850,1.60e-02,
851,-8.00e-03,
852,1.20e-02,
853,-8.00e-03,
854,-4.00e-03,
855,1.20e-02,
856,1.20e-02,
857,-8.00e-03,
858,1.20e-02,
859,-8.00e-03,
860,-4.00e-03,
861,1.20e-02,
862,1.20e-02,
863,-4.00e-03,
864,1.20e-02,
865,-8.00e-03,
866,1.20e-02,
867,-8.00e-03,
868,-4.00e-03,
869,1.20e-02,
870,1.20e-02,
871,-8.00e-03,
872,1.20e-02,
873,-8.00e-03,
874,1.20e-02,
875,-8.00e-03,
876,5.20e-02,
877,-4.00e-02,
878,-4.00e-03,
879,1.20e-02,
880,-4.00e-03,
881,1.20e-02,
882,-4.00e-03,
883,1.20e-02,
884,1.20e-02,
885,-8.00e-03,
886,1.20e-02,
887,-8.00e-03,
888,1.20e-02,
889,-8.00e-03,
890,1.20e-02,
891,-8.00e-03,
892,1.20e-02,
893,-8.00e-03,
894,1.20e-02,
895,-8.00e-03,
896,-4.00e-03,
897,1.20e-02,
898,-4.00e-03,
899,1.20e-02,
900,1.20e-02,
901,-8.00e-03,
902,-4.00e-03,
903,1.20e-02,
904,-4.00e-03,
905,1.20e-02,
906,-4.00e-03,
907,1.20e-02,
908,-4.00e-03,
909,1.20e-02,
910,-4.00e-03,
911,1.20e-02,
912,-8.00e-03,
913,1.60e-02,
914,1.20e-02,
915,-8.00e-03,
916,1.20e-02,
917,-8.00e-03,
918,-8.00e-03,
919,1.60e-02,
920,1.20e-02,
921,-8.00e-03,
922,1.20e-02,
923,-4.00e-03,
924,1.20e-02,
925,-8.00e-03,
926,-4.00e-03,
927,1.60e-02,
928,-8.00e-03,
929,1.60e-02,
930,-1.64e-01,
931,1.20e-01,
932,-8.00e-03,
933,1.20e-02,
934,1.60e-02,
935,-8.00e-03,
936,-4.00e-03,
937,1.20e-02,
938,1.20e-02,
939,-8.00e-03,
940,-4.00e-03,
941,1.20e-02,
942,1.20e-02,
943,-4.00e-03,
944,1.20e-02,
945,-8.00e-03,
946,-4.00e-03,
947,1.20e-02,
948,-4.00e-03,
949,1.20e-02,
950,-4.00e-03,
951,1.20e-02,
952,1.20e-02,
953,-8.00e-03,
954,1.20e-02,
955,-8.00e-03,
956,-8.00e-03,
957,1.60e-02,
958,1.20e-02,
959,-8.00e-03,
960,1.20e-02,
961,-8.00e-03,
962,-4.00e-03,
963,1.20e-02,
964,1.20e-02,
965,-8.00e-03,
966,-4.00e-03,
967,1.20e-02,
968,-8.00e-03,
969,1.60e-02,
970,-4.00e-03,
971,1.20e-02,
972,-4.00e-03,
973,1.60e-02,
974,-8.00e-03,
975,1.60e-02,
976,1.20e-02,
977,-8.00e-03,
978,1.20e-02,
979,-8.00e-03,
980,-4.00e-03,
981,1.20e-02,
982,1.16e-01,
983,-2.40e-02,
984,4.00e-02,
985,-8.00e-03,
986,-4.00e-03,
987,1.20e-02,
988,1.20e-02,
989,-8.00e-03,
990,1.20e-02,
991,-8.00e-03,
992,-8.00e-03,
993,1.20e-02,
994,1.20e-02,
995,-8.00e-03,
996,1.20e-02,
997,-8.00e-03,
998,1.20e-02,
999,-8.00e-03,
1000,1.60e-02,
1001,-8.00e-03,
1002,1.20e-02,
1003,-8.00e-03,
1004,-4.00e-03,
1005,1.20e-02,
1006,1.20e-02,
1007,-8.00e-03,
1008,-4.00e-03,
1009,1.20e-02,
1010,1.20e-02,
1011,-8.00e-03,
1012,-4.00e-03,
1013,1.60e-02,
1014,-8.00e-03,
1015,1.60e-02,
1016,1.20e-02,
1017,-8.00e-03,
1018,1.20e-02,
1019,-8.00e-03,
1020,-4.00e-03,
1021,1.20e-02,
1022,-4.00e-03,
1023,1.20e-02,
1024,-4.00e-03,
1025,1.20e-02,
1026,1.20e-02,
1027,-8.00e-03,
1028,-4.00e-03,
1029,1.20e-02,
1030,1.20e-02,
1031,-4.00e-03,
1032,1.20e-02,
1033,-8.00e-03,
1034,1.20e-02,
1035,-8.00e-03,
1036,-3.60e-02,
1037,2.40e-02,
1038,-4.00e-03,
1039,1.20e-02,
1040,-8.00e-03,
1041,1.20e-02,
1042,1.20e-02,
1043,-8.00e-03,
1044,1.20e-02,
1045,-8.00e-03,
1046,1.20e-02,
1047,-8.00e-03,
1048,1.20e-02,
1049,-8.00e-03,
1050,1.20e-02,
1051,-8.00e-03,
1052,1.20e-02,
1053,-8.00e-03,
1054,-8.00e-03,
1055,1.20e-02,
1056,1.20e-02,
1057,-8.00e-03,
1058,-8.00e-03,
1059,1.60e-02,
1060,1.20e-02,
1061,-8.00e-03,
1062,1.20e-02,
1063,-4.00e-03,
1064,-4.00e-03,
1065,1.20e-02,
1066,1.20e-02,
1067,-4.00e-03,
1068,-4.00e-03,
1069,1.20e-02,
1070,1.20e-02,
1071,-4.00e-03,
1072,1.20e-02,
1073,-8.00e-03,
1074,-4.00e-03,
1075,1.20e-02,
1076,1.20e-02,
1077,-4.00e-03,
1078,1.20e-02,
1079,-8.00e-03,
1080,-4.00e-03,
1081,1.20e-02,
1082,-4.00e-03,
1083,1.20e-02,
1084,1.20e-02,
1085,-8.00e-03,
1086,-4.00e-03,
1087,1.20e-02,
1088,-4.40e-02,
1089,3.20e-02,
1090,1.20e-02,
1091,-8.00e-03,
1092,1.20e-02,
1093,-8.00e-03,
1094,-8.00e-03,
1095,1.60e-02,
1096,1.20e-02,
1097,-8.00e-03,
1098,-8.00e-03,
1099,1.20e-02,
1100,1.20e-02,
1101,-8.00e-03,
1102,1.20e-02,
1103,-8.00e-03,
1104,1.20e-02,
1105,-8.00e-03,
1106,1.20e-02,
1107,-8.00e-03,
1108,1.20e-02,
1109,-8.00e-03,
1110,1.20e-02,
1111,-8.00e-03,
1112,-4.00e-03,
1113,1.20e-02,
1114,1.20e-02,
1115,-8.00e-03,
1116,1.20e-02,
1117,-8.00e-03,
1118,-4.00e-03,
1119,1.20e-02,
1120,1.20e-02,
1121,-8.00e-03,
1122,1.20e-02,
1123,-8.00e-03,
1124,1.20e-02,
1125,-4.00e-03,
1126,1.20e-02,
1127,-8.00e-03,
1128,-8.00e-03,
1129,1.20e-02,
1130,1.20e-02,
1131,-8.00e-03,
1132,-8.00e-03,
1133,1.60e-02,
1134,1.20e-02,
1135,-8.00e-03,
1136,1.20e-02,
1137,-8.00e-03,
1138,-8.00e-03,
1139,1.60e-02,
1140,-4.00e-03,
1141,1.20e-02,
1142,-7.60e-02,
1143,2.80e-02,
1144,-4.00e-03,
1145,1.20e-02,
1146,-4.00e-03,
1147,1.20e-02,
1148,-4.00e-03,
1149,1.20e-02,
1150,-4.00e-03,
1151,1.20e-02,
1152,-4.00e-03,
1153,1.20e-02,
1154,1.20e-02,
1155,-4.00e-03,
1156,-4.00e-03,
1157,1.20e-02,
1158,1.20e-02,
1159,-4.00e-03,
1160,1.20e-02,
1161,-8.00e-03,
1162,1.20e-02,
1163,-8.00e-03,
1164,-4.00e-03,
1165,1.20e-02,
1166,1.20e-02,
1167,-8.00e-03,
1168,1.20e-02,
1169,-8.00e-03,
1170,1.20e-02,
1171,-8.00e-03,
1172,-8.00e-03,
1173,1.60e-02,
1174,-8.00e-03,
1175,1.20e-02,
1176,1.20e-02,
1177,-8.00e-03,
1178,1.20e-02,
1179,-8.00e-03,
1180,1.20e-02,
1181,-8.00e-03,
1182,1.20e-02,
1183,-8.00e-03,
1184,-8.00e-03,
1185,1.60e-02,
1186,1.20e-02,
1187,-8.00e-03,
1188,1.20e-02,
1189,-8.00e-03,
1190,1.20e-02,
1191,-8.00e-03,
1192,-4.00e-03,
1193,1.20e-02,
1194,-1.72e-01,
1195,1.60e-02,
1196,-4.00e-03,
1197,3.20e-02,
1198,1.20e-02,
1199,-8.00e-03,
