Laptop_2/LAPTOP_CHRGR_2_OFF/time domain/NewFile28.csv

X,CH1,Start,Increment,
Sequence,Volt,-1.500000e-01,2.000000e-04
0,-8.00e-03,
1,1.60e-02,
2,-8.00e-03,
3,1.60e-02,
4,-8.00e-03,
5,1.60e-02,
6,1.60e-02,
7,-8.00e-03,
8,-8.00e-03,
9,1.60e-02,
10,-8.00e-03,
11,1.60e-02,
12,1.20e-02,
13,-8.00e-03,
14,-8.00e-03,
15,1.60e-02,
16,1.60e-02,
17,-8.00e-03,
18,-8.00e-03,
19,1.60e-02,
20,1.20e-02,
21,-1.20e-02,
22,-8.00e-03,
23,2.00e-02,
24,-8.00e-03,
25,1.60e-02,
26,-8.00e-03,
27,1.20e-02,
28,-8.00e-03,
29,1.60e-02,
30,-6.40e-02,
31,2.80e-02,
32,-8.00e-03,
33,1.20e-02,
34,1.60e-02,
35,-8.00e-03,
36,-8.00e-03,
37,1.60e-02,
38,1.60e-02,
39,-8.00e-03,
40,1.20e-02,
41,-1.20e-02,
42,1.20e-02,
43,-8.00e-03,
44,-8.00e-03,
45,1.60e-02,
46,1.60e-02,
47,-8.00e-03,
48,-8.00e-03,
49,1.60e-02,
50,1.20e-02,
51,-1.20e-02,
52,-8.00e-03,
53,1.60e-02,
54,-8.00e-03,
55,1.60e-02,
56,-8.00e-03,
57,1.60e-02,
58,-8.00e-03,
59,1.60e-02,
60,-8.00e-03,
61,1.60e-02,
62,1.60e-02,
63,-1.20e-02,
64,-8.00e-03,
65,1.60e-02,
66,-8.00e-03,
67,1.60e-02,
68,-8.00e-03,
69,1.60e-02,
70,-8.00e-03,
71,1.60e-02,
72,-8.00e-03,
73,1.60e-02,
74,-8.00e-03,
75,1.60e-02,
76,1.60e-02,
77,-8.00e-03,
78,-8.00e-03,
79,1.60e-02,
80,1.60e-02,
81,-8.00e-03,
82,1.60e-02,
83,-1.40e-01,
84,-8.00e-03,
85,3.20e-02,
86,-8.00e-03,
87,1.20e-02,
88,-8.00e-03,
89,1.60e-02,
90,-8.00e-03,
91,1.60e-02,
92,-8.00e-03,
93,1.60e-02,
94,-8.00e-03,
95,1.60e-02,
96,1.20e-02,
97,-8.00e-03,
98,-8.00e-03,
99,1.60e-02,
100,-8.00e-03,
101,1.60e-02,
102,-8.00e-03,
103,1.60e-02,
104,1.60e-02,
105,-8.00e-03,
106,-8.00e-03,
107,2.00e-02,
108,-8.00e-03,
109,1.60e-02,
110,-8.00e-03,
111,1.60e-02,
112,1.20e-02,
113,-8.00e-03,
114,1.60e-02,
115,-1.20e-02,
116,1.20e-02,
117,-8.00e-03,
118,-8.00e-03,
119,1.60e-02,
120,-8.00e-03,
121,1.60e-02,
122,-8.00e-03,
123,1.60e-02,
124,-8.00e-03,
125,1.60e-02,
126,1.60e-02,
127,-8.00e-03,
128,-8.00e-03,
129,1.60e-02,
130,-8.00e-03,
131,1.60e-02,
132,-8.00e-03,
133,1.60e-02,
134,1.20e-02,
135,-1.20e-02,
136,-6.80e-02,
137,6.00e-02,
138,-8.00e-03,
139,1.60e-02,
140,1.60e-02,
141,-8.00e-03,
142,-8.00e-03,
143,1.60e-02,
144,1.60e-02,
145,-8.00e-03,
146,1.60e-02,
147,-8.00e-03,
148,-8.00e-03,
149,1.60e-02,
150,-8.00e-03,
151,2.00e-02,
152,-8.00e-03,
153,1.60e-02,
154,-8.00e-03,
155,1.60e-02,
156,-8.00e-03,
157,1.60e-02,
158,-8.00e-03,
159,1.60e-02,
160,-8.00e-03,
161,1.60e-02,
162,1.20e-02,
163,-8.00e-03,
164,-8.00e-03,
165,1.20e-02,
166,-8.00e-03,
167,1.60e-02,
168,-8.00e-03,
169,1.60e-02,
170,-8.00e-03,
171,1.60e-02,
172,-8.00e-03,
173,1.20e-02,
174,1.60e-02,
175,-8.00e-03,
176,-8.00e-03,
177,1.60e-02,
178,-8.00e-03,
179,1.60e-02,
180,-8.00e-03,
181,1.60e-02,
182,-8.00e-03,
183,1.60e-02,
184,-8.00e-03,
185,1.20e-02,
186,-8.00e-03,
187,1.20e-02,
188,-8.00e-03,
189,1.60e-02,
190,-8.00e-03,
191,1.36e-01,
192,-8.00e-03,
193,1.60e-02,
194,-8.00e-03,
195,1.60e-02,
196,-8.00e-03,
197,1.60e-02,
198,1.20e-02,
199,-8.00e-03,
200,-8.00e-03,
201,1.20e-02,
202,-8.00e-03,
203,1.60e-02,
204,1.20e-02,
205,-8.00e-03,
206,-8.00e-03,
207,1.60e-02,
208,1.20e-02,
209,-8.00e-03,
210,1.20e-02,
211,-1.20e-02,
212,1.20e-02,
213,-8.00e-03,
214,1.20e-02,
215,-1.20e-02,
216,-8.00e-03,
217,1.60e-02,
218,-8.00e-03,
219,1.60e-02,
220,-8.00e-03,
221,1.60e-02,
222,-8.00e-03,
223,1.20e-02,
224,-8.00e-03,
225,1.60e-02,
226,1.20e-02,
227,-1.20e-02,
228,-8.00e-03,
229,1.60e-02,
230,-8.00e-03,
231,1.60e-02,
232,1.20e-02,
233,-8.00e-03,
234,-8.00e-03,
235,1.60e-02,
236,-8.00e-03,
237,1.60e-02,
238,-8.00e-03,
239,1.60e-02,
240,-8.00e-03,
241,1.20e-02,
242,1.20e-02,
243,-8.00e-03,
244,1.32e-01,
245,-4.00e-02,
246,-8.00e-03,
247,1.60e-02,
248,-8.00e-03,
249,1.60e-02,
250,-8.00e-03,
251,1.60e-02,
252,-8.00e-03,
253,1.60e-02,
254,-8.00e-03,
255,1.60e-02,
256,-8.00e-03,
257,1.60e-02,
258,1.20e-02,
259,-8.00e-03,
260,-8.00e-03,
261,1.60e-02,
262,-8.00e-03,
263,1.60e-02,
264,-8.00e-03,
265,1.20e-02,
266,-8.00e-03,
267,1.20e-02,
268,-8.00e-03,
269,1.60e-02,
270,-8.00e-03,
271,1.60e-02,
272,1.20e-02,
273,-8.00e-03,
274,-8.00e-03,
275,1.60e-02,
276,-8.00e-03,
277,1.60e-02,
278,-8.00e-03,
279,1.60e-02,
280,-8.00e-03,
281,1.60e-02,
282,-8.00e-03,
283,1.60e-02,
284,-8.00e-03,
285,1.20e-02,
286,-8.00e-03,
287,1.60e-02,
288,-8.00e-03,
289,1.20e-02,
290,-8.00e-03,
291,1.60e-02,
292,-8.00e-03,
293,1.60e-02,
294,-8.00e-03,
295,1.20e-02,
296,8.40e-02,
297,-7.60e-02,
298,-1.20e-02,
299,1.60e-02,
300,-8.00e-03,
301,1.60e-02,
302,-8.00e-03,
303,1.60e-02,
304,1.60e-02,
305,-8.00e-03,
306,-8.00e-03,
307,1.60e-02,
308,-8.00e-03,
309,1.60e-02,
310,1.60e-02,
311,-8.00e-03,
312,-8.00e-03,
313,1.60e-02,
314,-8.00e-03,
315,1.60e-02,
316,-8.00e-03,
317,1.60e-02,
318,-8.00e-03,
319,1.20e-02,
320,1.20e-02,
321,-8.00e-03,
322,1.60e-02,
323,-8.00e-03,
324,1.20e-02,
325,-8.00e-03,
326,-8.00e-03,
327,1.20e-02,
328,-8.00e-03,
329,1.20e-02,
330,-8.00e-03,
331,1.60e-02,
332,-8.00e-03,
333,1.60e-02,
334,1.60e-02,
335,-8.00e-03,
336,1.20e-02,
337,-8.00e-03,
338,-8.00e-03,
339,1.60e-02,
340,-8.00e-03,
341,1.20e-02,
342,-8.00e-03,
343,1.60e-02,
344,-8.00e-03,
345,1.60e-02,
346,-8.00e-03,
347,1.20e-02,
348,-8.00e-03,
349,1.60e-02,
350,1.04e-01,
351,-4.80e-02,
352,-8.00e-03,
353,1.60e-02,
354,-8.00e-03,
355,1.60e-02,
356,-8.00e-03,
357,1.60e-02,
358,-8.00e-03,
359,1.60e-02,
360,-8.00e-03,
361,1.60e-02,
362,-8.00e-03,
363,1.60e-02,
364,-8.00e-03,
365,1.60e-02,
366,-8.00e-03,
367,1.60e-02,
368,-8.00e-03,
369,1.60e-02,
370,1.60e-02,
371,-8.00e-03,
372,1.20e-02,
373,-8.00e-03,
374,-8.00e-03,
375,1.60e-02,
376,-8.00e-03,
377,1.60e-02,
378,-1.20e-02,
379,1.60e-02,
380,-8.00e-03,
381,1.60e-02,
382,-8.00e-03,
383,1.20e-02,
384,-8.00e-03,
385,1.60e-02,
386,1.60e-02,
387,-8.00e-03,
388,1.60e-02,
389,-8.00e-03,
390,-8.00e-03,
391,1.60e-02,
392,1.60e-02,
393,-1.20e-02,
394,-8.00e-03,
395,1.60e-02,
396,-8.00e-03,
397,1.60e-02,
398,1.60e-02,
399,-8.00e-03,
400,-8.00e-03,
401,1.60e-02,
402,1.60e-02,
403,-8.00e-03,
404,1.28e-01,
405,-2.00e-02,
406,1.60e-02,
407,-8.00e-03,
408,-8.00e-03,
409,1.60e-02,
410,-8.00e-03,
411,1.60e-02,
412,-8.00e-03,
413,1.60e-02,
414,-8.00e-03,
415,1.60e-02,
416,-8.00e-03,
417,1.60e-02,
418,-8.00e-03,
419,1.20e-02,
420,-8.00e-03,
421,1.60e-02,
422,1.20e-02,
423,-8.00e-03,
424,-8.00e-03,
425,1.60e-02,
426,-8.00e-03,
427,1.60e-02,
428,1.60e-02,
429,-8.00e-03,
430,-8.00e-03,
431,1.60e-02,
432,-8.00e-03,
433,1.60e-02,
434,-8.00e-03,
435,1.60e-02,
436,-8.00e-03,
437,1.60e-02,
438,-8.00e-03,
439,1.60e-02,
440,-8.00e-03,
441,1.60e-02,
442,-8.00e-03,
443,1.60e-02,
444,1.20e-02,
445,-8.00e-03,
446,-8.00e-03,
447,1.60e-02,
448,-8.00e-03,
449,1.20e-02,
450,-8.00e-03,
451,1.60e-02,
452,-8.00e-03,
453,1.60e-02,
454,-8.00e-03,
455,1.60e-02,
456,2.80e-02,
457,-4.80e-02,
458,-8.00e-03,
459,1.60e-02,
460,-8.00e-03,
461,1.60e-02,
462,-8.00e-03,
463,1.60e-02,
464,-8.00e-03,
465,2.00e-02,
466,-8.00e-03,
467,1.60e-02,
468,-8.00e-03,
469,1.60e-02,
470,-8.00e-03,
471,1.60e-02,
472,1.20e-02,
473,-8.00e-03,
474,-8.00e-03,
475,1.60e-02,
476,-8.00e-03,
477,1.60e-02,
478,-8.00e-03,
479,1.60e-02,
480,-8.00e-03,
481,1.60e-02,
482,-8.00e-03,
483,1.60e-02,
484,-8.00e-03,
485,1.60e-02,
486,1.20e-02,
487,-8.00e-03,
488,-8.00e-03,
489,1.60e-02,
490,1.20e-02,
491,-8.00e-03,
492,1.20e-02,
493,-8.00e-03,
494,-8.00e-03,
495,1.60e-02,
496,-8.00e-03,
497,1.60e-02,
498,-8.00e-03,
499,1.60e-02,
500,-8.00e-03,
501,1.60e-02,
502,-8.00e-03,
503,1.20e-02,
504,-8.00e-03,
505,1.60e-02,
506,1.60e-02,
507,-8.00e-03,
508,-8.00e-03,
509,1.60e-02,
510,-1.60e-02,
511,6.80e-02,
512,1.60e-02,
513,-8.00e-03,
514,1.20e-02,
515,-8.00e-03,
516,-8.00e-03,
517,1.60e-02,
518,-8.00e-03,
519,1.60e-02,
520,1.20e-02,
521,-8.00e-03,
522,-8.00e-03,
523,1.60e-02,
524,-1.20e-02,
525,1.60e-02,
526,-8.00e-03,
527,1.60e-02,
528,-8.00e-03,
529,1.60e-02,
530,-8.00e-03,
531,1.60e-02,
532,-8.00e-03,
533,1.60e-02,
534,-8.00e-03,
535,1.60e-02,
536,-8.00e-03,
537,1.60e-02,
538,-8.00e-03,
539,1.20e-02,
540,-8.00e-03,
541,1.20e-02,
542,-8.00e-03,
543,1.60e-02,
544,1.60e-02,
545,-8.00e-03,
546,-8.00e-03,
547,1.60e-02,
548,1.20e-02,
549,-8.00e-03,
550,-8.00e-03,
551,1.60e-02,
552,-8.00e-03,
553,1.60e-02,
554,-8.00e-03,
555,1.60e-02,
556,-8.00e-03,
557,1.60e-02,
558,-8.00e-03,
559,1.60e-02,
560,1.60e-02,
561,-1.20e-02,
562,5.60e-02,
563,-2.00e-02,
564,1.20e-02,
565,-8.00e-03,
566,-8.00e-03,
567,2.00e-02,
568,-1.20e-02,
569,1.60e-02,
570,-8.00e-03,
571,1.60e-02,
572,-8.00e-03,
573,1.60e-02,
574,-8.00e-03,
575,1.60e-02,
576,-8.00e-03,
577,1.60e-02,
578,1.60e-02,
579,-8.00e-03,
580,-8.00e-03,
581,1.60e-02,
582,-8.00e-03,
583,1.60e-02,
584,-8.00e-03,
585,1.60e-02,
586,-8.00e-03,
587,1.60e-02,
588,-8.00e-03,
589,1.60e-02,
590,-8.00e-03,
591,1.60e-02,
592,-8.00e-03,
593,1.60e-02,
594,1.60e-02,
595,-8.00e-03,
596,-8.00e-03,
597,1.60e-02,
598,1.60e-02,
599,-8.00e-03,
600,-8.00e-03,
601,1.60e-02,
602,1.60e-02,
603,-8.00e-03,
604,-8.00e-03,
605,1.60e-02,
606,-8.00e-03,
607,1.60e-02,
608,1.60e-02,
609,-8.00e-03,
610,-8.00e-03,
611,1.60e-02,
612,-8.00e-03,
613,1.60e-02,
614,1.20e-02,
615,-8.00e-03,
616,2.80e-02,
617,-7.20e-02,
618,-8.00e-03,
619,1.60e-02,
620,-8.00e-03,
621,1.60e-02,
622,1.60e-02,
623,-8.00e-03,
624,-8.00e-03,
625,1.60e-02,
626,1.20e-02,
627,-8.00e-03,
628,1.20e-02,
629,-8.00e-03,
630,-8.00e-03,
631,1.60e-02,
632,1.60e-02,
633,-8.00e-03,
634,-8.00e-03,
635,1.60e-02,
636,-8.00e-03,
637,1.60e-02,
638,1.60e-02,
639,-8.00e-03,
640,-8.00e-03,
641,1.60e-02,
642,1.60e-02,
643,-8.00e-03,
644,-8.00e-03,
645,1.60e-02,
646,-1.20e-02,
647,1.60e-02,
648,1.60e-02,
649,-8.00e-03,
650,-1.20e-02,
651,1.60e-02,
652,-8.00e-03,
653,1.60e-02,
654,1.60e-02,
655,-8.00e-03,
656,1.60e-02,
657,-8.00e-03,
658,-8.00e-03,
659,1.60e-02,
660,-8.00e-03,
661,1.60e-02,
662,1.60e-02,
663,-8.00e-03,
664,-8.00e-03,
665,1.20e-02,
666,1.60e-02,
667,-8.00e-03,
668,-7.20e-02,
669,4.40e-02,
670,-8.00e-03,
671,1.60e-02,
672,-8.00e-03,
673,1.60e-02,
674,-8.00e-03,
675,1.60e-02,
676,-8.00e-03,
677,1.60e-02,
678,-8.00e-03,
679,1.60e-02,
680,1.60e-02,
681,-8.00e-03,
682,-8.00e-03,
683,1.60e-02,
684,-8.00e-03,
685,1.60e-02,
686,1.60e-02,
687,-8.00e-03,
688,-8.00e-03,
689,1.60e-02,
690,1.60e-02,
691,-8.00e-03,
692,-8.00e-03,
693,1.60e-02,
694,-8.00e-03,
695,1.60e-02,
696,1.60e-02,
697,-8.00e-03,
698,1.60e-02,
699,-8.00e-03,
700,1.60e-02,
701,-8.00e-03,
702,-8.00e-03,
703,1.60e-02,
704,-8.00e-03,
705,1.60e-02,
706,-8.00e-03,
707,1.60e-02,
708,-8.00e-03,
709,1.60e-02,
710,-4.00e-03,
711,1.60e-02,
712,1.60e-02,
713,-8.00e-03,
714,-8.00e-03,
715,1.60e-02,
716,-8.00e-03,
717,1.60e-02,
718,1.60e-02,
719,-8.00e-03,
720,1.60e-02,
721,-8.00e-03,
722,1.00e-01,
723,-2.00e-02,
724,-8.00e-03,
725,1.60e-02,
726,-8.00e-03,
727,1.60e-02,
728,-8.00e-03,
729,1.60e-02,
730,-8.00e-03,
731,1.20e-02,
732,-1.20e-02,
733,1.60e-02,
734,1.60e-02,
735,-1.20e-02,
736,1.60e-02,
737,-8.00e-03,
738,-8.00e-03,
739,1.60e-02,
740,1.20e-02,
741,-8.00e-03,
742,-8.00e-03,
743,1.60e-02,
744,-8.00e-03,
745,1.60e-02,
746,-8.00e-03,
747,1.60e-02,
748,1.20e-02,
749,-8.00e-03,
750,-8.00e-03,
751,1.60e-02,
752,-8.00e-03,
753,1.20e-02,
754,-8.00e-03,
755,1.60e-02,
756,-8.00e-03,
757,1.60e-02,
758,-8.00e-03,
759,1.60e-02,
760,-8.00e-03,
761,1.60e-02,
762,-8.00e-03,
763,1.60e-02,
764,-8.00e-03,
765,1.60e-02,
766,1.20e-02,
767,-8.00e-03,
768,-8.00e-03,
769,1.60e-02,
770,-8.00e-03,
771,1.60e-02,
772,-8.00e-03,
773,1.60e-02,
774,2.00e-02,
775,-8.80e-02,
776,-2.80e-02,
777,2.40e-02,
778,1.60e-02,
779,-8.00e-03,
780,-8.00e-03,
781,1.60e-02,
782,-8.00e-03,
783,1.60e-02,
784,-8.00e-03,
785,1.60e-02,
786,1.60e-02,
787,-8.00e-03,
788,-8.00e-03,
789,1.60e-02,
790,-8.00e-03,
791,1.60e-02,
792,-8.00e-03,
793,1.60e-02,
794,1.60e-02,
795,-8.00e-03,
796,-8.00e-03,
797,1.60e-02,
798,-8.00e-03,
799,1.60e-02,
800,1.60e-02,
801,-8.00e-03,
802,-8.00e-03,
803,1.60e-02,
804,-8.00e-03,
805,1.60e-02,
806,-8.00e-03,
807,1.60e-02,
808,-8.00e-03,
809,1.60e-02,
810,-1.20e-02,
811,1.60e-02,
812,1.60e-02,
813,-8.00e-03,
814,-8.00e-03,
815,1.60e-02,
816,-8.00e-03,
817,1.60e-02,
818,-1.20e-02,
819,1.60e-02,
820,-8.00e-03,
821,1.60e-02,
822,-8.00e-03,
823,1.60e-02,
824,1.60e-02,
825,-8.00e-03,
826,-8.00e-03,
827,1.60e-02,
828,1.32e-01,
829,-2.40e-02,
830,1.60e-02,
831,-8.00e-03,
832,-8.00e-03,
833,1.20e-02,
834,-8.00e-03,
835,1.60e-02,
836,-8.00e-03,
837,1.60e-02,
838,-8.00e-03,
839,1.60e-02,
840,1.60e-02,
841,-8.00e-03,
842,-8.00e-03,
843,1.60e-02,
844,1.20e-02,
845,-8.00e-03,
846,-8.00e-03,
847,1.60e-02,
848,-8.00e-03,
849,1.60e-02,
850,-8.00e-03,
851,1.20e-02,
852,1.60e-02,
853,-8.00e-03,
854,-8.00e-03,
855,2.00e-02,
856,-8.00e-03,
857,1.60e-02,
858,-8.00e-03,
859,1.60e-02,
860,1.60e-02,
861,-8.00e-03,
862,-8.00e-03,
863,1.60e-02,
864,1.60e-02,
865,-8.00e-03,
866,1.60e-02,
867,-8.00e-03,
868,1.60e-02,
869,-8.00e-03,
870,-8.00e-03,
871,1.60e-02,
872,1.60e-02,
873,-8.00e-03,
874,1.60e-02,
875,-8.00e-03,
876,-8.00e-03,
877,1.60e-02,
878,1.20e-02,
879,-8.00e-03,
880,-8.00e-03,
881,1.00e-01,
882,2.00e-02,
883,-2.80e-02,
884,-8.00e-03,
885,1.60e-02,
886,-8.00e-03,
887,1.60e-02,
888,-8.00e-03,
889,1.60e-02,
890,-8.00e-03,
891,1.60e-02,
892,1.20e-02,
893,-8.00e-03,
894,-8.00e-03,
895,1.60e-02,
896,-8.00e-03,
897,1.60e-02,
898,-8.00e-03,
899,1.60e-02,
900,-8.00e-03,
901,1.60e-02,
902,-8.00e-03,
903,1.60e-02,
904,-8.00e-03,
905,1.60e-02,
906,1.20e-02,
907,-8.00e-03,
908,1.20e-02,
909,-8.00e-03,
910,1.60e-02,
911,-8.00e-03,
912,-8.00e-03,
913,1.60e-02,
914,-8.00e-03,
915,1.60e-02,
916,1.20e-02,
917,-8.00e-03,
918,1.60e-02,
919,-8.00e-03,
920,1.60e-02,
921,-8.00e-03,
922,1.60e-02,
923,-8.00e-03,
924,-8.00e-03,
925,1.60e-02,
926,-8.00e-03,
927,1.60e-02,
928,-8.00e-03,
929,1.60e-02,
930,-8.00e-03,
931,1.60e-02,
932,-8.00e-03,
933,1.60e-02,
934,2.40e-02,
935,-3.60e-02,
936,-8.00e-03,
937,1.60e-02,
938,-8.00e-03,
939,1.60e-02,
940,1.60e-02,
941,-8.00e-03,
942,1.60e-02,
943,-8.00e-03,
944,-8.00e-03,
945,1.60e-02,
946,-8.00e-03,
947,1.60e-02,
948,1.60e-02,
949,-8.00e-03,
950,1.60e-02,
951,-8.00e-03,
952,-8.00e-03,
953,1.60e-02,
954,1.20e-02,
955,-8.00e-03,
956,1.60e-02,
957,-8.00e-03,
958,1.60e-02,
959,-8.00e-03,
960,1.60e-02,
961,-8.00e-03,
962,-8.00e-03,
963,1.60e-02,
964,1.60e-02,
965,-8.00e-03,
966,-8.00e-03,
967,1.60e-02,
968,-8.00e-03,
969,1.60e-02,
970,1.60e-02,
971,-8.00e-03,
972,-8.00e-03,
973,1.20e-02,
974,-8.00e-03,
975,1.60e-02,
976,-8.00e-03,
977,1.60e-02,
978,-8.00e-03,
979,1.60e-02,
980,1.60e-02,
981,-8.00e-03,
982,-8.00e-03,
983,1.60e-02,
984,-8.00e-03,
985,1.60e-02,
986,1.60e-02,
987,-9.20e-02,
988,-2.40e-02,
989,1.60e-02,
990,-8.00e-03,
991,1.60e-02,
992,-8.00e-03,
993,1.60e-02,
994,-8.00e-03,
995,1.60e-02,
996,-8.00e-03,
997,1.60e-02,
998,-8.00e-03,
999,1.60e-02,
1000,-8.00e-03,
1001,1.60e-02,
1002,-8.00e-03,
1003,1.20e-02,
1004,-8.00e-03,
1005,1.60e-02,
1006,-8.00e-03,
1007,1.60e-02,
1008,-8.00e-03,
1009,1.60e-02,
1010,-8.00e-03,
1011,1.60e-02,
1012,-8.00e-03,
1013,1.60e-02,
1014,1.60e-02,
1015,-8.00e-03,
1016,-8.00e-03,
1017,1.60e-02,
1018,1.20e-02,
1019,-8.00e-03,
1020,-8.00e-03,
1021,1.60e-02,
1022,1.60e-02,
1023,-8.00e-03,
1024,1.60e-02,
1025,-1.20e-02,
1026,-8.00e-03,
1027,1.60e-02,
1028,-8.00e-03,
1029,1.60e-02,
1030,1.60e-02,
1031,-8.00e-03,
1032,-8.00e-03,
1033,1.60e-02,
1034,-8.00e-03,
1035,1.60e-02,
1036,-8.00e-03,
1037,1.60e-02,
1038,-8.00e-03,
1039,1.60e-02,
1040,-1.20e-01,
1041,3.60e-02,
1042,-8.00e-03,
1043,1.20e-02,
1044,1.20e-02,
1045,-8.00e-03,
1046,-8.00e-03,
1047,1.20e-02,
1048,-8.00e-03,
1049,1.60e-02,
1050,-8.00e-03,
1051,1.60e-02,
1052,-8.00e-03,
1053,1.60e-02,
1054,1.20e-02,
1055,-8.00e-03,
1056,1.20e-02,
1057,-8.00e-03,
1058,-8.00e-03,
1059,1.60e-02,
1060,1.60e-02,
1061,-8.00e-03,
1062,-8.00e-03,
1063,1.60e-02,
1064,-8.00e-03,
1065,1.60e-02,
1066,-8.00e-03,
1067,2.00e-02,
1068,-8.00e-03,
1069,1.60e-02,
1070,-8.00e-03,
1071,1.60e-02,
1072,-8.00e-03,
1073,1.60e-02,
1074,-8.00e-03,
1075,1.60e-02,
1076,-8.00e-03,
1077,1.60e-02,
1078,-8.00e-03,
1079,1.60e-02,
1080,-8.00e-03,
1081,1.60e-02,
1082,1.20e-02,
1083,-8.00e-03,
1084,-8.00e-03,
1085,1.60e-02,
1086,-8.00e-03,
1087,1.60e-02,
1088,-8.00e-03,
1089,1.60e-02,
1090,1.20e-02,
1091,-8.00e-03,
1092,1.32e-01,
1093,-2.80e-02,
1094,-8.00e-03,
1095,1.60e-02,
1096,1.20e-02,
1097,-8.00e-03,
1098,-8.00e-03,
1099,1.60e-02,
1100,-8.00e-03,
1101,1.60e-02,
1102,-8.00e-03,
1103,1.60e-02,
1104,-8.00e-03,
1105,1.60e-02,
1106,-8.00e-03,
1107,1.60e-02,
1108,-1.20e-02,
1109,1.60e-02,
1110,-8.00e-03,
1111,1.60e-02,
1112,-8.00e-03,
1113,1.20e-02,
1114,1.20e-02,
1115,-8.00e-03,
1116,1.20e-02,
1117,-8.00e-03,
1118,-8.00e-03,
1119,1.60e-02,
1120,-8.00e-03,
1121,1.60e-02,
1122,-8.00e-03,
1123,1.20e-02,
1124,-8.00e-03,
1125,1.60e-02,
1126,-8.00e-03,
1127,1.60e-02,
1128,1.60e-02,
1129,-8.00e-03,
1130,-8.00e-03,
1131,1.60e-02,
1132,-8.00e-03,
1133,1.60e-02,
1134,-8.00e-03,
1135,1.60e-02,
1136,1.20e-02,
1137,-1.20e-02,
1138,-8.00e-03,
1139,1.60e-02,
1140,-8.00e-03,
1141,1.60e-02,
1142,-8.00e-03,
1143,1.60e-02,
1144,-1.20e-02,
1145,1.60e-02,
1146,-2.80e-02,
1147,2.80e-02,
1148,-8.00e-03,
1149,1.60e-02,
1150,1.60e-02,
1151,-8.00e-03,
1152,-8.00e-03,
1153,1.60e-02,
1154,1.60e-02,
1155,-8.00e-03,
1156,1.60e-02,
1157,-8.00e-03,
1158,1.20e-02,
1159,-8.00e-03,
1160,-8.00e-03,
1161,1.60e-02,
1162,-8.00e-03,
1163,1.60e-02,
1164,-8.00e-03,
1165,1.60e-02,
1166,-8.00e-03,
1167,1.60e-02,
1168,1.60e-02,
1169,-8.00e-03,
1170,-8.00e-03,
1171,1.60e-02,
1172,1.60e-02,
1173,-8.00e-03,
1174,1.60e-02,
1175,-8.00e-03,
1176,-8.00e-03,
1177,1.60e-02,
1178,-8.00e-03,
1179,1.60e-02,
1180,1.60e-02,
1181,-8.00e-03,
1182,-8.00e-03,
1183,1.60e-02,
1184,-8.00e-03,
1185,2.00e-02,
1186,-8.00e-03,
1187,1.60e-02,
1188,-8.00e-03,
1189,1.60e-02,
1190,1.60e-02,
1191,-8.00e-03,
1192,1.60e-02,
1193,-8.00e-03,
1194,-8.00e-03,
1195,1.20e-02,
1196,-8.00e-03,
1197,1.60e-02,
1198,-4.40e-02,
1199,2.40e-02,
