Laptop_2/LAPTOP_CHRGR_2_OFF/time domain/NewFile8.csv

X,CH1,Start,Increment,
Sequence,Volt,-1.500000e-01,2.000000e-04
0,-4.00e-03,
1,1.20e-02,
2,1.20e-02,
3,-4.00e-03,
4,-4.00e-03,
5,1.20e-02,
6,-4.00e-03,
7,1.20e-02,
8,1.20e-02,
9,-4.00e-03,
10,-4.00e-03,
11,1.20e-02,
12,-4.00e-03,
13,1.20e-02,
14,1.20e-02,
15,-8.00e-03,
16,-4.00e-03,
17,1.20e-02,
18,1.20e-02,
19,-8.00e-03,
20,-4.00e-03,
21,1.20e-02,
22,1.20e-02,
23,-5.20e-02,
24,1.60e-02,
25,-8.00e-03,
26,-4.00e-03,
27,1.20e-02,
28,1.60e-02,
29,-8.00e-03,
30,-4.00e-03,
31,1.20e-02,
32,-4.00e-03,
33,1.20e-02,
34,-4.00e-03,
35,1.20e-02,
36,1.20e-02,
37,-8.00e-03,
38,-4.00e-03,
39,1.20e-02,
40,-4.00e-03,
41,1.20e-02,
42,-4.00e-03,
43,1.20e-02,
44,-4.00e-03,
45,1.20e-02,
46,-4.00e-03,
47,1.20e-02,
48,-4.00e-03,
49,1.20e-02,
50,1.20e-02,
51,-8.00e-03,
52,-4.00e-03,
53,1.20e-02,
54,-4.00e-03,
55,1.20e-02,
56,-4.00e-03,
57,1.20e-02,
58,1.20e-02,
59,-8.00e-03,
60,-4.00e-03,
61,1.20e-02,
62,-4.00e-03,
63,1.20e-02,
64,1.20e-02,
65,-4.00e-03,
66,1.20e-02,
67,-8.00e-03,
68,1.20e-02,
69,-8.00e-03,
70,1.60e-02,
71,-8.00e-03,
72,1.20e-02,
73,-8.00e-03,
74,-8.00e-03,
75,1.20e-02,
76,-8.40e-02,
77,1.60e-02,
78,-4.00e-03,
79,1.20e-02,
80,-4.00e-03,
81,1.20e-02,
82,-4.00e-03,
83,1.20e-02,
84,-4.00e-03,
85,1.20e-02,
86,-4.00e-03,
87,1.20e-02,
88,-4.00e-03,
89,1.20e-02,
90,1.20e-02,
91,-4.00e-03,
92,-4.00e-03,
93,1.20e-02,
94,-4.00e-03,
95,1.20e-02,
96,-4.00e-03,
97,1.20e-02,
98,1.20e-02,
99,-8.00e-03,
100,1.20e-02,
101,-8.00e-03,
102,1.20e-02,
103,-8.00e-03,
104,1.20e-02,
105,-8.00e-03,
106,-4.00e-03,
107,1.20e-02,
108,-4.00e-03,
109,1.20e-02,
110,1.20e-02,
111,-4.00e-03,
112,-4.00e-03,
113,1.60e-02,
114,-4.00e-03,
115,1.20e-02,
116,-4.00e-03,
117,1.20e-02,
118,-4.00e-03,
119,1.20e-02,
120,-4.00e-03,
121,1.20e-02,
122,-4.00e-03,
123,1.20e-02,
124,-4.00e-03,
125,1.20e-02,
126,-4.00e-03,
127,1.20e-02,
128,-8.00e-03,
129,3.60e-02,
130,-1.60e-02,
131,2.40e-02,
132,1.20e-02,
133,-4.00e-03,
134,1.20e-02,
135,-4.00e-03,
136,1.20e-02,
137,-4.00e-03,
138,-4.00e-03,
139,1.20e-02,
140,-4.00e-03,
141,1.20e-02,
142,-4.00e-03,
143,1.20e-02,
144,1.20e-02,
145,-8.00e-03,
146,-4.00e-03,
147,1.20e-02,
148,-4.00e-03,
149,1.20e-02,
150,-4.00e-03,
151,1.20e-02,
152,1.20e-02,
153,-8.00e-03,
154,1.20e-02,
155,-4.00e-03,
156,1.20e-02,
157,-8.00e-03,
158,-4.00e-03,
159,1.20e-02,
160,-4.00e-03,
161,1.20e-02,
162,-4.00e-03,
163,1.20e-02,
164,1.20e-02,
165,-8.00e-03,
166,-4.00e-03,
167,1.20e-02,
168,-4.00e-03,
169,1.20e-02,
170,1.20e-02,
171,-8.00e-03,
172,-4.00e-03,
173,1.20e-02,
174,-4.00e-03,
175,1.20e-02,
176,-4.00e-03,
177,1.20e-02,
178,-4.00e-03,
179,1.20e-02,
180,1.20e-02,
181,-8.00e-03,
182,-2.00e-02,
183,2.00e-02,
184,-4.00e-03,
185,1.20e-02,
186,-4.00e-03,
187,1.20e-02,
188,-4.00e-03,
189,1.20e-02,
190,-4.00e-03,
191,1.20e-02,
192,1.20e-02,
193,-8.00e-03,
194,1.20e-02,
195,-8.00e-03,
196,1.20e-02,
197,-8.00e-03,
198,1.20e-02,
199,-8.00e-03,
200,1.20e-02,
201,-8.00e-03,
202,1.20e-02,
203,-8.00e-03,
204,-4.00e-03,
205,1.20e-02,
206,-4.00e-03,
207,1.20e-02,
208,-4.00e-03,
209,1.20e-02,
210,-4.00e-03,
211,1.20e-02,
212,-4.00e-03,
213,1.20e-02,
214,-4.00e-03,
215,1.20e-02,
216,-4.00e-03,
217,1.20e-02,
218,-4.00e-03,
219,1.20e-02,
220,-4.00e-03,
221,1.20e-02,
222,-4.00e-03,
223,1.20e-02,
224,-4.00e-03,
225,1.20e-02,
226,-4.00e-03,
227,1.20e-02,
228,-4.00e-03,
229,1.20e-02,
230,1.20e-02,
231,-8.00e-03,
232,1.20e-02,
233,-8.00e-03,
234,1.12e-01,
235,-8.00e-03,
236,-2.40e-02,
237,1.20e-02,
238,1.20e-02,
239,-4.00e-03,
240,-4.00e-03,
241,1.20e-02,
242,-8.00e-03,
243,1.20e-02,
244,-4.00e-03,
245,1.20e-02,
246,-4.00e-03,
247,1.20e-02,
248,1.20e-02,
249,-4.00e-03,
250,1.20e-02,
251,-8.00e-03,
252,-4.00e-03,
253,1.20e-02,
254,-4.00e-03,
255,1.20e-02,
256,-4.00e-03,
257,1.20e-02,
258,-4.00e-03,
259,1.20e-02,
260,-4.00e-03,
261,1.20e-02,
262,1.20e-02,
263,-8.00e-03,
264,-4.00e-03,
265,1.20e-02,
266,-4.00e-03,
267,1.20e-02,
268,-8.00e-03,
269,1.60e-02,
270,1.20e-02,
271,-8.00e-03,
272,-4.00e-03,
273,1.20e-02,
274,-4.00e-03,
275,1.60e-02,
276,-4.00e-03,
277,1.20e-02,
278,-4.00e-03,
279,1.20e-02,
280,-8.00e-03,
281,1.20e-02,
282,1.20e-02,
283,-8.00e-03,
284,1.20e-02,
285,-8.00e-03,
286,1.20e-02,
287,-8.00e-03,
288,9.20e-02,
289,-1.20e-02,
290,-4.00e-03,
291,1.20e-02,
292,-4.00e-03,
293,1.20e-02,
294,-4.00e-03,
295,1.20e-02,
296,-4.00e-03,
297,1.20e-02,
298,-4.00e-03,
299,1.20e-02,
300,-4.00e-03,
301,1.20e-02,
302,-4.00e-03,
303,1.20e-02,
304,-4.00e-03,
305,1.20e-02,
306,-4.00e-03,
307,1.20e-02,
308,-4.00e-03,
309,1.20e-02,
310,-4.00e-03,
311,1.20e-02,
312,-4.00e-03,
313,1.20e-02,
314,-4.00e-03,
315,1.20e-02,
316,1.20e-02,
317,-8.00e-03,
318,-4.00e-03,
319,1.20e-02,
320,1.20e-02,
321,-8.00e-03,
322,-4.00e-03,
323,1.20e-02,
324,-8.00e-03,
325,1.60e-02,
326,-4.00e-03,
327,1.60e-02,
328,-8.00e-03,
329,1.20e-02,
330,-4.00e-03,
331,1.20e-02,
332,-4.00e-03,
333,1.20e-02,
334,-4.00e-03,
335,1.20e-02,
336,-4.00e-03,
337,1.20e-02,
338,-4.00e-03,
339,1.20e-02,
340,4.80e-02,
341,-2.00e-02,
342,1.20e-02,
343,-4.00e-03,
344,-4.00e-03,
345,1.20e-02,
346,1.20e-02,
347,-4.00e-03,
348,1.20e-02,
349,-8.00e-03,
350,1.20e-02,
351,-4.00e-03,
352,-4.00e-03,
353,1.20e-02,
354,-4.00e-03,
355,1.20e-02,
356,-4.00e-03,
357,1.20e-02,
358,-4.00e-03,
359,1.20e-02,
360,-4.00e-03,
361,1.20e-02,
362,1.20e-02,
363,-8.00e-03,
364,-8.00e-03,
365,1.20e-02,
366,1.20e-02,
367,-8.00e-03,
368,1.20e-02,
369,-8.00e-03,
370,-4.00e-03,
371,1.20e-02,
372,-4.00e-03,
373,1.20e-02,
374,-4.00e-03,
375,1.20e-02,
376,-4.00e-03,
377,1.20e-02,
378,-4.00e-03,
379,1.20e-02,
380,-4.00e-03,
381,1.20e-02,
382,-4.00e-03,
383,1.20e-02,
384,-4.00e-03,
385,1.20e-02,
386,-4.00e-03,
387,1.20e-02,
388,1.20e-02,
389,-8.00e-03,
390,-4.00e-03,
391,1.20e-02,
392,-4.00e-03,
393,1.20e-02,
394,5.20e-02,
395,-2.00e-02,
396,-4.00e-03,
397,1.20e-02,
398,-4.00e-03,
399,1.20e-02,
400,1.20e-02,
401,-8.00e-03,
402,-8.00e-03,
403,1.20e-02,
404,1.20e-02,
405,-4.00e-03,
406,1.20e-02,
407,-8.00e-03,
408,1.20e-02,
409,-4.00e-03,
410,1.20e-02,
411,-8.00e-03,
412,-4.00e-03,
413,1.20e-02,
414,-4.00e-03,
415,1.20e-02,
416,-4.00e-03,
417,1.20e-02,
418,-4.00e-03,
419,1.20e-02,
420,1.20e-02,
421,-4.00e-03,
422,1.20e-02,
423,-4.00e-03,
424,-4.00e-03,
425,1.20e-02,
426,-4.00e-03,
427,1.20e-02,
428,1.20e-02,
429,-8.00e-03,
430,-4.00e-03,
431,1.20e-02,
432,-4.00e-03,
433,1.20e-02,
434,1.20e-02,
435,-4.00e-03,
436,1.20e-02,
437,-8.00e-03,
438,-4.00e-03,
439,1.20e-02,
440,-4.00e-03,
441,1.20e-02,
442,-4.00e-03,
443,1.20e-02,
444,1.20e-02,
445,-8.00e-03,
446,-6.00e-02,
447,1.60e-02,
448,-3.20e-02,
449,1.60e-02,
450,1.20e-02,
451,-8.00e-03,
452,-4.00e-03,
453,1.20e-02,
454,1.20e-02,
455,-8.00e-03,
456,-4.00e-03,
457,1.20e-02,
458,-4.00e-03,
459,1.20e-02,
460,-4.00e-03,
461,1.20e-02,
462,-4.00e-03,
463,1.20e-02,
464,-4.00e-03,
465,1.20e-02,
466,-4.00e-03,
467,1.20e-02,
468,-4.00e-03,
469,1.20e-02,
470,1.20e-02,
471,-8.00e-03,
472,-4.00e-03,
473,1.20e-02,
474,-8.00e-03,
475,1.20e-02,
476,-4.00e-03,
477,1.20e-02,
478,-4.00e-03,
479,1.20e-02,
480,1.20e-02,
481,-8.00e-03,
482,-4.00e-03,
483,1.20e-02,
484,-4.00e-03,
485,1.20e-02,
486,1.20e-02,
487,-8.00e-03,
488,1.20e-02,
489,-8.00e-03,
490,1.20e-02,
491,-8.00e-03,
492,-4.00e-03,
493,1.20e-02,
494,1.20e-02,
495,-8.00e-03,
496,-4.00e-03,
497,1.20e-02,
498,-4.00e-03,
499,1.20e-02,
500,9.20e-02,
501,-2.40e-02,
502,-4.00e-03,
503,1.20e-02,
504,-4.00e-03,
505,1.20e-02,
506,1.20e-02,
507,-4.00e-03,
508,-4.00e-03,
509,1.20e-02,
510,-4.00e-03,
511,1.20e-02,
512,-4.00e-03,
513,1.20e-02,
514,1.60e-02,
515,-8.00e-03,
516,-4.00e-03,
517,1.20e-02,
518,1.20e-02,
519,-8.00e-03,
520,-4.00e-03,
521,1.20e-02,
522,-4.00e-03,
523,1.20e-02,
524,-4.00e-03,
525,1.20e-02,
526,-4.00e-03,
527,1.20e-02,
528,-8.00e-03,
529,1.60e-02,
530,-4.00e-03,
531,1.60e-02,
532,1.20e-02,
533,-4.00e-03,
534,1.20e-02,
535,-8.00e-03,
536,-4.00e-03,
537,1.20e-02,
538,1.20e-02,
539,-4.00e-03,
540,-4.00e-03,
541,1.20e-02,
542,-4.00e-03,
543,1.20e-02,
544,-4.00e-03,
545,1.20e-02,
546,-4.00e-03,
547,1.20e-02,
548,-4.00e-03,
549,1.20e-02,
550,1.20e-02,
551,-4.00e-03,
552,5.20e-02,
553,-1.20e-02,
554,1.20e-02,
555,-8.00e-03,
556,-4.00e-03,
557,1.20e-02,
558,-4.00e-03,
559,1.20e-02,
560,1.20e-02,
561,-4.00e-03,
562,-4.00e-03,
563,1.20e-02,
564,-4.00e-03,
565,1.20e-02,
566,1.20e-02,
567,-4.00e-03,
568,1.20e-02,
569,-4.00e-03,
570,-4.00e-03,
571,1.20e-02,
572,-4.00e-03,
573,1.20e-02,
574,1.20e-02,
575,-8.00e-03,
576,1.20e-02,
577,-8.00e-03,
578,-4.00e-03,
579,1.20e-02,
580,-8.00e-03,
581,1.20e-02,
582,-4.00e-03,
583,1.20e-02,
584,-4.00e-03,
585,1.20e-02,
586,-4.00e-03,
587,1.20e-02,
588,-4.00e-03,
589,1.20e-02,
590,-4.00e-03,
591,1.20e-02,
592,1.20e-02,
593,-4.00e-03,
594,-4.00e-03,
595,1.20e-02,
596,-4.00e-03,
597,1.20e-02,
598,1.20e-02,
599,-8.00e-03,
600,1.20e-02,
601,-8.00e-03,
602,1.20e-02,
603,-8.00e-03,
604,1.20e-02,
605,-8.00e-02,
606,-8.40e-02,
607,2.00e-02,
608,-4.00e-03,
609,1.20e-02,
610,1.20e-02,
611,-8.00e-03,
612,1.20e-02,
613,-8.00e-03,
614,1.20e-02,
615,-8.00e-03,
616,1.20e-02,
617,-8.00e-03,
618,1.20e-02,
619,-8.00e-03,
620,-4.00e-03,
621,1.20e-02,
622,-4.00e-03,
623,1.20e-02,
624,-4.00e-03,
625,1.20e-02,
626,-4.00e-03,
627,1.20e-02,
628,1.20e-02,
629,-8.00e-03,
630,-4.00e-03,
631,1.20e-02,
632,-4.00e-03,
633,1.20e-02,
634,-4.00e-03,
635,1.20e-02,
636,-4.00e-03,
637,1.20e-02,
638,-4.00e-03,
639,1.20e-02,
640,1.20e-02,
641,-4.00e-03,
642,1.20e-02,
643,-4.00e-03,
644,-4.00e-03,
645,1.20e-02,
646,-4.00e-03,
647,1.20e-02,
648,-4.00e-03,
649,1.20e-02,
650,-4.00e-03,
651,1.20e-02,
652,-8.00e-03,
653,1.20e-02,
654,-4.00e-03,
655,1.60e-02,
656,-4.00e-03,
657,1.20e-02,
658,4.00e-02,
659,-1.60e-02,
660,1.20e-02,
661,-8.00e-03,
662,1.20e-02,
663,-4.00e-03,
664,-4.00e-03,
665,1.20e-02,
666,-4.00e-03,
667,1.20e-02,
668,1.20e-02,
669,-4.00e-03,
670,-4.00e-03,
671,1.20e-02,
672,1.20e-02,
673,-8.00e-03,
674,1.20e-02,
675,-4.00e-03,
676,1.20e-02,
677,-4.00e-03,
678,1.20e-02,
679,-4.00e-03,
680,-4.00e-03,
681,1.20e-02,
682,8.00e-03,
683,-4.00e-03,
684,1.20e-02,
685,-8.00e-03,
686,1.60e-02,
687,-8.00e-03,
688,-4.00e-03,
689,1.20e-02,
690,1.20e-02,
691,-8.00e-03,
692,-4.00e-03,
693,1.20e-02,
694,1.20e-02,
695,-8.00e-03,
696,1.20e-02,
697,-8.00e-03,
698,1.20e-02,
699,-8.00e-03,
700,-4.00e-03,
701,1.20e-02,
702,-4.00e-03,
703,1.20e-02,
704,1.20e-02,
705,-4.00e-03,
706,-4.00e-03,
707,1.20e-02,
708,1.20e-02,
709,-4.00e-03,
710,-4.00e-03,
711,2.40e-02,
712,2.80e-02,
713,-4.00e-03,
714,1.20e-02,
715,-4.00e-03,
716,-4.00e-03,
717,1.20e-02,
718,-4.00e-03,
719,1.20e-02,
720,-4.00e-03,
721,1.20e-02,
722,-4.00e-03,
723,1.20e-02,
724,-4.00e-03,
725,1.20e-02,
726,-4.00e-03,
727,1.20e-02,
728,-4.00e-03,
729,1.20e-02,
730,-4.00e-03,
731,1.20e-02,
732,-4.00e-03,
733,1.20e-02,
734,-4.00e-03,
735,1.20e-02,
736,1.20e-02,
737,-8.00e-03,
738,-4.00e-03,
739,1.20e-02,
740,1.20e-02,
741,-8.00e-03,
742,-4.00e-03,
743,1.20e-02,
744,1.60e-02,
745,-8.00e-03,
746,-4.00e-03,
747,1.20e-02,
748,-4.00e-03,
749,1.20e-02,
750,-8.00e-03,
751,1.20e-02,
752,-4.00e-03,
753,1.20e-02,
754,-4.00e-03,
755,1.20e-02,
756,1.20e-02,
757,-4.00e-03,
758,-4.00e-03,
759,1.20e-02,
760,-4.00e-03,
761,1.20e-02,
762,1.20e-02,
763,-8.00e-03,
764,3.20e-02,
765,-1.20e-02,
766,-4.00e-03,
767,1.20e-02,
768,1.20e-02,
769,-8.00e-03,
770,-4.00e-03,
771,1.20e-02,
772,-4.00e-03,
773,1.20e-02,
774,-4.00e-03,
775,1.20e-02,
776,-4.00e-03,
777,1.20e-02,
778,1.20e-02,
779,-4.00e-03,
780,-4.00e-03,
781,1.20e-02,
782,-8.00e-03,
783,1.20e-02,
784,1.20e-02,
785,-4.00e-03,
786,1.20e-02,
787,-4.00e-03,
788,-4.00e-03,
789,1.20e-02,
790,1.20e-02,
791,-4.00e-03,
792,-4.00e-03,
793,1.20e-02,
794,-4.00e-03,
795,1.20e-02,
796,-4.00e-03,
797,1.20e-02,
798,1.20e-02,
799,-8.00e-03,
800,-4.00e-03,
801,1.20e-02,
802,-4.00e-03,
803,1.20e-02,
804,-4.00e-03,
805,1.20e-02,
806,-4.00e-03,
807,1.20e-02,
808,1.20e-02,
809,-8.00e-03,
810,-4.00e-03,
811,1.20e-02,
812,-4.00e-03,
813,8.00e-03,
814,-4.00e-03,
815,1.20e-02,
816,-1.60e-02,
817,1.08e-01,
818,1.20e-02,
819,-8.00e-03,
820,1.20e-02,
821,-8.00e-03,
822,1.20e-02,
823,-8.00e-03,
824,1.20e-02,
825,-8.00e-03,
826,1.20e-02,
827,-4.00e-03,
828,-4.00e-03,
829,1.20e-02,
830,-4.00e-03,
831,1.20e-02,
832,1.20e-02,
833,-4.00e-03,
834,-4.00e-03,
835,1.20e-02,
836,-4.00e-03,
837,1.20e-02,
838,1.20e-02,
839,-4.00e-03,
840,-4.00e-03,
841,1.20e-02,
842,1.20e-02,
843,-4.00e-03,
844,1.20e-02,
845,-4.00e-03,
846,-4.00e-03,
847,1.20e-02,
848,-4.00e-03,
849,1.20e-02,
850,1.20e-02,
851,-8.00e-03,
852,1.20e-02,
853,-8.00e-03,
854,-8.00e-03,
855,1.20e-02,
856,-4.00e-03,
857,1.20e-02,
858,-8.00e-03,
859,1.20e-02,
860,1.20e-02,
861,-8.00e-03,
862,1.20e-02,
863,-8.00e-03,
864,1.20e-02,
865,-8.00e-03,
866,-4.00e-03,
867,1.60e-02,
868,1.20e-02,
869,-8.00e-03,
870,-1.20e-02,
871,4.80e-02,
872,1.20e-02,
873,-8.00e-03,
874,-4.00e-03,
875,1.20e-02,
876,-4.00e-03,
877,1.20e-02,
878,-4.00e-03,
879,1.20e-02,
880,-4.00e-03,
881,1.20e-02,
882,-4.00e-03,
883,1.20e-02,
884,-4.00e-03,
885,1.20e-02,
886,-4.00e-03,
887,1.20e-02,
888,-4.00e-03,
889,1.20e-02,
890,1.20e-02,
891,-8.00e-03,
892,1.20e-02,
893,-8.00e-03,
894,-4.00e-03,
895,1.20e-02,
896,1.20e-02,
897,-4.00e-03,
898,-4.00e-03,
899,1.20e-02,
900,-4.00e-03,
901,1.20e-02,
902,1.20e-02,
903,-8.00e-03,
904,1.20e-02,
905,-8.00e-03,
906,1.20e-02,
907,-8.00e-03,
908,1.20e-02,
909,-8.00e-03,
910,1.60e-02,
911,-8.00e-03,
912,-4.00e-03,
913,1.20e-02,
914,1.20e-02,
915,-8.00e-03,
916,-4.00e-03,
917,1.20e-02,
918,-4.00e-03,
919,1.20e-02,
920,-4.00e-03,
921,1.20e-02,
922,-1.16e-01,
923,4.80e-02,
924,-4.00e-03,
925,1.20e-02,
926,-4.00e-03,
927,1.20e-02,
928,-4.00e-03,
929,8.00e-03,
930,-4.00e-03,
931,1.20e-02,
932,1.20e-02,
933,-8.00e-03,
934,1.20e-02,
935,-8.00e-03,
936,1.20e-02,
937,-8.00e-03,
938,-4.00e-03,
939,1.20e-02,
940,1.20e-02,
941,-8.00e-03,
942,1.20e-02,
943,-8.00e-03,
944,-4.00e-03,
945,1.20e-02,
946,1.20e-02,
947,-8.00e-03,
948,1.20e-02,
949,-4.00e-03,
950,-8.00e-03,
951,1.20e-02,
952,-4.00e-03,
953,1.20e-02,
954,-4.00e-03,
955,1.20e-02,
956,-4.00e-03,
957,1.20e-02,
958,-4.00e-03,
959,1.20e-02,
960,-4.00e-03,
961,1.20e-02,
962,-4.00e-03,
963,1.20e-02,
964,-4.00e-03,
965,1.20e-02,
966,-4.00e-03,
967,1.20e-02,
968,-4.00e-03,
969,1.20e-02,
970,-4.00e-03,
971,1.20e-02,
972,-8.00e-03,
973,1.60e-02,
974,2.00e-02,
975,-4.80e-02,
976,-4.00e-03,
977,1.20e-02,
978,-4.00e-03,
979,1.60e-02,
980,-4.00e-03,
981,1.20e-02,
982,1.20e-02,
983,-8.00e-03,
984,-4.00e-03,
985,1.20e-02,
986,-8.00e-03,
987,1.20e-02,
988,1.20e-02,
989,-8.00e-03,
990,-4.00e-03,
991,1.20e-02,
992,-1.20e-02,
993,1.60e-02,
994,1.20e-02,
995,-8.00e-03,
996,-4.00e-03,
997,1.20e-02,
998,-4.00e-03,
999,1.20e-02,
1000,-4.00e-03,
1001,1.20e-02,
1002,-4.00e-03,
1003,1.20e-02,
1004,-4.00e-03,
1005,1.20e-02,
1006,-4.00e-03,
1007,1.20e-02,
1008,-4.00e-03,
1009,1.20e-02,
1010,-4.00e-03,
1011,1.20e-02,
1012,1.20e-02,
1013,-4.00e-03,
1014,-4.00e-03,
1015,1.20e-02,
1016,-4.00e-03,
1017,1.20e-02,
1018,-4.00e-03,
1019,1.20e-02,
1020,-4.00e-03,
1021,1.20e-02,
1022,-4.00e-03,
1023,1.20e-02,
1024,-4.00e-03,
1025,1.20e-02,
1026,-4.00e-03,
1027,1.20e-02,
1028,5.20e-02,
1029,-8.00e-03,
1030,1.20e-02,
1031,-8.00e-03,
1032,-4.00e-03,
1033,1.20e-02,
1034,1.20e-02,
1035,-8.00e-03,
1036,-4.00e-03,
1037,1.20e-02,
1038,-4.00e-03,
1039,1.20e-02,
1040,-4.00e-03,
1041,1.20e-02,
1042,-4.00e-03,
1043,1.20e-02,
1044,-4.00e-03,
1045,1.20e-02,
1046,1.20e-02,
1047,-8.00e-03,
1048,-4.00e-03,
1049,1.20e-02,
1050,1.20e-02,
1051,-8.00e-03,
1052,-4.00e-03,
1053,1.20e-02,
1054,-4.00e-03,
1055,1.20e-02,
1056,-4.00e-03,
1057,1.20e-02,
1058,1.20e-02,
1059,-4.00e-03,
1060,-4.00e-03,
1061,1.60e-02,
1062,-4.00e-03,
1063,1.20e-02,
1064,1.20e-02,
1065,-8.00e-03,
1066,-4.00e-03,
1067,1.20e-02,
1068,1.20e-02,
1069,-8.00e-03,
1070,1.20e-02,
1071,-8.00e-03,
1072,1.20e-02,
1073,-8.00e-03,
1074,1.20e-02,
1075,-8.00e-03,
1076,-8.00e-03,
1077,1.20e-02,
1078,-8.00e-03,
1079,1.20e-02,
1080,5.20e-02,
1081,-6.40e-02,
1082,-4.00e-03,
1083,1.20e-02,
1084,-4.00e-03,
1085,1.20e-02,
1086,1.20e-02,
1087,-4.00e-03,
1088,-4.00e-03,
1089,1.20e-02,
1090,1.20e-02,
1091,-4.00e-03,
1092,-4.00e-03,
1093,1.20e-02,
1094,-4.00e-03,
1095,1.20e-02,
1096,-4.00e-03,
1097,1.20e-02,
1098,-4.00e-03,
1099,1.60e-02,
1100,-4.00e-03,
1101,1.20e-02,
1102,-4.00e-03,
1103,1.20e-02,
1104,-4.00e-03,
1105,1.20e-02,
1106,-4.00e-03,
1107,1.20e-02,
1108,1.20e-02,
1109,-8.00e-03,
1110,1.20e-02,
1111,-8.00e-03,
1112,-8.00e-03,
1113,1.60e-02,
1114,-8.00e-03,
1115,1.20e-02,
1116,1.20e-02,
1117,-8.00e-03,
1118,-4.00e-03,
1119,1.20e-02,
1120,-4.00e-03,
1121,1.20e-02,
1122,-4.00e-03,
1123,1.20e-02,
1124,-4.00e-03,
1125,1.20e-02,
1126,-4.00e-03,
1127,1.20e-02,
1128,-4.00e-03,
1129,1.20e-02,
1130,-4.00e-03,
1131,1.20e-02,
1132,-8.00e-02,
1133,3.60e-02,
1134,-4.00e-03,
1135,1.20e-02,
1136,-4.00e-03,
1137,1.20e-02,
1138,-4.00e-03,
1139,1.20e-02,
1140,-4.00e-03,
1141,1.20e-02,
1142,1.20e-02,
1143,-8.00e-03,
1144,-4.00e-03,
1145,1.20e-02,
1146,1.20e-02,
1147,-8.00e-03,
1148,-4.00e-03,
1149,1.20e-02,
1150,-4.00e-03,
1151,1.20e-02,
1152,-8.00e-03,
1153,1.60e-02,
1154,-8.00e-03,
1155,1.20e-02,
1156,1.20e-02,
1157,-8.00e-03,
1158,1.20e-02,
1159,-8.00e-03,
1160,-4.00e-03,
1161,1.20e-02,
1162,1.20e-02,
1163,-8.00e-03,
1164,-8.00e-03,
1165,1.20e-02,
1166,-4.00e-03,
1167,1.20e-02,
1168,-4.00e-03,
1169,1.20e-02,
1170,-4.00e-03,
1171,1.20e-02,
1172,-4.00e-03,
1173,1.20e-02,
1174,1.20e-02,
1175,-4.00e-03,
1176,-4.00e-03,
1177,1.20e-02,
1178,1.20e-02,
1179,-8.00e-03,
1180,-4.00e-03,
1181,1.20e-02,
1182,1.20e-02,
1183,-8.00e-03,
1184,1.60e-02,
1185,-6.00e-02,
1186,1.20e-02,
1187,-8.00e-03,
1188,-4.00e-03,
1189,1.20e-02,
1190,-4.00e-03,
1191,1.20e-02,
1192,-4.00e-03,
1193,1.20e-02,
1194,1.20e-02,
1195,-8.00e-03,
1196,-8.00e-03,
1197,1.20e-02,
1198,-4.00e-03,
1199,1.60e-02,
