Laptop_2/LAPTOP_CHRGR_2_OFF/time domain/NewFile33.csv

X,CH1,Start,Increment,
Sequence,Volt,-1.500000e-01,2.000000e-04
0,-8.00e-03,
1,1.60e-02,
2,1.60e-02,
3,-1.20e-02,
4,-7.60e-02,
5,4.40e-02,
6,1.60e-02,
7,-1.20e-02,
8,1.60e-02,
9,-1.20e-02,
10,1.60e-02,
11,-1.20e-02,
12,1.60e-02,
13,-1.20e-02,
14,1.60e-02,
15,-1.20e-02,
16,1.60e-02,
17,-1.20e-02,
18,1.60e-02,
19,-1.20e-02,
20,1.60e-02,
21,-1.20e-02,
22,1.60e-02,
23,-1.20e-02,
24,1.60e-02,
25,-1.20e-02,
26,1.60e-02,
27,-1.20e-02,
28,1.60e-02,
29,-1.20e-02,
30,1.60e-02,
31,-1.20e-02,
32,1.60e-02,
33,-1.20e-02,
34,1.60e-02,
35,-1.20e-02,
36,-1.20e-02,
37,1.60e-02,
38,1.60e-02,
39,-8.00e-03,
40,1.60e-02,
41,-1.20e-02,
42,1.60e-02,
43,-1.20e-02,
44,-1.20e-02,
45,1.60e-02,
46,1.60e-02,
47,-1.20e-02,
48,1.60e-02,
49,-1.20e-02,
50,1.60e-02,
51,-1.20e-02,
52,1.60e-02,
53,-1.20e-02,
54,1.60e-02,
55,-1.20e-02,
56,-2.00e-01,
57,2.00e-02,
58,1.60e-02,
59,-1.20e-02,
60,1.60e-02,
61,-1.20e-02,
62,-8.00e-03,
63,2.00e-02,
64,1.60e-02,
65,-1.20e-02,
66,-1.20e-02,
67,2.00e-02,
68,-8.00e-03,
69,1.60e-02,
70,2.00e-02,
71,-1.20e-02,
72,-1.20e-02,
73,1.60e-02,
74,-8.00e-03,
75,1.60e-02,
76,-8.00e-03,
77,1.60e-02,
78,-8.00e-03,
79,1.60e-02,
80,1.60e-02,
81,-1.20e-02,
82,-8.00e-03,
83,1.60e-02,
84,1.60e-02,
85,-1.20e-02,
86,-1.20e-02,
87,1.60e-02,
88,1.60e-02,
89,-1.20e-02,
90,-1.20e-02,
91,1.60e-02,
92,1.60e-02,
93,-1.20e-02,
94,-8.00e-03,
95,1.60e-02,
96,1.60e-02,
97,-1.20e-02,
98,-8.00e-03,
99,1.60e-02,
100,1.60e-02,
101,-1.20e-02,
102,1.60e-02,
103,-1.20e-02,
104,2.00e-02,
105,-1.20e-02,
106,1.60e-02,
107,-1.20e-02,
108,-1.20e-02,
109,2.00e-02,
110,2.80e-02,
111,-4.00e-02,
112,1.60e-02,
113,-1.20e-02,
114,-8.00e-03,
115,1.60e-02,
116,1.60e-02,
117,-1.20e-02,
118,1.60e-02,
119,-8.00e-03,
120,1.60e-02,
121,-1.20e-02,
122,1.60e-02,
123,-1.20e-02,
124,-8.00e-03,
125,1.60e-02,
126,-8.00e-03,
127,1.60e-02,
128,1.60e-02,
129,-1.20e-02,
130,1.60e-02,
131,-1.20e-02,
132,1.60e-02,
133,-1.20e-02,
134,1.60e-02,
135,-1.20e-02,
136,1.60e-02,
137,-1.20e-02,
138,1.60e-02,
139,-1.20e-02,
140,-1.20e-02,
141,2.00e-02,
142,-8.00e-03,
143,1.60e-02,
144,-1.20e-02,
145,2.00e-02,
146,-8.00e-03,
147,1.60e-02,
148,1.60e-02,
149,-8.00e-03,
150,1.60e-02,
151,-8.00e-03,
152,-8.00e-03,
153,1.60e-02,
154,2.00e-02,
155,-1.20e-02,
156,1.60e-02,
157,-1.20e-02,
158,1.60e-02,
159,-1.20e-02,
160,1.60e-02,
161,-1.20e-02,
162,-1.84e-01,
163,3.60e-02,
164,-1.20e-02,
165,2.00e-02,
166,-8.00e-03,
167,1.60e-02,
168,1.60e-02,
169,-1.20e-02,
170,1.60e-02,
171,-1.20e-02,
172,-1.20e-02,
173,2.00e-02,
174,-8.00e-03,
175,1.60e-02,
176,1.60e-02,
177,-1.20e-02,
178,-1.20e-02,
179,2.00e-02,
180,1.60e-02,
181,-1.20e-02,
182,1.60e-02,
183,-8.00e-03,
184,1.60e-02,
185,-1.20e-02,
186,2.00e-02,
187,-1.20e-02,
188,-1.20e-02,
189,2.00e-02,
190,1.60e-02,
191,-1.20e-02,
192,1.60e-02,
193,-8.00e-03,
194,-8.00e-03,
195,1.60e-02,
196,-8.00e-03,
197,1.60e-02,
198,1.60e-02,
199,-1.20e-02,
200,1.60e-02,
201,-1.20e-02,
202,2.00e-02,
203,-1.20e-02,
204,1.60e-02,
205,-8.00e-03,
206,1.60e-02,
207,-1.20e-02,
208,1.60e-02,
209,-1.20e-02,
210,1.60e-02,
211,-1.20e-02,
212,1.60e-02,
213,-1.20e-02,
214,1.60e-02,
215,-8.00e-03,
216,-8.80e-02,
217,8.00e-02,
218,-8.00e-03,
219,1.60e-02,
220,1.60e-02,
221,-1.20e-02,
222,1.60e-02,
223,-1.20e-02,
224,1.60e-02,
225,-1.20e-02,
226,1.60e-02,
227,-1.20e-02,
228,-1.20e-02,
229,2.00e-02,
230,1.60e-02,
231,-1.20e-02,
232,-1.20e-02,
233,1.60e-02,
234,1.60e-02,
235,-1.20e-02,
236,-8.00e-03,
237,1.60e-02,
238,1.60e-02,
239,-8.00e-03,
240,1.60e-02,
241,-1.20e-02,
242,-8.00e-03,
243,1.60e-02,
244,1.60e-02,
245,-1.20e-02,
246,-8.00e-03,
247,1.60e-02,
248,1.60e-02,
249,-1.20e-02,
250,1.60e-02,
251,-1.20e-02,
252,1.60e-02,
253,-1.20e-02,
254,1.60e-02,
255,-1.20e-02,
256,-8.00e-03,
257,1.60e-02,
258,2.00e-02,
259,-1.20e-02,
260,1.60e-02,
261,-1.20e-02,
262,-8.00e-03,
263,1.60e-02,
264,1.60e-02,
265,-8.00e-03,
266,1.60e-02,
267,-1.20e-02,
268,7.60e-02,
269,-2.80e-02,
270,-8.00e-03,
271,2.00e-02,
272,-8.00e-03,
273,1.60e-02,
274,-1.20e-02,
275,2.00e-02,
276,-8.00e-03,
277,2.00e-02,
278,-8.00e-03,
279,2.00e-02,
280,-8.00e-03,
281,2.00e-02,
282,-1.20e-02,
283,2.00e-02,
284,-8.00e-03,
285,1.60e-02,
286,-1.20e-02,
287,2.00e-02,
288,1.60e-02,
289,-8.00e-03,
290,-8.00e-03,
291,1.60e-02,
292,-8.00e-03,
293,1.60e-02,
294,-1.20e-02,
295,1.60e-02,
296,-1.20e-02,
297,2.00e-02,
298,-8.00e-03,
299,1.60e-02,
300,-1.20e-02,
301,2.00e-02,
302,-8.00e-03,
303,1.60e-02,
304,1.60e-02,
305,-1.20e-02,
306,-8.00e-03,
307,2.00e-02,
308,1.60e-02,
309,-8.00e-03,
310,1.60e-02,
311,-1.20e-02,
312,-8.00e-03,
313,2.00e-02,
314,1.60e-02,
315,-1.20e-02,
316,-1.20e-02,
317,2.00e-02,
318,-8.00e-03,
319,1.60e-02,
320,1.60e-02,
321,-1.20e-02,
322,1.80e-01,
323,-2.40e-02,
324,-8.00e-03,
325,1.60e-02,
326,-8.00e-03,
327,1.60e-02,
328,1.60e-02,
329,-1.20e-02,
330,2.00e-02,
331,-1.20e-02,
332,-8.00e-03,
333,1.60e-02,
334,1.60e-02,
335,-1.20e-02,
336,-1.20e-02,
337,2.00e-02,
338,-8.00e-03,
339,1.60e-02,
340,-8.00e-03,
341,1.60e-02,
342,-8.00e-03,
343,2.00e-02,
344,1.60e-02,
345,-1.20e-02,
346,1.60e-02,
347,-1.20e-02,
348,1.60e-02,
349,-1.20e-02,
350,1.60e-02,
351,-1.20e-02,
352,-8.00e-03,
353,1.60e-02,
354,-8.00e-03,
355,2.00e-02,
356,-1.20e-02,
357,2.00e-02,
358,-8.00e-03,
359,1.60e-02,
360,-8.00e-03,
361,1.60e-02,
362,-8.00e-03,
363,1.60e-02,
364,1.60e-02,
365,-1.20e-02,
366,1.60e-02,
367,-1.20e-02,
368,1.60e-02,
369,-1.20e-02,
370,2.00e-02,
371,-1.20e-02,
372,-8.00e-03,
373,1.60e-02,
374,1.52e-01,
375,-6.40e-02,
376,-8.00e-03,
377,2.00e-02,
378,-8.00e-03,
379,1.60e-02,
380,1.60e-02,
381,-1.20e-02,
382,-8.00e-03,
383,1.60e-02,
384,-8.00e-03,
385,1.60e-02,
386,-8.00e-03,
387,1.60e-02,
388,-8.00e-03,
389,1.60e-02,
390,1.60e-02,
391,-1.20e-02,
392,1.60e-02,
393,-1.20e-02,
394,-1.20e-02,
395,2.00e-02,
396,1.60e-02,
397,-1.20e-02,
398,1.60e-02,
399,-1.20e-02,
400,1.60e-02,
401,-1.20e-02,
402,1.60e-02,
403,-1.20e-02,
404,1.60e-02,
405,-1.20e-02,
406,1.60e-02,
407,-1.20e-02,
408,1.60e-02,
409,-1.20e-02,
410,1.60e-02,
411,-1.20e-02,
412,-8.00e-03,
413,1.60e-02,
414,-8.00e-03,
415,1.60e-02,
416,-1.20e-02,
417,2.00e-02,
418,-8.00e-03,
419,1.60e-02,
420,-8.00e-03,
421,1.60e-02,
422,1.60e-02,
423,-1.20e-02,
424,-1.20e-02,
425,1.60e-02,
426,-8.00e-03,
427,1.60e-02,
428,8.80e-02,
429,-4.80e-02,
430,1.60e-02,
431,-1.20e-02,
432,-1.20e-02,
433,1.60e-02,
434,1.60e-02,
435,-1.20e-02,
436,1.60e-02,
437,-1.20e-02,
438,2.00e-02,
439,-1.20e-02,
440,-8.00e-03,
441,1.60e-02,
442,-1.20e-02,
443,1.60e-02,
444,-8.00e-03,
445,1.60e-02,
446,1.60e-02,
447,-1.20e-02,
448,1.60e-02,
449,-1.20e-02,
450,-8.00e-03,
451,1.60e-02,
452,1.60e-02,
453,-8.00e-03,
454,-8.00e-03,
455,1.60e-02,
456,-8.00e-03,
457,2.00e-02,
458,-1.20e-02,
459,2.00e-02,
460,-8.00e-03,
461,1.60e-02,
462,-8.00e-03,
463,1.60e-02,
464,-8.00e-03,
465,2.00e-02,
466,-8.00e-03,
467,1.60e-02,
468,1.60e-02,
469,-8.00e-03,
470,-8.00e-03,
471,1.60e-02,
472,-8.00e-03,
473,1.60e-02,
474,1.60e-02,
475,-1.20e-02,
476,-8.00e-03,
477,1.60e-02,
478,-1.20e-02,
479,2.00e-02,
480,1.84e-01,
481,-2.00e-02,
482,2.00e-02,
483,-1.60e-02,
484,-8.00e-03,
485,2.00e-02,
486,-1.20e-02,
487,2.00e-02,
488,-8.00e-03,
489,1.60e-02,
490,-8.00e-03,
491,1.60e-02,
492,-8.00e-03,
493,1.60e-02,
494,1.60e-02,
495,-8.00e-03,
496,-8.00e-03,
497,2.00e-02,
498,-8.00e-03,
499,1.60e-02,
500,-8.00e-03,
501,2.00e-02,
502,-1.20e-02,
503,2.00e-02,
504,1.60e-02,
505,-1.20e-02,
506,-8.00e-03,
507,1.60e-02,
508,1.60e-02,
509,-8.00e-03,
510,-8.00e-03,
511,2.00e-02,
512,-8.00e-03,
513,1.60e-02,
514,1.60e-02,
515,-1.20e-02,
516,-8.00e-03,
517,1.60e-02,
518,1.60e-02,
519,-1.20e-02,
520,1.60e-02,
521,-1.60e-02,
522,1.60e-02,
523,-1.20e-02,
524,1.60e-02,
525,-1.20e-02,
526,-8.00e-03,
527,1.60e-02,
528,-8.00e-03,
529,1.60e-02,
530,1.60e-02,
531,-8.00e-03,
532,1.60e-02,
533,-1.20e-02,
534,1.60e-01,
535,-4.80e-02,
536,1.60e-02,
537,-1.20e-02,
538,-8.00e-03,
539,1.60e-02,
540,1.60e-02,
541,-8.00e-03,
542,-8.00e-03,
543,2.00e-02,
544,1.60e-02,
545,-1.20e-02,
546,1.60e-02,
547,-1.20e-02,
548,-8.00e-03,
549,1.60e-02,
550,-8.00e-03,
551,1.60e-02,
552,1.60e-02,
553,-1.20e-02,
554,-8.00e-03,
555,1.60e-02,
556,-8.00e-03,
557,2.00e-02,
558,1.60e-02,
559,-1.20e-02,
560,2.00e-02,
561,-1.20e-02,
562,1.60e-02,
563,-1.20e-02,
564,1.60e-02,
565,-1.20e-02,
566,1.60e-02,
567,-1.20e-02,
568,-1.20e-02,
569,1.60e-02,
570,1.60e-02,
571,-1.20e-02,
572,1.60e-02,
573,-1.20e-02,
574,1.60e-02,
575,-1.20e-02,
576,1.60e-02,
577,-1.20e-02,
578,-8.00e-03,
579,1.60e-02,
580,1.60e-02,
581,-1.20e-02,
582,1.60e-02,
583,-8.00e-03,
584,1.60e-02,
585,-8.00e-03,
586,-4.80e-02,
587,5.20e-02,
588,1.60e-02,
589,-8.00e-03,
590,2.00e-02,
591,-8.00e-03,
592,-8.00e-03,
593,1.60e-02,
594,1.60e-02,
595,-1.20e-02,
596,1.60e-02,
597,-8.00e-03,
598,1.60e-02,
599,-1.20e-02,
600,-1.20e-02,
601,1.60e-02,
602,1.60e-02,
603,-1.20e-02,
604,-8.00e-03,
605,1.60e-02,
606,1.60e-02,
607,-8.00e-03,
608,1.60e-02,
609,-1.20e-02,
610,1.60e-02,
611,-8.00e-03,
612,-8.00e-03,
613,1.60e-02,
614,-8.00e-03,
615,1.60e-02,
616,1.60e-02,
617,-8.00e-03,
618,2.00e-02,
619,-1.20e-02,
620,-8.00e-03,
621,1.60e-02,
622,-8.00e-03,
623,1.60e-02,
624,-8.00e-03,
625,2.00e-02,
626,1.60e-02,
627,-1.20e-02,
628,-8.00e-03,
629,2.00e-02,
630,-8.00e-03,
631,2.00e-02,
632,-8.00e-03,
633,1.60e-02,
634,-1.20e-02,
635,2.00e-02,
636,-8.00e-03,
637,1.60e-02,
638,-8.00e-03,
639,1.60e-02,
640,4.00e-02,
641,-4.80e-02,
642,1.60e-02,
643,-1.20e-02,
644,-8.00e-03,
645,2.00e-02,
646,2.00e-02,
647,-1.20e-02,
648,1.60e-02,
649,-1.20e-02,
650,-8.00e-03,
651,1.60e-02,
652,-1.20e-02,
653,1.60e-02,
654,-8.00e-03,
655,1.60e-02,
656,1.60e-02,
657,-1.20e-02,
658,1.60e-02,
659,-8.00e-03,
660,1.60e-02,
661,-1.20e-02,
662,-8.00e-03,
663,1.60e-02,
664,-1.20e-02,
665,2.00e-02,
666,1.60e-02,
667,-8.00e-03,
668,-8.00e-03,
669,1.60e-02,
670,-8.00e-03,
671,2.00e-02,
672,1.60e-02,
673,-1.20e-02,
674,-8.00e-03,
675,1.60e-02,
676,1.60e-02,
677,-1.20e-02,
678,1.60e-02,
679,-1.20e-02,
680,1.60e-02,
681,-1.20e-02,
682,-8.00e-03,
683,1.60e-02,
684,1.60e-02,
685,-1.20e-02,
686,2.00e-02,
687,-1.20e-02,
688,-1.20e-02,
689,2.00e-02,
690,-8.00e-03,
691,1.60e-02,
692,8.40e-02,
693,-3.60e-02,
694,-1.20e-02,
695,4.00e-02,
696,-8.00e-03,
697,1.60e-02,
698,1.60e-02,
699,-8.00e-03,
700,-8.00e-03,
701,1.60e-02,
702,1.60e-02,
703,-1.20e-02,
704,-8.00e-03,
705,2.00e-02,
706,-8.00e-03,
707,1.60e-02,
708,-1.20e-02,
709,2.00e-02,
710,1.60e-02,
711,-1.20e-02,
712,1.60e-02,
713,-1.20e-02,
714,-8.00e-03,
715,1.60e-02,
716,-8.00e-03,
717,1.60e-02,
718,1.60e-02,
719,-8.00e-03,
720,-8.00e-03,
721,1.60e-02,
722,1.60e-02,
723,-1.20e-02,
724,-1.20e-02,
725,2.00e-02,
726,1.60e-02,
727,-1.20e-02,
728,-8.00e-03,
729,1.60e-02,
730,-8.00e-03,
731,2.00e-02,
732,1.60e-02,
733,-1.20e-02,
734,-1.20e-02,
735,2.00e-02,
736,-8.00e-03,
737,1.60e-02,
738,1.60e-02,
739,-1.20e-02,
740,-8.00e-03,
741,1.60e-02,
742,1.60e-02,
743,-8.00e-03,
744,1.60e-02,
745,-1.20e-02,
746,1.72e-01,
747,-9.60e-02,
748,-8.00e-03,
749,1.60e-02,
750,1.60e-02,
751,-8.00e-03,
752,1.60e-02,
753,-1.20e-02,
754,1.60e-02,
755,-8.00e-03,
756,-8.00e-03,
757,1.60e-02,
758,1.60e-02,
759,-8.00e-03,
760,-1.20e-02,
761,2.00e-02,
762,-8.00e-03,
763,1.60e-02,
764,1.60e-02,
765,-1.20e-02,
766,-1.20e-02,
767,2.00e-02,
768,-8.00e-03,
769,2.00e-02,
770,-8.00e-03,
771,1.60e-02,
772,-8.00e-03,
773,1.60e-02,
774,1.60e-02,
775,-1.20e-02,
776,-1.20e-02,
777,1.60e-02,
778,-8.00e-03,
779,1.60e-02,
780,-8.00e-03,
781,1.60e-02,
782,-8.00e-03,
783,1.60e-02,
784,-8.00e-03,
785,1.60e-02,
786,2.00e-02,
787,-1.20e-02,
788,2.00e-02,
789,-1.20e-02,
790,-8.00e-03,
791,1.60e-02,
792,1.60e-02,
793,-1.20e-02,
794,-1.20e-02,
795,1.60e-02,
796,1.60e-02,
797,-8.00e-03,
798,5.20e-02,
799,-4.40e-02,
800,1.60e-02,
801,-1.20e-02,
802,-8.00e-03,
803,1.60e-02,
804,1.60e-02,
805,-1.20e-02,
806,-8.00e-03,
807,1.60e-02,
808,1.60e-02,
809,-1.20e-02,
810,-1.20e-02,
811,2.00e-02,
812,2.00e-02,
813,-1.20e-02,
814,1.60e-02,
815,-1.20e-02,
816,1.60e-02,
817,-1.20e-02,
818,-8.00e-03,
819,1.60e-02,
820,-8.00e-03,
821,1.60e-02,
822,1.60e-02,
823,-1.20e-02,
824,1.60e-02,
825,-1.20e-02,
826,1.60e-02,
827,-8.00e-03,
828,1.60e-02,
829,-1.20e-02,
830,-8.00e-03,
831,2.00e-02,
832,-8.00e-03,
833,2.00e-02,
834,-8.00e-03,
835,2.00e-02,
836,1.60e-02,
837,-8.00e-03,
838,-8.00e-03,
839,1.60e-02,
840,-1.20e-02,
841,1.60e-02,
842,-8.00e-03,
843,1.60e-02,
844,1.60e-02,
845,-1.20e-02,
846,-1.20e-02,
847,2.00e-02,
848,1.60e-02,
849,-1.20e-02,
850,6.40e-02,
851,-3.20e-02,
852,1.60e-02,
853,-1.60e-02,
854,1.60e-02,
855,-8.00e-03,
856,1.60e-02,
857,-1.20e-02,
858,-1.20e-02,
859,1.60e-02,
860,1.60e-02,
861,-1.20e-02,
862,-1.20e-02,
863,1.60e-02,
864,-8.00e-03,
865,1.60e-02,
866,-8.00e-03,
867,2.00e-02,
868,-8.00e-03,
869,1.60e-02,
870,-8.00e-03,
871,1.60e-02,
872,1.60e-02,
873,-1.20e-02,
874,-8.00e-03,
875,1.60e-02,
876,-8.00e-03,
877,1.60e-02,
878,-8.00e-03,
879,1.60e-02,
880,1.60e-02,
881,-1.20e-02,
882,-8.00e-03,
883,1.60e-02,
884,1.60e-02,
885,-1.20e-02,
886,1.60e-02,
887,-8.00e-03,
888,-1.20e-02,
889,1.60e-02,
890,1.60e-02,
891,-1.20e-02,
892,-8.00e-03,
893,1.60e-02,
894,1.60e-02,
895,-1.20e-02,
896,-8.00e-03,
897,1.60e-02,
898,2.00e-02,
899,-1.20e-02,
900,-8.00e-03,
901,2.00e-02,
902,1.60e-02,
903,-1.20e-02,
904,-8.40e-02,
905,1.36e-01,
906,1.60e-02,
907,-8.00e-03,
908,-8.00e-03,
909,1.60e-02,
910,1.60e-02,
911,-8.00e-03,
912,1.60e-02,
913,-1.20e-02,
914,1.60e-02,
915,-1.20e-02,
916,-1.20e-02,
917,2.00e-02,
918,1.60e-02,
919,-1.20e-02,
920,-8.00e-03,
921,1.60e-02,
922,-8.00e-03,
923,2.00e-02,
924,1.60e-02,
925,-8.00e-03,
926,2.00e-02,
927,-1.20e-02,
928,-8.00e-03,
929,1.60e-02,
930,-8.00e-03,
931,1.60e-02,
932,-8.00e-03,
933,1.60e-02,
934,1.60e-02,
935,-8.00e-03,
936,-8.00e-03,
937,2.00e-02,
938,1.60e-02,
939,-1.20e-02,
940,1.60e-02,
941,-1.20e-02,
942,-1.20e-02,
943,1.60e-02,
944,-8.00e-03,
945,1.60e-02,
946,-8.00e-03,
947,1.60e-02,
948,1.60e-02,
949,-1.20e-02,
950,-8.00e-03,
951,1.60e-02,
952,1.60e-02,
953,-8.00e-03,
954,1.60e-02,
955,-1.20e-02,
956,-9.20e-02,
957,4.00e-02,
958,-8.00e-03,
959,1.60e-02,
960,1.60e-02,
961,-1.20e-02,
962,1.60e-02,
963,-1.20e-02,
964,1.60e-02,
965,-8.00e-03,
966,1.60e-02,
967,-1.20e-02,
968,-1.20e-02,
969,1.60e-02,
970,-1.20e-02,
971,2.00e-02,
972,-8.00e-03,
973,1.60e-02,
974,1.60e-02,
975,-1.20e-02,
976,-8.00e-03,
977,1.60e-02,
978,1.60e-02,
979,-8.00e-03,
980,-8.00e-03,
981,1.60e-02,
982,1.60e-02,
983,-8.00e-03,
984,1.60e-02,
985,-1.20e-02,
986,1.60e-02,
987,-1.20e-02,
988,-8.00e-03,
989,1.60e-02,
990,1.60e-02,
991,-1.20e-02,
992,-8.00e-03,
993,1.60e-02,
994,-1.20e-02,
995,1.60e-02,
996,1.60e-02,
997,-1.20e-02,
998,1.60e-02,
999,-1.20e-02,
1000,-8.00e-03,
1001,1.60e-02,
1002,-8.00e-03,
1003,1.60e-02,
1004,-8.00e-03,
1005,1.60e-02,
1006,-8.00e-03,
1007,1.60e-02,
1008,-1.60e-02,
1009,9.60e-02,
1010,5.60e-02,
1011,-4.00e-02,
1012,1.60e-02,
1013,-1.20e-02,
1014,1.60e-02,
1015,-1.20e-02,
1016,-8.00e-03,
1017,1.60e-02,
1018,1.60e-02,
1019,-1.20e-02,
1020,1.60e-02,
1021,-1.20e-02,
1022,1.60e-02,
1023,-1.20e-02,
1024,-8.00e-03,
1025,2.00e-02,
1026,-8.00e-03,
1027,1.60e-02,
1028,1.60e-02,
1029,-1.20e-02,
1030,1.60e-02,
1031,-8.00e-03,
1032,1.60e-02,
1033,-1.20e-02,
1034,1.60e-02,
1035,-1.20e-02,
1036,1.60e-02,
1037,-1.20e-02,
1038,-1.20e-02,
1039,2.00e-02,
1040,1.60e-02,
1041,-1.20e-02,
1042,1.60e-02,
1043,-1.20e-02,
1044,-8.00e-03,
1045,1.60e-02,
1046,1.60e-02,
1047,-1.20e-02,
1048,1.60e-02,
1049,-1.20e-02,
1050,1.60e-02,
1051,-1.20e-02,
1052,1.60e-02,
1053,-1.20e-02,
1054,1.60e-02,
1055,-8.00e-03,
1056,1.60e-02,
1057,-1.20e-02,
1058,1.60e-02,
1059,-8.00e-03,
1060,1.60e-02,
1061,-1.20e-02,
1062,-5.60e-02,
1063,3.60e-02,
1064,-1.20e-02,
1065,2.00e-02,
1066,1.60e-02,
1067,-1.20e-02,
1068,-8.00e-03,
1069,1.60e-02,
1070,-8.00e-03,
1071,1.60e-02,
1072,1.60e-02,
1073,-8.00e-03,
1074,-1.20e-02,
1075,1.60e-02,
1076,-8.00e-03,
1077,1.60e-02,
1078,1.60e-02,
1079,-1.20e-02,
1080,-1.20e-02,
1081,2.00e-02,
1082,1.60e-02,
1083,-1.20e-02,
1084,-8.00e-03,
1085,1.60e-02,
1086,-8.00e-03,
1087,1.60e-02,
1088,1.60e-02,
1089,-1.60e-02,
1090,-8.00e-03,
1091,1.60e-02,
1092,1.60e-02,
1093,-1.20e-02,
1094,-8.00e-03,
1095,1.60e-02,
1096,-1.20e-02,
1097,1.60e-02,
1098,1.60e-02,
1099,-1.20e-02,
1100,-8.00e-03,
1101,1.60e-02,
1102,1.60e-02,
1103,-1.20e-02,
1104,-8.00e-03,
1105,1.60e-02,
1106,1.60e-02,
1107,-1.20e-02,
1108,1.60e-02,
1109,-1.20e-02,
1110,-8.00e-03,
1111,1.60e-02,
1112,-8.00e-03,
1113,1.60e-02,
1114,-1.40e-01,
1115,2.40e-02,
1116,1.60e-02,
1117,-1.20e-02,
1118,-8.00e-03,
1119,2.00e-02,
1120,1.60e-02,
1121,-1.20e-02,
1122,-8.00e-03,
1123,1.60e-02,
1124,-8.00e-03,
1125,1.60e-02,
1126,1.60e-02,
1127,-1.20e-02,
1128,1.60e-02,
1129,-1.20e-02,
1130,1.60e-02,
1131,-1.20e-02,
1132,1.60e-02,
1133,-1.20e-02,
1134,-8.00e-03,
1135,1.60e-02,
1136,-1.20e-02,
1137,1.60e-02,
1138,-1.20e-02,
1139,1.60e-02,
1140,2.00e-02,
1141,-1.20e-02,
1142,1.60e-02,
1143,-1.20e-02,
1144,1.60e-02,
1145,-1.20e-02,
1146,1.60e-02,
1147,-1.20e-02,
1148,1.60e-02,
1149,-1.20e-02,
1150,-8.00e-03,
1151,1.60e-02,
1152,-8.00e-03,
1153,1.60e-02,
1154,1.60e-02,
1155,-1.20e-02,
1156,-8.00e-03,
1157,1.60e-02,
1158,1.60e-02,
1159,-1.20e-02,
1160,1.60e-02,
1161,-1.20e-02,
1162,1.60e-02,
1163,-1.20e-02,
1164,1.60e-02,
1165,-1.20e-02,
1166,1.16e-01,
1167,-8.40e-02,
1168,1.60e-02,
1169,-1.20e-02,
1170,1.60e-02,
1171,-8.00e-03,
1172,1.60e-02,
1173,-8.00e-03,
1174,1.60e-02,
1175,-1.20e-02,
1176,1.60e-02,
1177,-1.20e-02,
1178,1.60e-02,
1179,-1.20e-02,
1180,-8.00e-03,
1181,1.60e-02,
1182,1.60e-02,
1183,-1.20e-02,
1184,-1.20e-02,
1185,2.00e-02,
1186,2.00e-02,
1187,-1.20e-02,
1188,1.60e-02,
1189,-1.20e-02,
1190,-8.00e-03,
1191,1.60e-02,
1192,1.60e-02,
1193,-1.20e-02,
1194,-8.00e-03,
1195,1.60e-02,
1196,1.60e-02,
1197,-1.20e-02,
1198,1.60e-02,
1199,-1.20e-02,
