Laptop_2/LAPTOP_CHRGR_2_OFF/time domain/NewFile10.csv

X,CH1,Start,Increment,
Sequence,Volt,-1.500000e-01,2.000000e-04
0,-4.00e-03,
1,1.20e-02,
2,-4.00e-03,
3,1.20e-02,
4,-4.00e-03,
5,1.20e-02,
6,-4.00e-03,
7,1.20e-02,
8,-4.00e-03,
9,1.20e-02,
10,-4.00e-03,
11,1.20e-02,
12,-4.00e-03,
13,1.20e-02,
14,-4.00e-03,
15,1.20e-02,
16,-4.00e-03,
17,1.20e-02,
18,-4.00e-03,
19,1.20e-02,
20,-4.00e-03,
21,1.20e-02,
22,-4.00e-03,
23,1.20e-02,
24,-4.00e-03,
25,1.60e-02,
26,1.20e-02,
27,-8.00e-03,
28,-4.00e-03,
29,1.20e-02,
30,1.20e-02,
31,-8.00e-03,
32,-4.00e-03,
33,1.20e-02,
34,-4.00e-03,
35,1.20e-02,
36,1.20e-02,
37,-8.00e-03,
38,-4.00e-03,
39,1.20e-02,
40,-4.00e-03,
41,1.20e-02,
42,1.20e-02,
43,-4.00e-03,
44,-4.00e-03,
45,1.20e-02,
46,-4.00e-03,
47,1.20e-02,
48,-4.00e-03,
49,1.20e-02,
50,-4.00e-03,
51,1.20e-02,
52,1.20e-02,
53,-4.00e-03,
54,-4.00e-03,
55,1.20e-02,
56,-4.00e-03,
57,1.20e-02,
58,1.20e-02,
59,-4.00e-03,
60,-4.00e-03,
61,1.20e-02,
62,1.20e-02,
63,-8.00e-03,
64,1.20e-02,
65,-8.00e-03,
66,-4.00e-03,
67,1.20e-02,
68,-4.00e-03,
69,1.20e-02,
70,1.20e-02,
71,-8.00e-03,
72,1.20e-02,
73,-8.00e-03,
74,-8.00e-03,
75,1.60e-02,
76,-3.60e-02,
77,1.60e-02,
78,-4.00e-03,
79,2.40e-02,
80,-4.00e-03,
81,1.20e-02,
82,-4.00e-03,
83,1.20e-02,
84,-4.00e-03,
85,1.20e-02,
86,-4.00e-03,
87,1.20e-02,
88,-4.00e-03,
89,1.20e-02,
90,-4.00e-03,
91,1.20e-02,
92,-4.00e-03,
93,1.20e-02,
94,-4.00e-03,
95,1.20e-02,
96,-4.00e-03,
97,1.20e-02,
98,1.20e-02,
99,-4.00e-03,
100,-4.00e-03,
101,1.20e-02,
102,-4.00e-03,
103,1.20e-02,
104,-4.00e-03,
105,1.20e-02,
106,-4.00e-03,
107,1.20e-02,
108,-4.00e-03,
109,1.20e-02,
110,-4.00e-03,
111,1.20e-02,
112,-4.00e-03,
113,1.20e-02,
114,-4.00e-03,
115,1.20e-02,
116,-4.00e-03,
117,1.20e-02,
118,-4.00e-03,
119,1.20e-02,
120,-8.00e-03,
121,1.20e-02,
122,-4.00e-03,
123,1.20e-02,
124,-4.00e-03,
125,1.20e-02,
126,-4.00e-03,
127,1.20e-02,
128,-4.00e-03,
129,1.20e-02,
130,4.80e-02,
131,-1.60e-02,
132,-4.00e-03,
133,1.20e-02,
134,1.20e-02,
135,-4.00e-03,
136,-4.00e-03,
137,1.20e-02,
138,-4.00e-03,
139,1.20e-02,
140,-4.00e-03,
141,1.20e-02,
142,-4.00e-03,
143,1.20e-02,
144,1.20e-02,
145,-4.00e-03,
146,1.20e-02,
147,-4.00e-03,
148,-4.00e-03,
149,1.20e-02,
150,-4.00e-03,
151,1.20e-02,
152,-4.00e-03,
153,1.20e-02,
154,1.20e-02,
155,-8.00e-03,
156,-4.00e-03,
157,1.20e-02,
158,-4.00e-03,
159,1.20e-02,
160,-4.00e-03,
161,1.20e-02,
162,-4.00e-03,
163,1.20e-02,
164,-8.00e-03,
165,1.20e-02,
166,-4.00e-03,
167,1.20e-02,
168,-4.00e-03,
169,1.20e-02,
170,-4.00e-03,
171,1.20e-02,
172,-4.00e-03,
173,1.20e-02,
174,-4.00e-03,
175,1.20e-02,
176,-4.00e-03,
177,1.20e-02,
178,-4.00e-03,
179,1.20e-02,
180,-4.00e-03,
181,1.20e-02,
182,-6.80e-02,
183,3.20e-02,
184,-4.00e-03,
185,1.20e-02,
186,-4.00e-03,
187,1.20e-02,
188,-4.00e-03,
189,1.20e-02,
190,1.20e-02,
191,-8.00e-03,
192,1.20e-02,
193,-4.00e-03,
194,-4.00e-03,
195,1.20e-02,
196,-4.00e-03,
197,1.20e-02,
198,-8.00e-03,
199,1.20e-02,
200,-4.00e-03,
201,1.20e-02,
202,1.20e-02,
203,-8.00e-03,
204,-4.00e-03,
205,1.20e-02,
206,-4.00e-03,
207,1.20e-02,
208,-4.00e-03,
209,1.20e-02,
210,-4.00e-03,
211,1.20e-02,
212,-4.00e-03,
213,1.20e-02,
214,-4.00e-03,
215,1.20e-02,
216,-4.00e-03,
217,1.20e-02,
218,-4.00e-03,
219,1.20e-02,
220,-4.00e-03,
221,1.20e-02,
222,1.20e-02,
223,-4.00e-03,
224,-4.00e-03,
225,1.20e-02,
226,-4.00e-03,
227,1.60e-02,
228,-4.00e-03,
229,1.20e-02,
230,-4.00e-03,
231,1.20e-02,
232,-4.00e-03,
233,1.20e-02,
234,-4.00e-02,
235,2.40e-02,
236,1.20e-02,
237,-4.00e-03,
238,1.20e-02,
239,-8.00e-03,
240,1.20e-02,
241,-4.00e-03,
242,1.20e-02,
243,-8.00e-03,
244,-8.00e-03,
245,1.20e-02,
246,-4.00e-03,
247,1.20e-02,
248,-4.00e-03,
249,1.20e-02,
250,-4.00e-03,
251,1.20e-02,
252,-4.00e-03,
253,1.20e-02,
254,-4.00e-03,
255,1.20e-02,
256,-4.00e-03,
257,1.20e-02,
258,-4.00e-03,
259,1.20e-02,
260,-4.00e-03,
261,1.20e-02,
262,-4.00e-03,
263,1.20e-02,
264,-4.00e-03,
265,1.20e-02,
266,-4.00e-03,
267,1.20e-02,
268,-4.00e-03,
269,1.20e-02,
270,-4.00e-03,
271,1.20e-02,
272,-4.00e-03,
273,1.20e-02,
274,-4.00e-03,
275,1.20e-02,
276,-4.00e-03,
277,1.20e-02,
278,-4.00e-03,
279,1.20e-02,
280,1.20e-02,
281,-4.00e-03,
282,-4.00e-03,
283,1.20e-02,
284,1.20e-02,
285,-4.00e-03,
286,-8.00e-02,
287,2.00e-02,
288,-4.00e-03,
289,2.00e-02,
290,-4.00e-03,
291,1.20e-02,
292,-4.00e-03,
293,1.20e-02,
294,-4.00e-03,
295,1.20e-02,
296,-4.00e-03,
297,1.20e-02,
298,-4.00e-03,
299,1.20e-02,
300,-4.00e-03,
301,1.20e-02,
302,-4.00e-03,
303,1.20e-02,
304,-4.00e-03,
305,1.20e-02,
306,1.20e-02,
307,-4.00e-03,
308,-4.00e-03,
309,1.20e-02,
310,-4.00e-03,
311,1.20e-02,
312,-4.00e-03,
313,1.20e-02,
314,1.20e-02,
315,-4.00e-03,
316,-4.00e-03,
317,1.20e-02,
318,-4.00e-03,
319,1.20e-02,
320,-4.00e-03,
321,1.20e-02,
322,-4.00e-03,
323,1.60e-02,
324,1.20e-02,
325,-8.00e-03,
326,-4.00e-03,
327,1.20e-02,
328,-4.00e-03,
329,1.20e-02,
330,-4.00e-03,
331,1.20e-02,
332,-4.00e-03,
333,1.20e-02,
334,-4.00e-03,
335,1.20e-02,
336,-4.00e-03,
337,1.20e-02,
338,-4.00e-03,
339,1.20e-02,
340,4.80e-02,
341,-1.20e-02,
342,-4.00e-03,
343,1.20e-02,
344,-4.00e-03,
345,1.20e-02,
346,-4.00e-03,
347,1.20e-02,
348,1.20e-02,
349,-4.00e-03,
350,-4.00e-03,
351,1.20e-02,
352,-4.00e-03,
353,1.20e-02,
354,-4.00e-03,
355,1.20e-02,
356,1.20e-02,
357,-4.00e-03,
358,-4.00e-03,
359,1.20e-02,
360,1.20e-02,
361,-8.00e-03,
362,-4.00e-03,
363,1.20e-02,
364,1.20e-02,
365,-8.00e-03,
366,-4.00e-03,
367,1.20e-02,
368,-4.00e-03,
369,1.20e-02,
370,-4.00e-03,
371,1.20e-02,
372,-4.00e-03,
373,1.20e-02,
374,-4.00e-03,
375,1.20e-02,
376,-4.00e-03,
377,1.20e-02,
378,-4.00e-03,
379,1.20e-02,
380,1.20e-02,
381,-4.00e-03,
382,-4.00e-03,
383,1.20e-02,
384,-4.00e-03,
385,1.20e-02,
386,-4.00e-03,
387,1.20e-02,
388,-4.00e-03,
389,1.20e-02,
390,-4.00e-03,
391,1.20e-02,
392,-4.00e-03,
393,6.00e-02,
394,-4.00e-03,
395,1.20e-02,
396,1.20e-02,
397,-8.00e-03,
398,1.20e-02,
399,-4.00e-03,
400,-4.00e-03,
401,1.20e-02,
402,-4.00e-03,
403,1.20e-02,
404,-4.00e-03,
405,1.20e-02,
406,-4.00e-03,
407,1.60e-02,
408,-8.00e-03,
409,1.20e-02,
410,-4.00e-03,
411,1.20e-02,
412,1.20e-02,
413,-8.00e-03,
414,-4.00e-03,
415,1.20e-02,
416,-4.00e-03,
417,1.20e-02,
418,1.20e-02,
419,-8.00e-03,
420,-4.00e-03,
421,1.20e-02,
422,-4.00e-03,
423,1.20e-02,
424,-4.00e-03,
425,1.20e-02,
426,-4.00e-03,
427,1.20e-02,
428,-4.00e-03,
429,1.20e-02,
430,1.20e-02,
431,-4.00e-03,
432,-4.00e-03,
433,1.20e-02,
434,1.20e-02,
435,-4.00e-03,
436,1.20e-02,
437,-4.00e-03,
438,-4.00e-03,
439,1.20e-02,
440,-4.00e-03,
441,1.20e-02,
442,-4.00e-03,
443,1.20e-02,
444,-8.00e-03,
445,5.60e-02,
446,-4.00e-03,
447,1.20e-02,
448,-8.00e-03,
449,1.60e-02,
450,-4.00e-03,
451,1.20e-02,
452,-4.00e-03,
453,1.20e-02,
454,1.20e-02,
455,-8.00e-03,
456,-4.00e-03,
457,1.20e-02,
458,-4.00e-03,
459,1.20e-02,
460,-4.00e-03,
461,1.20e-02,
462,-4.00e-03,
463,1.20e-02,
464,-4.00e-03,
465,1.20e-02,
466,-4.00e-03,
467,1.20e-02,
468,-4.00e-03,
469,1.20e-02,
470,-4.00e-03,
471,1.20e-02,
472,-4.00e-03,
473,1.20e-02,
474,1.20e-02,
475,-4.00e-03,
476,1.20e-02,
477,-8.00e-03,
478,-4.00e-03,
479,1.20e-02,
480,-4.00e-03,
481,1.20e-02,
482,-4.00e-03,
483,1.20e-02,
484,-4.00e-03,
485,1.20e-02,
486,1.20e-02,
487,-8.00e-03,
488,1.20e-02,
489,-4.00e-03,
490,1.20e-02,
491,-8.00e-03,
492,-4.00e-03,
493,1.60e-02,
494,-4.00e-03,
495,1.20e-02,
496,1.60e-02,
497,-7.20e-02,
498,3.60e-02,
499,-1.20e-02,
500,-4.00e-03,
501,1.20e-02,
502,-4.00e-03,
503,1.20e-02,
504,-4.00e-03,
505,1.20e-02,
506,1.20e-02,
507,-4.00e-03,
508,-4.00e-03,
509,1.20e-02,
510,-4.00e-03,
511,1.20e-02,
512,1.20e-02,
513,-4.00e-03,
514,1.20e-02,
515,-8.00e-03,
516,-4.00e-03,
517,1.20e-02,
518,1.20e-02,
519,-8.00e-03,
520,-4.00e-03,
521,1.60e-02,
522,-4.00e-03,
523,1.20e-02,
524,-4.00e-03,
525,1.20e-02,
526,-4.00e-03,
527,1.20e-02,
528,1.20e-02,
529,-8.00e-03,
530,-4.00e-03,
531,1.20e-02,
532,1.60e-02,
533,-8.00e-03,
534,-4.00e-03,
535,1.20e-02,
536,-4.00e-03,
537,1.20e-02,
538,1.20e-02,
539,-8.00e-03,
540,-4.00e-03,
541,1.20e-02,
542,1.20e-02,
543,-8.00e-03,
544,-4.00e-03,
545,1.20e-02,
546,-4.00e-03,
547,1.20e-02,
548,-4.00e-03,
549,1.20e-02,
550,2.80e-02,
551,-1.20e-02,
552,-4.00e-03,
553,1.20e-02,
554,1.20e-02,
555,-8.00e-03,
556,1.20e-02,
557,-4.00e-03,
558,-4.00e-03,
559,1.20e-02,
560,-4.00e-03,
561,1.20e-02,
562,-4.00e-03,
563,1.20e-02,
564,-4.00e-03,
565,1.20e-02,
566,-4.00e-03,
567,1.20e-02,
568,-4.00e-03,
569,1.20e-02,
570,-8.00e-03,
571,1.60e-02,
572,1.20e-02,
573,-8.00e-03,
574,1.20e-02,
575,-8.00e-03,
576,1.20e-02,
577,-8.00e-03,
578,-4.00e-03,
579,1.20e-02,
580,-8.00e-03,
581,1.60e-02,
582,-4.00e-03,
583,1.20e-02,
584,-4.00e-03,
585,1.20e-02,
586,-4.00e-03,
587,1.20e-02,
588,-4.00e-03,
589,1.20e-02,
590,1.20e-02,
591,-4.00e-03,
592,-4.00e-03,
593,1.20e-02,
594,-4.00e-03,
595,1.20e-02,
596,-4.00e-03,
597,1.20e-02,
598,-4.00e-03,
599,1.20e-02,
600,-4.00e-03,
601,1.20e-02,
602,-8.00e-03,
603,5.60e-02,
604,-4.00e-03,
605,1.20e-02,
606,-4.00e-03,
607,1.20e-02,
608,-4.00e-03,
609,1.20e-02,
610,-4.00e-03,
611,1.20e-02,
612,1.20e-02,
613,-8.00e-03,
614,1.20e-02,
615,-8.00e-03,
616,-8.00e-03,
617,1.60e-02,
618,-4.00e-03,
619,1.20e-02,
620,1.60e-02,
621,-8.00e-03,
622,-8.00e-03,
623,1.20e-02,
624,-4.00e-03,
625,1.20e-02,
626,-4.00e-03,
627,1.20e-02,
628,-4.00e-03,
629,1.20e-02,
630,-4.00e-03,
631,1.20e-02,
632,-4.00e-03,
633,1.20e-02,
634,-4.00e-03,
635,1.20e-02,
636,-4.00e-03,
637,8.00e-03,
638,-4.00e-03,
639,1.20e-02,
640,-4.00e-03,
641,1.20e-02,
642,-4.00e-03,
643,1.20e-02,
644,1.20e-02,
645,-8.00e-03,
646,1.20e-02,
647,-4.00e-03,
648,-4.00e-03,
649,1.20e-02,
650,-4.00e-03,
651,1.20e-02,
652,1.20e-02,
653,-8.00e-03,
654,1.20e-02,
655,-8.00e-03,
656,-7.20e-02,
657,1.60e-02,
658,-8.00e-03,
659,1.20e-02,
660,-4.00e-03,
661,1.60e-02,
662,-4.00e-03,
663,1.20e-02,
664,-4.00e-03,
665,1.20e-02,
666,-4.00e-03,
667,1.20e-02,
668,-4.00e-03,
669,1.20e-02,
670,-4.00e-03,
671,1.20e-02,
672,-4.00e-03,
673,1.20e-02,
674,1.20e-02,
675,-4.00e-03,
676,-4.00e-03,
677,1.20e-02,
678,1.20e-02,
679,-4.00e-03,
680,-4.00e-03,
681,1.20e-02,
682,-4.00e-03,
683,1.20e-02,
684,-4.00e-03,
685,1.20e-02,
686,-4.00e-03,
687,1.20e-02,
688,-4.00e-03,
689,1.20e-02,
690,8.00e-03,
691,-8.00e-03,
692,-4.00e-03,
693,1.20e-02,
694,8.00e-03,
695,-4.00e-03,
696,-4.00e-03,
697,1.20e-02,
698,1.20e-02,
699,-8.00e-03,
700,-4.00e-03,
701,1.20e-02,
702,-8.00e-03,
703,1.20e-02,
704,-8.00e-03,
705,1.20e-02,
706,-4.00e-03,
707,1.20e-02,
708,1.20e-02,
709,-9.20e-02,
710,-4.40e-02,
711,1.20e-02,
712,-4.00e-03,
713,1.20e-02,
714,-4.00e-03,
715,1.20e-02,
716,-4.00e-03,
717,1.20e-02,
718,-4.00e-03,
719,1.20e-02,
720,-4.00e-03,
721,1.20e-02,
722,-4.00e-03,
723,1.20e-02,
724,-4.00e-03,
725,1.20e-02,
726,-4.00e-03,
727,1.20e-02,
728,-4.00e-03,
729,1.20e-02,
730,-4.00e-03,
731,1.20e-02,
732,1.20e-02,
733,-8.00e-03,
734,-4.00e-03,
735,1.20e-02,
736,-4.00e-03,
737,1.20e-02,
738,-8.00e-03,
739,1.20e-02,
740,-8.00e-03,
741,1.20e-02,
742,1.20e-02,
743,-8.00e-03,
744,1.20e-02,
745,-8.00e-03,
746,1.20e-02,
747,-8.00e-03,
748,8.00e-03,
749,-8.00e-03,
750,-4.00e-03,
751,1.20e-02,
752,-4.00e-03,
753,1.20e-02,
754,-4.00e-03,
755,1.20e-02,
756,-4.00e-03,
757,1.20e-02,
758,-4.00e-03,
759,1.20e-02,
760,-4.00e-03,
761,1.20e-02,
762,3.20e-02,
763,-1.20e-02,
764,-4.00e-03,
765,1.20e-02,
766,-4.00e-03,
767,1.20e-02,
768,-4.00e-03,
769,1.20e-02,
770,-4.00e-03,
771,1.20e-02,
772,1.20e-02,
773,-4.00e-03,
774,-4.00e-03,
775,1.20e-02,
776,-4.00e-03,
777,1.20e-02,
778,-4.00e-03,
779,1.20e-02,
780,-4.00e-03,
781,1.20e-02,
782,1.20e-02,
783,-4.00e-03,
784,-4.00e-03,
785,1.20e-02,
786,1.20e-02,
787,-8.00e-03,
788,1.20e-02,
789,-8.00e-03,
790,-4.00e-03,
791,1.20e-02,
792,-4.00e-03,
793,1.20e-02,
794,1.20e-02,
795,-4.00e-03,
796,-4.00e-03,
797,1.20e-02,
798,-4.00e-03,
799,1.20e-02,
800,-4.00e-03,
801,1.20e-02,
802,-4.00e-03,
803,1.20e-02,
804,1.20e-02,
805,-4.00e-03,
806,-4.00e-03,
807,1.20e-02,
808,1.20e-02,
809,-4.00e-03,
810,-4.00e-03,
811,1.20e-02,
812,-8.00e-03,
813,1.20e-02,
814,1.60e-02,
815,-3.60e-02,
816,-4.00e-03,
817,1.20e-02,
818,-4.00e-03,
819,1.20e-02,
820,1.60e-02,
821,-8.00e-03,
822,-4.00e-03,
823,1.20e-02,
824,-4.00e-03,
825,1.20e-02,
826,1.20e-02,
827,-8.00e-03,
828,-4.00e-03,
829,1.20e-02,
830,1.20e-02,
831,-8.00e-03,
832,1.20e-02,
833,-4.00e-03,
834,-4.00e-03,
835,1.20e-02,
836,-4.00e-03,
837,1.20e-02,
838,1.20e-02,
839,-4.00e-03,
840,-4.00e-03,
841,1.20e-02,
842,-4.00e-03,
843,1.20e-02,
844,-4.00e-03,
845,1.20e-02,
846,1.20e-02,
847,-4.00e-03,
848,-4.00e-03,
849,1.20e-02,
850,-4.00e-03,
851,1.20e-02,
852,1.20e-02,
853,-4.00e-03,
854,1.20e-02,
855,-4.00e-03,
856,-4.00e-03,
857,1.20e-02,
858,-4.00e-03,
859,1.20e-02,
860,-4.00e-03,
861,1.20e-02,
862,-4.00e-03,
863,1.60e-02,
864,-4.00e-03,
865,1.20e-02,
866,-4.00e-03,
867,1.60e-02,
868,-4.00e-03,
869,3.60e-02,
870,-4.00e-03,
871,1.60e-02,
872,-4.00e-03,
873,1.20e-02,
874,-4.00e-03,
875,1.20e-02,
876,1.20e-02,
877,-4.00e-03,
878,-4.00e-03,
879,1.20e-02,
880,-4.00e-03,
881,1.20e-02,
882,-4.00e-03,
883,1.20e-02,
884,-4.00e-03,
885,1.20e-02,
886,-4.00e-03,
887,1.20e-02,
888,-4.00e-03,
889,1.20e-02,
890,-4.00e-03,
891,1.20e-02,
892,1.20e-02,
893,-8.00e-03,
894,-4.00e-03,
895,1.20e-02,
896,-4.00e-03,
897,1.20e-02,
898,1.20e-02,
899,-4.00e-03,
900,-4.00e-03,
901,1.60e-02,
902,1.60e-02,
903,-4.00e-03,
904,1.20e-02,
905,-4.00e-03,
906,1.20e-02,
907,-8.00e-03,
908,-4.00e-03,
909,1.20e-02,
910,1.20e-02,
911,-4.00e-03,
912,-4.00e-03,
913,1.20e-02,
914,-4.00e-03,
915,1.20e-02,
916,1.20e-02,
917,-4.00e-03,
918,-4.00e-03,
919,1.20e-02,
920,8.80e-02,
921,-2.80e-02,
922,-4.00e-03,
923,1.20e-02,
924,-4.00e-03,
925,1.20e-02,
926,-4.00e-03,
927,1.20e-02,
928,-4.00e-03,
929,1.20e-02,
930,-4.00e-03,
931,1.20e-02,
932,1.20e-02,
933,-4.00e-03,
934,-4.00e-03,
935,1.20e-02,
936,-4.00e-03,
937,1.20e-02,
938,-4.00e-03,
939,1.20e-02,
940,1.20e-02,
941,-4.00e-03,
942,-4.00e-03,
943,1.20e-02,
944,-4.00e-03,
945,1.20e-02,
946,1.60e-02,
947,-8.00e-03,
948,1.20e-02,
949,-8.00e-03,
950,-4.00e-03,
951,1.60e-02,
952,1.20e-02,
953,-8.00e-03,
954,-4.00e-03,
955,1.20e-02,
956,-4.00e-03,
957,1.20e-02,
958,-4.00e-03,
959,1.20e-02,
960,-4.00e-03,
961,1.20e-02,
962,-4.00e-03,
963,1.20e-02,
964,-4.00e-03,
965,1.20e-02,
966,-4.00e-03,
967,1.20e-02,
968,-4.00e-03,
969,1.20e-02,
970,-4.00e-03,
971,1.20e-02,
972,-4.00e-03,
973,1.20e-02,
974,1.60e-02,
975,-4.80e-02,
976,-4.00e-03,
977,1.20e-02,
978,-4.00e-03,
979,1.20e-02,
980,1.20e-02,
981,-8.00e-03,
982,-4.00e-03,
983,1.20e-02,
984,-4.00e-03,
985,1.20e-02,
986,-4.00e-03,
987,1.60e-02,
988,-4.00e-03,
989,1.20e-02,
990,-4.00e-03,
991,1.20e-02,
992,-8.00e-03,
993,1.20e-02,
994,1.20e-02,
995,-8.00e-03,
996,-4.00e-03,
997,1.20e-02,
998,-4.00e-03,
999,1.20e-02,
1000,1.20e-02,
1001,-4.00e-03,
1002,-4.00e-03,
1003,1.20e-02,
1004,1.20e-02,
1005,-4.00e-03,
1006,-4.00e-03,
1007,1.20e-02,
1008,-4.00e-03,
1009,1.20e-02,
1010,-4.00e-03,
1011,1.20e-02,
1012,-4.00e-03,
1013,1.20e-02,
1014,1.20e-02,
1015,-4.00e-03,
1016,-4.00e-03,
1017,1.20e-02,
1018,-4.00e-03,
1019,1.20e-02,
1020,1.20e-02,
1021,-4.00e-03,
1022,-4.00e-03,
1023,1.20e-02,
1024,1.20e-02,
1025,-4.00e-03,
1026,1.60e-02,
1027,-8.00e-03,
1028,-3.60e-02,
1029,1.20e-02,
1030,1.60e-02,
1031,-8.00e-03,
1032,1.20e-02,
1033,-8.00e-03,
1034,-4.00e-03,
1035,1.20e-02,
1036,-4.00e-03,
1037,1.20e-02,
1038,-4.00e-03,
1039,1.20e-02,
1040,-4.00e-03,
1041,1.20e-02,
1042,-4.00e-03,
1043,1.20e-02,
1044,-4.00e-03,
1045,1.20e-02,
1046,-4.00e-03,
1047,1.20e-02,
1048,1.20e-02,
1049,-4.00e-03,
1050,1.20e-02,
1051,-4.00e-03,
1052,-4.00e-03,
1053,1.20e-02,
1054,-4.00e-03,
1055,1.20e-02,
1056,1.20e-02,
1057,-8.00e-03,
1058,1.20e-02,
1059,-4.00e-03,
1060,-4.00e-03,
1061,1.20e-02,
1062,-4.00e-03,
1063,1.20e-02,
1064,1.20e-02,
1065,-4.00e-03,
1066,1.20e-02,
1067,-4.00e-03,
1068,1.20e-02,
1069,-8.00e-03,
1070,-4.00e-03,
1071,1.20e-02,
1072,-4.00e-03,
1073,1.20e-02,
1074,1.20e-02,
1075,-8.00e-03,
1076,-4.00e-03,
1077,1.20e-02,
1078,-2.00e-02,
1079,2.80e-02,
1080,3.20e-02,
1081,-1.20e-02,
1082,-4.00e-03,
1083,1.20e-02,
1084,-4.00e-03,
1085,1.20e-02,
1086,-4.00e-03,
1087,1.20e-02,
1088,-4.00e-03,
1089,1.20e-02,
1090,-4.00e-03,
1091,8.00e-03,
1092,-4.00e-03,
1093,1.20e-02,
1094,-4.00e-03,
1095,1.20e-02,
1096,-4.00e-03,
1097,1.20e-02,
1098,1.20e-02,
1099,-4.00e-03,
1100,-4.00e-03,
1101,1.20e-02,
1102,-4.00e-03,
1103,1.20e-02,
1104,-4.00e-03,
1105,1.20e-02,
1106,-4.00e-03,
1107,1.20e-02,
1108,1.20e-02,
1109,-4.00e-03,
1110,-4.00e-03,
1111,1.20e-02,
1112,-4.00e-03,
1113,1.20e-02,
1114,1.20e-02,
1115,-4.00e-03,
1116,1.20e-02,
1117,-8.00e-03,
1118,-4.00e-03,
1119,1.20e-02,
1120,-4.00e-03,
1121,1.20e-02,
1122,1.20e-02,
1123,-4.00e-03,
1124,-4.00e-03,
1125,1.20e-02,
1126,-4.00e-03,
1127,1.20e-02,
1128,-4.00e-03,
1129,1.20e-02,
1130,-4.00e-03,
1131,1.20e-02,
1132,6.40e-02,
1133,-8.00e-03,
1134,-4.00e-03,
1135,1.20e-02,
1136,-4.00e-03,
1137,1.20e-02,
1138,-4.00e-03,
1139,1.20e-02,
1140,-4.00e-03,
1141,1.20e-02,
1142,-4.00e-03,
1143,1.20e-02,
1144,1.20e-02,
1145,-4.00e-03,
1146,1.20e-02,
1147,-8.00e-03,
1148,-4.00e-03,
1149,1.20e-02,
1150,1.20e-02,
1151,-8.00e-03,
1152,-4.00e-03,
1153,1.20e-02,
1154,-4.00e-03,
1155,1.20e-02,
1156,1.20e-02,
1157,-8.00e-03,
1158,-4.00e-03,
1159,1.20e-02,
1160,1.20e-02,
1161,-4.00e-03,
1162,1.20e-02,
1163,-8.00e-03,
1164,-4.00e-03,
1165,1.20e-02,
1166,-4.00e-03,
1167,1.20e-02,
1168,-4.00e-03,
1169,1.20e-02,
1170,-4.00e-03,
1171,1.20e-02,
1172,-4.00e-03,
1173,1.20e-02,
1174,-4.00e-03,
1175,1.20e-02,
1176,1.20e-02,
1177,-4.00e-03,
1178,-4.00e-03,
1179,1.20e-02,
1180,-4.00e-03,
1181,1.20e-02,
1182,-4.00e-03,
1183,1.20e-02,
1184,1.20e-02,
1185,-8.00e-02,
1186,-4.00e-03,
1187,3.60e-02,
1188,-4.00e-03,
1189,1.20e-02,
1190,-4.00e-03,
1191,1.20e-02,
1192,-4.00e-03,
1193,1.20e-02,
1194,-4.00e-03,
1195,1.20e-02,
1196,-8.00e-03,
1197,1.20e-02,
1198,1.20e-02,
1199,-8.00e-03,
