Laptop_2/LAPTOP_CHRGR_2_OFF/time domain/NewFile23.csv

X,CH1,Start,Increment,
Sequence,Volt,-1.500000e-01,2.000000e-04
0,1.60e-02,
1,-1.20e-02,
2,1.60e-02,
3,-1.20e-02,
4,1.60e-02,
5,-1.20e-02,
6,1.60e-02,
7,-1.20e-02,
8,1.60e-02,
9,-1.20e-02,
10,1.60e-02,
11,-1.20e-02,
12,1.60e-02,
13,-1.20e-02,
14,1.60e-02,
15,-1.20e-02,
16,1.60e-02,
17,-1.20e-02,
18,7.60e-02,
19,-3.20e-02,
20,1.60e-02,
21,-1.20e-02,
22,1.60e-02,
23,-8.00e-03,
24,-8.00e-03,
25,1.60e-02,
26,-8.00e-03,
27,1.60e-02,
28,-8.00e-03,
29,1.60e-02,
30,1.60e-02,
31,-1.20e-02,
32,-8.00e-03,
33,2.00e-02,
34,-8.00e-03,
35,1.60e-02,
36,1.60e-02,
37,-8.00e-03,
38,2.00e-02,
39,-1.20e-02,
40,1.60e-02,
41,-8.00e-03,
42,1.60e-02,
43,-1.20e-02,
44,-8.00e-03,
45,2.00e-02,
46,1.60e-02,
47,-8.00e-03,
48,-8.00e-03,
49,1.60e-02,
50,1.60e-02,
51,-8.00e-03,
52,1.60e-02,
53,-1.20e-02,
54,-8.00e-03,
55,1.60e-02,
56,-8.00e-03,
57,1.60e-02,
58,-8.00e-03,
59,1.60e-02,
60,-8.00e-03,
61,2.00e-02,
62,-8.00e-03,
63,1.60e-02,
64,1.60e-02,
65,-1.20e-02,
66,-8.00e-03,
67,2.00e-02,
68,-8.00e-03,
69,1.60e-02,
70,-1.20e-02,
71,2.80e-02,
72,3.20e-02,
73,-3.20e-02,
74,-8.00e-03,
75,1.60e-02,
76,1.60e-02,
77,-1.20e-02,
78,1.60e-02,
79,-1.20e-02,
80,1.60e-02,
81,-1.20e-02,
82,-8.00e-03,
83,1.60e-02,
84,1.60e-02,
85,-1.20e-02,
86,1.60e-02,
87,-1.20e-02,
88,1.60e-02,
89,-1.20e-02,
90,1.60e-02,
91,-1.20e-02,
92,1.60e-02,
93,-1.20e-02,
94,1.60e-02,
95,-1.20e-02,
96,-8.00e-03,
97,1.60e-02,
98,1.60e-02,
99,-1.20e-02,
100,1.60e-02,
101,-1.20e-02,
102,-8.00e-03,
103,1.60e-02,
104,-8.00e-03,
105,1.60e-02,
106,2.00e-02,
107,-1.20e-02,
108,-1.20e-02,
109,2.00e-02,
110,1.60e-02,
111,-1.20e-02,
112,1.60e-02,
113,-1.20e-02,
114,1.60e-02,
115,-1.20e-02,
116,-8.00e-03,
117,2.00e-02,
118,1.60e-02,
119,-1.20e-02,
120,-8.00e-03,
121,1.60e-02,
122,1.60e-02,
123,-1.20e-02,
124,1.00e-01,
125,-1.60e-02,
126,1.60e-02,
127,-1.20e-02,
128,-8.00e-03,
129,1.60e-02,
130,1.60e-02,
131,-1.20e-02,
132,1.60e-02,
133,-8.00e-03,
134,1.60e-02,
135,-8.00e-03,
136,-8.00e-03,
137,1.60e-02,
138,1.60e-02,
139,-1.20e-02,
140,-8.00e-03,
141,1.60e-02,
142,-8.00e-03,
143,1.60e-02,
144,1.60e-02,
145,-1.20e-02,
146,1.60e-02,
147,-1.20e-02,
148,-8.00e-03,
149,1.60e-02,
150,1.60e-02,
151,-1.20e-02,
152,1.60e-02,
153,-1.20e-02,
154,1.60e-02,
155,-8.00e-03,
156,1.60e-02,
157,-1.20e-02,
158,1.60e-02,
159,-1.20e-02,
160,1.60e-02,
161,-1.20e-02,
162,-1.20e-02,
163,1.60e-02,
164,1.60e-02,
165,-1.20e-02,
166,-8.00e-03,
167,1.60e-02,
168,-8.00e-03,
169,1.60e-02,
170,-1.20e-02,
171,1.60e-02,
172,-8.00e-03,
173,1.60e-02,
174,-8.00e-03,
175,1.60e-02,
176,-4.00e-02,
177,3.20e-02,
178,-8.00e-03,
179,1.60e-02,
180,-8.00e-03,
181,1.60e-02,
182,-8.00e-03,
183,1.60e-02,
184,-8.00e-03,
185,1.60e-02,
186,1.60e-02,
187,-1.20e-02,
188,1.60e-02,
189,-1.20e-02,
190,-8.00e-03,
191,1.60e-02,
192,-1.20e-02,
193,1.60e-02,
194,-8.00e-03,
195,1.60e-02,
196,-8.00e-03,
197,1.60e-02,
198,-8.00e-03,
199,1.60e-02,
200,-8.00e-03,
201,1.60e-02,
202,1.60e-02,
203,-1.20e-02,
204,1.60e-02,
205,-1.20e-02,
206,1.60e-02,
207,-1.20e-02,
208,-8.00e-03,
209,1.60e-02,
210,1.60e-02,
211,-1.20e-02,
212,1.60e-02,
213,-1.20e-02,
214,-8.00e-03,
215,1.60e-02,
216,-8.00e-03,
217,1.60e-02,
218,1.60e-02,
219,-1.20e-02,
220,1.60e-02,
221,-8.00e-03,
222,1.60e-02,
223,-1.20e-02,
224,-8.00e-03,
225,1.60e-02,
226,1.60e-02,
227,-8.00e-03,
228,1.60e-02,
229,-1.20e-02,
230,-8.00e-03,
231,2.80e-02,
232,1.60e-02,
233,-1.20e-02,
234,-8.00e-03,
235,1.60e-02,
236,1.60e-02,
237,-1.20e-02,
238,1.60e-02,
239,-1.20e-02,
240,-8.00e-03,
241,1.60e-02,
242,1.60e-02,
243,-1.20e-02,
244,1.60e-02,
245,-1.20e-02,
246,1.60e-02,
247,-1.20e-02,
248,1.60e-02,
249,-1.20e-02,
250,1.60e-02,
251,-1.20e-02,
252,1.60e-02,
253,-1.20e-02,
254,1.60e-02,
255,-8.00e-03,
256,1.60e-02,
257,-1.20e-02,
258,-8.00e-03,
259,1.60e-02,
260,-8.00e-03,
261,1.60e-02,
262,-8.00e-03,
263,1.60e-02,
264,1.60e-02,
265,-1.20e-02,
266,1.60e-02,
267,-1.20e-02,
268,1.60e-02,
269,-1.20e-02,
270,-8.00e-03,
271,1.60e-02,
272,1.60e-02,
273,-1.20e-02,
274,-8.00e-03,
275,1.60e-02,
276,-8.00e-03,
277,1.60e-02,
278,-8.00e-03,
279,1.60e-02,
280,1.60e-02,
281,-1.20e-02,
282,-2.40e-02,
283,6.00e-02,
284,-8.00e-03,
285,1.60e-02,
286,1.60e-02,
287,-1.20e-02,
288,-8.00e-03,
289,2.00e-02,
290,-8.00e-03,
291,1.60e-02,
292,1.60e-02,
293,-8.00e-03,
294,-1.20e-02,
295,2.00e-02,
296,-8.00e-03,
297,1.60e-02,
298,1.60e-02,
299,-8.00e-03,
300,1.60e-02,
301,-1.20e-02,
302,-8.00e-03,
303,1.60e-02,
304,-8.00e-03,
305,1.60e-02,
306,-8.00e-03,
307,1.60e-02,
308,1.60e-02,
309,-1.20e-02,
310,1.60e-02,
311,-8.00e-03,
312,-8.00e-03,
313,1.60e-02,
314,2.00e-02,
315,-1.20e-02,
316,-8.00e-03,
317,1.60e-02,
318,1.60e-02,
319,-1.20e-02,
320,1.60e-02,
321,-1.20e-02,
322,-1.20e-02,
323,1.60e-02,
324,-1.20e-02,
325,2.00e-02,
326,1.60e-02,
327,-1.20e-02,
328,-1.20e-02,
329,1.60e-02,
330,1.60e-02,
331,-1.20e-02,
332,1.60e-02,
333,-1.20e-02,
334,7.20e-02,
335,-3.20e-02,
336,-1.20e-02,
337,1.60e-02,
338,1.60e-02,
339,-1.20e-02,
340,1.60e-02,
341,-1.20e-02,
342,1.60e-02,
343,-8.00e-03,
344,-8.00e-03,
345,1.60e-02,
346,-1.20e-02,
347,1.60e-02,
348,1.60e-02,
349,-1.20e-02,
350,-8.00e-03,
351,2.00e-02,
352,1.60e-02,
353,-1.20e-02,
354,1.60e-02,
355,-8.00e-03,
356,-8.00e-03,
357,1.60e-02,
358,-1.20e-02,
359,1.60e-02,
360,-8.00e-03,
361,1.60e-02,
362,-8.00e-03,
363,2.00e-02,
364,1.60e-02,
365,-8.00e-03,
366,1.60e-02,
367,-1.20e-02,
368,-8.00e-03,
369,1.60e-02,
370,-8.00e-03,
371,1.60e-02,
372,1.60e-02,
373,-1.20e-02,
374,1.60e-02,
375,-1.20e-02,
376,-1.20e-02,
377,1.60e-02,
378,1.60e-02,
379,-1.20e-02,
380,1.60e-02,
381,-1.20e-02,
382,1.60e-02,
383,-1.20e-02,
384,1.60e-02,
385,-1.20e-02,
386,-1.20e-02,
387,1.32e-01,
388,-1.20e-02,
389,5.60e-02,
390,1.60e-02,
391,-1.20e-02,
392,-8.00e-03,
393,1.60e-02,
394,1.60e-02,
395,-8.00e-03,
396,-8.00e-03,
397,1.60e-02,
398,1.60e-02,
399,-1.20e-02,
400,1.60e-02,
401,-1.20e-02,
402,1.60e-02,
403,-1.20e-02,
404,1.60e-02,
405,-1.20e-02,
406,1.60e-02,
407,-1.20e-02,
408,1.60e-02,
409,-1.20e-02,
410,1.60e-02,
411,-1.20e-02,
412,1.60e-02,
413,-1.20e-02,
414,1.60e-02,
415,-1.20e-02,
416,1.60e-02,
417,-1.20e-02,
418,1.60e-02,
419,-1.20e-02,
420,-1.20e-02,
421,1.60e-02,
422,1.60e-02,
423,-8.00e-03,
424,-8.00e-03,
425,1.60e-02,
426,-8.00e-03,
427,1.60e-02,
428,1.60e-02,
429,-8.00e-03,
430,-1.20e-02,
431,1.60e-02,
432,-1.20e-02,
433,1.60e-02,
434,1.60e-02,
435,-1.20e-02,
436,1.60e-02,
437,-8.00e-03,
438,-1.20e-02,
439,5.20e-02,
440,3.20e-02,
441,-2.40e-02,
442,1.60e-02,
443,-1.20e-02,
444,1.60e-02,
445,-1.20e-02,
446,1.60e-02,
447,-1.20e-02,
448,1.60e-02,
449,-1.20e-02,
450,1.60e-02,
451,-1.20e-02,
452,1.60e-02,
453,-1.20e-02,
454,1.60e-02,
455,-1.20e-02,
456,-8.00e-03,
457,2.00e-02,
458,1.60e-02,
459,-1.20e-02,
460,-8.00e-03,
461,2.00e-02,
462,-8.00e-03,
463,1.60e-02,
464,-8.00e-03,
465,1.60e-02,
466,1.60e-02,
467,-1.20e-02,
468,1.60e-02,
469,-1.20e-02,
470,1.60e-02,
471,-1.20e-02,
472,-8.00e-03,
473,1.60e-02,
474,1.60e-02,
475,-1.20e-02,
476,-8.00e-03,
477,1.60e-02,
478,1.60e-02,
479,-1.20e-02,
480,1.60e-02,
481,-1.20e-02,
482,1.60e-02,
483,-1.20e-02,
484,1.60e-02,
485,-1.20e-02,
486,-1.20e-02,
487,1.60e-02,
488,1.60e-02,
489,-1.20e-02,
490,1.60e-02,
491,-1.20e-02,
492,2.00e-02,
493,-4.80e-02,
494,1.60e-02,
495,-1.20e-02,
496,-8.00e-03,
497,1.60e-02,
498,1.60e-02,
499,-1.20e-02,
500,1.60e-02,
501,-1.20e-02,
502,1.60e-02,
503,-1.20e-02,
504,-8.00e-03,
505,1.60e-02,
506,1.60e-02,
507,-1.20e-02,
508,1.60e-02,
509,-1.20e-02,
510,-8.00e-03,
511,1.60e-02,
512,-8.00e-03,
513,1.60e-02,
514,-8.00e-03,
515,1.60e-02,
516,1.60e-02,
517,-1.20e-02,
518,-8.00e-03,
519,1.60e-02,
520,1.60e-02,
521,-1.20e-02,
522,1.60e-02,
523,-1.20e-02,
524,-8.00e-03,
525,1.60e-02,
526,1.60e-02,
527,-1.20e-02,
528,-8.00e-03,
529,1.60e-02,
530,1.60e-02,
531,-1.20e-02,
532,-8.00e-03,
533,2.00e-02,
534,1.60e-02,
535,-1.20e-02,
536,-8.00e-03,
537,2.00e-02,
538,1.60e-02,
539,-1.20e-02,
540,-8.00e-03,
541,1.60e-02,
542,1.60e-02,
543,-1.20e-02,
544,2.00e-02,
545,-3.20e-02,
546,2.40e-02,
547,-1.20e-02,
548,-8.00e-03,
549,1.60e-02,
550,-8.00e-03,
551,1.60e-02,
552,1.60e-02,
553,-8.00e-03,
554,-8.00e-03,
555,1.60e-02,
556,-8.00e-03,
557,2.00e-02,
558,1.60e-02,
559,-8.00e-03,
560,1.60e-02,
561,-1.20e-02,
562,1.60e-02,
563,-1.20e-02,
564,1.60e-02,
565,-8.00e-03,
566,1.60e-02,
567,-1.20e-02,
568,1.60e-02,
569,-8.00e-03,
570,1.60e-02,
571,-1.20e-02,
572,-8.00e-03,
573,2.00e-02,
574,1.60e-02,
575,-1.20e-02,
576,1.60e-02,
577,-1.20e-02,
578,-8.00e-03,
579,2.00e-02,
580,1.60e-02,
581,-1.20e-02,
582,-1.20e-02,
583,2.00e-02,
584,-8.00e-03,
585,2.00e-02,
586,-8.00e-03,
587,1.60e-02,
588,-8.00e-03,
589,1.60e-02,
590,1.60e-02,
591,-1.20e-02,
592,1.60e-02,
593,-1.20e-02,
594,1.60e-02,
595,-1.20e-02,
596,2.00e-02,
597,-7.60e-02,
598,1.60e-02,
599,-1.20e-02,
600,1.60e-02,
601,-1.20e-02,
602,1.60e-02,
603,-1.20e-02,
604,1.60e-02,
605,-1.20e-02,
606,1.60e-02,
607,-1.20e-02,
608,1.60e-02,
609,-1.20e-02,
610,-8.00e-03,
611,1.60e-02,
612,1.60e-02,
613,-1.20e-02,
614,1.60e-02,
615,-1.20e-02,
616,1.60e-02,
617,-1.20e-02,
618,1.60e-02,
619,-1.20e-02,
620,1.60e-02,
621,-1.20e-02,
622,-8.00e-03,
623,1.60e-02,
624,-8.00e-03,
625,2.00e-02,
626,-8.00e-03,
627,1.60e-02,
628,1.60e-02,
629,-8.00e-03,
630,-8.00e-03,
631,1.60e-02,
632,-8.00e-03,
633,2.00e-02,
634,1.60e-02,
635,-1.20e-02,
636,1.60e-02,
637,-8.00e-03,
638,-8.00e-03,
639,1.60e-02,
640,-1.20e-02,
641,1.60e-02,
642,-8.00e-03,
643,1.60e-02,
644,1.60e-02,
645,-1.20e-02,
646,-8.00e-03,
647,1.60e-02,
648,-8.00e-03,
649,1.60e-02,
650,1.24e-01,
651,-3.20e-02,
652,1.60e-02,
653,-1.20e-02,
654,-1.20e-02,
655,2.00e-02,
656,-8.00e-03,
657,1.60e-02,
658,1.60e-02,
659,-1.20e-02,
660,-1.20e-02,
661,2.00e-02,
662,-1.20e-02,
663,2.00e-02,
664,-1.20e-02,
665,2.00e-02,
666,1.60e-02,
667,-1.20e-02,
668,-8.00e-03,
669,1.60e-02,
670,1.60e-02,
671,-1.20e-02,
672,-1.20e-02,
673,2.00e-02,
674,1.60e-02,
675,-8.00e-03,
676,1.60e-02,
677,-8.00e-03,
678,2.00e-02,
679,-1.20e-02,
680,-8.00e-03,
681,1.60e-02,
682,-8.00e-03,
683,1.60e-02,
684,-8.00e-03,
685,1.60e-02,
686,1.60e-02,
687,-1.20e-02,
688,-1.20e-02,
689,2.00e-02,
690,1.60e-02,
691,-1.20e-02,
692,-8.00e-03,
693,1.60e-02,
694,1.60e-02,
695,-1.20e-02,
696,1.60e-02,
697,-1.20e-02,
698,1.60e-02,
699,-8.00e-03,
700,1.60e-02,
701,-1.20e-02,
702,1.48e-01,
703,-2.00e-02,
704,1.60e-02,
705,-1.20e-02,
706,1.60e-02,
707,-1.20e-02,
708,1.60e-02,
709,-1.20e-02,
710,-1.20e-02,
711,1.60e-02,
712,1.60e-02,
713,-1.20e-02,
714,1.60e-02,
715,-1.20e-02,
716,-8.00e-03,
717,1.60e-02,
718,1.60e-02,
719,-1.20e-02,
720,-8.00e-03,
721,1.60e-02,
722,1.60e-02,
723,-1.20e-02,
724,-1.20e-02,
725,1.60e-02,
726,-8.00e-03,
727,1.60e-02,
728,1.60e-02,
729,-1.20e-02,
730,1.60e-02,
731,-1.20e-02,
732,1.60e-02,
733,-1.20e-02,
734,1.60e-02,
735,-1.20e-02,
736,1.60e-02,
737,-1.20e-02,
738,1.60e-02,
739,-1.20e-02,
740,1.60e-02,
741,-1.20e-02,
742,-1.20e-02,
743,1.60e-02,
744,1.60e-02,
745,-8.00e-03,
746,-8.00e-03,
747,1.60e-02,
748,1.60e-02,
749,-1.20e-02,
750,-8.00e-03,
751,1.60e-02,
752,-1.20e-02,
753,1.60e-02,
754,-1.20e-02,
755,1.00e-01,
756,-8.00e-03,
757,1.60e-02,
758,-8.00e-03,
759,1.60e-02,
760,-8.00e-03,
761,1.60e-02,
762,1.60e-02,
763,-1.20e-02,
764,-8.00e-03,
765,1.60e-02,
766,1.60e-02,
767,-1.20e-02,
768,-8.00e-03,
769,1.60e-02,
770,-8.00e-03,
771,1.60e-02,
772,1.60e-02,
773,-1.20e-02,
774,-8.00e-03,
775,1.60e-02,
776,-1.20e-02,
777,1.60e-02,
778,-1.20e-02,
779,2.00e-02,
780,1.60e-02,
781,-1.20e-02,
782,2.00e-02,
783,-1.20e-02,
784,2.00e-02,
785,-1.20e-02,
786,1.60e-02,
787,-1.20e-02,
788,1.60e-02,
789,-1.20e-02,
790,1.60e-02,
791,-1.20e-02,
792,1.60e-02,
793,-1.20e-02,
794,1.60e-02,
795,-1.20e-02,
796,-8.00e-03,
797,1.60e-02,
798,1.60e-02,
799,-1.20e-02,
800,1.60e-02,
801,-1.20e-02,
802,1.60e-02,
803,-8.00e-03,
804,-8.00e-03,
805,1.60e-02,
806,-1.20e-02,
807,1.32e-01,
808,2.00e-02,
809,-3.60e-02,
810,-8.00e-03,
811,1.60e-02,
812,-8.00e-03,
813,1.60e-02,
814,-1.20e-02,
815,2.00e-02,
816,-1.20e-02,
817,2.00e-02,
818,1.60e-02,
819,-1.20e-02,
820,-8.00e-03,
821,1.60e-02,
822,1.60e-02,
823,-1.20e-02,
824,-8.00e-03,
825,2.00e-02,
826,1.60e-02,
827,-1.20e-02,
828,1.60e-02,
829,-1.20e-02,
830,-1.20e-02,
831,2.00e-02,
832,1.60e-02,
833,-1.20e-02,
834,1.60e-02,
835,-1.20e-02,
836,1.60e-02,
837,-8.00e-03,
838,1.60e-02,
839,-1.20e-02,
840,1.60e-02,
841,-1.20e-02,
842,-8.00e-03,
843,1.60e-02,
844,-8.00e-03,
845,1.60e-02,
846,1.60e-02,
847,-1.20e-02,
848,1.60e-02,
849,-1.20e-02,
850,-8.00e-03,
851,1.60e-02,
852,1.60e-02,
853,-1.20e-02,
854,1.60e-02,
855,-1.20e-02,
856,1.60e-02,
857,-1.20e-02,
858,-1.20e-02,
859,1.60e-02,
860,-1.68e-01,
861,2.80e-02,
862,1.60e-02,
863,-8.00e-03,
864,-8.00e-03,
865,1.60e-02,
866,1.60e-02,
867,-1.20e-02,
868,-8.00e-03,
869,1.60e-02,
870,-8.00e-03,
871,1.60e-02,
872,1.60e-02,
873,-1.20e-02,
874,1.60e-02,
875,-1.20e-02,
876,1.60e-02,
877,-8.00e-03,
878,1.60e-02,
879,-8.00e-03,
880,1.60e-02,
881,-1.20e-02,
882,-8.00e-03,
883,1.60e-02,
884,1.60e-02,
885,-1.20e-02,
886,-8.00e-03,
887,2.00e-02,
888,1.60e-02,
889,-1.20e-02,
890,-8.00e-03,
891,1.60e-02,
892,-8.00e-03,
893,2.00e-02,
894,1.60e-02,
895,-1.60e-02,
896,2.00e-02,
897,-1.20e-02,
898,1.60e-02,
899,-1.20e-02,
900,-8.00e-03,
901,1.60e-02,
902,2.00e-02,
903,-1.20e-02,
904,2.00e-02,
905,-8.00e-03,
906,1.60e-02,
907,-1.20e-02,
908,1.60e-02,
909,-1.20e-02,
910,1.60e-02,
911,-1.20e-02,
912,-1.20e-01,
913,5.60e-02,
914,1.60e-02,
915,-1.20e-02,
916,-8.00e-03,
917,1.60e-02,
918,-8.00e-03,
919,1.60e-02,
920,1.60e-02,
921,-1.20e-02,
922,1.60e-02,
923,-1.20e-02,
924,1.60e-02,
925,-1.20e-02,
926,-8.00e-03,
927,1.60e-02,
928,1.60e-02,
929,-1.20e-02,
930,-1.20e-02,
931,1.60e-02,
932,-8.00e-03,
933,1.60e-02,
934,-8.00e-03,
935,1.60e-02,
936,-8.00e-03,
937,1.60e-02,
938,-1.20e-02,
939,1.60e-02,
940,1.60e-02,
941,-1.20e-02,
942,1.60e-02,
943,-1.20e-02,
944,-8.00e-03,
945,1.60e-02,
946,-8.00e-03,
947,1.60e-02,
948,1.60e-02,
949,-8.00e-03,
950,1.60e-02,
951,-1.20e-02,
952,1.60e-02,
953,-8.00e-03,
954,-1.20e-02,
955,2.00e-02,
956,-8.00e-03,
957,1.60e-02,
958,-8.00e-03,
959,1.60e-02,
960,1.60e-02,
961,-1.20e-02,
962,-8.00e-03,
963,1.60e-02,
964,1.56e-01,
965,-4.00e-02,
966,-1.60e-02,
967,4.80e-02,
968,-8.00e-03,
969,1.60e-02,
970,-8.00e-03,
971,1.60e-02,
972,-8.00e-03,
973,1.60e-02,
974,-8.00e-03,
975,1.60e-02,
976,1.60e-02,
977,-1.20e-02,
978,1.60e-02,
979,-1.20e-02,
980,-8.00e-03,
981,1.60e-02,
982,-1.20e-02,
983,1.60e-02,
984,1.60e-02,
985,-1.20e-02,
986,2.00e-02,
987,-1.20e-02,
988,-8.00e-03,
989,2.00e-02,
990,1.60e-02,
991,-1.20e-02,
992,1.60e-02,
993,-1.20e-02,
994,1.60e-02,
995,-1.20e-02,
996,-1.20e-02,
997,2.00e-02,
998,-8.00e-03,
999,1.60e-02,
1000,1.60e-02,
1001,-1.20e-02,
1002,1.60e-02,
1003,-1.20e-02,
1004,1.60e-02,
1005,-1.20e-02,
1006,1.60e-02,
1007,-1.20e-02,
1008,1.60e-02,
1009,-1.20e-02,
1010,-8.00e-03,
1011,1.60e-02,
1012,1.60e-02,
1013,-8.00e-03,
1014,-8.00e-03,
1015,1.60e-02,
1016,-8.00e-03,
1017,1.60e-02,
1018,3.60e-02,
1019,-2.00e-02,
1020,1.60e-02,
1021,-1.20e-02,
1022,-8.00e-03,
1023,1.60e-02,
1024,-8.00e-03,
1025,1.60e-02,
1026,-8.00e-03,
1027,2.00e-02,
1028,1.60e-02,
1029,-1.20e-02,
1030,-8.00e-03,
1031,1.60e-02,
1032,1.60e-02,
1033,-1.20e-02,
1034,-8.00e-03,
1035,2.00e-02,
1036,-8.00e-03,
1037,1.60e-02,
1038,-1.20e-02,
1039,1.60e-02,
1040,1.60e-02,
1041,-8.00e-03,
1042,1.60e-02,
1043,-1.20e-02,
1044,1.60e-02,
1045,-1.20e-02,
1046,1.60e-02,
1047,-1.20e-02,
1048,-8.00e-03,
1049,1.60e-02,
1050,1.60e-02,
1051,-1.20e-02,
1052,-1.20e-02,
1053,1.60e-02,
1054,-8.00e-03,
1055,1.60e-02,
1056,1.60e-02,
1057,-1.20e-02,
1058,1.60e-02,
1059,-1.20e-02,
1060,-1.20e-02,
1061,2.00e-02,
1062,-8.00e-03,
1063,1.60e-02,
1064,-1.20e-02,
1065,2.00e-02,
1066,1.60e-02,
1067,-1.20e-02,
1068,-8.00e-03,
1069,1.60e-02,
1070,-1.20e-01,
1071,3.60e-02,
1072,-8.00e-03,
1073,1.60e-02,
1074,1.60e-02,
1075,-1.20e-02,
1076,-8.00e-03,
1077,2.00e-02,
1078,-1.20e-02,
1079,2.00e-02,
1080,1.60e-02,
1081,-1.20e-02,
1082,1.60e-02,
1083,-1.20e-02,
1084,-8.00e-03,
1085,2.00e-02,
1086,1.60e-02,
1087,-1.20e-02,
1088,2.00e-02,
1089,-1.20e-02,
1090,1.60e-02,
1091,-1.20e-02,
1092,1.60e-02,
1093,-8.00e-03,
1094,1.60e-02,
1095,-1.20e-02,
1096,1.60e-02,
1097,-1.20e-02,
1098,1.60e-02,
1099,-1.20e-02,
1100,-8.00e-03,
1101,1.60e-02,
1102,1.60e-02,
1103,-1.20e-02,
1104,1.60e-02,
1105,-1.20e-02,
1106,1.60e-02,
1107,-1.20e-02,
1108,1.60e-02,
1109,-1.20e-02,
1110,1.60e-02,
1111,-1.20e-02,
1112,-8.00e-03,
1113,1.60e-02,
1114,-1.20e-02,
1115,1.60e-02,
1116,1.60e-02,
1117,-1.20e-02,
1118,1.60e-02,
1119,-1.60e-02,
1120,1.60e-02,
1121,-1.20e-02,
1122,-7.60e-02,
1123,4.80e-02,
1124,1.60e-02,
1125,-1.20e-02,
1126,1.60e-02,
1127,-1.20e-02,
1128,1.60e-02,
1129,-1.20e-02,
1130,1.60e-02,
1131,-1.20e-02,
1132,1.60e-02,
1133,-1.20e-02,
1134,-8.00e-03,
1135,2.00e-02,
1136,1.60e-02,
1137,-1.20e-02,
1138,-8.00e-03,
1139,1.60e-02,
1140,-8.00e-03,
1141,1.60e-02,
1142,-8.00e-03,
1143,1.60e-02,
1144,1.60e-02,
1145,-1.20e-02,
1146,1.60e-02,
1147,-1.20e-02,
1148,-8.00e-03,
1149,1.60e-02,
1150,1.60e-02,
1151,-1.20e-02,
1152,-8.00e-03,
1153,1.60e-02,
1154,1.60e-02,
1155,-8.00e-03,
1156,1.60e-02,
1157,-1.20e-02,
1158,1.60e-02,
1159,-1.20e-02,
1160,-8.00e-03,
1161,2.00e-02,
1162,1.60e-02,
1163,-1.20e-02,
1164,1.60e-02,
1165,-1.20e-02,
1166,1.60e-02,
1167,-1.20e-02,
1168,-8.00e-03,
1169,1.60e-02,
1170,-8.00e-03,
1171,1.60e-02,
1172,1.60e-02,
1173,-1.20e-02,
1174,1.60e-02,
1175,-1.20e-02,
1176,-2.40e-02,
1177,3.20e-02,
1178,-8.00e-03,
1179,2.00e-02,
1180,1.60e-02,
1181,-1.20e-02,
1182,-8.00e-03,
1183,1.60e-02,
1184,-8.00e-03,
1185,2.00e-02,
1186,-1.20e-02,
1187,2.00e-02,
1188,-8.00e-03,
1189,2.00e-02,
1190,1.60e-02,
1191,-1.20e-02,
1192,-8.00e-03,
1193,1.60e-02,
1194,1.60e-02,
1195,-1.20e-02,
1196,-8.00e-03,
1197,2.00e-02,
1198,-1.20e-02,
1199,1.60e-02,
