Laptop_2/LAPTOP_CHRGR_2_OFF/time domain/NewFile24.csv

X,CH1,Start,Increment,
Sequence,Volt,-1.500000e-01,2.000000e-04
0,1.60e-02,
1,-1.20e-02,
2,-8.00e-03,
3,1.60e-02,
4,-8.00e-03,
5,1.60e-02,
6,1.60e-02,
7,-1.20e-02,
8,1.60e-02,
9,-1.20e-02,
10,2.00e-02,
11,-1.20e-02,
12,6.40e-02,
13,-6.80e-02,
14,1.60e-02,
15,-1.20e-02,
16,1.60e-02,
17,-1.20e-02,
18,-8.00e-03,
19,1.60e-02,
20,1.60e-02,
21,-1.20e-02,
22,1.60e-02,
23,-1.20e-02,
24,-8.00e-03,
25,1.60e-02,
26,1.60e-02,
27,-1.20e-02,
28,1.60e-02,
29,-1.20e-02,
30,1.60e-02,
31,-1.20e-02,
32,1.60e-02,
33,-1.20e-02,
34,-1.20e-02,
35,2.00e-02,
36,-1.20e-02,
37,2.00e-02,
38,-8.00e-03,
39,2.00e-02,
40,2.00e-02,
41,-1.20e-02,
42,-1.20e-02,
43,1.60e-02,
44,2.00e-02,
45,-1.20e-02,
46,-1.20e-02,
47,2.00e-02,
48,1.60e-02,
49,-1.20e-02,
50,1.60e-02,
51,-1.20e-02,
52,-8.00e-03,
53,2.00e-02,
54,1.60e-02,
55,-1.20e-02,
56,1.60e-02,
57,-1.20e-02,
58,1.60e-02,
59,-1.20e-02,
60,1.60e-02,
61,-1.20e-02,
62,2.00e-02,
63,-1.20e-02,
64,1.60e-02,
65,-8.40e-02,
66,2.80e-02,
67,-1.20e-02,
68,1.60e-02,
69,-1.20e-02,
70,-1.20e-02,
71,1.60e-02,
72,1.60e-02,
73,-1.20e-02,
74,1.60e-02,
75,-1.20e-02,
76,-1.20e-02,
77,2.00e-02,
78,-1.20e-02,
79,2.00e-02,
80,1.60e-02,
81,-1.20e-02,
82,-1.20e-02,
83,2.00e-02,
84,2.00e-02,
85,-1.20e-02,
86,1.60e-02,
87,-1.20e-02,
88,-1.20e-02,
89,1.60e-02,
90,1.60e-02,
91,-1.20e-02,
92,1.60e-02,
93,-1.20e-02,
94,1.60e-02,
95,-1.20e-02,
96,1.60e-02,
97,-1.20e-02,
98,2.00e-02,
99,-1.20e-02,
100,1.60e-02,
101,-1.20e-02,
102,2.00e-02,
103,-1.20e-02,
104,-8.00e-03,
105,1.60e-02,
106,-1.20e-02,
107,2.00e-02,
108,1.60e-02,
109,-1.20e-02,
110,1.60e-02,
111,-1.20e-02,
112,1.60e-02,
113,-1.20e-02,
114,-1.20e-02,
115,1.60e-02,
116,-1.20e-02,
117,1.60e-02,
118,1.28e-01,
119,-3.20e-02,
120,1.60e-02,
121,-1.20e-02,
122,-1.20e-02,
123,2.00e-02,
124,1.60e-02,
125,-1.20e-02,
126,-1.20e-02,
127,1.60e-02,
128,1.60e-02,
129,-1.20e-02,
130,1.60e-02,
131,-1.20e-02,
132,2.00e-02,
133,-1.20e-02,
134,1.60e-02,
135,-1.20e-02,
136,1.60e-02,
137,-1.20e-02,
138,1.60e-02,
139,-1.20e-02,
140,1.60e-02,
141,-1.20e-02,
142,-1.20e-02,
143,1.60e-02,
144,-1.20e-02,
145,2.00e-02,
146,-1.20e-02,
147,2.00e-02,
148,-8.00e-03,
149,1.60e-02,
150,1.60e-02,
151,-1.20e-02,
152,1.60e-02,
153,-1.20e-02,
154,-1.20e-02,
155,1.60e-02,
156,2.00e-02,
157,-1.20e-02,
158,1.60e-02,
159,-1.20e-02,
160,1.60e-02,
161,-1.20e-02,
162,-1.20e-02,
163,1.60e-02,
164,-1.20e-02,
165,1.60e-02,
166,-1.20e-02,
167,2.00e-02,
168,-1.20e-02,
169,2.00e-02,
170,1.72e-01,
171,-6.00e-02,
172,-1.20e-02,
173,1.60e-02,
174,1.60e-02,
175,-1.20e-02,
176,-1.20e-02,
177,1.60e-02,
178,1.60e-02,
179,-1.20e-02,
180,-1.20e-02,
181,1.60e-02,
182,2.00e-02,
183,-1.20e-02,
184,1.60e-02,
185,-1.20e-02,
186,2.00e-02,
187,-1.20e-02,
188,2.00e-02,
189,-1.20e-02,
190,2.00e-02,
191,-1.20e-02,
192,1.60e-02,
193,-1.20e-02,
194,1.60e-02,
195,-1.20e-02,
196,1.60e-02,
197,-8.00e-03,
198,1.60e-02,
199,-1.20e-02,
200,-1.20e-02,
201,2.00e-02,
202,2.00e-02,
203,-1.20e-02,
204,1.60e-02,
205,-1.20e-02,
206,1.60e-02,
207,-1.20e-02,
208,1.60e-02,
209,-1.20e-02,
210,1.60e-02,
211,-1.20e-02,
212,2.00e-02,
213,-1.20e-02,
214,1.60e-02,
215,-1.20e-02,
216,1.60e-02,
217,-1.20e-02,
218,1.60e-02,
219,-1.20e-02,
220,-8.00e-03,
221,1.60e-02,
222,4.40e-02,
223,-5.60e-02,
224,1.60e-02,
225,-1.20e-02,
226,1.60e-02,
227,-1.20e-02,
228,1.60e-02,
229,-1.20e-02,
230,-8.00e-03,
231,1.60e-02,
232,-8.00e-03,
233,1.60e-02,
234,2.00e-02,
235,-1.20e-02,
236,1.60e-02,
237,-1.20e-02,
238,-8.00e-03,
239,1.60e-02,
240,-8.00e-03,
241,2.00e-02,
242,-1.20e-02,
243,2.00e-02,
244,1.60e-02,
245,-1.20e-02,
246,2.00e-02,
247,-1.20e-02,
248,-1.20e-02,
249,2.00e-02,
250,1.60e-02,
251,-1.20e-02,
252,-1.20e-02,
253,1.60e-02,
254,1.60e-02,
255,-1.20e-02,
256,-8.00e-03,
257,1.60e-02,
258,1.60e-02,
259,-1.20e-02,
260,1.60e-02,
261,-1.20e-02,
262,1.60e-02,
263,-1.20e-02,
264,-1.20e-02,
265,1.60e-02,
266,-1.20e-02,
267,2.00e-02,
268,-1.20e-02,
269,2.00e-02,
270,1.60e-02,
271,-1.20e-02,
272,1.60e-02,
273,-1.20e-02,
274,-1.20e-02,
275,2.00e-02,
276,-6.80e-02,
277,2.40e-02,
278,2.00e-02,
279,-1.20e-02,
280,-1.20e-02,
281,2.00e-02,
282,-1.20e-02,
283,2.00e-02,
284,1.60e-02,
285,-1.20e-02,
286,1.60e-02,
287,-1.20e-02,
288,-1.20e-02,
289,1.60e-02,
290,-1.20e-02,
291,2.00e-02,
292,-8.00e-03,
293,1.60e-02,
294,1.60e-02,
295,-1.20e-02,
296,1.60e-02,
297,-1.20e-02,
298,-8.00e-03,
299,1.60e-02,
300,1.60e-02,
301,-1.20e-02,
302,2.00e-02,
303,-1.20e-02,
304,-1.20e-02,
305,2.00e-02,
306,1.60e-02,
307,-8.00e-03,
308,1.60e-02,
309,-1.20e-02,
310,1.60e-02,
311,-1.20e-02,
312,1.60e-02,
313,-1.20e-02,
314,-1.20e-02,
315,2.00e-02,
316,1.60e-02,
317,-1.20e-02,
318,1.60e-02,
319,-1.20e-02,
320,1.60e-02,
321,-1.20e-02,
322,-1.20e-02,
323,2.40e-02,
324,-8.00e-03,
325,1.60e-02,
326,-1.20e-02,
327,1.60e-02,
328,1.60e-02,
329,-1.20e-02,
330,-1.56e-01,
331,2.80e-02,
332,-8.00e-03,
333,1.60e-02,
334,2.00e-02,
335,-1.20e-02,
336,-1.20e-02,
337,1.60e-02,
338,1.60e-02,
339,-1.20e-02,
340,-8.00e-03,
341,2.00e-02,
342,-1.20e-02,
343,2.00e-02,
344,1.60e-02,
345,-1.20e-02,
346,1.60e-02,
347,-1.20e-02,
348,1.60e-02,
349,-1.20e-02,
350,-8.00e-03,
351,1.60e-02,
352,-8.00e-03,
353,1.60e-02,
354,-1.20e-02,
355,2.00e-02,
356,1.60e-02,
357,-1.20e-02,
358,-8.00e-03,
359,2.00e-02,
360,-1.20e-02,
361,2.00e-02,
362,1.60e-02,
363,-1.20e-02,
364,1.60e-02,
365,-1.20e-02,
366,1.60e-02,
367,-1.20e-02,
368,1.60e-02,
369,-1.20e-02,
370,2.00e-02,
371,-1.20e-02,
372,2.00e-02,
373,-1.20e-02,
374,2.00e-02,
375,-1.20e-02,
376,-1.20e-02,
377,2.00e-02,
378,1.60e-02,
379,-1.20e-02,
380,1.60e-02,
381,-1.20e-02,
382,1.60e-01,
383,-7.60e-02,
384,-8.00e-03,
385,7.60e-02,
386,-1.20e-02,
387,2.00e-02,
388,-8.00e-03,
389,1.60e-02,
390,-1.20e-02,
391,2.00e-02,
392,-8.00e-03,
393,2.00e-02,
394,-8.00e-03,
395,1.60e-02,
396,2.00e-02,
397,-1.20e-02,
398,-1.20e-02,
399,2.00e-02,
400,1.60e-02,
401,-1.20e-02,
402,1.60e-02,
403,-1.20e-02,
404,-8.00e-03,
405,1.60e-02,
406,1.60e-02,
407,-1.20e-02,
408,-1.20e-02,
409,2.00e-02,
410,-1.20e-02,
411,1.60e-02,
412,-1.20e-02,
413,2.00e-02,
414,-1.20e-02,
415,2.00e-02,
416,2.00e-02,
417,-1.20e-02,
418,-1.20e-02,
419,2.00e-02,
420,1.60e-02,
421,-1.20e-02,
422,1.60e-02,
423,-1.20e-02,
424,1.60e-02,
425,-1.20e-02,
426,1.60e-02,
427,-1.20e-02,
428,1.60e-02,
429,-1.20e-02,
430,-8.00e-03,
431,1.60e-02,
432,1.60e-02,
433,-8.00e-03,
434,-1.20e-02,
435,2.00e-02,
436,8.00e-02,
437,-2.00e-02,
438,-8.00e-03,
439,1.60e-02,
440,1.60e-02,
441,-1.20e-02,
442,-1.20e-02,
443,2.00e-02,
444,-1.20e-02,
445,2.00e-02,
446,1.60e-02,
447,-1.20e-02,
448,1.60e-02,
449,-1.20e-02,
450,1.60e-02,
451,-1.20e-02,
452,1.60e-02,
453,-1.20e-02,
454,1.60e-02,
455,-1.20e-02,
456,1.60e-02,
457,-1.20e-02,
458,1.60e-02,
459,-1.20e-02,
460,-1.20e-02,
461,1.60e-02,
462,-8.00e-03,
463,2.00e-02,
464,1.60e-02,
465,-8.00e-03,
466,-1.20e-02,
467,2.00e-02,
468,-1.20e-02,
469,2.00e-02,
470,-8.00e-03,
471,1.60e-02,
472,1.60e-02,
473,-1.20e-02,
474,-1.20e-02,
475,2.00e-02,
476,-1.20e-02,
477,2.00e-02,
478,-1.20e-02,
479,2.00e-02,
480,1.60e-02,
481,-1.20e-02,
482,2.00e-02,
483,-1.20e-02,
484,1.60e-02,
485,-1.20e-02,
486,1.60e-02,
487,-8.00e-03,
488,1.60e-02,
489,-1.20e-02,
490,-9.20e-02,
491,9.60e-02,
492,-1.20e-02,
493,1.60e-02,
494,1.60e-02,
495,-1.20e-02,
496,-8.00e-03,
497,2.00e-02,
498,-8.00e-03,
499,1.60e-02,
500,-1.20e-02,
501,2.00e-02,
502,1.60e-02,
503,-1.20e-02,
504,-8.00e-03,
505,2.00e-02,
506,-8.00e-03,
507,2.00e-02,
508,-8.00e-03,
509,1.60e-02,
510,1.60e-02,
511,-1.20e-02,
512,-1.20e-02,
513,1.60e-02,
514,-1.20e-02,
515,2.00e-02,
516,1.60e-02,
517,-1.20e-02,
518,-8.00e-03,
519,2.00e-02,
520,-8.00e-03,
521,1.60e-02,
522,-8.00e-03,
523,1.60e-02,
524,2.00e-02,
525,-1.20e-02,
526,1.60e-02,
527,-1.20e-02,
528,-8.00e-03,
529,1.60e-02,
530,1.60e-02,
531,-1.20e-02,
532,-1.20e-02,
533,1.60e-02,
534,-1.20e-02,
535,2.00e-02,
536,2.00e-02,
537,-1.20e-02,
538,1.60e-02,
539,-1.20e-02,
540,1.60e-02,
541,-1.20e-02,
542,-1.20e-02,
543,5.20e-02,
544,-1.20e-02,
545,2.00e-02,
546,2.00e-02,
547,-1.20e-02,
548,1.60e-02,
549,-1.20e-02,
550,-1.20e-02,
551,2.00e-02,
552,1.60e-02,
553,-1.20e-02,
554,-1.20e-02,
555,1.60e-02,
556,1.60e-02,
557,-1.20e-02,
558,-8.00e-03,
559,2.00e-02,
560,1.60e-02,
561,-1.20e-02,
562,-1.20e-02,
563,2.00e-02,
564,1.60e-02,
565,-1.20e-02,
566,-8.00e-03,
567,2.00e-02,
568,1.60e-02,
569,-1.20e-02,
570,2.00e-02,
571,-1.20e-02,
572,2.00e-02,
573,-1.20e-02,
574,-8.00e-03,
575,2.00e-02,
576,-8.00e-03,
577,2.00e-02,
578,-1.20e-02,
579,2.00e-02,
580,1.60e-02,
581,-1.20e-02,
582,2.00e-02,
583,-1.20e-02,
584,-8.00e-03,
585,1.60e-02,
586,1.60e-02,
587,-1.20e-02,
588,1.60e-02,
589,-1.20e-02,
590,1.60e-02,
591,-1.20e-02,
592,1.60e-02,
593,-1.20e-02,
594,-8.00e-03,
595,1.60e-02,
596,6.80e-02,
597,-6.40e-02,
598,-1.20e-02,
599,1.60e-02,
600,1.60e-02,
601,-1.20e-02,
602,1.60e-02,
603,-1.20e-02,
604,1.60e-02,
605,-1.20e-02,
606,1.60e-02,
607,-1.20e-02,
608,1.60e-02,
609,-1.20e-02,
610,-1.20e-02,
611,1.60e-02,
612,2.00e-02,
613,-1.20e-02,
614,-1.20e-02,
615,2.00e-02,
616,1.60e-02,
617,-1.20e-02,
618,2.00e-02,
619,-1.20e-02,
620,-1.20e-02,
621,1.60e-02,
622,1.60e-02,
623,-1.20e-02,
624,1.60e-02,
625,-1.20e-02,
626,1.60e-02,
627,-1.20e-02,
628,1.60e-02,
629,-1.20e-02,
630,1.60e-02,
631,-1.20e-02,
632,1.60e-02,
633,-1.20e-02,
634,1.60e-02,
635,-1.20e-02,
636,1.60e-02,
637,-1.20e-02,
638,1.60e-02,
639,-1.20e-02,
640,1.60e-02,
641,-1.20e-02,
642,1.60e-02,
643,-1.20e-02,
644,1.60e-02,
645,-8.00e-03,
646,1.60e-02,
647,-1.20e-02,
648,6.00e-02,
649,-8.40e-02,
650,-8.00e-03,
651,1.60e-02,
652,1.60e-02,
653,-1.20e-02,
654,1.60e-02,
655,-1.20e-02,
656,1.60e-02,
657,-1.20e-02,
658,1.60e-02,
659,-1.20e-02,
660,-1.20e-02,
661,2.00e-02,
662,1.60e-02,
663,-8.00e-03,
664,-1.20e-02,
665,2.00e-02,
666,1.60e-02,
667,-1.20e-02,
668,1.60e-02,
669,-1.20e-02,
670,-8.00e-03,
671,1.60e-02,
672,1.60e-02,
673,-8.00e-03,
674,1.60e-02,
675,-1.20e-02,
676,1.60e-02,
677,-1.20e-02,
678,-1.20e-02,
679,2.00e-02,
680,-1.20e-02,
681,1.60e-02,
682,1.60e-02,
683,-1.20e-02,
684,1.60e-02,
685,-1.20e-02,
686,-1.20e-02,
687,1.60e-02,
688,1.60e-02,
689,-1.20e-02,
690,1.60e-02,
691,-1.20e-02,
692,-8.00e-03,
693,1.60e-02,
694,1.60e-02,
695,-1.20e-02,
696,-1.20e-02,
697,2.00e-02,
698,1.60e-02,
699,-1.20e-02,
700,-8.00e-03,
701,2.00e-02,
702,1.96e-01,
703,-2.00e-02,
704,-8.00e-03,
705,1.60e-02,
706,-1.20e-02,
707,1.60e-02,
708,1.60e-02,
709,-1.20e-02,
710,1.60e-02,
711,-8.00e-03,
712,-8.00e-03,
713,1.60e-02,
714,1.60e-02,
715,-1.20e-02,
716,-8.00e-03,
717,2.00e-02,
718,1.60e-02,
719,-8.00e-03,
720,-8.00e-03,
721,1.60e-02,
722,2.00e-02,
723,-1.20e-02,
724,-8.00e-03,
725,1.60e-02,
726,1.60e-02,
727,-1.20e-02,
728,-8.00e-03,
729,1.60e-02,
730,1.60e-02,
731,-1.20e-02,
732,-1.20e-02,
733,2.00e-02,
734,1.60e-02,
735,-1.20e-02,
736,1.60e-02,
737,-1.20e-02,
738,1.60e-02,
739,-1.20e-02,
740,1.60e-02,
741,-1.20e-02,
742,-1.20e-02,
743,2.00e-02,
744,1.60e-02,
745,-1.20e-02,
746,-1.20e-02,
747,2.00e-02,
748,1.60e-02,
749,-1.20e-02,
750,1.60e-02,
751,-1.20e-02,
752,-1.20e-02,
753,1.60e-02,
754,2.80e-02,
755,-4.00e-02,
756,-1.20e-02,
757,2.00e-02,
758,1.60e-02,
759,-8.00e-03,
760,1.60e-02,
761,-1.20e-02,
762,-8.00e-03,
763,1.60e-02,
764,1.60e-02,
765,-8.00e-03,
766,2.00e-02,
767,-8.00e-03,
768,1.60e-02,
769,-1.20e-02,
770,1.60e-02,
771,-1.20e-02,
772,-8.00e-03,
773,2.00e-02,
774,-8.00e-03,
775,2.00e-02,
776,-8.00e-03,
777,2.00e-02,
778,-8.00e-03,
779,1.60e-02,
780,1.60e-02,
781,-1.20e-02,
782,1.60e-02,
783,-1.20e-02,
784,-8.00e-03,
785,1.60e-02,
786,-1.20e-02,
787,2.00e-02,
788,1.60e-02,
789,-1.20e-02,
790,-8.00e-03,
791,1.60e-02,
792,1.60e-02,
793,-1.20e-02,
794,1.60e-02,
795,-1.20e-02,
796,1.60e-02,
797,-1.20e-02,
798,1.60e-02,
799,-1.20e-02,
800,2.00e-02,
801,-1.20e-02,
802,1.60e-02,
803,-1.20e-02,
804,1.60e-02,
805,-8.00e-03,
806,-8.00e-03,
807,1.60e-02,
808,-1.96e-01,
809,8.80e-02,
810,1.60e-02,
811,-1.20e-02,
812,1.60e-02,
813,-1.20e-02,
814,1.60e-02,
815,-1.20e-02,
816,1.60e-02,
817,-1.20e-02,
818,1.60e-02,
819,-1.20e-02,
820,1.60e-02,
821,-1.20e-02,
822,1.60e-02,
823,-1.20e-02,
824,1.60e-02,
825,-1.20e-02,
826,2.00e-02,
827,-1.20e-02,
828,1.60e-02,
829,-1.20e-02,
830,1.60e-02,
831,-1.20e-02,
832,2.00e-02,
833,-1.20e-02,
834,1.60e-02,
835,-1.20e-02,
836,-8.00e-03,
837,1.60e-02,
838,1.60e-02,
839,-1.20e-02,
840,1.60e-02,
841,-8.00e-03,
842,1.60e-02,
843,-1.20e-02,
844,1.60e-02,
845,-1.20e-02,
846,-1.20e-02,
847,2.00e-02,
848,-1.20e-02,
849,1.60e-02,
850,-1.20e-02,
851,1.60e-02,
852,1.60e-02,
853,-1.20e-02,
854,1.60e-02,
855,-1.20e-02,
856,1.60e-02,
857,-1.20e-02,
858,-1.20e-02,
859,1.60e-02,
860,1.60e-02,
861,-1.12e-01,
862,-2.80e-02,
863,1.32e-01,
864,1.60e-02,
865,-1.20e-02,
866,1.60e-02,
867,-1.20e-02,
868,-1.20e-02,
869,2.00e-02,
870,1.60e-02,
871,-1.20e-02,
872,-8.00e-03,
873,2.00e-02,
874,1.60e-02,
875,-1.20e-02,
876,-8.00e-03,
877,2.00e-02,
878,1.60e-02,
879,-1.20e-02,
880,-1.20e-02,
881,1.60e-02,
882,2.00e-02,
883,-1.20e-02,
884,2.00e-02,
885,-1.20e-02,
886,-1.20e-02,
887,1.60e-02,
888,1.60e-02,
889,-1.20e-02,
890,-1.20e-02,
891,1.60e-02,
892,-1.20e-02,
893,2.00e-02,
894,1.60e-02,
895,-1.20e-02,
896,-1.60e-02,
897,2.00e-02,
898,1.60e-02,
899,-1.20e-02,
900,1.60e-02,
901,-1.20e-02,
902,1.60e-02,
903,-1.20e-02,
904,1.60e-02,
905,-1.20e-02,
906,-1.20e-02,
907,2.00e-02,
908,1.60e-02,
909,-1.20e-02,
910,1.60e-02,
911,-1.20e-02,
912,2.00e-02,
913,-1.20e-02,
914,-1.68e-01,
915,2.40e-02,
916,-8.00e-03,
917,2.00e-02,
918,-8.00e-03,
919,1.60e-02,
920,2.00e-02,
921,-1.20e-02,
922,-1.20e-02,
923,2.00e-02,
924,-1.20e-02,
925,2.00e-02,
926,-1.20e-02,
927,2.00e-02,
928,-8.00e-03,
929,1.60e-02,
930,1.60e-02,
931,-1.20e-02,
932,1.60e-02,
933,-8.00e-03,
934,2.00e-02,
935,-1.20e-02,
936,-8.00e-03,
937,1.60e-02,
938,1.60e-02,
939,-1.20e-02,
940,1.60e-02,
941,-1.20e-02,
942,1.60e-02,
943,-1.20e-02,
944,-8.00e-03,
945,2.00e-02,
946,1.60e-02,
947,-1.20e-02,
948,-1.20e-02,
949,2.00e-02,
950,1.60e-02,
951,-1.20e-02,
952,1.60e-02,
953,-1.20e-02,
954,1.60e-02,
955,-8.00e-03,
956,2.00e-02,
957,-1.20e-02,
958,2.00e-02,
959,-1.20e-02,
960,1.60e-02,
961,-1.20e-02,
962,1.60e-02,
963,-1.20e-02,
964,1.60e-02,
965,-1.20e-02,
966,-1.36e-01,
967,5.20e-02,
968,1.60e-02,
969,-2.00e-02,
970,-8.00e-03,
971,1.60e-02,
972,1.60e-02,
973,-1.20e-02,
974,-1.20e-02,
975,1.60e-02,
976,-8.00e-03,
977,2.00e-02,
978,-1.20e-02,
979,2.00e-02,
980,-1.20e-02,
981,2.00e-02,
982,-8.00e-03,
983,2.00e-02,
984,1.60e-02,
985,-1.20e-02,
986,-8.00e-03,
987,1.60e-02,
988,1.60e-02,
989,-1.20e-02,
990,-8.00e-03,
991,1.60e-02,
992,-1.20e-02,
993,2.00e-02,
994,1.60e-02,
995,-1.20e-02,
996,1.60e-02,
997,-1.20e-02,
998,1.60e-02,
999,-1.20e-02,
1000,1.60e-02,
1001,-1.20e-02,
1002,1.60e-02,
1003,-1.20e-02,
1004,1.60e-02,
1005,-1.20e-02,
1006,1.60e-02,
1007,-1.20e-02,
1008,1.60e-02,
1009,-8.00e-03,
1010,1.60e-02,
1011,-1.20e-02,
1012,1.60e-02,
1013,-1.20e-02,
1014,2.00e-02,
1015,-1.20e-02,
1016,-1.20e-02,
1017,2.00e-02,
1018,-1.20e-02,
1019,2.00e-02,
1020,-6.80e-02,
1021,2.80e-02,
1022,1.60e-02,
1023,-1.20e-02,
1024,1.60e-02,
1025,-1.20e-02,
1026,1.60e-02,
1027,-8.00e-03,
1028,1.60e-02,
1029,-1.20e-02,
1030,1.60e-02,
1031,-1.20e-02,
1032,1.60e-02,
1033,-8.00e-03,
1034,1.60e-02,
1035,-1.20e-02,
1036,1.60e-02,
1037,-1.20e-02,
1038,-8.00e-03,
1039,2.00e-02,
1040,1.60e-02,
1041,-1.20e-02,
1042,-8.00e-03,
1043,2.00e-02,
1044,-8.00e-03,
1045,1.60e-02,
1046,2.00e-02,
1047,-1.20e-02,
1048,-8.00e-03,
1049,1.60e-02,
1050,1.60e-02,
1051,-1.20e-02,
1052,1.60e-02,
1053,-1.20e-02,
1054,-8.00e-03,
1055,2.00e-02,
1056,-8.00e-03,
1057,1.60e-02,
1058,1.60e-02,
1059,-1.20e-02,
1060,1.60e-02,
1061,-1.20e-02,
1062,-8.00e-03,
1063,1.60e-02,
1064,1.60e-02,
1065,-1.20e-02,
1066,1.60e-02,
1067,-1.20e-02,
1068,1.60e-02,
1069,-1.20e-02,
1070,1.60e-02,
1071,-1.20e-02,
1072,-1.20e-02,
1073,1.08e-01,
1074,-5.20e-02,
1075,4.40e-02,
1076,1.60e-02,
1077,-1.20e-02,
1078,1.60e-02,
1079,-1.20e-02,
1080,1.60e-02,
1081,-1.20e-02,
1082,1.60e-02,
1083,-1.20e-02,
1084,-1.20e-02,
1085,1.60e-02,
1086,1.60e-02,
1087,-1.20e-02,
1088,1.60e-02,
1089,-8.00e-03,
1090,1.60e-02,
1091,-1.20e-02,
1092,1.60e-02,
1093,-1.20e-02,
1094,1.60e-02,
1095,-1.20e-02,
1096,1.60e-02,
1097,-1.20e-02,
1098,1.60e-02,
1099,-1.20e-02,
1100,2.00e-02,
1101,-1.20e-02,
1102,-1.20e-02,
1103,1.60e-02,
1104,1.60e-02,
1105,-1.20e-02,
1106,1.60e-02,
1107,-1.20e-02,
1108,1.60e-02,
1109,-1.20e-02,
1110,1.60e-02,
1111,-1.20e-02,
1112,1.60e-02,
1113,-1.20e-02,
1114,1.60e-02,
1115,-1.20e-02,
1116,-1.20e-02,
1117,2.00e-02,
1118,1.60e-02,
1119,-1.20e-02,
1120,1.60e-02,
1121,-1.20e-02,
1122,1.60e-02,
1123,-1.20e-02,
1124,-8.00e-03,
1125,1.60e-02,
1126,-2.00e-02,
1127,1.48e-01,
1128,2.00e-02,
1129,-1.20e-02,
1130,1.60e-02,
1131,-1.20e-02,
1132,1.60e-02,
1133,-1.20e-02,
1134,-8.00e-03,
1135,1.60e-02,
1136,-8.00e-03,
1137,1.60e-02,
1138,1.60e-02,
1139,-1.20e-02,
1140,1.60e-02,
1141,-1.20e-02,
1142,1.60e-02,
1143,-1.20e-02,
1144,2.00e-02,
1145,-1.20e-02,
1146,-8.00e-03,
1147,1.60e-02,
1148,-1.20e-02,
1149,2.00e-02,
1150,1.60e-02,
1151,-1.20e-02,
1152,1.60e-02,
1153,-1.20e-02,
1154,1.60e-02,
1155,-1.20e-02,
1156,-1.20e-02,
1157,2.00e-02,
1158,-1.20e-02,
1159,2.00e-02,
1160,-1.20e-02,
1161,2.00e-02,
1162,1.60e-02,
1163,-1.20e-02,
1164,1.60e-02,
1165,-1.20e-02,
1166,1.60e-02,
1167,-1.20e-02,
1168,1.60e-02,
1169,-1.20e-02,
1170,-8.00e-03,
1171,2.00e-02,
1172,-1.20e-02,
1173,1.60e-02,
1174,-8.00e-03,
1175,1.60e-02,
1176,-8.00e-03,
1177,2.00e-02,
1178,-4.00e-02,
1179,9.60e-02,
1180,4.40e-02,
1181,-1.20e-02,
1182,1.60e-02,
1183,-1.20e-02,
1184,-8.00e-03,
1185,1.60e-02,
1186,-1.20e-02,
1187,2.00e-02,
1188,1.60e-02,
1189,-1.20e-02,
1190,-1.20e-02,
1191,2.00e-02,
1192,-8.00e-03,
1193,2.00e-02,
1194,1.60e-02,
1195,-1.20e-02,
1196,1.60e-02,
1197,-1.20e-02,
1198,-8.00e-03,
1199,2.00e-02,
