Laptop_2/LAPTOP_CHRGR_2_OFF/time domain/NewFile7.csv

X,CH1,Start,Increment,
Sequence,Volt,-1.500000e-01,2.000000e-04
0,-4.00e-03,
1,1.20e-02,
2,1.20e-02,
3,-4.00e-03,
4,-4.00e-03,
5,1.20e-02,
6,1.20e-02,
7,-8.00e-03,
8,1.20e-02,
9,-8.00e-03,
10,-4.00e-03,
11,1.20e-02,
12,-4.00e-03,
13,1.20e-02,
14,-4.00e-03,
15,1.20e-02,
16,-8.00e-03,
17,1.20e-02,
18,-4.00e-03,
19,1.20e-02,
20,1.20e-02,
21,-8.00e-03,
22,1.60e-02,
23,-8.00e-03,
24,1.20e-02,
25,-8.00e-03,
26,-4.00e-03,
27,1.20e-02,
28,1.20e-02,
29,-8.00e-03,
30,-8.00e-03,
31,1.60e-02,
32,-1.44e-01,
33,2.00e-02,
34,1.20e-02,
35,-8.00e-03,
36,1.60e-02,
37,-8.00e-03,
38,-4.00e-03,
39,1.20e-02,
40,1.20e-02,
41,-8.00e-03,
42,1.20e-02,
43,-4.00e-03,
44,1.20e-02,
45,-4.00e-03,
46,-4.00e-03,
47,1.20e-02,
48,1.20e-02,
49,-8.00e-03,
50,1.20e-02,
51,-4.00e-03,
52,-4.00e-03,
53,1.20e-02,
54,-4.00e-03,
55,1.20e-02,
56,1.20e-02,
57,-4.00e-03,
58,1.20e-02,
59,-4.00e-03,
60,-4.00e-03,
61,1.60e-02,
62,1.20e-02,
63,-8.00e-03,
64,1.20e-02,
65,-8.00e-03,
66,-4.00e-03,
67,1.60e-02,
68,1.20e-02,
69,-8.00e-03,
70,1.20e-02,
71,-8.00e-03,
72,-8.00e-03,
73,1.60e-02,
74,1.60e-02,
75,-8.00e-03,
76,1.60e-02,
77,-8.00e-03,
78,-4.00e-03,
79,1.20e-02,
80,1.20e-02,
81,-8.00e-03,
82,-4.00e-03,
83,1.20e-02,
84,-4.00e-03,
85,1.20e-02,
86,-1.20e-02,
87,4.00e-02,
88,1.20e-02,
89,-8.00e-03,
90,-4.00e-03,
91,1.20e-02,
92,1.20e-02,
93,-8.00e-03,
94,-4.00e-03,
95,1.20e-02,
96,1.20e-02,
97,-8.00e-03,
98,1.20e-02,
99,-8.00e-03,
100,1.20e-02,
101,-8.00e-03,
102,1.60e-02,
103,-8.00e-03,
104,-4.00e-03,
105,1.20e-02,
106,1.20e-02,
107,-8.00e-03,
108,-4.00e-03,
109,1.20e-02,
110,1.20e-02,
111,-8.00e-03,
112,-8.00e-03,
113,1.60e-02,
114,-4.00e-03,
115,2.00e-02,
116,1.60e-02,
117,-8.00e-03,
118,1.20e-02,
119,-1.20e-02,
120,1.60e-02,
121,-8.00e-03,
122,-4.00e-03,
123,1.20e-02,
124,-4.00e-03,
125,1.20e-02,
126,1.20e-02,
127,-8.00e-03,
128,1.20e-02,
129,-8.00e-03,
130,-4.00e-03,
131,1.20e-02,
132,1.20e-02,
133,-8.00e-03,
134,-4.00e-03,
135,1.20e-02,
136,1.20e-02,
137,-4.00e-03,
138,-1.60e-02,
139,4.80e-02,
140,1.20e-02,
141,-8.00e-03,
142,1.20e-02,
143,-4.00e-03,
144,1.20e-02,
145,-8.00e-03,
146,1.20e-02,
147,-8.00e-03,
148,1.20e-02,
149,-8.00e-03,
150,-8.00e-03,
151,1.20e-02,
152,-4.00e-03,
153,1.20e-02,
154,1.60e-02,
155,-8.00e-03,
156,1.20e-02,
157,-4.00e-03,
158,1.20e-02,
159,-8.00e-03,
160,1.20e-02,
161,-8.00e-03,
162,-8.00e-03,
163,1.20e-02,
164,-4.00e-03,
165,1.20e-02,
166,-4.00e-03,
167,1.20e-02,
168,-4.00e-03,
169,1.20e-02,
170,-4.00e-03,
171,1.20e-02,
172,-4.00e-03,
173,1.20e-02,
174,-4.00e-03,
175,1.20e-02,
176,-4.00e-03,
177,1.20e-02,
178,-4.00e-03,
179,1.20e-02,
180,-4.00e-03,
181,1.20e-02,
182,1.20e-02,
183,-8.00e-03,
184,1.20e-02,
185,-4.00e-03,
186,-4.00e-03,
187,1.20e-02,
188,1.20e-02,
189,-8.00e-03,
190,-4.00e-03,
191,1.60e-02,
192,-1.00e-01,
193,3.60e-02,
194,1.60e-02,
195,-4.00e-03,
196,-4.00e-03,
197,1.20e-02,
198,1.20e-02,
199,-8.00e-03,
200,-1.20e-02,
201,1.60e-02,
202,1.20e-02,
203,-8.00e-03,
204,-4.00e-03,
205,1.20e-02,
206,1.20e-02,
207,-8.00e-03,
208,1.20e-02,
209,-8.00e-03,
210,1.20e-02,
211,-4.00e-03,
212,-4.00e-03,
213,1.20e-02,
214,1.20e-02,
215,-8.00e-03,
216,-4.00e-03,
217,1.20e-02,
218,-4.00e-03,
219,1.20e-02,
220,1.20e-02,
221,-8.00e-03,
222,-4.00e-03,
223,1.20e-02,
224,1.20e-02,
225,-8.00e-03,
226,1.20e-02,
227,-8.00e-03,
228,1.20e-02,
229,-4.00e-03,
230,1.20e-02,
231,-8.00e-03,
232,1.20e-02,
233,-4.00e-03,
234,1.20e-02,
235,-4.00e-03,
236,1.20e-02,
237,-8.00e-03,
238,-4.00e-03,
239,1.20e-02,
240,-8.00e-03,
241,1.20e-02,
242,-4.00e-03,
243,1.60e-02,
244,1.20e-02,
245,-4.00e-03,
246,-4.00e-02,
247,4.00e-02,
248,-4.00e-03,
249,1.20e-02,
250,-4.00e-03,
251,1.20e-02,
252,-8.00e-03,
253,1.20e-02,
254,-4.00e-03,
255,1.20e-02,
256,1.20e-02,
257,-8.00e-03,
258,1.20e-02,
259,-4.00e-03,
260,-4.00e-03,
261,1.20e-02,
262,1.60e-02,
263,-8.00e-03,
264,-8.00e-03,
265,1.20e-02,
266,1.20e-02,
267,-8.00e-03,
268,-4.00e-03,
269,1.20e-02,
270,-4.00e-03,
271,1.20e-02,
272,-4.00e-03,
273,1.20e-02,
274,-4.00e-03,
275,1.60e-02,
276,1.20e-02,
277,-8.00e-03,
278,1.20e-02,
279,-8.00e-03,
280,-4.00e-03,
281,1.20e-02,
282,1.20e-02,
283,-8.00e-03,
284,1.60e-02,
285,-8.00e-03,
286,1.60e-02,
287,-8.00e-03,
288,1.20e-02,
289,-8.00e-03,
290,-4.00e-03,
291,1.20e-02,
292,-8.00e-03,
293,1.20e-02,
294,1.20e-02,
295,-8.00e-03,
296,1.20e-02,
297,-8.00e-03,
298,-8.00e-03,
299,8.80e-02,
300,1.20e-02,
301,-8.00e-03,
302,1.20e-02,
303,-8.00e-03,
304,1.20e-02,
305,-8.00e-03,
306,1.20e-02,
307,-4.00e-03,
308,1.20e-02,
309,-8.00e-03,
310,-4.00e-03,
311,1.20e-02,
312,-4.00e-03,
313,1.20e-02,
314,1.20e-02,
315,-8.00e-03,
316,-4.00e-03,
317,1.20e-02,
318,1.20e-02,
319,-4.00e-03,
320,1.60e-02,
321,-8.00e-03,
322,1.20e-02,
323,-8.00e-03,
324,1.60e-02,
325,-8.00e-03,
326,1.20e-02,
327,-8.00e-03,
328,1.20e-02,
329,-8.00e-03,
330,-8.00e-03,
331,1.20e-02,
332,1.20e-02,
333,-8.00e-03,
334,-4.00e-03,
335,1.20e-02,
336,-4.00e-03,
337,1.20e-02,
338,1.20e-02,
339,-8.00e-03,
340,-4.00e-03,
341,1.20e-02,
342,-4.00e-03,
343,1.20e-02,
344,-4.00e-03,
345,1.20e-02,
346,1.20e-02,
347,-4.00e-03,
348,1.20e-02,
349,-8.00e-03,
350,1.20e-02,
351,-4.00e-03,
352,-6.80e-02,
353,5.60e-02,
354,-8.00e-03,
355,1.60e-02,
356,-4.00e-03,
357,1.20e-02,
358,1.20e-02,
359,-4.00e-03,
360,1.20e-02,
361,-4.00e-03,
362,-8.00e-03,
363,1.60e-02,
364,1.20e-02,
365,-8.00e-03,
366,1.20e-02,
367,-8.00e-03,
368,1.20e-02,
369,-8.00e-03,
370,1.20e-02,
371,-8.00e-03,
372,-4.00e-03,
373,1.20e-02,
374,-4.00e-03,
375,1.20e-02,
376,1.20e-02,
377,-8.00e-03,
378,-4.00e-03,
379,1.20e-02,
380,1.20e-02,
381,-4.00e-03,
382,-4.00e-03,
383,1.20e-02,
384,1.20e-02,
385,-4.00e-03,
386,-4.00e-03,
387,1.20e-02,
388,1.20e-02,
389,-8.00e-03,
390,1.20e-02,
391,-8.00e-03,
392,-4.00e-03,
393,1.60e-02,
394,-8.00e-03,
395,1.60e-02,
396,1.20e-02,
397,-8.00e-03,
398,1.20e-02,
399,-8.00e-03,
400,-4.00e-03,
401,1.20e-02,
402,1.20e-02,
403,-8.00e-03,
404,1.08e-01,
405,-6.00e-02,
406,1.20e-02,
407,-8.00e-03,
408,1.20e-02,
409,-4.00e-03,
410,1.20e-02,
411,-8.00e-03,
412,1.20e-02,
413,-8.00e-03,
414,-4.00e-03,
415,1.20e-02,
416,-4.00e-03,
417,1.20e-02,
418,-4.00e-03,
419,1.20e-02,
420,-4.00e-03,
421,1.20e-02,
422,-4.00e-03,
423,1.20e-02,
424,-4.00e-03,
425,1.60e-02,
426,1.20e-02,
427,-8.00e-03,
428,-4.00e-03,
429,1.20e-02,
430,1.20e-02,
431,-8.00e-03,
432,1.20e-02,
433,-8.00e-03,
434,1.20e-02,
435,-8.00e-03,
436,1.20e-02,
437,-8.00e-03,
438,-8.00e-03,
439,1.60e-02,
440,-4.00e-03,
441,1.20e-02,
442,1.20e-02,
443,-8.00e-03,
444,1.20e-02,
445,-8.00e-03,
446,1.20e-02,
447,-8.00e-03,
448,1.20e-02,
449,-8.00e-03,
450,1.20e-02,
451,-1.20e-02,
452,1.20e-02,
453,-8.00e-03,
454,-4.00e-03,
455,1.20e-02,
456,-4.00e-03,
457,1.20e-02,
458,-2.00e-02,
459,4.40e-02,
460,-4.00e-03,
461,1.20e-02,
462,1.20e-02,
463,-8.00e-03,
464,1.20e-02,
465,-4.00e-03,
466,-4.00e-03,
467,1.20e-02,
468,-4.00e-03,
469,1.20e-02,
470,1.20e-02,
471,-4.00e-03,
472,1.20e-02,
473,-4.00e-03,
474,-4.00e-03,
475,1.20e-02,
476,-4.00e-03,
477,1.20e-02,
478,-4.00e-03,
479,1.20e-02,
480,1.20e-02,
481,-4.00e-03,
482,1.20e-02,
483,-8.00e-03,
484,1.20e-02,
485,-8.00e-03,
486,1.20e-02,
487,-8.00e-03,
488,1.20e-02,
489,-8.00e-03,
490,1.20e-02,
491,-8.00e-03,
492,1.20e-02,
493,-8.00e-03,
494,1.20e-02,
495,-8.00e-03,
496,1.20e-02,
497,-8.00e-03,
498,-4.00e-03,
499,1.20e-02,
500,-4.00e-03,
501,1.20e-02,
502,-4.00e-03,
503,1.20e-02,
504,1.20e-02,
505,-4.00e-03,
506,1.20e-02,
507,-4.00e-03,
508,-4.00e-03,
509,1.20e-02,
510,-1.20e-02,
511,1.12e-01,
512,1.20e-02,
513,-4.00e-03,
514,-4.00e-03,
515,1.20e-02,
516,-4.00e-03,
517,1.20e-02,
518,-4.00e-03,
519,1.20e-02,
520,-4.00e-03,
521,1.20e-02,
522,-4.00e-03,
523,1.60e-02,
524,1.60e-02,
525,-8.00e-03,
526,-4.00e-03,
527,1.60e-02,
528,1.20e-02,
529,-8.00e-03,
530,1.60e-02,
531,-8.00e-03,
532,1.20e-02,
533,-8.00e-03,
534,-8.00e-03,
535,1.60e-02,
536,1.20e-02,
537,-4.00e-03,
538,1.20e-02,
539,-4.00e-03,
540,-4.00e-03,
541,1.20e-02,
542,1.20e-02,
543,-8.00e-03,
544,-4.00e-03,
545,1.60e-02,
546,-4.00e-03,
547,1.20e-02,
548,1.20e-02,
549,-8.00e-03,
550,-4.00e-03,
551,1.20e-02,
552,1.20e-02,
553,-8.00e-03,
554,1.20e-02,
555,-8.00e-03,
556,-4.00e-03,
557,1.20e-02,
558,1.20e-02,
559,-8.00e-03,
560,1.20e-02,
561,-8.00e-03,
562,1.20e-02,
563,-8.00e-03,
564,-1.16e-01,
565,4.80e-02,
566,-4.00e-03,
567,1.20e-02,
568,1.20e-02,
569,-8.00e-03,
570,1.20e-02,
571,-8.00e-03,
572,1.60e-02,
573,-8.00e-03,
574,1.20e-02,
575,-8.00e-03,
576,1.20e-02,
577,-8.00e-03,
578,1.20e-02,
579,-8.00e-03,
580,1.20e-02,
581,-8.00e-03,
582,-4.00e-03,
583,1.20e-02,
584,-8.00e-03,
585,1.60e-02,
586,1.20e-02,
587,-8.00e-03,
588,1.20e-02,
589,-8.00e-03,
590,-4.00e-03,
591,1.20e-02,
592,-4.00e-03,
593,1.20e-02,
594,-4.00e-03,
595,1.20e-02,
596,-8.00e-03,
597,1.60e-02,
598,1.20e-02,
599,-8.00e-03,
600,-4.00e-03,
601,1.60e-02,
602,-4.00e-03,
603,1.20e-02,
604,-4.00e-03,
605,1.20e-02,
606,1.20e-02,
607,-8.00e-03,
608,1.20e-02,
609,-8.00e-03,
610,1.20e-02,
611,-8.00e-03,
612,-8.00e-03,
613,1.60e-02,
614,1.20e-02,
615,-8.00e-03,
616,-1.04e-01,
617,2.80e-02,
618,-4.00e-03,
619,1.60e-02,
620,1.20e-02,
621,-8.00e-03,
622,-4.00e-03,
623,1.20e-02,
624,1.20e-02,
625,-4.00e-03,
626,-4.00e-03,
627,1.20e-02,
628,-4.00e-03,
629,1.20e-02,
630,-4.00e-03,
631,1.20e-02,
632,1.20e-02,
633,-8.00e-03,
634,1.20e-02,
635,-4.00e-03,
636,1.20e-02,
637,-8.00e-03,
638,-4.00e-03,
639,1.20e-02,
640,1.20e-02,
641,-8.00e-03,
642,1.20e-02,
643,-8.00e-03,
644,1.20e-02,
645,-8.00e-03,
646,-4.00e-03,
647,1.20e-02,
648,-4.00e-03,
649,1.20e-02,
650,1.20e-02,
651,-8.00e-03,
652,-4.00e-03,
653,1.20e-02,
654,1.60e-02,
655,-8.00e-03,
656,1.20e-02,
657,-8.00e-03,
658,-4.00e-03,
659,1.60e-02,
660,-4.00e-03,
661,1.20e-02,
662,1.20e-02,
663,-8.00e-03,
664,1.20e-02,
665,-4.00e-03,
666,-4.00e-03,
667,1.20e-02,
668,-4.00e-03,
669,1.20e-02,
670,-4.80e-02,
671,2.80e-02,
672,1.20e-02,
673,-4.00e-03,
674,1.20e-02,
675,-8.00e-03,
676,1.20e-02,
677,-8.00e-03,
678,-4.00e-03,
679,1.60e-02,
680,-4.00e-03,
681,1.60e-02,
682,-4.00e-03,
683,1.20e-02,
684,-8.00e-03,
685,1.60e-02,
686,1.20e-02,
687,-8.00e-03,
688,1.60e-02,
689,-8.00e-03,
690,1.20e-02,
691,-8.00e-03,
692,1.20e-02,
693,-8.00e-03,
694,-4.00e-03,
695,1.20e-02,
696,-8.00e-03,
697,1.60e-02,
698,1.60e-02,
699,-8.00e-03,
700,-8.00e-03,
701,1.20e-02,
702,-4.00e-03,
703,1.20e-02,
704,-4.00e-03,
705,1.20e-02,
706,-4.00e-03,
707,1.20e-02,
708,1.20e-02,
709,-8.00e-03,
710,-4.00e-03,
711,1.20e-02,
712,-4.00e-03,
713,1.20e-02,
714,-4.00e-03,
715,1.20e-02,
716,1.20e-02,
717,-4.00e-03,
718,1.20e-02,
719,-8.00e-03,
720,1.20e-02,
721,-8.00e-03,
722,-8.40e-02,
723,3.20e-02,
724,-1.20e-02,
725,1.60e-02,
726,1.20e-02,
727,-8.00e-03,
728,-8.00e-03,
729,1.20e-02,
730,-4.00e-03,
731,1.20e-02,
732,1.20e-02,
733,-8.00e-03,
734,1.20e-02,
735,-8.00e-03,
736,-8.00e-03,
737,1.60e-02,
738,1.60e-02,
739,-8.00e-03,
740,-4.00e-03,
741,1.20e-02,
742,-8.00e-03,
743,1.60e-02,
744,-4.00e-03,
745,1.20e-02,
746,-4.00e-03,
747,1.20e-02,
748,-4.00e-03,
749,1.20e-02,
750,-4.00e-03,
751,1.20e-02,
752,-4.00e-03,
753,1.20e-02,
754,1.20e-02,
755,-4.00e-03,
756,-4.00e-03,
757,1.20e-02,
758,1.20e-02,
759,-4.00e-03,
760,-4.00e-03,
761,1.20e-02,
762,-4.00e-03,
763,1.20e-02,
764,-4.00e-03,
765,1.20e-02,
766,1.20e-02,
767,-8.00e-03,
768,1.20e-02,
769,-8.00e-03,
770,-4.00e-03,
771,1.60e-02,
772,-4.00e-03,
773,1.20e-02,
774,-8.00e-03,
775,1.20e-02,
776,-7.20e-02,
777,4.80e-02,
778,1.20e-02,
779,-8.00e-03,
780,-8.00e-03,
781,1.60e-02,
782,1.20e-02,
783,-8.00e-03,
784,-4.00e-03,
785,1.20e-02,
786,-8.00e-03,
787,1.60e-02,
788,-4.00e-03,
789,1.20e-02,
790,-4.00e-03,
791,1.20e-02,
792,-4.00e-03,
793,1.20e-02,
794,1.20e-02,
795,-4.00e-03,
796,1.20e-02,
797,-8.00e-03,
798,-4.00e-03,
799,1.20e-02,
800,1.20e-02,
801,-8.00e-03,
802,-4.00e-03,
803,1.20e-02,
804,-4.00e-03,
805,1.20e-02,
806,1.20e-02,
807,-8.00e-03,
808,-4.00e-03,
809,1.20e-02,
810,1.20e-02,
811,-8.00e-03,
812,1.20e-02,
813,-8.00e-03,
814,-8.00e-03,
815,1.60e-02,
816,-4.00e-03,
817,1.20e-02,
818,1.20e-02,
819,-8.00e-03,
820,-4.00e-03,
821,1.20e-02,
822,1.60e-02,
823,-8.00e-03,
824,1.60e-02,
825,-8.00e-03,
826,1.60e-02,
827,-8.00e-03,
828,1.20e-02,
829,-8.00e-03,
830,-5.60e-02,
831,9.20e-02,
832,-4.00e-03,
833,1.20e-02,
834,-4.00e-03,
835,1.20e-02,
836,1.20e-02,
837,-4.00e-03,
838,1.20e-02,
839,-4.00e-03,
840,-4.00e-03,
841,1.20e-02,
842,1.20e-02,
843,-4.00e-03,
844,-4.00e-03,
845,1.20e-02,
846,-4.00e-03,
847,1.60e-02,
848,1.20e-02,
849,-8.00e-03,
850,1.20e-02,
851,-8.00e-03,
852,1.20e-02,
853,-8.00e-03,
854,-4.00e-03,
855,1.20e-02,
856,1.20e-02,
857,-8.00e-03,
858,1.20e-02,
859,-8.00e-03,
860,1.20e-02,
861,-8.00e-03,
862,-8.00e-03,
863,1.60e-02,
864,-8.00e-03,
865,1.60e-02,
866,1.20e-02,
867,-8.00e-03,
868,1.20e-02,
869,-4.00e-03,
870,-8.00e-03,
871,1.20e-02,
872,-4.00e-03,
873,1.20e-02,
874,-4.00e-03,
875,1.20e-02,
876,1.20e-02,
877,-4.00e-03,
878,-4.00e-03,
879,1.20e-02,
880,-4.00e-03,
881,1.20e-02,
882,-1.28e-01,
883,1.04e-01,
884,-4.00e-03,
885,1.20e-02,
886,-4.00e-03,
887,1.20e-02,
888,-4.00e-03,
889,1.20e-02,
890,1.20e-02,
891,-8.00e-03,
892,1.20e-02,
893,-8.00e-03,
894,1.20e-02,
895,-8.00e-03,
896,-4.00e-03,
897,1.20e-02,
898,1.20e-02,
899,-4.00e-03,
900,-4.00e-03,
901,1.20e-02,
902,1.20e-02,
903,-8.00e-03,
904,1.20e-02,
905,-8.00e-03,
906,1.20e-02,
907,-8.00e-03,
908,1.20e-02,
909,-8.00e-03,
910,1.60e-02,
911,-8.00e-03,
912,1.20e-02,
913,-8.00e-03,
914,1.20e-02,
915,-4.00e-03,
916,-4.00e-03,
917,1.20e-02,
918,-4.00e-03,
919,1.20e-02,
920,1.20e-02,
921,-8.00e-03,
922,1.20e-02,
923,-4.00e-03,
924,1.20e-02,
925,-4.00e-03,
926,1.20e-02,
927,-4.00e-03,
928,1.20e-02,
929,-8.00e-03,
930,1.20e-02,
931,-8.00e-03,
932,1.20e-02,
933,-8.00e-03,
934,1.20e-02,
935,-8.00e-03,
936,5.60e-02,
937,-1.60e-02,
938,-8.00e-03,
939,1.60e-02,
940,-4.00e-03,
941,1.20e-02,
942,-4.00e-03,
943,1.20e-02,
944,-8.00e-03,
945,1.60e-02,
946,-8.00e-03,
947,1.60e-02,
948,-8.00e-03,
949,1.60e-02,
950,1.60e-02,
951,-8.00e-03,
952,1.60e-02,
953,-8.00e-03,
954,-4.00e-03,
955,1.20e-02,
956,1.20e-02,
957,-4.00e-03,
958,-4.00e-03,
959,1.20e-02,
960,-4.00e-03,
961,1.20e-02,
962,-4.00e-03,
963,1.20e-02,
964,-4.00e-03,
965,1.20e-02,
966,1.20e-02,
967,-8.00e-03,
968,-4.00e-03,
969,1.20e-02,
970,-4.00e-03,
971,1.20e-02,
972,1.20e-02,
973,-8.00e-03,
974,1.20e-02,
975,-8.00e-03,
976,1.20e-02,
977,-8.00e-03,
978,-8.00e-03,
979,1.20e-02,
980,-4.00e-03,
981,1.20e-02,
982,1.20e-02,
983,-8.00e-03,
984,-4.00e-03,
985,1.20e-02,
986,1.20e-02,
987,-8.00e-03,
988,1.20e-01,
989,-1.60e-02,
990,-8.00e-03,
991,1.60e-02,
992,1.60e-02,
993,-8.00e-03,
994,-4.00e-03,
995,1.60e-02,
996,-4.00e-03,
997,1.20e-02,
998,-4.00e-03,
999,1.20e-02,
1000,1.20e-02,
1001,-8.00e-03,
1002,1.20e-02,
1003,-4.00e-03,
1004,-4.00e-03,
1005,1.20e-02,
1006,-4.00e-03,
1007,1.20e-02,
1008,1.20e-02,
1009,-4.00e-03,
1010,-4.00e-03,
1011,1.20e-02,
1012,-8.00e-03,
1013,1.60e-02,
1014,-4.00e-03,
1015,1.20e-02,
1016,1.20e-02,
1017,-8.00e-03,
1018,1.20e-02,
1019,-4.00e-03,
1020,1.20e-02,
1021,-8.00e-03,
1022,1.20e-02,
1023,-8.00e-03,
1024,1.20e-02,
1025,-4.00e-03,
1026,1.20e-02,
1027,-8.00e-03,
1028,1.60e-02,
1029,-8.00e-03,
1030,-4.00e-03,
1031,1.60e-02,
1032,-8.00e-03,
1033,1.60e-02,
1034,-4.00e-03,
1035,2.00e-02,
1036,-8.00e-03,
1037,1.60e-02,
1038,-4.00e-03,
1039,1.20e-02,
1040,-4.00e-03,
1041,1.20e-02,
1042,-1.32e-01,
1043,2.80e-02,
1044,1.20e-02,
1045,-8.00e-03,
1046,1.20e-02,
1047,-8.00e-03,
1048,1.20e-02,
1049,-4.00e-03,
1050,-4.00e-03,
1051,1.20e-02,
1052,1.20e-02,
1053,-8.00e-03,
1054,-4.00e-03,
1055,1.20e-02,
1056,-4.00e-03,
1057,1.20e-02,
1058,1.20e-02,
1059,-8.00e-03,
1060,-8.00e-03,
1061,1.20e-02,
1062,1.20e-02,
1063,-4.00e-03,
1064,-4.00e-03,
1065,1.60e-02,
1066,-4.00e-03,
1067,1.20e-02,
1068,-8.00e-03,
1069,1.60e-02,
1070,1.20e-02,
1071,-8.00e-03,
1072,1.60e-02,
1073,-8.00e-03,
1074,1.60e-02,
1075,-8.00e-03,
1076,1.20e-02,
1077,-8.00e-03,
1078,-4.00e-03,
1079,1.60e-02,
1080,-4.00e-03,
1081,1.20e-02,
1082,-4.00e-03,
1083,1.20e-02,
1084,1.20e-02,
1085,-4.00e-03,
1086,1.20e-02,
1087,-8.00e-03,
1088,1.20e-02,
1089,-8.00e-03,
1090,1.20e-02,
1091,-4.00e-03,
1092,-4.00e-03,
1093,1.20e-02,
1094,-5.20e-02,
1095,2.80e-02,
1096,1.20e-02,
1097,-8.00e-03,
1098,1.20e-02,
1099,-8.00e-03,
1100,1.60e-02,
1101,-8.00e-03,
1102,1.20e-02,
1103,-8.00e-03,
1104,-4.00e-03,
1105,1.20e-02,
1106,1.20e-02,
1107,-8.00e-03,
1108,-4.00e-03,
1109,1.20e-02,
1110,1.20e-02,
1111,-8.00e-03,
1112,-4.00e-03,
1113,1.60e-02,
1114,1.20e-02,
1115,-8.00e-03,
1116,1.60e-02,
1117,-8.00e-03,
1118,-8.00e-03,
1119,1.60e-02,
1120,-4.00e-03,
1121,1.20e-02,
1122,-4.00e-03,
1123,1.20e-02,
1124,1.20e-02,
1125,-4.00e-03,
1126,-4.00e-03,
1127,1.20e-02,
1128,1.20e-02,
1129,-8.00e-03,
1130,1.20e-02,
1131,-4.00e-03,
1132,-4.00e-03,
1133,1.20e-02,
1134,-4.00e-03,
1135,1.20e-02,
1136,-4.00e-03,
1137,1.20e-02,
1138,-4.00e-03,
1139,1.20e-02,
1140,-4.00e-03,
1141,1.60e-02,
1142,1.20e-02,
1143,-4.00e-03,
1144,1.20e-02,
1145,-8.00e-03,
1146,1.20e-02,
1147,-1.20e-02,
1148,-8.00e-03,
1149,5.20e-02,
1150,1.20e-02,
1151,-8.00e-03,
1152,1.60e-02,
1153,-8.00e-03,
1154,-4.00e-03,
1155,1.60e-02,
1156,-8.00e-03,
1157,1.60e-02,
1158,1.20e-02,
1159,-8.00e-03,
1160,-4.00e-03,
1161,1.20e-02,
1162,1.20e-02,
1163,-4.00e-03,
1164,1.20e-02,
1165,-8.00e-03,
1166,1.20e-02,
1167,-8.00e-03,
1168,-4.00e-03,
1169,1.20e-02,
1170,-4.00e-03,
1171,1.20e-02,
1172,-4.00e-03,
1173,1.20e-02,
1174,1.20e-02,
1175,-8.00e-03,
1176,-4.00e-03,
1177,1.20e-02,
1178,1.20e-02,
1179,-8.00e-03,
1180,1.20e-02,
1181,-4.00e-03,
1182,-8.00e-03,
1183,1.60e-02,
1184,1.20e-02,
1185,-8.00e-03,
1186,-4.00e-03,
1187,1.60e-02,
1188,1.20e-02,
1189,-8.00e-03,
1190,1.20e-02,
1191,-8.00e-03,
1192,-4.00e-03,
1193,1.60e-02,
1194,-8.00e-03,
1195,1.60e-02,
1196,1.60e-02,
1197,-8.00e-03,
1198,-8.00e-03,
1199,1.60e-02,
