Laptop_2/LAPTOP_CHRGR_2_OFF/time domain/NewFile42.csv

X,CH1,Start,Increment,
Sequence,Volt,-1.500000e-01,2.000000e-04
0,1.60e-02,
1,-1.20e-02,
2,1.60e-02,
3,-1.20e-02,
4,1.60e-02,
5,-1.20e-02,
6,-8.00e-03,
7,1.60e-02,
8,1.60e-02,
9,-1.20e-02,
10,1.60e-02,
11,-1.20e-02,
12,-8.00e-03,
13,1.60e-02,
14,1.60e-02,
15,-1.20e-02,
16,1.60e-02,
17,-1.20e-02,
18,-8.00e-03,
19,1.60e-02,
20,-8.00e-03,
21,1.60e-02,
22,1.60e-02,
23,-1.20e-02,
24,-8.00e-03,
25,1.60e-02,
26,-8.00e-03,
27,1.60e-02,
28,1.60e-02,
29,-1.20e-02,
30,-8.00e-03,
31,1.60e-02,
32,1.60e-02,
33,-1.20e-02,
34,1.60e-02,
35,-1.20e-02,
36,1.60e-02,
37,-1.20e-02,
38,1.60e-02,
39,-8.00e-03,
40,-1.32e-01,
41,6.80e-02,
42,-8.00e-03,
43,1.60e-02,
44,-1.20e-02,
45,1.60e-02,
46,1.60e-02,
47,-8.00e-03,
48,-1.20e-02,
49,1.60e-02,
50,1.60e-02,
51,-1.20e-02,
52,1.60e-02,
53,-1.20e-02,
54,-8.00e-03,
55,1.60e-02,
56,-8.00e-03,
57,1.60e-02,
58,1.60e-02,
59,-1.20e-02,
60,-8.00e-03,
61,2.00e-02,
62,-8.00e-03,
63,1.60e-02,
64,1.60e-02,
65,-8.00e-03,
66,1.60e-02,
67,-1.20e-02,
68,-8.00e-03,
69,1.60e-02,
70,1.60e-02,
71,-1.20e-02,
72,-8.00e-03,
73,1.60e-02,
74,1.60e-02,
75,-1.20e-02,
76,-8.00e-03,
77,1.60e-02,
78,1.60e-02,
79,-8.00e-03,
80,-8.00e-03,
81,1.60e-02,
82,1.60e-02,
83,-1.20e-02,
84,-8.00e-03,
85,1.60e-02,
86,-8.00e-03,
87,1.60e-02,
88,-1.20e-02,
89,1.60e-02,
90,-8.00e-03,
91,1.60e-02,
92,-1.60e-01,
93,3.60e-02,
94,-1.20e-02,
95,5.20e-02,
96,-8.00e-03,
97,1.60e-02,
98,-1.20e-02,
99,1.60e-02,
100,-8.00e-03,
101,2.00e-02,
102,-8.00e-03,
103,1.60e-02,
104,-8.00e-03,
105,2.00e-02,
106,-1.20e-02,
107,1.60e-02,
108,1.60e-02,
109,-1.20e-02,
110,-8.00e-03,
111,1.60e-02,
112,1.60e-02,
113,-1.20e-02,
114,1.60e-02,
115,-1.20e-02,
116,-8.00e-03,
117,1.60e-02,
118,-8.00e-03,
119,1.60e-02,
120,1.60e-02,
121,-8.00e-03,
122,1.60e-02,
123,-8.00e-03,
124,-8.00e-03,
125,1.60e-02,
126,-8.00e-03,
127,1.60e-02,
128,-8.00e-03,
129,1.60e-02,
130,-8.00e-03,
131,1.60e-02,
132,-8.00e-03,
133,1.60e-02,
134,1.60e-02,
135,-8.00e-03,
136,-8.00e-03,
137,1.60e-02,
138,1.60e-02,
139,-1.20e-02,
140,1.60e-02,
141,-1.20e-02,
142,1.60e-02,
143,-8.00e-03,
144,-8.00e-03,
145,1.60e-02,
146,2.80e-02,
147,-4.00e-02,
148,-8.00e-03,
149,1.60e-02,
150,2.00e-02,
151,-8.00e-03,
152,-8.00e-03,
153,1.60e-02,
154,-8.00e-03,
155,1.60e-02,
156,1.60e-02,
157,-1.20e-02,
158,-8.00e-03,
159,1.60e-02,
160,-8.00e-03,
161,1.60e-02,
162,-8.00e-03,
163,1.60e-02,
164,-8.00e-03,
165,1.60e-02,
166,1.60e-02,
167,-8.00e-03,
168,-8.00e-03,
169,1.60e-02,
170,1.60e-02,
171,-1.20e-02,
172,-8.00e-03,
173,1.60e-02,
174,-8.00e-03,
175,1.60e-02,
176,1.60e-02,
177,-1.20e-02,
178,1.60e-02,
179,-1.20e-02,
180,-8.00e-03,
181,1.60e-02,
182,1.60e-02,
183,-1.20e-02,
184,1.60e-02,
185,-1.20e-02,
186,1.60e-02,
187,-1.20e-02,
188,1.60e-02,
189,-1.20e-02,
190,-8.00e-03,
191,1.60e-02,
192,-8.00e-03,
193,1.60e-02,
194,1.60e-02,
195,-8.00e-03,
196,1.60e-02,
197,-8.00e-03,
198,5.60e-02,
199,-2.40e-02,
200,-1.60e-02,
201,5.60e-02,
202,-8.00e-03,
203,1.60e-02,
204,-8.00e-03,
205,1.60e-02,
206,-8.00e-03,
207,1.60e-02,
208,1.60e-02,
209,-1.20e-02,
210,1.60e-02,
211,-8.00e-03,
212,1.60e-02,
213,-1.20e-02,
214,1.60e-02,
215,-1.20e-02,
216,-8.00e-03,
217,1.60e-02,
218,1.60e-02,
219,-1.20e-02,
220,1.60e-02,
221,-8.00e-03,
222,1.60e-02,
223,-8.00e-03,
224,-8.00e-03,
225,1.60e-02,
226,-8.00e-03,
227,1.60e-02,
228,-8.00e-03,
229,1.60e-02,
230,1.60e-02,
231,-1.20e-02,
232,1.60e-02,
233,-8.00e-03,
234,-8.00e-03,
235,1.60e-02,
236,-8.00e-03,
237,1.60e-02,
238,-8.00e-03,
239,1.60e-02,
240,-8.00e-03,
241,1.60e-02,
242,-8.00e-03,
243,1.60e-02,
244,-8.00e-03,
245,1.60e-02,
246,-8.00e-03,
247,1.60e-02,
248,-8.00e-03,
249,1.60e-02,
250,-8.00e-03,
251,1.60e-02,
252,4.00e-02,
253,-4.80e-02,
254,-8.00e-03,
255,1.60e-02,
256,-8.00e-03,
257,1.60e-02,
258,-8.00e-03,
259,2.00e-02,
260,-8.00e-03,
261,1.60e-02,
262,-8.00e-03,
263,1.60e-02,
264,-8.00e-03,
265,1.60e-02,
266,1.60e-02,
267,-1.20e-02,
268,1.60e-02,
269,-1.20e-02,
270,1.60e-02,
271,-1.20e-02,
272,1.60e-02,
273,-1.20e-02,
274,2.00e-02,
275,-1.20e-02,
276,-8.00e-03,
277,1.60e-02,
278,-8.00e-03,
279,1.60e-02,
280,1.60e-02,
281,-8.00e-03,
282,-8.00e-03,
283,1.60e-02,
284,-8.00e-03,
285,1.60e-02,
286,-8.00e-03,
287,1.60e-02,
288,-8.00e-03,
289,1.60e-02,
290,-8.00e-03,
291,1.60e-02,
292,-8.00e-03,
293,1.60e-02,
294,-8.00e-03,
295,1.60e-02,
296,-8.00e-03,
297,1.60e-02,
298,-8.00e-03,
299,2.00e-02,
300,-1.20e-02,
301,1.60e-02,
302,-8.00e-03,
303,1.60e-02,
304,-1.80e-01,
305,6.00e-02,
306,1.60e-02,
307,-8.00e-03,
308,1.60e-02,
309,-8.00e-03,
310,-8.00e-03,
311,2.00e-02,
312,1.60e-02,
313,-8.00e-03,
314,-1.20e-02,
315,2.00e-02,
316,1.60e-02,
317,-1.20e-02,
318,-8.00e-03,
319,1.60e-02,
320,-8.00e-03,
321,1.60e-02,
322,-8.00e-03,
323,1.60e-02,
324,-8.00e-03,
325,1.60e-02,
326,-8.00e-03,
327,1.60e-02,
328,1.60e-02,
329,-1.20e-02,
330,1.60e-02,
331,-1.20e-02,
332,-8.00e-03,
333,1.60e-02,
334,-8.00e-03,
335,1.60e-02,
336,-8.00e-03,
337,1.60e-02,
338,1.60e-02,
339,-1.20e-02,
340,-8.00e-03,
341,1.60e-02,
342,-8.00e-03,
343,1.60e-02,
344,-8.00e-03,
345,1.60e-02,
346,-8.00e-03,
347,1.60e-02,
348,-8.00e-03,
349,1.60e-02,
350,1.60e-02,
351,-1.20e-02,
352,-8.00e-03,
353,1.60e-02,
354,1.60e-02,
355,-1.20e-02,
356,-1.60e-02,
357,1.48e-01,
358,-1.20e-02,
359,5.60e-02,
360,-8.00e-03,
361,1.60e-02,
362,1.60e-02,
363,-8.00e-03,
364,1.60e-02,
365,-8.00e-03,
366,-8.00e-03,
367,1.60e-02,
368,-8.00e-03,
369,1.60e-02,
370,-8.00e-03,
371,1.60e-02,
372,-8.00e-03,
373,1.60e-02,
374,1.60e-02,
375,-8.00e-03,
376,-8.00e-03,
377,1.60e-02,
378,1.60e-02,
379,-1.20e-02,
380,1.60e-02,
381,-1.20e-02,
382,-8.00e-03,
383,1.60e-02,
384,-8.00e-03,
385,1.60e-02,
386,1.60e-02,
387,-8.00e-03,
388,-8.00e-03,
389,2.00e-02,
390,1.60e-02,
391,-8.00e-03,
392,-8.00e-03,
393,1.60e-02,
394,-8.00e-03,
395,1.60e-02,
396,-8.00e-03,
397,1.60e-02,
398,-1.20e-02,
399,1.60e-02,
400,1.60e-02,
401,-8.00e-03,
402,-8.00e-03,
403,1.60e-02,
404,1.60e-02,
405,-1.20e-02,
406,-8.00e-03,
407,1.60e-02,
408,4.40e-02,
409,-1.44e-01,
410,1.16e-01,
411,-2.40e-02,
412,-8.00e-03,
413,1.60e-02,
414,-8.00e-03,
415,1.60e-02,
416,-1.20e-02,
417,1.60e-02,
418,-1.20e-02,
419,1.60e-02,
420,1.60e-02,
421,-1.20e-02,
422,1.60e-02,
423,-1.20e-02,
424,1.60e-02,
425,-1.20e-02,
426,1.60e-02,
427,-1.20e-02,
428,-1.20e-02,
429,1.60e-02,
430,-8.00e-03,
431,2.00e-02,
432,-8.00e-03,
433,1.60e-02,
434,-8.00e-03,
435,1.60e-02,
436,1.60e-02,
437,-8.00e-03,
438,1.60e-02,
439,-1.20e-02,
440,-8.00e-03,
441,1.60e-02,
442,1.60e-02,
443,-8.00e-03,
444,-8.00e-03,
445,1.60e-02,
446,1.60e-02,
447,-8.00e-03,
448,-8.00e-03,
449,1.60e-02,
450,-8.00e-03,
451,2.00e-02,
452,1.60e-02,
453,-8.00e-03,
454,-8.00e-03,
455,1.60e-02,
456,1.60e-02,
457,-1.20e-02,
458,-8.00e-03,
459,1.60e-02,
460,1.60e-02,
461,-1.20e-02,
462,-1.04e-01,
463,6.40e-02,
464,-8.00e-03,
465,1.60e-02,
466,-8.00e-03,
467,1.60e-02,
468,1.60e-02,
469,-1.20e-02,
470,-8.00e-03,
471,1.60e-02,
472,-8.00e-03,
473,1.60e-02,
474,1.60e-02,
475,-8.00e-03,
476,-8.00e-03,
477,1.60e-02,
478,-8.00e-03,
479,1.60e-02,
480,1.60e-02,
481,-1.20e-02,
482,1.60e-02,
483,-8.00e-03,
484,1.60e-02,
485,-1.20e-02,
486,-8.00e-03,
487,1.60e-02,
488,-8.00e-03,
489,1.60e-02,
490,-8.00e-03,
491,1.60e-02,
492,-8.00e-03,
493,1.60e-02,
494,1.60e-02,
495,-8.00e-03,
496,1.60e-02,
497,-1.20e-02,
498,-8.00e-03,
499,1.60e-02,
500,-8.00e-03,
501,1.60e-02,
502,1.60e-02,
503,-1.20e-02,
504,1.60e-02,
505,-8.00e-03,
506,-8.00e-03,
507,1.60e-02,
508,-8.00e-03,
509,1.60e-02,
510,1.60e-02,
511,-1.20e-02,
512,1.60e-02,
513,-1.20e-02,
514,-8.00e-03,
515,1.72e-01,
516,-3.20e-02,
517,8.00e-02,
518,-8.00e-03,
519,1.60e-02,
520,-8.00e-03,
521,2.00e-02,
522,1.60e-02,
523,-1.20e-02,
524,1.60e-02,
525,-8.00e-03,
526,-8.00e-03,
527,1.60e-02,
528,1.60e-02,
529,-1.20e-02,
530,-8.00e-03,
531,1.60e-02,
532,-8.00e-03,
533,1.60e-02,
534,-8.00e-03,
535,1.60e-02,
536,-8.00e-03,
537,1.60e-02,
538,-8.00e-03,
539,1.60e-02,
540,-8.00e-03,
541,1.60e-02,
542,-8.00e-03,
543,1.60e-02,
544,-8.00e-03,
545,1.60e-02,
546,-8.00e-03,
547,1.60e-02,
548,1.60e-02,
549,-1.20e-02,
550,1.60e-02,
551,-8.00e-03,
552,1.60e-02,
553,-1.20e-02,
554,-1.20e-02,
555,1.60e-02,
556,1.60e-02,
557,-1.20e-02,
558,-8.00e-03,
559,1.60e-02,
560,1.60e-02,
561,-1.20e-02,
562,1.60e-02,
563,-1.20e-02,
564,1.60e-02,
565,-1.20e-02,
566,-1.40e-01,
567,7.20e-02,
568,-2.00e-02,
569,2.00e-02,
570,1.60e-02,
571,-1.20e-02,
572,1.60e-02,
573,-1.20e-02,
574,-8.00e-03,
575,1.60e-02,
576,1.60e-02,
577,-1.20e-02,
578,-8.00e-03,
579,1.60e-02,
580,1.60e-02,
581,-1.20e-02,
582,-8.00e-03,
583,1.60e-02,
584,1.60e-02,
585,-8.00e-03,
586,-8.00e-03,
587,1.60e-02,
588,1.60e-02,
589,-1.20e-02,
590,1.60e-02,
591,-1.20e-02,
592,-8.00e-03,
593,1.60e-02,
594,-8.00e-03,
595,1.60e-02,
596,1.60e-02,
597,-8.00e-03,
598,1.60e-02,
599,-8.00e-03,
600,1.60e-02,
601,-1.20e-02,
602,1.60e-02,
603,-1.20e-02,
604,1.60e-02,
605,-1.20e-02,
606,1.60e-02,
607,-8.00e-03,
608,1.60e-02,
609,-8.00e-03,
610,-8.00e-03,
611,1.60e-02,
612,-8.00e-03,
613,2.00e-02,
614,1.60e-02,
615,-1.20e-02,
616,1.60e-02,
617,-1.20e-02,
618,-1.20e-02,
619,2.00e-02,
620,-1.12e-01,
621,7.20e-02,
622,-8.00e-03,
623,1.60e-02,
624,1.60e-02,
625,-1.20e-02,
626,1.60e-02,
627,-1.20e-02,
628,-8.00e-03,
629,1.60e-02,
630,1.60e-02,
631,-8.00e-03,
632,1.60e-02,
633,-1.20e-02,
634,-8.00e-03,
635,1.60e-02,
636,-8.00e-03,
637,1.60e-02,
638,-8.00e-03,
639,1.60e-02,
640,1.60e-02,
641,-1.20e-02,
642,1.60e-02,
643,-8.00e-03,
644,1.60e-02,
645,-8.00e-03,
646,-8.00e-03,
647,1.60e-02,
648,1.60e-02,
649,-1.20e-02,
650,-8.00e-03,
651,1.60e-02,
652,1.60e-02,
653,-1.20e-02,
654,-8.00e-03,
655,1.60e-02,
656,1.60e-02,
657,-8.00e-03,
658,-8.00e-03,
659,1.60e-02,
660,-8.00e-03,
661,1.60e-02,
662,-8.00e-03,
663,1.60e-02,
664,1.60e-02,
665,-8.00e-03,
666,-8.00e-03,
667,1.60e-02,
668,-8.00e-03,
669,1.60e-02,
670,-8.00e-03,
671,1.60e-02,
672,1.40e-01,
673,-6.80e-02,
674,1.60e-02,
675,-8.00e-03,
676,1.60e-02,
677,-1.20e-02,
678,-1.20e-02,
679,1.60e-02,
680,-8.00e-03,
681,1.60e-02,
682,-1.20e-02,
683,1.60e-02,
684,1.60e-02,
685,-1.20e-02,
686,1.60e-02,
687,-1.20e-02,
688,1.60e-02,
689,-1.20e-02,
690,-8.00e-03,
691,1.60e-02,
692,1.60e-02,
693,-1.20e-02,
694,1.60e-02,
695,-1.20e-02,
696,1.60e-02,
697,-1.20e-02,
698,-8.00e-03,
699,1.60e-02,
700,-8.00e-03,
701,1.60e-02,
702,-8.00e-03,
703,1.60e-02,
704,-8.00e-03,
705,1.60e-02,
706,-8.00e-03,
707,1.60e-02,
708,-8.00e-03,
709,1.60e-02,
710,-1.20e-02,
711,1.60e-02,
712,-8.00e-03,
713,1.60e-02,
714,1.60e-02,
715,-8.00e-03,
716,1.60e-02,
717,-8.00e-03,
718,-8.00e-03,
719,1.60e-02,
720,-8.00e-03,
721,1.60e-02,
722,-8.00e-03,
723,1.60e-02,
724,-1.60e-02,
725,1.52e-01,
726,1.32e-01,
727,-3.20e-02,
728,-8.00e-03,
729,1.60e-02,
730,1.60e-02,
731,-1.20e-02,
732,1.60e-02,
733,-1.20e-02,
734,-8.00e-03,
735,1.60e-02,
736,1.60e-02,
737,-1.20e-02,
738,-8.00e-03,
739,1.60e-02,
740,-8.00e-03,
741,1.60e-02,
742,1.60e-02,
743,-1.20e-02,
744,1.60e-02,
745,-1.20e-02,
746,1.60e-02,
747,-1.20e-02,
748,-8.00e-03,
749,1.60e-02,
750,-8.00e-03,
751,1.60e-02,
752,-8.00e-03,
753,1.60e-02,
754,1.60e-02,
755,-1.20e-02,
756,-1.20e-02,
757,2.00e-02,
758,-1.20e-02,
759,1.60e-02,
760,1.60e-02,
761,-1.20e-02,
762,1.60e-02,
763,-1.20e-02,
764,1.60e-02,
765,-1.20e-02,
766,1.60e-02,
767,-1.20e-02,
768,1.60e-02,
769,-1.20e-02,
770,1.60e-02,
771,-1.20e-02,
772,1.60e-02,
773,-1.20e-02,
774,-8.00e-03,
775,1.60e-02,
776,-8.00e-03,
777,1.60e-02,
778,6.00e-02,
779,-4.40e-02,
780,-8.00e-03,
781,1.60e-02,
782,-8.00e-03,
783,2.00e-02,
784,1.60e-02,
785,-1.20e-02,
786,1.60e-02,
787,-1.20e-02,
788,1.60e-02,
789,-1.20e-02,
790,1.60e-02,
791,-1.20e-02,
792,-8.00e-03,
793,1.60e-02,
794,-8.00e-03,
795,2.00e-02,
796,-8.00e-03,
797,1.60e-02,
798,1.60e-02,
799,-1.20e-02,
800,1.60e-02,
801,-1.20e-02,
802,-8.00e-03,
803,1.60e-02,
804,-8.00e-03,
805,1.60e-02,
806,1.60e-02,
807,-1.20e-02,
808,1.60e-02,
809,-1.20e-02,
810,-8.00e-03,
811,1.60e-02,
812,-8.00e-03,
813,1.60e-02,
814,1.60e-02,
815,-1.20e-02,
816,-8.00e-03,
817,1.60e-02,
818,-8.00e-03,
819,1.60e-02,
820,-8.00e-03,
821,1.60e-02,
822,-8.00e-03,
823,1.60e-02,
824,1.60e-02,
825,-1.20e-02,
826,1.60e-02,
827,-1.20e-02,
828,1.60e-02,
829,-8.00e-03,
830,1.36e-01,
831,-2.40e-02,
832,1.60e-02,
833,-8.00e-03,
834,1.60e-02,
835,-8.00e-03,
836,-8.00e-03,
837,1.60e-02,
838,2.00e-02,
839,-1.20e-02,
840,1.60e-02,
841,-1.20e-02,
842,-8.00e-03,
843,1.60e-02,
844,1.60e-02,
845,-1.20e-02,
846,1.60e-02,
847,-1.20e-02,
848,-8.00e-03,
849,1.60e-02,
850,1.60e-02,
851,-1.20e-02,
852,1.60e-02,
853,-1.20e-02,
854,1.60e-02,
855,-8.00e-03,
856,-8.00e-03,
857,1.60e-02,
858,-8.00e-03,
859,1.60e-02,
860,-8.00e-03,
861,1.60e-02,
862,-8.00e-03,
863,1.60e-02,
864,1.60e-02,
865,-1.20e-02,
866,-1.20e-02,
867,1.60e-02,
868,1.60e-02,
869,-1.20e-02,
870,-8.00e-03,
871,1.60e-02,
872,-1.20e-02,
873,1.60e-02,
874,1.60e-02,
875,-1.20e-02,
876,-8.00e-03,
877,1.60e-02,
878,-8.00e-03,
879,1.60e-02,
880,-1.20e-02,
881,1.60e-02,
882,-4.00e-02,
883,4.80e-02,
884,-8.00e-03,
885,1.60e-02,
886,1.60e-02,
887,-1.20e-02,
888,1.60e-02,
889,-1.20e-02,
890,1.60e-02,
891,-1.20e-02,
892,-1.20e-02,
893,2.00e-02,
894,1.60e-02,
895,-1.20e-02,
896,-1.20e-02,
897,1.60e-02,
898,1.60e-02,
899,-8.00e-03,
900,-8.00e-03,
901,1.60e-02,
902,-8.00e-03,
903,1.60e-02,
904,-8.00e-03,
905,1.60e-02,
906,1.60e-02,
907,-1.20e-02,
908,-8.00e-03,
909,1.60e-02,
910,1.60e-02,
911,-1.20e-02,
912,1.60e-02,
913,-8.00e-03,
914,-8.00e-03,
915,1.60e-02,
916,1.60e-02,
917,-8.00e-03,
918,1.60e-02,
919,-1.20e-02,
920,1.60e-02,
921,-1.20e-02,
922,-8.00e-03,
923,1.60e-02,
924,1.60e-02,
925,-1.20e-02,
926,1.60e-02,
927,-1.20e-02,
928,-8.00e-03,
929,1.60e-02,
930,-8.00e-03,
931,2.00e-02,
932,-8.00e-03,
933,1.60e-02,
934,1.60e-02,
935,-1.20e-02,
936,1.12e-01,
937,-2.40e-02,
938,-8.00e-03,
939,1.60e-02,
940,1.60e-02,
941,-1.20e-02,
942,-8.00e-03,
943,1.60e-02,
944,-8.00e-03,
945,1.60e-02,
946,-8.00e-03,
947,1.60e-02,
948,1.60e-02,
949,-8.00e-03,
950,1.60e-02,
951,-1.20e-02,
952,1.60e-02,
953,-8.00e-03,
954,1.60e-02,
955,-1.20e-02,
956,-1.20e-02,
957,2.00e-02,
958,-8.00e-03,
959,1.60e-02,
960,1.60e-02,
961,-1.20e-02,
962,1.60e-02,
963,-1.20e-02,
964,1.60e-02,
965,-1.20e-02,
966,-8.00e-03,
967,1.60e-02,
968,1.60e-02,
969,-1.20e-02,
970,-8.00e-03,
971,1.60e-02,
972,1.60e-02,
973,-1.20e-02,
974,-1.20e-02,
975,2.00e-02,
976,-8.00e-03,
977,1.60e-02,
978,-8.00e-03,
979,1.60e-02,
980,-8.00e-03,
981,1.60e-02,
982,-1.20e-02,
983,1.60e-02,
984,-8.00e-03,
985,1.60e-02,
986,1.60e-02,
987,-1.20e-02,
988,-1.36e-01,
989,5.60e-02,
990,-1.20e-02,
991,1.60e-02,
992,1.60e-02,
993,-1.20e-02,
994,-8.00e-03,
995,2.00e-02,
996,-8.00e-03,
997,1.60e-02,
998,-8.00e-03,
999,1.60e-02,
1000,-8.00e-03,
1001,1.60e-02,
1002,1.60e-02,
1003,-1.20e-02,
1004,1.60e-02,
1005,-1.20e-02,
1006,1.60e-02,
1007,-1.20e-02,
1008,1.60e-02,
1009,-1.20e-02,
1010,1.60e-02,
1011,-1.20e-02,
1012,-8.00e-03,
1013,1.60e-02,
1014,1.60e-02,
1015,-1.20e-02,
1016,-8.00e-03,
1017,1.60e-02,
1018,1.60e-02,
1019,-1.20e-02,
1020,-8.00e-03,
1021,1.60e-02,
1022,1.60e-02,
1023,-1.20e-02,
1024,-8.00e-03,
1025,1.60e-02,
1026,-8.00e-03,
1027,1.60e-02,
1028,1.60e-02,
1029,-1.20e-02,
1030,-8.00e-03,
1031,1.60e-02,
1032,-8.00e-03,
1033,1.60e-02,
1034,-8.00e-03,
1035,2.00e-02,
1036,-8.00e-03,
1037,1.60e-02,
1038,1.60e-02,
1039,-1.20e-02,
1040,-2.00e-02,
1041,7.60e-02,
1042,-2.00e-02,
1043,4.00e-02,
1044,-8.00e-03,
1045,1.60e-02,
1046,-8.00e-03,
1047,1.60e-02,
1048,-8.00e-03,
1049,1.60e-02,
1050,-8.00e-03,
1051,2.00e-02,
1052,1.60e-02,
1053,-1.20e-02,
1054,-8.00e-03,
1055,1.60e-02,
1056,1.60e-02,
1057,-1.20e-02,
1058,-1.20e-02,
1059,2.00e-02,
1060,1.60e-02,
1061,-1.20e-02,
1062,1.60e-02,
1063,-1.20e-02,
1064,1.60e-02,
1065,-1.20e-02,
1066,-1.20e-02,
1067,1.60e-02,
1068,-8.00e-03,
1069,1.60e-02,
1070,1.60e-02,
1071,-1.20e-02,
1072,-8.00e-03,
1073,1.60e-02,
1074,-8.00e-03,
1075,1.60e-02,
1076,1.60e-02,
1077,-1.20e-02,
1078,1.60e-02,
1079,-1.20e-02,
1080,-8.00e-03,
1081,1.60e-02,
1082,1.60e-02,
1083,-1.20e-02,
1084,1.60e-02,
1085,-1.20e-02,
1086,-8.00e-03,
1087,1.60e-02,
1088,1.60e-02,
1089,-1.20e-02,
1090,1.60e-02,
1091,-1.20e-02,
1092,-8.00e-03,
1093,2.00e-02,
1094,6.80e-02,
1095,-2.80e-02,
1096,-8.00e-03,
1097,1.60e-02,
1098,-8.00e-03,
1099,1.60e-02,
1100,-1.20e-02,
1101,1.60e-02,
1102,-8.00e-03,
1103,2.00e-02,
1104,-8.00e-03,
1105,1.60e-02,
1106,-8.00e-03,
1107,1.60e-02,
1108,-8.00e-03,
1109,2.00e-02,
1110,1.60e-02,
1111,-8.00e-03,
1112,1.60e-02,
1113,-8.00e-03,
1114,-8.00e-03,
1115,1.60e-02,
1116,-8.00e-03,
1117,1.60e-02,
1118,-8.00e-03,
1119,1.60e-02,
1120,-8.00e-03,
1121,1.60e-02,
1122,-8.00e-03,
1123,1.60e-02,
1124,1.60e-02,
1125,-1.20e-02,
1126,1.60e-02,
1127,-1.20e-02,
1128,1.60e-02,
1129,-1.20e-02,
1130,-1.20e-02,
1131,1.60e-02,
1132,1.60e-02,
1133,-1.20e-02,
1134,1.60e-02,
1135,-1.20e-02,
1136,-8.00e-03,
1137,1.60e-02,
1138,1.60e-02,
1139,-1.20e-02,
1140,2.00e-02,
1141,-1.20e-02,
1142,1.60e-02,
1143,-1.20e-02,
1144,1.60e-02,
1145,-1.20e-02,
1146,-1.20e-02,
1147,5.20e-02,
1148,-2.00e-02,
1149,9.60e-02,
1150,1.60e-02,
1151,-1.20e-02,
1152,1.60e-02,
1153,-1.20e-02,
1154,-8.00e-03,
1155,1.60e-02,
1156,-8.00e-03,
1157,1.60e-02,
1158,-1.20e-02,
1159,1.60e-02,
1160,-8.00e-03,
1161,1.60e-02,
1162,1.60e-02,
1163,-1.20e-02,
1164,1.60e-02,
1165,-1.20e-02,
1166,1.60e-02,
1167,-8.00e-03,
1168,-8.00e-03,
1169,1.60e-02,
1170,1.60e-02,
1171,-1.20e-02,
1172,1.60e-02,
1173,-8.00e-03,
1174,-8.00e-03,
1175,1.60e-02,
1176,1.60e-02,
1177,-8.00e-03,
1178,-8.00e-03,
1179,1.60e-02,
1180,1.60e-02,
1181,-8.00e-03,
1182,1.60e-02,
1183,-1.20e-02,
1184,1.60e-02,
1185,-1.20e-02,
1186,-8.00e-03,
1187,1.60e-02,
1188,-8.00e-03,
1189,1.60e-02,
1190,-8.00e-03,
1191,1.60e-02,
1192,2.00e-02,
1193,-1.20e-02,
1194,1.60e-02,
1195,-1.20e-02,
1196,1.60e-02,
1197,-1.20e-02,
1198,1.60e-02,
1199,-8.00e-03,
