Laptop_2/LAPTOP_CHRGR_2_OFF/time domain/NewFile2.csv

X,CH1,Start,Increment,
Sequence,Volt,-1.500000e-01,2.000000e-04
0,8.00e-03,
1,-4.00e-03,
2,-4.00e-03,
3,1.20e-02,
4,-4.00e-03,
5,1.20e-02,
6,-4.00e-03,
7,1.20e-02,
8,1.20e-02,
9,-8.00e-03,
10,-4.00e-03,
11,1.20e-02,
12,-4.00e-03,
13,1.20e-02,
14,-4.00e-03,
15,1.20e-02,
16,8.00e-03,
17,-4.00e-03,
18,-4.00e-03,
19,1.20e-02,
20,-4.00e-03,
21,1.20e-02,
22,-4.00e-03,
23,8.00e-03,
24,-4.00e-03,
25,1.20e-02,
26,8.00e-03,
27,-4.00e-03,
28,8.00e-03,
29,-4.00e-03,
30,-4.00e-03,
31,1.20e-02,
32,8.00e-03,
33,-4.00e-03,
34,-4.00e-03,
35,7.60e-02,
36,-4.00e-03,
37,1.20e-02,
38,8.00e-03,
39,-4.00e-03,
40,-4.00e-03,
41,1.20e-02,
42,8.00e-03,
43,-4.00e-03,
44,-4.00e-03,
45,1.20e-02,
46,-4.00e-03,
47,1.20e-02,
48,1.20e-02,
49,-8.00e-03,
50,-4.00e-03,
51,1.20e-02,
52,-4.00e-03,
53,1.20e-02,
54,-4.00e-03,
55,1.20e-02,
56,1.20e-02,
57,-4.00e-03,
58,8.00e-03,
59,-4.00e-03,
60,8.00e-03,
61,-4.00e-03,
62,1.20e-02,
63,-4.00e-03,
64,1.20e-02,
65,-4.00e-03,
66,-4.00e-03,
67,1.20e-02,
68,1.20e-02,
69,-4.00e-03,
70,1.20e-02,
71,-4.00e-03,
72,-4.00e-03,
73,1.20e-02,
74,-4.00e-03,
75,1.20e-02,
76,1.20e-02,
77,-4.00e-03,
78,1.20e-02,
79,-4.00e-03,
80,1.20e-02,
81,-4.00e-03,
82,8.00e-03,
83,-4.00e-03,
84,-4.00e-03,
85,1.20e-02,
86,-4.00e-03,
87,2.00e-02,
88,3.60e-02,
89,-5.20e-02,
90,-4.00e-03,
91,1.20e-02,
92,-4.00e-03,
93,1.20e-02,
94,-4.00e-03,
95,1.20e-02,
96,-4.00e-03,
97,1.20e-02,
98,-4.00e-03,
99,8.00e-03,
100,8.00e-03,
101,-4.00e-03,
102,-4.00e-03,
103,8.00e-03,
104,-4.00e-03,
105,1.20e-02,
106,-4.00e-03,
107,1.20e-02,
108,-4.00e-03,
109,1.20e-02,
110,-4.00e-03,
111,1.20e-02,
112,1.20e-02,
113,-4.00e-03,
114,-4.00e-03,
115,1.20e-02,
116,-4.00e-03,
117,1.20e-02,
118,-4.00e-03,
119,1.20e-02,
120,-4.00e-03,
121,8.00e-03,
122,-4.00e-03,
123,1.20e-02,
124,-4.00e-03,
125,1.20e-02,
126,1.20e-02,
127,-4.00e-03,
128,1.20e-02,
129,-8.00e-03,
130,8.00e-03,
131,-8.00e-03,
132,1.20e-02,
133,-4.00e-03,
134,8.00e-03,
135,-4.00e-03,
136,-4.00e-03,
137,1.20e-02,
138,8.00e-03,
139,-4.00e-03,
140,-6.80e-02,
141,5.20e-02,
142,8.00e-03,
143,-4.00e-03,
144,-4.00e-03,
145,1.20e-02,
146,-4.00e-03,
147,1.20e-02,
148,1.20e-02,
149,-4.00e-03,
150,-4.00e-03,
151,1.20e-02,
152,-4.00e-03,
153,1.20e-02,
154,-4.00e-03,
155,1.20e-02,
156,-4.00e-03,
157,1.20e-02,
158,-4.00e-03,
159,8.00e-03,
160,-4.00e-03,
161,1.20e-02,
162,-4.00e-03,
163,1.20e-02,
164,-4.00e-03,
165,1.20e-02,
166,-4.00e-03,
167,1.20e-02,
168,8.00e-03,
169,-4.00e-03,
170,-4.00e-03,
171,1.20e-02,
172,1.20e-02,
173,-4.00e-03,
174,-4.00e-03,
175,1.20e-02,
176,-8.00e-03,
177,1.20e-02,
178,1.20e-02,
179,-4.00e-03,
180,8.00e-03,
181,-4.00e-03,
182,-4.00e-03,
183,1.20e-02,
184,8.00e-03,
185,-4.00e-03,
186,-4.00e-03,
187,1.20e-02,
188,1.20e-02,
189,-4.00e-03,
190,-4.00e-03,
191,1.20e-02,
192,2.40e-02,
193,-5.20e-02,
194,-4.00e-03,
195,1.20e-02,
196,-4.00e-03,
197,1.20e-02,
198,-4.00e-03,
199,1.20e-02,
200,-4.00e-03,
201,8.00e-03,
202,1.20e-02,
203,-4.00e-03,
204,-4.00e-03,
205,1.20e-02,
206,-4.00e-03,
207,1.20e-02,
208,8.00e-03,
209,-4.00e-03,
210,-4.00e-03,
211,1.20e-02,
212,-4.00e-03,
213,1.20e-02,
214,-4.00e-03,
215,1.20e-02,
216,-4.00e-03,
217,1.20e-02,
218,8.00e-03,
219,-4.00e-03,
220,-4.00e-03,
221,1.20e-02,
222,-4.00e-03,
223,1.20e-02,
224,-4.00e-03,
225,1.20e-02,
226,-4.00e-03,
227,1.20e-02,
228,-4.00e-03,
229,1.20e-02,
230,8.00e-03,
231,-4.00e-03,
232,-4.00e-03,
233,1.20e-02,
234,-4.00e-03,
235,1.20e-02,
236,-4.00e-03,
237,1.20e-02,
238,-4.00e-03,
239,1.20e-02,
240,-4.00e-03,
241,1.20e-02,
242,-4.00e-03,
243,8.00e-03,
244,-3.60e-02,
245,3.60e-02,
246,-4.00e-03,
247,8.00e-03,
248,-4.00e-03,
249,1.20e-02,
250,-4.00e-03,
251,1.20e-02,
252,-4.00e-03,
253,1.20e-02,
254,-4.00e-03,
255,1.20e-02,
256,-4.00e-03,
257,1.20e-02,
258,-4.00e-03,
259,1.20e-02,
260,-4.00e-03,
261,1.20e-02,
262,-4.00e-03,
263,1.20e-02,
264,-4.00e-03,
265,1.20e-02,
266,8.00e-03,
267,-4.00e-03,
268,8.00e-03,
269,-4.00e-03,
270,1.20e-02,
271,-4.00e-03,
272,-4.00e-03,
273,8.00e-03,
274,-4.00e-03,
275,1.20e-02,
276,-4.00e-03,
277,1.20e-02,
278,-4.00e-03,
279,1.20e-02,
280,-4.00e-03,
281,1.20e-02,
282,-4.00e-03,
283,8.00e-03,
284,-4.00e-03,
285,8.00e-03,
286,-4.00e-03,
287,1.20e-02,
288,-4.00e-03,
289,8.00e-03,
290,-4.00e-03,
291,1.20e-02,
292,-8.00e-03,
293,1.20e-02,
294,-4.00e-03,
295,1.20e-02,
296,-8.00e-02,
297,4.40e-02,
298,-6.40e-02,
299,1.20e-02,
300,-4.00e-03,
301,1.20e-02,
302,-4.00e-03,
303,1.20e-02,
304,-4.00e-03,
305,1.20e-02,
306,-4.00e-03,
307,8.00e-03,
308,8.00e-03,
309,-4.00e-03,
310,-4.00e-03,
311,8.00e-03,
312,1.20e-02,
313,-4.00e-03,
314,-4.00e-03,
315,8.00e-03,
316,8.00e-03,
317,-4.00e-03,
318,-4.00e-03,
319,8.00e-03,
320,-4.00e-03,
321,8.00e-03,
322,-4.00e-03,
323,1.20e-02,
324,-4.00e-03,
325,1.20e-02,
326,-4.00e-03,
327,1.20e-02,
328,-4.00e-03,
329,1.20e-02,
330,-4.00e-03,
331,1.20e-02,
332,-4.00e-03,
333,1.20e-02,
334,-4.00e-03,
335,1.20e-02,
336,1.20e-02,
337,-4.00e-03,
338,8.00e-03,
339,-4.00e-03,
340,-8.00e-03,
341,1.20e-02,
342,-4.00e-03,
343,1.20e-02,
344,-4.00e-03,
345,1.20e-02,
346,-4.00e-03,
347,1.20e-02,
348,-4.00e-03,
349,8.80e-02,
350,-2.40e-02,
351,1.20e-02,
352,-4.00e-03,
353,1.20e-02,
354,-4.00e-03,
355,1.20e-02,
356,8.00e-03,
357,-4.00e-03,
358,-4.00e-03,
359,1.20e-02,
360,-4.00e-03,
361,8.00e-03,
362,-4.00e-03,
363,1.20e-02,
364,8.00e-03,
365,-4.00e-03,
366,8.00e-03,
367,-4.00e-03,
368,-4.00e-03,
369,8.00e-03,
370,-4.00e-03,
371,1.20e-02,
372,8.00e-03,
373,-4.00e-03,
374,8.00e-03,
375,-4.00e-03,
376,-4.00e-03,
377,8.00e-03,
378,1.20e-02,
379,-8.00e-03,
380,1.20e-02,
381,-8.00e-03,
382,1.20e-02,
383,-4.00e-03,
384,-4.00e-03,
385,1.20e-02,
386,1.20e-02,
387,-4.00e-03,
388,-4.00e-03,
389,1.20e-02,
390,-4.00e-03,
391,1.20e-02,
392,-4.00e-03,
393,1.20e-02,
394,-4.00e-03,
395,1.20e-02,
396,-4.00e-03,
397,8.00e-03,
398,-4.00e-03,
399,1.20e-02,
400,-4.00e-03,
401,1.20e-02,
402,-8.40e-02,
403,1.60e-02,
404,-4.00e-03,
405,1.20e-02,
406,-4.00e-03,
407,1.20e-02,
408,-4.00e-03,
409,1.20e-02,
410,8.00e-03,
411,-4.00e-03,
412,1.20e-02,
413,-4.00e-03,
414,-4.00e-03,
415,1.20e-02,
416,8.00e-03,
417,-4.00e-03,
418,1.20e-02,
419,-8.00e-03,
420,-4.00e-03,
421,1.20e-02,
422,1.20e-02,
423,-4.00e-03,
424,-4.00e-03,
425,1.20e-02,
426,1.20e-02,
427,-4.00e-03,
428,-4.00e-03,
429,1.20e-02,
430,0.00e+00,
431,1.20e-02,
432,-4.00e-03,
433,1.20e-02,
434,-4.00e-03,
435,1.20e-02,
436,-4.00e-03,
437,1.20e-02,
438,0.00e+00,
439,1.20e-02,
440,1.20e-02,
441,-4.00e-03,
442,-4.00e-03,
443,1.20e-02,
444,-4.00e-03,
445,1.20e-02,
446,1.20e-02,
447,-4.00e-03,
448,1.20e-02,
449,-4.00e-03,
450,1.20e-02,
451,-4.00e-03,
452,1.20e-02,
453,-4.00e-03,
454,-8.00e-03,
455,5.20e-02,
456,1.20e-02,
457,-4.00e-03,
458,-4.00e-03,
459,1.20e-02,
460,-4.00e-03,
461,1.20e-02,
462,1.20e-02,
463,-8.00e-03,
464,1.20e-02,
465,-4.00e-03,
466,1.20e-02,
467,-8.00e-03,
468,1.20e-02,
469,-4.00e-03,
470,-4.00e-03,
471,1.20e-02,
472,-4.00e-03,
473,1.20e-02,
474,-4.00e-03,
475,1.20e-02,
476,-4.00e-03,
477,1.20e-02,
478,1.20e-02,
479,-4.00e-03,
480,8.00e-03,
481,-4.00e-03,
482,-4.00e-03,
483,1.20e-02,
484,8.00e-03,
485,-4.00e-03,
486,-4.00e-03,
487,1.20e-02,
488,-4.00e-03,
489,1.20e-02,
490,-4.00e-03,
491,1.20e-02,
492,1.20e-02,
493,-4.00e-03,
494,1.20e-02,
495,-4.00e-03,
496,-4.00e-03,
497,1.20e-02,
498,-4.00e-03,
499,1.20e-02,
500,-4.00e-03,
501,1.20e-02,
502,1.20e-02,
503,-4.00e-03,
504,-4.00e-03,
505,1.20e-02,
506,4.00e-02,
507,-2.80e-02,
508,1.20e-02,
509,-4.00e-03,
510,1.20e-02,
511,-4.00e-03,
512,-4.00e-03,
513,1.20e-02,
514,-4.00e-03,
515,1.20e-02,
516,-4.00e-03,
517,1.20e-02,
518,8.00e-03,
519,-4.00e-03,
520,-4.00e-03,
521,1.20e-02,
522,1.20e-02,
523,-4.00e-03,
524,8.00e-03,
525,-4.00e-03,
526,-4.00e-03,
527,8.00e-03,
528,-4.00e-03,
529,1.20e-02,
530,-4.00e-03,
531,1.20e-02,
532,-4.00e-03,
533,8.00e-03,
534,-4.00e-03,
535,1.20e-02,
536,-4.00e-03,
537,1.20e-02,
538,-4.00e-03,
539,1.20e-02,
540,-4.00e-03,
541,1.20e-02,
542,-4.00e-03,
543,1.20e-02,
544,-4.00e-03,
545,1.20e-02,
546,1.20e-02,
547,-4.00e-03,
548,-4.00e-03,
549,1.20e-02,
550,1.20e-02,
551,-4.00e-03,
552,1.20e-02,
553,-4.00e-03,
554,-4.00e-03,
555,1.20e-02,
556,-4.00e-03,
557,1.20e-02,
558,-8.00e-03,
559,8.80e-02,
560,4.40e-02,
561,-4.80e-02,
562,-4.00e-03,
563,1.20e-02,
564,1.20e-02,
565,-4.00e-03,
566,-4.00e-03,
567,1.20e-02,
568,-4.00e-03,
569,1.20e-02,
570,8.00e-03,
571,-4.00e-03,
572,-4.00e-03,
573,1.20e-02,
574,1.20e-02,
575,-4.00e-03,
576,-4.00e-03,
577,1.20e-02,
578,1.20e-02,
579,-4.00e-03,
580,-4.00e-03,
581,1.20e-02,
582,8.00e-03,
583,-4.00e-03,
584,-4.00e-03,
585,1.20e-02,
586,-4.00e-03,
587,1.20e-02,
588,-4.00e-03,
589,1.20e-02,
590,-4.00e-03,
591,1.20e-02,
592,-4.00e-03,
593,1.20e-02,
594,1.20e-02,
595,-8.00e-03,
596,-4.00e-03,
597,8.00e-03,
598,8.00e-03,
599,-4.00e-03,
600,-4.00e-03,
601,8.00e-03,
602,-4.00e-03,
603,1.20e-02,
604,-4.00e-03,
605,1.20e-02,
606,-4.00e-03,
607,1.20e-02,
608,8.00e-03,
609,-4.00e-03,
610,-4.00e-03,
611,1.20e-02,
612,-2.00e-02,
613,4.00e-02,
614,-4.00e-03,
615,8.00e-03,
616,-4.00e-03,
617,1.20e-02,
618,8.00e-03,
619,-4.00e-03,
620,-4.00e-03,
621,1.20e-02,
622,-4.00e-03,
623,8.00e-03,
624,-4.00e-03,
625,1.20e-02,
626,8.00e-03,
627,-4.00e-03,
628,-4.00e-03,
629,1.20e-02,
630,-4.00e-03,
631,1.20e-02,
632,-4.00e-03,
633,1.20e-02,
634,-4.00e-03,
635,1.20e-02,
636,1.20e-02,
637,-4.00e-03,
638,-4.00e-03,
639,1.20e-02,
640,-4.00e-03,
641,1.20e-02,
642,8.00e-03,
643,-4.00e-03,
644,8.00e-03,
645,-4.00e-03,
646,-4.00e-03,
647,1.20e-02,
648,8.00e-03,
649,-4.00e-03,
650,-4.00e-03,
651,8.00e-03,
652,8.00e-03,
653,-4.00e-03,
654,-4.00e-03,
655,8.00e-03,
656,-4.00e-03,
657,1.20e-02,
658,8.00e-03,
659,-4.00e-03,
660,8.00e-03,
661,-4.00e-03,
662,-4.00e-03,
663,1.20e-02,
664,-4.00e-03,
665,6.80e-02,
666,-4.00e-03,
667,1.20e-02,
668,-4.00e-03,
669,1.20e-02,
670,1.20e-02,
671,-4.00e-03,
672,-4.00e-03,
673,1.20e-02,
674,-4.00e-03,
675,1.20e-02,
676,1.20e-02,
677,-4.00e-03,
678,1.20e-02,
679,-4.00e-03,
680,8.00e-03,
681,-4.00e-03,
682,-4.00e-03,
683,1.20e-02,
684,-4.00e-03,
685,1.20e-02,
686,-4.00e-03,
687,1.20e-02,
688,1.20e-02,
689,-4.00e-03,
690,-4.00e-03,
691,1.20e-02,
692,1.20e-02,
693,-4.00e-03,
694,8.00e-03,
695,-4.00e-03,
696,8.00e-03,
697,-4.00e-03,
698,-4.00e-03,
699,1.20e-02,
700,-4.00e-03,
701,1.20e-02,
702,1.20e-02,
703,-4.00e-03,
704,1.20e-02,
705,-4.00e-03,
706,-4.00e-03,
707,8.00e-03,
708,-4.00e-03,
709,1.20e-02,
710,1.20e-02,
711,-4.00e-03,
712,8.00e-03,
713,-4.00e-03,
714,-4.00e-03,
715,1.20e-02,
716,1.20e-02,
717,-8.00e-03,
718,-4.00e-03,
719,6.00e-02,
720,1.20e-02,
721,-8.00e-03,
722,-4.00e-03,
723,8.00e-03,
724,-4.00e-03,
725,1.20e-02,
726,-4.00e-03,
727,8.00e-03,
728,-4.00e-03,
729,8.00e-03,
730,-4.00e-03,
731,1.20e-02,
732,-4.00e-03,
733,1.20e-02,
734,-4.00e-03,
735,8.00e-03,
736,-4.00e-03,
737,1.20e-02,
738,8.00e-03,
739,-4.00e-03,
740,-4.00e-03,
741,1.20e-02,
742,-4.00e-03,
743,8.00e-03,
744,-4.00e-03,
745,1.20e-02,
746,8.00e-03,
747,-4.00e-03,
748,8.00e-03,
749,-4.00e-03,
750,-4.00e-03,
751,1.20e-02,
752,-4.00e-03,
753,1.20e-02,
754,8.00e-03,
755,-4.00e-03,
756,1.20e-02,
757,-8.00e-03,
758,1.20e-02,
759,-4.00e-03,
760,-4.00e-03,
761,1.20e-02,
762,-4.00e-03,
763,8.00e-03,
764,8.00e-03,
765,-4.00e-03,
766,8.00e-03,
767,-4.00e-03,
768,-4.00e-03,
769,8.00e-03,
770,-9.20e-02,
771,6.40e-02,
772,-4.00e-03,
773,1.20e-02,
774,-4.00e-03,
775,1.20e-02,
776,-4.00e-03,
777,1.20e-02,
778,-4.00e-03,
779,8.00e-03,
780,-4.00e-03,
781,8.00e-03,
782,1.20e-02,
783,-4.00e-03,
784,-4.00e-03,
785,1.20e-02,
786,-4.00e-03,
787,1.20e-02,
788,-4.00e-03,
789,1.20e-02,
790,-4.00e-03,
791,1.20e-02,
792,8.00e-03,
793,-4.00e-03,
794,-4.00e-03,
795,1.20e-02,
796,-4.00e-03,
797,1.20e-02,
798,1.20e-02,
799,-4.00e-03,
800,-4.00e-03,
801,1.20e-02,
802,-4.00e-03,
803,1.20e-02,
804,-4.00e-03,
805,1.20e-02,
806,-4.00e-03,
807,1.20e-02,
808,-4.00e-03,
809,1.20e-02,
810,8.00e-03,
811,-4.00e-03,
812,-4.00e-03,
813,1.20e-02,
814,-4.00e-03,
815,8.00e-03,
816,-4.00e-03,
817,8.00e-03,
818,-4.00e-03,
819,8.00e-03,
820,8.00e-03,
821,-4.00e-03,
822,8.80e-02,
823,-4.80e-02,
824,1.20e-02,
825,-4.00e-03,
826,-4.00e-03,
827,1.20e-02,
828,-4.00e-03,
829,1.20e-02,
830,-4.00e-03,
831,1.20e-02,
832,1.20e-02,
833,-4.00e-03,
834,-4.00e-03,
835,1.20e-02,
836,8.00e-03,
837,-4.00e-03,
838,-4.00e-03,
839,1.20e-02,
840,8.00e-03,
841,-4.00e-03,
842,8.00e-03,
843,-4.00e-03,
844,-4.00e-03,
845,1.20e-02,
846,-4.00e-03,
847,1.20e-02,
848,-4.00e-03,
849,1.20e-02,
850,8.00e-03,
851,-4.00e-03,
852,1.20e-02,
853,-4.00e-03,
854,-4.00e-03,
855,8.00e-03,
856,8.00e-03,
857,-4.00e-03,
858,-4.00e-03,
859,1.20e-02,
860,-4.00e-03,
861,1.20e-02,
862,-4.00e-03,
863,1.20e-02,
864,8.00e-03,
865,-4.00e-03,
866,-4.00e-03,
867,1.20e-02,
868,-4.00e-03,
869,1.20e-02,
870,-4.00e-03,
871,1.20e-02,
872,1.20e-02,
873,-4.00e-03,
874,-4.00e-03,
875,9.60e-02,
876,1.20e-02,
877,-4.00e-03,
878,-4.00e-03,
879,1.20e-02,
880,-4.00e-03,
881,1.20e-02,
882,-4.00e-03,
883,1.20e-02,
884,-4.00e-03,
885,1.20e-02,
886,1.20e-02,
887,-4.00e-03,
888,-4.00e-03,
889,1.20e-02,
890,-4.00e-03,
891,8.00e-03,
892,-4.00e-03,
893,1.20e-02,
894,-4.00e-03,
895,1.20e-02,
896,8.00e-03,
897,-4.00e-03,
898,8.00e-03,
899,-4.00e-03,
900,-4.00e-03,
901,8.00e-03,
902,-4.00e-03,
903,8.00e-03,
904,-4.00e-03,
905,1.20e-02,
906,-4.00e-03,
907,1.20e-02,
908,-4.00e-03,
909,8.00e-03,
910,-4.00e-03,
911,8.00e-03,
912,-4.00e-03,
913,1.20e-02,
914,-4.00e-03,
915,1.20e-02,
916,-4.00e-03,
917,1.20e-02,
918,-4.00e-03,
919,1.20e-02,
920,-4.00e-03,
921,1.20e-02,
922,-4.00e-03,
923,1.20e-02,
924,-4.00e-03,
925,1.20e-02,
926,-4.00e-03,
927,1.20e-02,
928,1.20e-02,
929,-7.60e-02,
930,-4.00e-03,
931,1.20e-02,
932,-4.00e-03,
933,8.00e-03,
934,-4.00e-03,
935,1.20e-02,
936,8.00e-03,
937,-4.00e-03,
938,-4.00e-03,
939,1.20e-02,
940,8.00e-03,
941,-4.00e-03,
942,-4.00e-03,
943,1.20e-02,
944,-4.00e-03,
945,8.00e-03,
946,-4.00e-03,
947,1.20e-02,
948,8.00e-03,
949,-4.00e-03,
950,-4.00e-03,
951,8.00e-03,
952,-4.00e-03,
953,1.20e-02,
954,8.00e-03,
955,-4.00e-03,
956,-4.00e-03,
957,8.00e-03,
958,-4.00e-03,
959,1.20e-02,
960,8.00e-03,
961,-4.00e-03,
962,-4.00e-03,
963,1.20e-02,
964,1.20e-02,
965,-4.00e-03,
966,-4.00e-03,
967,1.20e-02,
968,-4.00e-03,
969,1.20e-02,
970,-4.00e-03,
971,1.20e-02,
972,1.20e-02,
973,-4.00e-03,
974,-4.00e-03,
975,1.20e-02,
976,-4.00e-03,
977,1.20e-02,
978,8.00e-03,
979,-4.00e-03,
980,-5.60e-02,
981,6.00e-02,
982,-4.00e-03,
983,1.20e-02,
984,-4.00e-03,
985,1.20e-02,
986,-4.00e-03,
987,8.00e-03,
988,-4.00e-03,
989,1.20e-02,
990,-4.00e-03,
991,1.20e-02,
992,-8.00e-03,
993,1.20e-02,
994,-4.00e-03,
995,1.20e-02,
996,-4.00e-03,
997,1.20e-02,
998,-4.00e-03,
999,1.20e-02,
1000,-4.00e-03,
1001,1.20e-02,
1002,8.00e-03,
1003,-4.00e-03,
1004,-4.00e-03,
1005,1.20e-02,
1006,-4.00e-03,
1007,8.00e-03,
1008,-4.00e-03,
1009,1.20e-02,
1010,-4.00e-03,
1011,1.20e-02,
1012,-4.00e-03,
1013,1.20e-02,
1014,-4.00e-03,
1015,1.20e-02,
1016,-4.00e-03,
1017,1.20e-02,
1018,-4.00e-03,
1019,1.20e-02,
1020,-4.00e-03,
1021,1.20e-02,
1022,-4.00e-03,
1023,1.20e-02,
1024,8.00e-03,
1025,-4.00e-03,
1026,8.00e-03,
1027,-4.00e-03,
1028,-4.00e-03,
1029,8.00e-03,
1030,-4.00e-03,
1031,1.20e-02,
1032,-4.00e-03,
1033,1.20e-02,
1034,-9.20e-02,
1035,6.40e-02,
1036,-4.00e-03,
1037,1.20e-02,
1038,-4.00e-03,
1039,1.20e-02,
1040,-4.00e-03,
1041,1.20e-02,
1042,-4.00e-03,
1043,1.20e-02,
1044,-4.00e-03,
1045,1.20e-02,
1046,-4.00e-03,
1047,1.20e-02,
1048,8.00e-03,
1049,-4.00e-03,
1050,-4.00e-03,
1051,1.20e-02,
1052,-4.00e-03,
1053,8.00e-03,
1054,8.00e-03,
1055,-4.00e-03,
1056,-4.00e-03,
1057,1.20e-02,
1058,8.00e-03,
1059,-4.00e-03,
1060,8.00e-03,
1061,-4.00e-03,
1062,-4.00e-03,
1063,8.00e-03,
1064,-4.00e-03,
1065,1.20e-02,
1066,1.20e-02,
1067,-4.00e-03,
1068,-4.00e-03,
1069,1.20e-02,
1070,-4.00e-03,
1071,1.20e-02,
1072,-4.00e-03,
1073,1.20e-02,
1074,1.20e-02,
1075,-4.00e-03,
1076,-4.00e-03,
1077,1.20e-02,
1078,-4.00e-03,
1079,8.00e-03,
1080,-4.00e-03,
1081,1.20e-02,
1082,8.00e-03,
1083,-4.00e-03,
1084,1.20e-02,
1085,-4.00e-03,
1086,1.20e-02,
1087,-4.80e-02,
1088,-4.00e-03,
1089,1.20e-02,
1090,-4.00e-03,
1091,8.00e-03,
1092,-4.00e-03,
1093,1.20e-02,
1094,-4.00e-03,
1095,1.20e-02,
1096,1.20e-02,
1097,-4.00e-03,
1098,1.20e-02,
1099,-4.00e-03,
1100,1.20e-02,
1101,-4.00e-03,
1102,-4.00e-03,
1103,1.20e-02,
1104,-4.00e-03,
1105,1.20e-02,
1106,8.00e-03,
1107,-4.00e-03,
1108,-4.00e-03,
1109,1.20e-02,
1110,-4.00e-03,
1111,8.00e-03,
1112,-4.00e-03,
1113,1.20e-02,
1114,-4.00e-03,
1115,1.20e-02,
1116,8.00e-03,
1117,-4.00e-03,
1118,-4.00e-03,
1119,1.20e-02,
1120,-4.00e-03,
1121,1.20e-02,
1122,-4.00e-03,
1123,1.20e-02,
1124,-4.00e-03,
1125,1.20e-02,
1126,-4.00e-03,
1127,1.20e-02,
1128,1.20e-02,
1129,-4.00e-03,
1130,-4.00e-03,
1131,1.20e-02,
1132,8.00e-03,
1133,-4.00e-03,
1134,1.20e-02,
1135,-4.00e-03,
1136,-4.00e-03,
1137,1.20e-02,
1138,1.20e-02,
1139,-8.00e-02,
1140,-4.00e-03,
1141,1.60e-02,
1142,-4.00e-03,
1143,1.20e-02,
1144,-4.00e-03,
1145,1.20e-02,
1146,1.20e-02,
1147,-4.00e-03,
1148,-4.00e-03,
1149,1.20e-02,
1150,1.20e-02,
1151,-4.00e-03,
1152,-4.00e-03,
1153,1.20e-02,
1154,8.00e-03,
1155,-4.00e-03,
1156,-4.00e-03,
1157,1.20e-02,
1158,-4.00e-03,
1159,1.20e-02,
1160,-4.00e-03,
1161,1.20e-02,
1162,1.20e-02,
1163,-4.00e-03,
1164,-4.00e-03,
1165,1.20e-02,
1166,-4.00e-03,
1167,1.20e-02,
1168,1.20e-02,
1169,-4.00e-03,
1170,1.20e-02,
1171,-4.00e-03,
1172,-4.00e-03,
1173,1.20e-02,
1174,-4.00e-03,
1175,1.20e-02,
1176,-4.00e-03,
1177,1.20e-02,
1178,-4.00e-03,
1179,1.20e-02,
1180,-4.00e-03,
1181,1.20e-02,
1182,8.00e-03,
1183,-4.00e-03,
1184,8.00e-03,
1185,-4.00e-03,
1186,1.20e-02,
1187,-4.00e-03,
1188,8.00e-03,
1189,-4.00e-03,
1190,1.20e-02,
1191,-8.00e-03,
1192,-4.00e-02,
1193,1.20e-02,
1194,1.20e-02,
1195,-4.00e-03,
1196,1.20e-02,
1197,-4.00e-03,
1198,-4.00e-03,
1199,1.20e-02,
