Laptop_1/LAPTOP_CHRGR_1_OFF/time domain/NewFile42.csv

X,CH1,Start,Increment,
Sequence,Volt,-1.500000e-01,2.000000e-04
0,-1.60e-02,
1,2.00e-02,
2,-1.20e-02,
3,6.80e-02,
4,2.00e-02,
5,-1.60e-02,
6,-1.60e-02,
7,2.00e-02,
8,-1.60e-02,
9,2.00e-02,
10,-2.00e-02,
11,3.20e-02,
12,-1.20e-02,
13,2.00e-02,
14,-1.20e-02,
15,2.00e-02,
16,2.00e-02,
17,-1.60e-02,
18,-1.20e-02,
19,1.60e-02,
20,-4.80e-02,
21,4.40e-02,
22,1.60e-02,
23,-1.60e-02,
24,-1.20e-02,
25,1.60e-02,
26,-1.60e-02,
27,8.00e-02,
28,-1.20e-02,
29,1.60e-02,
30,-1.20e-02,
31,1.60e-02,
32,1.60e-02,
33,-1.60e-02,
34,2.80e-02,
35,-2.80e-02,
36,-1.60e-02,
37,2.00e-02,
38,2.00e-02,
39,-1.60e-02,
40,-1.20e-02,
41,2.00e-02,
42,-1.60e-02,
43,2.00e-02,
44,1.60e-02,
45,-1.60e-02,
46,3.20e-02,
47,-1.60e-02,
48,2.00e-02,
49,-2.00e-02,
50,9.60e-02,
51,-1.60e-02,
52,1.60e-02,
53,-1.60e-02,
54,-1.20e-02,
55,2.00e-02,
56,-3.60e-02,
57,3.60e-02,
58,1.60e-02,
59,-1.60e-02,
60,1.60e-02,
61,-1.20e-02,
62,-1.20e-02,
63,2.40e-02,
64,1.60e-02,
65,-1.20e-02,
66,-1.20e-02,
67,1.60e-02,
68,2.40e-02,
69,-2.00e-02,
70,2.00e-02,
71,-1.60e-02,
72,-1.60e-02,
73,2.00e-02,
74,-1.20e-02,
75,1.60e-02,
76,-1.60e-02,
77,2.00e-02,
78,-1.20e-02,
79,2.00e-02,
80,-1.60e-02,
81,2.80e-02,
82,2.00e-02,
83,-1.20e-02,
84,-1.60e-02,
85,2.80e-02,
86,-1.20e-02,
87,2.00e-02,
88,-1.60e-02,
89,2.00e-02,
90,2.00e-02,
91,-1.60e-02,
92,4.80e-02,
93,-4.40e-02,
94,-1.60e-02,
95,2.00e-02,
96,2.80e-02,
97,-1.60e-02,
98,-1.60e-02,
99,1.16e-01,
100,-1.20e-02,
101,2.00e-02,
102,-1.20e-02,
103,1.60e-02,
104,1.60e-02,
105,-2.80e-02,
106,-1.20e-02,
107,1.60e-02,
108,1.60e-02,
109,-1.20e-02,
110,1.60e-02,
111,-1.60e-02,
112,1.60e-02,
113,-1.60e-02,
114,1.60e-02,
115,-1.60e-02,
116,-2.40e-02,
117,2.40e-02,
118,-1.20e-02,
119,2.00e-02,
120,2.40e-02,
121,-2.00e-02,
122,2.00e-02,
123,-6.00e-02,
124,2.00e-02,
125,-1.60e-02,
126,-3.20e-02,
127,3.60e-02,
128,-1.20e-02,
129,2.40e-02,
130,-1.20e-02,
131,2.00e-02,
132,2.00e-02,
133,-1.60e-02,
134,2.40e-02,
135,-1.60e-02,
136,2.00e-02,
137,-1.60e-02,
138,-1.20e-02,
139,2.00e-02,
140,3.60e-02,
141,-2.40e-02,
142,1.60e-02,
143,-1.20e-02,
144,-1.20e-02,
145,2.00e-02,
146,1.60e-02,
147,-1.60e-02,
148,-1.20e-02,
149,1.60e-02,
150,-1.20e-02,
151,2.40e-02,
152,-1.20e-02,
153,1.60e-02,
154,-1.20e-02,
155,2.00e-02,
156,-1.20e-02,
157,2.40e-02,
158,-1.60e-02,
159,2.00e-02,
160,2.00e-02,
161,-1.60e-02,
162,3.60e-02,
163,-3.60e-02,
164,1.60e-02,
165,-1.60e-02,
166,2.00e-02,
167,-1.60e-02,
168,2.00e-02,
169,-1.60e-02,
170,-1.60e-02,
171,2.00e-02,
172,-2.00e-02,
173,2.00e-02,
174,-2.00e-02,
175,2.80e-02,
176,-1.20e-02,
177,2.00e-02,
178,1.60e-02,
179,-1.60e-02,
180,1.60e-02,
181,-1.20e-02,
182,1.60e-02,
183,-1.20e-02,
184,1.60e-02,
185,-1.60e-02,
186,-1.20e-02,
187,2.40e-02,
188,-1.60e-02,
189,2.00e-02,
190,-1.20e-02,
191,2.40e-02,
192,1.60e-02,
193,-1.20e-02,
194,-1.20e-02,
195,8.40e-02,
196,-1.20e-02,
197,2.00e-02,
198,1.60e-02,
199,-4.40e-02,
200,-1.60e-02,
201,2.00e-02,
202,-1.60e-02,
203,2.00e-02,
204,1.60e-02,
205,-1.20e-02,
206,-1.20e-02,
207,2.00e-02,
208,-1.20e-02,
209,2.00e-02,
210,-1.60e-02,
211,2.40e-02,
212,2.00e-02,
213,-2.00e-02,
214,2.40e-02,
215,-2.00e-02,
216,-1.60e-02,
217,2.00e-02,
218,8.80e-02,
219,-1.60e-02,
220,-1.20e-02,
221,2.00e-02,
222,-1.20e-02,
223,2.40e-02,
224,-1.20e-02,
225,1.60e-02,
226,-1.20e-02,
227,2.80e-02,
228,-1.20e-02,
229,2.00e-02,
230,-1.20e-02,
231,1.60e-02,
232,3.20e-02,
233,-4.00e-02,
234,-1.20e-02,
235,1.60e-02,
236,1.60e-02,
237,-1.60e-02,
238,2.80e-02,
239,-1.60e-02,
240,-1.20e-02,
241,1.60e-02,
242,-1.60e-02,
243,2.00e-02,
244,7.20e-02,
245,-2.40e-02,
246,-1.20e-02,
247,1.60e-02,
248,-1.20e-02,
249,1.60e-02,
250,-1.20e-02,
251,1.60e-02,
252,1.60e-02,
253,-1.60e-02,
254,2.00e-02,
255,-1.60e-02,
256,-1.60e-02,
257,2.40e-02,
258,2.00e-02,
259,-1.60e-02,
260,2.00e-02,
261,-1.60e-02,
262,-1.60e-02,
263,2.40e-02,
264,-1.20e-02,
265,1.60e-02,
266,-1.60e-02,
267,1.12e-01,
268,-3.60e-02,
269,2.00e-02,
270,-1.20e-02,
271,1.60e-02,
272,-1.20e-02,
273,2.00e-02,
274,-1.20e-02,
275,2.00e-02,
276,1.60e-02,
277,-1.60e-02,
278,-1.20e-02,
279,1.60e-02,
280,-2.40e-02,
281,2.40e-02,
282,-1.20e-02,
283,1.60e-02,
284,2.00e-02,
285,-1.60e-02,
286,-1.20e-02,
287,1.60e-02,
288,-1.60e-02,
289,2.00e-02,
290,-6.40e-02,
291,6.80e-02,
292,-1.60e-02,
293,2.40e-02,
294,2.40e-02,
295,-1.60e-02,
296,2.00e-02,
297,-1.60e-02,
298,2.00e-02,
299,-1.20e-02,
300,-1.60e-02,
301,2.00e-02,
302,1.60e-02,
303,-1.60e-02,
304,-1.60e-02,
305,3.20e-02,
306,1.60e-02,
307,-1.60e-02,
308,-1.60e-02,
309,2.00e-02,
310,1.60e-02,
311,-1.04e-01,
312,1.60e-02,
313,-1.20e-02,
314,-1.20e-02,
315,1.60e-02,
316,2.00e-02,
317,-1.60e-02,
318,1.60e-02,
319,-1.60e-02,
320,4.40e-02,
321,-9.20e-02,
322,1.60e-02,
323,-1.60e-02,
324,2.00e-02,
325,-1.60e-02,
326,1.60e-02,
327,-1.20e-02,
328,-2.40e-02,
329,2.40e-02,
330,5.20e-02,
331,-8.80e-02,
332,-2.00e-02,
333,2.40e-02,
334,1.60e-02,
335,-1.60e-02,
336,-1.20e-02,
337,2.00e-02,
338,2.80e-02,
339,-3.60e-02,
340,-8.00e-02,
341,8.40e-02,
342,2.00e-02,
343,-1.20e-02,
344,-1.20e-02,
345,1.60e-02,
346,1.60e-02,
347,-1.20e-02,
348,1.60e-02,
349,-1.20e-02,
350,1.60e-02,
351,-2.80e-02,
352,-1.60e-02,
353,1.60e-02,
354,1.60e-02,
355,-1.20e-02,
356,2.00e-02,
357,-1.20e-02,
358,1.60e-02,
359,-1.20e-02,
360,1.60e-02,
361,-2.00e-02,
362,2.40e-02,
363,-2.00e-02,
364,-1.20e-02,
365,2.00e-02,
366,-5.20e-02,
367,6.80e-02,
368,-1.60e-02,
369,2.00e-02,
370,2.00e-02,
371,-1.60e-02,
372,-1.20e-02,
373,2.00e-02,
374,-4.40e-02,
375,4.80e-02,
376,-1.60e-02,
377,2.00e-02,
378,1.60e-02,
379,-1.20e-02,
380,1.60e-02,
381,-1.60e-02,
382,2.00e-02,
383,-1.60e-02,
384,1.60e-02,
385,-1.60e-02,
386,-1.60e-02,
387,2.40e-02,
388,1.60e-02,
389,-1.60e-02,
390,1.60e-02,
391,-1.20e-02,
392,1.60e-02,
393,-1.60e-02,
394,2.00e-02,
395,-1.60e-02,
396,1.60e-02,
397,-1.20e-02,
398,2.80e-02,
399,-2.00e-02,
400,-1.20e-02,
401,1.60e-02,
402,-1.20e-02,
403,2.40e-02,
404,-1.20e-02,
405,2.00e-02,
406,1.60e-02,
407,-1.20e-02,
408,2.00e-02,
409,-1.60e-02,
410,3.60e-02,
411,-5.20e-02,
412,-1.20e-02,
413,1.60e-02,
414,2.00e-02,
415,-1.60e-02,
416,-1.20e-02,
417,2.00e-02,
418,2.00e-02,
419,-1.60e-02,
420,-1.60e-02,
421,9.60e-02,
422,-1.60e-02,
423,2.40e-02,
424,-1.60e-02,
425,2.00e-02,
426,1.60e-02,
427,-1.60e-02,
428,2.00e-02,
429,-1.60e-02,
430,-1.20e-02,
431,2.00e-02,
432,-1.20e-02,
433,1.60e-02,
434,3.20e-02,
435,-1.60e-02,
436,1.60e-02,
437,-1.20e-02,
438,-1.20e-02,
439,2.40e-02,
440,-1.20e-02,
441,2.00e-02,
442,-1.20e-02,
443,2.00e-02,
444,7.60e-02,
445,-7.60e-02,
446,-1.20e-02,
447,1.60e-02,
448,-1.20e-02,
449,1.60e-02,
450,-1.60e-02,
451,2.00e-02,
452,-1.20e-02,
453,1.60e-02,
454,-1.60e-02,
455,2.00e-02,
456,2.40e-02,
457,-2.40e-02,
458,-1.20e-02,
459,2.00e-02,
460,1.60e-02,
461,-1.60e-02,
462,-1.20e-02,
463,2.00e-02,
464,-1.20e-02,
465,1.60e-02,
466,-1.20e-02,
467,1.60e-02,
468,2.00e-02,
469,-9.60e-02,
470,1.60e-02,
471,-1.60e-02,
472,-1.20e-02,
473,2.00e-02,
474,-1.20e-02,
475,2.40e-02,
476,-1.20e-02,
477,1.60e-02,
478,1.60e-02,
479,-1.20e-02,
480,-5.60e-02,
481,5.20e-02,
482,1.60e-02,
483,-1.20e-02,
484,-1.20e-02,
485,1.60e-02,
486,2.40e-02,
487,-1.20e-02,
488,1.60e-02,
489,-1.20e-02,
490,1.60e-02,
491,-1.60e-02,
492,-5.20e-02,
493,6.40e-02,
494,1.60e-02,
495,-1.60e-02,
496,-1.20e-02,
497,1.60e-02,
498,-1.60e-02,
499,2.00e-02,
500,-1.60e-02,
501,1.60e-02,
502,-1.60e-02,
503,2.00e-02,
504,-2.00e-02,
505,2.00e-02,
506,-2.00e-02,
507,2.00e-02,
508,-1.60e-02,
509,2.40e-02,
510,-1.60e-02,
511,2.00e-02,
512,-1.20e-02,
513,2.00e-02,
514,2.00e-02,
515,-1.20e-02,
516,1.60e-02,
517,-7.20e-02,
518,1.60e-02,
519,-1.20e-02,
520,2.40e-02,
521,-1.60e-02,
522,1.60e-02,
523,-1.20e-02,
524,1.60e-02,
525,-1.20e-02,
526,-1.20e-02,
527,2.00e-02,
528,2.00e-02,
529,-2.40e-02,
530,-1.20e-02,
531,2.00e-02,
532,1.60e-02,
533,-1.20e-02,
534,-1.60e-02,
535,2.00e-02,
536,-1.20e-02,
537,2.00e-02,
538,2.00e-02,
539,-1.20e-02,
540,-2.00e-02,
541,5.60e-02,
542,-1.60e-02,
543,2.00e-02,
544,2.00e-02,
545,-1.60e-02,
546,2.00e-02,
547,-2.00e-02,
548,1.60e-02,
549,-1.60e-02,
550,5.20e-02,
551,-1.60e-02,
552,2.00e-02,
553,-1.60e-02,
554,2.40e-02,
555,-1.60e-02,
556,-1.20e-02,
557,2.40e-02,
558,-1.20e-02,
559,1.60e-02,
560,2.00e-02,
561,-1.60e-02,
562,-3.20e-02,
563,3.20e-02,
564,1.60e-02,
565,-1.60e-02,
566,-3.60e-02,
567,1.20e-01,
568,1.60e-02,
569,-1.20e-02,
570,-1.20e-02,
571,2.00e-02,
572,2.00e-02,
573,-1.20e-02,
574,3.60e-02,
575,-2.40e-02,
576,1.60e-02,
577,-1.60e-02,
578,-1.20e-02,
579,2.00e-02,
580,-1.20e-02,
581,2.00e-02,
582,1.60e-02,
583,-1.60e-02,
584,1.60e-02,
585,-1.60e-02,
586,-4.40e-02,
587,2.40e-02,
588,-2.00e-02,
589,2.00e-02,
590,2.00e-02,
591,-7.20e-02,
592,2.00e-02,
593,-1.20e-02,
594,1.60e-02,
595,-1.60e-02,
596,1.60e-02,
597,-1.20e-02,
598,-2.00e-02,
599,2.00e-02,
600,1.60e-02,
601,-1.60e-02,
602,1.60e-02,
603,-1.20e-02,
604,-1.20e-02,
605,1.60e-02,
606,1.60e-02,
607,-1.60e-02,
608,-1.20e-02,
609,2.00e-02,
610,-2.80e-02,
611,2.80e-02,
612,2.00e-02,
613,-1.20e-02,
614,-8.40e-02,
615,1.08e-01,
616,-1.20e-02,
617,2.00e-02,
618,-2.00e-02,
619,2.00e-02,
620,-3.60e-02,
621,3.60e-02,
622,-1.20e-02,
623,1.60e-02,
624,1.60e-02,
625,-1.60e-02,
626,-1.60e-02,
627,2.00e-02,
628,-1.60e-02,
629,2.00e-02,
630,2.00e-02,
631,-1.60e-02,
632,1.60e-02,
633,-1.60e-02,
634,3.20e-02,
635,-1.20e-02,
636,-2.00e-02,
637,2.00e-02,
638,-6.80e-02,
639,2.00e-02,
640,1.60e-02,
641,-1.60e-02,
642,-1.20e-02,
643,2.00e-02,
644,2.40e-02,
645,-2.00e-02,
646,1.60e-02,
647,-1.60e-02,
648,2.00e-02,
649,-1.20e-02,
650,1.60e-02,
651,-1.60e-02,
652,-1.20e-02,
653,2.00e-02,
654,1.60e-02,
655,-1.60e-02,
656,-3.20e-02,
657,5.20e-02,
658,1.60e-02,
659,-1.60e-02,
660,-1.20e-02,
661,1.60e-02,
662,2.40e-02,
663,-1.60e-02,
664,-1.20e-02,
665,4.00e-02,
666,1.60e-02,
667,-1.60e-02,
668,-2.80e-02,
669,2.80e-02,
670,1.60e-02,
671,-1.60e-02,
672,1.60e-02,
673,-1.60e-02,
674,1.60e-02,
675,-1.60e-02,
676,1.60e-02,
677,-1.60e-02,
678,2.40e-02,
679,-1.60e-02,
680,-2.40e-02,
681,2.40e-02,
682,-1.20e-02,
683,1.60e-02,
684,-2.00e-02,
685,2.00e-02,
686,6.40e-02,
687,-6.40e-02,
688,1.60e-02,
689,-1.20e-02,
690,1.60e-02,
691,-1.20e-02,
692,-2.40e-02,
693,4.00e-02,
694,-1.20e-02,
695,2.00e-02,
696,2.40e-02,
697,-2.00e-02,
698,-1.60e-02,
699,2.00e-02,
700,-1.20e-02,
701,2.00e-02,
702,-1.60e-02,
703,2.00e-02,
704,1.60e-02,
705,-2.40e-02,
706,2.00e-02,
707,-1.60e-02,
708,1.60e-02,
709,-1.60e-02,
710,2.00e-02,
711,-4.80e-02,
712,1.60e-02,
713,-1.60e-02,
714,-1.20e-02,
715,2.00e-02,
716,-1.60e-02,
717,3.20e-02,
718,-1.60e-02,
719,2.00e-02,
720,-1.60e-02,
721,3.20e-02,
722,1.60e-02,
723,-1.60e-02,
724,-1.20e-02,
725,2.00e-02,
726,-3.20e-02,
727,4.00e-02,
728,-1.20e-02,
729,2.00e-02,
730,1.60e-02,
731,-1.20e-02,
732,-1.20e-02,
733,2.40e-02,
734,-1.20e-02,
735,1.60e-02,
736,2.40e-02,
737,-4.80e-02,
738,-1.20e-02,
739,1.60e-02,
740,2.80e-02,
741,-2.00e-02,
742,-1.20e-02,
743,2.00e-02,
744,1.60e-02,
745,-1.20e-02,
746,1.60e-02,
747,-1.20e-02,
748,-1.20e-02,
749,1.60e-02,
750,-1.60e-02,
751,2.40e-02,
752,-1.20e-02,
753,2.00e-02,
754,1.60e-02,
755,-1.20e-02,
756,2.40e-02,
757,-1.60e-02,
758,-1.20e-02,
759,6.80e-02,
760,-1.08e-01,
761,2.00e-02,
762,-3.20e-02,
763,4.00e-02,
764,2.00e-02,
765,-1.60e-02,
766,-1.60e-02,
767,2.00e-02,
768,-1.60e-02,
769,2.00e-02,
770,-1.20e-02,
771,2.00e-02,
772,-1.20e-02,
773,1.60e-02,
774,1.60e-02,
775,-3.20e-02,
776,2.00e-02,
777,-1.60e-02,
778,-1.20e-02,
779,1.60e-02,
780,-1.60e-02,
781,2.00e-02,
782,-1.60e-02,
783,4.80e-02,
784,1.60e-02,
785,-1.60e-02,
786,1.60e-02,
787,-2.00e-02,
788,-1.20e-02,
789,2.00e-02,
790,-1.20e-02,
791,2.00e-02,
792,-1.60e-02,
793,2.00e-02,
794,-1.60e-02,
795,2.00e-02,
796,1.60e-02,
797,-1.60e-02,
798,-4.80e-02,
799,2.40e-02,
800,2.00e-02,
801,-1.60e-02,
802,-1.60e-02,
803,2.00e-02,
804,2.00e-02,
805,-7.60e-02,
806,-1.60e-02,
807,1.60e-02,
808,1.60e-02,
809,-1.20e-02,
810,3.20e-02,
811,-2.00e-02,
812,1.60e-02,
813,-1.20e-02,
814,1.60e-02,
815,-1.20e-02,
816,-1.20e-02,
817,2.00e-02,
818,-1.20e-02,
819,1.60e-02,
820,1.60e-02,
821,-1.20e-02,
822,1.60e-02,
823,-2.00e-02,
824,1.60e-02,
825,-1.20e-02,
826,2.00e-02,
827,-2.00e-02,
828,-1.20e-02,
829,2.00e-02,
830,1.60e-02,
831,-5.20e-02,
832,1.60e-02,
833,-3.60e-02,
834,1.60e-02,
835,-1.20e-02,
836,1.60e-02,
837,-1.60e-02,
838,2.00e-02,
839,-1.60e-02,
840,-1.60e-02,
841,2.00e-02,
842,-1.20e-02,
843,2.00e-02,
844,-2.00e-02,
845,2.80e-02,
846,-1.60e-02,
847,2.00e-02,
848,-1.20e-02,
849,1.60e-02,
850,1.60e-02,
851,-1.20e-02,
852,1.60e-02,
853,-7.20e-02,
854,8.40e-02,
855,-1.20e-02,
856,3.20e-02,
857,-2.00e-02,
858,-1.20e-02,
859,1.60e-02,
860,-1.60e-02,
861,2.00e-02,
862,2.80e-02,
863,-2.00e-02,
864,2.00e-02,
865,-1.60e-02,
866,-1.20e-02,
867,2.00e-02,
868,5.20e-02,
869,-3.60e-02,
870,-1.20e-02,
871,2.00e-02,
872,1.60e-02,
873,-1.60e-02,
874,-2.40e-02,
875,2.00e-02,
876,-1.60e-02,
877,3.20e-02,
878,2.00e-02,
879,-2.00e-02,
880,2.40e-02,
881,-2.80e-02,
882,-1.60e-02,
883,2.00e-02,
884,-1.20e-02,
885,2.00e-02,
886,2.00e-02,
887,-1.60e-02,
888,2.00e-02,
889,-1.60e-02,
890,1.60e-02,
891,-1.20e-02,
892,-2.00e-02,
893,2.40e-02,
894,-1.20e-02,
895,1.60e-02,
896,-1.20e-02,
897,2.80e-02,
898,1.60e-02,
899,-1.20e-02,
900,1.60e-02,
901,-4.40e-02,
902,-1.20e-02,
903,2.00e-02,
904,2.40e-02,
905,-4.00e-02,
906,-1.20e-02,
907,2.00e-02,
908,-1.60e-02,
909,2.00e-02,
910,-1.20e-02,
911,2.00e-02,
912,1.60e-02,
913,-1.60e-02,
914,1.60e-02,
915,-1.20e-02,
916,-1.60e-02,
917,2.00e-02,
918,1.60e-02,
919,-1.60e-02,
920,1.60e-02,
921,-2.00e-02,
922,2.00e-02,
923,-1.60e-02,
924,8.80e-02,
925,-1.04e-01,
926,-1.60e-02,
927,2.00e-02,
928,2.80e-02,
929,-2.00e-02,
930,-1.20e-02,
931,1.60e-02,
932,1.60e-02,
933,-1.60e-02,
934,-1.20e-02,
935,1.60e-02,
936,-1.20e-02,
937,2.00e-02,
938,-1.20e-02,
939,3.60e-02,
940,1.60e-02,
941,-1.20e-02,
942,1.60e-02,
943,-1.60e-02,
944,-1.20e-02,
945,1.60e-02,
946,1.60e-02,
947,-1.20e-02,
948,9.20e-02,
949,-1.60e-02,
950,-2.00e-02,
951,2.80e-02,
952,-1.20e-02,
953,2.40e-02,
954,2.00e-02,
955,-1.60e-02,
956,1.60e-02,
957,-1.60e-02,
958,-1.60e-02,
959,2.00e-02,
960,-1.20e-02,
961,2.00e-02,
962,-1.60e-02,
963,2.40e-02,
964,-1.60e-02,
965,2.00e-02,
966,2.00e-02,
967,-1.60e-02,
968,-1.20e-02,
969,2.40e-02,
970,-6.40e-02,
971,7.60e-02,
972,2.00e-02,
973,-1.20e-02,
974,-4.00e-02,
975,4.40e-02,
976,-1.20e-02,
977,1.60e-02,
978,-1.20e-02,
979,1.60e-02,
980,-1.20e-02,
981,2.40e-02,
982,-1.20e-02,
983,1.60e-02,
984,-1.20e-02,
985,1.60e-02,
986,1.60e-02,
987,-2.00e-02,
988,1.60e-02,
989,-1.20e-02,
990,-1.20e-02,
991,1.60e-02,
992,1.60e-02,
993,-1.20e-02,
994,1.60e-02,
995,-1.20e-02,
996,1.60e-02,
997,-3.60e-02,
998,-1.60e-02,
999,3.20e-02,
1000,-1.20e-02,
1001,2.00e-02,
1002,2.80e-02,
1003,-2.00e-02,
1004,2.00e-02,
1005,-1.60e-02,
1006,-1.20e-02,
1007,2.00e-02,
1008,2.00e-02,
1009,-1.60e-02,
1010,4.40e-02,
1011,-5.20e-02,
1012,-1.60e-02,
1013,2.00e-02,
1014,1.60e-02,
1015,-2.00e-02,
1016,1.60e-02,
1017,-1.20e-02,
1018,-1.20e-02,
1019,8.80e-02,
1020,1.60e-02,
1021,-1.60e-02,
1022,-1.20e-02,
1023,2.40e-02,
1024,-1.20e-02,
1025,1.60e-02,
1026,-1.20e-02,
1027,1.60e-02,
1028,-1.20e-02,
1029,1.60e-02,
1030,-1.20e-02,
1031,2.00e-02,
1032,-1.20e-02,
1033,2.00e-02,
1034,2.40e-02,
1035,-2.40e-02,
1036,-1.60e-02,
1037,2.00e-02,
1038,-1.20e-02,
1039,2.80e-02,
1040,1.60e-02,
1041,-1.60e-02,
1042,-7.20e-02,
1043,6.00e-02,
1044,-5.20e-02,
1045,3.60e-02,
1046,2.40e-02,
1047,-2.00e-02,
1048,2.00e-02,
1049,-1.60e-02,
1050,2.00e-02,
1051,-1.60e-02,
1052,2.00e-02,
1053,-1.60e-02,
1054,-1.20e-02,
1055,2.00e-02,
1056,2.80e-02,
1057,-2.40e-02,
1058,1.60e-02,
1059,-1.60e-02,
1060,-1.20e-02,
1061,2.00e-02,
1062,1.60e-02,
1063,-1.20e-02,
1064,-1.20e-02,
1065,1.60e-02,
1066,1.60e-02,
1067,-6.40e-02,
1068,-1.20e-02,
1069,2.00e-02,
1070,1.60e-02,
1071,-1.20e-02,
1072,-1.20e-02,
1073,1.60e-02,
1074,-1.20e-02,
1075,2.00e-02,
1076,1.60e-02,
1077,-1.20e-02,
1078,-1.20e-02,
1079,1.60e-02,
1080,3.60e-02,
1081,-4.40e-02,
1082,1.60e-02,
1083,-1.20e-02,
1084,1.60e-02,
1085,-1.20e-02,
1086,2.40e-02,
1087,-1.60e-02,
1088,-1.20e-02,
1089,2.00e-02,
1090,4.40e-02,
1091,-8.80e-02,
1092,-2.00e-02,
1093,2.80e-02,
1094,-1.60e-02,
1095,2.00e-02,
1096,1.60e-02,
1097,-1.20e-02,
1098,1.60e-02,
1099,-1.20e-02,
1100,-1.60e-02,
1101,2.00e-02,
1102,1.60e-02,
1103,-1.20e-02,
1104,-2.80e-02,
1105,2.00e-02,
1106,-1.20e-02,
1107,1.60e-02,
1108,-1.20e-02,
1109,1.60e-02,
1110,1.60e-02,
1111,-1.20e-02,
1112,-1.60e-02,
1113,1.60e-02,
1114,1.60e-02,
1115,-1.08e-01,
1116,-4.80e-02,
1117,2.80e-02,
1118,2.00e-02,
1119,-2.00e-02,
1120,-1.60e-02,
1121,2.00e-02,
1122,1.60e-02,
1123,-1.60e-02,
1124,2.00e-02,
1125,-1.60e-02,
1126,-1.20e-02,
1127,2.00e-02,
1128,3.20e-02,
1129,-2.40e-02,
1130,-1.60e-02,
1131,2.40e-02,
1132,2.00e-02,
1133,-1.60e-02,
1134,-1.60e-02,
1135,2.00e-02,
1136,-4.80e-02,
1137,4.40e-02,
1138,-1.60e-02,
1139,2.00e-02,
1140,-2.00e-02,
1141,2.40e-02,
1142,-1.20e-02,
1143,1.60e-02,
1144,1.60e-02,
1145,-1.20e-02,
1146,-1.20e-02,
1147,1.60e-02,
1148,-1.20e-02,
1149,1.60e-02,
1150,1.60e-02,
1151,-4.00e-02,
1152,1.60e-02,
1153,-1.20e-02,
1154,1.60e-02,
1155,-1.20e-02,
1156,-2.00e-02,
1157,2.00e-02,
1158,1.60e-02,
1159,-1.20e-02,
1160,-1.20e-02,
1161,1.20e-01,
1162,-2.00e-02,
1163,2.40e-02,
1164,-1.20e-02,
1165,2.00e-02,
1166,2.00e-02,
1167,-1.20e-02,
1168,-1.20e-02,
1169,2.00e-02,
1170,-1.60e-02,
1171,2.00e-02,
1172,-1.20e-02,
1173,2.00e-02,
1174,2.40e-02,
1175,-2.40e-02,
1176,-2.00e-02,
1177,2.00e-02,
1178,-1.20e-02,
1179,2.00e-02,
1180,2.40e-02,
1181,-2.00e-02,
1182,-1.20e-02,
1183,1.60e-02,
1184,-1.20e-02,
1185,2.40e-02,
1186,4.00e-02,
1187,-3.20e-02,
1188,-1.20e-02,
1189,1.60e-02,
1190,1.60e-02,
1191,-1.20e-02,
1192,2.00e-02,
1193,-1.20e-02,
1194,-1.20e-02,
1195,1.60e-02,
1196,1.60e-02,
1197,-1.60e-02,
1198,-2.00e-02,
1199,2.80e-02,
