Laptop_1/LAPTOP_CHRGR_1_OFF/time domain/NewFile33.csv

X,CH1,Start,Increment,
Sequence,Volt,-1.500000e-01,2.000000e-04
0,-5.60e-02,
1,4.80e-02,
2,-8.00e-03,
3,2.00e-02,
4,1.60e-02,
5,-1.20e-02,
6,1.60e-02,
7,-1.20e-02,
8,-1.20e-02,
9,2.00e-02,
10,-7.20e-02,
11,7.60e-02,
12,-2.80e-02,
13,6.00e-02,
14,-1.20e-02,
15,1.60e-02,
16,-1.60e-02,
17,2.00e-02,
18,1.60e-02,
19,-1.20e-02,
20,-1.20e-02,
21,1.60e-02,
22,-8.00e-03,
23,1.60e-02,
24,5.60e-02,
25,-2.80e-02,
26,1.20e-02,
27,-8.00e-03,
28,1.60e-02,
29,-1.20e-02,
30,-8.00e-03,
31,1.60e-02,
32,1.60e-02,
33,-1.20e-02,
34,1.60e-02,
35,-6.40e-02,
36,2.40e-02,
37,-4.80e-02,
38,-8.00e-03,
39,1.60e-02,
40,-8.00e-03,
41,2.00e-02,
42,1.60e-02,
43,-8.00e-03,
44,-1.20e-02,
45,1.60e-02,
46,-1.20e-02,
47,1.60e-02,
48,-2.80e-02,
49,6.00e-02,
50,-1.60e-02,
51,2.00e-02,
52,-1.60e-02,
53,2.00e-02,
54,1.60e-02,
55,-1.20e-02,
56,-1.20e-02,
57,2.00e-02,
58,4.80e-02,
59,-2.40e-02,
60,9.20e-02,
61,-1.20e-02,
62,-1.60e-02,
63,1.60e-02,
64,-8.00e-03,
65,2.40e-02,
66,1.60e-02,
67,-1.20e-02,
68,1.20e-02,
69,-1.20e-02,
70,-1.60e-02,
71,3.20e-02,
72,1.20e-02,
73,-1.20e-02,
74,1.20e-02,
75,-1.20e-02,
76,-1.20e-02,
77,1.60e-02,
78,1.60e-02,
79,-1.20e-02,
80,1.60e-02,
81,-1.20e-02,
82,3.20e-02,
83,-2.40e-02,
84,-8.00e-03,
85,1.60e-02,
86,1.60e-02,
87,-1.08e-01,
88,-1.60e-02,
89,1.60e-02,
90,1.60e-02,
91,-1.60e-02,
92,2.00e-02,
93,-1.20e-02,
94,-3.60e-02,
95,3.60e-02,
96,2.00e-02,
97,-1.60e-02,
98,2.80e-02,
99,-2.40e-02,
100,2.00e-02,
101,-1.20e-02,
102,1.20e-02,
103,-8.00e-03,
104,1.60e-02,
105,-1.20e-02,
106,-4.80e-02,
107,1.60e-02,
108,1.20e-02,
109,-8.00e-03,
110,1.20e-02,
111,-1.20e-02,
112,-1.20e-02,
113,1.60e-02,
114,1.20e-02,
115,-1.20e-02,
116,-8.00e-03,
117,1.60e-02,
118,-6.80e-02,
119,2.80e-02,
120,-1.20e-02,
121,1.60e-02,
122,-1.60e-02,
123,2.00e-02,
124,-1.20e-02,
125,2.00e-02,
126,1.20e-02,
127,-1.20e-02,
128,-2.00e-02,
129,3.60e-02,
130,1.60e-02,
131,-1.20e-02,
132,-1.60e-02,
133,1.60e-02,
134,-1.16e-01,
135,2.80e-02,
136,-1.20e-02,
137,2.00e-02,
138,-1.60e-02,
139,2.00e-02,
140,4.00e-02,
141,-3.60e-02,
142,1.60e-02,
143,-1.20e-02,
144,-1.20e-02,
145,1.60e-02,
146,-8.00e-03,
147,1.60e-02,
148,1.20e-02,
149,-8.00e-03,
150,-8.00e-03,
151,1.60e-02,
152,-3.60e-02,
153,1.60e-02,
154,1.60e-02,
155,-8.00e-03,
156,-8.00e-03,
157,2.40e-02,
158,1.60e-02,
159,-1.20e-02,
160,-8.00e-03,
161,9.60e-02,
162,1.60e-02,
163,-1.20e-02,
164,3.20e-02,
165,-2.80e-02,
166,1.20e-02,
167,-8.00e-03,
168,-3.60e-02,
169,2.40e-02,
170,-8.00e-03,
171,1.60e-02,
172,-1.20e-02,
173,1.60e-02,
174,-1.20e-02,
175,1.60e-02,
176,4.00e-02,
177,-4.40e-02,
178,-1.60e-02,
179,1.60e-02,
180,-1.60e-02,
181,2.00e-02,
182,1.60e-02,
183,-1.20e-02,
184,-8.00e-03,
185,3.20e-02,
186,1.60e-02,
187,-8.00e-03,
188,3.20e-02,
189,-2.00e-02,
190,-8.00e-03,
191,1.60e-02,
192,-1.60e-02,
193,7.60e-02,
194,-8.00e-03,
195,1.60e-02,
196,-1.20e-02,
197,1.20e-02,
198,1.60e-02,
199,-2.40e-02,
200,-1.20e-02,
201,1.60e-02,
202,-1.20e-02,
203,1.60e-02,
204,-8.00e-02,
205,8.40e-02,
206,-1.20e-02,
207,1.60e-02,
208,-1.20e-02,
209,1.60e-02,
210,4.00e-02,
211,-4.00e-02,
212,1.20e-02,
213,-1.20e-02,
214,1.60e-02,
215,-2.00e-02,
216,-1.60e-02,
217,2.00e-02,
218,-1.20e-02,
219,2.00e-02,
220,-1.20e-02,
221,1.60e-02,
222,3.60e-02,
223,-1.20e-02,
224,1.20e-02,
225,-1.60e-02,
226,2.00e-02,
227,-1.20e-02,
228,1.20e-02,
229,-1.60e-02,
230,-8.00e-03,
231,1.60e-02,
232,1.20e-02,
233,-8.00e-03,
234,-1.20e-02,
235,3.20e-02,
236,-8.00e-03,
237,1.20e-02,
238,3.60e-02,
239,-3.20e-02,
240,1.60e-02,
241,-8.80e-02,
242,1.20e-02,
243,-1.20e-02,
244,1.60e-02,
245,-1.20e-02,
246,-2.40e-02,
247,2.80e-02,
248,-1.20e-02,
249,1.60e-02,
250,1.60e-02,
251,-1.60e-02,
252,1.20e-02,
253,-1.20e-02,
254,1.60e-02,
255,-1.20e-02,
256,-1.20e-02,
257,1.60e-02,
258,3.60e-02,
259,-1.20e-02,
260,1.60e-02,
261,-1.20e-02,
262,1.60e-02,
263,-2.00e-02,
264,-1.20e-02,
265,1.60e-02,
266,-1.20e-02,
267,1.60e-02,
268,-8.00e-03,
269,2.80e-02,
270,1.20e-02,
271,-1.20e-02,
272,1.20e-02,
273,-1.20e-02,
274,1.60e-02,
275,-2.80e-02,
276,-8.00e-03,
277,1.60e-02,
278,1.20e-02,
279,-1.20e-02,
280,3.20e-02,
281,-3.60e-02,
282,-8.00e-03,
283,1.60e-02,
284,1.60e-02,
285,-1.20e-02,
286,1.60e-02,
287,-1.20e-02,
288,1.60e-02,
289,-8.00e-03,
290,-1.20e-02,
291,1.60e-02,
292,3.20e-02,
293,-1.60e-02,
294,2.00e-02,
295,-1.60e-02,
296,7.60e-02,
297,-7.20e-02,
298,-8.00e-03,
299,1.60e-02,
300,1.60e-02,
301,-1.20e-02,
302,2.00e-02,
303,-1.20e-02,
304,3.20e-02,
305,-1.20e-02,
306,-1.60e-02,
307,1.60e-02,
308,-1.20e-02,
309,2.00e-02,
310,-8.00e-03,
311,1.60e-02,
312,1.60e-02,
313,-1.20e-02,
314,-8.00e-03,
315,1.60e-02,
316,-3.20e-02,
317,3.20e-02,
318,-8.00e-03,
319,1.60e-02,
320,-8.00e-03,
321,1.60e-02,
322,-7.20e-02,
323,4.00e-02,
324,-8.00e-03,
325,1.60e-02,
326,-1.20e-02,
327,1.60e-02,
328,-3.60e-02,
329,2.80e-02,
330,-1.20e-02,
331,1.60e-02,
332,1.60e-02,
333,-1.60e-02,
334,1.60e-02,
335,-1.20e-02,
336,1.60e-02,
337,-1.60e-02,
338,4.40e-02,
339,-2.00e-02,
340,1.20e-02,
341,-1.20e-02,
342,1.60e-02,
343,-1.20e-02,
344,-1.20e-02,
345,4.00e-02,
346,1.60e-02,
347,-1.20e-02,
348,-1.20e-02,
349,6.00e-02,
350,4.00e-02,
351,-1.60e-02,
352,1.20e-02,
353,-8.00e-03,
354,-1.20e-02,
355,1.60e-02,
356,-1.20e-02,
357,1.60e-02,
358,1.20e-02,
359,-1.20e-02,
360,1.20e-02,
361,-8.00e-03,
362,-2.40e-02,
363,2.40e-02,
364,-8.00e-03,
365,1.60e-02,
366,1.60e-02,
367,-1.20e-02,
368,-1.20e-02,
369,2.00e-02,
370,1.60e-02,
371,-1.20e-02,
372,-1.20e-02,
373,2.00e-02,
374,1.04e-01,
375,-3.60e-02,
376,-8.00e-03,
377,2.00e-02,
378,1.60e-02,
379,-1.20e-02,
380,2.80e-02,
381,-1.60e-02,
382,-1.20e-02,
383,1.60e-02,
384,-1.20e-02,
385,1.60e-02,
386,-3.20e-02,
387,2.40e-02,
388,-1.20e-02,
389,1.60e-02,
390,1.60e-02,
391,-1.20e-02,
392,-1.20e-02,
393,1.60e-02,
394,-8.00e-03,
395,1.60e-02,
396,-8.00e-03,
397,1.60e-02,
398,-3.20e-02,
399,1.60e-02,
400,1.60e-02,
401,-7.60e-02,
402,-1.60e-02,
403,2.00e-02,
404,1.20e-02,
405,-8.00e-03,
406,1.20e-02,
407,-8.00e-03,
408,4.40e-02,
409,-3.60e-02,
410,1.60e-02,
411,-8.00e-03,
412,1.60e-02,
413,-1.20e-02,
414,4.00e-02,
415,-2.00e-02,
416,1.20e-02,
417,-8.00e-03,
418,-8.00e-03,
419,1.20e-02,
420,-2.80e-02,
421,4.40e-02,
422,2.80e-02,
423,-1.20e-02,
424,1.60e-02,
425,-8.40e-02,
426,-8.00e-03,
427,2.00e-02,
428,-1.20e-02,
429,1.60e-02,
430,-1.20e-02,
431,1.60e-02,
432,-1.20e-02,
433,3.60e-02,
434,-8.00e-03,
435,1.20e-02,
436,-1.20e-02,
437,1.60e-02,
438,-1.60e-02,
439,1.60e-02,
440,1.60e-02,
441,-1.20e-02,
442,-8.00e-03,
443,1.60e-02,
444,4.00e-02,
445,-3.20e-02,
446,-1.20e-02,
447,1.60e-02,
448,-1.20e-02,
449,1.60e-02,
450,5.60e-02,
451,-5.20e-02,
452,2.00e-02,
453,-8.00e-03,
454,2.00e-02,
455,-1.20e-02,
456,4.00e-02,
457,-4.40e-02,
458,-1.60e-02,
459,1.60e-02,
460,-8.00e-03,
461,2.00e-02,
462,-8.00e-03,
463,1.60e-02,
464,-1.20e-02,
465,1.60e-02,
466,2.00e-02,
467,-1.60e-02,
468,-3.60e-02,
469,2.00e-02,
470,1.60e-02,
471,-1.20e-02,
472,2.40e-02,
473,-1.60e-02,
474,1.60e-02,
475,-3.60e-02,
476,-1.20e-02,
477,1.60e-02,
478,-4.00e-02,
479,3.20e-02,
480,-1.20e-02,
481,1.60e-02,
482,1.20e-02,
483,-1.20e-02,
484,4.00e-02,
485,-3.20e-02,
486,1.20e-02,
487,-8.00e-03,
488,-8.00e-03,
489,1.60e-02,
490,1.20e-02,
491,-1.20e-02,
492,-4.00e-02,
493,4.80e-02,
494,-1.20e-02,
495,1.60e-02,
496,1.60e-02,
497,-1.20e-02,
498,-1.20e-02,
499,1.60e-02,
500,1.20e-02,
501,-8.00e-02,
502,2.00e-02,
503,-3.20e-02,
504,-8.00e-03,
505,1.60e-02,
506,-1.20e-02,
507,1.60e-02,
508,2.00e-02,
509,-2.00e-02,
510,1.60e-02,
511,-1.20e-02,
512,-1.20e-02,
513,1.60e-02,
514,3.20e-02,
515,-1.20e-02,
516,1.60e-02,
517,-1.20e-02,
518,1.60e-02,
519,-1.60e-02,
520,-3.20e-02,
521,3.60e-02,
522,1.20e-02,
523,-1.20e-02,
524,-1.00e-01,
525,1.60e-02,
526,-1.20e-02,
527,2.80e-02,
528,-8.00e-03,
529,1.20e-02,
530,-8.00e-03,
531,1.60e-02,
532,-8.00e-03,
533,1.60e-02,
534,1.60e-02,
535,-1.20e-02,
536,1.60e-02,
537,-1.20e-02,
538,2.40e-02,
539,-2.80e-02,
540,1.60e-02,
541,-1.20e-02,
542,2.00e-02,
543,-1.60e-02,
544,1.60e-02,
545,-1.20e-02,
546,-1.20e-02,
547,1.60e-02,
548,1.60e-02,
549,-1.20e-02,
550,-3.20e-02,
551,1.60e-02,
552,-1.20e-02,
553,1.60e-02,
554,-2.00e-02,
555,2.00e-02,
556,1.20e-02,
557,-2.00e-02,
558,-1.60e-02,
559,1.60e-02,
560,-8.00e-03,
561,1.60e-02,
562,-6.80e-02,
563,4.40e-02,
564,1.20e-02,
565,-8.00e-03,
566,1.60e-02,
567,-1.20e-02,
568,-1.20e-02,
569,1.60e-02,
570,1.20e-02,
571,-1.20e-02,
572,2.80e-02,
573,-2.00e-02,
574,1.20e-02,
575,-8.00e-03,
576,-2.80e-02,
577,9.20e-02,
578,1.60e-02,
579,-1.20e-02,
580,-1.20e-02,
581,1.60e-02,
582,1.20e-02,
583,-1.20e-02,
584,2.80e-02,
585,-1.20e-02,
586,-1.20e-02,
587,2.00e-02,
588,1.20e-02,
589,-1.20e-02,
590,-8.00e-03,
591,2.40e-02,
592,1.60e-02,
593,-1.20e-02,
594,-1.60e-02,
595,2.00e-02,
596,1.60e-02,
597,-4.00e-02,
598,-1.20e-02,
599,1.60e-02,
600,2.00e-02,
601,-7.20e-02,
602,-8.00e-03,
603,1.60e-02,
604,1.60e-02,
605,-1.20e-02,
606,-1.20e-02,
607,1.60e-02,
608,2.80e-02,
609,-3.60e-02,
610,-1.20e-02,
611,1.60e-02,
612,1.20e-02,
613,-2.00e-02,
614,-1.20e-02,
615,1.60e-02,
616,-1.20e-02,
617,1.60e-02,
618,2.00e-02,
619,-1.60e-02,
620,-2.40e-02,
621,2.40e-02,
622,1.60e-02,
623,-1.60e-02,
624,1.60e-02,
625,-2.80e-02,
626,-1.20e-02,
627,1.60e-02,
628,1.60e-02,
629,-1.20e-02,
630,1.60e-02,
631,-1.20e-02,
632,-2.00e-02,
633,2.80e-02,
634,1.60e-02,
635,-1.20e-02,
636,-1.60e-02,
637,1.60e-02,
638,1.60e-02,
639,-1.20e-02,
640,-1.60e-02,
641,1.60e-02,
642,1.60e-02,
643,-1.20e-02,
644,2.00e-02,
645,-2.40e-02,
646,-8.00e-03,
647,1.60e-02,
648,1.60e-02,
649,-1.60e-02,
650,-1.60e-02,
651,5.60e-02,
652,1.20e-02,
653,-8.00e-03,
654,2.00e-02,
655,-3.20e-02,
656,-8.00e-03,
657,1.20e-02,
658,-1.20e-02,
659,1.60e-02,
660,-2.80e-02,
661,4.40e-02,
662,1.20e-02,
663,-1.60e-02,
664,-1.20e-02,
665,1.60e-02,
666,-1.20e-02,
667,3.20e-02,
668,-1.20e-02,
669,1.60e-02,
670,-1.20e-02,
671,2.00e-02,
672,-1.20e-02,
673,1.60e-02,
674,1.60e-02,
675,-1.20e-02,
676,1.20e-02,
677,-1.60e-02,
678,-1.20e-02,
679,3.20e-02,
680,1.60e-02,
681,-1.20e-02,
682,2.00e-02,
683,-1.60e-02,
684,-8.00e-03,
685,1.60e-02,
686,-8.00e-03,
687,1.60e-02,
688,1.20e-02,
689,-8.00e-03,
690,3.20e-02,
691,-3.20e-02,
692,1.20e-02,
693,-1.20e-02,
694,-8.00e-03,
695,4.40e-02,
696,1.20e-02,
697,-1.20e-02,
698,-8.00e-03,
699,1.20e-02,
700,-1.20e-02,
701,1.60e-02,
702,2.80e-02,
703,-1.60e-02,
704,1.60e-02,
705,-1.20e-02,
706,1.60e-02,
707,-1.20e-02,
708,-1.20e-02,
709,2.00e-02,
710,-8.00e-03,
711,1.60e-02,
712,-1.20e-02,
713,1.60e-02,
714,2.40e-02,
715,-1.20e-02,
716,1.60e-02,
717,-1.60e-02,
718,1.60e-02,
719,-1.20e-02,
720,-1.60e-02,
721,2.00e-02,
722,1.60e-02,
723,-1.20e-02,
724,3.20e-02,
725,-3.20e-02,
726,5.20e-02,
727,-2.40e-02,
728,1.60e-02,
729,-8.00e-03,
730,3.20e-02,
731,-3.60e-02,
732,1.20e-02,
733,-1.20e-02,
734,-8.00e-03,
735,1.60e-02,
736,3.20e-02,
737,-2.40e-02,
738,-8.00e-03,
739,1.60e-02,
740,1.60e-02,
741,-1.20e-02,
742,-8.00e-03,
743,1.20e-02,
744,-1.20e-02,
745,1.60e-02,
746,1.60e-02,
747,-1.20e-02,
748,-1.20e-02,
749,4.80e-02,
750,1.20e-02,
751,-1.60e-02,
752,-1.60e-02,
753,2.00e-02,
754,-1.20e-02,
755,2.80e-02,
756,1.60e-02,
757,-1.20e-02,
758,1.60e-02,
759,-1.20e-02,
760,2.80e-02,
761,-2.00e-02,
762,-1.20e-02,
763,2.00e-02,
764,-4.00e-02,
765,3.60e-02,
766,-1.20e-02,
767,1.60e-02,
768,-8.00e-03,
769,1.60e-02,
770,1.60e-02,
771,-1.20e-02,
772,3.60e-02,
773,-2.40e-02,
774,1.20e-02,
775,-1.20e-02,
776,1.60e-02,
777,-1.20e-02,
778,8.40e-02,
779,-1.20e-02,
780,1.20e-02,
781,-8.00e-03,
782,-8.00e-03,
783,1.60e-02,
784,-1.20e-02,
785,3.60e-02,
786,1.60e-02,
787,-1.20e-02,
788,2.40e-02,
789,-1.20e-02,
790,-1.20e-02,
791,1.60e-02,
792,-8.00e-03,
793,2.00e-02,
794,-2.00e-02,
795,2.40e-02,
796,2.00e-02,
797,-1.20e-02,
798,-8.00e-03,
799,2.00e-02,
800,-4.00e-02,
801,5.20e-02,
802,-4.80e-02,
803,2.00e-02,
804,1.60e-02,
805,-1.20e-02,
806,-2.00e-02,
807,3.60e-02,
808,-1.20e-02,
809,2.00e-02,
810,-1.20e-02,
811,2.00e-02,
812,-8.00e-03,
813,1.60e-02,
814,-8.00e-03,
815,2.00e-02,
816,-8.00e-03,
817,1.20e-02,
818,2.80e-02,
819,-4.00e-02,
820,-8.00e-03,
821,1.20e-02,
822,1.60e-02,
823,-1.20e-02,
824,2.00e-02,
825,-1.20e-02,
826,-8.00e-03,
827,1.60e-02,
828,-1.20e-02,
829,6.00e-02,
830,2.40e-02,
831,-1.20e-02,
832,-8.00e-03,
833,1.60e-02,
834,4.40e-02,
835,-2.40e-02,
836,1.60e-02,
837,-1.20e-02,
838,1.60e-02,
839,-1.20e-02,
840,1.60e-02,
841,-1.20e-02,
842,-2.00e-02,
843,3.60e-02,
844,-1.20e-02,
845,1.60e-02,
846,-1.60e-02,
847,2.00e-02,
848,1.60e-02,
849,-1.20e-02,
850,-8.00e-03,
851,1.60e-02,
852,-8.00e-03,
853,1.60e-02,
854,-4.00e-02,
855,4.00e-02,
856,-8.00e-03,
857,1.60e-02,
858,-1.20e-02,
859,1.60e-02,
860,-8.00e-03,
861,1.60e-02,
862,1.60e-02,
863,-1.20e-02,
864,-2.40e-02,
865,2.00e-02,
866,-8.00e-03,
867,1.60e-02,
868,1.60e-02,
869,-1.20e-02,
870,-4.00e-02,
871,2.00e-02,
872,-1.20e-02,
873,2.00e-02,
874,1.60e-02,
875,-1.20e-02,
876,-2.40e-02,
877,3.20e-02,
878,1.60e-02,
879,-1.60e-02,
880,2.00e-02,
881,-1.20e-02,
882,-1.60e-02,
883,1.60e-02,
884,1.60e-02,
885,-1.60e-02,
886,1.20e-02,
887,-1.20e-02,
888,-2.00e-02,
889,2.80e-02,
890,2.00e-02,
891,-1.60e-02,
892,1.60e-02,
893,-1.20e-02,
894,-1.60e-02,
895,2.00e-02,
896,-1.20e-02,
897,1.60e-02,
898,1.20e-02,
899,-8.00e-03,
900,-2.00e-02,
901,2.80e-02,
902,-8.00e-03,
903,1.60e-02,
904,1.60e-02,
905,-1.20e-02,
906,-2.40e-02,
907,1.20e-02,
908,1.20e-02,
909,-1.20e-02,
910,1.60e-02,
911,-1.20e-02,
912,2.40e-02,
913,-3.60e-02,
914,-1.20e-02,
915,1.20e-02,
916,2.00e-02,
917,-1.20e-02,
918,1.20e-02,
919,-1.20e-02,
920,-1.20e-02,
921,1.60e-02,
922,1.60e-02,
923,-1.20e-02,
924,2.80e-02,
925,-3.20e-02,
926,-1.20e-02,
927,2.00e-02,
928,2.80e-02,
929,-3.60e-02,
930,2.00e-02,
931,-1.20e-02,
932,2.00e-02,
933,-2.00e-02,
934,-8.00e-03,
935,2.40e-02,
936,-8.00e-03,
937,1.60e-02,
938,-1.20e-02,
939,1.60e-02,
940,4.00e-02,
941,-1.20e-02,
942,-1.20e-02,
943,1.60e-02,
944,-8.00e-03,
945,1.60e-02,
946,-1.60e-02,
947,2.00e-02,
948,-8.00e-03,
949,1.60e-02,
950,1.20e-02,
951,-1.20e-02,
952,1.60e-02,
953,-1.20e-02,
954,-8.00e-03,
955,8.00e-02,
956,1.60e-02,
957,-1.60e-02,
958,-3.20e-02,
959,2.80e-02,
960,1.60e-02,
961,-1.20e-02,
962,-1.20e-02,
963,1.60e-02,
964,1.60e-02,
965,-1.60e-02,
966,-1.20e-02,
967,2.00e-02,
968,2.00e-02,
969,-1.60e-02,
970,3.20e-02,
971,-3.20e-02,
972,2.00e-02,
973,-1.20e-02,
974,2.00e-02,
975,-1.20e-02,
976,-3.60e-02,
977,4.80e-02,
978,-1.20e-02,
979,8.80e-02,
980,-8.00e-03,
981,1.20e-02,
982,4.00e-02,
983,-2.40e-02,
984,1.20e-02,
985,-1.20e-02,
986,1.60e-02,
987,-1.20e-02,
988,1.20e-02,
989,-1.20e-02,
990,1.20e-02,
991,-8.00e-03,
992,-8.00e-03,
993,1.60e-02,
994,-3.60e-02,
995,1.60e-02,
996,1.60e-02,
997,-1.20e-02,
998,1.60e-02,
999,-2.40e-02,
1000,1.60e-02,
1001,-1.20e-02,
1002,1.60e-02,
1003,-1.20e-02,
1004,4.00e-02,
1005,-1.08e-01,
1006,-1.20e-02,
1007,2.00e-02,
1008,1.60e-02,
1009,-1.20e-02,
1010,2.80e-02,
1011,-3.20e-02,
1012,2.00e-02,
1013,-1.20e-02,
1014,-1.20e-02,
1015,2.00e-02,
1016,1.60e-02,
1017,-1.20e-02,
1018,3.60e-02,
1019,-2.40e-02,
1020,-8.00e-03,
1021,1.60e-02,
1022,-1.20e-02,
1023,1.60e-02,
1024,-8.00e-03,
1025,1.60e-02,
1026,1.60e-02,
1027,-8.00e-03,
1028,-5.20e-02,
1029,2.80e-02,
1030,-8.00e-03,
1031,1.60e-02,
1032,-8.00e-03,
1033,1.60e-02,
1034,2.00e-02,
1035,-1.20e-02,
1036,1.60e-02,
1037,-1.20e-02,
1038,1.60e-02,
1039,-1.20e-02,
1040,-4.00e-02,
1041,4.80e-02,
1042,1.20e-02,
1043,-1.20e-02,
1044,-1.20e-02,
1045,2.00e-02,
1046,2.00e-02,
1047,-4.40e-02,
1048,-1.20e-02,
1049,2.00e-02,
1050,1.60e-02,
1051,-1.60e-02,
1052,-8.00e-02,
1053,1.16e-01,
1054,-1.60e-02,
1055,1.60e-02,
1056,1.60e-02,
1057,-1.20e-02,
1058,1.20e-02,
1059,-1.20e-02,
1060,1.60e-02,
1061,-1.20e-02,
1062,-1.20e-02,
1063,1.60e-02,
1064,-8.00e-03,
1065,2.40e-02,
1066,1.60e-02,
1067,-1.20e-02,
1068,-8.00e-03,
1069,2.80e-02,
1070,1.20e-02,
1071,-8.00e-03,
1072,-1.20e-02,
1073,1.60e-02,
1074,-8.00e-03,
1075,1.60e-02,
1076,4.00e-02,
1077,-1.20e-02,
1078,-8.00e-03,
1079,1.60e-02,
1080,8.00e-02,
1081,-4.00e-02,
1082,-1.20e-02,
1083,2.00e-02,
1084,-1.20e-02,
1085,1.60e-02,
1086,-8.00e-03,
1087,2.00e-02,
1088,-4.00e-02,
1089,4.00e-02,
1090,-1.20e-02,
1091,1.60e-02,
1092,2.00e-02,
1093,-1.20e-02,
1094,-1.20e-02,
1095,1.60e-02,
1096,1.60e-02,
1097,-1.20e-02,
1098,-1.20e-02,
1099,2.00e-02,
1100,-4.00e-02,
1101,3.60e-02,
1102,1.60e-02,
1103,-1.20e-02,
1104,1.60e-02,
1105,-1.60e-02,
1106,-8.00e-03,
1107,1.60e-02,
1108,-1.20e-02,
1109,1.60e-02,
1110,-2.80e-02,
1111,1.60e-02,
1112,-1.20e-02,
1113,1.60e-02,
1114,-1.20e-02,
1115,1.60e-02,
1116,-1.20e-02,
1117,2.80e-02,
1118,-8.00e-03,
1119,1.60e-02,
1120,-1.20e-02,
1121,1.60e-02,
1122,4.40e-02,
1123,-3.20e-02,
1124,1.60e-02,
1125,-1.20e-02,
1126,1.60e-02,
1127,-1.60e-02,
1128,1.60e-02,
1129,-1.20e-02,
1130,6.00e-02,
1131,-2.00e-02,
1132,-1.20e-02,
1133,1.60e-02,
1134,3.20e-02,
1135,-3.60e-02,
1136,-1.60e-02,
1137,2.00e-02,
1138,-1.20e-02,
1139,1.60e-02,
1140,2.00e-02,
1141,-1.20e-02,
1142,-1.20e-02,
1143,1.60e-02,
1144,1.60e-02,
1145,-1.20e-02,
1146,-3.20e-02,
1147,3.20e-02,
1148,-8.00e-03,
1149,1.60e-02,
1150,-1.20e-02,
1151,3.60e-02,
1152,-1.20e-02,
1153,1.60e-02,
1154,1.20e-02,
1155,-1.20e-02,
1156,-8.00e-03,
1157,1.60e-02,
1158,-3.60e-02,
1159,1.60e-02,
1160,-1.20e-02,
1161,1.60e-02,
1162,1.20e-02,
1163,-1.60e-02,
1164,-1.20e-02,
1165,1.60e-02,
1166,1.20e-02,
1167,-1.60e-02,
1168,1.20e-02,
1169,-1.20e-02,
1170,-6.00e-02,
1171,5.20e-02,
1172,-1.20e-02,
1173,1.60e-02,
1174,-1.60e-02,
1175,1.60e-02,
1176,1.60e-02,
1177,-1.60e-02,
1178,1.60e-02,
1179,-1.60e-02,
1180,-4.80e-02,
1181,3.60e-02,
1182,1.60e-02,
1183,-1.20e-02,
1184,-1.20e-02,
1185,1.60e-02,
1186,1.60e-02,
1187,-4.00e-02,
1188,1.20e-02,
1189,-1.20e-02,
1190,1.60e-02,
1191,-1.20e-02,
1192,-1.60e-02,
1193,3.60e-02,
1194,-8.00e-03,
1195,1.60e-02,
1196,-1.20e-02,
1197,1.60e-02,
1198,-1.20e-02,
1199,1.20e-02,
