Laptop_1/LAPTOP_CHRGR_1_OFF/time domain/NewFile4.csv

X,CH1,Start,Increment,
Sequence,Volt,-1.500000e-01,2.000000e-04
0,2.40e-02,
1,-2.00e-02,
2,-1.60e-02,
3,2.00e-02,
4,2.40e-02,
5,-2.00e-02,
6,-1.44e-01,
7,2.28e-01,
8,-2.40e-02,
9,2.80e-02,
10,2.80e-02,
11,-2.40e-02,
12,2.80e-02,
13,-2.00e-02,
14,2.80e-02,
15,-2.00e-02,
16,2.40e-02,
17,-2.00e-02,
18,1.60e-02,
19,-2.00e-02,
20,2.00e-02,
21,-2.00e-02,
22,-1.60e-02,
23,2.00e-02,
24,-1.60e-02,
25,1.60e-02,
26,1.60e-02,
27,-1.20e-02,
28,1.60e-02,
29,-1.60e-02,
30,-2.00e-02,
31,5.60e-02,
32,-1.20e-02,
33,1.60e-02,
34,-2.00e-02,
35,2.00e-02,
36,2.00e-02,
37,-2.40e-02,
38,-2.00e-02,
39,2.40e-02,
40,-1.60e-02,
41,2.40e-02,
42,-1.60e-02,
43,2.40e-02,
44,-2.00e-02,
45,2.40e-02,
46,2.40e-02,
47,-1.60e-02,
48,-1.60e-02,
49,2.40e-02,
50,-2.00e-02,
51,2.40e-02,
52,-2.00e-02,
53,2.80e-02,
54,-2.40e-02,
55,3.20e-02,
56,-2.00e-02,
57,1.88e-01,
58,2.40e-02,
59,-2.00e-02,
60,1.60e-02,
61,-2.00e-02,
62,1.60e-02,
63,-2.00e-02,
64,-1.20e-02,
65,1.60e-02,
66,1.60e-02,
67,-1.60e-02,
68,-2.00e-02,
69,2.00e-02,
70,-1.20e-02,
71,2.00e-02,
72,-1.20e-02,
73,1.60e-02,
74,1.60e-02,
75,-1.60e-02,
76,-2.00e-02,
77,2.40e-02,
78,-1.60e-02,
79,2.40e-02,
80,7.60e-02,
81,-2.36e-01,
82,-1.60e-02,
83,2.40e-02,
84,-2.00e-02,
85,2.80e-02,
86,-1.60e-02,
87,2.40e-02,
88,-2.00e-02,
89,2.00e-02,
90,2.40e-02,
91,-2.40e-02,
92,2.80e-02,
93,-2.40e-02,
94,-2.00e-02,
95,2.80e-02,
96,-2.00e-02,
97,2.80e-02,
98,-2.40e-02,
99,2.80e-02,
100,-2.40e-02,
101,2.80e-02,
102,2.00e-02,
103,-1.60e-02,
104,-1.92e-01,
105,2.40e-02,
106,-1.60e-02,
107,2.00e-02,
108,1.60e-02,
109,-1.60e-02,
110,2.00e-02,
111,-1.60e-02,
112,1.60e-02,
113,-1.60e-02,
114,-1.20e-02,
115,2.00e-02,
116,2.00e-02,
117,-2.00e-02,
118,-2.00e-02,
119,2.00e-02,
120,2.40e-02,
121,-1.60e-02,
122,2.00e-02,
123,-1.60e-02,
124,2.00e-02,
125,-1.60e-02,
126,1.60e-02,
127,-2.00e-02,
128,-2.40e-02,
129,2.40e-02,
130,-1.80e-01,
131,2.36e-01,
132,2.80e-02,
133,-2.40e-02,
134,2.80e-02,
135,-2.40e-02,
136,-2.00e-02,
137,2.80e-02,
138,-2.40e-02,
139,2.40e-02,
140,-2.00e-02,
141,2.80e-02,
142,2.00e-02,
143,-2.00e-02,
144,1.60e-02,
145,-1.20e-02,
146,-1.60e-02,
147,2.40e-02,
148,-1.20e-02,
149,2.00e-02,
150,-1.60e-02,
151,2.40e-02,
152,1.60e-02,
153,-1.20e-02,
154,1.60e-02,
155,-1.20e-02,
156,2.00e-02,
157,-2.12e-01,
158,1.60e-02,
159,-1.60e-02,
160,-2.00e-02,
161,2.80e-02,
162,-2.00e-02,
163,2.40e-02,
164,-2.00e-02,
165,2.80e-02,
166,-1.60e-02,
167,2.80e-02,
168,2.40e-02,
169,-1.60e-02,
170,2.00e-02,
171,-2.00e-02,
172,-2.00e-02,
173,2.40e-02,
174,2.40e-02,
175,-2.00e-02,
176,2.40e-02,
177,-2.40e-02,
178,2.80e-02,
179,-2.20e-01,
180,2.40e-02,
181,-2.00e-02,
182,3.20e-02,
183,-2.40e-02,
184,2.00e-02,
185,-2.40e-02,
186,-1.20e-02,
187,2.40e-02,
188,2.00e-02,
189,-1.60e-02,
190,2.00e-02,
191,-1.60e-02,
192,-1.20e-02,
193,2.00e-02,
194,2.00e-02,
195,-2.00e-02,
196,-1.60e-02,
197,2.00e-02,
198,2.40e-02,
199,-1.60e-02,
200,-1.20e-02,
201,1.60e-02,
202,2.40e-02,
203,-2.00e-02,
204,-1.08e-01,
205,2.56e-01,
206,2.40e-02,
207,-2.00e-02,
208,2.00e-02,
209,-2.00e-02,
210,-2.00e-02,
211,2.00e-02,
212,2.00e-02,
213,-2.40e-02,
214,-1.20e-02,
215,2.40e-02,
216,-2.00e-02,
217,2.40e-02,
218,2.80e-02,
219,-2.00e-02,
220,2.40e-02,
221,-2.40e-02,
222,-1.60e-02,
223,2.40e-02,
224,2.00e-02,
225,-2.00e-02,
226,2.00e-02,
227,-1.60e-02,
228,2.48e-01,
229,-2.00e-02,
230,-1.20e-02,
231,2.00e-02,
232,-1.20e-02,
233,2.00e-02,
234,1.60e-02,
235,-2.00e-02,
236,2.00e-02,
237,-1.60e-02,
238,-1.20e-02,
239,2.00e-02,
240,1.60e-02,
241,-1.60e-02,
242,2.40e-02,
243,-1.60e-02,
244,2.00e-02,
245,-2.00e-02,
246,-2.40e-02,
247,2.40e-02,
248,2.00e-02,
249,-2.00e-02,
250,2.40e-02,
251,-1.60e-02,
252,2.40e-02,
253,-1.64e-01,
254,2.80e-02,
255,-2.00e-02,
256,2.80e-02,
257,-2.40e-02,
258,2.40e-02,
259,-2.40e-02,
260,2.80e-02,
261,-2.40e-02,
262,-2.00e-02,
263,2.40e-02,
264,-2.00e-02,
265,2.80e-02,
266,2.80e-02,
267,-2.00e-02,
268,2.00e-02,
269,-1.60e-02,
270,1.60e-02,
271,-1.60e-02,
272,-1.60e-02,
273,2.00e-02,
274,1.60e-02,
275,-2.00e-02,
276,1.60e-02,
277,-1.60e-02,
278,4.80e-02,
279,-1.60e-02,
280,-2.00e-02,
281,2.00e-02,
282,-1.20e-02,
283,1.60e-02,
284,-1.60e-02,
285,2.00e-02,
286,1.60e-02,
287,-2.00e-02,
288,2.40e-02,
289,-2.00e-02,
290,2.00e-02,
291,-2.00e-02,
292,2.40e-02,
293,-2.00e-02,
294,-1.60e-02,
295,2.00e-02,
296,2.40e-02,
297,-2.00e-02,
298,-1.60e-02,
299,2.00e-02,
300,2.80e-02,
301,-2.40e-02,
302,2.80e-02,
303,-2.00e-02,
304,2.40e-02,
305,-6.80e-02,
306,3.20e-02,
307,-2.80e-02,
308,2.00e-02,
309,-2.00e-02,
310,-1.60e-02,
311,2.00e-02,
312,1.60e-02,
313,-1.60e-02,
314,-2.00e-02,
315,2.40e-02,
316,1.60e-02,
317,-1.60e-02,
318,1.60e-02,
319,-1.60e-02,
320,-1.60e-02,
321,2.40e-02,
322,-1.60e-02,
323,2.00e-02,
324,2.00e-02,
325,-1.60e-02,
326,2.40e-02,
327,-2.36e-01,
328,-2.00e-02,
329,2.40e-02,
330,-2.00e-02,
331,2.00e-02,
332,2.40e-02,
333,-2.80e-02,
334,-2.00e-02,
335,2.80e-02,
336,2.40e-02,
337,-2.00e-02,
338,2.40e-02,
339,-1.60e-02,
340,-2.40e-02,
341,2.00e-02,
342,-2.40e-02,
343,2.40e-02,
344,2.40e-02,
345,-2.00e-02,
346,2.40e-02,
347,-2.40e-02,
348,-2.00e-02,
349,2.40e-02,
350,-1.60e-02,
351,3.20e-02,
352,-1.60e-02,
353,2.00e-02,
354,-1.60e-02,
355,2.00e-02,
356,2.00e-02,
357,-1.60e-02,
358,-1.60e-02,
359,1.60e-02,
360,-1.60e-02,
361,2.00e-02,
362,1.60e-02,
363,-2.00e-02,
364,2.00e-02,
365,-1.60e-02,
366,-1.20e-02,
367,1.60e-02,
368,2.00e-02,
369,-1.60e-02,
370,2.00e-02,
371,-1.60e-02,
372,-2.00e-02,
373,2.40e-02,
374,2.40e-02,
375,-1.60e-02,
376,-1.84e-01,
377,3.20e-02,
378,2.40e-02,
379,-1.60e-02,
380,-2.00e-02,
381,2.40e-02,
382,-2.00e-02,
383,2.00e-02,
384,2.40e-02,
385,-2.80e-02,
386,-2.40e-02,
387,2.40e-02,
388,-1.60e-02,
389,2.40e-02,
390,-1.60e-02,
391,2.40e-02,
392,-2.00e-02,
393,2.00e-02,
394,-2.00e-02,
395,2.00e-02,
396,-1.60e-02,
397,2.00e-02,
398,-1.60e-02,
399,2.00e-02,
400,-1.92e-01,
401,4.00e-02,
402,-1.20e-02,
403,1.60e-02,
404,-2.00e-02,
405,2.00e-02,
406,-1.60e-02,
407,2.00e-02,
408,2.00e-02,
409,-2.00e-02,
410,-1.60e-02,
411,2.40e-02,
412,2.80e-02,
413,-2.40e-02,
414,-2.40e-02,
415,2.00e-02,
416,2.80e-02,
417,-2.40e-02,
418,-2.40e-02,
419,2.40e-02,
420,-1.60e-02,
421,2.40e-02,
422,2.00e-02,
423,-1.60e-02,
424,-1.04e-01,
425,2.80e-02,
426,2.80e-02,
427,-2.40e-02,
428,-2.40e-02,
429,2.40e-02,
430,-2.00e-02,
431,2.40e-02,
432,2.40e-02,
433,-2.00e-02,
434,2.40e-02,
435,-2.00e-02,
436,2.00e-02,
437,-1.60e-02,
438,2.40e-02,
439,-1.20e-02,
440,1.60e-02,
441,-1.20e-02,
442,-1.60e-02,
443,2.00e-02,
444,-1.60e-02,
445,2.00e-02,
446,-1.20e-02,
447,2.00e-02,
448,-1.20e-02,
449,2.00e-02,
450,-1.96e-01,
451,1.36e-01,
452,2.40e-02,
453,-2.00e-02,
454,2.00e-02,
455,-2.00e-02,
456,-1.60e-02,
457,2.00e-02,
458,2.00e-02,
459,-1.60e-02,
460,2.00e-02,
461,-2.00e-02,
462,-1.60e-02,
463,2.00e-02,
464,-2.00e-02,
465,2.00e-02,
466,-1.60e-02,
467,2.00e-02,
468,2.00e-02,
469,-2.00e-02,
470,-2.00e-02,
471,2.80e-02,
472,2.00e-02,
473,-2.40e-02,
474,2.00e-02,
475,-2.80e-02,
476,2.00e-02,
477,-1.60e-02,
478,-1.20e-02,
479,2.00e-02,
480,-1.20e-02,
481,2.00e-02,
482,-1.20e-02,
483,2.00e-02,
484,-1.20e-02,
485,2.00e-02,
486,-1.60e-02,
487,2.00e-02,
488,2.00e-02,
489,-1.60e-02,
490,-1.60e-02,
491,2.00e-02,
492,1.60e-02,
493,-2.00e-02,
494,-2.40e-02,
495,2.40e-02,
496,2.40e-02,
497,-2.00e-02,
498,1.76e-01,
499,-2.00e-02,
500,2.00e-02,
501,-2.00e-02,
502,-2.00e-02,
503,2.40e-02,
504,-1.60e-02,
505,2.40e-02,
506,1.60e-02,
507,-2.00e-02,
508,2.00e-02,
509,-2.40e-02,
510,2.00e-02,
511,-2.40e-02,
512,2.80e-02,
513,-2.40e-02,
514,-1.60e-02,
515,2.40e-02,
516,2.40e-02,
517,-2.40e-02,
518,-2.40e-02,
519,2.00e-02,
520,1.60e-02,
521,-1.60e-02,
522,-6.40e-02,
523,2.48e-01,
524,1.60e-02,
525,-1.20e-02,
526,-1.20e-02,
527,1.60e-02,
528,-1.20e-02,
529,2.00e-02,
530,2.00e-02,
531,-1.60e-02,
532,-1.60e-02,
533,2.00e-02,
534,-1.20e-02,
535,2.00e-02,
536,2.00e-02,
537,-1.60e-02,
538,-1.60e-02,
539,2.80e-02,
540,-1.60e-02,
541,2.40e-02,
542,2.00e-02,
543,-1.60e-02,
544,1.60e-02,
545,-1.60e-02,
546,2.00e-02,
547,-1.60e-02,
548,1.12e-01,
549,-1.60e-02,
550,-2.00e-02,
551,2.00e-02,
552,-1.60e-02,
553,2.00e-02,
554,-2.40e-02,
555,2.40e-02,
556,2.80e-02,
557,-2.40e-02,
558,-1.60e-02,
559,2.40e-02,
560,2.00e-02,
561,-1.60e-02,
562,-1.60e-02,
563,2.00e-02,
564,1.60e-02,
565,-1.20e-02,
566,-2.24e-01,
567,2.24e-01,
568,1.60e-02,
569,-1.60e-02,
570,2.00e-02,
571,-1.20e-02,
572,2.00e-02,
573,-2.00e-02,
574,-1.20e-02,
575,2.40e-02,
576,-2.04e-01,
577,1.36e-01,
578,-2.40e-02,
579,2.40e-02,
580,2.80e-02,
581,-2.00e-02,
582,2.40e-02,
583,-2.00e-02,
584,2.40e-02,
585,-2.00e-02,
586,2.00e-02,
587,-2.52e-01,
588,-2.00e-02,
589,2.40e-02,
590,2.00e-02,
591,-2.00e-02,
592,2.80e-02,
593,-2.00e-02,
594,-1.60e-02,
595,2.80e-02,
596,-2.00e-02,
597,2.00e-02,
598,-2.40e-02,
599,2.40e-02,
600,-1.60e-02,
601,2.80e-02,
602,-2.20e-01,
603,1.80e-01,
604,-1.60e-02,
605,2.00e-02,
606,-1.20e-02,
607,2.00e-02,
608,-1.20e-02,
609,2.00e-02,
610,-1.60e-02,
611,2.00e-02,
612,-1.60e-02,
613,2.00e-02,
614,-1.20e-02,
615,1.60e-02,
616,2.00e-02,
617,-1.60e-02,
618,-1.20e-02,
619,2.40e-02,
620,-1.60e-02,
621,2.00e-02,
622,-1.20e-02,
623,2.00e-02,
624,2.00e-02,
625,-1.60e-02,
626,2.00e-02,
627,-1.60e-02,
628,2.40e-02,
629,-2.00e-02,
630,-1.20e-02,
631,2.00e-02,
632,-2.80e-02,
633,3.60e-02,
634,2.40e-02,
635,-2.00e-02,
636,2.00e-02,
637,-1.60e-02,
638,-2.00e-02,
639,2.40e-02,
640,-2.40e-02,
641,2.80e-02,
642,-2.00e-02,
643,2.40e-02,
644,-2.00e-02,
645,2.00e-02,
646,-1.60e-02,
647,1.60e-02,
648,-1.60e-02,
649,2.00e-02,
650,-1.60e-02,
651,2.00e-02,
652,-1.60e-02,
653,1.60e-02,
654,-1.60e-02,
655,2.00e-02,
656,2.00e-02,
657,-1.60e-02,
658,-1.20e-01,
659,6.00e-02,
660,-2.00e-02,
661,2.80e-02,
662,2.00e-02,
663,-2.00e-02,
664,2.80e-02,
665,-2.00e-02,
666,2.40e-02,
667,-2.00e-02,
668,2.80e-02,
669,-2.00e-02,
670,2.00e-02,
671,-1.60e-02,
672,2.00e-02,
673,-2.00e-02,
674,-2.00e-02,
675,2.40e-02,
676,2.40e-02,
677,-2.00e-02,
678,2.40e-02,
679,-2.00e-02,
680,3.20e-02,
681,-2.00e-02,
682,2.40e-02,
683,-2.40e-02,
684,2.28e-01,
685,-2.32e-01,
686,-1.20e-02,
687,2.40e-02,
688,2.00e-02,
689,-2.40e-02,
690,-1.20e-02,
691,2.00e-02,
692,-1.20e-02,
693,2.00e-02,
694,-1.60e-02,
695,1.60e-02,
696,-1.20e-02,
697,2.00e-02,
698,2.00e-02,
699,-1.60e-02,
700,2.00e-02,
701,-1.60e-02,
702,2.40e-02,
703,-2.00e-02,
704,2.40e-02,
705,-2.00e-02,
706,2.00e-02,
707,-2.00e-02,
708,-1.20e-02,
709,1.60e-02,
710,-1.84e-01,
711,2.40e-02,
712,2.00e-02,
713,-2.00e-02,
714,-1.60e-02,
715,2.00e-02,
716,-2.00e-02,
717,2.00e-02,
718,2.40e-02,
719,-2.00e-02,
720,2.80e-02,
721,-2.00e-02,
722,2.40e-02,
723,-2.40e-02,
724,2.40e-02,
725,-2.80e-02,
726,-1.60e-02,
727,2.00e-02,
728,-1.60e-02,
729,2.00e-02,
730,2.00e-02,
731,-1.60e-02,
732,-1.60e-02,
733,2.00e-02,
734,2.00e-02,
735,-1.60e-02,
736,-2.08e-01,
737,1.48e-01,
738,-1.60e-02,
739,2.00e-02,
740,2.00e-02,
741,-1.20e-02,
742,2.00e-02,
743,-1.60e-02,
744,2.40e-02,
745,-2.00e-02,
746,-2.00e-02,
747,2.40e-02,
748,2.00e-02,
749,-2.00e-02,
750,-1.60e-02,
751,2.00e-02,
752,-1.60e-02,
753,2.00e-02,
754,2.40e-02,
755,-1.60e-02,
756,-2.00e-02,
757,2.40e-02,
758,2.00e-02,
759,-2.40e-02,
760,-1.92e-01,
761,2.24e-01,
762,-2.40e-02,
763,2.80e-02,
764,2.80e-02,
765,-2.40e-02,
766,-2.00e-02,
767,2.40e-02,
768,-1.60e-02,
769,2.40e-02,
770,-1.60e-02,
771,2.40e-02,
772,1.60e-02,
773,-1.60e-02,
774,1.60e-02,
775,-1.60e-02,
776,1.60e-02,
777,-1.60e-02,
778,2.00e-02,
779,-1.60e-02,
780,-1.60e-02,
781,1.60e-02,
782,2.00e-02,
783,-1.60e-02,
784,-1.20e-02,
785,1.60e-02,
786,-2.00e-02,
787,2.12e-01,
788,-1.60e-02,
789,2.00e-02,
790,-1.60e-02,
791,2.00e-02,
792,-1.60e-02,
793,2.40e-02,
794,2.00e-02,
795,-2.00e-02,
796,1.60e-02,
797,-1.60e-02,
798,-1.60e-02,
799,2.40e-02,
800,2.80e-02,
801,-2.00e-02,
802,-2.00e-02,
803,2.40e-02,
804,2.40e-02,
805,-2.00e-02,
806,2.80e-02,
807,-2.00e-02,
808,2.80e-02,
809,-2.00e-02,
810,2.16e-01,
811,-5.20e-02,
812,-1.60e-02,
813,2.00e-02,
814,2.00e-02,
815,-1.20e-02,
816,2.00e-02,
817,-1.60e-02,
818,2.00e-02,
819,-1.60e-02,
820,-1.60e-02,
821,2.00e-02,
822,-1.20e-02,
823,2.00e-02,
824,-1.60e-02,
825,2.00e-02,
826,-1.60e-02,
827,2.00e-02,
828,2.40e-02,
829,-2.00e-02,
830,-1.60e-02,
831,2.40e-02,
832,2.40e-02,
833,-1.60e-02,
834,-2.40e-02,
835,2.00e-02,
836,1.16e-01,
837,-1.60e-02,
838,-2.00e-02,
839,2.00e-02,
840,2.40e-02,
841,-2.00e-02,
842,2.40e-02,
843,-2.40e-02,
844,-1.60e-02,
845,2.80e-02,
846,-2.40e-02,
847,2.80e-02,
848,-2.80e-02,
849,2.80e-02,
850,-2.00e-02,
851,2.80e-02,
852,2.00e-02,
853,-1.60e-02,
854,1.60e-02,
855,-1.60e-02,
856,1.60e-02,
857,-2.00e-02,
858,-1.20e-02,
859,2.00e-02,
860,-1.96e-01,
861,8.40e-02,
862,-1.60e-02,
863,2.00e-02,
864,-1.60e-02,
865,2.40e-02,
866,2.00e-02,
867,-1.20e-02,
868,-1.60e-02,
869,2.40e-02,
870,-2.00e-02,
871,2.00e-02,
872,-2.00e-02,
873,2.00e-02,
874,-1.60e-02,
875,2.00e-02,
876,-1.20e-02,
877,2.40e-02,
878,2.00e-02,
879,-1.60e-02,
880,2.40e-02,
881,-2.00e-02,
882,2.40e-02,
883,-2.00e-02,
884,-2.00e-02,
885,2.40e-02,
886,1.76e-01,
887,-2.52e-01,
888,-2.40e-02,
889,2.80e-02,
890,-2.40e-02,
891,2.40e-02,
892,2.80e-02,
893,-2.40e-02,
894,2.00e-02,
895,-1.60e-02,
896,1.60e-02,
897,-2.00e-02,
898,1.60e-02,
899,-1.60e-02,
900,-1.20e-02,
901,1.60e-02,
902,-2.00e-02,
903,1.60e-02,
904,-1.60e-02,
905,1.60e-02,
906,-1.20e-02,
907,2.00e-02,
908,-2.00e-02,
909,2.00e-02,
910,-2.00e-02,
911,4.40e-02,
912,2.00e-02,
913,-2.00e-02,
914,-2.00e-02,
915,2.00e-02,
916,2.00e-02,
917,-2.00e-02,
918,2.00e-02,
919,-1.60e-02,
920,-2.40e-02,
921,2.40e-02,
922,2.40e-02,
923,-2.40e-02,
924,-2.00e-02,
925,2.80e-02,
926,2.40e-02,
927,-2.40e-02,
928,-2.00e-02,
929,2.80e-02,
930,-2.00e-02,
931,2.40e-02,
932,2.80e-02,
933,-2.40e-02,
934,-1.44e-01,
935,4.80e-02,
936,2.40e-02,
937,-1.60e-02,
938,2.00e-02,
939,-1.60e-02,
940,-1.20e-02,
941,1.60e-02,
942,-1.60e-02,
943,1.60e-02,
944,1.60e-02,
945,-1.60e-02,
946,-1.60e-02,
947,2.00e-02,
948,-1.60e-02,
949,1.60e-02,
950,-1.60e-02,
951,2.00e-02,
952,-1.60e-02,
953,2.00e-02,
954,2.00e-02,
955,-1.60e-02,
956,2.00e-02,
957,-1.60e-02,
958,-1.60e-02,
959,1.60e-02,
960,-8.40e-02,
961,1.48e-01,
962,2.40e-02,
963,-1.60e-02,
964,-1.60e-02,
965,2.40e-02,
966,-2.00e-02,
967,2.80e-02,
968,2.40e-02,
969,-2.40e-02,
970,2.00e-02,
971,-2.00e-02,
972,2.40e-02,
973,-2.00e-02,
974,2.40e-02,
975,-2.40e-02,
976,2.00e-02,
977,-1.60e-02,
978,2.00e-02,
979,-1.60e-02,
980,-1.20e-02,
981,1.60e-02,
982,-1.20e-02,
983,2.40e-02,
984,2.40e-02,
985,-2.36e-01,
986,1.60e-02,
987,-1.60e-02,
988,2.00e-02,
989,-2.00e-02,
990,-1.20e-02,
991,2.00e-02,
992,1.60e-02,
993,-1.60e-02,
994,2.00e-02,
995,-2.00e-02,
996,2.40e-02,
997,-2.40e-02,
998,-1.60e-02,
999,2.40e-02,
1000,-2.00e-02,
1001,2.00e-02,
1002,2.40e-02,
1003,-2.00e-02,
1004,-2.40e-02,
1005,2.80e-02,
1006,2.40e-02,
1007,-2.40e-02,
1008,6.80e-02,
1009,-1.28e-01,
1010,2.80e-02,
1011,-2.00e-02,
1012,-2.40e-02,
1013,2.40e-02,
1014,2.40e-02,
1015,-2.40e-02,
1016,2.80e-02,
1017,-2.00e-02,
1018,-2.00e-02,
1019,2.40e-02,
1020,1.60e-02,
1021,-1.60e-02,
1022,1.60e-02,
1023,-1.60e-02,
1024,2.00e-02,
1025,-2.00e-02,
1026,-1.60e-02,
1027,2.00e-02,
1028,-1.60e-02,
1029,2.00e-02,
1030,1.60e-02,
1031,-1.60e-02,
1032,2.00e-02,
1033,-2.80e-02,
1034,-1.60e-02,
1035,2.40e-02,
1036,-1.60e-02,
1037,1.60e-02,
1038,-2.00e-02,
1039,2.00e-02,
1040,2.00e-02,
1041,-2.00e-02,
1042,-2.00e-02,
1043,2.40e-02,
1044,1.60e-02,
1045,-2.00e-02,
1046,2.00e-02,
1047,-1.60e-02,
1048,-1.60e-02,
1049,2.00e-02,
1050,-2.00e-02,
1051,2.40e-02,
1052,2.80e-02,
1053,-2.00e-02,
1054,2.80e-02,
1055,-2.40e-02,
1056,-2.00e-02,
1057,2.40e-02,
1058,1.52e-01,
1059,-4.80e-02,
1060,2.00e-02,
1061,-1.60e-02,
1062,2.00e-02,
1063,-2.00e-02,
1064,1.60e-02,
1065,-1.20e-02,
1066,2.00e-02,
1067,-1.60e-02,
1068,-1.20e-02,
1069,1.60e-02,
1070,1.60e-02,
1071,-1.20e-02,
1072,-1.20e-02,
1073,2.00e-02,
1074,-1.20e-02,
1075,2.00e-02,
1076,-1.60e-02,
1077,2.00e-02,
1078,-2.00e-02,
1079,2.40e-02,
1080,2.40e-02,
1081,-2.00e-02,
1082,1.24e-01,
1083,-7.60e-02,
1084,-1.60e-02,
1085,2.00e-02,
1086,2.40e-02,
1087,-2.00e-02,
1088,2.40e-02,
1089,-2.00e-02,
1090,-2.00e-02,
1091,2.40e-02,
1092,-2.40e-02,
1093,2.40e-02,
1094,-2.00e-02,
1095,2.80e-02,
1096,2.80e-02,
1097,-2.40e-02,
1098,-2.40e-02,
1099,2.80e-02,
1100,-2.00e-02,
1101,2.40e-02,
1102,-1.60e-02,
1103,2.00e-02,
1104,1.60e-02,
1105,-1.60e-02,
1106,1.60e-02,
1107,-2.00e-02,
1108,2.00e-02,
1109,-3.60e-02,
1110,-1.20e-02,
1111,2.00e-02,
1112,1.60e-02,
1113,-2.00e-02,
1114,1.60e-02,
1115,-2.00e-02,
1116,-1.20e-02,
1117,2.00e-02,
1118,-1.60e-02,
1119,2.40e-02,
1120,-1.60e-02,
1121,2.00e-02,
1122,-1.60e-02,
1123,2.80e-02,
1124,2.00e-02,
1125,-2.00e-02,
1126,1.60e-02,
1127,-2.00e-02,
1128,2.40e-02,
1129,-2.00e-02,
1130,2.40e-02,
1131,-2.00e-02,
1132,2.00e-02,
1133,-2.00e-02,
1134,-9.60e-02,
1135,6.00e-02,
1136,-2.80e-02,
1137,2.80e-02,
1138,-2.40e-02,
1139,2.40e-02,
1140,2.40e-02,
1141,-2.40e-02,
1142,2.40e-02,
1143,-2.00e-02,
1144,2.00e-02,
1145,-1.60e-02,
1146,-1.60e-02,
1147,2.00e-02,
1148,1.60e-02,
1149,-1.60e-02,
1150,-1.20e-02,
1151,2.00e-02,
1152,1.60e-02,
1153,-1.60e-02,
1154,-1.20e-02,
1155,1.60e-02,
1156,-1.60e-02,
1157,2.00e-02,
1158,-2.04e-01,
1159,8.40e-02,
1160,-2.40e-02,
1161,2.40e-02,
1162,-2.00e-02,
1163,2.80e-02,
1164,2.80e-02,
1165,-1.60e-02,
1166,2.00e-02,
1167,-2.40e-02,
1168,2.00e-02,
1169,-1.60e-02,
1170,2.80e-02,
1171,-2.00e-02,
1172,2.00e-02,
1173,-2.00e-02,
1174,2.80e-02,
1175,-2.00e-02,
1176,2.80e-02,
1177,-2.00e-02,
1178,2.80e-02,
1179,-2.40e-02,
1180,-2.40e-02,
1181,2.80e-02,
1182,2.40e-02,
1183,-1.20e-01,
1184,2.40e-02,
1185,-1.60e-02,
1186,-1.20e-02,
1187,2.00e-02,
1188,2.00e-02,
1189,-1.60e-02,
1190,1.60e-02,
1191,-1.60e-02,
1192,-1.60e-02,
1193,2.00e-02,
1194,1.60e-02,
1195,-1.60e-02,
1196,-1.60e-02,
1197,1.60e-02,
1198,2.00e-02,
1199,-1.60e-02,
