Laptop_1/LAPTOP_CHRGR_1_OFF/time domain/NewFile17.csv

X,CH1,Start,Increment,
Sequence,Volt,-1.500000e-01,2.000000e-04
0,2.40e-02,
1,-1.60e-02,
2,-1.60e-02,
3,2.00e-02,
4,-1.60e-02,
5,2.00e-02,
6,-9.60e-02,
7,6.40e-02,
8,2.00e-02,
9,-1.60e-02,
10,-2.80e-02,
11,3.20e-02,
12,-2.40e-02,
13,2.00e-02,
14,-1.28e-01,
15,7.60e-02,
16,6.40e-02,
17,-3.60e-02,
18,2.00e-02,
19,-1.60e-02,
20,2.00e-02,
21,-2.40e-02,
22,2.80e-02,
23,-4.80e-02,
24,2.80e-02,
25,-2.00e-02,
26,-2.40e-02,
27,2.40e-02,
28,8.00e-02,
29,-2.80e-02,
30,-2.40e-02,
31,2.40e-02,
32,-2.00e-02,
33,2.40e-02,
34,-1.60e-02,
35,2.40e-02,
36,2.00e-02,
37,-1.60e-02,
38,-1.32e-01,
39,2.40e-02,
40,2.60e-01,
41,-2.80e-02,
42,2.80e-02,
43,-1.60e-02,
44,-1.60e-02,
45,2.00e-02,
46,2.00e-02,
47,-2.00e-02,
48,4.00e-02,
49,-2.40e-02,
50,-1.60e-02,
51,2.40e-02,
52,2.80e-02,
53,-4.40e-02,
54,-2.00e-02,
55,2.40e-02,
56,2.00e-02,
57,-1.60e-02,
58,-4.40e-02,
59,6.40e-02,
60,2.40e-02,
61,-2.00e-02,
62,2.00e-02,
63,-2.00e-02,
64,-1.60e-02,
65,2.40e-02,
66,2.48e-01,
67,-1.60e-02,
68,-2.40e-02,
69,7.20e-02,
70,-1.60e-02,
71,2.40e-02,
72,-2.00e-02,
73,2.80e-02,
74,2.80e-02,
75,-1.60e-02,
76,-1.60e-02,
77,2.40e-02,
78,-2.80e-02,
79,2.40e-02,
80,-1.60e-02,
81,2.40e-02,
82,-2.80e-02,
83,4.80e-02,
84,-1.60e-02,
85,2.00e-02,
86,-1.60e-02,
87,2.00e-02,
88,1.04e-01,
89,-7.20e-02,
90,-2.00e-02,
91,2.40e-02,
92,-4.00e-02,
93,1.56e-01,
94,2.80e-02,
95,-2.00e-02,
96,2.80e-02,
97,-1.60e-02,
98,9.20e-02,
99,-3.20e-02,
100,-2.40e-02,
101,2.00e-02,
102,2.00e-02,
103,-2.80e-02,
104,6.40e-02,
105,-2.40e-02,
106,2.40e-02,
107,-2.00e-02,
108,3.60e-02,
109,-3.60e-02,
110,2.80e-02,
111,-2.00e-02,
112,2.40e-02,
113,-4.80e-02,
114,-2.40e-02,
115,2.40e-02,
116,2.40e-02,
117,-6.00e-02,
118,6.40e-02,
119,-2.80e-02,
120,-1.60e-02,
121,2.00e-02,
122,-1.60e-02,
123,2.00e-02,
124,-1.20e-02,
125,2.40e-02,
126,-1.28e-01,
127,1.52e-01,
128,-9.60e-02,
129,1.12e-01,
130,2.00e-02,
131,-1.60e-02,
132,2.00e-02,
133,-2.80e-02,
134,2.00e-02,
135,-2.00e-02,
136,-2.40e-02,
137,2.40e-02,
138,-2.40e-02,
139,3.60e-02,
140,2.80e-02,
141,-2.40e-02,
142,-1.60e-02,
143,2.40e-02,
144,2.40e-02,
145,-3.20e-02,
146,2.40e-02,
147,-2.40e-02,
148,2.40e-02,
149,-7.60e-02,
150,4.40e-02,
151,-4.40e-02,
152,2.00e-02,
153,-2.40e-02,
154,2.40e-02,
155,-1.60e-02,
156,2.80e-02,
157,-2.00e-02,
158,2.80e-02,
159,-2.40e-02,
160,-6.80e-02,
161,1.28e-01,
162,-1.60e-02,
163,2.40e-02,
164,4.00e-02,
165,-2.00e-02,
166,-1.60e-02,
167,2.00e-02,
168,3.60e-02,
169,-3.60e-02,
170,2.40e-02,
171,-1.60e-02,
172,2.00e-02,
173,-2.00e-02,
174,5.60e-02,
175,-3.20e-02,
176,-1.60e-02,
177,2.40e-02,
178,-1.60e-02,
179,2.40e-02,
180,9.60e-02,
181,-7.60e-02,
182,-1.60e-02,
183,4.00e-02,
184,3.20e-02,
185,-1.60e-02,
186,2.00e-02,
187,-2.00e-02,
188,2.00e-02,
189,-2.00e-02,
190,9.20e-02,
191,-2.00e-02,
192,-2.00e-02,
193,2.80e-02,
194,-3.20e-02,
195,2.80e-02,
196,2.40e-02,
197,-1.60e-02,
198,2.40e-02,
199,-2.00e-02,
200,-3.20e-02,
201,4.80e-02,
202,-1.60e-02,
203,2.40e-02,
204,4.00e-02,
205,-3.60e-02,
206,-1.60e-02,
207,2.40e-02,
208,2.00e-02,
209,-1.60e-02,
210,2.48e-01,
211,-8.80e-02,
212,-1.60e-02,
213,2.00e-02,
214,2.00e-02,
215,-2.00e-02,
216,2.40e-02,
217,-2.00e-02,
218,2.00e-02,
219,-1.60e-02,
220,-7.20e-02,
221,1.00e-01,
222,2.00e-02,
223,-1.60e-02,
224,2.00e-02,
225,-1.60e-02,
226,2.00e-02,
227,-1.60e-02,
228,-1.60e-02,
229,2.40e-02,
230,3.20e-02,
231,-4.80e-02,
232,2.40e-02,
233,-2.00e-02,
234,-2.40e-02,
235,2.80e-02,
236,-4.80e-02,
237,2.40e-02,
238,-2.00e-02,
239,2.40e-02,
240,7.60e-02,
241,-3.60e-02,
242,-1.60e-02,
243,2.40e-02,
244,-1.60e-02,
245,2.40e-02,
246,2.00e-02,
247,-1.60e-02,
248,-1.20e-02,
249,2.00e-02,
250,-8.40e-02,
251,8.00e-02,
252,2.00e-02,
253,-1.60e-02,
254,2.40e-02,
255,-3.20e-02,
256,2.00e-02,
257,-1.60e-02,
258,2.40e-02,
259,-2.00e-02,
260,-2.80e-02,
261,5.20e-02,
262,-1.60e-02,
263,2.00e-02,
264,-2.00e-02,
265,1.80e-01,
266,-1.60e-02,
267,2.00e-02,
268,-1.20e-02,
269,2.40e-02,
270,2.40e-02,
271,-6.80e-02,
272,2.00e-02,
273,-2.00e-02,
274,-2.80e-02,
275,2.40e-02,
276,-2.40e-02,
277,2.80e-02,
278,-1.60e-02,
279,2.40e-02,
280,8.00e-02,
281,-6.80e-02,
282,2.40e-02,
283,-2.40e-02,
284,2.00e-02,
285,-3.20e-02,
286,3.20e-02,
287,-1.60e-02,
288,2.00e-02,
289,-2.00e-02,
290,3.20e-02,
291,-2.40e-02,
292,-2.04e-01,
293,4.00e-02,
294,2.00e-02,
295,-2.00e-02,
296,3.20e-02,
297,-2.40e-02,
298,-1.60e-02,
299,2.40e-02,
300,-1.60e-02,
301,2.40e-02,
302,-6.80e-02,
303,6.80e-02,
304,2.40e-02,
305,-1.60e-02,
306,2.80e-02,
307,-1.60e-02,
308,-1.60e-02,
309,2.00e-02,
310,2.00e-02,
311,-2.00e-02,
312,-6.40e-02,
313,9.60e-02,
314,2.40e-02,
315,-1.60e-02,
316,3.20e-02,
317,-3.60e-02,
318,2.80e-02,
319,-2.00e-02,
320,-2.00e-02,
321,2.80e-02,
322,4.80e-02,
323,-4.00e-02,
324,-2.00e-02,
325,2.80e-02,
326,2.40e-02,
327,-2.40e-02,
328,-1.60e-02,
329,2.00e-02,
330,2.00e-02,
331,-1.60e-02,
332,7.20e-02,
333,-4.80e-02,
334,2.00e-02,
335,-1.60e-02,
336,-2.00e-02,
337,2.40e-02,
338,-1.60e-02,
339,2.00e-02,
340,-1.60e-02,
341,2.00e-02,
342,-9.60e-02,
343,7.60e-02,
344,-2.00e-02,
345,2.40e-02,
346,2.40e-02,
347,-3.20e-02,
348,-2.00e-02,
349,2.40e-02,
350,-1.20e-02,
351,2.00e-02,
352,3.60e-02,
353,-4.00e-02,
354,2.00e-02,
355,-1.60e-02,
356,-1.60e-02,
357,3.60e-02,
358,-1.60e-02,
359,2.40e-02,
360,-2.00e-02,
361,2.80e-02,
362,-5.60e-02,
363,1.00e-01,
364,-2.00e-02,
365,2.80e-02,
366,2.80e-02,
367,-2.00e-02,
368,2.28e-01,
369,-1.20e-01,
370,-1.60e-02,
371,2.40e-02,
372,-5.20e-02,
373,1.32e-01,
374,2.00e-02,
375,-1.60e-02,
376,-2.40e-02,
377,3.60e-02,
378,2.00e-02,
379,-1.60e-02,
380,2.00e-02,
381,-1.60e-02,
382,3.60e-02,
383,-2.00e-02,
384,-1.60e-02,
385,2.40e-02,
386,2.40e-02,
387,-2.00e-02,
388,-2.40e-02,
389,2.00e-02,
390,2.40e-02,
391,-2.40e-02,
392,2.40e-02,
393,-4.80e-02,
394,-2.40e-02,
395,2.00e-02,
396,2.40e-02,
397,-2.00e-02,
398,-2.00e-02,
399,2.40e-02,
400,2.80e-02,
401,-2.00e-02,
402,-8.00e-02,
403,1.16e-01,
404,-2.00e-02,
405,2.80e-02,
406,-2.00e-02,
407,4.00e-02,
408,-1.60e-02,
409,2.80e-02,
410,-1.60e-02,
411,2.40e-02,
412,3.20e-02,
413,-4.80e-02,
414,-1.60e-02,
415,2.00e-02,
416,-2.80e-02,
417,4.40e-02,
418,-1.60e-02,
419,2.00e-02,
420,-1.60e-02,
421,2.00e-02,
422,3.20e-02,
423,-7.20e-02,
424,2.00e-02,
425,-1.60e-02,
426,-1.60e-02,
427,2.00e-02,
428,2.00e-02,
429,-2.00e-02,
430,-1.20e-02,
431,2.40e-02,
432,2.00e-02,
433,-1.00e-01,
434,-2.00e-02,
435,2.40e-02,
436,-2.00e-02,
437,5.20e-02,
438,-1.60e-02,
439,2.40e-02,
440,-2.00e-02,
441,2.80e-02,
442,3.20e-02,
443,-3.20e-02,
444,-2.40e-02,
445,2.80e-02,
446,-2.40e-02,
447,2.40e-02,
448,1.72e-01,
449,-7.60e-02,
450,2.00e-02,
451,-2.00e-02,
452,2.40e-02,
453,-1.60e-02,
454,5.20e-02,
455,-7.60e-02,
456,-1.20e-02,
457,2.00e-02,
458,2.00e-02,
459,-1.60e-02,
460,-1.20e-02,
461,2.40e-02,
462,-1.60e-02,
463,2.00e-02,
464,-9.60e-02,
465,2.00e-02,
466,2.40e-02,
467,-2.00e-02,
468,3.20e-02,
469,-3.60e-02,
470,-2.40e-02,
471,2.40e-02,
472,-2.00e-02,
473,4.00e-02,
474,3.20e-02,
475,-6.00e-02,
476,-2.00e-02,
477,2.40e-02,
478,2.40e-02,
479,-5.20e-02,
480,-2.00e-02,
481,2.40e-02,
482,2.40e-02,
483,-2.00e-02,
484,-4.40e-02,
485,6.80e-02,
486,2.40e-02,
487,-2.40e-02,
488,2.80e-02,
489,-2.40e-02,
490,-2.00e-02,
491,3.20e-02,
492,2.00e-02,
493,-1.60e-02,
494,-1.16e-01,
495,8.80e-02,
496,2.00e-02,
497,-2.00e-02,
498,4.80e-02,
499,-1.60e-02,
500,-1.20e-02,
501,2.00e-02,
502,1.96e-01,
503,-1.60e-02,
504,3.60e-02,
505,-3.20e-02,
506,-1.60e-02,
507,2.00e-02,
508,-2.40e-02,
509,3.20e-02,
510,-2.00e-02,
511,2.00e-02,
512,-1.60e-02,
513,2.00e-02,
514,2.40e-02,
515,-7.20e-02,
516,2.40e-02,
517,-2.40e-02,
518,-2.00e-02,
519,2.40e-02,
520,2.00e-02,
521,-2.00e-02,
522,2.40e-02,
523,-2.00e-02,
524,9.20e-02,
525,-6.80e-02,
526,-2.40e-02,
527,3.20e-02,
528,-1.00e-01,
529,1.00e-01,
530,-2.40e-02,
531,3.20e-02,
532,2.80e-02,
533,-2.40e-02,
534,3.60e-02,
535,-3.20e-02,
536,-1.60e-02,
537,2.00e-02,
538,4.00e-02,
539,-3.20e-02,
540,2.00e-02,
541,-1.60e-02,
542,-1.60e-02,
543,2.00e-02,
544,-5.20e-02,
545,5.20e-02,
546,2.00e-02,
547,-1.60e-02,
548,-1.60e-02,
549,1.60e-02,
550,-1.60e-02,
551,2.80e-02,
552,-2.00e-02,
553,3.60e-02,
554,-1.52e-01,
555,6.00e-02,
556,2.40e-02,
557,-2.40e-02,
558,2.40e-02,
559,-2.80e-02,
560,2.80e-02,
561,-2.00e-02,
562,-2.00e-02,
563,2.80e-02,
564,-4.40e-02,
565,4.80e-02,
566,2.80e-02,
567,-2.80e-02,
568,3.20e-02,
569,-4.00e-02,
570,2.80e-02,
571,-2.40e-02,
572,-2.40e-02,
573,2.80e-02,
574,-7.60e-02,
575,6.80e-02,
576,2.40e-02,
577,-1.60e-02,
578,-2.04e-01,
579,2.80e-02,
580,-1.60e-02,
581,2.00e-02,
582,2.00e-02,
583,-1.60e-02,
584,-1.60e-02,
585,6.80e-02,
586,2.00e-02,
587,-2.00e-02,
588,2.00e-02,
589,-1.60e-02,
590,-1.20e-02,
591,2.00e-02,
592,-2.40e-02,
593,2.40e-02,
594,3.20e-02,
595,-4.00e-02,
596,-1.60e-02,
597,2.00e-02,
598,4.80e-02,
599,-2.80e-02,
600,-1.60e-02,
601,2.00e-02,
602,2.40e-02,
603,-2.00e-02,
604,2.48e-01,
605,-5.60e-02,
606,-2.40e-02,
607,2.40e-02,
608,-2.80e-02,
609,2.80e-02,
610,2.40e-02,
611,-2.00e-02,
612,-2.40e-02,
613,2.80e-02,
614,2.40e-02,
615,-2.00e-02,
616,-8.80e-02,
617,7.20e-02,
618,2.00e-02,
619,-2.00e-02,
620,2.40e-02,
621,-1.60e-02,
622,-1.60e-02,
623,2.00e-02,
624,2.80e-02,
625,-3.60e-02,
626,1.60e-02,
627,-1.60e-02,
628,2.40e-02,
629,-1.60e-02,
630,3.60e-02,
631,-3.20e-02,
632,2.40e-02,
633,-2.00e-02,
634,-1.60e-02,
635,2.40e-02,
636,2.00e-02,
637,-4.00e-02,
638,-2.00e-02,
639,2.40e-02,
640,-2.00e-02,
641,2.40e-02,
642,2.00e-02,
643,-2.00e-02,
644,2.40e-02,
645,-2.40e-02,
646,-7.20e-02,
647,9.60e-02,
648,2.40e-02,
649,-2.00e-02,
650,-2.40e-02,
651,2.80e-02,
652,-2.00e-02,
653,2.80e-02,
654,2.40e-02,
655,-2.40e-02,
656,3.60e-02,
657,-1.52e-01,
658,2.40e-02,
659,-2.40e-02,
660,2.80e-02,
661,-2.80e-02,
662,-1.60e-02,
663,2.00e-02,
664,1.60e-02,
665,-1.60e-02,
666,-5.20e-02,
667,5.20e-02,
668,2.00e-02,
669,-2.00e-02,
670,2.00e-02,
671,-2.00e-02,
672,2.40e-02,
673,-2.00e-02,
674,-1.20e-02,
675,2.40e-02,
676,1.00e-01,
677,-2.00e-02,
678,2.00e-02,
679,-2.00e-02,
680,3.20e-02,
681,-2.80e-02,
682,-1.24e-01,
683,2.68e-01,
684,2.40e-02,
685,-1.60e-02,
686,-2.80e-02,
687,4.40e-02,
688,2.00e-02,
689,-1.60e-02,
690,-4.80e-02,
691,5.20e-02,
692,2.80e-02,
693,-2.40e-02,
694,2.80e-02,
695,-3.20e-02,
696,4.80e-02,
697,-4.80e-02,
698,-2.80e-02,
699,2.80e-02,
700,-2.00e-02,
701,2.80e-02,
702,-1.60e-02,
703,2.00e-02,
704,2.00e-02,
705,-2.00e-02,
706,-1.20e-02,
707,1.12e-01,
708,2.00e-02,
709,-1.60e-02,
710,-3.20e-02,
711,2.00e-02,
712,2.00e-02,
713,-1.60e-02,
714,-1.60e-02,
715,1.60e-02,
716,4.40e-02,
717,-2.00e-02,
718,2.40e-02,
719,-2.40e-02,
720,3.20e-02,
721,-3.20e-02,
722,2.40e-02,
723,-2.00e-02,
724,2.40e-02,
725,-2.00e-02,
726,4.80e-02,
727,-6.40e-02,
728,2.00e-02,
729,-2.40e-02,
730,2.80e-02,
731,-2.00e-02,
732,3.20e-02,
733,-1.36e-01,
734,3.20e-02,
735,-2.40e-02,
736,-1.12e-01,
737,8.40e-02,
738,-2.00e-02,
739,2.40e-02,
740,-2.00e-02,
741,2.40e-02,
742,-1.60e-02,
743,2.00e-02,
744,1.60e-02,
745,-2.00e-02,
746,3.60e-02,
747,-3.20e-02,
748,-1.20e-02,
749,2.00e-02,
750,3.20e-02,
751,-3.60e-02,
752,-2.00e-02,
753,2.00e-02,
754,2.40e-02,
755,-2.00e-02,
756,7.20e-02,
757,-3.60e-02,
758,3.60e-02,
759,-2.00e-02,
760,-1.60e-02,
761,2.40e-02,
762,-1.60e-02,
763,2.40e-02,
764,2.40e-02,
765,-2.00e-02,
766,-5.60e-02,
767,1.00e-01,
768,-1.60e-02,
769,2.40e-02,
770,-2.40e-02,
771,3.20e-02,
772,-1.60e-02,
773,2.40e-02,
774,-2.40e-02,
775,2.80e-02,
776,-3.20e-02,
777,4.00e-02,
778,-2.00e-02,
779,2.80e-02,
780,2.80e-02,
781,-4.00e-02,
782,2.40e-02,
783,-1.60e-02,
784,-1.20e-02,
785,3.20e-02,
786,7.60e-02,
787,-3.20e-02,
788,-1.60e-02,
789,2.00e-02,
790,2.00e-02,
791,-2.00e-02,
792,-1.20e-02,
793,2.00e-02,
794,1.60e-02,
795,-1.20e-02,
796,-1.20e-02,
797,7.20e-02,
798,-1.20e-02,
799,2.00e-02,
800,-2.00e-02,
801,2.40e-02,
802,-2.40e-02,
803,2.80e-02,
804,-1.60e-02,
805,2.40e-02,
806,3.60e-02,
807,-3.20e-02,
808,2.40e-02,
809,-2.00e-02,
810,-1.72e-01,
811,1.80e-01,
812,5.20e-02,
813,-2.40e-02,
814,2.80e-02,
815,-2.40e-02,
816,-2.40e-02,
817,2.80e-02,
818,5.20e-02,
819,-4.00e-02,
820,2.40e-02,
821,-2.80e-02,
822,-1.60e-02,
823,2.40e-02,
824,2.40e-02,
825,-2.00e-02,
826,2.00e-02,
827,-2.00e-02,
828,8.40e-02,
829,-2.00e-02,
830,-1.20e-02,
831,2.00e-02,
832,1.60e-02,
833,-2.00e-02,
834,-1.60e-02,
835,2.00e-02,
836,3.60e-02,
837,-3.20e-02,
838,4.00e-02,
839,-2.00e-02,
840,-1.60e-02,
841,2.00e-02,
842,2.40e-02,
843,-6.00e-02,
844,-2.00e-02,
845,2.40e-02,
846,2.40e-02,
847,-2.00e-02,
848,7.60e-02,
849,-6.80e-02,
850,2.00e-02,
851,-2.40e-02,
852,2.40e-02,
853,-1.60e-02,
854,-2.00e-02,
855,2.80e-02,
856,-1.20e-02,
857,2.40e-02,
858,-7.20e-02,
859,8.40e-02,
860,2.80e-02,
861,-2.40e-02,
862,1.88e-01,
863,-2.00e-02,
864,-2.00e-02,
865,2.40e-02,
866,2.80e-02,
867,-2.00e-02,
868,-2.40e-02,
869,3.20e-02,
870,1.60e-02,
871,-1.20e-02,
872,3.60e-02,
873,-1.60e-02,
874,2.00e-02,
875,-2.00e-02,
876,-1.60e-02,
877,2.40e-02,
878,8.00e-02,
879,-8.40e-02,
880,-1.60e-02,
881,2.40e-02,
882,2.00e-02,
883,-2.00e-02,
884,-2.40e-02,
885,2.80e-02,
886,2.40e-02,
887,-2.40e-02,
888,-1.28e-01,
889,2.44e-01,
890,-1.20e-02,
891,3.20e-02,
892,-4.00e-02,
893,4.40e-02,
894,2.40e-02,
895,-2.00e-02,
896,2.80e-02,
897,-2.00e-02,
898,-3.20e-02,
899,4.80e-02,
900,2.40e-02,
901,-2.00e-02,
902,2.80e-02,
903,-4.80e-02,
904,2.40e-02,
905,-2.80e-02,
906,2.80e-02,
907,-2.00e-02,
908,2.40e-02,
909,-4.00e-02,
910,2.00e-02,
911,-1.60e-02,
912,2.12e-01,
913,-1.60e-02,
914,-1.60e-02,
915,2.00e-02,
916,-1.20e-02,
917,2.00e-02,
918,-1.20e-02,
919,9.60e-02,
920,-1.60e-02,
921,2.00e-02,
922,2.80e-02,
923,-3.20e-02,
924,-1.60e-02,
925,2.40e-02,
926,2.00e-02,
927,-2.40e-02,
928,3.20e-02,
929,-4.40e-02,
930,2.40e-02,
931,-2.00e-02,
932,-4.00e-02,
933,4.00e-02,
934,-1.60e-02,
935,2.40e-02,
936,-1.60e-02,
937,2.40e-02,
938,2.28e-01,
939,-1.16e-01,
940,2.40e-02,
941,-2.00e-02,
942,2.40e-02,
943,-2.00e-02,
944,2.00e-02,
945,-2.00e-02,
946,-2.00e-02,
947,2.40e-02,
948,2.40e-02,
949,-7.20e-02,
950,2.00e-02,
951,-2.40e-02,
952,2.80e-02,
953,-2.80e-02,
954,2.00e-02,
955,-1.60e-02,
956,2.00e-02,
957,-1.60e-02,
958,-3.60e-02,
959,2.80e-02,
960,-1.60e-02,
961,2.40e-02,
962,-2.40e-02,
963,4.00e-02,
964,-2.08e-01,
965,1.96e-01,
966,2.00e-02,
967,-2.00e-02,
968,6.00e-02,
969,-3.60e-02,
970,2.00e-02,
971,-2.00e-02,
972,2.80e-02,
973,-2.40e-02,
974,2.40e-02,
975,-2.00e-02,
976,2.80e-02,
977,-2.00e-02,
978,1.56e-01,
979,-9.20e-02,
980,-1.60e-02,
981,2.00e-02,
982,-2.40e-02,
983,2.80e-02,
984,-2.00e-02,
985,2.40e-02,
986,-2.00e-02,
987,2.40e-02,
988,-3.20e-02,
989,2.52e-01,
990,2.40e-02,
991,-2.00e-02,
992,2.80e-02,
993,-4.80e-02,
994,2.00e-02,
995,-1.60e-02,
996,-1.60e-02,
997,2.00e-02,
998,-6.40e-02,
999,7.20e-02,
1000,-1.60e-02,
1001,2.00e-02,
1002,2.00e-02,
1003,-1.60e-02,
1004,1.60e-02,
1005,-1.20e-02,
1006,2.00e-02,
1007,-2.00e-02,
1008,-9.20e-02,
1009,8.80e-02,
1010,-2.00e-02,
1011,2.00e-02,
1012,2.80e-02,
1013,-2.00e-02,
1014,-2.00e-02,
1015,2.00e-02,
1016,-8.80e-02,
1017,6.00e-02,
1018,2.80e-02,
1019,-3.20e-02,
1020,2.00e-02,
1021,-1.60e-02,
1022,-2.00e-02,
1023,2.40e-02,
1024,2.80e-02,
1025,-1.60e-02,
1026,2.40e-02,
1027,-2.00e-02,
1028,-4.40e-02,
1029,3.60e-02,
1030,2.40e-02,
1031,-2.00e-02,
1032,-2.00e-02,
1033,2.80e-02,
1034,-1.60e-02,
1035,2.00e-02,
1036,2.00e-02,
1037,-1.60e-02,
1038,1.40e-01,
1039,-7.60e-02,
1040,-1.60e-02,
1041,2.00e-02,
1042,-2.16e-01,
1043,4.00e-02,
1044,2.00e-02,
1045,-3.20e-02,
1046,2.00e-02,
1047,-1.60e-02,
1048,4.40e-02,
1049,-4.00e-02,
1050,2.00e-02,
1051,-1.60e-02,
1052,-1.60e-02,
1053,2.40e-02,
1054,-1.60e-02,
1055,2.80e-02,
1056,2.00e-02,
1057,-2.40e-02,
1058,2.00e-02,
1059,-2.00e-02,
1060,-6.40e-02,
1061,5.60e-02,
1062,-2.00e-02,
1063,2.00e-02,
1064,-2.00e-02,
1065,2.40e-02,
1066,2.40e-02,
1067,-2.00e-02,
1068,-4.00e-02,
1069,2.40e-02,
1070,-8.40e-02,
1071,2.40e-02,
1072,-2.00e-02,
1073,2.00e-02,
1074,3.20e-02,
1075,-1.60e-02,
1076,2.00e-02,
1077,-1.60e-02,
1078,-2.40e-02,
1079,4.00e-02,
1080,2.00e-02,
1081,-1.60e-02,
1082,2.00e-02,
1083,-1.60e-02,
1084,-3.20e-02,
1085,3.60e-02,
1086,-1.60e-02,
1087,2.40e-02,
1088,2.40e-02,
1089,-2.00e-02,
1090,-4.40e-02,
1091,4.80e-02,
1092,-1.60e-02,
1093,2.40e-02,
1094,-2.28e-01,
1095,3.20e-02,
1096,2.40e-02,
1097,-1.60e-02,
1098,-2.00e-02,
1099,2.80e-02,
1100,8.00e-02,
1101,-7.60e-02,
1102,2.00e-02,
1103,-1.60e-02,
1104,1.60e-02,
1105,-2.40e-02,
1106,-1.60e-02,
1107,2.00e-02,
1108,2.40e-02,
1109,-1.60e-02,
1110,-2.40e-02,
1111,4.80e-02,
1112,2.40e-02,
1113,-2.00e-02,
1114,-2.40e-02,
1115,3.20e-02,
1116,2.80e-02,
1117,-1.60e-02,
1118,-1.20e-02,
1119,2.00e-02,
1120,-1.68e-01,
1121,2.08e-01,
1122,-1.60e-02,
1123,2.40e-02,
1124,-1.60e-02,
1125,2.40e-02,
1126,2.00e-02,
1127,-1.60e-02,
1128,-1.60e-02,
1129,2.40e-02,
1130,-8.80e-02,
1131,1.08e-01,
1132,2.00e-02,
1133,-1.60e-02,
1134,-2.04e-01,
1135,3.20e-02,
1136,2.80e-02,
1137,-2.00e-02,
1138,2.00e-02,
1139,-2.00e-02,
1140,-3.20e-02,
1141,3.20e-02,
1142,2.40e-02,
1143,-2.00e-02,
1144,-3.60e-02,
1145,4.40e-02,
1146,1.60e-02,
1147,-2.00e-02,
1148,2.00e-02,
1149,-2.00e-02,
1150,5.60e-02,
1151,-4.40e-02,
1152,-2.00e-02,
1153,2.40e-02,
1154,2.00e-02,
1155,-1.52e-01,
1156,-2.00e-02,
1157,2.80e-02,
1158,-2.00e-02,
1159,2.80e-02,
1160,8.80e-02,
1161,-6.80e-02,
1162,-1.60e-02,
1163,2.00e-02,
1164,4.00e-02,
1165,-2.00e-02,
1166,-1.60e-02,
1167,2.00e-02,
1168,2.00e-02,
1169,-1.60e-02,
1170,4.00e-02,
1171,-3.60e-02,
1172,-1.20e-02,
1173,2.00e-02,
1174,-2.80e-02,
1175,2.80e-02,
1176,2.80e-02,
1177,-2.56e-01,
1178,2.00e-02,
1179,-1.60e-02,
1180,-6.00e-02,
1181,9.20e-02,
1182,-1.20e-02,
1183,2.40e-02,
1184,2.00e-02,
1185,-2.00e-02,
1186,1.60e-02,
1187,-1.60e-02,
1188,1.60e-02,
1189,-2.00e-02,
1190,8.00e-02,
1191,-1.12e-01,
1192,-2.00e-02,
1193,2.80e-02,
1194,2.80e-02,
1195,-2.40e-02,
1196,2.40e-02,
1197,-2.40e-02,
1198,-2.00e-02,
1199,2.80e-02,
