Laptop_1/LAPTOP_CHRGR_1_OFF/time domain/NewFile32.csv

X,CH1,Start,Increment,
Sequence,Volt,-1.500000e-01,2.000000e-04
0,1.20e-02,
1,-1.20e-02,
2,-1.20e-02,
3,2.00e-02,
4,1.60e-02,
5,-1.60e-02,
6,1.20e-02,
7,-1.20e-02,
8,-1.20e-02,
9,1.20e-02,
10,3.60e-02,
11,-4.80e-02,
12,1.60e-02,
13,-2.00e-02,
14,1.60e-02,
15,-1.60e-02,
16,-2.00e-02,
17,1.60e-02,
18,-1.20e-02,
19,1.60e-02,
20,1.60e-02,
21,-1.60e-02,
22,-2.80e-02,
23,1.60e-02,
24,-1.20e-02,
25,1.60e-02,
26,-1.20e-02,
27,1.60e-02,
28,4.40e-02,
29,-2.00e-02,
30,1.20e-02,
31,-1.20e-02,
32,1.20e-02,
33,-1.20e-02,
34,-1.20e-02,
35,2.40e-02,
36,-1.20e-02,
37,1.60e-02,
38,-1.60e-02,
39,1.60e-02,
40,-1.60e-02,
41,1.60e-02,
42,1.60e-02,
43,-7.60e-02,
44,-1.20e-02,
45,2.00e-02,
46,6.40e-02,
47,-6.00e-02,
48,1.60e-02,
49,-1.20e-02,
50,-1.60e-02,
51,2.80e-02,
52,-1.60e-02,
53,1.60e-02,
54,1.60e-02,
55,-1.60e-02,
56,1.60e-02,
57,-1.20e-02,
58,2.00e-02,
59,-2.40e-02,
60,-1.20e-02,
61,1.60e-02,
62,-3.20e-02,
63,5.20e-02,
64,1.60e-02,
65,-8.00e-03,
66,-1.20e-02,
67,8.00e-02,
68,-8.00e-03,
69,1.60e-02,
70,-1.60e-02,
71,2.40e-02,
72,-8.00e-03,
73,1.60e-02,
74,1.60e-02,
75,-1.20e-02,
76,-8.00e-03,
77,1.60e-02,
78,-1.20e-02,
79,1.60e-02,
80,-1.20e-02,
81,1.60e-02,
82,-6.40e-02,
83,4.80e-02,
84,1.20e-02,
85,-1.20e-02,
86,3.20e-02,
87,-2.00e-02,
88,1.60e-02,
89,-1.20e-02,
90,-1.20e-02,
91,8.40e-02,
92,1.60e-02,
93,-1.20e-02,
94,-2.40e-02,
95,2.00e-02,
96,1.60e-02,
97,-1.20e-02,
98,-2.80e-02,
99,3.60e-02,
100,1.60e-02,
101,-1.60e-02,
102,-1.20e-02,
103,1.60e-02,
104,-1.20e-02,
105,1.60e-02,
106,-3.20e-02,
107,1.60e-02,
108,1.60e-02,
109,-1.60e-02,
110,-1.20e-02,
111,2.80e-02,
112,1.20e-02,
113,-1.20e-02,
114,1.60e-02,
115,-1.20e-02,
116,1.20e-02,
117,-1.04e-01,
118,7.20e-02,
119,-1.60e-02,
120,-1.20e-02,
121,1.60e-02,
122,1.60e-02,
123,-1.60e-02,
124,-1.20e-02,
125,1.60e-02,
126,1.60e-02,
127,-1.20e-02,
128,-1.20e-02,
129,1.60e-02,
130,2.80e-02,
131,-2.80e-02,
132,-1.20e-02,
133,1.60e-02,
134,3.60e-02,
135,-4.40e-02,
136,-1.20e-02,
137,1.60e-02,
138,-1.20e-02,
139,2.00e-02,
140,1.60e-02,
141,-6.00e-02,
142,-1.20e-02,
143,2.40e-02,
144,-1.20e-02,
145,1.60e-02,
146,-2.00e-02,
147,1.60e-02,
148,-1.20e-02,
149,1.60e-02,
150,-1.20e-02,
151,1.60e-02,
152,1.20e-02,
153,-1.20e-02,
154,5.60e-02,
155,-5.20e-02,
156,-1.20e-02,
157,1.60e-02,
158,-1.60e-02,
159,2.40e-02,
160,-8.00e-03,
161,1.20e-02,
162,-1.20e-02,
163,1.60e-02,
164,-2.00e-02,
165,1.08e-01,
166,1.60e-02,
167,-1.20e-02,
168,-1.20e-02,
169,1.60e-02,
170,3.20e-02,
171,-5.20e-02,
172,-1.20e-02,
173,1.20e-02,
174,1.20e-02,
175,-1.20e-02,
176,1.20e-02,
177,-1.20e-02,
178,-2.40e-02,
179,3.60e-02,
180,-1.20e-02,
181,2.00e-02,
182,1.60e-02,
183,-2.80e-02,
184,1.20e-02,
185,-1.60e-02,
186,-1.20e-02,
187,2.00e-02,
188,-1.20e-02,
189,8.80e-02,
190,-8.40e-02,
191,3.60e-02,
192,1.20e-02,
193,-1.60e-02,
194,1.20e-02,
195,-2.80e-02,
196,-1.20e-02,
197,1.60e-02,
198,-1.20e-02,
199,1.60e-02,
200,-4.00e-02,
201,3.20e-02,
202,-1.20e-02,
203,1.60e-02,
204,1.20e-02,
205,-1.20e-02,
206,4.80e-02,
207,-2.80e-02,
208,1.60e-02,
209,-1.60e-02,
210,-1.20e-02,
211,1.60e-02,
212,-1.20e-02,
213,7.20e-02,
214,3.60e-02,
215,-2.80e-02,
216,-1.20e-02,
217,1.60e-02,
218,1.60e-02,
219,-1.60e-02,
220,-1.20e-02,
221,1.60e-02,
222,-1.60e-02,
223,1.60e-02,
224,-4.80e-02,
225,4.80e-02,
226,1.60e-02,
227,-1.20e-02,
228,1.60e-02,
229,-1.20e-02,
230,2.40e-02,
231,-1.60e-02,
232,1.20e-02,
233,-1.20e-02,
234,-1.20e-02,
235,1.60e-02,
236,-8.00e-02,
237,2.80e-02,
238,1.20e-02,
239,-1.20e-02,
240,-1.20e-02,
241,1.20e-02,
242,-4.40e-02,
243,3.20e-02,
244,1.20e-02,
245,-1.20e-02,
246,-1.20e-02,
247,1.60e-02,
248,-7.20e-02,
249,1.00e-01,
250,1.20e-02,
251,-1.20e-02,
252,-1.20e-02,
253,1.60e-02,
254,2.40e-02,
255,-2.00e-02,
256,1.20e-02,
257,-1.20e-02,
258,1.60e-02,
259,-1.20e-02,
260,-6.80e-02,
261,5.60e-02,
262,-1.20e-02,
263,1.60e-02,
264,1.60e-02,
265,-1.20e-02,
266,1.60e-02,
267,-4.40e-02,
268,1.60e-02,
269,-1.60e-02,
270,-1.20e-02,
271,2.00e-02,
272,-1.20e-02,
273,2.00e-02,
274,-1.20e-02,
275,1.60e-02,
276,1.60e-02,
277,-1.20e-02,
278,3.20e-02,
279,-2.80e-02,
280,1.20e-02,
281,-1.20e-02,
282,1.20e-02,
283,-1.20e-02,
284,-3.20e-02,
285,2.80e-02,
286,1.60e-02,
287,-1.20e-02,
288,1.60e-02,
289,-1.20e-02,
290,-1.20e-02,
291,1.60e-02,
292,1.60e-02,
293,-1.20e-02,
294,1.60e-02,
295,-1.20e-02,
296,1.08e-01,
297,-4.80e-02,
298,-1.20e-02,
299,1.60e-02,
300,1.60e-02,
301,-1.60e-02,
302,-2.00e-02,
303,1.60e-02,
304,1.60e-02,
305,-1.20e-02,
306,-1.20e-02,
307,1.60e-02,
308,2.00e-02,
309,-2.00e-02,
310,-1.60e-02,
311,2.00e-02,
312,-1.20e-02,
313,1.60e-02,
314,1.60e-02,
315,-3.60e-02,
316,-1.20e-02,
317,1.60e-02,
318,1.20e-02,
319,-1.20e-02,
320,-1.60e-02,
321,2.40e-02,
322,-1.20e-02,
323,1.60e-02,
324,4.40e-02,
325,-1.60e-02,
326,1.20e-02,
327,-1.20e-02,
328,-1.20e-02,
329,1.60e-02,
330,1.20e-02,
331,-1.20e-02,
332,-3.20e-02,
333,6.80e-02,
334,-1.20e-02,
335,1.60e-02,
336,1.60e-02,
337,-1.20e-02,
338,2.00e-02,
339,-2.80e-02,
340,1.20e-02,
341,-1.20e-02,
342,-1.20e-02,
343,1.60e-02,
344,1.20e-02,
345,-1.20e-02,
346,1.60e-02,
347,-1.20e-02,
348,2.00e-02,
349,-1.60e-02,
350,3.60e-02,
351,-8.40e-02,
352,2.00e-02,
353,-1.60e-02,
354,-1.20e-02,
355,1.60e-02,
356,-1.20e-02,
357,2.80e-02,
358,1.20e-02,
359,-1.20e-02,
360,-1.20e-02,
361,2.40e-02,
362,1.20e-02,
363,-1.20e-02,
364,-8.00e-03,
365,1.20e-02,
366,1.20e-02,
367,-1.20e-02,
368,-6.00e-02,
369,6.40e-02,
370,-8.00e-03,
371,1.60e-02,
372,-1.20e-02,
373,1.60e-02,
374,2.40e-02,
375,-2.40e-02,
376,4.40e-02,
377,-3.20e-02,
378,-1.20e-02,
379,1.60e-02,
380,3.20e-02,
381,-3.20e-02,
382,1.20e-02,
383,-1.20e-02,
384,-1.20e-02,
385,1.60e-02,
386,1.20e-02,
387,-3.60e-02,
388,1.60e-02,
389,-1.20e-02,
390,-1.20e-02,
391,1.60e-02,
392,-1.20e-02,
393,3.60e-02,
394,-1.20e-02,
395,1.60e-02,
396,2.00e-02,
397,-2.00e-02,
398,1.60e-02,
399,-1.20e-02,
400,-8.00e-03,
401,1.08e-01,
402,-8.00e-03,
403,1.60e-02,
404,-4.80e-02,
405,6.40e-02,
406,1.60e-02,
407,-1.20e-02,
408,2.80e-02,
409,-2.40e-02,
410,-8.00e-03,
411,1.20e-02,
412,1.60e-02,
413,-1.20e-02,
414,1.60e-02,
415,-1.20e-02,
416,-2.80e-02,
417,1.60e-02,
418,-1.20e-02,
419,1.60e-02,
420,1.20e-02,
421,-2.80e-02,
422,-1.60e-02,
423,1.60e-02,
424,-8.00e-03,
425,1.60e-02,
426,-9.20e-02,
427,1.60e-02,
428,3.20e-02,
429,-1.60e-02,
430,-1.20e-02,
431,1.60e-02,
432,-1.60e-02,
433,2.40e-02,
434,1.60e-02,
435,-1.20e-02,
436,-1.60e-02,
437,1.60e-02,
438,1.60e-02,
439,-8.00e-03,
440,-5.60e-02,
441,6.80e-02,
442,1.60e-02,
443,-1.20e-02,
444,-1.60e-02,
445,4.00e-02,
446,-1.20e-02,
447,1.60e-02,
448,1.20e-02,
449,-1.20e-02,
450,-1.20e-02,
451,7.60e-02,
452,-2.00e-02,
453,2.00e-02,
454,1.20e-02,
455,-1.20e-02,
456,-3.20e-02,
457,4.80e-02,
458,-1.60e-02,
459,1.60e-02,
460,-1.20e-02,
461,2.00e-02,
462,1.60e-02,
463,-1.60e-02,
464,-3.20e-02,
465,2.80e-02,
466,1.60e-02,
467,-1.20e-02,
468,2.40e-02,
469,-1.60e-02,
470,-1.20e-02,
471,1.60e-02,
472,1.60e-02,
473,-1.60e-02,
474,1.20e-02,
475,-1.20e-02,
476,5.60e-02,
477,-1.12e-01,
478,-1.20e-02,
479,1.60e-02,
480,2.00e-02,
481,-2.00e-02,
482,1.20e-02,
483,-1.20e-02,
484,-1.20e-02,
485,1.20e-02,
486,1.20e-02,
487,-2.40e-02,
488,2.80e-02,
489,-1.20e-02,
490,-1.20e-02,
491,1.20e-02,
492,-2.40e-02,
493,1.60e-02,
494,-8.00e-03,
495,1.60e-02,
496,1.60e-02,
497,-1.20e-02,
498,1.60e-02,
499,-1.20e-02,
500,-2.40e-02,
501,1.60e-02,
502,1.20e-02,
503,-7.20e-02,
504,1.60e-02,
505,-1.20e-02,
506,-1.20e-02,
507,1.60e-02,
508,1.60e-02,
509,-1.20e-02,
510,-1.20e-02,
511,1.60e-02,
512,-6.00e-02,
513,1.60e-02,
514,-1.20e-02,
515,1.60e-02,
516,2.80e-02,
517,-2.00e-02,
518,-1.20e-02,
519,1.60e-02,
520,-1.60e-02,
521,2.00e-02,
522,-3.60e-02,
523,2.40e-02,
524,-1.20e-02,
525,1.60e-02,
526,-6.40e-02,
527,8.00e-02,
528,5.20e-02,
529,-4.40e-02,
530,1.60e-02,
531,-1.20e-02,
532,1.20e-02,
533,-1.20e-02,
534,1.20e-02,
535,-1.20e-02,
536,3.20e-02,
537,-1.20e-02,
538,1.20e-02,
539,-1.20e-02,
540,2.00e-02,
541,-1.60e-02,
542,-1.20e-02,
543,1.60e-02,
544,-1.20e-02,
545,2.00e-02,
546,1.60e-02,
547,-1.20e-02,
548,-6.40e-02,
549,2.80e-02,
550,-1.20e-02,
551,5.60e-02,
552,-1.20e-02,
553,2.00e-02,
554,1.60e-02,
555,-1.20e-02,
556,2.00e-02,
557,-2.00e-02,
558,3.20e-02,
559,-2.40e-02,
560,1.60e-02,
561,-1.20e-02,
562,1.60e-02,
563,-1.20e-02,
564,-3.20e-02,
565,3.60e-02,
566,-8.00e-03,
567,1.60e-02,
568,1.20e-02,
569,-1.20e-02,
570,-3.60e-02,
571,3.60e-02,
572,-8.00e-03,
573,1.60e-02,
574,1.20e-02,
575,-1.20e-02,
576,-2.40e-02,
577,8.00e-02,
578,1.20e-02,
579,-1.20e-02,
580,-1.20e-02,
581,1.60e-02,
582,4.00e-02,
583,-4.00e-02,
584,-1.20e-02,
585,1.60e-02,
586,-8.00e-03,
587,1.60e-02,
588,2.40e-02,
589,-2.00e-02,
590,-8.00e-03,
591,1.60e-02,
592,1.60e-02,
593,-1.20e-02,
594,1.20e-02,
595,-2.80e-02,
596,-1.20e-02,
597,1.60e-02,
598,1.60e-02,
599,-1.20e-02,
600,2.40e-02,
601,-3.60e-02,
602,1.60e-02,
603,-1.12e-01,
604,-1.60e-02,
605,1.60e-02,
606,3.60e-02,
607,-5.60e-02,
608,1.60e-02,
609,-1.20e-02,
610,-1.20e-02,
611,1.60e-02,
612,1.20e-02,
613,-1.20e-02,
614,1.20e-02,
615,-1.20e-02,
616,1.20e-02,
617,-1.20e-02,
618,6.00e-02,
619,-8.00e-02,
620,1.20e-02,
621,-1.20e-02,
622,1.60e-02,
623,-1.20e-02,
624,1.20e-02,
625,-1.20e-02,
626,-1.12e-01,
627,1.60e-02,
628,1.20e-02,
629,-1.20e-02,
630,1.20e-02,
631,-1.60e-02,
632,-1.60e-02,
633,2.00e-02,
634,-1.20e-02,
635,1.60e-02,
636,4.40e-02,
637,-1.60e-02,
638,-1.20e-02,
639,2.00e-02,
640,-1.20e-02,
641,2.00e-02,
642,-2.00e-02,
643,3.20e-02,
644,-1.60e-02,
645,1.60e-02,
646,-1.60e-02,
647,2.00e-02,
648,-1.20e-02,
649,9.60e-02,
650,1.60e-02,
651,-1.20e-02,
652,1.60e-02,
653,-1.20e-02,
654,7.20e-02,
655,-4.00e-02,
656,-1.20e-02,
657,1.60e-02,
658,1.20e-02,
659,-1.20e-02,
660,-1.60e-02,
661,2.00e-02,
662,1.20e-02,
663,-1.20e-02,
664,-1.20e-02,
665,1.60e-02,
666,-3.20e-02,
667,2.00e-02,
668,-1.20e-02,
669,2.00e-02,
670,1.60e-02,
671,-1.60e-02,
672,3.60e-02,
673,-1.20e-02,
674,-1.20e-02,
675,6.40e-02,
676,-1.20e-02,
677,1.20e-02,
678,1.60e-02,
679,-2.40e-02,
680,1.60e-02,
681,-1.20e-02,
682,2.00e-02,
683,-1.20e-02,
684,1.60e-02,
685,-1.20e-02,
686,1.60e-02,
687,-1.60e-02,
688,1.60e-02,
689,-1.60e-02,
690,6.80e-02,
691,-5.60e-02,
692,1.20e-02,
693,-1.20e-02,
694,-1.20e-02,
695,1.60e-02,
696,-2.80e-02,
697,1.60e-02,
698,6.00e-02,
699,-2.40e-02,
700,1.20e-02,
701,-1.20e-02,
702,-8.00e-03,
703,2.40e-02,
704,1.20e-02,
705,-1.20e-02,
706,-1.20e-02,
707,1.60e-02,
708,2.80e-02,
709,-1.60e-02,
710,-1.20e-02,
711,1.60e-02,
712,1.60e-02,
713,-1.20e-02,
714,1.20e-02,
715,-3.60e-02,
716,1.60e-02,
717,-1.20e-02,
718,2.00e-02,
719,-1.60e-02,
720,-1.20e-02,
721,1.60e-02,
722,-1.60e-02,
723,2.00e-02,
724,1.60e-02,
725,-6.80e-02,
726,4.00e-02,
727,-6.00e-02,
728,1.60e-02,
729,-1.60e-02,
730,2.40e-02,
731,-2.40e-02,
732,-1.20e-02,
733,1.60e-02,
734,-1.20e-02,
735,1.60e-02,
736,-8.00e-03,
737,1.60e-02,
738,2.80e-02,
739,-2.40e-02,
740,1.20e-02,
741,-1.20e-02,
742,-1.20e-02,
743,4.00e-02,
744,1.20e-02,
745,-8.00e-03,
746,1.20e-02,
747,-1.20e-02,
748,1.60e-02,
749,-1.20e-02,
750,1.60e-02,
751,-1.12e-01,
752,-1.20e-02,
753,1.60e-02,
754,-1.20e-02,
755,2.00e-02,
756,-1.20e-02,
757,1.60e-02,
758,1.60e-02,
759,-1.20e-02,
760,-1.20e-02,
761,1.60e-02,
762,7.60e-02,
763,-8.80e-02,
764,-1.20e-02,
765,2.00e-02,
766,3.20e-02,
767,-2.00e-02,
768,1.60e-02,
769,-1.20e-02,
770,-1.20e-02,
771,1.60e-02,
772,-1.20e-02,
773,1.20e-02,
774,-2.40e-02,
775,3.20e-02,
776,1.20e-02,
777,-1.20e-02,
778,-3.20e-02,
779,2.80e-02,
780,-1.20e-02,
781,1.60e-02,
782,-1.20e-02,
783,1.60e-02,
784,-8.00e-03,
785,1.60e-02,
786,3.60e-02,
787,-1.20e-02,
788,-1.20e-02,
789,1.60e-02,
790,-1.20e-02,
791,2.40e-02,
792,1.60e-02,
793,-1.20e-02,
794,1.60e-02,
795,-1.20e-02,
796,1.60e-02,
797,-1.20e-02,
798,8.40e-02,
799,-1.16e-01,
800,-1.20e-02,
801,1.60e-02,
802,2.40e-02,
803,-2.80e-02,
804,-1.20e-02,
805,1.60e-02,
806,-1.20e-02,
807,2.00e-02,
808,1.60e-02,
809,-1.60e-02,
810,1.60e-02,
811,-2.80e-02,
812,1.60e-02,
813,-1.60e-02,
814,-2.80e-02,
815,3.20e-02,
816,1.20e-02,
817,-1.20e-02,
818,1.20e-02,
819,-1.20e-02,
820,1.20e-02,
821,-1.20e-02,
822,-1.20e-02,
823,2.80e-02,
824,-1.20e-02,
825,8.80e-02,
826,1.20e-02,
827,-1.20e-02,
828,-1.20e-02,
829,1.60e-02,
830,-1.20e-02,
831,1.60e-02,
832,-1.20e-02,
833,1.60e-02,
834,-5.60e-02,
835,4.00e-02,
836,1.60e-02,
837,-1.20e-02,
838,2.40e-02,
839,-3.60e-02,
840,-1.20e-02,
841,1.60e-02,
842,1.60e-02,
843,-1.20e-02,
844,-2.80e-02,
845,2.40e-02,
846,1.60e-02,
847,-1.60e-02,
848,2.00e-02,
849,-7.60e-02,
850,-2.80e-02,
851,4.00e-02,
852,1.60e-02,
853,-1.20e-02,
854,-2.00e-02,
855,1.60e-02,
856,-1.20e-02,
857,1.60e-02,
858,1.60e-02,
859,-3.20e-02,
860,1.20e-02,
861,-1.20e-02,
862,1.20e-02,
863,-2.80e-02,
864,1.60e-02,
865,-1.20e-02,
866,1.20e-02,
867,-1.20e-02,
868,1.20e-02,
869,-1.20e-02,
870,-4.00e-02,
871,6.80e-02,
872,1.20e-02,
873,-1.20e-02,
874,-1.60e-02,
875,3.20e-02,
876,1.20e-02,
877,-1.20e-02,
878,-1.20e-02,
879,1.60e-02,
880,2.00e-02,
881,-1.60e-02,
882,2.00e-02,
883,-1.20e-02,
884,1.60e-02,
885,-1.20e-02,
886,4.40e-02,
887,-5.60e-02,
888,2.00e-02,
889,-1.20e-02,
890,2.00e-02,
891,-1.60e-02,
892,1.60e-02,
893,-1.60e-02,
894,2.80e-02,
895,-1.60e-02,
896,1.60e-02,
897,-1.60e-02,
898,1.00e-01,
899,-1.60e-02,
900,1.60e-02,
901,-1.20e-02,
902,-1.20e-02,
903,1.60e-02,
904,1.20e-02,
905,-1.20e-02,
906,8.00e-02,
907,-1.20e-02,
908,-1.20e-02,
909,1.60e-02,
910,-2.40e-02,
911,2.00e-02,
912,-8.00e-03,
913,1.60e-02,
914,1.20e-02,
915,-1.20e-02,
916,1.60e-02,
917,-1.20e-02,
918,-1.60e-02,
919,1.60e-02,
920,-1.20e-02,
921,1.60e-02,
922,5.20e-02,
923,-3.60e-02,
924,-1.20e-02,
925,7.20e-02,
926,-8.00e-03,
927,1.60e-02,
928,-2.80e-02,
929,2.80e-02,
930,2.00e-02,
931,-1.20e-02,
932,1.60e-02,
933,-1.20e-02,
934,2.00e-02,
935,-1.60e-02,
936,2.00e-02,
937,-1.60e-02,
938,-1.20e-02,
939,2.00e-02,
940,6.00e-02,
941,-4.00e-02,
942,-1.20e-02,
943,1.60e-02,
944,1.60e-02,
945,-1.20e-02,
946,-1.20e-02,
947,2.80e-02,
948,1.60e-02,
949,-2.00e-02,
950,-8.00e-03,
951,1.60e-02,
952,-2.40e-02,
953,2.40e-02,
954,-8.00e-03,
955,1.60e-02,
956,1.60e-02,
957,-1.20e-02,
958,5.20e-02,
959,-1.20e-02,
960,-1.20e-02,
961,1.60e-02,
962,-1.20e-02,
963,1.60e-02,
964,-2.00e-02,
965,2.80e-02,
966,-1.20e-02,
967,1.60e-02,
968,1.60e-02,
969,-1.60e-02,
970,1.60e-02,
971,-1.60e-02,
972,1.60e-02,
973,-1.20e-01,
974,1.60e-02,
975,-1.20e-02,
976,-2.00e-02,
977,4.00e-02,
978,-1.20e-02,
979,2.00e-02,
980,-1.20e-02,
981,2.00e-02,
982,-2.00e-02,
983,1.60e-02,
984,-1.20e-02,
985,1.60e-02,
986,1.20e-02,
987,-1.20e-02,
988,2.80e-02,
989,-2.80e-02,
990,1.60e-02,
991,-1.60e-02,
992,1.20e-02,
993,-1.20e-02,
994,-4.40e-02,
995,1.60e-02,
996,-8.00e-03,
997,1.60e-02,
998,9.20e-02,
999,-1.20e-02,
1000,-2.40e-02,
1001,3.20e-02,
1002,-8.00e-03,
1003,1.60e-02,
1004,2.40e-02,
1005,-2.40e-02,
1006,-1.20e-02,
1007,1.60e-02,
1008,1.20e-02,
1009,-1.20e-02,
1010,1.60e-02,
1011,-1.20e-02,
1012,5.20e-02,
1013,-6.40e-02,
1014,-1.20e-02,
1015,1.60e-02,
1016,2.00e-02,
1017,-1.60e-02,
1018,1.60e-02,
1019,-1.60e-02,
1020,1.60e-02,
1021,-1.20e-02,
1022,-1.20e-02,
1023,5.20e-02,
1024,1.60e-02,
1025,-2.00e-02,
1026,1.20e-02,
1027,-1.20e-02,
1028,1.20e-02,
1029,-1.20e-02,
1030,-2.40e-02,
1031,2.00e-02,
1032,-1.20e-02,
1033,1.60e-02,
1034,1.20e-02,
1035,-1.20e-02,
1036,2.80e-02,
1037,-1.20e-02,
1038,1.60e-02,
1039,-1.20e-02,
1040,-1.60e-02,
1041,2.80e-02,
1042,-1.20e-02,
1043,1.60e-02,
1044,-1.20e-02,
1045,1.60e-02,
1046,1.60e-02,
1047,-1.60e-02,
1048,6.40e-02,
1049,-4.80e-02,
1050,1.60e-02,
1051,-1.20e-02,
1052,2.00e-02,
1053,-2.00e-02,
1054,1.60e-02,
1055,-1.60e-02,
1056,-1.20e-02,
1057,1.60e-02,
1058,-1.20e-02,
1059,1.60e-02,
1060,3.20e-02,
1061,-2.40e-02,
1062,-1.20e-02,
1063,2.00e-02,
1064,-1.20e-02,
1065,3.20e-02,
1066,-1.20e-02,
1067,1.60e-02,
1068,1.20e-02,
1069,-1.20e-02,
1070,1.20e-02,
1071,-1.20e-02,
1072,1.60e-02,
1073,-2.40e-02,
1074,-7.20e-02,
1075,1.20e-02,
1076,1.60e-02,
1077,-1.20e-02,
1078,1.60e-02,
1079,-1.20e-02,
1080,-1.20e-02,
1081,1.60e-02,
1082,-1.20e-02,
1083,1.60e-02,
1084,6.80e-02,
1085,-7.60e-02,
1086,-1.20e-02,
1087,1.60e-02,
1088,-1.20e-02,
1089,2.00e-02,
1090,1.60e-02,
1091,-1.20e-02,
1092,-1.20e-02,
1093,1.60e-02,
1094,-1.60e-02,
1095,1.60e-02,
1096,-4.00e-02,
1097,4.00e-02,
1098,1.60e-02,
1099,-1.20e-02,
1100,5.20e-02,
1101,-8.80e-02,
1102,1.60e-02,
1103,-1.20e-02,
1104,1.60e-02,
1105,-1.60e-02,
1106,-1.20e-02,
1107,1.60e-02,
1108,-1.20e-02,
1109,3.60e-02,
1110,-1.20e-02,
1111,1.60e-02,
1112,1.60e-02,
1113,-2.00e-02,
1114,1.20e-02,
1115,-8.00e-03,
1116,1.20e-02,
1117,-1.20e-02,
1118,1.20e-02,
1119,-8.00e-03,
1120,8.00e-02,
1121,-5.60e-02,
1122,1.60e-02,
1123,-8.00e-03,
1124,-7.20e-02,
1125,1.12e-01,
1126,-1.20e-02,
1127,1.60e-02,
1128,1.60e-02,
1129,-1.20e-02,
1130,2.00e-02,
1131,-1.60e-02,
1132,1.60e-02,
1133,-1.20e-02,
1134,-1.20e-02,
1135,2.00e-02,
1136,-2.40e-02,
1137,2.40e-02,
1138,2.40e-02,
1139,-1.60e-02,
1140,2.00e-02,
1141,-1.60e-02,
1142,-1.20e-02,
1143,1.60e-02,
1144,4.00e-02,
1145,-1.60e-02,
1146,2.00e-02,
1147,-1.60e-02,
1148,1.20e-02,
1149,-5.60e-02,
1150,1.20e-02,
1151,-1.20e-02,
1152,1.60e-02,
1153,-1.20e-02,
1154,1.60e-02,
1155,-1.60e-02,
1156,-4.80e-02,
1157,1.60e-02,
1158,1.20e-02,
1159,-1.20e-02,
1160,2.40e-02,
1161,-1.60e-02,
1162,-8.00e-03,
1163,1.60e-02,
1164,1.60e-02,
1165,-1.60e-02,
1166,2.40e-02,
1167,-3.60e-02,
1168,-1.20e-02,
1169,1.60e-02,
1170,1.20e-02,
1171,-1.20e-02,
1172,5.20e-02,
1173,-2.80e-02,
1174,1.60e-02,
1175,-8.00e-02,
1176,1.60e-02,
1177,-1.20e-02,
1178,1.60e-02,
1179,-1.20e-02,
1180,3.60e-02,
1181,-2.40e-02,
1182,1.60e-02,
1183,-1.20e-02,
1184,2.00e-02,
1185,-1.20e-02,
1186,1.60e-02,
1187,-1.20e-02,
1188,-1.20e-02,
1189,1.60e-02,
1190,-6.80e-02,
1191,6.00e-02,
1192,1.60e-02,
1193,-1.20e-02,
1194,1.20e-02,
1195,-1.20e-02,
1196,-2.00e-02,
1197,1.60e-02,
1198,-7.60e-02,
1199,1.08e-01,
