Laptop_1/LAPTOP_CHRGR_1_OFF/time domain/NewFile26.csv

X,CH1,Start,Increment,
Sequence,Volt,-1.500000e-01,2.000000e-04
0,-1.60e-02,
1,2.00e-02,
2,6.00e-02,
3,-8.80e-02,
4,-8.00e-03,
5,1.20e-02,
6,2.00e-02,
7,-1.20e-02,
8,1.60e-02,
9,-1.60e-02,
10,-1.20e-02,
11,1.60e-02,
12,3.20e-02,
13,-2.40e-02,
14,-1.20e-02,
15,1.60e-02,
16,1.60e-02,
17,-1.20e-02,
18,-8.00e-03,
19,1.60e-02,
20,-1.20e-02,
21,1.60e-02,
22,-1.20e-02,
23,1.60e-02,
24,-1.60e-02,
25,2.80e-02,
26,1.60e-02,
27,-1.20e-02,
28,1.60e-02,
29,-1.20e-02,
30,1.20e-02,
31,-1.20e-02,
32,-1.20e-02,
33,1.60e-02,
34,-8.00e-03,
35,1.60e-02,
36,2.80e-02,
37,-1.60e-02,
38,1.20e-02,
39,-1.20e-02,
40,1.60e-02,
41,-1.20e-02,
42,1.20e-02,
43,-8.00e-03,
44,-8.00e-03,
45,1.60e-02,
46,1.60e-02,
47,-1.20e-02,
48,2.80e-02,
49,-2.00e-02,
50,5.60e-02,
51,-2.80e-02,
52,-1.20e-02,
53,1.60e-02,
54,1.60e-02,
55,-1.20e-02,
56,1.60e-02,
57,-1.20e-02,
58,-1.20e-02,
59,1.60e-02,
60,-1.60e-02,
61,2.00e-02,
62,-1.20e-02,
63,2.00e-02,
64,-1.20e-02,
65,2.00e-02,
66,1.60e-02,
67,-1.60e-02,
68,-1.20e-02,
69,1.60e-02,
70,-1.20e-02,
71,1.60e-02,
72,-1.20e-02,
73,1.60e-02,
74,1.04e-01,
75,-1.20e-02,
76,-1.20e-02,
77,1.60e-02,
78,1.20e-02,
79,-1.20e-02,
80,-8.00e-03,
81,1.60e-02,
82,2.00e-02,
83,-2.40e-02,
84,1.60e-02,
85,-1.20e-02,
86,1.60e-02,
87,-1.20e-02,
88,1.60e-02,
89,-1.20e-02,
90,-1.20e-02,
91,2.00e-02,
92,1.60e-02,
93,-1.20e-02,
94,-1.60e-02,
95,2.00e-02,
96,1.60e-02,
97,-1.60e-02,
98,-1.20e-02,
99,1.60e-02,
100,-8.00e-03,
101,2.80e-02,
102,1.60e-02,
103,-1.20e-02,
104,-1.20e-02,
105,1.60e-02,
106,-1.20e-02,
107,1.60e-02,
108,1.60e-02,
109,-1.20e-02,
110,1.60e-02,
111,-1.20e-02,
112,1.60e-02,
113,-1.20e-02,
114,-1.20e-02,
115,1.60e-02,
116,-1.20e-02,
117,1.60e-02,
118,-2.40e-02,
119,2.40e-02,
120,6.80e-02,
121,-7.60e-02,
122,-8.00e-03,
123,1.60e-02,
124,1.60e-02,
125,-1.60e-02,
126,1.60e-02,
127,-1.20e-02,
128,-8.00e-03,
129,1.60e-02,
130,2.00e-02,
131,-2.00e-02,
132,1.20e-02,
133,-1.20e-02,
134,-1.20e-02,
135,1.60e-02,
136,1.20e-02,
137,-1.20e-02,
138,-1.20e-02,
139,1.60e-02,
140,-1.20e-02,
141,1.60e-02,
142,1.60e-02,
143,-1.60e-02,
144,-6.80e-02,
145,3.20e-02,
146,-1.20e-02,
147,1.60e-02,
148,1.60e-02,
149,-1.60e-02,
150,-1.60e-02,
151,1.60e-02,
152,1.60e-02,
153,-1.60e-02,
154,2.00e-02,
155,-1.20e-02,
156,-1.20e-02,
157,1.60e-02,
158,1.20e-02,
159,-1.20e-02,
160,1.20e-02,
161,-1.20e-02,
162,1.60e-02,
163,-1.20e-02,
164,1.60e-02,
165,-1.20e-02,
166,1.60e-02,
167,-2.40e-02,
168,2.40e-02,
169,-4.80e-02,
170,-1.20e-02,
171,1.60e-02,
172,-1.20e-02,
173,1.60e-02,
174,-1.20e-02,
175,1.60e-02,
176,1.60e-02,
177,-1.60e-02,
178,1.60e-02,
179,-1.20e-02,
180,-1.20e-02,
181,1.60e-02,
182,1.60e-02,
183,-1.60e-02,
184,-1.20e-02,
185,1.60e-02,
186,-1.20e-02,
187,1.60e-02,
188,-1.20e-02,
189,2.00e-02,
190,-2.00e-02,
191,1.60e-02,
192,-1.20e-02,
193,1.60e-02,
194,1.20e-02,
195,-1.20e-02,
196,1.20e-02,
197,-1.20e-02,
198,1.20e-02,
199,-1.20e-02,
200,-2.00e-02,
201,2.40e-02,
202,-1.20e-02,
203,1.60e-02,
204,1.20e-02,
205,-8.00e-03,
206,2.00e-02,
207,-1.60e-02,
208,1.20e-02,
209,-1.20e-02,
210,1.20e-02,
211,-8.00e-03,
212,-1.20e-02,
213,2.00e-02,
214,7.20e-02,
215,-6.40e-02,
216,1.60e-02,
217,-1.60e-02,
218,-1.60e-02,
219,1.60e-02,
220,1.20e-02,
221,-1.20e-02,
222,1.20e-02,
223,-1.20e-02,
224,2.40e-02,
225,-2.00e-02,
226,1.20e-02,
227,-1.20e-02,
228,1.20e-02,
229,-1.60e-02,
230,-1.20e-02,
231,1.60e-02,
232,-1.20e-02,
233,2.00e-02,
234,1.60e-02,
235,-1.60e-02,
236,2.40e-02,
237,-1.60e-02,
238,1.60e-02,
239,-5.60e-02,
240,1.60e-02,
241,-1.20e-02,
242,-2.00e-02,
243,1.20e-02,
244,-1.20e-02,
245,1.60e-02,
246,1.60e-02,
247,-1.20e-02,
248,2.00e-02,
249,-1.60e-02,
250,1.60e-02,
251,-1.20e-02,
252,-1.20e-02,
253,1.60e-02,
254,1.20e-02,
255,-1.20e-02,
256,1.60e-02,
257,-2.00e-02,
258,-1.60e-02,
259,1.60e-02,
260,-1.20e-02,
261,2.80e-02,
262,-1.20e-02,
263,2.80e-02,
264,-1.20e-02,
265,1.60e-02,
266,-1.20e-02,
267,1.60e-02,
268,-1.20e-02,
269,1.60e-02,
270,-1.20e-02,
271,1.60e-02,
272,-1.60e-02,
273,1.60e-02,
274,-1.20e-02,
275,1.60e-02,
276,-1.20e-02,
277,2.80e-02,
278,2.00e-02,
279,-1.20e-02,
280,1.60e-02,
281,-1.60e-02,
282,-1.20e-02,
283,2.00e-02,
284,1.20e-02,
285,-1.20e-02,
286,-5.60e-02,
287,8.00e-02,
288,1.60e-02,
289,-1.20e-02,
290,1.20e-02,
291,-1.20e-02,
292,1.20e-02,
293,-1.20e-02,
294,1.20e-02,
295,-8.00e-03,
296,2.00e-02,
297,-2.00e-02,
298,1.20e-02,
299,-1.20e-02,
300,-1.20e-02,
301,1.60e-02,
302,-1.20e-02,
303,1.60e-02,
304,1.20e-02,
305,-1.20e-02,
306,-1.20e-02,
307,1.60e-02,
308,2.00e-02,
309,-2.00e-02,
310,-7.60e-02,
311,7.60e-02,
312,1.60e-02,
313,-1.60e-02,
314,1.60e-02,
315,-1.20e-02,
316,-1.20e-02,
317,1.60e-02,
318,1.60e-02,
319,-1.60e-02,
320,-1.20e-02,
321,1.60e-02,
322,-1.20e-02,
323,1.60e-02,
324,-1.60e-02,
325,2.00e-02,
326,1.20e-02,
327,-1.20e-02,
328,1.20e-02,
329,-1.20e-02,
330,-1.60e-02,
331,2.00e-02,
332,-1.20e-02,
333,1.20e-02,
334,-6.80e-02,
335,5.20e-02,
336,-1.20e-02,
337,1.60e-02,
338,-1.20e-02,
339,1.60e-02,
340,2.00e-02,
341,-1.60e-02,
342,1.20e-02,
343,-1.60e-02,
344,1.20e-02,
345,-1.60e-02,
346,-1.20e-02,
347,1.60e-02,
348,2.00e-02,
349,-1.20e-02,
350,1.20e-02,
351,-1.20e-02,
352,-1.20e-02,
353,1.60e-02,
354,1.60e-02,
355,-2.00e-02,
356,-1.60e-02,
357,2.00e-02,
358,1.60e-02,
359,-1.60e-02,
360,-1.20e-02,
361,1.60e-02,
362,2.00e-02,
363,-1.20e-02,
364,1.20e-02,
365,-1.60e-02,
366,-2.00e-02,
367,2.00e-02,
368,-4.80e-02,
369,4.00e-02,
370,-8.00e-03,
371,1.60e-02,
372,1.20e-02,
373,-1.20e-02,
374,1.20e-02,
375,-1.20e-02,
376,1.20e-02,
377,-8.00e-03,
378,-2.00e-02,
379,2.00e-02,
380,-5.20e-02,
381,1.60e-02,
382,-8.00e-03,
383,1.60e-02,
384,1.60e-02,
385,-1.20e-02,
386,-8.00e-03,
387,1.60e-02,
388,-1.20e-02,
389,1.60e-02,
390,2.80e-02,
391,-2.40e-02,
392,1.60e-02,
393,-1.20e-02,
394,1.20e-02,
395,-1.20e-02,
396,-1.20e-02,
397,2.00e-02,
398,2.00e-02,
399,-1.60e-02,
400,-1.60e-02,
401,2.00e-02,
402,2.00e-02,
403,-2.80e-02,
404,1.60e-02,
405,-1.20e-02,
406,1.60e-02,
407,-6.80e-02,
408,1.20e-02,
409,-1.20e-02,
410,-8.00e-03,
411,1.60e-02,
412,-8.00e-03,
413,1.60e-02,
414,2.00e-02,
415,-1.20e-02,
416,1.20e-02,
417,-1.20e-02,
418,-1.20e-02,
419,1.60e-02,
420,-1.20e-02,
421,1.60e-02,
422,1.60e-02,
423,-1.20e-02,
424,1.20e-02,
425,-1.20e-02,
426,-1.20e-02,
427,1.60e-02,
428,-1.20e-02,
429,2.00e-02,
430,1.60e-02,
431,-1.20e-02,
432,8.80e-02,
433,-1.20e-02,
434,1.60e-02,
435,-1.20e-02,
436,-1.60e-02,
437,2.00e-02,
438,2.00e-02,
439,-2.00e-02,
440,-1.60e-02,
441,1.60e-02,
442,1.60e-02,
443,-2.00e-02,
444,1.60e-02,
445,-1.60e-02,
446,2.00e-02,
447,-1.20e-02,
448,-8.00e-03,
449,2.00e-02,
450,1.20e-02,
451,-8.00e-03,
452,-8.00e-03,
453,1.60e-02,
454,1.20e-02,
455,-1.20e-02,
456,-8.00e-03,
457,1.60e-02,
458,1.20e-02,
459,-1.20e-02,
460,-8.40e-02,
461,2.00e-02,
462,1.20e-02,
463,-1.20e-02,
464,-1.20e-02,
465,1.60e-02,
466,-1.60e-02,
467,1.60e-02,
468,1.20e-02,
469,-1.60e-02,
470,-1.20e-02,
471,1.60e-02,
472,-1.60e-02,
473,2.40e-02,
474,1.20e-02,
475,-1.20e-02,
476,-1.20e-02,
477,1.20e-02,
478,1.20e-02,
479,-1.20e-02,
480,1.60e-02,
481,-1.20e-02,
482,-1.60e-02,
483,1.60e-02,
484,2.00e-02,
485,-2.00e-02,
486,2.00e-02,
487,-6.40e-02,
488,-1.20e-02,
489,1.60e-02,
490,-1.20e-02,
491,1.60e-02,
492,-8.00e-03,
493,1.20e-02,
494,1.20e-02,
495,-1.20e-02,
496,-2.00e-02,
497,3.60e-02,
498,-8.00e-03,
499,1.60e-02,
500,-8.00e-03,
501,2.00e-02,
502,1.20e-02,
503,-1.20e-02,
504,-8.00e-03,
505,1.60e-02,
506,1.60e-02,
507,-1.60e-02,
508,-2.80e-02,
509,2.40e-02,
510,-1.20e-02,
511,1.60e-02,
512,-1.20e-02,
513,1.60e-02,
514,-1.20e-02,
515,1.20e-02,
516,-1.20e-02,
517,1.60e-02,
518,-1.20e-02,
519,1.60e-02,
520,2.40e-02,
521,-1.60e-02,
522,-1.20e-02,
523,2.00e-02,
524,-1.20e-02,
525,2.00e-02,
526,1.60e-02,
527,-1.60e-02,
528,1.60e-02,
529,-1.20e-02,
530,-1.20e-02,
531,2.00e-02,
532,-1.20e-02,
533,1.60e-02,
534,1.20e-02,
535,-1.20e-02,
536,7.60e-02,
537,-1.60e-02,
538,1.20e-02,
539,-8.00e-03,
540,1.20e-02,
541,-1.20e-02,
542,-1.20e-02,
543,2.40e-02,
544,-1.20e-02,
545,1.20e-02,
546,1.20e-02,
547,-1.20e-02,
548,1.60e-02,
549,-1.20e-02,
550,1.60e-02,
551,-1.20e-02,
552,-1.60e-02,
553,1.60e-02,
554,1.60e-02,
555,-2.40e-02,
556,1.20e-02,
557,-1.20e-02,
558,-1.20e-02,
559,1.60e-02,
560,-1.20e-02,
561,4.80e-02,
562,-1.20e-02,
563,1.60e-02,
564,1.60e-02,
565,-1.20e-02,
566,-2.00e-02,
567,2.80e-02,
568,-8.00e-03,
569,1.60e-02,
570,1.60e-02,
571,-1.20e-02,
572,-1.60e-02,
573,1.60e-02,
574,1.20e-02,
575,-1.20e-02,
576,-1.20e-02,
577,1.60e-02,
578,-2.40e-02,
579,2.80e-02,
580,1.20e-02,
581,-8.00e-03,
582,1.20e-02,
583,-8.00e-03,
584,1.20e-02,
585,-6.40e-02,
586,-8.00e-03,
587,1.20e-02,
588,-8.00e-03,
589,1.60e-02,
590,-2.00e-02,
591,1.60e-02,
592,1.20e-02,
593,-1.20e-02,
594,1.60e-02,
595,-1.20e-02,
596,1.20e-02,
597,-1.20e-02,
598,-1.60e-02,
599,1.60e-02,
600,1.60e-02,
601,-1.60e-02,
602,-1.60e-02,
603,2.00e-02,
604,1.60e-02,
605,-1.20e-02,
606,1.60e-02,
607,-1.60e-02,
608,-1.60e-02,
609,4.40e-02,
610,-1.60e-02,
611,1.60e-02,
612,2.00e-02,
613,-1.20e-02,
614,-2.40e-02,
615,2.40e-02,
616,1.20e-02,
617,-8.00e-03,
618,-8.00e-03,
619,1.20e-02,
620,1.20e-02,
621,-1.20e-02,
622,-1.20e-02,
623,1.60e-02,
624,1.20e-02,
625,-8.00e-03,
626,1.20e-02,
627,-1.60e-02,
628,-1.20e-02,
629,1.60e-02,
630,1.20e-02,
631,-8.00e-03,
632,-8.00e-03,
633,7.60e-02,
634,-1.20e-02,
635,1.60e-02,
636,1.20e-02,
637,-1.60e-02,
638,1.20e-02,
639,-1.20e-02,
640,-1.60e-02,
641,1.60e-02,
642,-1.20e-02,
643,1.60e-02,
644,-1.20e-02,
645,1.60e-02,
646,1.20e-02,
647,-1.60e-02,
648,-1.60e-02,
649,2.40e-02,
650,1.60e-02,
651,-1.60e-02,
652,-1.60e-02,
653,1.60e-02,
654,-1.60e-02,
655,1.60e-02,
656,-1.20e-02,
657,3.20e-02,
658,1.60e-02,
659,-1.20e-02,
660,-1.60e-02,
661,1.60e-02,
662,-8.00e-03,
663,1.20e-02,
664,1.20e-02,
665,-1.20e-02,
666,1.60e-02,
667,-1.60e-02,
668,1.20e-02,
669,-1.20e-02,
670,1.20e-02,
671,-1.20e-02,
672,1.20e-02,
673,-1.20e-02,
674,-1.20e-02,
675,1.20e-02,
676,1.60e-02,
677,-1.20e-02,
678,-1.20e-02,
679,1.60e-02,
680,-3.20e-02,
681,1.08e-01,
682,-1.20e-02,
683,2.00e-02,
684,-2.00e-02,
685,2.40e-02,
686,-1.20e-02,
687,1.60e-02,
688,1.60e-02,
689,-1.60e-02,
690,-1.20e-02,
691,2.00e-02,
692,1.20e-02,
693,-1.60e-02,
694,-1.60e-02,
695,1.60e-02,
696,2.00e-02,
697,-1.60e-02,
698,1.20e-02,
699,-1.20e-02,
700,-8.00e-03,
701,1.60e-02,
702,-8.00e-03,
703,1.20e-02,
704,6.00e-02,
705,-1.20e-02,
706,1.20e-02,
707,-8.00e-03,
708,-1.20e-02,
709,1.60e-02,
710,1.20e-02,
711,-1.20e-02,
712,1.20e-02,
713,-2.00e-02,
714,-1.20e-02,
715,1.60e-02,
716,-8.00e-03,
717,1.60e-02,
718,1.20e-02,
719,-1.60e-02,
720,-2.40e-02,
721,3.60e-02,
722,-1.20e-02,
723,1.20e-02,
724,1.20e-02,
725,-1.20e-02,
726,-1.20e-02,
727,1.60e-02,
728,-1.20e-02,
729,7.60e-02,
730,-1.20e-02,
731,1.60e-02,
732,2.40e-02,
733,-1.60e-02,
734,-1.60e-02,
735,1.60e-02,
736,-1.60e-02,
737,1.60e-02,
738,2.00e-02,
739,-1.20e-02,
740,1.20e-02,
741,-1.60e-02,
742,1.60e-02,
743,-1.20e-02,
744,1.20e-02,
745,-1.20e-02,
746,1.20e-02,
747,-1.20e-02,
748,1.20e-02,
749,-1.20e-02,
750,1.20e-02,
751,-8.00e-03,
752,1.20e-02,
753,-4.40e-02,
754,2.00e-02,
755,-1.60e-02,
756,1.60e-02,
757,-1.20e-02,
758,1.60e-02,
759,-1.60e-02,
760,-1.60e-02,
761,1.60e-02,
762,1.60e-02,
763,-1.20e-02,
764,1.60e-02,
765,-1.20e-02,
766,1.60e-02,
767,-2.00e-02,
768,-1.20e-02,
769,1.60e-02,
770,-1.20e-02,
771,1.60e-02,
772,-1.60e-02,
773,1.60e-02,
774,1.60e-02,
775,-1.60e-02,
776,5.60e-02,
777,-7.20e-02,
778,-1.20e-02,
779,2.00e-02,
780,-1.20e-02,
781,1.60e-02,
782,-1.20e-02,
783,1.60e-02,
784,1.60e-02,
785,-1.20e-02,
786,-8.00e-03,
787,1.20e-02,
788,1.20e-02,
789,-1.20e-02,
790,1.20e-02,
791,-2.80e-02,
792,-1.20e-02,
793,1.20e-02,
794,1.20e-02,
795,-1.20e-02,
796,1.20e-02,
797,-1.60e-02,
798,1.20e-02,
799,-1.20e-02,
800,-7.60e-02,
801,1.60e-02,
802,2.00e-02,
803,-2.00e-02,
804,1.20e-02,
805,-1.20e-02,
806,-1.60e-02,
807,1.60e-02,
808,1.60e-02,
809,-1.20e-02,
810,-1.20e-02,
811,1.60e-02,
812,1.60e-02,
813,-1.20e-02,
814,2.80e-02,
815,-1.60e-02,
816,-1.20e-02,
817,1.60e-02,
818,-1.20e-02,
819,2.00e-02,
820,1.60e-02,
821,-1.60e-02,
822,-1.20e-02,
823,1.60e-02,
824,1.20e-02,
825,-8.80e-02,
826,2.40e-02,
827,-2.00e-02,
828,1.20e-02,
829,-1.20e-02,
830,1.20e-02,
831,-1.20e-02,
832,1.60e-02,
833,-1.20e-02,
834,1.20e-02,
835,-1.20e-02,
836,-1.20e-02,
837,1.60e-02,
838,-1.60e-02,
839,1.60e-02,
840,-1.20e-02,
841,1.60e-02,
842,-1.20e-02,
843,1.60e-02,
844,1.60e-02,
845,-1.20e-02,
846,-2.00e-02,
847,7.20e-02,
848,1.60e-02,
849,-1.60e-02,
850,1.60e-02,
851,-1.20e-02,
852,1.60e-02,
853,-1.20e-02,
854,-1.20e-02,
855,2.00e-02,
856,-1.20e-02,
857,1.60e-02,
858,1.60e-02,
859,-1.60e-02,
860,2.40e-02,
861,-1.60e-02,
862,-1.20e-02,
863,2.00e-02,
864,-1.20e-02,
865,1.60e-02,
866,1.20e-02,
867,-1.20e-02,
868,-1.20e-02,
869,1.60e-02,
870,1.20e-02,
871,-7.20e-02,
872,-1.20e-02,
873,2.00e-02,
874,1.20e-02,
875,-8.00e-03,
876,1.20e-02,
877,-1.20e-02,
878,-1.20e-02,
879,1.60e-02,
880,1.60e-02,
881,-1.20e-02,
882,-1.20e-02,
883,1.60e-02,
884,2.00e-02,
885,-2.00e-02,
886,-1.20e-02,
887,1.60e-02,
888,1.60e-02,
889,-1.60e-02,
890,1.60e-02,
891,-1.20e-02,
892,1.20e-02,
893,-1.20e-02,
894,-2.40e-02,
895,1.24e-01,
896,-2.00e-02,
897,2.40e-02,
898,1.60e-02,
899,-1.60e-02,
900,-1.20e-02,
901,2.00e-02,
902,-1.20e-02,
903,2.00e-02,
904,-1.20e-02,
905,1.60e-02,
906,1.20e-02,
907,-1.20e-02,
908,-8.00e-03,
909,2.40e-02,
910,-8.00e-03,
911,1.60e-02,
912,-1.20e-02,
913,2.00e-02,
914,1.20e-02,
915,-1.20e-02,
916,-1.20e-02,
917,1.60e-02,
918,1.20e-02,
919,-4.80e-02,
920,-1.20e-02,
921,2.00e-02,
922,-1.60e-02,
923,1.60e-02,
924,-1.60e-02,
925,1.60e-02,
926,1.60e-02,
927,-1.60e-02,
928,1.60e-02,
929,-1.60e-02,
930,-1.20e-02,
931,1.60e-02,
932,2.40e-02,
933,-2.40e-02,
934,1.20e-02,
935,-1.20e-02,
936,-1.20e-02,
937,1.60e-02,
938,1.60e-02,
939,-1.60e-02,
940,8.00e-02,
941,-1.60e-02,
942,-1.20e-02,
943,2.00e-02,
944,-1.60e-02,
945,2.40e-02,
946,-1.20e-02,
947,1.60e-02,
948,-1.20e-02,
949,1.60e-02,
950,1.20e-02,
951,-1.20e-02,
952,-1.20e-02,
953,1.60e-02,
954,-1.20e-02,
955,1.60e-02,
956,-1.20e-02,
957,1.60e-02,
958,1.20e-02,
959,-1.20e-02,
960,-1.60e-02,
961,1.60e-02,
962,-1.20e-02,
963,1.20e-02,
964,-1.20e-02,
965,1.60e-02,
966,-8.40e-02,
967,2.00e-02,
968,2.40e-02,
969,-1.20e-02,
970,1.60e-02,
971,-1.20e-02,
972,-8.00e-03,
973,1.60e-02,
974,1.60e-02,
975,-1.20e-02,
976,-1.20e-02,
977,1.60e-02,
978,-2.00e-02,
979,2.00e-02,
980,1.60e-02,
981,-1.20e-02,
982,-1.20e-02,
983,1.60e-02,
984,-1.20e-02,
985,1.60e-02,
986,-8.00e-03,
987,1.60e-02,
988,1.60e-02,
989,-4.40e-02,
990,1.60e-02,
991,-2.00e-02,
992,1.20e-02,
993,-1.20e-02,
994,1.20e-02,
995,-1.20e-02,
996,1.20e-02,
997,-1.20e-02,
998,-8.00e-03,
999,1.20e-02,
1000,1.20e-02,
1001,-1.20e-02,
1002,-2.00e-02,
1003,2.80e-02,
1004,-1.20e-02,
1005,1.60e-02,
1006,1.60e-02,
1007,-1.60e-02,
1008,2.00e-02,
1009,-1.20e-02,
1010,-1.20e-02,
1011,1.60e-02,
1012,2.80e-02,
1013,-8.00e-02,
1014,2.00e-02,
1015,-2.00e-02,
1016,1.60e-02,
1017,-1.20e-02,
1018,-1.20e-02,
1019,2.00e-02,
1020,1.60e-02,
1021,-1.20e-02,
1022,2.00e-02,
1023,-1.60e-02,
1024,-8.00e-03,
1025,2.00e-02,
1026,1.60e-02,
1027,-1.60e-02,
1028,1.60e-02,
1029,-2.00e-02,
1030,1.60e-02,
1031,-1.20e-02,
1032,1.20e-02,
1033,-1.60e-02,
1034,-8.00e-03,
1035,1.60e-02,
1036,1.20e-02,
1037,-1.20e-02,
1038,2.40e-02,
1039,-2.00e-02,
1040,1.20e-02,
1041,-8.00e-03,
1042,1.20e-02,
1043,-8.00e-03,
1044,-8.00e-03,
1045,1.60e-02,
1046,1.20e-02,
1047,-1.20e-02,
1048,1.60e-02,
1049,-1.20e-02,
1050,-1.60e-02,
1051,2.00e-02,
1052,-1.20e-02,
1053,1.60e-02,
1054,-1.60e-02,
1055,1.60e-02,
1056,1.20e-02,
1057,-1.20e-02,
1058,1.20e-02,
1059,-1.20e-02,
1060,1.20e-02,
1061,-2.00e-02,
1062,2.80e-02,
1063,-1.20e-02,
1064,1.60e-02,
1065,-1.20e-02,
1066,-1.20e-02,
1067,1.20e-02,
1068,1.20e-02,
1069,-1.20e-02,
1070,1.60e-02,
1071,-1.20e-02,
1072,1.60e-02,
1073,-1.20e-02,
1074,-2.00e-02,
1075,2.80e-02,
1076,-1.20e-02,
1077,1.20e-02,
1078,-1.20e-02,
1079,1.60e-02,
1080,-8.00e-03,
1081,1.60e-02,
1082,1.20e-02,
1083,-1.20e-02,
1084,-1.20e-02,
1085,1.60e-02,
1086,-2.80e-02,
1087,8.00e-02,
1088,1.20e-02,
1089,-1.20e-02,
1090,1.60e-02,
1091,-1.20e-02,
1092,-1.20e-02,
1093,1.60e-02,
1094,1.60e-02,
1095,-1.20e-02,
1096,1.60e-02,
1097,-1.60e-02,
1098,-1.60e-02,
1099,1.60e-02,
1100,1.20e-02,
1101,-1.60e-02,
1102,2.40e-02,
1103,-1.20e-02,
1104,-1.20e-02,
1105,2.00e-02,
1106,1.60e-02,
1107,-1.60e-02,
1108,1.60e-02,
1109,-6.00e-02,
1110,1.60e-02,
1111,-1.20e-02,
1112,1.60e-02,
1113,-1.20e-02,
1114,1.60e-02,
1115,-1.20e-02,
1116,1.60e-02,
1117,-1.20e-02,
1118,-1.20e-02,
1119,1.60e-02,
1120,2.00e-02,
1121,-1.60e-02,
1122,-1.20e-02,
1123,1.60e-02,
1124,-1.20e-02,
1125,1.60e-02,
1126,2.40e-02,
1127,-1.20e-02,
1128,1.20e-02,
1129,-1.20e-02,
1130,1.20e-02,
1131,-1.20e-02,
1132,-2.00e-02,
1133,2.00e-02,
1134,-5.20e-02,
1135,1.60e-02,
1136,-1.20e-02,
1137,1.60e-02,
1138,1.60e-02,
1139,-1.60e-02,
1140,-1.20e-02,
1141,1.60e-02,
1142,1.20e-02,
1143,-1.20e-02,
1144,-1.20e-02,
1145,2.40e-02,
1146,-1.20e-02,
1147,1.60e-02,
1148,-1.20e-02,
1149,1.60e-02,
1150,1.60e-02,
1151,-1.20e-02,
1152,-1.20e-02,
1153,1.60e-02,
1154,1.60e-02,
1155,-1.20e-02,
1156,2.40e-02,
1157,-1.20e-02,
1158,1.20e-02,
1159,-1.60e-02,
1160,-1.20e-02,
1161,1.60e-02,
1162,1.20e-02,
1163,-1.20e-02,
1164,1.20e-02,
1165,-1.20e-02,
1166,-1.20e-02,
1167,1.60e-02,
1168,-1.20e-02,
1169,1.60e-02,
1170,-1.20e-02,
1171,1.60e-02,
1172,1.60e-02,
1173,-1.20e-02,
1174,-1.60e-02,
1175,1.60e-02,
1176,1.60e-02,
1177,-1.20e-02,
1178,-1.20e-02,
1179,1.60e-02,
1180,2.00e-02,
1181,-8.00e-02,
1182,-1.20e-02,
1183,1.60e-02,
1184,-1.20e-02,
1185,1.60e-02,
1186,-8.00e-03,
1187,1.20e-02,
1188,-1.60e-02,
1189,1.60e-02,
1190,-1.60e-02,
1191,1.60e-02,
1192,2.00e-02,
1193,-1.60e-02,
1194,-1.20e-02,
1195,1.60e-02,
1196,-1.20e-02,
1197,2.40e-02,
1198,1.20e-02,
1199,-1.20e-02,
