Laptop_1/LAPTOP_CHRGR_1_OFF/time domain/NewFile47.csv

X,CH1,Start,Increment,
Sequence,Volt,-1.500000e-01,2.000000e-04
0,1.60e-02,
1,-1.20e-02,
2,1.60e-02,
3,-1.60e-02,
4,-2.00e-02,
5,3.20e-02,
6,-1.20e-02,
7,1.60e-02,
8,-1.60e-02,
9,1.60e-02,
10,7.60e-02,
11,-1.60e-02,
12,-1.20e-02,
13,2.00e-02,
14,1.60e-02,
15,-1.20e-02,
16,2.40e-02,
17,-1.60e-02,
18,2.00e-02,
19,-1.60e-02,
20,1.60e-02,
21,-2.00e-02,
22,-1.60e-02,
23,2.00e-02,
24,1.60e-02,
25,-1.60e-02,
26,-1.60e-02,
27,1.60e-02,
28,1.60e-02,
29,-1.20e-02,
30,-1.60e-02,
31,1.60e-02,
32,1.60e-02,
33,-1.60e-02,
34,1.60e-02,
35,-1.20e-02,
36,-8.40e-02,
37,1.60e-02,
38,1.60e-02,
39,-1.20e-02,
40,2.40e-02,
41,-2.00e-02,
42,1.20e-02,
43,-1.20e-02,
44,-1.20e-02,
45,1.60e-02,
46,1.60e-02,
47,-1.20e-02,
48,-1.20e-02,
49,1.60e-02,
50,2.40e-02,
51,-2.40e-02,
52,-1.20e-02,
53,1.60e-02,
54,1.60e-02,
55,-1.60e-02,
56,-1.20e-02,
57,2.00e-02,
58,1.60e-02,
59,-1.20e-02,
60,4.00e-02,
61,-9.20e-02,
62,2.00e-02,
63,-2.00e-02,
64,-1.60e-02,
65,2.00e-02,
66,2.00e-02,
67,-1.60e-02,
68,1.60e-02,
69,-1.60e-02,
70,-1.20e-02,
71,2.00e-02,
72,-1.20e-02,
73,1.60e-02,
74,1.60e-02,
75,-2.00e-02,
76,1.60e-02,
77,-1.20e-02,
78,1.60e-02,
79,-1.20e-02,
80,-1.20e-02,
81,1.60e-02,
82,-1.20e-02,
83,1.60e-02,
84,1.60e-02,
85,-8.40e-02,
86,1.60e-02,
87,-1.60e-02,
88,-1.20e-02,
89,1.60e-02,
90,-1.60e-02,
91,2.40e-02,
92,-1.20e-02,
93,2.00e-02,
94,-1.20e-02,
95,1.60e-02,
96,1.60e-02,
97,-1.20e-02,
98,-1.20e-02,
99,2.00e-02,
100,-1.60e-02,
101,2.00e-02,
102,1.60e-02,
103,-1.60e-02,
104,-1.60e-02,
105,2.00e-02,
106,2.00e-02,
107,-1.60e-02,
108,-1.60e-02,
109,6.80e-02,
110,2.40e-02,
111,-1.60e-02,
112,-1.20e-02,
113,1.60e-02,
114,-1.20e-02,
115,1.60e-02,
116,1.60e-02,
117,-1.20e-02,
118,-1.20e-02,
119,1.60e-02,
120,2.00e-02,
121,-1.60e-02,
122,2.00e-02,
123,-2.00e-02,
124,1.60e-02,
125,-1.20e-02,
126,-1.20e-02,
127,1.60e-02,
128,1.60e-02,
129,-1.20e-02,
130,1.60e-02,
131,-1.60e-02,
132,1.60e-02,
133,-1.60e-02,
134,7.20e-02,
135,-1.60e-02,
136,-1.20e-02,
137,1.60e-02,
138,-1.60e-02,
139,2.00e-02,
140,-1.20e-02,
141,1.60e-02,
142,-1.20e-02,
143,1.60e-02,
144,-1.60e-02,
145,2.40e-02,
146,1.60e-02,
147,-1.60e-02,
148,-1.20e-02,
149,1.60e-02,
150,-1.60e-02,
151,2.00e-02,
152,-1.60e-02,
153,1.60e-02,
154,1.60e-02,
155,-1.60e-02,
156,2.40e-02,
157,-2.80e-02,
158,-1.20e-02,
159,6.40e-02,
160,1.60e-02,
161,-1.20e-02,
162,1.60e-02,
163,-1.20e-02,
164,1.60e-02,
165,-1.60e-02,
166,1.60e-02,
167,-1.20e-02,
168,2.00e-02,
169,-1.60e-02,
170,-1.20e-02,
171,1.60e-02,
172,2.00e-02,
173,-1.60e-02,
174,2.00e-02,
175,-1.20e-02,
176,1.60e-02,
177,-1.20e-02,
178,-1.20e-02,
179,2.00e-02,
180,2.00e-02,
181,-1.60e-02,
182,1.60e-02,
183,-8.40e-02,
184,-1.60e-02,
185,2.40e-02,
186,1.20e-02,
187,-1.20e-02,
188,-1.20e-02,
189,1.60e-02,
190,-1.60e-02,
191,2.00e-02,
192,2.40e-02,
193,-2.00e-02,
194,-1.20e-02,
195,1.60e-02,
196,-1.20e-02,
197,1.60e-02,
198,1.60e-02,
199,-1.20e-02,
200,1.60e-02,
201,-1.20e-02,
202,-1.60e-02,
203,2.00e-02,
204,1.60e-02,
205,-1.20e-02,
206,1.60e-02,
207,-1.20e-02,
208,4.00e-02,
209,-8.80e-02,
210,1.60e-02,
211,-1.20e-02,
212,1.60e-02,
213,-1.20e-02,
214,1.60e-02,
215,-1.20e-02,
216,4.40e-02,
217,-2.80e-02,
218,1.60e-02,
219,-1.20e-02,
220,-1.20e-02,
221,1.60e-02,
222,1.60e-02,
223,-1.60e-02,
224,-1.20e-02,
225,1.60e-02,
226,1.60e-02,
227,-2.40e-02,
228,1.60e-02,
229,-1.60e-02,
230,1.60e-02,
231,-1.60e-02,
232,2.00e-02,
233,-1.00e-01,
234,-1.20e-02,
235,1.60e-02,
236,-1.60e-02,
237,1.60e-02,
238,-1.20e-02,
239,2.00e-02,
240,-1.20e-02,
241,1.60e-02,
242,1.60e-02,
243,-1.20e-02,
244,1.60e-02,
245,-1.60e-02,
246,-1.20e-02,
247,1.60e-02,
248,-1.20e-02,
249,1.60e-02,
250,2.00e-02,
251,-1.60e-02,
252,-1.60e-02,
253,1.60e-02,
254,-1.20e-02,
255,1.60e-02,
256,-7.20e-02,
257,2.00e-02,
258,1.60e-02,
259,-1.20e-02,
260,-1.60e-02,
261,2.00e-02,
262,2.00e-02,
263,-2.00e-02,
264,-1.20e-02,
265,1.60e-02,
266,-2.00e-02,
267,2.00e-02,
268,1.60e-02,
269,-1.20e-02,
270,-1.60e-02,
271,2.00e-02,
272,1.60e-02,
273,-1.60e-02,
274,1.60e-02,
275,-1.60e-02,
276,1.60e-02,
277,-1.20e-02,
278,-1.60e-02,
279,6.80e-02,
280,-1.20e-02,
281,1.60e-02,
282,-1.20e-02,
283,2.00e-02,
284,1.60e-02,
285,-1.20e-02,
286,-2.40e-02,
287,2.40e-02,
288,1.60e-02,
289,-1.60e-02,
290,1.60e-02,
291,-1.20e-02,
292,1.60e-02,
293,-1.20e-02,
294,-1.20e-02,
295,2.00e-02,
296,2.00e-02,
297,-1.60e-02,
298,2.40e-02,
299,-2.40e-02,
300,-1.20e-02,
301,1.60e-02,
302,1.60e-02,
303,-1.20e-02,
304,-1.20e-02,
305,2.40e-02,
306,-1.20e-02,
307,1.60e-02,
308,-1.60e-02,
309,2.00e-02,
310,-1.20e-02,
311,2.00e-02,
312,-1.60e-02,
313,2.00e-02,
314,-1.20e-02,
315,2.40e-02,
316,-1.60e-02,
317,1.60e-02,
318,-1.20e-02,
319,1.60e-02,
320,-1.60e-02,
321,2.40e-02,
322,-1.60e-02,
323,1.60e-02,
324,-1.20e-02,
325,1.60e-02,
326,1.60e-02,
327,-1.20e-02,
328,-2.40e-02,
329,5.60e-02,
330,-1.20e-02,
331,1.60e-02,
332,2.80e-02,
333,-3.20e-02,
334,-1.20e-02,
335,1.60e-02,
336,1.60e-02,
337,-1.60e-02,
338,1.60e-02,
339,-1.60e-02,
340,1.60e-02,
341,-1.60e-02,
342,-1.20e-02,
343,1.60e-02,
344,-1.60e-02,
345,2.40e-02,
346,-1.20e-02,
347,1.60e-02,
348,-2.00e-02,
349,2.40e-02,
350,2.00e-02,
351,-1.60e-02,
352,7.60e-02,
353,-1.60e-02,
354,1.60e-02,
355,-1.60e-02,
356,-2.40e-02,
357,2.00e-02,
358,2.00e-02,
359,-1.60e-02,
360,-1.20e-02,
361,1.60e-02,
362,1.60e-02,
363,-1.20e-02,
364,1.60e-02,
365,-1.20e-02,
366,-1.20e-02,
367,1.60e-02,
368,-1.20e-02,
369,2.40e-02,
370,-1.20e-02,
371,1.60e-02,
372,1.60e-02,
373,-1.20e-02,
374,1.60e-02,
375,-1.20e-02,
376,4.80e-02,
377,-8.80e-02,
378,1.60e-02,
379,-1.60e-02,
380,-1.20e-02,
381,1.60e-02,
382,-1.20e-02,
383,1.60e-02,
384,2.40e-02,
385,-2.00e-02,
386,-1.20e-02,
387,1.60e-02,
388,-1.20e-02,
389,1.60e-02,
390,-1.20e-02,
391,1.60e-02,
392,-2.40e-02,
393,2.00e-02,
394,-1.20e-02,
395,1.60e-02,
396,1.60e-02,
397,-1.60e-02,
398,-1.60e-02,
399,2.00e-02,
400,2.00e-02,
401,-7.20e-02,
402,-2.40e-02,
403,2.40e-02,
404,-1.20e-02,
405,1.60e-02,
406,-1.20e-02,
407,1.60e-02,
408,1.60e-02,
409,-2.00e-02,
410,-1.20e-02,
411,1.60e-02,
412,-1.20e-02,
413,1.60e-02,
414,-1.20e-02,
415,2.00e-02,
416,-1.20e-02,
417,1.60e-02,
418,1.60e-02,
419,-1.60e-02,
420,-2.40e-02,
421,2.00e-02,
422,-1.20e-02,
423,1.60e-02,
424,-1.20e-02,
425,9.20e-02,
426,-1.60e-02,
427,2.40e-02,
428,-1.60e-02,
429,1.60e-02,
430,-1.20e-02,
431,1.60e-02,
432,2.00e-02,
433,-1.60e-02,
434,1.60e-02,
435,-2.00e-02,
436,1.60e-02,
437,-1.20e-02,
438,-2.00e-02,
439,2.00e-02,
440,-1.20e-02,
441,2.00e-02,
442,-1.20e-02,
443,2.00e-02,
444,-1.20e-02,
445,1.60e-02,
446,-1.20e-02,
447,1.60e-02,
448,5.60e-02,
449,-7.20e-02,
450,1.60e-02,
451,-1.20e-02,
452,2.00e-02,
453,-1.20e-02,
454,2.80e-02,
455,-1.60e-02,
456,-1.20e-02,
457,1.60e-02,
458,-1.20e-02,
459,1.60e-02,
460,-1.60e-02,
461,1.60e-02,
462,1.60e-02,
463,-2.40e-02,
464,-1.20e-02,
465,2.00e-02,
466,1.60e-02,
467,-1.60e-02,
468,-1.20e-02,
469,2.00e-02,
470,2.00e-02,
471,-1.60e-02,
472,1.60e-02,
473,-1.60e-02,
474,-1.20e-02,
475,2.40e-02,
476,1.60e-02,
477,-1.60e-02,
478,-1.20e-02,
479,1.60e-02,
480,2.00e-02,
481,-1.60e-02,
482,1.60e-02,
483,-1.20e-02,
484,-1.20e-02,
485,2.40e-02,
486,-1.20e-02,
487,1.60e-02,
488,1.60e-02,
489,-1.20e-02,
490,-1.60e-02,
491,2.00e-02,
492,1.60e-02,
493,-1.20e-02,
494,1.60e-02,
495,-1.20e-02,
496,3.60e-02,
497,-2.00e-02,
498,-1.20e-02,
499,1.60e-02,
500,-1.20e-02,
501,1.60e-02,
502,1.60e-02,
503,-1.20e-02,
504,-1.20e-02,
505,2.00e-02,
506,1.60e-02,
507,-1.20e-02,
508,-1.60e-02,
509,2.00e-02,
510,-1.20e-02,
511,1.60e-02,
512,1.60e-02,
513,-1.60e-02,
514,-1.60e-02,
515,1.60e-02,
516,-1.20e-02,
517,1.60e-02,
518,-1.60e-02,
519,2.00e-02,
520,-6.80e-02,
521,3.60e-02,
522,-1.20e-02,
523,1.60e-02,
524,2.00e-02,
525,-1.60e-02,
526,1.60e-02,
527,-1.60e-02,
528,1.60e-02,
529,-1.20e-02,
530,1.60e-02,
531,-1.20e-02,
532,-1.60e-02,
533,2.80e-02,
534,-1.20e-02,
535,1.60e-02,
536,-1.20e-02,
537,2.00e-02,
538,1.60e-02,
539,-1.20e-02,
540,1.60e-02,
541,-1.20e-02,
542,1.60e-02,
543,-1.60e-02,
544,-2.00e-02,
545,2.80e-02,
546,-1.20e-02,
547,8.40e-02,
548,-1.20e-02,
549,1.60e-02,
550,1.60e-02,
551,-1.60e-02,
552,1.60e-02,
553,-1.60e-02,
554,1.20e-02,
555,-1.20e-02,
556,1.20e-02,
557,-1.60e-02,
558,-1.20e-02,
559,2.00e-02,
560,2.00e-02,
561,-2.00e-02,
562,1.60e-02,
563,-1.60e-02,
564,-1.20e-02,
565,2.00e-02,
566,2.00e-02,
567,-1.60e-02,
568,2.80e-02,
569,-2.00e-02,
570,-3.20e-02,
571,2.00e-02,
572,1.20e-02,
573,-1.20e-02,
574,-1.60e-02,
575,1.60e-02,
576,1.60e-02,
577,-1.20e-02,
578,2.00e-02,
579,-2.40e-02,
580,1.60e-02,
581,-1.60e-02,
582,1.20e-02,
583,-1.20e-02,
584,1.60e-02,
585,-1.60e-02,
586,-1.20e-02,
587,1.60e-02,
588,-1.60e-02,
589,1.60e-02,
590,-1.60e-02,
591,2.00e-02,
592,1.60e-02,
593,-6.80e-02,
594,-1.20e-02,
595,1.60e-02,
596,2.00e-02,
597,-1.60e-02,
598,-1.20e-02,
599,2.00e-02,
600,2.00e-02,
601,-1.60e-02,
602,2.40e-02,
603,-2.00e-02,
604,1.60e-02,
605,-1.60e-02,
606,-1.60e-02,
607,2.00e-02,
608,-1.60e-02,
609,2.00e-02,
610,-1.20e-02,
611,1.60e-02,
612,1.60e-02,
613,-1.20e-02,
614,2.00e-02,
615,-2.40e-02,
616,4.40e-02,
617,-5.60e-02,
618,2.40e-02,
619,-1.60e-02,
620,1.20e-02,
621,-1.20e-02,
622,-1.20e-02,
623,1.60e-02,
624,-1.20e-02,
625,1.60e-02,
626,-1.20e-02,
627,1.60e-02,
628,1.60e-02,
629,-1.20e-02,
630,-1.20e-02,
631,2.40e-02,
632,1.60e-02,
633,-1.60e-02,
634,1.60e-02,
635,-1.20e-02,
636,-1.20e-02,
637,1.60e-02,
638,3.20e-02,
639,-1.60e-02,
640,1.60e-02,
641,-6.80e-02,
642,-1.60e-02,
643,2.00e-02,
644,-1.20e-02,
645,1.60e-02,
646,-1.60e-02,
647,1.60e-02,
648,1.60e-02,
649,-1.60e-02,
650,2.40e-02,
651,-2.00e-02,
652,-1.20e-02,
653,1.60e-02,
654,-1.60e-02,
655,2.00e-02,
656,1.60e-02,
657,-1.60e-02,
658,1.60e-02,
659,-1.60e-02,
660,1.60e-02,
661,-1.60e-02,
662,-1.20e-02,
663,1.60e-02,
664,1.60e-02,
665,-1.20e-02,
666,7.20e-02,
667,-1.00e-01,
668,-1.20e-02,
669,1.60e-02,
670,-1.20e-02,
671,1.60e-02,
672,1.60e-02,
673,-1.60e-02,
674,-1.20e-02,
675,1.60e-02,
676,-1.20e-02,
677,1.60e-02,
678,1.60e-02,
679,-1.60e-02,
680,-1.20e-02,
681,2.00e-02,
682,-1.60e-02,
683,1.60e-02,
684,-1.60e-02,
685,2.00e-02,
686,-1.60e-02,
687,2.00e-02,
688,1.60e-02,
689,-1.60e-02,
690,6.40e-02,
691,-2.40e-02,
692,-2.00e-02,
693,2.00e-02,
694,1.60e-02,
695,-1.60e-02,
696,-1.20e-02,
697,1.60e-02,
698,-1.20e-02,
699,1.60e-02,
700,1.60e-02,
701,-1.20e-02,
702,1.60e-02,
703,-1.20e-02,
704,1.60e-02,
705,-1.20e-02,
706,-1.20e-02,
707,1.60e-02,
708,3.20e-02,
709,-1.60e-02,
710,1.60e-02,
711,-1.20e-02,
712,-1.20e-02,
713,1.60e-02,
714,1.20e-02,
715,-1.60e-02,
716,-1.20e-02,
717,2.00e-02,
718,-1.20e-02,
719,1.60e-02,
720,-1.60e-02,
721,2.40e-02,
722,-1.20e-02,
723,1.60e-02,
724,1.60e-02,
725,-1.20e-02,
726,-1.60e-02,
727,2.00e-02,
728,1.60e-02,
729,-1.60e-02,
730,-1.60e-02,
731,2.00e-02,
732,1.60e-02,
733,-1.60e-02,
734,1.60e-02,
735,-1.20e-02,
736,-1.20e-02,
737,2.40e-02,
738,-1.20e-02,
739,1.60e-02,
740,1.60e-02,
741,-4.00e-02,
742,-1.20e-02,
743,1.60e-02,
744,2.80e-02,
745,-2.00e-02,
746,-1.20e-02,
747,1.60e-02,
748,-1.20e-02,
749,1.60e-02,
750,-1.20e-02,
751,1.60e-02,
752,-1.20e-02,
753,1.60e-02,
754,-1.60e-02,
755,2.00e-02,
756,-1.60e-02,
757,1.60e-02,
758,-1.20e-02,
759,2.00e-02,
760,-1.20e-02,
761,2.00e-02,
762,2.00e-02,
763,-1.20e-02,
764,-6.80e-02,
765,1.12e-01,
766,-1.20e-02,
767,2.00e-02,
768,-1.20e-02,
769,1.60e-02,
770,-1.60e-02,
771,2.00e-02,
772,2.00e-02,
773,-1.60e-02,
774,1.60e-02,
775,-1.60e-02,
776,-1.20e-02,
777,1.60e-02,
778,-1.60e-02,
779,3.20e-02,
780,1.60e-02,
781,-1.60e-02,
782,-1.20e-02,
783,1.60e-02,
784,1.60e-02,
785,-1.20e-02,
786,-1.20e-02,
787,1.60e-02,
788,1.60e-02,
789,-1.20e-02,
790,1.60e-02,
791,-9.20e-02,
792,1.60e-02,
793,-1.20e-02,
794,-1.20e-02,
795,1.60e-02,
796,1.60e-02,
797,-1.20e-02,
798,-1.20e-02,
799,1.60e-02,
800,1.60e-02,
801,-1.60e-02,
802,-1.60e-02,
803,1.60e-02,
804,1.60e-02,
805,-1.60e-02,
806,1.60e-02,
807,-1.60e-02,
808,-1.20e-02,
809,2.00e-02,
810,-1.60e-02,
811,2.00e-02,
812,1.60e-02,
813,-1.60e-02,
814,4.80e-02,
815,-3.60e-02,
816,2.00e-02,
817,-1.60e-02,
818,-1.20e-02,
819,1.60e-02,
820,1.20e-02,
821,-1.60e-02,
822,-1.20e-02,
823,2.00e-02,
824,-1.20e-02,
825,1.60e-02,
826,2.80e-02,
827,-1.60e-02,
828,-1.20e-02,
829,1.60e-02,
830,-1.20e-02,
831,2.00e-02,
832,1.60e-02,
833,-1.20e-02,
834,1.60e-02,
835,-1.20e-02,
836,-1.20e-02,
837,2.00e-02,
838,6.80e-02,
839,-7.20e-02,
840,-1.60e-02,
841,2.00e-02,
842,1.60e-02,
843,-1.20e-02,
844,-1.20e-02,
845,1.60e-02,
846,-1.20e-02,
847,2.00e-02,
848,-2.00e-02,
849,2.40e-02,
850,-9.20e-02,
851,2.00e-02,
852,2.00e-02,
853,-1.60e-02,
854,-1.20e-02,
855,1.60e-02,
856,1.60e-02,
857,-1.60e-02,
858,1.60e-02,
859,-1.60e-02,
860,2.40e-02,
861,-9.20e-02,
862,-1.60e-02,
863,1.60e-02,
864,-1.20e-02,
865,1.60e-02,
866,1.60e-02,
867,-1.60e-02,
868,-1.20e-02,
869,1.60e-02,
870,1.20e-02,
871,-1.20e-02,
872,1.60e-02,
873,-1.20e-02,
874,1.20e-02,
875,-1.60e-02,
876,1.60e-02,
877,-2.00e-02,
878,1.60e-02,
879,-1.60e-02,
880,1.60e-02,
881,-1.60e-02,
882,1.60e-02,
883,-1.20e-02,
884,-2.40e-02,
885,2.40e-02,
886,-1.20e-02,
887,1.60e-02,
888,-1.20e-02,
889,1.60e-02,
890,1.60e-02,
891,-1.60e-02,
892,-5.20e-02,
893,4.40e-02,
894,2.40e-02,
895,-1.60e-02,
896,2.80e-02,
897,-2.00e-02,
898,-1.60e-02,
899,2.00e-02,
900,-1.20e-02,
901,2.80e-02,
902,-1.20e-02,
903,1.60e-02,
904,-1.20e-02,
905,1.60e-02,
906,-1.20e-02,
907,1.60e-02,
908,1.60e-02,
909,-1.20e-02,
910,1.60e-02,
911,-1.20e-02,
912,2.40e-02,
913,-1.60e-02,
914,-1.20e-02,
915,1.60e-02,
916,1.60e-02,
917,-1.60e-02,
918,1.60e-02,
919,-1.20e-02,
920,-8.00e-02,
921,1.24e-01,
922,-1.60e-02,
923,2.00e-02,
924,-1.20e-02,
925,2.00e-02,
926,2.00e-02,
927,-1.60e-02,
928,-1.60e-02,
929,1.60e-02,
930,-1.20e-02,
931,2.00e-02,
932,1.60e-02,
933,-1.20e-02,
934,1.60e-02,
935,-1.60e-02,
936,-1.60e-02,
937,1.60e-02,
938,-1.60e-02,
939,2.00e-02,
940,-1.20e-02,
941,2.00e-02,
942,-1.60e-02,
943,2.00e-02,
944,-1.20e-02,
945,1.60e-02,
946,2.00e-02,
947,-7.20e-02,
948,-1.20e-02,
949,1.60e-02,
950,-1.20e-02,
951,1.60e-02,
952,-1.20e-02,
953,1.60e-02,
954,-2.00e-02,
955,2.40e-02,
956,1.60e-02,
957,-1.20e-02,
958,1.20e-02,
959,-1.60e-02,
960,-1.20e-02,
961,1.60e-02,
962,-1.20e-02,
963,1.60e-02,
964,-1.20e-02,
965,1.60e-02,
966,-2.40e-02,
967,2.40e-02,
968,1.60e-02,
969,-1.60e-02,
970,1.60e-02,
971,-1.60e-02,
972,-1.60e-02,
973,1.60e-02,
974,7.60e-02,
975,-9.60e-02,
976,-1.60e-02,
977,1.60e-02,
978,1.60e-02,
979,-2.00e-02,
980,-1.20e-02,
981,1.60e-02,
982,1.60e-02,
983,-1.60e-02,
984,-1.20e-02,
985,1.60e-02,
986,1.60e-02,
987,-1.20e-02,
988,1.60e-02,
989,-1.20e-02,
990,-1.20e-02,
991,2.40e-02,
992,-1.20e-02,
993,1.60e-02,
994,1.60e-02,
995,-1.20e-02,
996,-1.20e-02,
997,1.60e-02,
998,1.60e-02,
999,-1.20e-02,
1000,-1.20e-02,
1001,1.04e-01,
1002,1.60e-02,
1003,-1.60e-02,
1004,1.60e-02,
1005,-1.60e-02,
1006,-1.60e-02,
1007,2.00e-02,
1008,2.00e-02,
1009,-1.20e-02,
1010,-1.20e-02,
1011,1.60e-02,
1012,-1.20e-02,
1013,1.60e-02,
1014,2.00e-02,
1015,-1.60e-02,
1016,-1.20e-02,
1017,2.00e-02,
1018,2.00e-02,
1019,-1.60e-02,
1020,-1.20e-02,
1021,2.00e-02,
1022,2.00e-02,
1023,-1.60e-02,
1024,-8.00e-02,
1025,1.00e-01,
1026,-1.20e-02,
1027,1.60e-02,
1028,-1.20e-02,
1029,1.60e-02,
1030,-1.20e-02,
1031,1.60e-02,
1032,-1.20e-02,
1033,1.60e-02,
1034,-1.20e-02,
1035,2.00e-02,
1036,2.40e-02,
1037,-2.00e-02,
1038,1.60e-02,
1039,-1.20e-02,
1040,1.60e-02,
1041,-1.20e-02,
1042,2.00e-02,
1043,-1.20e-02,
1044,-1.20e-02,
1045,1.60e-02,
1046,1.60e-02,
1047,-1.60e-02,
1048,-1.60e-02,
1049,1.60e-02,
1050,-7.20e-02,
1051,4.00e-02,
1052,-1.60e-02,
1053,2.00e-02,
1054,-1.20e-02,
1055,1.60e-02,
1056,-1.20e-02,
1057,1.60e-02,
1058,1.60e-02,
1059,-1.20e-02,
1060,-2.40e-02,
1061,2.40e-02,
1062,-1.20e-02,
1063,2.00e-02,
1064,1.60e-02,
1065,-2.00e-02,
1066,-1.20e-02,
1067,2.00e-02,
1068,-1.20e-02,
1069,1.60e-02,
1070,-1.20e-02,
1071,1.60e-02,
1072,-1.20e-02,
1073,2.00e-02,
1074,-4.00e-02,
1075,9.60e-02,
1076,-1.20e-02,
1077,1.60e-02,
1078,-1.20e-02,
1079,1.60e-02,
1080,-8.00e-03,
1081,1.60e-02,
1082,-1.20e-02,
1083,2.00e-02,
1084,-1.20e-02,
1085,1.60e-02,
1086,-1.60e-02,
1087,2.00e-02,
1088,-2.00e-02,
1089,2.00e-02,
1090,-1.20e-02,
1091,1.60e-02,
1092,1.60e-02,
1093,-1.20e-02,
1094,-1.20e-02,
1095,2.00e-02,
1096,-1.60e-02,
1097,2.80e-02,
1098,-1.20e-02,
1099,6.00e-02,
1100,1.60e-02,
1101,-1.20e-02,
1102,2.00e-02,
1103,-1.60e-02,
1104,-1.20e-02,
1105,2.00e-02,
1106,2.00e-02,
1107,-2.00e-02,
1108,-1.20e-02,
1109,2.00e-02,
1110,1.60e-02,
1111,-1.60e-02,
1112,-1.20e-02,
1113,1.60e-02,
1114,-1.20e-02,
1115,1.60e-02,
1116,-1.20e-02,
1117,1.60e-02,
1118,3.20e-02,
1119,-1.60e-02,
1120,1.60e-02,
1121,-1.20e-02,
1122,6.00e-02,
1123,-9.20e-02,
1124,2.00e-02,
1125,-2.00e-02,
1126,-1.20e-02,
1127,1.60e-02,
1128,-1.20e-02,
1129,1.60e-02,
1130,2.80e-02,
1131,-2.00e-02,
1132,1.60e-02,
1133,-1.20e-02,
1134,1.60e-02,
1135,-1.60e-02,
1136,-1.60e-02,
1137,2.00e-02,
1138,1.60e-02,
1139,-1.20e-02,
1140,-1.20e-02,
1141,1.60e-02,
1142,2.00e-02,
1143,-2.40e-02,
1144,1.60e-02,
1145,-1.60e-02,
1146,1.60e-02,
1147,-1.20e-02,
1148,1.60e-02,
1149,-1.60e-02,
1150,-1.20e-02,
1151,1.60e-02,
1152,1.60e-02,
1153,-1.20e-02,
1154,1.60e-02,
1155,-1.60e-02,
1156,-1.20e-02,
1157,1.60e-02,
1158,-1.60e-02,
1159,2.00e-02,
1160,1.60e-02,
1161,-1.60e-02,
1162,1.60e-02,
1163,-1.20e-02,
1164,-1.60e-02,
1165,1.60e-02,
1166,2.40e-02,
1167,-2.40e-02,
1168,-1.20e-02,
1169,2.00e-02,
1170,1.60e-02,
1171,-1.60e-02,
1172,2.00e-02,
1173,-5.60e-02,
1174,2.00e-02,
1175,-1.20e-02,
1176,-1.20e-02,
1177,2.00e-02,
1178,-1.60e-02,
1179,2.40e-02,
1180,-1.20e-02,
1181,2.00e-02,
1182,-1.20e-02,
1183,2.00e-02,
1184,-1.60e-02,
1185,1.60e-02,
1186,1.60e-02,
1187,-1.20e-02,
1188,-1.60e-02,
1189,2.40e-02,
1190,2.00e-02,
1191,-1.60e-02,
1192,-1.20e-02,
1193,1.60e-02,
1194,1.20e-02,
1195,-1.20e-02,
1196,-1.20e-02,
1197,7.20e-02,
1198,1.60e-02,
1199,-1.60e-02,
