Laptop_1/LAPTOP_CHRGR_1_OFF/time domain/NewFile11.csv

X,CH1,Start,Increment,
Sequence,Volt,-1.500000e-01,2.000000e-04
0,2.80e-02,
1,-2.00e-02,
2,2.04e-01,
3,-1.68e-01,
4,-1.60e-02,
5,2.40e-02,
6,6.40e-02,
7,-8.00e-02,
8,5.60e-02,
9,-7.60e-02,
10,2.00e-02,
11,-1.60e-02,
12,-8.40e-02,
13,6.80e-02,
14,-1.44e-01,
15,2.20e-01,
16,-3.20e-01,
17,1.52e-01,
18,4.00e-02,
19,-5.60e-02,
20,2.80e-02,
21,-2.40e-02,
22,-8.40e-02,
23,1.32e-01,
24,-2.40e-02,
25,6.80e-02,
26,2.40e-02,
27,-2.40e-02,
28,6.00e-02,
29,-6.40e-02,
30,-2.40e-02,
31,2.80e-02,
32,8.80e-02,
33,-6.40e-02,
34,2.80e-02,
35,-1.88e-01,
36,-2.00e-02,
37,2.80e-02,
38,-1.12e-01,
39,2.80e-02,
40,-1.60e-02,
41,2.80e-02,
42,-1.52e-01,
43,1.56e-01,
44,-8.00e-02,
45,3.60e-02,
46,-1.60e-02,
47,2.40e-02,
48,-4.40e-02,
49,9.20e-02,
50,-7.20e-02,
51,7.20e-02,
52,2.80e-02,
53,-2.00e-02,
54,2.16e-01,
55,-1.48e-01,
56,6.00e-02,
57,-7.60e-02,
58,2.40e-02,
59,-2.00e-02,
60,-1.00e-01,
61,1.12e-01,
62,-2.00e-02,
63,2.40e-02,
64,6.00e-02,
65,-1.76e-01,
66,2.80e-02,
67,-4.40e-02,
68,2.40e-02,
69,-4.00e-02,
70,-1.08e-01,
71,5.60e-02,
72,-2.40e-02,
73,2.80e-02,
74,-1.60e-01,
75,2.80e-02,
76,-2.40e-02,
77,6.00e-02,
78,-2.40e-02,
79,2.80e-02,
80,-8.80e-02,
81,1.04e-01,
82,5.20e-02,
83,-7.60e-02,
84,-2.00e-02,
85,2.40e-02,
86,6.80e-02,
87,-5.20e-02,
88,2.40e-02,
89,-4.80e-02,
90,-1.92e-01,
91,9.20e-02,
92,1.72e-01,
93,-1.84e-01,
94,2.80e-02,
95,-2.00e-02,
96,4.00e-02,
97,-5.20e-02,
98,7.60e-02,
99,-5.20e-02,
100,1.60e-01,
101,-1.24e-01,
102,4.80e-02,
103,-6.00e-02,
104,2.40e-02,
105,-2.40e-02,
106,-7.60e-02,
107,3.60e-02,
108,2.40e-02,
109,-6.80e-02,
110,2.80e-02,
111,-2.00e-02,
112,5.20e-02,
113,-1.84e-01,
114,4.80e-02,
115,-6.80e-02,
116,2.80e-02,
117,-2.00e-02,
118,1.52e-01,
119,-7.60e-02,
120,2.80e-02,
121,-2.40e-02,
122,6.00e-02,
123,-6.40e-02,
124,-8.00e-02,
125,4.40e-02,
126,2.80e-02,
127,-2.00e-02,
128,-5.20e-02,
129,6.80e-02,
130,-2.00e-02,
131,2.40e-02,
132,2.48e-01,
133,-2.04e-01,
134,4.40e-02,
135,-7.20e-02,
136,2.80e-02,
137,-2.00e-02,
138,1.44e-01,
139,-1.32e-01,
140,-8.40e-02,
141,4.80e-02,
142,2.80e-02,
143,-2.40e-02,
144,-4.80e-02,
145,5.60e-02,
146,4.80e-02,
147,-4.80e-02,
148,2.40e-02,
149,-2.00e-02,
150,-1.88e-01,
151,4.40e-02,
152,4.00e-02,
153,-4.80e-02,
154,-2.00e-02,
155,6.00e-02,
156,-2.40e-02,
157,1.32e-01,
158,7.20e-02,
159,-2.00e-02,
160,6.40e-02,
161,-7.60e-02,
162,-2.40e-02,
163,3.20e-02,
164,1.52e-01,
165,-1.04e-01,
166,5.20e-02,
167,-7.60e-02,
168,-2.00e-02,
169,2.80e-02,
170,2.24e-01,
171,-2.00e-01,
172,-3.20e-02,
173,5.20e-02,
174,-1.60e-02,
175,2.40e-02,
176,1.52e-01,
177,-7.60e-02,
178,-6.80e-02,
179,4.00e-02,
180,3.20e-02,
181,-2.80e-02,
182,7.20e-02,
183,-8.80e-02,
184,-2.00e-02,
185,2.80e-02,
186,-6.00e-02,
187,6.80e-02,
188,-1.60e-02,
189,2.00e-01,
190,-3.20e-02,
191,2.40e-02,
192,-1.60e-02,
193,5.20e-02,
194,2.00e-02,
195,-2.00e-02,
196,1.12e-01,
197,-1.52e-01,
198,2.40e-02,
199,-5.20e-02,
200,-2.00e-02,
201,2.80e-02,
202,5.60e-02,
203,-7.20e-02,
204,7.20e-02,
205,-7.60e-02,
206,-2.00e-02,
207,2.40e-02,
208,2.28e-01,
209,-1.88e-01,
210,5.60e-02,
211,-5.60e-02,
212,2.40e-02,
213,-1.60e-02,
214,-1.08e-01,
215,7.60e-02,
216,2.40e-02,
217,-2.00e-02,
218,6.80e-02,
219,-8.00e-02,
220,-5.20e-02,
221,6.00e-02,
222,-2.00e-02,
223,2.80e-02,
224,-6.80e-02,
225,4.40e-02,
226,2.40e-02,
227,-5.20e-02,
228,1.72e-01,
229,-2.40e-02,
230,3.20e-02,
231,-5.20e-02,
232,2.80e-02,
233,-2.00e-02,
234,1.08e-01,
235,-1.52e-01,
236,-3.20e-02,
237,6.00e-02,
238,3.20e-02,
239,-2.00e-02,
240,9.60e-02,
241,-8.40e-02,
242,7.20e-02,
243,-6.40e-02,
244,2.80e-02,
245,-2.40e-02,
246,2.20e-01,
247,-2.20e-01,
248,-2.40e-02,
249,3.20e-02,
250,6.00e-02,
251,-6.40e-02,
252,1.44e-01,
253,-9.20e-02,
254,1.16e-01,
255,-1.48e-01,
256,3.20e-02,
257,-5.60e-02,
258,-1.60e-02,
259,2.40e-02,
260,3.20e-02,
261,-6.00e-02,
262,-5.20e-02,
263,5.60e-02,
264,-2.40e-02,
265,2.40e-02,
266,1.72e-01,
267,-1.72e-01,
268,6.00e-02,
269,-2.40e-02,
270,2.00e-02,
271,-2.40e-02,
272,-9.60e-02,
273,1.24e-01,
274,-4.00e-02,
275,3.60e-02,
276,-1.60e-02,
277,2.40e-02,
278,-2.80e-02,
279,5.20e-02,
280,-2.24e-01,
281,4.40e-02,
282,-5.60e-02,
283,6.40e-02,
284,1.64e-01,
285,-1.92e-01,
286,2.80e-02,
287,-2.40e-02,
288,-4.80e-02,
289,3.60e-02,
290,2.40e-02,
291,-2.00e-02,
292,1.48e-01,
293,-1.96e-01,
294,6.40e-02,
295,-6.40e-02,
296,-1.60e-02,
297,2.40e-02,
298,-6.40e-02,
299,5.60e-02,
300,-8.00e-02,
301,7.60e-02,
302,-1.60e-02,
303,2.40e-02,
304,-1.80e-01,
305,2.40e-02,
306,-2.28e-01,
307,3.20e-02,
308,-1.60e-02,
309,2.40e-02,
310,1.72e-01,
311,-1.16e-01,
312,-1.60e-02,
313,2.40e-02,
314,-3.20e-02,
315,2.40e-02,
316,-2.00e-02,
317,7.20e-02,
318,-2.40e-02,
319,2.80e-02,
320,8.40e-02,
321,-9.60e-02,
322,-2.00e-02,
323,3.20e-02,
324,-1.36e-01,
325,1.44e-01,
326,-5.60e-02,
327,4.40e-02,
328,2.40e-02,
329,-2.80e-02,
330,-1.04e-01,
331,1.40e-01,
332,-6.00e-02,
333,5.60e-02,
334,-2.00e-02,
335,2.40e-02,
336,6.40e-02,
337,-6.00e-02,
338,7.20e-02,
339,-7.20e-02,
340,2.40e-02,
341,-2.00e-02,
342,2.40e-02,
343,-2.44e-01,
344,3.60e-02,
345,-4.40e-02,
346,-1.60e-02,
347,2.40e-02,
348,-7.60e-02,
349,1.68e-01,
350,2.80e-02,
351,-2.40e-02,
352,-4.00e-02,
353,6.00e-02,
354,-2.00e-02,
355,2.40e-02,
356,-4.40e-02,
357,4.00e-02,
358,-1.60e-02,
359,9.20e-02,
360,-2.40e-02,
361,2.40e-02,
362,1.84e-01,
363,-1.96e-01,
364,-4.00e-02,
365,6.40e-02,
366,2.40e-02,
367,-2.80e-02,
368,9.20e-02,
369,-1.36e-01,
370,6.40e-02,
371,-7.20e-02,
372,-2.00e-02,
373,2.80e-02,
374,6.40e-02,
375,-6.00e-02,
376,2.40e-02,
377,-7.60e-02,
378,-5.60e-02,
379,6.80e-02,
380,-2.24e-01,
381,2.56e-01,
382,-7.60e-02,
383,2.56e-01,
384,-2.40e-02,
385,5.20e-02,
386,-1.60e-02,
387,1.04e-01,
388,-2.40e-02,
389,1.80e-01,
390,-1.60e-02,
391,3.60e-02,
392,-2.00e-02,
393,3.20e-02,
394,-1.60e-02,
395,6.80e-02,
396,-3.20e-02,
397,8.40e-02,
398,3.20e-02,
399,-2.40e-02,
400,-1.76e-01,
401,1.36e-01,
402,-4.00e-02,
403,5.20e-02,
404,2.40e-02,
405,-2.40e-02,
406,-1.28e-01,
407,1.52e-01,
408,-2.08e-01,
409,6.80e-02,
410,-2.40e-02,
411,2.80e-02,
412,6.40e-02,
413,-4.80e-02,
414,2.00e-02,
415,-2.00e-02,
416,7.60e-02,
417,-6.40e-02,
418,2.40e-02,
419,-2.40e-02,
420,-1.52e-01,
421,2.80e-02,
422,5.60e-02,
423,-3.60e-02,
424,-1.60e-02,
425,2.00e-02,
426,-1.04e-01,
427,1.36e-01,
428,-3.60e-02,
429,7.60e-02,
430,2.80e-02,
431,-2.00e-02,
432,2.80e-02,
433,-1.12e-01,
434,9.60e-02,
435,-4.80e-02,
436,-1.60e-02,
437,2.80e-02,
438,1.28e-01,
439,-2.40e-02,
440,6.00e-02,
441,-4.00e-02,
442,2.80e-02,
443,-2.40e-02,
444,-2.08e-01,
445,1.84e-01,
446,2.80e-02,
447,-2.80e-02,
448,5.20e-02,
449,-4.40e-02,
450,-9.60e-02,
451,6.80e-02,
452,-2.80e-02,
453,3.20e-02,
454,9.20e-02,
455,-6.00e-02,
456,-9.60e-02,
457,1.72e-01,
458,2.48e-01,
459,-1.48e-01,
460,5.20e-02,
461,-4.00e-02,
462,-1.60e-02,
463,2.80e-02,
464,9.60e-02,
465,-4.00e-02,
466,3.20e-02,
467,-4.80e-02,
468,-2.40e-02,
469,2.40e-02,
470,2.40e-02,
471,-3.60e-02,
472,8.00e-02,
473,-4.80e-02,
474,2.00e-02,
475,-2.00e-02,
476,2.40e-02,
477,-2.68e-01,
478,-5.60e-02,
479,4.00e-02,
480,2.40e-02,
481,-2.40e-02,
482,-2.12e-01,
483,2.16e-01,
484,2.40e-02,
485,-2.40e-02,
486,4.80e-02,
487,-7.20e-02,
488,7.60e-02,
489,-4.00e-02,
490,-2.40e-02,
491,2.80e-02,
492,-6.80e-02,
493,6.40e-02,
494,3.20e-02,
495,-2.40e-02,
496,1.84e-01,
497,-1.60e-01,
498,4.40e-02,
499,-6.40e-02,
500,2.00e-02,
501,-2.00e-02,
502,-1.04e-01,
503,1.12e-01,
504,-1.60e-02,
505,4.40e-02,
506,2.40e-02,
507,-2.00e-02,
508,-2.40e-02,
509,6.00e-02,
510,6.40e-02,
511,-4.40e-02,
512,2.40e-02,
513,-2.00e-02,
514,2.76e-01,
515,-3.60e-02,
516,-2.40e-02,
517,2.80e-02,
518,-3.60e-02,
519,4.80e-02,
520,-5.20e-02,
521,8.40e-02,
522,-2.00e-01,
523,1.28e-01,
524,1.00e-01,
525,-5.20e-02,
526,-2.40e-02,
527,2.80e-02,
528,8.40e-02,
529,-4.00e-02,
530,-7.20e-02,
531,6.00e-02,
532,2.80e-02,
533,-2.40e-02,
534,-2.04e-01,
535,2.76e-01,
536,-6.80e-02,
537,4.80e-02,
538,-2.00e-02,
539,2.40e-02,
540,-1.88e-01,
541,2.44e-01,
542,-3.20e-02,
543,4.00e-02,
544,2.80e-02,
545,-2.00e-02,
546,2.00e-02,
547,-5.20e-02,
548,2.00e-02,
549,-1.60e-02,
550,-9.60e-02,
551,2.40e-02,
552,2.00e-02,
553,-1.72e-01,
554,4.00e-02,
555,-1.60e-02,
556,-5.60e-02,
557,2.40e-02,
558,2.80e-02,
559,-1.60e-02,
560,-2.16e-01,
561,1.32e-01,
562,3.60e-02,
563,-7.60e-02,
564,2.40e-02,
565,-2.40e-02,
566,4.40e-02,
567,-4.80e-02,
568,-6.00e-02,
569,7.60e-02,
570,3.20e-02,
571,-3.20e-02,
572,-2.04e-01,
573,1.28e-01,
574,-4.00e-02,
575,5.60e-02,
576,2.80e-02,
577,-2.40e-02,
578,-1.92e-01,
579,1.40e-01,
580,-4.80e-02,
581,8.80e-02,
582,2.40e-02,
583,-2.40e-02,
584,-1.60e-02,
585,6.00e-02,
586,-2.00e-02,
587,2.40e-02,
588,8.80e-02,
589,-6.40e-02,
590,-2.00e-02,
591,2.00e-02,
592,2.80e-01,
593,-1.60e-02,
594,4.80e-02,
595,-4.40e-02,
596,-2.00e-02,
597,2.80e-02,
598,-1.48e-01,
599,3.20e-02,
600,-8.40e-02,
601,5.60e-02,
602,2.40e-02,
603,-2.00e-02,
604,-6.80e-02,
605,8.00e-02,
606,-5.60e-02,
607,6.80e-02,
608,-1.32e-01,
609,2.52e-01,
610,-1.40e-01,
611,2.36e-01,
612,-2.80e-02,
613,4.80e-02,
614,-2.40e-02,
615,3.20e-02,
616,-1.00e-01,
617,1.48e-01,
618,-2.80e-02,
619,3.20e-02,
620,-2.80e-02,
621,6.00e-02,
622,-2.00e-02,
623,4.00e-02,
624,-2.00e-02,
625,2.40e-02,
626,-4.40e-02,
627,7.60e-02,
628,-2.00e-02,
629,2.00e-02,
630,2.00e-02,
631,-1.04e-01,
632,4.40e-02,
633,-6.00e-02,
634,-1.60e-02,
635,4.00e-02,
636,9.20e-02,
637,-1.28e-01,
638,-6.00e-02,
639,2.40e-02,
640,2.40e-02,
641,-2.00e-02,
642,-5.20e-02,
643,5.20e-02,
644,-6.80e-02,
645,8.00e-02,
646,2.80e-02,
647,-2.40e-02,
648,-1.76e-01,
649,1.84e-01,
650,-4.40e-02,
651,5.20e-02,
652,2.80e-02,
653,-2.80e-02,
654,9.60e-02,
655,-7.60e-02,
656,2.80e-02,
657,-2.40e-02,
658,-6.40e-02,
659,5.20e-02,
660,2.80e-02,
661,-2.64e-01,
662,2.40e-02,
663,-2.00e-02,
664,-6.80e-02,
665,5.20e-02,
666,-2.00e-02,
667,2.00e-02,
668,1.72e-01,
669,-2.00e-02,
670,4.00e-02,
671,-3.60e-02,
672,-1.60e-02,
673,2.40e-02,
674,1.60e-01,
675,-1.04e-01,
676,5.20e-02,
677,-5.20e-02,
678,-2.00e-02,
679,2.00e-02,
680,8.40e-02,
681,-4.80e-02,
682,6.80e-02,
683,-1.00e-01,
684,1.36e-01,
685,-5.20e-02,
686,-2.48e-01,
687,3.12e-01,
688,-3.60e-02,
689,3.60e-02,
690,-2.80e-02,
691,2.80e-02,
692,-1.48e-01,
693,1.68e-01,
694,1.04e-01,
695,-7.20e-02,
696,8.00e-02,
697,-4.80e-02,
698,-2.40e-02,
699,3.20e-02,
700,-3.20e-02,
701,5.20e-02,
702,5.60e-02,
703,-5.60e-02,
704,2.40e-02,
705,-2.40e-02,
706,3.20e-02,
707,-2.04e-01,
708,4.80e-02,
709,-4.80e-02,
710,2.00e-02,
711,-2.00e-02,
712,-6.40e-02,
713,2.36e-01,
714,2.40e-02,
715,-4.40e-02,
716,-2.00e-02,
717,2.40e-02,
718,-6.40e-02,
719,2.40e-02,
720,-1.60e-02,
721,2.00e-02,
722,7.60e-02,
723,-1.00e-01,
724,2.00e-01,
725,-1.84e-01,
726,2.40e-02,
727,-2.40e-02,
728,-6.40e-02,
729,8.00e-02,
730,2.80e-02,
731,-4.80e-02,
732,1.04e-01,
733,-1.12e-01,
734,-1.48e-01,
735,6.00e-02,
736,-2.00e-02,
737,3.20e-02,
738,-6.00e-02,
739,5.60e-02,
740,-6.40e-02,
741,7.60e-02,
742,-2.40e-02,
743,2.80e-02,
744,1.80e-01,
745,-2.80e-02,
746,-2.40e-02,
747,3.60e-02,
748,-1.60e-02,
749,2.40e-02,
750,8.00e-02,
751,-1.24e-01,
752,-1.60e-02,
753,5.20e-02,
754,3.20e-02,
755,-2.00e-02,
756,-2.00e-02,
757,7.20e-02,
758,-1.28e-01,
759,2.40e-02,
760,6.80e-02,
761,-6.80e-02,
762,2.80e-02,
763,-8.00e-02,
764,1.76e-01,
765,-1.72e-01,
766,4.80e-02,
767,-6.40e-02,
768,-2.40e-02,
769,2.80e-02,
770,2.12e-01,
771,-2.16e-01,
772,6.80e-02,
773,-6.00e-02,
774,-2.00e-02,
775,2.80e-02,
776,4.00e-02,
777,-1.12e-01,
778,8.00e-02,
779,-8.00e-02,
780,2.40e-02,
781,-2.00e-02,
782,2.28e-01,
783,-1.36e-01,
784,6.00e-02,
785,-6.00e-02,
786,-2.00e-02,
787,3.20e-02,
788,2.80e-01,
789,-1.64e-01,
790,-1.60e-02,
791,2.00e-02,
792,-7.20e-02,
793,5.60e-02,
794,4.80e-02,
795,-6.40e-02,
796,-2.00e-02,
797,2.40e-02,
798,6.80e-02,
799,-6.40e-02,
800,2.00e-02,
801,-1.60e-02,
802,2.20e-01,
803,-1.92e-01,
804,-3.60e-02,
805,5.20e-02,
806,-1.60e-02,
807,2.00e-02,
808,1.32e-01,
809,-1.40e-01,
810,1.96e-01,
811,-6.80e-02,
812,-2.40e-02,
813,2.40e-02,
814,-7.60e-02,
815,4.40e-02,
816,6.80e-02,
817,-8.00e-02,
818,-1.60e-02,
819,2.80e-02,
820,2.68e-01,
821,-1.56e-01,
822,-2.00e-02,
823,4.40e-02,
824,4.00e-02,
825,-2.00e-02,
826,-2.80e-02,
827,2.04e-01,
828,1.04e-01,
829,-2.40e-02,
830,-3.20e-02,
831,4.40e-02,
832,2.40e-02,
833,-1.60e-02,
834,6.40e-02,
835,-1.80e-01,
836,8.00e-02,
837,-6.40e-02,
838,-2.00e-02,
839,2.40e-02,
840,1.32e-01,
841,-1.16e-01,
842,-6.00e-02,
843,5.20e-02,
844,-1.60e-02,
845,2.40e-02,
846,2.52e-01,
847,-1.88e-01,
848,-6.40e-02,
849,6.00e-02,
850,2.80e-02,
851,-2.80e-02,
852,1.28e-01,
853,-5.60e-02,
854,2.80e-02,
855,-2.40e-02,
856,7.60e-02,
857,-1.24e-01,
858,-2.00e-02,
859,3.20e-02,
860,2.00e-01,
861,-2.12e-01,
862,4.00e-02,
863,-4.80e-02,
864,-2.40e-02,
865,2.80e-02,
866,-1.16e-01,
867,1.52e-01,
868,5.20e-02,
869,-4.00e-02,
870,2.80e-02,
871,-1.60e-02,
872,-1.60e-02,
873,7.20e-02,
874,7.60e-02,
875,-1.00e-01,
876,2.00e-02,
877,-2.00e-02,
878,2.20e-01,
879,-1.76e-01,
880,5.20e-02,
881,-1.04e-01,
882,-1.60e-02,
883,2.40e-02,
884,2.80e-01,
885,-2.04e-01,
886,-1.96e-01,
887,5.60e-02,
888,6.00e-02,
889,-6.40e-02,
890,1.00e-01,
891,-6.00e-02,
892,2.80e-02,
893,-2.00e-02,
894,6.00e-02,
895,-6.40e-02,
896,-2.40e-02,
897,2.80e-02,
898,-1.92e-01,
899,2.48e-01,
900,-6.40e-02,
901,6.80e-02,
902,-2.00e-02,
903,3.20e-02,
904,1.60e-01,
905,-1.44e-01,
906,-4.40e-02,
907,8.80e-02,
908,-2.00e-02,
909,2.40e-02,
910,7.60e-02,
911,-4.80e-02,
912,2.40e-02,
913,-2.40e-02,
914,-6.00e-02,
915,6.00e-02,
916,-1.60e-02,
917,2.20e-01,
918,2.40e-02,
919,-2.40e-02,
920,-8.40e-02,
921,7.20e-02,
922,2.40e-02,
923,-2.00e-02,
924,2.36e-01,
925,-1.80e-01,
926,6.40e-02,
927,-6.00e-02,
928,2.40e-02,
929,-2.80e-02,
930,9.60e-02,
931,-6.80e-02,
932,6.80e-02,
933,-9.20e-02,
934,-1.36e-01,
935,4.00e-02,
936,-1.64e-01,
937,1.52e-01,
938,3.20e-02,
939,-5.20e-02,
940,-1.60e-02,
941,2.80e-02,
942,2.40e-01,
943,-2.80e-02,
944,2.40e-02,
945,-2.40e-02,
946,-6.00e-02,
947,4.80e-02,
948,3.20e-02,
949,-5.20e-02,
950,3.20e-02,
951,-2.40e-02,
952,-1.12e-01,
953,9.20e-02,
954,-2.40e-02,
955,2.40e-02,
956,-3.28e-01,
957,2.40e-02,
958,-6.40e-02,
959,4.80e-02,
960,1.64e-01,
961,-3.60e-02,
962,-1.68e-01,
963,2.48e-01,
964,-6.80e-02,
965,6.00e-02,
966,-2.00e-02,
967,2.40e-02,
968,-4.80e-02,
969,8.40e-02,
970,-2.00e-02,
971,2.40e-02,
972,-8.00e-02,
973,9.20e-02,
974,-2.00e-02,
975,2.40e-02,
976,-1.28e-01,
977,2.32e-01,
978,-4.80e-02,
979,5.60e-02,
980,-2.00e-02,
981,2.80e-02,
982,1.60e-01,
983,-1.72e-01,
984,-4.00e-02,
985,8.40e-02,
986,-1.60e-02,
987,2.80e-02,
988,-1.60e-02,
989,7.60e-02,
990,2.80e-02,
991,-7.60e-02,
992,-1.60e-02,
993,2.80e-02,
994,-2.24e-01,
995,1.44e-01,
996,2.80e-02,
997,-6.00e-02,
998,2.40e-02,
999,-2.00e-02,
1000,2.24e-01,
1001,-1.44e-01,
1002,2.40e-02,
1003,-4.40e-02,
1004,7.20e-02,
1005,-4.40e-02,
1006,-1.60e-02,
1007,2.40e-02,
1008,-1.04e-01,
1009,1.24e-01,
1010,9.20e-02,
1011,-7.60e-02,
1012,2.80e-02,
1013,-2.00e-02,
1014,-1.72e-01,
1015,1.72e-01,
1016,-6.80e-02,
1017,6.00e-02,
1018,2.80e-02,
1019,-2.00e-02,
1020,-1.88e-01,
1021,2.00e-01,
1022,-2.00e-02,
1023,2.80e-02,
1024,-5.20e-02,
1025,8.40e-02,
1026,6.00e-02,
1027,-4.00e-02,
1028,2.80e-02,
1029,-2.80e-02,
1030,1.08e-01,
1031,-2.40e-02,
1032,2.80e-02,
1033,-2.00e-02,
1034,-1.80e-01,
1035,2.36e-01,
1036,-4.80e-02,
1037,4.40e-02,
1038,-1.60e-02,
1039,2.40e-02,
1040,1.80e-01,
1041,-2.08e-01,
1042,6.00e-02,
1043,-6.80e-02,
1044,-1.60e-02,
1045,2.40e-02,
1046,8.40e-02,
1047,-8.80e-02,
1048,-1.60e-02,
1049,2.40e-02,
1050,1.00e-01,
1051,-8.40e-02,
1052,-2.32e-01,
1053,1.12e-01,
1054,2.80e-02,
1055,-2.40e-02,
1056,6.40e-02,
1057,-6.00e-02,
1058,-2.00e-02,
1059,2.80e-02,
1060,2.00e-01,
1061,-2.24e-01,
1062,2.80e-02,
1063,-6.40e-02,
1064,2.00e-02,
1065,-2.00e-02,
1066,2.40e-02,
1067,-6.40e-02,
1068,-2.00e-02,
1069,9.60e-02,
1070,2.80e-02,
1071,-2.00e-02,
1072,2.52e-01,
1073,-2.80e-02,
1074,-1.60e-02,
1075,5.20e-02,
1076,7.20e-02,
1077,-2.40e-02,
1078,2.80e-02,
1079,-2.40e-02,
1080,-1.96e-01,
1081,2.16e-01,
1082,8.00e-02,
1083,-6.40e-02,
1084,2.16e-01,
1085,-1.84e-01,
1086,-1.16e-01,
1087,8.80e-02,
1088,-7.20e-02,
1089,9.20e-02,
1090,2.00e-02,
1091,-2.00e-02,
1092,2.56e-01,
1093,-1.72e-01,
1094,-5.60e-02,
1095,8.80e-02,
1096,-2.00e-02,
1097,2.40e-02,
1098,-1.80e-01,
1099,2.04e-01,
1100,-2.40e-02,
1101,2.80e-02,
1102,-7.60e-02,
1103,6.00e-02,
1104,2.80e-02,
1105,-1.60e-02,
1106,8.00e-02,
1107,-8.00e-02,
1108,-8.80e-02,
1109,4.00e-02,
1110,2.00e-02,
1111,-2.00e-02,
1112,1.60e-01,
1113,-3.20e-02,
1114,-2.00e-02,
1115,8.40e-02,
1116,2.80e-02,
1117,-2.40e-02,
1118,-1.92e-01,
1119,2.20e-01,
1120,-2.00e-02,
1121,3.60e-02,
1122,6.40e-02,
1123,-6.00e-02,
1124,-8.00e-02,
1125,8.00e-02,
1126,-1.60e-02,
1127,2.40e-02,
1128,8.40e-02,
1129,-8.40e-02,
1130,-1.60e-02,
1131,2.40e-02,
1132,1.76e-01,
1133,-2.16e-01,
1134,2.48e-01,
1135,-2.12e-01,
1136,-1.60e-02,
1137,2.40e-02,
1138,1.72e-01,
1139,-6.40e-02,
1140,7.60e-02,
1141,-9.60e-02,
1142,2.80e-02,
1143,-2.40e-02,
1144,-1.60e-02,
1145,1.12e-01,
1146,-1.60e-02,
1147,2.40e-02,
1148,7.60e-02,
1149,-7.60e-02,
1150,-1.60e-02,
1151,2.80e-02,
1152,-1.64e-01,
1153,2.04e-01,
1154,4.80e-02,
1155,-6.80e-02,
1156,2.80e-02,
1157,-2.40e-02,
1158,-1.24e-01,
1159,2.20e-01,
1160,7.20e-02,
1161,-4.80e-02,
1162,3.20e-02,
1163,-2.40e-02,
1164,-3.60e-02,
1165,8.00e-02,
1166,2.40e-02,
1167,-2.00e-02,
1168,9.60e-02,
1169,-1.00e-01,
1170,2.92e-01,
1171,-2.08e-01,
1172,-1.60e-02,
1173,2.00e-02,
1174,-6.00e-02,
1175,4.40e-02,
1176,-2.00e-02,
1177,2.40e-02,
1178,-1.48e-01,
1179,1.32e-01,
1180,1.32e-01,
1181,-8.80e-02,
1182,2.40e-02,
1183,-2.40e-02,
1184,2.80e-02,
1185,-5.60e-02,
1186,-4.80e-02,
1187,7.20e-02,
1188,2.40e-02,
1189,-2.00e-02,
1190,-2.00e-02,
1191,2.16e-01,
1192,-2.40e-02,
1193,2.80e-02,
1194,-5.20e-02,
1195,4.00e-02,
1196,2.80e-02,
1197,-2.40e-02,
1198,-1.36e-01,
1199,4.40e-02,
