Laptop_1/LAPTOP_CHRGR_1_OFF/time domain/NewFile28.csv

X,CH1,Start,Increment,
Sequence,Volt,-1.500000e-01,2.000000e-04
0,-1.60e-02,
1,1.60e-02,
2,-8.00e-03,
3,1.60e-02,
4,-1.20e-02,
5,2.00e-02,
6,2.00e-02,
7,-1.20e-02,
8,1.60e-02,
9,-1.20e-02,
10,-1.20e-02,
11,1.60e-02,
12,6.80e-02,
13,-6.40e-02,
14,-8.00e-03,
15,1.60e-02,
16,1.60e-02,
17,-1.20e-02,
18,1.20e-02,
19,-8.00e-03,
20,-8.00e-03,
21,2.80e-02,
22,-8.00e-03,
23,1.60e-02,
24,1.20e-02,
25,-1.20e-02,
26,-8.00e-03,
27,1.60e-02,
28,-1.20e-02,
29,1.60e-02,
30,-1.20e-02,
31,1.60e-02,
32,-1.20e-02,
33,3.60e-02,
34,-1.20e-02,
35,1.60e-02,
36,1.20e-02,
37,-1.20e-02,
38,-1.12e-01,
39,1.60e-02,
40,1.60e-02,
41,-1.20e-02,
42,-1.20e-02,
43,2.00e-02,
44,-1.60e-02,
45,2.00e-02,
46,1.60e-02,
47,-1.20e-02,
48,2.00e-02,
49,-1.20e-02,
50,-1.20e-02,
51,1.60e-02,
52,1.60e-02,
53,-1.20e-02,
54,1.20e-02,
55,-8.00e-03,
56,2.40e-02,
57,-2.40e-02,
58,-8.00e-03,
59,1.60e-02,
60,-8.00e-03,
61,1.60e-02,
62,1.20e-02,
63,-8.00e-03,
64,1.20e-02,
65,-6.80e-02,
66,1.60e-02,
67,-1.20e-02,
68,-1.60e-02,
69,3.20e-02,
70,1.60e-02,
71,-1.20e-02,
72,-1.20e-02,
73,1.60e-02,
74,1.20e-02,
75,-1.20e-02,
76,-1.20e-02,
77,1.60e-02,
78,-8.00e-03,
79,1.60e-02,
80,-8.00e-03,
81,2.00e-02,
82,2.00e-02,
83,-1.20e-02,
84,2.00e-02,
85,-1.20e-02,
86,-1.60e-02,
87,1.60e-02,
88,1.60e-02,
89,-1.20e-02,
90,-6.80e-02,
91,8.40e-02,
92,-1.20e-02,
93,1.60e-02,
94,-1.20e-02,
95,1.60e-02,
96,-1.20e-02,
97,1.60e-02,
98,1.60e-02,
99,-1.20e-02,
100,-1.20e-02,
101,1.60e-02,
102,-8.00e-03,
103,2.80e-02,
104,1.20e-02,
105,-1.20e-02,
106,-1.20e-02,
107,1.60e-02,
108,1.60e-02,
109,-1.20e-02,
110,-1.20e-02,
111,1.60e-02,
112,-1.20e-02,
113,1.60e-02,
114,1.60e-02,
115,-1.08e-01,
116,1.60e-02,
117,-1.60e-02,
118,2.00e-02,
119,-1.20e-02,
120,-1.20e-02,
121,2.00e-02,
122,1.60e-02,
123,-1.20e-02,
124,1.60e-02,
125,-1.60e-02,
126,-2.40e-02,
127,3.20e-02,
128,-1.20e-02,
129,2.00e-02,
130,-1.20e-02,
131,2.00e-02,
132,-1.20e-02,
133,1.60e-02,
134,-8.00e-03,
135,1.60e-02,
136,-1.20e-02,
137,1.60e-02,
138,-1.20e-02,
139,2.40e-02,
140,-1.60e-02,
141,4.80e-02,
142,1.20e-02,
143,-8.00e-03,
144,1.20e-02,
145,-1.20e-02,
146,1.20e-02,
147,-8.00e-03,
148,-1.20e-02,
149,2.00e-02,
150,1.20e-02,
151,-1.20e-02,
152,-8.00e-03,
153,1.60e-02,
154,-1.20e-02,
155,1.60e-02,
156,1.20e-02,
157,-1.20e-02,
158,1.60e-02,
159,-1.20e-02,
160,-2.40e-02,
161,2.40e-02,
162,1.60e-02,
163,-1.20e-02,
164,1.20e-02,
165,-1.20e-02,
166,-1.20e-02,
167,1.60e-02,
168,-3.60e-02,
169,6.00e-02,
170,-1.60e-02,
171,1.60e-02,
172,-1.60e-02,
173,2.40e-02,
174,2.00e-02,
175,-1.60e-02,
176,-8.00e-03,
177,1.20e-02,
178,1.60e-02,
179,-8.00e-03,
180,1.20e-02,
181,-1.20e-02,
182,-8.00e-03,
183,1.60e-02,
184,1.60e-02,
185,-1.20e-02,
186,-1.20e-02,
187,1.60e-02,
188,1.60e-02,
189,-1.20e-02,
190,-1.20e-02,
191,1.60e-02,
192,1.60e-02,
193,-1.20e-02,
194,1.60e-02,
195,-1.08e-01,
196,-2.00e-02,
197,2.00e-02,
198,1.60e-02,
199,-1.20e-02,
200,-1.20e-02,
201,1.60e-02,
202,1.60e-02,
203,-1.20e-02,
204,1.60e-02,
205,-1.20e-02,
206,-1.20e-02,
207,1.60e-02,
208,-1.60e-02,
209,2.80e-02,
210,1.60e-02,
211,-1.60e-02,
212,-1.20e-02,
213,1.60e-02,
214,-1.20e-02,
215,1.60e-02,
216,1.20e-02,
217,-1.20e-02,
218,1.60e-02,
219,-1.60e-02,
220,4.00e-02,
221,-1.20e-02,
222,1.20e-02,
223,-1.20e-02,
224,1.20e-02,
225,-1.20e-02,
226,-1.20e-02,
227,1.60e-02,
228,1.20e-02,
229,-1.20e-02,
230,1.60e-02,
231,-1.20e-02,
232,4.80e-02,
233,-1.20e-02,
234,1.20e-02,
235,-1.20e-02,
236,1.60e-02,
237,-1.60e-02,
238,1.60e-02,
239,-1.20e-02,
240,-1.20e-02,
241,1.60e-02,
242,-1.60e-02,
243,2.40e-02,
244,1.20e-02,
245,-1.20e-02,
246,-1.04e-01,
247,2.00e-02,
248,-1.20e-02,
249,1.60e-02,
250,1.60e-02,
251,-1.20e-02,
252,1.60e-02,
253,-1.20e-02,
254,2.00e-02,
255,-1.20e-02,
256,1.60e-02,
257,-1.20e-02,
258,1.20e-02,
259,-1.20e-02,
260,-1.20e-02,
261,1.60e-02,
262,1.20e-02,
263,-1.20e-02,
264,-8.00e-03,
265,1.60e-02,
266,-1.20e-02,
267,4.00e-02,
268,1.20e-02,
269,-1.20e-02,
270,1.20e-02,
271,-1.20e-02,
272,-1.20e-02,
273,1.60e-02,
274,1.60e-02,
275,-1.20e-02,
276,1.20e-02,
277,-1.20e-02,
278,-1.20e-02,
279,2.40e-02,
280,1.60e-02,
281,-1.60e-02,
282,1.60e-02,
283,-1.20e-02,
284,1.60e-02,
285,-1.20e-02,
286,-1.20e-02,
287,2.00e-02,
288,-1.20e-02,
289,1.60e-02,
290,-1.20e-02,
291,1.60e-02,
292,-8.00e-03,
293,2.00e-02,
294,-1.20e-02,
295,2.00e-02,
296,-1.20e-02,
297,7.60e-02,
298,1.60e-02,
299,-1.60e-02,
300,2.00e-02,
301,-1.20e-02,
302,1.60e-02,
303,-3.20e-02,
304,1.20e-02,
305,-1.20e-02,
306,-1.20e-02,
307,1.60e-02,
308,-8.00e-03,
309,1.60e-02,
310,-8.00e-03,
311,1.60e-02,
312,1.20e-02,
313,-1.20e-02,
314,2.00e-02,
315,-2.00e-02,
316,-8.00e-03,
317,1.60e-02,
318,1.60e-02,
319,-1.20e-02,
320,-8.00e-03,
321,1.60e-02,
322,1.20e-02,
323,-1.20e-02,
324,-6.80e-02,
325,2.00e-02,
326,-8.00e-03,
327,1.60e-02,
328,1.60e-02,
329,-1.20e-02,
330,1.20e-02,
331,-1.20e-02,
332,1.60e-02,
333,-1.60e-02,
334,-1.20e-02,
335,1.60e-02,
336,-4.40e-02,
337,3.60e-02,
338,1.60e-02,
339,-1.60e-02,
340,2.00e-02,
341,-1.20e-02,
342,-8.00e-03,
343,2.00e-02,
344,1.20e-02,
345,-1.20e-02,
346,-8.00e-03,
347,1.60e-02,
348,-1.60e-02,
349,4.00e-02,
350,-8.00e-03,
351,1.60e-02,
352,-1.20e-02,
353,2.00e-02,
354,1.20e-02,
355,-8.00e-03,
356,1.20e-02,
357,-1.20e-02,
358,1.60e-02,
359,-1.20e-02,
360,-1.60e-02,
361,1.60e-02,
362,1.60e-02,
363,-1.20e-02,
364,1.60e-02,
365,-1.60e-02,
366,1.60e-02,
367,-1.60e-02,
368,1.60e-02,
369,-1.60e-02,
370,1.60e-02,
371,-1.20e-02,
372,2.40e-02,
373,-1.08e-01,
374,-1.20e-02,
375,2.00e-02,
376,1.60e-02,
377,-1.20e-02,
378,-1.60e-02,
379,2.00e-02,
380,1.60e-02,
381,-1.60e-02,
382,-1.20e-02,
383,1.60e-02,
384,-8.00e-03,
385,2.40e-02,
386,1.20e-02,
387,-1.20e-02,
388,-1.20e-02,
389,1.60e-02,
390,1.20e-02,
391,-8.00e-03,
392,-1.20e-02,
393,1.60e-02,
394,-8.00e-03,
395,1.60e-02,
396,-1.20e-02,
397,1.60e-02,
398,-8.00e-03,
399,1.60e-02,
400,1.60e-02,
401,-4.40e-02,
402,-1.20e-02,
403,1.60e-02,
404,1.60e-02,
405,-1.20e-02,
406,2.80e-02,
407,-2.80e-02,
408,-1.20e-02,
409,1.60e-02,
410,-1.20e-02,
411,1.60e-02,
412,1.60e-02,
413,-1.20e-02,
414,1.20e-02,
415,-1.20e-02,
416,1.60e-02,
417,-1.20e-02,
418,2.00e-02,
419,-1.20e-02,
420,-1.60e-02,
421,1.60e-02,
422,1.60e-02,
423,-1.60e-02,
424,1.60e-02,
425,-1.20e-02,
426,1.20e-02,
427,-2.00e-02,
428,1.20e-02,
429,-1.20e-02,
430,2.00e-02,
431,-1.20e-02,
432,1.20e-02,
433,-1.20e-02,
434,-1.20e-02,
435,2.00e-02,
436,1.20e-02,
437,-1.20e-02,
438,1.20e-02,
439,-1.20e-02,
440,1.20e-02,
441,-1.20e-02,
442,3.20e-02,
443,-2.00e-02,
444,-8.00e-03,
445,1.60e-02,
446,1.60e-02,
447,-1.20e-02,
448,2.00e-02,
449,-1.20e-02,
450,1.60e-02,
451,-1.20e-02,
452,1.60e-02,
453,-1.00e-01,
454,3.20e-02,
455,-2.00e-02,
456,-1.20e-02,
457,1.60e-02,
458,-1.20e-02,
459,1.60e-02,
460,-1.20e-02,
461,1.60e-02,
462,1.60e-02,
463,-1.20e-02,
464,-1.20e-02,
465,1.60e-02,
466,1.60e-02,
467,-1.20e-02,
468,1.20e-02,
469,-1.20e-02,
470,-1.20e-02,
471,1.60e-02,
472,1.20e-02,
473,-1.20e-02,
474,-8.00e-03,
475,1.60e-02,
476,-3.60e-02,
477,1.60e-02,
478,1.60e-02,
479,-1.20e-02,
480,1.20e-02,
481,-8.00e-03,
482,-8.00e-03,
483,1.60e-02,
484,1.60e-02,
485,-1.20e-02,
486,1.60e-02,
487,-1.20e-02,
488,-2.00e-02,
489,2.80e-02,
490,-1.20e-02,
491,1.60e-02,
492,-8.00e-03,
493,1.60e-02,
494,1.20e-02,
495,-1.20e-02,
496,1.60e-02,
497,-1.20e-02,
498,-1.20e-02,
499,1.60e-02,
500,-8.00e-03,
501,2.00e-02,
502,-1.20e-02,
503,1.60e-02,
504,-1.20e-02,
505,2.00e-02,
506,-1.20e-02,
507,2.00e-02,
508,1.60e-02,
509,-8.00e-03,
510,-1.20e-02,
511,1.60e-02,
512,-2.40e-02,
513,3.20e-02,
514,-1.20e-02,
515,1.60e-02,
516,1.20e-02,
517,-1.20e-02,
518,-8.00e-03,
519,1.20e-02,
520,1.20e-02,
521,-8.00e-03,
522,1.20e-02,
523,-1.20e-02,
524,-1.60e-02,
525,2.40e-02,
526,1.60e-02,
527,-1.20e-02,
528,1.60e-02,
529,-8.40e-02,
530,-1.20e-02,
531,2.00e-02,
532,1.60e-02,
533,-1.20e-02,
534,-1.20e-02,
535,1.60e-02,
536,1.60e-02,
537,-1.20e-02,
538,1.60e-02,
539,-1.20e-02,
540,-1.20e-02,
541,2.00e-02,
542,-8.00e-03,
543,2.00e-02,
544,-1.20e-02,
545,1.60e-02,
546,1.60e-02,
547,-1.20e-02,
548,-3.20e-02,
549,2.00e-02,
550,-8.00e-03,
551,1.60e-02,
552,-8.00e-03,
553,1.60e-02,
554,6.80e-02,
555,-2.40e-02,
556,1.20e-02,
557,-8.00e-03,
558,-1.20e-02,
559,2.40e-02,
560,2.00e-02,
561,-1.20e-02,
562,-1.20e-02,
563,1.60e-02,
564,1.20e-02,
565,-1.20e-02,
566,1.20e-02,
567,-1.20e-02,
568,-6.40e-02,
569,3.20e-02,
570,1.60e-02,
571,-1.20e-02,
572,1.60e-02,
573,-1.20e-02,
574,-1.20e-02,
575,1.60e-02,
576,-8.00e-03,
577,1.60e-02,
578,-1.20e-02,
579,1.60e-02,
580,1.60e-02,
581,-6.40e-02,
582,-1.20e-02,
583,2.00e-02,
584,1.60e-02,
585,-1.20e-02,
586,1.60e-02,
587,-1.20e-02,
588,1.60e-02,
589,-1.20e-02,
590,-1.60e-02,
591,1.60e-02,
592,-1.20e-02,
593,1.60e-02,
594,-2.40e-02,
595,2.00e-02,
596,1.20e-02,
597,-1.20e-02,
598,1.60e-02,
599,-1.20e-02,
600,1.20e-02,
601,-8.00e-03,
602,1.20e-02,
603,-8.00e-03,
604,1.60e-02,
605,-1.20e-02,
606,-1.60e-02,
607,1.60e-02,
608,1.60e-02,
609,-1.20e-02,
610,1.60e-02,
611,-1.20e-02,
612,-1.20e-02,
613,2.00e-02,
614,2.80e-02,
615,-8.80e-02,
616,-1.20e-02,
617,1.60e-02,
618,3.20e-02,
619,-2.80e-02,
620,-1.20e-02,
621,1.60e-02,
622,-1.20e-02,
623,2.00e-02,
624,2.00e-02,
625,-1.20e-02,
626,-1.20e-02,
627,1.60e-02,
628,-1.20e-02,
629,1.60e-02,
630,2.40e-02,
631,-2.80e-02,
632,1.20e-02,
633,-1.20e-02,
634,-1.20e-02,
635,1.60e-02,
636,1.20e-02,
637,-1.20e-02,
638,1.20e-02,
639,-1.20e-02,
640,2.00e-02,
641,-2.00e-02,
642,1.20e-02,
643,-1.20e-02,
644,7.60e-02,
645,-1.60e-02,
646,-1.20e-02,
647,1.60e-02,
648,1.60e-02,
649,-1.20e-02,
650,1.20e-02,
651,-1.20e-02,
652,-2.40e-02,
653,3.20e-02,
654,-1.20e-02,
655,2.00e-02,
656,2.00e-02,
657,-1.20e-02,
658,-8.00e-03,
659,1.60e-02,
660,1.20e-02,
661,-1.20e-02,
662,1.60e-02,
663,-1.20e-02,
664,1.60e-02,
665,-2.40e-02,
666,1.60e-02,
667,-1.20e-02,
668,1.20e-02,
669,-1.20e-02,
670,-1.20e-02,
671,2.00e-02,
672,-1.20e-02,
673,2.00e-02,
674,1.20e-02,
675,-8.00e-03,
676,-8.00e-03,
677,2.00e-02,
678,-8.00e-03,
679,1.20e-02,
680,1.60e-02,
681,-1.20e-02,
682,1.60e-02,
683,-1.20e-02,
684,1.20e-02,
685,-8.00e-03,
686,1.60e-02,
687,-1.20e-02,
688,2.80e-02,
689,-3.60e-02,
690,-8.00e-03,
691,1.60e-02,
692,2.00e-02,
693,-1.20e-02,
694,1.60e-02,
695,-1.60e-02,
696,-1.20e-02,
697,1.60e-02,
698,1.20e-02,
699,-7.20e-02,
700,-1.60e-02,
701,2.40e-02,
702,1.60e-02,
703,-1.20e-02,
704,-1.20e-02,
705,1.60e-02,
706,1.60e-02,
707,-1.20e-02,
708,1.60e-02,
709,-1.20e-02,
710,2.00e-02,
711,-1.60e-02,
712,1.60e-02,
713,-1.20e-02,
714,1.60e-02,
715,-1.20e-02,
716,1.60e-02,
717,-1.20e-02,
718,1.60e-02,
719,-8.00e-03,
720,-8.00e-03,
721,1.60e-02,
722,-4.00e-02,
723,4.40e-02,
724,1.60e-02,
725,-5.20e-02,
726,1.20e-02,
727,-8.00e-03,
728,1.20e-02,
729,-1.20e-02,
730,-8.00e-03,
731,1.60e-02,
732,1.20e-02,
733,-1.20e-02,
734,2.00e-02,
735,-2.00e-02,
736,1.60e-02,
737,-1.20e-02,
738,1.60e-02,
739,-1.20e-02,
740,1.60e-02,
741,-1.20e-02,
742,-8.00e-03,
743,1.60e-02,
744,1.60e-02,
745,-1.20e-02,
746,1.60e-02,
747,-1.20e-02,
748,1.60e-02,
749,-1.20e-02,
750,1.60e-02,
751,-1.20e-02,
752,-1.60e-02,
753,2.00e-02,
754,1.60e-02,
755,-1.20e-02,
756,-8.00e-03,
757,1.60e-02,
758,1.60e-02,
759,-2.40e-02,
760,-1.20e-02,
761,1.60e-02,
762,-1.20e-02,
763,1.60e-02,
764,1.20e-02,
765,-1.20e-02,
766,1.20e-02,
767,-1.20e-02,
768,1.60e-02,
769,-1.20e-02,
770,-1.60e-02,
771,2.80e-02,
772,-8.00e-03,
773,1.60e-02,
774,1.20e-02,
775,-8.00e-03,
776,1.60e-02,
777,-1.20e-02,
778,-1.20e-02,
779,1.60e-02,
780,2.00e-02,
781,-1.20e-02,
782,1.60e-02,
783,-1.20e-02,
784,1.60e-02,
785,-1.60e-02,
786,-2.00e-02,
787,1.60e-02,
788,1.60e-02,
789,-1.20e-02,
790,1.60e-02,
791,-1.20e-02,
792,-1.20e-02,
793,1.60e-02,
794,3.20e-02,
795,-1.20e-02,
796,-1.20e-02,
797,1.60e-02,
798,1.60e-02,
799,-1.20e-02,
800,-1.20e-02,
801,1.60e-02,
802,-1.20e-02,
803,1.60e-02,
804,7.60e-02,
805,-2.80e-02,
806,-8.00e-03,
807,1.60e-02,
808,1.20e-02,
809,-8.00e-03,
810,1.20e-02,
811,-1.20e-02,
812,1.20e-02,
813,-1.20e-02,
814,-1.20e-02,
815,1.60e-02,
816,-1.20e-02,
817,2.40e-02,
818,1.60e-02,
819,-1.20e-02,
820,1.20e-02,
821,-1.20e-02,
822,1.60e-02,
823,-1.20e-02,
824,-1.20e-02,
825,1.60e-02,
826,1.60e-02,
827,-1.20e-02,
828,-3.20e-02,
829,1.60e-02,
830,-1.20e-02,
831,1.60e-02,
832,-1.20e-02,
833,8.00e-02,
834,1.60e-02,
835,-1.60e-02,
836,-1.20e-02,
837,1.60e-02,
838,-1.20e-02,
839,1.60e-02,
840,1.60e-02,
841,-1.20e-02,
842,-8.00e-03,
843,1.60e-02,
844,1.60e-02,
845,-1.60e-02,
846,-1.20e-02,
847,1.60e-02,
848,-8.00e-03,
849,1.20e-02,
850,-8.00e-03,
851,1.60e-02,
852,-2.00e-02,
853,1.60e-02,
854,-1.20e-02,
855,1.60e-02,
856,1.60e-02,
857,-1.20e-02,
858,2.00e-02,
859,-7.20e-02,
860,1.60e-02,
861,-1.20e-02,
862,-1.20e-02,
863,1.60e-02,
864,4.00e-02,
865,-1.60e-02,
866,1.60e-02,
867,-1.20e-02,
868,-8.00e-03,
869,1.60e-02,
870,-1.20e-02,
871,1.60e-02,
872,1.60e-02,
873,-1.20e-02,
874,2.00e-02,
875,-1.20e-02,
876,-2.00e-02,
877,2.00e-02,
878,-1.20e-02,
879,1.60e-02,
880,1.60e-02,
881,-1.20e-02,
882,-1.60e-02,
883,1.60e-02,
884,1.08e-01,
885,-2.00e-02,
886,1.60e-02,
887,-1.20e-02,
888,1.20e-02,
889,-1.20e-02,
890,-8.00e-03,
891,1.20e-02,
892,-8.00e-03,
893,1.60e-02,
894,-1.20e-02,
895,1.60e-02,
896,1.20e-02,
897,-8.00e-03,
898,-4.40e-02,
899,3.60e-02,
900,-8.00e-03,
901,1.60e-02,
902,1.60e-02,
903,-1.20e-02,
904,1.60e-02,
905,-1.20e-02,
906,-8.00e-03,
907,1.60e-02,
908,1.20e-02,
909,-1.20e-02,
910,1.60e-02,
911,-2.40e-02,
912,1.60e-02,
913,-5.60e-02,
914,1.20e-02,
915,-1.20e-02,
916,2.00e-02,
917,-1.20e-02,
918,1.60e-02,
919,-1.20e-02,
920,-1.20e-02,
921,1.60e-02,
922,1.60e-02,
923,-1.20e-02,
924,-1.20e-02,
925,1.60e-02,
926,-8.00e-03,
927,2.00e-02,
928,1.20e-02,
929,-1.20e-02,
930,-8.00e-03,
931,1.20e-02,
932,1.20e-02,
933,-1.20e-02,
934,2.80e-02,
935,-2.80e-02,
936,3.60e-02,
937,-2.80e-02,
938,-8.00e-03,
939,1.20e-02,
940,1.20e-02,
941,-1.20e-02,
942,1.60e-02,
943,-1.20e-02,
944,1.60e-02,
945,-1.20e-02,
946,2.00e-02,
947,-2.00e-02,
948,1.60e-02,
949,-1.20e-02,
950,-1.20e-02,
951,1.60e-02,
952,1.60e-02,
953,-1.20e-02,
954,-1.20e-02,
955,1.60e-02,
956,1.20e-02,
957,-1.60e-02,
958,-1.20e-02,
959,2.00e-02,
960,-1.20e-02,
961,2.00e-02,
962,1.60e-02,
963,-5.60e-02,
964,-1.20e-02,
965,2.00e-02,
966,-1.20e-02,
967,1.60e-02,
968,3.20e-02,
969,-2.40e-02,
970,-8.00e-03,
971,1.60e-02,
972,-8.00e-03,
973,1.60e-02,
974,-8.00e-03,
975,1.20e-02,
976,-1.20e-02,
977,1.60e-02,
978,-8.00e-03,
979,1.60e-02,
980,2.40e-02,
981,-1.60e-02,
982,-8.00e-03,
983,1.60e-02,
984,-1.20e-02,
985,1.60e-02,
986,1.60e-02,
987,-1.20e-02,
988,7.60e-02,
989,-1.60e-02,
990,1.60e-02,
991,-1.20e-02,
992,-1.60e-02,
993,2.00e-02,
994,-1.20e-02,
995,1.60e-02,
996,1.60e-02,
997,-1.20e-02,
998,2.00e-02,
999,-1.60e-02,
1000,1.60e-02,
1001,-1.20e-02,
1002,-1.20e-02,
1003,2.00e-02,
1004,4.00e-02,
1005,-2.40e-02,
1006,1.60e-02,
1007,-1.20e-02,
1008,-8.00e-03,
1009,1.60e-02,
1010,-8.00e-03,
1011,1.60e-02,
1012,1.20e-02,
1013,-1.20e-02,
1014,1.60e-02,
1015,-7.60e-02,
1016,2.00e-02,
1017,-2.00e-02,
1018,-8.00e-03,
1019,1.60e-02,
1020,1.20e-02,
1021,-1.20e-02,
1022,-8.00e-03,
1023,1.60e-02,
1024,-1.20e-02,
1025,1.60e-02,
1026,1.60e-02,
1027,-1.20e-02,
1028,1.60e-02,
1029,-1.20e-02,
1030,-1.20e-02,
1031,1.60e-02,
1032,-1.20e-02,
1033,2.00e-02,
1034,-1.60e-02,
1035,1.60e-02,
1036,-1.20e-02,
1037,2.00e-02,
1038,1.60e-02,
1039,-1.20e-02,
1040,-7.20e-02,
1041,4.00e-02,
1042,-1.60e-02,
1043,1.60e-02,
1044,-1.20e-02,
1045,2.00e-02,
1046,1.60e-02,
1047,-1.20e-02,
1048,1.60e-02,
1049,-1.60e-02,
1050,-2.00e-02,
1051,2.40e-02,
1052,1.60e-02,
1053,-1.20e-02,
1054,1.60e-02,
1055,-1.20e-02,
1056,1.20e-02,
1057,-1.20e-02,
1058,-8.00e-03,
1059,1.60e-02,
1060,-1.20e-02,
1061,1.60e-02,
1062,1.20e-02,
1063,-1.20e-02,
1064,1.60e-02,
1065,-1.20e-02,
1066,1.20e-02,
1067,-8.00e-02,
1068,-1.60e-02,
1069,1.60e-02,
1070,1.20e-02,
1071,-1.20e-02,
1072,-8.00e-03,
1073,1.60e-02,
1074,-2.40e-02,
1075,4.40e-02,
1076,-1.20e-02,
1077,1.60e-02,
1078,-1.20e-02,
1079,2.00e-02,
1080,1.60e-02,
1081,-1.20e-02,
1082,-2.00e-02,
1083,2.00e-02,
1084,-1.20e-02,
1085,1.60e-02,
1086,2.00e-02,
1087,-1.60e-02,
1088,1.60e-02,
1089,-1.20e-02,
1090,-1.20e-02,
1091,2.00e-02,
1092,-3.20e-02,
1093,7.20e-02,
1094,1.60e-02,
1095,-1.20e-02,
1096,1.60e-02,
1097,-1.20e-02,
1098,-8.00e-03,
1099,2.00e-02,
1100,1.20e-02,
1101,-1.20e-02,
1102,-8.00e-03,
1103,2.00e-02,
1104,-8.00e-03,
1105,1.60e-02,
1106,-8.00e-03,
1107,1.60e-02,
1108,-1.20e-02,
1109,1.60e-02,
1110,-3.20e-02,
1111,1.60e-02,
1112,1.60e-02,
1113,-1.20e-02,
1114,-1.20e-02,
1115,1.60e-02,
1116,-1.20e-02,
1117,1.60e-02,
1118,1.60e-02,
1119,-2.40e-02,
1120,2.00e-02,
1121,-1.20e-02,
1122,2.40e-02,
1123,-1.60e-02,
1124,2.00e-02,
1125,-1.20e-02,
1126,2.00e-02,
1127,-1.20e-02,
1128,-1.60e-02,
1129,2.00e-02,
1130,1.60e-02,
1131,-1.60e-02,
1132,-1.20e-02,
1133,2.00e-02,
1134,-8.00e-03,
1135,1.60e-02,
1136,-1.20e-02,
1137,1.20e-02,
1138,2.40e-02,
1139,-1.60e-02,
1140,1.20e-02,
1141,-8.00e-03,
1142,-1.20e-02,
1143,1.20e-02,
1144,3.20e-02,
1145,-1.60e-02,
1146,1.20e-02,
1147,-2.80e-02,
1148,1.20e-02,
1149,-1.20e-02,
1150,1.60e-02,
1151,-1.20e-02,
1152,-8.00e-03,
1153,1.60e-02,
1154,1.60e-02,
1155,-1.20e-02,
1156,-1.60e-02,
1157,2.40e-02,
1158,1.60e-02,
1159,-1.20e-02,
1160,1.60e-02,
1161,-1.20e-02,
1162,-1.20e-02,
1163,2.00e-02,
1164,-1.20e-02,
1165,1.60e-02,
1166,-1.60e-02,
1167,2.00e-02,
1168,1.60e-02,
1169,-1.60e-02,
1170,-1.60e-02,
1171,2.00e-02,
1172,8.40e-02,
1173,-1.60e-02,
1174,-1.20e-02,
1175,1.60e-02,
1176,2.00e-02,
1177,-1.20e-02,
1178,1.20e-02,
1179,-1.20e-02,
1180,3.60e-02,
1181,-3.60e-02,
1182,1.60e-02,
1183,-1.20e-02,
1184,1.20e-02,
1185,-1.20e-02,
1186,-8.00e-03,
1187,1.20e-02,
1188,1.20e-02,
1189,-1.20e-02,
1190,-1.20e-02,
1191,1.60e-02,
1192,2.40e-02,
1193,-1.20e-02,
1194,-1.20e-02,
1195,1.60e-02,
1196,-1.20e-02,
1197,1.60e-02,
1198,-3.20e-02,
1199,1.60e-02,
