Laptop_1/LAPTOP_CHRGR_1_OFF/time domain/NewFile16.csv

X,CH1,Start,Increment,
Sequence,Volt,-1.500000e-01,2.000000e-04
0,-2.80e-02,
1,4.40e-02,
2,-1.60e-02,
3,2.00e-02,
4,1.36e-01,
5,-7.20e-02,
6,3.20e-02,
7,-2.32e-01,
8,2.00e-02,
9,-1.60e-02,
10,-1.00e-01,
11,8.40e-02,
12,2.40e-02,
13,-3.20e-02,
14,-2.40e-02,
15,2.80e-02,
16,9.20e-02,
17,-6.80e-02,
18,3.20e-02,
19,-3.60e-02,
20,-1.24e-01,
21,9.20e-02,
22,-2.00e-02,
23,2.80e-02,
24,3.60e-02,
25,-6.40e-02,
26,-1.60e-02,
27,6.40e-02,
28,1.60e-02,
29,-1.20e-02,
30,-1.20e-02,
31,2.00e-02,
32,-7.60e-02,
33,4.40e-02,
34,2.00e-02,
35,-1.60e-02,
36,-1.60e-02,
37,4.80e-02,
38,-3.20e-02,
39,6.00e-02,
40,4.40e-02,
41,-4.00e-02,
42,-2.40e-02,
43,2.80e-02,
44,7.20e-02,
45,-8.80e-02,
46,-1.24e-01,
47,2.16e-01,
48,-1.60e-02,
49,2.40e-02,
50,7.20e-02,
51,-8.00e-02,
52,2.80e-02,
53,-4.40e-02,
54,-1.60e-02,
55,2.80e-02,
56,-2.80e-02,
57,1.96e-01,
58,4.80e-02,
59,-3.60e-02,
60,2.40e-02,
61,-2.00e-02,
62,-8.00e-02,
63,2.40e-02,
64,-1.60e-02,
65,2.40e-02,
66,-4.80e-02,
67,1.56e-01,
68,1.60e-02,
69,-8.00e-02,
70,-2.80e-02,
71,4.80e-02,
72,-1.60e-02,
73,4.00e-02,
74,4.40e-02,
75,-5.20e-02,
76,1.60e-02,
77,-5.20e-02,
78,-3.60e-02,
79,8.40e-02,
80,-1.60e-02,
81,2.60e-01,
82,2.80e-02,
83,-2.00e-02,
84,8.80e-02,
85,-6.40e-02,
86,-1.60e-02,
87,2.00e-02,
88,4.80e-02,
89,-3.60e-02,
90,5.60e-02,
91,-3.20e-02,
92,-3.20e-02,
93,6.00e-02,
94,-2.00e-02,
95,1.60e-02,
96,-6.80e-02,
97,1.04e-01,
98,-2.40e-02,
99,2.80e-02,
100,2.40e-02,
101,-2.00e-02,
102,-8.80e-02,
103,4.40e-02,
104,2.80e-02,
105,-3.60e-02,
106,-2.00e-02,
107,2.00e-02,
108,-6.00e-02,
109,1.36e-01,
110,4.80e-02,
111,-2.00e-02,
112,-1.20e-02,
113,1.60e-02,
114,-1.12e-01,
115,2.40e-02,
116,1.60e-02,
117,-2.00e-02,
118,-2.00e-02,
119,2.00e-02,
120,-6.00e-02,
121,7.60e-02,
122,-3.20e-02,
123,4.00e-02,
124,2.00e-02,
125,-2.00e-02,
126,-3.60e-02,
127,4.80e-02,
128,4.80e-02,
129,-4.40e-02,
130,-1.12e-01,
131,1.32e-01,
132,2.00e-02,
133,-1.60e-02,
134,1.88e-01,
135,-2.40e-01,
136,7.60e-02,
137,-8.40e-02,
138,2.40e-02,
139,-2.00e-02,
140,-3.20e-02,
141,4.80e-02,
142,-3.20e-02,
143,5.20e-02,
144,-2.80e-02,
145,4.00e-02,
146,-1.60e-02,
147,2.00e-02,
148,-1.60e-02,
149,1.12e-01,
150,-1.20e-02,
151,2.00e-02,
152,-1.60e-02,
153,2.00e-02,
154,-2.80e-02,
155,8.40e-02,
156,-1.20e-02,
157,6.00e-02,
158,1.60e-02,
159,-1.60e-02,
160,-1.88e-01,
161,1.84e-01,
162,-2.80e-02,
163,6.00e-02,
164,2.00e-02,
165,-1.60e-02,
166,-9.60e-02,
167,8.80e-02,
168,2.80e-02,
169,-2.00e-02,
170,2.00e-02,
171,-1.20e-02,
172,-9.60e-02,
173,9.60e-02,
174,3.20e-02,
175,-5.20e-02,
176,4.00e-02,
177,-3.20e-02,
178,4.80e-02,
179,-3.20e-02,
180,4.40e-02,
181,-4.40e-02,
182,-2.00e-02,
183,1.04e-01,
184,-2.00e-02,
185,2.44e-01,
186,-1.60e-02,
187,2.00e-02,
188,-8.80e-02,
189,7.20e-02,
190,-1.20e-02,
191,2.00e-02,
192,-3.20e-02,
193,1.60e-02,
194,-4.80e-02,
195,8.40e-02,
196,-1.60e-02,
197,4.80e-02,
198,-1.60e-02,
199,2.00e-02,
200,8.80e-02,
201,-1.04e-01,
202,4.00e-02,
203,-2.80e-02,
204,-1.20e-02,
205,2.00e-02,
206,-8.40e-02,
207,1.12e-01,
208,-2.24e-01,
209,1.20e-01,
210,-2.00e-02,
211,2.40e-02,
212,-7.20e-02,
213,1.16e-01,
214,4.00e-02,
215,-4.80e-02,
216,2.40e-02,
217,-2.00e-02,
218,-1.56e-01,
219,7.20e-02,
220,-2.00e-02,
221,2.40e-02,
222,-2.00e-02,
223,2.40e-02,
224,-6.80e-02,
225,6.00e-02,
226,4.40e-02,
227,-3.60e-02,
228,-1.60e-02,
229,8.80e-02,
230,2.80e-02,
231,-1.60e-02,
232,-7.20e-02,
233,2.00e-02,
234,1.60e-02,
235,-1.60e-02,
236,1.12e-01,
237,-4.40e-02,
238,2.80e-02,
239,-1.20e-02,
240,9.20e-02,
241,-1.16e-01,
242,-1.60e-02,
243,2.00e-02,
244,-3.20e-02,
245,3.60e-02,
246,-4.80e-02,
247,6.40e-02,
248,3.20e-02,
249,-3.60e-02,
250,3.60e-02,
251,-1.60e-02,
252,1.00e-01,
253,-8.40e-02,
254,2.40e-02,
255,-2.00e-02,
256,-9.20e-02,
257,2.56e-01,
258,8.80e-02,
259,-8.80e-02,
260,4.80e-02,
261,-4.40e-02,
262,-1.20e-02,
263,2.00e-02,
264,-2.40e-02,
265,1.04e-01,
266,-5.20e-02,
267,4.40e-02,
268,2.00e-02,
269,-2.00e-02,
270,6.00e-02,
271,-8.00e-02,
272,-2.00e-02,
273,2.80e-02,
274,-1.20e-02,
275,2.00e-02,
276,-7.60e-02,
277,2.00e-02,
278,2.00e-02,
279,-3.20e-02,
280,1.52e-01,
281,-1.08e-01,
282,-4.80e-02,
283,3.20e-02,
284,-3.60e-02,
285,5.60e-02,
286,-9.60e-02,
287,1.28e-01,
288,-3.20e-02,
289,2.00e-02,
290,2.40e-02,
291,-2.40e-02,
292,6.80e-02,
293,-6.80e-02,
294,2.40e-02,
295,-1.60e-02,
296,-3.60e-02,
297,4.80e-02,
298,-7.20e-02,
299,9.60e-02,
300,2.40e-02,
301,-4.80e-02,
302,6.00e-02,
303,-5.20e-02,
304,-2.08e-01,
305,6.00e-02,
306,-2.40e-02,
307,4.00e-02,
308,-1.60e-02,
309,2.40e-02,
310,-5.60e-02,
311,8.80e-02,
312,4.40e-02,
313,-2.40e-02,
314,-1.20e-02,
315,2.00e-02,
316,1.08e-01,
317,-6.80e-02,
318,-2.40e-02,
319,4.00e-02,
320,2.00e-02,
321,-1.60e-02,
322,-6.80e-02,
323,1.04e-01,
324,-2.40e-02,
325,2.40e-02,
326,1.60e-02,
327,-1.60e-02,
328,-1.08e-01,
329,2.56e-01,
330,5.60e-02,
331,-3.60e-02,
332,-1.60e-02,
333,2.00e-02,
334,4.00e-02,
335,-4.40e-02,
336,4.80e-02,
337,-4.80e-02,
338,2.40e-02,
339,-1.20e-02,
340,-7.60e-02,
341,8.40e-02,
342,-2.40e-02,
343,2.00e-02,
344,8.40e-02,
345,-4.00e-02,
346,2.40e-02,
347,-1.60e-02,
348,3.20e-02,
349,-4.40e-02,
350,-1.60e-02,
351,4.40e-02,
352,2.40e-02,
353,-4.80e-02,
354,3.20e-02,
355,-4.80e-02,
356,-8.00e-02,
357,1.08e-01,
358,-1.20e-02,
359,2.40e-02,
360,2.00e-02,
361,-1.60e-02,
362,-6.40e-02,
363,7.20e-02,
364,-2.80e-02,
365,3.60e-02,
366,1.60e-02,
367,-1.60e-02,
368,-8.80e-02,
369,7.60e-02,
370,-4.00e-02,
371,4.40e-02,
372,-1.60e-02,
373,2.00e-02,
374,-1.28e-01,
375,9.60e-02,
376,3.60e-02,
377,-2.12e-01,
378,2.80e-02,
379,-1.60e-02,
380,1.12e-01,
381,-6.00e-02,
382,2.40e-02,
383,-3.20e-02,
384,-1.60e-02,
385,2.00e-02,
386,2.40e-02,
387,-5.60e-02,
388,-3.20e-02,
389,2.40e-02,
390,-2.00e-02,
391,2.80e-02,
392,6.80e-02,
393,-8.80e-02,
394,2.80e-02,
395,-2.40e-02,
396,7.60e-02,
397,-7.60e-02,
398,-4.40e-02,
399,1.72e-01,
400,4.40e-02,
401,-3.20e-02,
402,-2.80e-02,
403,5.20e-02,
404,2.00e-02,
405,-1.20e-02,
406,-5.20e-02,
407,6.00e-02,
408,-8.00e-02,
409,9.60e-02,
410,2.40e-02,
411,-2.40e-02,
412,-1.20e-02,
413,2.00e-02,
414,7.60e-02,
415,-9.20e-02,
416,-3.60e-02,
417,4.40e-02,
418,-1.60e-02,
419,2.40e-02,
420,3.60e-02,
421,-3.60e-02,
422,2.00e-02,
423,-4.80e-02,
424,2.40e-02,
425,-2.80e-02,
426,4.00e-02,
427,-8.00e-02,
428,1.60e-02,
429,-1.60e-02,
430,-1.60e-02,
431,2.40e-02,
432,8.80e-02,
433,-4.00e-02,
434,2.80e-02,
435,-4.40e-02,
436,-1.60e-02,
437,2.40e-02,
438,6.00e-02,
439,-5.60e-02,
440,-4.80e-02,
441,3.60e-02,
442,-2.00e-02,
443,1.60e-02,
444,-5.60e-02,
445,1.08e-01,
446,-1.96e-01,
447,5.20e-02,
448,8.00e-02,
449,-9.20e-02,
450,2.40e-02,
451,-1.60e-02,
452,4.00e-02,
453,-4.00e-02,
454,4.40e-02,
455,-3.20e-02,
456,-2.00e-02,
457,2.40e-02,
458,-2.40e-02,
459,5.60e-02,
460,1.08e-01,
461,-1.08e-01,
462,2.40e-02,
463,-2.00e-02,
464,2.40e-02,
465,-1.60e-02,
466,4.80e-02,
467,-6.40e-02,
468,-1.60e-02,
469,4.00e-02,
470,-2.00e-02,
471,2.52e-01,
472,4.40e-02,
473,-3.60e-02,
474,2.40e-02,
475,-3.20e-02,
476,-2.00e-02,
477,2.80e-02,
478,1.20e-01,
479,-2.00e-02,
480,-2.00e-02,
481,2.80e-02,
482,2.00e-02,
483,-2.00e-02,
484,-7.60e-02,
485,9.20e-02,
486,-4.00e-02,
487,4.40e-02,
488,-1.20e-02,
489,2.00e-02,
490,4.00e-02,
491,-3.60e-02,
492,-5.60e-02,
493,5.20e-02,
494,3.60e-02,
495,-2.44e-01,
496,-9.20e-02,
497,8.80e-02,
498,2.40e-02,
499,-2.00e-02,
500,7.60e-02,
501,-6.00e-02,
502,-2.00e-02,
503,2.00e-02,
504,3.20e-02,
505,-2.00e-02,
506,-4.80e-02,
507,3.60e-02,
508,2.00e-02,
509,-1.60e-02,
510,2.80e-02,
511,-6.80e-02,
512,1.32e-01,
513,-8.40e-02,
514,2.40e-02,
515,-2.00e-02,
516,-1.20e-02,
517,2.00e-02,
518,-8.40e-02,
519,1.08e-01,
520,-2.80e-02,
521,6.00e-02,
522,-2.00e-02,
523,2.40e-02,
524,-4.00e-02,
525,5.60e-02,
526,-4.80e-02,
527,4.80e-02,
528,-1.20e-02,
529,2.00e-02,
530,-1.00e-01,
531,1.48e-01,
532,-1.60e-02,
533,3.60e-02,
534,1.60e-02,
535,-1.60e-02,
536,-8.80e-02,
537,8.80e-02,
538,3.60e-02,
539,-2.80e-02,
540,-2.00e-02,
541,2.40e-02,
542,1.04e-01,
543,-2.40e-02,
544,-4.40e-02,
545,2.00e-02,
546,-2.00e-02,
547,2.80e-02,
548,1.04e-01,
549,-2.00e-02,
550,2.80e-02,
551,-2.00e-02,
552,-7.20e-02,
553,7.20e-02,
554,-7.20e-02,
555,2.00e-02,
556,3.20e-02,
557,-3.60e-02,
558,-5.60e-02,
559,6.00e-02,
560,-2.00e-02,
561,2.40e-02,
562,-4.00e-02,
563,4.80e-02,
564,1.00e-01,
565,-9.20e-02,
566,2.80e-02,
567,-2.12e-01,
568,2.00e-02,
569,-2.00e-02,
570,8.80e-02,
571,-7.20e-02,
572,-3.20e-02,
573,4.40e-02,
574,1.60e-02,
575,-1.60e-02,
576,-8.00e-02,
577,8.80e-02,
578,4.80e-02,
579,-5.20e-02,
580,-1.60e-02,
581,2.00e-02,
582,-6.40e-02,
583,3.60e-02,
584,2.00e-02,
585,-2.00e-02,
586,2.00e-02,
587,-2.00e-02,
588,-5.60e-02,
589,6.00e-02,
590,1.60e-02,
591,-1.00e-01,
592,2.40e-02,
593,-2.00e-02,
594,8.00e-02,
595,-1.60e-02,
596,-2.00e-02,
597,3.60e-02,
598,-2.40e-02,
599,2.80e-02,
600,1.32e-01,
601,-1.08e-01,
602,-2.00e-02,
603,2.80e-02,
604,1.36e-01,
605,-8.00e-02,
606,-4.40e-02,
607,1.00e-01,
608,3.60e-02,
609,-4.80e-02,
610,-8.40e-02,
611,9.60e-02,
612,2.16e-01,
613,-2.04e-01,
614,-4.80e-02,
615,8.00e-02,
616,6.40e-02,
617,-1.00e-01,
618,2.00e-02,
619,-1.60e-02,
620,1.60e-02,
621,-1.60e-02,
622,-8.80e-02,
623,7.60e-02,
624,2.80e-02,
625,-4.80e-02,
626,-2.00e-02,
627,2.40e-02,
628,2.80e-02,
629,-4.00e-02,
630,6.00e-02,
631,-3.20e-02,
632,-1.60e-02,
633,2.00e-02,
634,-2.00e-02,
635,9.60e-02,
636,4.00e-02,
637,-1.60e-02,
638,-2.00e-02,
639,2.80e-02,
640,7.20e-02,
641,-1.08e-01,
642,-3.60e-02,
643,4.00e-02,
644,-2.00e-02,
645,2.80e-02,
646,-6.00e-02,
647,8.80e-02,
648,-4.40e-02,
649,4.00e-02,
650,2.00e-02,
651,-1.60e-02,
652,-1.28e-01,
653,8.80e-02,
654,2.00e-02,
655,-2.00e-02,
656,-4.80e-02,
657,7.20e-02,
658,-6.80e-02,
659,6.40e-02,
660,3.60e-02,
661,-3.20e-02,
662,2.44e-01,
663,-3.60e-02,
664,-1.20e-02,
665,2.40e-02,
666,-6.80e-02,
667,2.40e-02,
668,-7.60e-02,
669,7.60e-02,
670,-1.60e-02,
671,2.80e-02,
672,-2.00e-02,
673,2.00e-02,
674,-7.20e-02,
675,5.20e-02,
676,-3.60e-02,
677,4.80e-02,
678,2.40e-02,
679,-2.00e-02,
680,6.40e-02,
681,-6.40e-02,
682,4.80e-02,
683,-5.20e-02,
684,2.80e-02,
685,-2.40e-02,
686,1.20e-01,
687,-1.48e-01,
688,2.80e-02,
689,-2.40e-02,
690,2.40e-02,
691,-2.00e-02,
692,1.16e-01,
693,-8.80e-02,
694,5.60e-02,
695,-3.20e-02,
696,2.00e-02,
697,-1.60e-02,
698,-7.60e-02,
699,8.40e-02,
700,-3.60e-02,
701,5.60e-02,
702,2.40e-02,
703,-1.60e-02,
704,-1.00e-01,
705,1.16e-01,
706,2.40e-02,
707,-2.40e-02,
708,2.40e-02,
709,-5.60e-02,
710,-6.40e-02,
711,4.80e-02,
712,2.00e-02,
713,-3.20e-02,
714,6.00e-02,
715,-8.00e-02,
716,-1.60e-02,
717,2.00e-02,
718,2.00e-02,
719,-5.20e-02,
720,1.00e-01,
721,-1.08e-01,
722,2.80e-02,
723,-2.00e-02,
724,2.40e-02,
725,-2.00e-02,
726,8.80e-02,
727,-1.00e-01,
728,-3.20e-02,
729,5.60e-02,
730,-1.72e-01,
731,1.52e-01,
732,1.00e-01,
733,-9.60e-02,
734,-4.00e-02,
735,4.40e-02,
736,-2.00e-02,
737,1.60e-02,
738,1.20e-01,
739,-1.32e-01,
740,-1.20e-02,
741,3.20e-02,
742,2.00e-02,
743,-1.20e-02,
744,-8.00e-02,
745,8.00e-02,
746,-2.00e-02,
747,5.60e-02,
748,2.00e-02,
749,-1.60e-02,
750,5.60e-02,
751,-3.20e-02,
752,3.20e-02,
753,-5.20e-02,
754,-1.60e-02,
755,2.00e-02,
756,-5.60e-02,
757,8.00e-02,
758,-1.60e-02,
759,2.40e-02,
760,-1.60e-02,
761,2.00e-02,
762,7.60e-02,
763,-8.00e-02,
764,-2.80e-02,
765,4.00e-02,
766,-4.00e-02,
767,6.80e-02,
768,-3.60e-02,
769,3.60e-02,
770,-4.40e-02,
771,4.80e-02,
772,4.80e-02,
773,-8.40e-02,
774,2.00e-02,
775,-1.20e-02,
776,2.40e-02,
777,-1.60e-02,
778,9.20e-02,
779,-8.00e-02,
780,1.60e-02,
781,-2.16e-01,
782,-2.40e-02,
783,5.20e-02,
784,2.40e-02,
785,-4.00e-02,
786,3.60e-02,
787,-4.80e-02,
788,-1.60e-02,
789,2.00e-02,
790,-5.60e-02,
791,1.44e-01,
792,2.40e-02,
793,-2.80e-02,
794,-1.60e-02,
795,2.40e-02,
796,8.40e-02,
797,-6.00e-02,
798,-3.60e-02,
799,5.20e-02,
800,2.00e-02,
801,-1.60e-02,
802,-7.60e-02,
803,2.40e-01,
804,8.00e-02,
805,-4.00e-02,
806,2.80e-02,
807,-2.40e-02,
808,1.08e-01,
809,-1.28e-01,
810,2.80e-02,
811,-3.20e-02,
812,2.80e-02,
813,-2.00e-02,
814,1.16e-01,
815,-7.20e-02,
816,3.60e-02,
817,-3.60e-02,
818,-1.04e-01,
819,6.00e-02,
820,-3.60e-02,
821,2.80e-02,
822,-4.00e-02,
823,3.20e-02,
824,-1.20e-02,
825,8.80e-02,
826,2.00e-02,
827,-1.60e-02,
828,-1.20e-02,
829,2.00e-02,
830,-9.60e-02,
831,2.80e-02,
832,2.40e-02,
833,-2.00e-02,
834,2.40e-02,
835,-3.20e-02,
836,-6.40e-02,
837,2.40e-02,
838,2.00e-02,
839,-2.00e-02,
840,4.80e-02,
841,-6.00e-02,
842,-7.60e-02,
843,8.40e-02,
844,-1.60e-02,
845,3.60e-02,
846,2.40e-02,
847,-2.00e-02,
848,-7.20e-02,
849,8.40e-02,
850,3.20e-02,
851,-4.80e-02,
852,-2.00e-02,
853,2.80e-02,
854,2.12e-01,
855,-3.60e-02,
856,4.40e-02,
857,-5.60e-02,
858,2.00e-02,
859,-1.60e-02,
860,8.40e-02,
861,-1.08e-01,
862,3.20e-02,
863,-1.20e-02,
864,1.60e-02,
865,-1.60e-02,
866,-5.20e-02,
867,4.00e-02,
868,4.40e-02,
869,-1.60e-02,
870,2.00e-02,
871,-1.60e-02,
872,9.20e-02,
873,-4.00e-02,
874,2.00e-02,
875,-6.40e-02,
876,-1.60e-02,
877,2.40e-02,
878,-3.20e-02,
879,2.68e-01,
880,-2.00e-02,
881,4.00e-02,
882,7.20e-02,
883,-8.40e-02,
884,2.40e-02,
885,-2.00e-02,
886,3.20e-02,
887,-3.60e-02,
888,-5.60e-02,
889,3.20e-02,
890,2.40e-02,
891,-2.00e-02,
892,-3.60e-02,
893,5.60e-02,
894,1.40e-01,
895,-1.28e-01,
896,2.40e-02,
897,-2.40e-02,
898,2.40e-02,
899,-2.00e-02,
900,-8.00e-02,
901,7.20e-02,
902,-2.80e-02,
903,3.20e-02,
904,2.00e-02,
905,-1.60e-02,
906,-6.40e-02,
907,6.00e-02,
908,-2.40e-02,
909,3.60e-02,
910,2.00e-02,
911,-1.60e-02,
912,9.20e-02,
913,-4.40e-02,
914,-2.80e-02,
915,3.20e-02,
916,2.00e-02,
917,-1.60e-02,
918,8.00e-02,
919,-5.60e-02,
920,-2.40e-02,
921,3.60e-02,
922,2.40e-02,
923,-1.60e-02,
924,2.08e-01,
925,-1.84e-01,
926,3.20e-02,
927,-3.60e-02,
928,2.40e-02,
929,-1.60e-02,
930,1.00e-01,
931,-6.00e-02,
932,2.40e-02,
933,-2.00e-02,
934,2.80e-02,
935,-6.00e-02,
936,-6.40e-02,
937,7.60e-02,
938,-2.40e-02,
939,3.60e-02,
940,-2.80e-02,
941,3.60e-02,
942,2.00e-02,
943,-1.60e-02,
944,3.60e-02,
945,-5.20e-02,
946,1.12e-01,
947,-6.00e-02,
948,-1.20e-02,
949,2.48e-01,
950,2.80e-02,
951,-2.00e-02,
952,8.00e-02,
953,-1.60e-02,
954,-1.60e-02,
955,2.00e-02,
956,2.40e-02,
957,-3.60e-02,
958,5.60e-02,
959,-3.20e-02,
960,5.20e-02,
961,-4.00e-02,
962,2.40e-02,
963,-2.00e-02,
964,1.04e-01,
965,-8.40e-02,
966,-2.40e-02,
967,2.40e-02,
968,-2.00e-02,
969,2.00e-02,
970,7.60e-02,
971,-1.52e-01,
972,-2.80e-02,
973,2.80e-02,
974,2.80e-02,
975,-2.00e-02,
976,-6.00e-02,
977,1.08e-01,
978,-4.00e-02,
979,4.40e-02,
980,2.80e-02,
981,-2.40e-02,
982,6.40e-02,
983,-1.60e-02,
984,2.00e-02,
985,-1.60e-02,
986,-1.20e-02,
987,1.60e-02,
988,-8.80e-02,
989,7.20e-02,
990,2.40e-02,
991,-3.60e-02,
992,2.00e-02,
993,-1.60e-02,
994,4.80e-02,
995,-2.52e-01,
996,-3.60e-02,
997,3.20e-02,
998,-1.20e-02,
999,2.00e-02,
1000,-7.60e-02,
1001,8.40e-02,
1002,2.00e-02,
1003,-2.00e-02,
1004,-5.20e-02,
1005,6.80e-02,
1006,2.40e-02,
1007,-1.60e-02,
1008,-3.60e-02,
1009,3.20e-02,
1010,6.00e-02,
1011,-6.00e-02,
1012,2.40e-02,
1013,-1.60e-02,
1014,7.20e-02,
1015,-3.60e-02,
1016,6.40e-02,
1017,-6.80e-02,
1018,2.40e-02,
1019,-2.40e-01,
1020,2.80e-02,
1021,-2.00e-02,
1022,-6.40e-02,
1023,6.80e-02,
1024,-1.20e-02,
1025,4.80e-02,
1026,-1.60e-02,
1027,2.00e-02,
1028,-1.60e-02,
1029,6.80e-02,
1030,-1.20e-02,
1031,3.60e-02,
1032,-1.20e-02,
1033,2.00e-02,
1034,-7.20e-02,
1035,4.00e-02,
1036,2.80e-02,
1037,-1.60e-02,
1038,-1.20e-02,
1039,2.00e-02,
1040,4.80e-02,
1041,-6.40e-02,
1042,-1.28e-01,
1043,2.56e-01,
1044,-2.40e-02,
1045,2.40e-02,
1046,-3.20e-02,
1047,4.00e-02,
1048,-4.80e-02,
1049,4.80e-02,
1050,-2.00e-02,
1051,2.00e-02,
1052,-6.00e-02,
1053,1.16e-01,
1054,2.40e-02,
1055,-2.40e-02,
1056,-2.40e-02,
1057,3.20e-02,
1058,7.60e-02,
1059,-8.00e-02,
1060,-3.20e-02,
1061,3.60e-02,
1062,2.40e-02,
1063,-2.00e-02,
1064,-4.00e-02,
1065,2.80e-02,
1066,6.40e-02,
1067,-4.80e-02,
1068,-1.20e-02,
1069,8.80e-02,
1070,-1.20e-02,
1071,2.00e-02,
1072,-1.60e-02,
1073,2.40e-02,
1074,-8.00e-02,
1075,3.20e-02,
1076,-1.20e-02,
1077,2.00e-02,
1078,-3.20e-02,
1079,2.56e-01,
1080,-5.20e-02,
1081,7.20e-02,
1082,-1.20e-02,
1083,2.40e-02,
1084,3.60e-02,
1085,-4.00e-02,
1086,1.12e-01,
1087,-5.60e-02,
1088,1.24e-01,
1089,-1.28e-01,
1090,2.00e-02,
1091,-2.00e-02,
1092,-4.80e-02,
1093,6.40e-02,
1094,3.60e-02,
1095,-3.20e-02,
1096,-1.60e-02,
1097,2.40e-02,
1098,1.32e-01,
1099,-1.44e-01,
1100,-5.20e-02,
1101,3.60e-02,
1102,-2.00e-02,
1103,2.40e-02,
1104,-8.00e-02,
1105,6.00e-02,
1106,2.40e-02,
1107,-2.00e-02,
1108,-1.60e-02,
1109,2.00e-02,
1110,-3.20e-02,
1111,6.80e-02,
1112,2.80e-02,
1113,-2.40e-02,
1114,-1.60e-02,
1115,9.60e-02,
1116,4.00e-02,
1117,-4.80e-02,
1118,-4.40e-02,
1119,4.00e-02,
1120,2.00e-02,
1121,-1.20e-02,
1122,-7.60e-02,
1123,6.40e-02,
1124,2.40e-02,
1125,-1.60e-02,
1126,2.40e-02,
1127,-2.00e-02,
1128,-4.40e-02,
1129,7.20e-02,
1130,2.80e-02,
1131,-4.40e-02,
1132,-1.60e-02,
1133,2.40e-02,
1134,-4.00e-02,
1135,2.80e-02,
1136,-2.80e-02,
1137,4.00e-02,
1138,-2.00e-02,
1139,2.40e-02,
1140,-6.40e-02,
1141,1.00e-01,
1142,-2.00e-02,
1143,2.80e-02,
1144,-7.20e-02,
1145,5.60e-02,
1146,2.00e-02,
1147,-2.40e-02,
1148,2.00e-02,
1149,-2.40e-02,
1150,-1.20e-02,
1151,4.80e-02,
1152,-1.60e-02,
1153,2.00e-02,
1154,-3.20e-02,
1155,6.00e-02,
1156,2.00e-02,
1157,-8.00e-02,
1158,-1.20e-02,
1159,2.80e-02,
1160,-1.20e-02,
1161,2.00e-02,
1162,-4.80e-02,
1163,5.20e-02,
1164,4.00e-02,
1165,-2.80e-02,
1166,-1.60e-02,
1167,2.00e-02,
1168,-5.20e-02,
1169,6.40e-02,
1170,2.40e-02,
1171,-2.80e-02,
1172,2.72e-01,
1173,-2.40e-02,
1174,4.80e-02,
1175,-8.40e-02,
1176,-1.60e-02,
1177,2.80e-02,
1178,-1.60e-02,
1179,2.40e-02,
1180,6.80e-02,
1181,-7.20e-02,
1182,-1.60e-02,
1183,3.20e-02,
1184,2.00e-02,
1185,-2.00e-02,
1186,5.20e-02,
1187,-2.40e-02,
1188,2.40e-02,
1189,-4.40e-02,
1190,-1.60e-02,
1191,2.00e-02,
1192,8.40e-02,
1193,-1.20e-02,
1194,-1.20e-02,
1195,1.60e-02,
1196,-1.20e-02,
1197,2.52e-01,
1198,7.20e-02,
1199,-4.80e-02,
