Laptop_1/LAPTOP_CHRGR_1_OFF/time domain/NewFile39.csv

X,CH1,Start,Increment,
Sequence,Volt,-1.500000e-01,2.000000e-04
0,-1.20e-02,
1,1.60e-02,
2,1.60e-02,
3,-8.00e-03,
4,3.20e-02,
5,-2.80e-02,
6,1.20e-02,
7,-1.20e-02,
8,-1.20e-02,
9,1.60e-02,
10,-1.20e-02,
11,1.60e-02,
12,1.60e-02,
13,-1.20e-02,
14,1.60e-02,
15,-8.80e-02,
16,3.20e-02,
17,-4.80e-02,
18,-1.20e-02,
19,1.60e-02,
20,1.60e-02,
21,-1.20e-02,
22,1.60e-02,
23,-1.60e-02,
24,-1.20e-02,
25,1.60e-02,
26,1.60e-02,
27,-1.60e-02,
28,1.60e-02,
29,-2.00e-02,
30,1.60e-02,
31,-1.20e-02,
32,2.00e-02,
33,-1.20e-02,
34,1.60e-02,
35,-1.60e-02,
36,-1.60e-02,
37,2.00e-02,
38,-1.60e-02,
39,1.60e-02,
40,-5.20e-02,
41,2.80e-02,
42,1.60e-02,
43,-1.20e-02,
44,1.60e-02,
45,-1.20e-02,
46,-1.20e-02,
47,2.00e-02,
48,-1.20e-02,
49,1.20e-02,
50,-8.00e-03,
51,1.60e-02,
52,-2.40e-02,
53,3.60e-02,
54,-1.20e-02,
55,1.60e-02,
56,-1.20e-02,
57,1.00e-01,
58,1.60e-02,
59,-1.20e-02,
60,1.60e-02,
61,-1.60e-02,
62,-1.20e-02,
63,1.60e-02,
64,3.60e-02,
65,-1.60e-02,
66,-1.20e-02,
67,1.60e-02,
68,1.20e-02,
69,-1.20e-02,
70,-1.20e-02,
71,1.60e-02,
72,-1.20e-02,
73,1.60e-02,
74,1.60e-02,
75,-1.20e-02,
76,3.20e-02,
77,-1.60e-02,
78,1.60e-02,
79,-9.20e-02,
80,1.60e-02,
81,-1.20e-02,
82,-1.20e-02,
83,2.00e-02,
84,-1.20e-02,
85,1.60e-02,
86,3.60e-02,
87,-2.40e-02,
88,1.60e-02,
89,-1.60e-02,
90,-8.00e-03,
91,2.00e-02,
92,-1.60e-02,
93,2.40e-02,
94,1.60e-02,
95,-1.20e-02,
96,1.60e-02,
97,-1.20e-02,
98,3.60e-02,
99,-2.00e-02,
100,-5.20e-02,
101,2.80e-02,
102,2.00e-02,
103,-1.20e-02,
104,-1.20e-02,
105,1.60e-02,
106,-1.20e-02,
107,1.60e-02,
108,1.60e-02,
109,-1.60e-02,
110,1.60e-02,
111,-2.40e-02,
112,1.60e-02,
113,-1.60e-02,
114,1.60e-02,
115,-1.20e-02,
116,1.60e-02,
117,-1.60e-02,
118,-1.20e-02,
119,2.00e-02,
120,-8.00e-03,
121,1.60e-02,
122,-3.60e-02,
123,3.20e-02,
124,1.60e-02,
125,-1.20e-02,
126,-8.00e-03,
127,2.00e-02,
128,2.40e-02,
129,-1.60e-02,
130,-8.00e-03,
131,9.20e-02,
132,1.60e-02,
133,-8.00e-03,
134,2.40e-02,
135,-2.40e-02,
136,1.20e-02,
137,-1.20e-02,
138,-1.20e-02,
139,2.00e-02,
140,1.60e-02,
141,-1.20e-02,
142,1.60e-02,
143,-1.20e-02,
144,1.60e-02,
145,-1.60e-02,
146,-1.20e-02,
147,3.20e-02,
148,-1.20e-02,
149,2.00e-02,
150,1.60e-02,
151,-1.20e-02,
152,-1.20e-02,
153,1.60e-02,
154,1.60e-02,
155,-1.60e-02,
156,-1.20e-02,
157,2.00e-02,
158,2.80e-02,
159,-2.40e-02,
160,-4.40e-02,
161,3.20e-02,
162,2.00e-02,
163,-1.60e-02,
164,-1.20e-02,
165,2.00e-02,
166,-1.20e-02,
167,1.60e-02,
168,1.60e-02,
169,-1.20e-02,
170,4.40e-02,
171,-2.80e-02,
172,-1.20e-02,
173,1.60e-02,
174,-8.00e-03,
175,1.60e-02,
176,-8.00e-03,
177,1.60e-02,
178,1.60e-02,
179,-1.20e-02,
180,1.60e-02,
181,-1.20e-02,
182,2.80e-02,
183,-1.60e-02,
184,1.60e-02,
185,-1.60e-02,
186,2.40e-02,
187,-6.00e-02,
188,1.60e-02,
189,-1.20e-02,
190,-1.20e-02,
191,1.60e-02,
192,-4.40e-02,
193,2.40e-02,
194,2.00e-02,
195,-1.20e-02,
196,1.60e-02,
197,-1.20e-02,
198,2.00e-02,
199,-2.00e-02,
200,2.00e-02,
201,-1.60e-02,
202,-1.60e-02,
203,2.00e-02,
204,3.60e-02,
205,-3.20e-02,
206,2.00e-02,
207,-1.60e-02,
208,-1.20e-02,
209,1.60e-02,
210,-1.20e-02,
211,1.60e-02,
212,1.20e-02,
213,-1.20e-02,
214,1.60e-02,
215,-8.00e-02,
216,-3.60e-02,
217,4.00e-02,
218,1.20e-02,
219,-1.20e-02,
220,1.20e-02,
221,-1.20e-02,
222,-1.20e-02,
223,1.60e-02,
224,-8.00e-03,
225,1.60e-02,
226,-1.60e-02,
227,2.00e-02,
228,-3.60e-02,
229,2.40e-02,
230,-8.00e-03,
231,1.60e-02,
232,1.60e-02,
233,-1.20e-02,
234,-1.60e-02,
235,1.60e-02,
236,-1.20e-02,
237,2.00e-02,
238,1.60e-02,
239,-1.20e-02,
240,-2.00e-02,
241,3.20e-02,
242,-1.20e-02,
243,7.60e-02,
244,1.60e-02,
245,-1.20e-02,
246,-8.00e-03,
247,1.60e-02,
248,-8.00e-03,
249,1.60e-02,
250,-1.20e-02,
251,1.60e-02,
252,-3.60e-02,
253,2.00e-02,
254,-8.00e-03,
255,1.60e-02,
256,-8.00e-03,
257,1.60e-02,
258,1.60e-02,
259,-1.20e-02,
260,1.60e-02,
261,-1.60e-02,
262,1.20e-02,
263,-1.20e-02,
264,-1.20e-02,
265,2.80e-02,
266,1.60e-02,
267,-1.20e-02,
268,8.00e-02,
269,-2.40e-02,
270,2.00e-02,
271,-1.60e-02,
272,1.60e-02,
273,-1.20e-02,
274,-1.20e-02,
275,1.60e-02,
276,-1.60e-02,
277,2.00e-02,
278,1.60e-02,
279,-1.60e-02,
280,1.60e-02,
281,-1.20e-02,
282,1.60e-02,
283,-1.60e-02,
284,2.00e-02,
285,-1.60e-02,
286,-2.00e-02,
287,2.00e-02,
288,2.00e-02,
289,-2.00e-02,
290,1.60e-02,
291,-1.20e-02,
292,1.60e-02,
293,-1.20e-02,
294,-7.20e-02,
295,1.60e-02,
296,-1.20e-02,
297,1.60e-02,
298,-2.40e-02,
299,2.40e-02,
300,1.20e-02,
301,-1.20e-02,
302,-8.00e-03,
303,1.60e-02,
304,2.80e-02,
305,-2.00e-02,
306,1.60e-02,
307,-1.20e-02,
308,-8.00e-03,
309,1.60e-02,
310,1.60e-02,
311,-2.40e-02,
312,1.60e-02,
313,-1.20e-02,
314,1.60e-02,
315,-1.20e-02,
316,1.60e-02,
317,-1.20e-02,
318,-1.20e-02,
319,1.60e-02,
320,1.08e-01,
321,-1.20e-02,
322,-2.80e-02,
323,2.80e-02,
324,1.60e-02,
325,-1.60e-02,
326,1.60e-02,
327,-1.60e-02,
328,1.60e-02,
329,-1.60e-02,
330,1.60e-02,
331,-1.20e-02,
332,-1.20e-02,
333,1.60e-02,
334,-3.20e-02,
335,2.40e-02,
336,1.60e-02,
337,-1.20e-02,
338,2.40e-02,
339,-1.60e-02,
340,1.60e-02,
341,-1.20e-02,
342,-1.20e-02,
343,1.60e-02,
344,1.60e-02,
345,-1.20e-02,
346,6.80e-02,
347,-1.60e-02,
348,-1.20e-02,
349,1.60e-02,
350,-1.20e-02,
351,1.60e-02,
352,-1.20e-02,
353,1.60e-02,
354,1.60e-02,
355,-1.60e-02,
356,1.60e-02,
357,-1.20e-02,
358,-1.60e-02,
359,2.00e-02,
360,1.60e-02,
361,-1.20e-02,
362,1.60e-02,
363,-1.60e-02,
364,1.60e-02,
365,-1.20e-02,
366,-1.60e-02,
367,2.00e-02,
368,2.80e-02,
369,-2.80e-02,
370,2.00e-02,
371,-1.60e-02,
372,3.60e-02,
373,-1.60e-02,
374,2.00e-02,
375,-1.60e-02,
376,-1.20e-02,
377,1.60e-02,
378,1.60e-02,
379,-1.20e-02,
380,1.60e-02,
381,-1.20e-02,
382,-3.20e-02,
383,1.60e-02,
384,-1.20e-02,
385,1.60e-02,
386,1.60e-02,
387,-1.20e-02,
388,-8.00e-03,
389,1.60e-02,
390,1.60e-02,
391,-1.20e-02,
392,1.60e-02,
393,-1.20e-02,
394,-2.80e-02,
395,1.60e-02,
396,1.60e-02,
397,-1.20e-02,
398,1.60e-02,
399,-6.80e-02,
400,-1.20e-02,
401,2.00e-02,
402,1.60e-02,
403,-1.20e-02,
404,-4.40e-02,
405,3.60e-02,
406,1.60e-02,
407,-1.60e-02,
408,1.60e-02,
409,-1.20e-02,
410,-2.00e-02,
411,3.20e-02,
412,-1.20e-02,
413,1.60e-02,
414,-1.20e-02,
415,2.00e-02,
416,4.00e-02,
417,-2.40e-02,
418,-1.20e-02,
419,1.60e-02,
420,1.60e-02,
421,-1.20e-02,
422,1.60e-02,
423,-1.20e-02,
424,1.60e-02,
425,-1.60e-02,
426,1.60e-02,
427,-1.20e-02,
428,1.60e-02,
429,-4.00e-02,
430,-1.20e-02,
431,1.60e-02,
432,1.60e-02,
433,-1.20e-02,
434,1.60e-02,
435,-1.60e-02,
436,-1.20e-02,
437,2.00e-02,
438,-1.20e-02,
439,1.60e-02,
440,-2.80e-02,
441,4.00e-02,
442,-1.20e-02,
443,1.60e-02,
444,2.00e-02,
445,-1.60e-02,
446,-1.20e-02,
447,1.60e-02,
448,-2.00e-02,
449,2.00e-02,
450,5.20e-02,
451,-5.20e-02,
452,1.60e-02,
453,-3.20e-02,
454,1.60e-02,
455,-1.20e-02,
456,1.60e-02,
457,-1.20e-02,
458,1.60e-02,
459,-1.20e-02,
460,-1.20e-02,
461,1.60e-02,
462,-1.20e-02,
463,1.60e-02,
464,-8.00e-03,
465,3.60e-02,
466,-1.20e-02,
467,1.60e-02,
468,-1.20e-02,
469,2.00e-02,
470,-1.20e-02,
471,1.60e-02,
472,1.60e-02,
473,-8.00e-03,
474,3.20e-02,
475,-2.40e-02,
476,-1.20e-02,
477,1.60e-02,
478,1.60e-02,
479,-4.80e-02,
480,2.00e-02,
481,-2.40e-02,
482,1.20e-02,
483,-1.20e-02,
484,2.00e-02,
485,-1.60e-02,
486,1.60e-02,
487,-1.20e-02,
488,2.40e-02,
489,-2.40e-02,
490,-1.20e-02,
491,2.00e-02,
492,1.60e-02,
493,-1.20e-02,
494,-1.20e-02,
495,1.60e-02,
496,-1.20e-02,
497,2.00e-02,
498,-2.00e-02,
499,2.80e-02,
500,1.60e-02,
501,-1.20e-02,
502,-1.20e-02,
503,3.60e-02,
504,1.60e-02,
505,-1.20e-02,
506,1.60e-02,
507,-1.60e-02,
508,1.60e-02,
509,-1.20e-02,
510,-1.60e-02,
511,3.60e-02,
512,-1.20e-02,
513,1.60e-02,
514,1.20e-02,
515,-1.20e-02,
516,-2.00e-02,
517,2.00e-02,
518,1.60e-02,
519,-1.20e-02,
520,1.60e-02,
521,-1.20e-02,
522,2.40e-02,
523,-2.40e-02,
524,1.60e-02,
525,-1.20e-02,
526,-1.20e-02,
527,1.60e-02,
528,-2.40e-02,
529,9.60e-02,
530,-1.20e-02,
531,2.00e-02,
532,1.60e-02,
533,-1.20e-02,
534,-2.00e-02,
535,3.20e-02,
536,2.00e-02,
537,-1.20e-02,
538,2.00e-02,
539,-1.20e-02,
540,-1.60e-02,
541,1.60e-02,
542,1.60e-02,
543,-1.20e-02,
544,-1.20e-02,
545,1.60e-02,
546,-3.60e-02,
547,2.00e-02,
548,1.60e-02,
549,-1.20e-02,
550,-2.40e-02,
551,1.60e-02,
552,-8.00e-03,
553,1.60e-02,
554,-1.20e-02,
555,1.60e-02,
556,-1.20e-02,
557,9.60e-02,
558,-3.20e-02,
559,3.60e-02,
560,1.60e-02,
561,-1.20e-02,
562,1.60e-02,
563,-1.60e-02,
564,1.20e-02,
565,-1.20e-02,
566,-1.20e-02,
567,1.60e-02,
568,-1.20e-02,
569,1.60e-02,
570,4.00e-02,
571,-2.00e-02,
572,-1.20e-02,
573,2.00e-02,
574,-1.20e-02,
575,1.60e-02,
576,1.60e-02,
577,-1.20e-02,
578,-1.60e-02,
579,2.00e-02,
580,2.00e-02,
581,-2.80e-02,
582,1.60e-02,
583,-8.00e-02,
584,-1.20e-02,
585,1.60e-02,
586,-1.20e-02,
587,2.40e-02,
588,1.60e-02,
589,-1.20e-02,
590,1.20e-02,
591,-1.20e-02,
592,-3.20e-02,
593,2.00e-02,
594,1.60e-02,
595,-1.20e-02,
596,-1.20e-02,
597,1.60e-02,
598,1.20e-02,
599,-1.20e-02,
600,-1.20e-02,
601,2.00e-02,
602,-1.60e-02,
603,1.60e-02,
604,-2.80e-02,
605,3.60e-02,
606,1.60e-02,
607,-1.20e-02,
608,-2.40e-02,
609,3.20e-02,
610,-1.60e-02,
611,1.60e-02,
612,1.60e-02,
613,-1.60e-02,
614,2.00e-02,
615,-1.60e-02,
616,-4.00e-02,
617,3.60e-02,
618,-1.20e-02,
619,1.60e-02,
620,-1.20e-02,
621,2.00e-02,
622,-1.20e-02,
623,2.40e-02,
624,1.60e-02,
625,-1.20e-02,
626,1.20e-02,
627,-1.60e-02,
628,-1.20e-02,
629,2.40e-02,
630,-1.20e-02,
631,1.60e-02,
632,1.60e-02,
633,-1.20e-02,
634,-1.20e-02,
635,7.20e-02,
636,-1.20e-02,
637,1.60e-02,
638,-1.20e-02,
639,1.20e-02,
640,2.40e-02,
641,-2.00e-02,
642,1.60e-02,
643,-1.60e-02,
644,-1.20e-02,
645,1.60e-02,
646,-1.20e-02,
647,1.60e-02,
648,-1.20e-02,
649,1.60e-02,
650,-1.20e-02,
651,1.60e-02,
652,3.60e-02,
653,-3.60e-02,
654,-1.20e-02,
655,1.60e-02,
656,1.60e-02,
657,-2.40e-02,
658,-1.20e-02,
659,2.00e-02,
660,2.00e-02,
661,-1.60e-02,
662,1.60e-02,
663,-9.20e-02,
664,3.20e-02,
665,-1.60e-02,
666,1.60e-02,
667,-1.20e-02,
668,-1.20e-02,
669,1.60e-02,
670,-1.20e-02,
671,1.60e-02,
672,-1.20e-02,
673,1.60e-02,
674,1.60e-02,
675,-1.20e-02,
676,-1.20e-02,
677,3.20e-02,
678,1.20e-02,
679,-1.20e-02,
680,-1.20e-02,
681,2.00e-02,
682,-1.20e-02,
683,1.60e-02,
684,1.60e-02,
685,-1.20e-02,
686,4.40e-02,
687,-2.80e-02,
688,6.40e-02,
689,-2.40e-02,
690,-1.20e-02,
691,1.60e-02,
692,-1.20e-02,
693,2.00e-02,
694,1.60e-02,
695,-1.20e-02,
696,1.60e-02,
697,-1.20e-02,
698,-2.40e-02,
699,2.80e-02,
700,-1.20e-02,
701,2.00e-02,
702,1.60e-02,
703,-1.20e-02,
704,2.00e-02,
705,-1.20e-02,
706,-1.20e-02,
707,1.60e-02,
708,-1.20e-02,
709,1.60e-02,
710,2.40e-02,
711,-2.00e-02,
712,-1.20e-02,
713,1.60e-02,
714,-2.80e-02,
715,1.60e-02,
716,1.60e-02,
717,-1.60e-02,
718,-1.20e-02,
719,1.60e-02,
720,-1.20e-02,
721,1.60e-02,
722,-2.80e-02,
723,4.00e-02,
724,-1.20e-02,
725,1.60e-02,
726,-1.20e-02,
727,1.60e-02,
728,2.80e-02,
729,-1.60e-02,
730,-1.20e-02,
731,1.60e-02,
732,-1.60e-02,
733,1.60e-02,
734,4.00e-02,
735,-3.60e-02,
736,2.00e-02,
737,-1.20e-02,
738,-1.20e-02,
739,1.60e-02,
740,-1.20e-02,
741,3.60e-02,
742,1.60e-02,
743,-1.20e-02,
744,1.60e-02,
745,-1.60e-02,
746,-2.40e-02,
747,1.60e-02,
748,2.00e-02,
749,-1.20e-02,
750,-1.20e-02,
751,1.60e-02,
752,1.20e-02,
753,-1.20e-02,
754,1.20e-02,
755,-1.20e-02,
756,1.20e-02,
757,-1.20e-02,
758,-1.20e-02,
759,4.40e-02,
760,-1.60e-02,
761,1.60e-02,
762,2.00e-02,
763,-1.60e-02,
764,1.20e-02,
765,-1.20e-02,
766,8.80e-02,
767,-2.00e-02,
768,-8.00e-03,
769,2.00e-02,
770,4.40e-02,
771,-2.40e-02,
772,-8.00e-03,
773,1.60e-02,
774,2.00e-02,
775,-1.20e-02,
776,-1.20e-02,
777,2.00e-02,
778,1.60e-02,
779,-1.20e-02,
780,-1.20e-02,
781,1.60e-02,
782,3.20e-02,
783,-2.40e-02,
784,1.60e-02,
785,-1.20e-02,
786,1.60e-02,
787,-1.20e-02,
788,-1.20e-02,
789,1.60e-02,
790,1.60e-02,
791,-1.20e-02,
792,-1.20e-02,
793,2.80e-02,
794,-8.00e-03,
795,1.60e-02,
796,1.60e-02,
797,-8.00e-03,
798,-1.20e-02,
799,2.00e-02,
800,1.20e-02,
801,-1.20e-02,
802,1.60e-02,
803,-1.20e-02,
804,-2.80e-02,
805,2.80e-02,
806,-1.20e-02,
807,1.60e-02,
808,1.60e-02,
809,-1.20e-02,
810,-1.60e-02,
811,1.60e-02,
812,-1.60e-02,
813,1.60e-02,
814,-1.20e-02,
815,1.60e-02,
816,-2.40e-02,
817,2.40e-02,
818,1.60e-02,
819,-7.60e-02,
820,-1.20e-02,
821,1.60e-02,
822,-1.60e-02,
823,2.00e-02,
824,-1.20e-02,
825,2.00e-02,
826,1.60e-02,
827,-1.60e-02,
828,2.00e-02,
829,-3.20e-02,
830,2.00e-02,
831,-1.20e-02,
832,1.60e-02,
833,-1.20e-02,
834,-1.20e-02,
835,2.00e-02,
836,1.60e-02,
837,-1.20e-02,
838,1.60e-02,
839,-1.20e-02,
840,3.60e-02,
841,-2.80e-02,
842,1.60e-02,
843,-1.20e-02,
844,8.40e-02,
845,-1.60e-02,
846,1.60e-02,
847,-1.20e-02,
848,-1.20e-02,
849,1.60e-02,
850,-1.20e-02,
851,1.60e-02,
852,-2.00e-02,
853,3.60e-02,
854,1.60e-02,
855,-1.60e-02,
856,-1.20e-02,
857,1.60e-02,
858,-1.60e-02,
859,1.60e-02,
860,-1.20e-02,
861,1.60e-02,
862,1.20e-02,
863,-1.20e-02,
864,-2.80e-02,
865,1.60e-02,
866,-1.20e-02,
867,1.60e-02,
868,2.00e-02,
869,-1.60e-02,
870,1.60e-02,
871,-1.60e-02,
872,1.60e-02,
873,-1.60e-02,
874,2.00e-02,
875,-8.00e-03,
876,-2.40e-02,
877,2.80e-02,
878,1.20e-02,
879,-1.20e-02,
880,-1.20e-02,
881,1.60e-02,
882,1.60e-02,
883,-1.20e-02,
884,-1.20e-02,
885,1.60e-02,
886,1.60e-02,
887,-1.20e-02,
888,-2.40e-02,
889,3.20e-02,
890,1.60e-02,
891,-1.20e-02,
892,1.60e-02,
893,-1.20e-02,
894,-1.20e-02,
895,1.60e-02,
896,5.20e-02,
897,-7.60e-02,
898,3.20e-02,
899,-2.80e-02,
900,1.60e-02,
901,-1.20e-02,
902,1.20e-02,
903,-1.20e-02,
904,-1.60e-02,
905,1.60e-02,
906,1.60e-02,
907,-1.60e-02,
908,2.00e-02,
909,-1.20e-02,
910,1.60e-02,
911,-2.00e-02,
912,1.60e-02,
913,-1.20e-02,
914,-1.20e-02,
915,2.00e-02,
916,1.20e-02,
917,-1.20e-02,
918,-1.20e-02,
919,1.60e-02,
920,1.60e-02,
921,-1.20e-02,
922,7.60e-02,
923,-2.80e-02,
924,-8.00e-03,
925,1.60e-02,
926,1.20e-02,
927,-1.20e-02,
928,1.60e-02,
929,-1.20e-02,
930,1.20e-02,
931,-1.20e-02,
932,-1.20e-02,
933,1.60e-02,
934,-3.20e-02,
935,2.40e-02,
936,1.60e-02,
937,-1.60e-02,
938,1.60e-02,
939,-1.20e-02,
940,-1.20e-02,
941,2.00e-02,
942,-1.20e-02,
943,1.60e-02,
944,-1.20e-02,
945,1.60e-02,
946,1.60e-02,
947,-3.20e-02,
948,1.60e-02,
949,-8.00e-02,
950,1.60e-02,
951,-1.20e-02,
952,-1.20e-02,
953,2.00e-02,
954,-1.20e-02,
955,2.00e-02,
956,2.00e-02,
957,-1.20e-02,
958,3.60e-02,
959,-1.60e-02,
960,-8.00e-03,
961,1.60e-02,
962,1.60e-02,
963,-1.60e-02,
964,1.60e-02,
965,-1.20e-02,
966,1.60e-02,
967,-1.20e-02,
968,1.60e-02,
969,-1.20e-02,
970,-3.60e-02,
971,3.60e-02,
972,1.60e-02,
973,-1.20e-02,
974,2.80e-02,
975,-2.00e-02,
976,-6.40e-02,
977,8.40e-02,
978,2.00e-02,
979,-1.20e-02,
980,1.20e-02,
981,-1.60e-02,
982,3.20e-02,
983,-2.00e-02,
984,-1.20e-02,
985,2.00e-02,
986,-1.20e-02,
987,1.60e-02,
988,-1.20e-02,
989,2.00e-02,
990,-1.60e-02,
991,1.60e-02,
992,-1.60e-02,
993,2.00e-02,
994,-2.80e-02,
995,2.40e-02,
996,-1.60e-02,
997,2.00e-02,
998,2.00e-02,
999,-1.60e-02,
1000,-1.20e-02,
1001,1.60e-02,
1002,7.60e-02,
1003,-1.20e-02,
1004,2.40e-02,
1005,-2.80e-02,
1006,1.60e-02,
1007,-1.20e-02,
1008,-1.20e-02,
1009,1.60e-02,
1010,-1.20e-02,
1011,2.00e-02,
1012,-1.20e-02,
1013,1.60e-02,
1014,1.20e-02,
1015,-1.20e-02,
1016,3.20e-02,
1017,-2.80e-02,
1018,1.60e-02,
1019,-1.60e-02,
1020,1.60e-02,
1021,-1.20e-02,
1022,1.60e-02,
1023,-1.60e-02,
1024,1.20e-02,
1025,-1.20e-02,
1026,1.20e-02,
1027,-1.20e-02,
1028,-3.60e-02,
1029,2.80e-02,
1030,2.00e-02,
1031,-1.20e-02,
1032,1.60e-02,
1033,-1.20e-02,
1034,-2.00e-02,
1035,2.00e-02,
1036,-1.20e-02,
1037,2.00e-02,
1038,-1.20e-02,
1039,1.60e-02,
1040,3.60e-02,
1041,-2.40e-02,
1042,-1.20e-02,
1043,1.60e-02,
1044,-1.20e-02,
1045,1.60e-02,
1046,1.60e-02,
1047,-1.20e-02,
1048,1.60e-02,
1049,-1.20e-02,
1050,1.20e-02,
1051,-1.20e-02,
1052,-1.60e-02,
1053,2.40e-02,
1054,8.00e-02,
1055,-1.60e-02,
1056,-1.20e-02,
1057,1.60e-02,
1058,-1.20e-02,
1059,1.60e-02,
1060,1.60e-02,
1061,-1.20e-02,
1062,-1.20e-02,
1063,1.60e-02,
1064,1.60e-02,
1065,-1.60e-02,
1066,-1.20e-02,
1067,2.00e-02,
1068,-1.60e-02,
1069,2.40e-02,
1070,-1.20e-02,
1071,1.60e-02,
1072,-1.20e-02,
1073,1.60e-02,
1074,2.00e-02,
1075,-1.60e-02,
1076,-1.20e-02,
1077,3.20e-02,
1078,1.60e-02,
1079,-1.60e-02,
1080,-7.20e-02,
1081,1.16e-01,
1082,1.60e-02,
1083,-1.20e-02,
1084,-1.60e-02,
1085,1.60e-02,
1086,-1.20e-02,
1087,1.60e-02,
1088,-1.20e-02,
1089,2.40e-02,
1090,-8.00e-02,
1091,1.60e-02,
1092,-1.20e-02,
1093,1.60e-02,
1094,-1.20e-02,
1095,1.60e-02,
1096,-1.20e-02,
1097,1.60e-02,
1098,-1.20e-02,
1099,1.60e-02,
1100,3.20e-02,
1101,-4.00e-02,
1102,7.60e-02,
1103,-1.60e-02,
1104,1.60e-02,
1105,-1.20e-02,
1106,1.60e-02,
1107,-1.60e-02,
1108,-1.60e-02,
1109,1.60e-02,
1110,-1.20e-02,
1111,2.80e-02,
1112,1.60e-02,
1113,-9.60e-02,
1114,1.60e-02,
1115,-1.20e-02,
1116,2.80e-02,
1117,-1.60e-02,
1118,-1.60e-02,
1119,2.00e-02,
1120,1.60e-02,
1121,-1.60e-02,
1122,3.60e-02,
1123,-2.80e-02,
1124,1.60e-02,
1125,-1.60e-02,
1126,-1.20e-02,
1127,1.60e-02,
1128,1.60e-02,
1129,-1.20e-02,
1130,1.60e-02,
1131,-1.20e-02,
1132,1.60e-02,
1133,-1.20e-02,
1134,-2.00e-02,
1135,2.80e-02,
1136,-1.20e-02,
1137,1.60e-02,
1138,1.20e-02,
1139,-1.20e-02,
1140,-1.20e-02,
1141,1.60e-02,
1142,-1.20e-02,
1143,1.16e-01,
1144,1.60e-02,
1145,-1.20e-02,
1146,-2.00e-02,
1147,3.60e-02,
1148,-1.20e-02,
1149,1.60e-02,
1150,-1.20e-02,
1151,2.00e-02,
1152,-1.60e-02,
1153,1.60e-02,
1154,-1.20e-02,
1155,1.60e-02,
1156,-1.20e-02,
1157,2.00e-02,
1158,-1.60e-02,
1159,3.60e-02,
1160,-1.60e-02,
1161,2.00e-02,
1162,1.60e-02,
1163,-1.60e-02,
1164,-8.00e-03,
1165,2.00e-02,
1166,1.60e-02,
1167,-1.20e-02,
1168,-1.20e-02,
1169,1.60e-02,
1170,-1.60e-02,
1171,3.20e-02,
1172,-3.20e-02,
1173,3.20e-02,
1174,-1.60e-02,
1175,1.60e-02,
1176,-1.20e-02,
1177,1.60e-02,
1178,-1.20e-02,
1179,1.60e-02,
1180,1.60e-02,
1181,-1.20e-02,
1182,3.20e-02,
1183,-1.20e-02,
1184,1.60e-02,
1185,-1.20e-02,
1186,-2.00e-02,
1187,2.00e-02,
1188,-1.20e-02,
1189,1.60e-02,
1190,1.20e-02,
1191,-1.20e-02,
1192,1.60e-02,
1193,-1.20e-02,
1194,-1.60e-02,
1195,3.20e-02,
1196,-1.20e-02,
1197,1.60e-02,
1198,1.60e-02,
1199,-2.00e-02,
