Laptop_1/LAPTOP_CHRGR_1_OFF/time domain/NewFile9.csv

X,CH1,Start,Increment,
Sequence,Volt,-1.500000e-01,2.000000e-04
0,-1.60e-02,
1,2.40e-02,
2,2.40e-02,
3,-2.00e-02,
4,-2.00e-02,
5,2.40e-02,
6,-2.00e-02,
7,2.40e-02,
8,2.40e-02,
9,-2.00e-02,
10,2.40e-02,
11,-2.00e-02,
12,-2.48e-01,
13,2.40e-02,
14,-2.00e-02,
15,2.40e-02,
16,-2.40e-02,
17,2.40e-02,
18,2.80e-02,
19,-2.40e-02,
20,2.40e-02,
21,-2.40e-02,
22,2.80e-02,
23,-2.00e-02,
24,2.40e-02,
25,-2.00e-02,
26,-2.80e-02,
27,2.80e-02,
28,2.80e-02,
29,-2.40e-02,
30,2.80e-02,
31,-2.40e-02,
32,3.20e-02,
33,-2.40e-02,
34,2.40e-02,
35,-2.40e-02,
36,2.80e-02,
37,-2.00e-02,
38,2.40e-02,
39,-1.60e-02,
40,2.40e-02,
41,-2.00e-02,
42,2.40e-02,
43,-2.00e-02,
44,2.80e-02,
45,-2.00e-02,
46,-2.00e-02,
47,2.40e-02,
48,2.40e-02,
49,-2.00e-02,
50,-1.60e-02,
51,2.40e-02,
52,-2.00e-02,
53,2.40e-02,
54,2.40e-02,
55,-2.00e-02,
56,2.40e-02,
57,-2.40e-02,
58,-2.00e-02,
59,2.40e-02,
60,2.40e-02,
61,-2.00e-02,
62,-1.76e-01,
63,4.40e-02,
64,2.40e-02,
65,-2.00e-02,
66,2.40e-02,
67,-2.00e-02,
68,-2.80e-02,
69,3.20e-02,
70,2.40e-02,
71,-2.80e-02,
72,3.20e-02,
73,-2.40e-02,
74,-2.80e-02,
75,2.80e-02,
76,-2.40e-02,
77,2.80e-02,
78,2.80e-02,
79,-2.00e-02,
80,2.40e-02,
81,-2.00e-02,
82,2.40e-02,
83,-2.00e-02,
84,2.40e-02,
85,-2.00e-02,
86,-5.20e-02,
87,1.80e-01,
88,-2.40e-02,
89,2.40e-02,
90,-2.00e-02,
91,2.80e-02,
92,2.40e-02,
93,-2.00e-02,
94,2.80e-02,
95,-2.40e-02,
96,-2.00e-02,
97,3.20e-02,
98,-2.40e-02,
99,2.40e-02,
100,-2.40e-02,
101,2.80e-02,
102,-2.40e-02,
103,3.20e-02,
104,2.80e-02,
105,-2.80e-02,
106,2.40e-02,
107,-2.80e-02,
108,2.80e-02,
109,-2.80e-02,
110,-5.60e-02,
111,2.80e-02,
112,2.80e-02,
113,-2.80e-02,
114,3.20e-02,
115,-2.80e-02,
116,-2.40e-02,
117,2.80e-02,
118,-2.00e-02,
119,2.80e-02,
120,-2.00e-02,
121,2.80e-02,
122,-2.00e-02,
123,2.40e-02,
124,-2.40e-02,
125,2.40e-02,
126,2.40e-02,
127,-2.00e-02,
128,-1.60e-02,
129,2.40e-02,
130,-1.60e-02,
131,2.40e-02,
132,-2.00e-02,
133,2.40e-02,
134,-1.48e-01,
135,2.20e-01,
136,2.00e-02,
137,-2.40e-02,
138,3.20e-02,
139,-2.40e-02,
140,2.40e-02,
141,-1.60e-02,
142,-2.00e-02,
143,2.80e-02,
144,-2.00e-02,
145,2.40e-02,
146,-2.00e-02,
147,2.40e-02,
148,-2.40e-02,
149,2.80e-02,
150,2.80e-02,
151,-2.00e-02,
152,-2.00e-02,
153,2.80e-02,
154,-2.40e-02,
155,2.80e-02,
156,2.40e-02,
157,-2.40e-02,
158,-1.60e-02,
159,3.60e-02,
160,3.20e-02,
161,-2.80e-02,
162,-2.40e-02,
163,2.40e-02,
164,-1.60e-02,
165,2.80e-02,
166,2.80e-02,
167,-1.60e-02,
168,-1.60e-02,
169,2.40e-02,
170,2.40e-02,
171,-2.40e-02,
172,2.80e-02,
173,-2.00e-02,
174,-2.00e-02,
175,2.40e-02,
176,2.00e-02,
177,-2.00e-02,
178,-2.00e-02,
179,2.40e-02,
180,2.40e-02,
181,-2.00e-02,
182,2.80e-02,
183,-8.00e-02,
184,2.40e-02,
185,-2.40e-02,
186,-2.80e-02,
187,2.80e-02,
188,-1.60e-02,
189,2.80e-02,
190,-1.60e-02,
191,2.40e-02,
192,-2.00e-02,
193,2.80e-02,
194,-1.60e-02,
195,3.20e-02,
196,2.80e-02,
197,-2.80e-02,
198,2.80e-02,
199,-2.00e-02,
200,-2.40e-02,
201,3.20e-02,
202,-2.40e-02,
203,2.80e-02,
204,-2.00e-02,
205,2.40e-02,
206,-2.16e-01,
207,3.20e-02,
208,-2.00e-02,
209,2.40e-02,
210,2.40e-02,
211,-2.40e-02,
212,-1.60e-02,
213,2.40e-02,
214,-1.60e-02,
215,2.40e-02,
216,2.00e-02,
217,-1.60e-02,
218,-2.00e-02,
219,2.40e-02,
220,-1.60e-02,
221,2.40e-02,
222,2.00e-02,
223,-2.40e-02,
224,-2.00e-02,
225,2.40e-02,
226,-2.00e-02,
227,2.80e-02,
228,-1.60e-02,
229,2.40e-02,
230,-1.60e-02,
231,2.40e-02,
232,-2.00e-02,
233,4.80e-02,
234,2.40e-02,
235,-2.00e-02,
236,-2.00e-02,
237,2.40e-02,
238,-2.00e-02,
239,2.80e-02,
240,3.20e-02,
241,-2.80e-02,
242,-2.00e-02,
243,2.80e-02,
244,2.80e-02,
245,-2.80e-02,
246,-2.00e-02,
247,2.00e-02,
248,-1.60e-02,
249,2.40e-02,
250,2.00e-02,
251,-1.60e-02,
252,-1.60e-02,
253,2.40e-02,
254,-1.60e-02,
255,2.40e-02,
256,8.80e-02,
257,-1.92e-01,
258,2.00e-02,
259,-2.00e-02,
260,2.40e-02,
261,-2.00e-02,
262,-2.00e-02,
263,2.80e-02,
264,-2.00e-02,
265,2.40e-02,
266,-2.40e-02,
267,2.80e-02,
268,2.40e-02,
269,-2.40e-02,
270,2.80e-02,
271,-2.40e-02,
272,-2.00e-02,
273,2.80e-02,
274,-2.00e-02,
275,2.40e-02,
276,-2.00e-02,
277,2.80e-02,
278,-2.80e-02,
279,4.80e-02,
280,2.80e-02,
281,-2.00e-02,
282,-2.00e-02,
283,2.80e-02,
284,3.20e-02,
285,-2.80e-02,
286,2.40e-02,
287,-2.40e-02,
288,2.40e-02,
289,-2.40e-02,
290,2.00e-02,
291,-1.60e-02,
292,2.00e-02,
293,-1.60e-02,
294,2.00e-02,
295,-1.60e-02,
296,2.00e-02,
297,-1.60e-02,
298,-2.00e-02,
299,2.40e-02,
300,-1.60e-02,
301,2.40e-02,
302,-1.60e-02,
303,2.00e-02,
304,-2.04e-01,
305,2.40e-02,
306,-2.00e-02,
307,2.80e-02,
308,2.80e-02,
309,-2.40e-02,
310,-1.60e-02,
311,2.40e-02,
312,2.00e-02,
313,-2.00e-02,
314,-1.60e-02,
315,2.40e-02,
316,2.00e-02,
317,-2.40e-02,
318,-2.00e-02,
319,2.40e-02,
320,-2.00e-02,
321,2.80e-02,
322,-2.40e-02,
323,2.80e-02,
324,-1.60e-02,
325,2.80e-02,
326,-1.96e-01,
327,3.60e-02,
328,2.40e-02,
329,-1.60e-02,
330,2.40e-02,
331,-2.00e-02,
332,2.00e-02,
333,-1.60e-02,
334,2.00e-02,
335,-1.60e-02,
336,2.00e-02,
337,-2.40e-02,
338,-2.00e-02,
339,2.40e-02,
340,-1.60e-02,
341,2.80e-02,
342,2.00e-02,
343,-1.60e-02,
344,-1.60e-02,
345,2.40e-02,
346,2.80e-02,
347,-2.00e-02,
348,2.40e-02,
349,-2.40e-02,
350,-2.00e-02,
351,3.60e-02,
352,-2.40e-02,
353,2.80e-02,
354,2.40e-02,
355,-2.00e-02,
356,2.00e-02,
357,-2.40e-02,
358,2.80e-02,
359,-2.00e-02,
360,2.40e-02,
361,-2.40e-02,
362,2.80e-02,
363,-2.80e-02,
364,2.80e-02,
365,-2.80e-02,
366,-2.40e-02,
367,3.20e-02,
368,-2.40e-02,
369,3.20e-02,
370,2.40e-02,
371,-2.00e-02,
372,-1.60e-02,
373,2.40e-02,
374,-1.60e-02,
375,2.40e-02,
376,-1.60e-02,
377,2.40e-02,
378,-1.60e-02,
379,2.40e-02,
380,2.40e-02,
381,-1.60e-02,
382,-1.60e-02,
383,2.00e-02,
384,-1.60e-02,
385,2.00e-02,
386,2.00e-02,
387,-2.40e-02,
388,2.40e-02,
389,-2.00e-02,
390,-2.00e-02,
391,2.40e-02,
392,-1.60e-02,
393,2.40e-02,
394,2.40e-02,
395,-2.00e-02,
396,2.80e-02,
397,-2.00e-02,
398,2.40e-02,
399,-2.00e-02,
400,-2.00e-02,
401,2.80e-02,
402,2.48e-01,
403,-4.80e-02,
404,2.80e-02,
405,-3.20e-02,
406,-2.00e-02,
407,3.20e-02,
408,2.80e-02,
409,-2.00e-02,
410,-2.00e-02,
411,2.80e-02,
412,-1.60e-02,
413,2.40e-02,
414,2.40e-02,
415,-2.40e-02,
416,-1.60e-02,
417,2.80e-02,
418,-1.60e-02,
419,2.40e-02,
420,-1.60e-02,
421,2.00e-02,
422,2.40e-02,
423,-2.00e-02,
424,-2.00e-02,
425,2.00e-02,
426,7.60e-02,
427,-1.60e-02,
428,2.40e-02,
429,-2.00e-02,
430,-2.00e-02,
431,2.40e-02,
432,2.40e-02,
433,-2.40e-02,
434,2.40e-02,
435,-2.00e-02,
436,-2.40e-02,
437,2.80e-02,
438,-2.00e-02,
439,2.40e-02,
440,-2.00e-02,
441,2.80e-02,
442,2.80e-02,
443,-2.40e-02,
444,2.80e-02,
445,-2.80e-02,
446,3.20e-02,
447,-2.40e-02,
448,2.80e-02,
449,-2.00e-02,
450,-8.40e-02,
451,1.64e-01,
452,2.80e-02,
453,-2.80e-02,
454,-1.60e-02,
455,2.40e-02,
456,2.00e-02,
457,-2.00e-02,
458,2.00e-02,
459,-2.00e-02,
460,2.00e-02,
461,-2.00e-02,
462,-2.00e-02,
463,2.40e-02,
464,2.40e-02,
465,-2.00e-02,
466,-2.00e-02,
467,2.40e-02,
468,-2.80e-02,
469,2.40e-02,
470,2.40e-02,
471,-2.40e-02,
472,-2.00e-02,
473,2.40e-02,
474,2.40e-02,
475,-2.00e-02,
476,-2.00e-02,
477,1.92e-01,
478,-2.00e-02,
479,2.40e-02,
480,-2.00e-02,
481,2.40e-02,
482,2.40e-02,
483,-2.40e-02,
484,-2.40e-02,
485,3.20e-02,
486,-2.00e-02,
487,3.20e-02,
488,-9.60e-02,
489,3.60e-02,
490,-2.00e-02,
491,2.80e-02,
492,-2.00e-02,
493,2.80e-02,
494,2.40e-02,
495,-2.40e-02,
496,2.00e-02,
497,-2.00e-02,
498,-1.60e-02,
499,2.00e-02,
500,1.60e-01,
501,-6.00e-02,
502,2.00e-02,
503,-2.00e-02,
504,-1.60e-02,
505,2.40e-02,
506,-1.60e-02,
507,2.00e-02,
508,-1.60e-02,
509,2.40e-02,
510,2.00e-02,
511,-2.00e-02,
512,-2.00e-02,
513,2.80e-02,
514,-2.40e-02,
515,2.80e-02,
516,-2.00e-02,
517,2.40e-02,
518,2.80e-02,
519,-2.00e-02,
520,2.40e-02,
521,-2.40e-02,
522,-2.00e-02,
523,2.80e-02,
524,2.80e-02,
525,-2.40e-02,
526,2.80e-02,
527,-2.00e-02,
528,2.80e-02,
529,-2.80e-02,
530,-2.00e-02,
531,1.88e-01,
532,-2.40e-02,
533,2.80e-02,
534,-2.80e-02,
535,3.20e-02,
536,2.80e-02,
537,-2.00e-02,
538,-1.60e-02,
539,2.40e-02,
540,2.40e-02,
541,-2.00e-02,
542,2.40e-02,
543,-2.00e-02,
544,2.00e-02,
545,-1.60e-02,
546,-1.60e-02,
547,2.40e-02,
548,-1.60e-02,
549,2.40e-02,
550,2.40e-02,
551,-2.00e-02,
552,-1.60e-02,
553,2.80e-02,
554,-1.60e-02,
555,2.40e-02,
556,2.40e-02,
557,-2.00e-02,
558,2.80e-02,
559,-2.00e-02,
560,2.40e-02,
561,-2.00e-02,
562,2.40e-02,
563,-2.00e-02,
564,2.80e-02,
565,-1.60e-02,
566,-1.60e-02,
567,2.80e-02,
568,3.20e-02,
569,-2.80e-02,
570,3.20e-02,
571,-2.40e-02,
572,3.20e-02,
573,-2.40e-02,
574,-2.80e-02,
575,2.80e-02,
576,2.80e-02,
577,-2.80e-02,
578,-2.40e-02,
579,2.80e-02,
580,2.00e-02,
581,-1.60e-02,
582,-1.60e-02,
583,2.40e-02,
584,3.60e-02,
585,-2.00e-02,
586,2.40e-02,
587,-2.00e-02,
588,2.40e-02,
589,-2.00e-02,
590,2.40e-02,
591,-2.00e-02,
592,2.40e-02,
593,-1.60e-02,
594,2.40e-02,
595,-2.00e-02,
596,2.80e-02,
597,-2.00e-02,
598,2.40e-02,
599,-2.00e-02,
600,-2.00e-02,
601,2.40e-02,
602,-2.00e-02,
603,2.40e-02,
604,-2.00e-02,
605,2.80e-02,
606,-2.00e-02,
607,2.80e-02,
608,2.40e-02,
609,-2.00e-02,
610,-1.76e-01,
611,1.40e-01,
612,-2.40e-02,
613,2.80e-02,
614,-2.80e-02,
615,3.20e-02,
616,-2.00e-02,
617,2.80e-02,
618,2.80e-02,
619,-2.80e-02,
620,-2.00e-02,
621,2.40e-02,
622,2.00e-02,
623,-2.00e-02,
624,2.00e-02,
625,-1.60e-02,
626,2.00e-02,
627,-1.60e-02,
628,2.40e-02,
629,-2.00e-02,
630,-1.60e-02,
631,2.40e-02,
632,2.00e-02,
633,-1.60e-02,
634,-2.00e-02,
635,2.40e-02,
636,1.84e-01,
637,-2.40e-02,
638,-2.40e-02,
639,2.40e-02,
640,-2.40e-02,
641,2.40e-02,
642,-2.00e-02,
643,2.80e-02,
644,2.40e-02,
645,-2.00e-02,
646,2.40e-02,
647,-2.00e-02,
648,2.40e-02,
649,-2.00e-02,
650,-2.00e-02,
651,2.80e-02,
652,3.20e-02,
653,-2.80e-02,
654,2.80e-02,
655,-2.40e-02,
656,2.80e-02,
657,-2.00e-02,
658,-2.00e-02,
659,2.40e-02,
660,1.84e-01,
661,-5.60e-02,
662,2.40e-02,
663,-2.00e-02,
664,-1.60e-02,
665,2.80e-02,
666,-1.60e-02,
667,2.40e-02,
668,-1.60e-02,
669,2.40e-02,
670,-2.00e-02,
671,2.40e-02,
672,2.40e-02,
673,-2.00e-02,
674,-2.40e-02,
675,2.00e-02,
676,-2.00e-02,
677,2.40e-02,
678,-2.00e-02,
679,2.40e-02,
680,-2.00e-02,
681,2.80e-02,
682,-2.40e-02,
683,2.80e-02,
684,-9.20e-02,
685,8.80e-02,
686,-2.00e-02,
687,2.80e-02,
688,-1.60e-02,
689,2.80e-02,
690,-1.60e-02,
691,2.80e-02,
692,2.40e-02,
693,-2.80e-02,
694,-2.00e-02,
695,2.80e-02,
696,-2.40e-02,
697,3.20e-02,
698,2.80e-02,
699,-2.00e-02,
700,-2.80e-02,
701,3.20e-02,
702,-2.00e-02,
703,2.80e-02,
704,2.00e-02,
705,-2.00e-02,
706,2.00e-02,
707,-2.00e-02,
708,2.00e-02,
709,-2.00e-02,
710,-4.00e-02,
711,1.72e-01,
712,-1.60e-02,
713,2.40e-02,
714,-1.60e-02,
715,2.40e-02,
716,2.40e-02,
717,-1.60e-02,
718,2.00e-02,
719,-2.00e-02,
720,-2.00e-02,
721,2.40e-02,
722,2.80e-02,
723,-2.40e-02,
724,2.80e-02,
725,-2.00e-02,
726,-1.60e-02,
727,2.80e-02,
728,-2.00e-02,
729,2.80e-02,
730,2.80e-02,
731,-1.60e-02,
732,2.80e-02,
733,-2.00e-02,
734,5.20e-02,
735,-2.16e-01,
736,2.80e-02,
737,-2.40e-02,
738,3.20e-02,
739,-2.00e-02,
740,2.80e-02,
741,-2.40e-02,
742,-1.60e-02,
743,2.40e-02,
744,2.40e-02,
745,-2.00e-02,
746,-1.60e-02,
747,2.40e-02,
748,2.00e-02,
749,-2.00e-02,
750,2.40e-02,
751,-2.00e-02,
752,-1.60e-02,
753,2.40e-02,
754,-1.60e-02,
755,2.00e-02,
756,-1.60e-02,
757,2.00e-02,
758,-6.40e-02,
759,2.44e-01,
760,2.80e-02,
761,-2.00e-02,
762,-2.00e-02,
763,2.80e-02,
764,-1.60e-02,
765,2.40e-02,
766,3.20e-02,
767,-2.00e-02,
768,-2.00e-02,
769,2.80e-02,
770,2.40e-02,
771,-2.40e-02,
772,2.40e-02,
773,-2.40e-02,
774,2.40e-02,
775,-2.40e-02,
776,2.80e-02,
777,-2.00e-02,
778,-2.00e-02,
779,3.20e-02,
780,-2.00e-02,
781,3.20e-02,
782,3.60e-02,
783,-2.80e-02,
784,-2.40e-02,
785,2.80e-02,
786,-2.00e-02,
787,2.40e-02,
788,2.00e-02,
789,-2.40e-02,
790,2.40e-02,
791,-2.00e-02,
792,2.40e-02,
793,-2.00e-02,
794,2.40e-02,
795,-2.00e-02,
796,-1.60e-02,
797,2.40e-02,
798,2.40e-02,
799,-2.00e-02,
800,2.00e-02,
801,-1.60e-02,
802,-2.00e-02,
803,2.40e-02,
804,2.80e-02,
805,-2.00e-02,
806,-1.60e-02,
807,2.40e-02,
808,-2.20e-01,
809,1.88e-01,
810,2.40e-02,
811,-2.40e-02,
812,-1.60e-02,
813,2.00e-02,
814,-1.60e-02,
815,2.80e-02,
816,-2.40e-02,
817,2.40e-02,
818,-2.00e-02,
819,2.80e-02,
820,-2.00e-02,
821,3.20e-02,
822,-2.40e-02,
823,2.80e-02,
824,-2.40e-02,
825,2.40e-02,
826,-2.00e-02,
827,2.40e-02,
828,-2.00e-02,
829,2.40e-02,
830,2.00e-02,
831,-2.00e-02,
832,1.96e-01,
833,-9.60e-02,
834,-1.60e-02,
835,2.00e-02,
836,-2.00e-02,
837,2.00e-02,
838,-2.00e-02,
839,2.40e-02,
840,-1.60e-02,
841,2.80e-02,
842,2.40e-02,
843,-2.00e-02,
844,2.40e-02,
845,-2.40e-02,
846,-2.00e-02,
847,2.80e-02,
848,2.80e-02,
849,-2.00e-02,
850,-2.40e-02,
851,3.20e-02,
852,-2.00e-02,
853,2.80e-02,
854,2.80e-02,
855,-2.00e-02,
856,-1.48e-01,
857,4.80e-02,
858,2.80e-02,
859,-1.60e-02,
860,-2.40e-02,
861,2.80e-02,
862,2.80e-02,
863,-2.40e-02,
864,-2.80e-02,
865,2.80e-02,
866,2.40e-02,
867,-2.40e-02,
868,2.80e-02,
869,-2.00e-02,
870,2.40e-02,
871,-2.40e-02,
872,-1.60e-02,
873,2.40e-02,
874,-1.60e-02,
875,2.40e-02,
876,2.00e-02,
877,-2.00e-02,
878,2.80e-02,
879,-2.00e-02,
880,-5.60e-02,
881,2.44e-01,
882,2.40e-02,
883,-1.60e-02,
884,2.00e-02,
885,-2.00e-02,
886,2.00e-02,
887,-2.00e-02,
888,-1.60e-02,
889,2.80e-02,
890,2.40e-02,
891,-2.40e-02,
892,2.40e-02,
893,-1.60e-02,
894,2.40e-02,
895,-2.40e-02,
896,-2.00e-02,
897,2.40e-02,
898,2.40e-02,
899,-1.60e-02,
900,2.40e-02,
901,-1.60e-02,
902,2.40e-02,
903,-2.00e-02,
904,-2.40e-02,
905,8.40e-02,
906,-2.40e-02,
907,2.80e-02,
908,2.80e-02,
909,-2.00e-02,
910,-2.40e-02,
911,2.40e-02,
912,-2.40e-02,
913,2.40e-02,
914,2.00e-02,
915,-1.60e-02,
916,-1.60e-02,
917,2.00e-02,
918,-2.00e-02,
919,2.40e-02,
920,2.40e-02,
921,-1.60e-02,
922,-2.00e-02,
923,2.40e-02,
924,2.00e-02,
925,-2.00e-02,
926,-1.60e-02,
927,2.40e-02,
928,2.40e-02,
929,-2.40e-02,
930,-2.08e-01,
931,1.48e-01,
932,-2.40e-02,
933,2.80e-02,
934,2.80e-02,
935,-2.40e-02,
936,2.80e-02,
937,-2.00e-02,
938,-1.60e-02,
939,2.80e-02,
940,2.80e-02,
941,-2.40e-02,
942,2.80e-02,
943,-2.00e-02,
944,-2.00e-02,
945,2.80e-02,
946,2.40e-02,
947,-2.40e-02,
948,-2.00e-02,
949,2.80e-02,
950,2.40e-02,
951,-2.00e-02,
952,2.80e-02,
953,-1.56e-01,
954,2.40e-02,
955,-2.00e-02,
956,2.00e-02,
957,-1.60e-02,
958,2.00e-02,
959,-2.00e-02,
960,2.00e-02,
961,-1.60e-02,
962,2.00e-02,
963,-1.60e-02,
964,2.00e-02,
965,-1.60e-02,
966,2.40e-02,
967,-2.00e-02,
968,2.00e-02,
969,-2.00e-02,
970,-2.40e-02,
971,2.40e-02,
972,-2.40e-02,
973,2.80e-02,
974,-2.00e-02,
975,2.40e-02,
976,-2.40e-02,
977,2.40e-02,
978,-2.20e-01,
979,2.80e-02,
980,-2.00e-02,
981,2.40e-02,
982,2.40e-02,
983,-1.60e-02,
984,-2.00e-02,
985,2.40e-02,
986,-2.40e-02,
987,3.60e-02,
988,2.40e-02,
989,-2.00e-02,
990,2.40e-02,
991,-2.00e-02,
992,2.80e-02,
993,-2.00e-02,
994,2.40e-02,
995,-1.60e-02,
996,-2.00e-02,
997,2.00e-02,
998,-2.00e-02,
999,2.80e-02,
1000,-1.60e-02,
1001,2.40e-02,
1002,2.28e-01,
1003,-2.52e-01,
1004,-1.60e-02,
1005,2.40e-02,
1006,-2.00e-02,
1007,2.40e-02,
1008,-2.00e-02,
1009,2.80e-02,
1010,2.40e-02,
1011,-2.40e-02,
1012,2.40e-02,
1013,-2.40e-02,
1014,-2.00e-02,
1015,3.20e-02,
1016,2.40e-02,
1017,-2.40e-02,
1018,-2.00e-02,
1019,2.40e-02,
1020,-2.00e-02,
1021,2.80e-02,
1022,-2.40e-02,
1023,2.40e-02,
1024,-2.00e-02,
1025,2.80e-02,
1026,1.68e-01,
1027,-2.40e-02,
1028,2.80e-02,
1029,-2.00e-02,
1030,-2.80e-02,
1031,2.80e-02,
1032,-3.20e-02,
1033,3.20e-02,
1034,-2.00e-02,
1035,2.80e-02,
1036,-2.40e-02,
1037,2.40e-02,
1038,-1.60e-02,
1039,2.40e-02,
1040,-2.00e-02,
1041,2.40e-02,
1042,2.00e-02,
1043,-2.00e-02,
1044,2.00e-02,
1045,-1.60e-02,
1046,2.00e-02,
1047,-2.00e-02,
1048,-1.60e-02,
1049,2.40e-02,
1050,2.00e-02,
1051,-2.00e-02,
1052,1.24e-01,
1053,-1.36e-01,
1054,2.40e-02,
1055,-2.40e-02,
1056,2.40e-02,
1057,-2.00e-02,
1058,2.80e-02,
1059,-2.00e-02,
1060,-2.80e-02,
1061,2.80e-02,
1062,-2.40e-02,
1063,2.40e-02,
1064,2.40e-02,
1065,-2.40e-02,
1066,2.00e-02,
1067,-2.00e-02,
1068,2.80e-02,
1069,-2.00e-02,
1070,-2.40e-02,
1071,2.80e-02,
1072,2.80e-02,
1073,-2.40e-02,
1074,-2.80e-02,
1075,2.80e-02,
1076,-2.40e-02,
1077,4.00e-02,
1078,2.80e-02,
1079,-2.00e-02,
1080,-2.00e-02,
1081,2.40e-02,
1082,2.00e-02,
1083,-1.60e-02,
1084,-1.60e-02,
1085,2.40e-02,
1086,2.40e-02,
1087,-1.60e-02,
1088,2.00e-02,
1089,-2.00e-02,
1090,-2.00e-02,
1091,2.80e-02,
1092,2.40e-02,
1093,-1.60e-02,
1094,-2.00e-02,
1095,2.80e-02,
1096,3.20e-02,
1097,-2.80e-02,
1098,1.40e-01,
1099,-4.00e-02,
1100,-2.00e-02,
1101,3.20e-02,
1102,3.20e-02,
1103,-2.00e-02,
1104,-2.40e-02,
1105,2.40e-02,
1106,-2.00e-02,
1107,3.20e-02,
1108,-2.00e-02,
1109,2.40e-02,
1110,-2.00e-02,
1111,3.20e-02,
1112,2.40e-02,
1113,-2.00e-02,
1114,2.40e-02,
1115,-2.80e-02,
1116,3.20e-02,
1117,-2.00e-02,
1118,-2.40e-02,
1119,3.20e-02,
1120,-2.00e-02,
1121,2.40e-02,
1122,-1.80e-01,
1123,1.64e-01,
1124,-1.60e-02,
1125,2.40e-02,
1126,-1.60e-02,
1127,2.40e-02,
1128,-2.00e-02,
1129,2.40e-02,
1130,2.40e-02,
1131,-2.00e-02,
1132,-1.60e-02,
1133,2.40e-02,
1134,-1.60e-02,
1135,2.40e-02,
1136,-1.60e-02,
1137,2.80e-02,
1138,2.40e-02,
1139,-2.00e-02,
1140,2.80e-02,
1141,-2.00e-02,
1142,-1.60e-02,
1143,2.40e-02,
1144,2.00e-02,
1145,-2.00e-02,
1146,-2.00e-02,
1147,2.40e-02,
1148,2.40e-02,
1149,-9.60e-02,
1150,-2.00e-02,
1151,2.40e-02,
1152,2.80e-02,
1153,-2.40e-02,
1154,2.00e-02,
1155,-2.00e-02,
1156,-2.00e-02,
1157,2.80e-02,
1158,2.40e-02,
1159,-2.40e-02,
1160,2.80e-02,
1161,-2.00e-02,
1162,2.80e-02,
1163,-2.00e-02,
1164,2.40e-02,
1165,-2.40e-02,
1166,2.40e-02,
1167,-2.00e-02,
1168,2.40e-02,
1169,-2.00e-02,
1170,1.88e-01,
1171,-1.20e-01,
1172,-1.60e-02,
1173,2.00e-02,
1174,-2.00e-02,
1175,2.40e-02,
1176,2.40e-02,
1177,-2.00e-02,
1178,-2.80e-02,
1179,2.80e-02,
1180,-2.40e-02,
1181,2.80e-02,
1182,-2.00e-02,
1183,2.80e-02,
1184,-2.00e-02,
1185,2.80e-02,
1186,-2.40e-02,
1187,2.80e-02,
1188,-2.00e-02,
1189,2.40e-02,
1190,2.40e-02,
1191,-2.00e-02,
1192,-2.00e-02,
1193,3.20e-02,
1194,2.80e-02,
1195,-2.28e-01,
1196,-2.00e-02,
1197,3.20e-02,
1198,-2.00e-02,
1199,3.20e-02,
