Laptop_1/LAPTOP_CHRGR_1_OFF/time domain/NewFile6.csv

X,CH1,Start,Increment,
Sequence,Volt,-1.500000e-01,2.000000e-04
0,2.80e-02,
1,-2.00e-02,
2,1.28e-01,
3,-8.00e-02,
4,2.40e-02,
5,-2.00e-02,
6,-1.60e-02,
7,2.00e-02,
8,-2.00e-02,
9,2.40e-02,
10,2.00e-02,
11,-2.00e-02,
12,-1.60e-02,
13,2.40e-02,
14,2.40e-02,
15,-1.60e-02,
16,-2.00e-02,
17,2.80e-02,
18,2.80e-02,
19,-2.40e-02,
20,-2.40e-02,
21,2.40e-02,
22,-2.00e-02,
23,2.80e-02,
24,-1.60e-02,
25,2.80e-02,
26,-1.60e-02,
27,2.80e-02,
28,-2.00e-02,
29,2.36e-01,
30,-2.00e-02,
31,2.80e-02,
32,-2.80e-02,
33,2.80e-02,
34,2.80e-02,
35,-2.00e-02,
36,-2.80e-02,
37,3.20e-02,
38,2.80e-02,
39,-2.00e-02,
40,3.20e-02,
41,-2.80e-02,
42,2.80e-02,
43,-2.00e-02,
44,3.20e-02,
45,-2.00e-02,
46,-1.60e-02,
47,2.40e-02,
48,-2.00e-02,
49,2.40e-02,
50,-2.40e-02,
51,2.40e-02,
52,2.56e-01,
53,-2.04e-01,
54,-2.00e-02,
55,2.40e-02,
56,2.80e-02,
57,-2.00e-02,
58,3.20e-02,
59,-3.20e-02,
60,3.20e-02,
61,-2.80e-02,
62,2.40e-02,
63,-2.40e-02,
64,-2.40e-02,
65,2.80e-02,
66,-2.40e-02,
67,2.80e-02,
68,-2.00e-02,
69,2.80e-02,
70,2.40e-02,
71,-1.60e-02,
72,-2.40e-02,
73,2.40e-02,
74,3.20e-02,
75,-1.44e-01,
76,-2.40e-02,
77,2.40e-02,
78,-2.40e-02,
79,3.60e-02,
80,3.20e-02,
81,-2.00e-02,
82,2.80e-02,
83,-2.40e-02,
84,-2.00e-02,
85,2.00e-02,
86,-1.60e-02,
87,2.40e-02,
88,-1.60e-02,
89,2.40e-02,
90,2.00e-02,
91,-2.40e-02,
92,2.40e-02,
93,-2.40e-02,
94,2.00e-02,
95,-1.60e-02,
96,2.00e-02,
97,-2.00e-02,
98,2.40e-01,
99,-1.76e-01,
100,2.80e-02,
101,-2.00e-02,
102,-2.00e-02,
103,2.40e-02,
104,2.40e-02,
105,-2.00e-02,
106,-2.00e-02,
107,2.40e-02,
108,2.40e-02,
109,-2.40e-02,
110,2.00e-02,
111,-2.00e-02,
112,-2.00e-02,
113,2.80e-02,
114,-2.80e-02,
115,2.80e-02,
116,3.20e-02,
117,-2.80e-02,
118,3.20e-02,
119,-2.80e-02,
120,-2.40e-02,
121,3.20e-02,
122,-2.40e-02,
123,3.20e-02,
124,1.48e-01,
125,-6.80e-02,
126,-2.00e-02,
127,2.40e-02,
128,-2.00e-02,
129,2.40e-02,
130,-2.00e-02,
131,2.40e-02,
132,-1.60e-02,
133,2.40e-02,
134,2.40e-02,
135,-1.60e-02,
136,2.40e-02,
137,-2.00e-02,
138,-1.60e-02,
139,2.00e-02,
140,-1.60e-02,
141,2.40e-02,
142,-1.60e-02,
143,2.40e-02,
144,3.20e-02,
145,-2.00e-02,
146,-2.40e-02,
147,3.20e-02,
148,-9.20e-02,
149,2.80e-02,
150,-2.40e-02,
151,2.80e-02,
152,2.40e-02,
153,-2.00e-02,
154,-2.00e-02,
155,2.80e-02,
156,-2.40e-02,
157,2.80e-02,
158,3.20e-02,
159,-2.40e-02,
160,3.60e-02,
161,-2.40e-02,
162,2.80e-02,
163,-2.40e-02,
164,-2.80e-02,
165,3.60e-02,
166,-2.00e-02,
167,2.80e-02,
168,-2.40e-02,
169,2.40e-02,
170,2.80e-02,
171,-2.00e-02,
172,1.88e-01,
173,-8.00e-02,
174,-2.00e-02,
175,2.40e-02,
176,2.40e-02,
177,-2.00e-02,
178,2.80e-02,
179,-2.00e-02,
180,2.40e-02,
181,-2.00e-02,
182,2.40e-02,
183,-2.40e-02,
184,-1.60e-02,
185,2.80e-02,
186,2.80e-02,
187,-2.00e-02,
188,2.40e-02,
189,-2.40e-02,
190,-2.40e-02,
191,2.40e-02,
192,-2.00e-02,
193,2.80e-02,
194,2.40e-02,
195,-2.00e-02,
196,-2.00e-02,
197,2.80e-02,
198,4.00e-02,
199,-2.40e-02,
200,3.20e-02,
201,-2.80e-02,
202,2.80e-02,
203,-2.80e-02,
204,3.20e-02,
205,-2.00e-02,
206,-2.40e-02,
207,3.20e-02,
208,-2.40e-02,
209,2.80e-02,
210,-2.00e-02,
211,2.40e-02,
212,-1.60e-02,
213,2.40e-02,
214,2.40e-02,
215,-2.00e-02,
216,2.80e-02,
217,-2.40e-02,
218,-2.00e-02,
219,2.40e-02,
220,-1.88e-01,
221,1.68e-01,
222,-2.40e-02,
223,2.40e-02,
224,2.00e-02,
225,-2.00e-02,
226,2.80e-02,
227,-2.80e-02,
228,2.80e-02,
229,-1.60e-02,
230,3.20e-02,
231,-2.40e-02,
232,-2.40e-02,
233,2.40e-02,
234,-2.00e-02,
235,2.40e-02,
236,-2.80e-02,
237,2.40e-02,
238,2.40e-02,
239,-2.00e-02,
240,-2.40e-02,
241,3.20e-02,
242,2.80e-02,
243,-2.40e-02,
244,-8.40e-02,
245,1.76e-01,
246,2.80e-02,
247,-2.40e-02,
248,-2.40e-02,
249,3.20e-02,
250,2.00e-02,
251,-2.00e-02,
252,-2.00e-02,
253,2.40e-02,
254,-1.60e-02,
255,2.40e-02,
256,2.00e-02,
257,-1.60e-02,
258,2.40e-02,
259,-2.00e-02,
260,2.40e-02,
261,-2.00e-02,
262,2.00e-02,
263,-2.40e-02,
264,2.80e-02,
265,-2.00e-02,
266,-1.60e-02,
267,2.40e-02,
268,2.40e-02,
269,-2.40e-02,
270,2.44e-01,
271,-3.60e-02,
272,-1.60e-02,
273,2.80e-02,
274,-2.00e-02,
275,2.80e-02,
276,2.80e-02,
277,-2.00e-02,
278,2.80e-02,
279,-2.00e-02,
280,-1.60e-02,
281,2.80e-02,
282,3.20e-02,
283,-2.80e-02,
284,3.20e-02,
285,-3.20e-02,
286,3.20e-02,
287,-2.40e-02,
288,-2.80e-02,
289,2.80e-02,
290,2.80e-02,
291,-2.80e-02,
292,-1.60e-02,
293,2.80e-02,
294,-9.60e-02,
295,1.76e-01,
296,-2.00e-02,
297,2.40e-02,
298,-2.40e-02,
299,2.40e-02,
300,-1.60e-02,
301,2.40e-02,
302,-1.60e-02,
303,2.40e-02,
304,-2.00e-02,
305,2.00e-02,
306,-2.00e-02,
307,2.00e-02,
308,-2.00e-02,
309,2.40e-02,
310,-2.00e-02,
311,2.80e-02,
312,2.80e-02,
313,-2.00e-02,
314,-2.00e-02,
315,2.80e-02,
316,-1.60e-02,
317,2.80e-02,
318,2.80e-02,
319,-7.20e-02,
320,-2.40e-02,
321,2.80e-02,
322,2.80e-02,
323,-2.40e-02,
324,2.40e-02,
325,-2.40e-02,
326,-2.00e-02,
327,3.20e-02,
328,-2.40e-02,
329,3.60e-02,
330,-2.00e-02,
331,3.20e-02,
332,-2.40e-02,
333,3.20e-02,
334,2.80e-02,
335,-2.00e-02,
336,-1.60e-02,
337,2.40e-02,
338,2.40e-02,
339,-2.00e-02,
340,-1.60e-02,
341,2.40e-02,
342,-2.00e-02,
343,2.24e-01,
344,2.00e-02,
345,-1.60e-02,
346,2.00e-02,
347,-2.00e-02,
348,2.00e-02,
349,-2.00e-02,
350,-2.00e-02,
351,2.40e-02,
352,-1.60e-02,
353,2.00e-02,
354,2.00e-02,
355,-2.00e-02,
356,2.80e-02,
357,-2.40e-02,
358,-2.00e-02,
359,2.40e-02,
360,-2.00e-02,
361,2.40e-02,
362,-1.60e-02,
363,2.40e-02,
364,-2.00e-02,
365,2.80e-02,
366,-2.40e-02,
367,2.80e-02,
368,1.76e-01,
369,-6.40e-02,
370,-2.40e-02,
371,2.80e-02,
372,3.60e-02,
373,-2.40e-02,
374,-2.40e-02,
375,2.80e-02,
376,-2.40e-02,
377,2.40e-02,
378,2.00e-02,
379,-2.00e-02,
380,-1.60e-02,
381,2.40e-02,
382,2.40e-02,
383,-2.00e-02,
384,2.40e-02,
385,-2.00e-02,
386,-2.00e-02,
387,2.40e-02,
388,2.40e-02,
389,-2.00e-02,
390,-2.08e-01,
391,3.20e-02,
392,-2.40e-02,
393,2.40e-02,
394,-1.60e-02,
395,2.80e-02,
396,2.00e-02,
397,-2.40e-02,
398,-2.00e-02,
399,2.80e-02,
400,5.20e-02,
401,-1.52e-01,
402,3.20e-02,
403,-2.00e-02,
404,-2.40e-02,
405,2.80e-02,
406,-2.40e-02,
407,3.20e-02,
408,3.20e-02,
409,-2.80e-02,
410,-2.08e-01,
411,4.40e-02,
412,-2.40e-02,
413,3.20e-02,
414,3.20e-02,
415,-2.40e-02,
416,-2.00e-02,
417,2.80e-02,
418,-2.40e-02,
419,2.40e-02,
420,-2.16e-01,
421,2.80e-02,
422,2.00e-02,
423,-1.60e-02,
424,-1.60e-02,
425,2.40e-02,
426,-1.60e-02,
427,2.40e-02,
428,2.40e-02,
429,-2.00e-02,
430,-2.00e-02,
431,2.40e-02,
432,2.40e-02,
433,-2.00e-02,
434,-2.40e-02,
435,2.80e-02,
436,-1.60e-02,
437,2.80e-02,
438,2.40e-02,
439,-2.00e-02,
440,-2.80e-02,
441,2.40e-02,
442,2.80e-02,
443,-2.00e-02,
444,2.40e-02,
445,-2.80e-02,
446,-2.40e-02,
447,2.80e-02,
448,-2.08e-01,
449,1.20e-01,
450,-2.80e-02,
451,3.60e-02,
452,-2.40e-02,
453,2.80e-02,
454,3.20e-02,
455,-2.80e-02,
456,-2.40e-02,
457,3.20e-02,
458,3.20e-02,
459,-2.00e-02,
460,2.40e-02,
461,-1.60e-02,
462,2.40e-02,
463,-2.00e-02,
464,-1.60e-02,
465,2.40e-02,
466,2.80e-02,
467,-2.40e-02,
468,2.40e-02,
469,-2.00e-02,
470,-2.00e-02,
471,2.40e-02,
472,-2.00e-02,
473,2.40e-02,
474,2.00e-02,
475,-1.24e-01,
476,-2.40e-02,
477,3.20e-02,
478,2.80e-02,
479,-2.00e-02,
480,2.80e-02,
481,-2.40e-02,
482,3.20e-02,
483,-2.00e-02,
484,-2.00e-02,
485,3.60e-02,
486,2.80e-02,
487,-2.80e-02,
488,-2.40e-02,
489,2.80e-02,
490,2.80e-02,
491,-2.40e-02,
492,-2.80e-02,
493,3.20e-02,
494,-2.40e-02,
495,3.20e-02,
496,-2.40e-02,
497,3.20e-02,
498,-2.40e-02,
499,3.20e-02,
500,-2.04e-01,
501,9.60e-02,
502,2.40e-02,
503,-2.00e-02,
504,2.00e-02,
505,-1.60e-02,
506,2.00e-02,
507,-2.40e-02,
508,-1.60e-02,
509,2.40e-02,
510,2.00e-02,
511,-2.00e-02,
512,-1.60e-02,
513,2.40e-02,
514,-1.60e-02,
515,2.00e-02,
516,2.80e-02,
517,-2.00e-02,
518,3.20e-02,
519,-2.40e-02,
520,2.40e-02,
521,-2.40e-02,
522,2.40e-02,
523,-2.40e-02,
524,-1.60e-02,
525,2.80e-02,
526,1.88e-01,
527,-5.20e-02,
528,-2.00e-02,
529,2.80e-02,
530,-2.40e-02,
531,2.40e-02,
532,2.80e-02,
533,-2.80e-02,
534,2.80e-02,
535,-2.40e-02,
536,3.20e-02,
537,-2.80e-02,
538,-2.00e-02,
539,2.80e-02,
540,3.20e-02,
541,-2.80e-02,
542,2.80e-02,
543,-2.40e-02,
544,-2.00e-02,
545,2.40e-02,
546,2.00e-02,
547,-2.40e-02,
548,2.40e-02,
549,-1.60e-02,
550,-1.60e-02,
551,2.52e-01,
552,2.00e-02,
553,-2.00e-02,
554,-1.60e-02,
555,2.40e-02,
556,-2.00e-02,
557,2.00e-02,
558,2.40e-02,
559,-2.40e-02,
560,3.20e-02,
561,-3.20e-02,
562,2.80e-02,
563,-2.40e-02,
564,-2.00e-02,
565,2.80e-02,
566,2.80e-02,
567,-2.00e-02,
568,3.20e-02,
569,-2.80e-02,
570,2.40e-02,
571,-2.80e-02,
572,2.80e-02,
573,-2.40e-02,
574,3.20e-02,
575,-2.80e-02,
576,3.20e-02,
577,-1.96e-01,
578,-2.40e-02,
579,2.80e-02,
580,-2.40e-02,
581,3.60e-02,
582,-2.00e-02,
583,2.80e-02,
584,-2.00e-02,
585,2.40e-02,
586,2.00e-02,
587,-2.00e-02,
588,-2.00e-02,
589,2.40e-02,
590,-1.60e-02,
591,2.00e-02,
592,2.40e-02,
593,-2.00e-02,
594,2.40e-02,
595,-2.40e-02,
596,-1.60e-02,
597,2.40e-02,
598,-2.00e-02,
599,2.40e-02,
600,1.92e-01,
601,-6.40e-02,
602,2.80e-02,
603,-2.40e-02,
604,3.20e-02,
605,-2.40e-02,
606,2.40e-02,
607,-2.00e-02,
608,-2.00e-02,
609,2.80e-02,
610,2.40e-02,
611,-2.00e-02,
612,2.80e-02,
613,-2.00e-02,
614,-1.60e-02,
615,2.40e-02,
616,3.20e-02,
617,-2.40e-02,
618,-2.80e-02,
619,3.60e-02,
620,-2.40e-02,
621,3.60e-02,
622,2.40e-02,
623,-2.40e-02,
624,-8.00e-02,
625,1.80e-01,
626,3.20e-02,
627,-2.00e-02,
628,-2.00e-02,
629,2.40e-02,
630,2.40e-02,
631,-2.00e-02,
632,-2.00e-02,
633,2.00e-02,
634,-2.00e-02,
635,2.40e-02,
636,2.40e-02,
637,-1.60e-02,
638,2.40e-02,
639,-2.00e-02,
640,2.80e-02,
641,-2.00e-02,
642,-2.40e-02,
643,2.80e-02,
644,-2.00e-02,
645,2.40e-02,
646,2.80e-02,
647,-2.00e-02,
648,3.20e-02,
649,-2.40e-02,
650,2.80e-02,
651,-2.36e-01,
652,-2.40e-02,
653,3.20e-02,
654,3.20e-02,
655,-2.40e-02,
656,2.80e-02,
657,-2.40e-02,
658,3.20e-02,
659,-2.40e-02,
660,2.80e-02,
661,-2.80e-02,
662,3.20e-02,
663,-2.80e-02,
664,-2.40e-02,
665,2.80e-02,
666,-2.00e-02,
667,2.80e-02,
668,2.80e-02,
669,-2.00e-02,
670,2.40e-02,
671,-1.60e-02,
672,-1.60e-02,
673,2.40e-02,
674,-1.60e-02,
675,2.32e-01,
676,-1.60e-02,
677,2.40e-02,
678,-1.60e-02,
679,2.40e-02,
680,-1.60e-02,
681,2.40e-02,
682,-1.60e-02,
683,2.80e-02,
684,-2.00e-02,
685,2.80e-02,
686,2.80e-02,
687,-2.40e-02,
688,-2.00e-02,
689,2.80e-02,
690,2.40e-02,
691,-2.00e-02,
692,-1.60e-02,
693,2.80e-02,
694,2.40e-02,
695,-2.00e-02,
696,2.80e-02,
697,-2.40e-02,
698,-2.40e-02,
699,3.20e-02,
700,2.80e-02,
701,-1.92e-01,
702,2.80e-02,
703,-2.40e-02,
704,-2.80e-02,
705,2.80e-02,
706,3.20e-02,
707,-2.40e-02,
708,-2.00e-02,
709,2.40e-02,
710,-1.60e-02,
711,2.80e-02,
712,2.00e-02,
713,-2.00e-02,
714,-2.40e-02,
715,2.40e-02,
716,2.00e-02,
717,-2.00e-02,
718,-1.60e-02,
719,2.40e-02,
720,2.80e-02,
721,-1.60e-02,
722,2.40e-02,
723,-1.60e-02,
724,-1.76e-01,
725,4.80e-02,
726,3.20e-02,
727,-2.80e-02,
728,2.80e-02,
729,-2.40e-02,
730,3.20e-02,
731,-2.40e-02,
732,3.20e-02,
733,-2.00e-02,
734,-2.40e-02,
735,3.60e-02,
736,2.80e-02,
737,-2.80e-02,
738,3.20e-02,
739,-2.80e-02,
740,-2.80e-02,
741,2.80e-02,
742,-2.40e-02,
743,3.20e-02,
744,3.20e-02,
745,-2.40e-02,
746,3.20e-02,
747,-2.40e-02,
748,4.00e-02,
749,-2.00e-02,
750,-1.60e-02,
751,2.80e-02,
752,-2.00e-02,
753,2.40e-02,
754,-2.80e-02,
755,2.40e-02,
756,-1.60e-02,
757,2.40e-02,
758,-2.00e-02,
759,2.40e-02,
760,2.40e-02,
761,-2.00e-02,
762,2.00e-02,
763,-2.00e-02,
764,-1.60e-02,
765,2.40e-02,
766,-1.60e-02,
767,2.40e-02,
768,3.20e-02,
769,-2.00e-02,
770,-2.40e-02,
771,3.20e-02,
772,2.40e-02,
773,-2.00e-02,
774,4.80e-02,
775,-1.36e-01,
776,2.40e-02,
777,-2.00e-02,
778,-2.40e-02,
779,2.40e-02,
780,-2.40e-02,
781,2.40e-02,
782,-2.40e-02,
783,2.80e-02,
784,2.40e-02,
785,-2.40e-02,
786,-2.00e-02,
787,2.80e-02,
788,-2.00e-02,
789,3.20e-02,
790,2.80e-02,
791,-2.40e-02,
792,2.40e-02,
793,-2.00e-02,
794,2.80e-02,
795,-2.40e-02,
796,-1.60e-02,
797,4.80e-02,
798,3.20e-02,
799,-1.60e-02,
800,-1.60e-02,
801,2.80e-02,
802,-1.60e-02,
803,2.80e-02,
804,-1.60e-02,
805,2.40e-02,
806,-1.60e-02,
807,2.40e-02,
808,2.80e-02,
809,-2.80e-02,
810,-2.40e-02,
811,3.20e-02,
812,2.80e-02,
813,-2.80e-02,
814,-1.60e-02,
815,3.20e-02,
816,3.20e-02,
817,-2.00e-02,
818,3.20e-02,
819,-2.80e-02,
820,2.80e-02,
821,-8.40e-02,
822,2.80e-02,
823,-2.40e-02,
824,-2.40e-02,
825,3.20e-02,
826,2.40e-02,
827,-2.40e-02,
828,2.80e-02,
829,-2.40e-02,
830,2.80e-02,
831,-2.80e-02,
832,2.40e-02,
833,-2.80e-02,
834,2.40e-02,
835,-2.00e-02,
836,2.80e-02,
837,-2.00e-02,
838,2.00e-02,
839,-2.00e-02,
840,2.40e-02,
841,-2.00e-02,
842,2.00e-02,
843,-2.00e-02,
844,2.40e-02,
845,-2.00e-02,
846,-9.60e-02,
847,1.36e-01,
848,-1.60e-02,
849,2.40e-02,
850,2.40e-02,
851,-2.00e-02,
852,-1.60e-02,
853,2.80e-02,
854,2.80e-02,
855,-2.00e-02,
856,-2.00e-02,
857,2.40e-02,
858,-2.00e-02,
859,2.80e-02,
860,2.80e-02,
861,-2.00e-02,
862,2.40e-02,
863,-2.00e-02,
864,2.40e-02,
865,-2.00e-02,
866,2.80e-02,
867,-2.40e-02,
868,-2.80e-02,
869,2.40e-02,
870,-2.40e-02,
871,8.00e-02,
872,-2.80e-02,
873,3.20e-02,
874,2.80e-02,
875,-2.40e-02,
876,-1.60e-02,
877,2.40e-02,
878,-2.00e-02,
879,2.40e-02,
880,-2.00e-02,
881,2.80e-02,
882,-1.60e-02,
883,2.40e-02,
884,-2.00e-02,
885,2.80e-02,
886,2.00e-02,
887,-1.60e-02,
888,2.40e-02,
889,-2.00e-02,
890,2.40e-02,
891,-2.00e-02,
892,2.80e-02,
893,-2.40e-02,
894,-2.40e-02,
895,2.80e-02,
896,-2.80e-02,
897,3.20e-02,
898,2.80e-02,
899,-3.20e-02,
900,-2.40e-02,
901,3.20e-02,
902,-2.00e-02,
903,2.40e-02,
904,2.80e-02,
905,-2.00e-02,
906,-2.40e-02,
907,3.20e-02,
908,-2.80e-02,
909,2.80e-02,
910,-2.40e-02,
911,2.80e-02,
912,-2.40e-02,
913,2.80e-02,
914,2.40e-02,
915,-2.00e-02,
916,2.40e-02,
917,-4.40e-02,
918,-1.60e-02,
919,2.80e-02,
920,-1.60e-02,
921,2.40e-02,
922,2.40e-02,
923,-2.00e-02,
924,2.40e-02,
925,-2.00e-02,
926,2.00e-02,
927,-2.00e-02,
928,2.40e-02,
929,-1.60e-02,
930,2.40e-02,
931,-2.00e-02,
932,2.40e-02,
933,-2.40e-02,
934,-2.00e-02,
935,2.80e-02,
936,-1.60e-02,
937,2.40e-02,
938,2.80e-02,
939,-2.00e-02,
940,-2.00e-02,
941,2.80e-02,
942,2.40e-02,
943,-1.52e-01,
944,-1.60e-02,
945,2.00e-02,
946,2.40e-02,
947,-1.60e-02,
948,2.80e-02,
949,-2.40e-02,
950,2.80e-02,
951,-2.40e-02,
952,2.80e-02,
953,-2.40e-02,
954,2.80e-02,
955,-2.40e-02,
956,-2.40e-02,
957,2.40e-02,
958,-2.00e-02,
959,2.40e-02,
960,2.80e-02,
961,-2.00e-02,
962,-1.60e-02,
963,2.80e-02,
964,2.00e-02,
965,-2.00e-02,
966,-1.96e-01,
967,1.64e-01,
968,2.00e-02,
969,-2.00e-02,
970,2.80e-02,
971,-1.60e-02,
972,2.00e-02,
973,-2.00e-02,
974,2.80e-02,
975,-2.40e-02,
976,3.20e-02,
977,-2.40e-02,
978,-2.40e-02,
979,2.80e-02,
980,-2.40e-02,
981,2.80e-02,
982,-2.00e-02,
983,3.20e-02,
984,-2.00e-02,
985,2.40e-02,
986,-2.40e-02,
987,2.40e-02,
988,-1.60e-02,
989,2.40e-02,
990,3.60e-02,
991,-2.00e-02,
992,-2.00e-02,
993,2.80e-02,
994,-2.80e-02,
995,2.80e-02,
996,-2.80e-02,
997,2.80e-02,
998,3.20e-02,
999,-2.80e-02,
1000,2.80e-02,
1001,-2.00e-02,
1002,-2.00e-02,
1003,2.40e-02,
1004,-1.60e-02,
1005,2.40e-02,
1006,-1.60e-02,
1007,2.40e-02,
1008,2.00e-02,
1009,-2.00e-02,
1010,2.40e-02,
1011,-2.40e-02,
1012,-2.00e-02,
1013,2.80e-02,
1014,-2.40e-02,
1015,1.60e-01,
1016,-1.60e-02,
1017,2.40e-02,
1018,-2.80e-02,
1019,2.40e-02,
1020,-2.00e-02,
1021,2.80e-02,
1022,2.00e-02,
1023,-2.00e-02,
1024,2.80e-02,
1025,-2.00e-02,
1026,-2.00e-02,
1027,2.40e-02,
1028,-2.40e-02,
1029,2.80e-02,
1030,-1.60e-02,
1031,2.40e-02,
1032,2.80e-02,
1033,-2.40e-02,
1034,3.60e-02,
1035,-2.00e-02,
1036,-2.80e-02,
1037,3.20e-02,
1038,3.20e-02,
1039,-2.80e-02,
1040,1.32e-01,
1041,-4.80e-02,
1042,2.40e-02,
1043,-2.00e-02,
1044,-2.00e-02,
1045,2.80e-02,
1046,2.40e-02,
1047,-2.40e-02,
1048,-1.60e-02,
1049,2.40e-02,
1050,-2.00e-02,
1051,2.40e-02,
1052,-1.60e-02,
1053,2.40e-02,
1054,-1.60e-02,
1055,2.80e-02,
1056,2.40e-02,
1057,-2.00e-02,
1058,-2.40e-02,
1059,2.80e-02,
1060,2.80e-02,
1061,-2.00e-02,
1062,2.80e-02,
1063,-2.40e-02,
1064,-2.04e-01,
1065,3.20e-02,
1066,2.80e-02,
1067,-2.00e-02,
1068,2.40e-02,
1069,-2.00e-02,
1070,2.40e-02,
1071,-3.20e-02,
1072,-2.00e-02,
1073,2.00e-02,
1074,2.80e-02,
1075,-2.80e-02,
1076,3.20e-02,
1077,-2.40e-02,
1078,-2.80e-02,
1079,3.20e-02,
1080,3.20e-02,
1081,-2.80e-02,
1082,-3.20e-02,
1083,3.20e-02,
1084,2.80e-02,
1085,-2.00e-02,
1086,2.40e-02,
1087,-2.00e-02,
1088,-1.96e-01,
1089,4.40e-02,
1090,2.40e-02,
1091,-2.00e-02,
1092,-1.60e-02,
1093,2.40e-02,
1094,2.40e-02,
1095,-1.60e-02,
1096,-1.60e-02,
1097,2.40e-02,
1098,-1.60e-02,
1099,2.40e-02,
1100,2.80e-02,
1101,-2.00e-02,
1102,-2.00e-02,
1103,2.80e-02,
1104,-2.00e-02,
1105,2.40e-02,
1106,-1.60e-02,
1107,2.40e-02,
1108,2.80e-02,
1109,-2.40e-02,
1110,-2.00e-02,
1111,3.20e-02,
1112,-1.60e-02,
1113,2.40e-02,
1114,2.80e-02,
1115,-5.60e-02,
1116,2.80e-02,
1117,-2.40e-02,
1118,-2.80e-02,
1119,3.20e-02,
1120,3.20e-02,
1121,-2.40e-02,
1122,3.20e-02,
1123,-2.40e-02,
1124,3.60e-02,
1125,-2.80e-02,
1126,2.80e-02,
1127,-2.00e-02,
1128,-2.00e-02,
1129,2.80e-02,
1130,-2.00e-02,
1131,2.40e-02,
1132,2.40e-02,
1133,-2.40e-02,
1134,2.40e-02,
1135,-2.00e-02,
1136,-2.40e-02,
1137,2.40e-02,
1138,-1.92e-01,
1139,2.80e-02,
1140,2.40e-02,
1141,-1.60e-02,
1142,2.80e-02,
1143,-2.80e-02,
1144,-2.40e-02,
1145,2.80e-02,
1146,-2.00e-02,
1147,2.80e-02,
1148,-2.40e-02,
1149,3.20e-02,
1150,3.20e-02,
1151,-2.40e-02,
1152,-2.40e-02,
1153,2.40e-02,
1154,2.80e-02,
1155,-3.20e-02,
1156,2.80e-02,
1157,-2.40e-02,
1158,3.20e-02,
1159,-2.40e-02,
1160,3.20e-02,
1161,-3.20e-02,
1162,-2.08e-01,
1163,3.60e-02,
1164,3.20e-02,
1165,-3.20e-02,
1166,-2.80e-02,
1167,2.80e-02,
1168,2.40e-02,
1169,-2.40e-02,
1170,2.40e-02,
1171,-2.40e-02,
1172,-2.00e-02,
1173,2.40e-02,
1174,2.40e-02,
1175,-2.40e-02,
1176,2.00e-02,
1177,-2.40e-02,
1178,-1.60e-02,
1179,2.40e-02,
1180,-2.00e-02,
1181,2.40e-02,
1182,2.00e-02,
1183,-1.60e-02,
1184,-2.00e-02,
1185,2.80e-02,
1186,2.80e-02,
1187,-2.40e-02,
1188,2.40e-02,
1189,-5.20e-02,
1190,2.40e-02,
1191,-2.40e-02,
1192,2.40e-02,
1193,-2.00e-02,
1194,2.40e-02,
1195,-2.00e-02,
1196,-2.00e-02,
1197,2.00e-02,
1198,3.20e-02,
1199,-2.40e-02,
