Laptop_1/LAPTOP_CHRGR_1_OFF/time domain/NewFile45.csv

X,CH1,Start,Increment,
Sequence,Volt,-1.500000e-01,2.000000e-04
0,1.60e-02,
1,-1.60e-02,
2,-1.20e-02,
3,1.60e-02,
4,-1.20e-02,
5,1.60e-02,
6,-1.60e-02,
7,1.60e-02,
8,-3.20e-02,
9,2.40e-02,
10,1.60e-02,
11,-1.20e-02,
12,-1.60e-02,
13,2.40e-02,
14,1.60e-02,
15,-1.20e-02,
16,-1.60e-02,
17,1.04e-01,
18,-4.80e-02,
19,4.00e-02,
20,-1.20e-02,
21,2.00e-02,
22,1.60e-02,
23,-1.60e-02,
24,1.60e-02,
25,-1.60e-02,
26,1.60e-02,
27,-1.20e-02,
28,1.60e-02,
29,-1.60e-02,
30,6.40e-02,
31,-2.80e-02,
32,1.60e-02,
33,-2.00e-02,
34,-1.60e-02,
35,2.00e-02,
36,2.00e-02,
37,-1.20e-02,
38,-3.20e-02,
39,2.40e-02,
40,2.00e-02,
41,-1.60e-02,
42,-2.40e-02,
43,2.80e-02,
44,1.60e-02,
45,-1.20e-02,
46,-1.20e-02,
47,2.00e-02,
48,-1.20e-02,
49,2.00e-02,
50,1.60e-02,
51,-1.20e-02,
52,1.60e-02,
53,-1.20e-02,
54,-3.20e-02,
55,4.00e-02,
56,-1.20e-02,
57,1.60e-02,
58,1.60e-02,
59,-1.20e-02,
60,1.60e-02,
61,-1.60e-02,
62,-1.20e-02,
63,2.00e-02,
64,1.60e-02,
65,-6.80e-02,
66,1.60e-02,
67,-5.60e-02,
68,-1.20e-02,
69,2.00e-02,
70,-1.20e-02,
71,2.00e-02,
72,-1.20e-02,
73,1.60e-02,
74,1.60e-02,
75,-1.60e-02,
76,2.40e-02,
77,-1.60e-02,
78,5.20e-02,
79,-2.00e-02,
80,-1.20e-02,
81,2.00e-02,
82,-1.60e-02,
83,2.00e-02,
84,-1.60e-02,
85,1.60e-02,
86,1.60e-02,
87,-1.60e-02,
88,-8.80e-02,
89,1.08e-01,
90,-4.00e-02,
91,2.40e-02,
92,-1.20e-02,
93,1.60e-02,
94,2.80e-02,
95,-1.60e-02,
96,1.60e-02,
97,-1.20e-02,
98,-1.20e-02,
99,2.00e-02,
100,1.60e-02,
101,-1.20e-02,
102,-2.00e-02,
103,3.60e-02,
104,1.60e-02,
105,-1.20e-02,
106,-1.60e-02,
107,2.00e-02,
108,-1.60e-02,
109,2.00e-02,
110,-1.60e-02,
111,1.60e-02,
112,-1.20e-02,
113,9.60e-02,
114,-2.80e-02,
115,2.40e-02,
116,1.60e-02,
117,-1.60e-02,
118,-1.20e-02,
119,2.00e-02,
120,1.60e-02,
121,-1.60e-02,
122,-2.00e-02,
123,2.00e-02,
124,2.00e-02,
125,-1.60e-02,
126,3.60e-02,
127,-3.60e-02,
128,1.60e-02,
129,-1.20e-02,
130,-2.00e-02,
131,2.40e-02,
132,1.60e-02,
133,-1.20e-02,
134,1.60e-02,
135,-1.60e-02,
136,-6.00e-02,
137,9.60e-02,
138,5.20e-02,
139,-3.60e-02,
140,-1.20e-02,
141,1.60e-02,
142,1.60e-02,
143,-1.20e-02,
144,-1.60e-02,
145,2.00e-02,
146,1.60e-02,
147,-1.20e-02,
148,1.60e-02,
149,-1.20e-02,
150,3.20e-02,
151,-2.00e-02,
152,1.60e-02,
153,-1.20e-02,
154,1.60e-02,
155,-1.60e-02,
156,1.60e-02,
157,-1.20e-02,
158,2.00e-02,
159,-1.60e-02,
160,6.80e-02,
161,-7.60e-02,
162,1.60e-02,
163,-2.00e-02,
164,-1.20e-02,
165,2.00e-02,
166,-1.60e-02,
167,2.00e-02,
168,-1.20e-02,
169,1.60e-02,
170,1.60e-02,
171,-1.60e-02,
172,6.80e-02,
173,-3.60e-02,
174,-1.20e-02,
175,2.00e-02,
176,1.60e-02,
177,-1.20e-02,
178,1.60e-02,
179,-1.20e-02,
180,1.60e-02,
181,-1.20e-02,
182,-7.60e-02,
183,2.00e-02,
184,2.00e-02,
185,-4.00e-02,
186,-1.60e-02,
187,2.00e-02,
188,-1.20e-02,
189,2.00e-02,
190,1.60e-02,
191,-1.60e-02,
192,2.00e-02,
193,-1.60e-02,
194,1.60e-02,
195,-1.20e-02,
196,3.60e-02,
197,-1.60e-02,
198,-1.20e-02,
199,2.00e-02,
200,-1.60e-02,
201,2.40e-02,
202,-2.40e-02,
203,2.40e-02,
204,2.00e-02,
205,-1.60e-02,
206,-1.00e-01,
207,2.40e-02,
208,-2.40e-02,
209,6.00e-02,
210,1.60e-02,
211,-1.20e-02,
212,1.60e-02,
213,-1.20e-02,
214,1.60e-02,
215,-1.20e-02,
216,-1.20e-02,
217,1.60e-02,
218,1.60e-02,
219,-1.20e-02,
220,-2.00e-02,
221,2.80e-02,
222,-1.20e-02,
223,1.60e-02,
224,-1.20e-02,
225,2.00e-02,
226,1.60e-02,
227,-1.20e-02,
228,1.60e-02,
229,-1.20e-02,
230,-1.20e-02,
231,1.60e-02,
232,2.00e-02,
233,-9.20e-02,
234,-1.20e-02,
235,1.60e-02,
236,1.60e-02,
237,-1.20e-02,
238,1.60e-02,
239,-1.20e-02,
240,1.60e-02,
241,-2.00e-02,
242,-1.60e-02,
243,2.00e-02,
244,-4.00e-02,
245,4.80e-02,
246,1.60e-02,
247,-1.20e-02,
248,-1.20e-02,
249,2.00e-02,
250,-1.20e-02,
251,2.00e-02,
252,1.60e-02,
253,-1.20e-02,
254,-1.20e-02,
255,1.60e-02,
256,-7.60e-02,
257,1.08e-01,
258,1.60e-02,
259,-1.20e-02,
260,2.00e-02,
261,-1.60e-02,
262,-1.20e-02,
263,1.60e-02,
264,-1.20e-02,
265,1.60e-02,
266,1.60e-02,
267,-1.20e-02,
268,-3.60e-02,
269,3.20e-02,
270,-1.20e-02,
271,2.00e-02,
272,1.60e-02,
273,-1.60e-02,
274,1.60e-02,
275,-1.60e-02,
276,1.60e-02,
277,-1.60e-02,
278,-1.20e-02,
279,1.60e-02,
280,-3.60e-02,
281,6.00e-02,
282,-1.20e-02,
283,2.00e-02,
284,-1.60e-02,
285,2.00e-02,
286,2.00e-02,
287,-1.60e-02,
288,1.60e-02,
289,-2.00e-02,
290,1.60e-02,
291,-1.20e-02,
292,2.80e-02,
293,-2.00e-02,
294,1.60e-02,
295,-1.20e-02,
296,-1.20e-02,
297,1.60e-02,
298,1.60e-02,
299,-1.20e-02,
300,-1.20e-02,
301,1.60e-02,
302,1.60e-02,
303,-2.80e-02,
304,-1.20e-02,
305,8.80e-02,
306,1.60e-02,
307,-1.20e-02,
308,1.60e-02,
309,-1.20e-02,
310,1.60e-02,
311,-1.20e-02,
312,1.60e-02,
313,-1.60e-02,
314,-1.20e-02,
315,4.80e-02,
316,-1.20e-02,
317,2.00e-02,
318,1.60e-02,
319,-1.20e-02,
320,1.60e-02,
321,-1.20e-02,
322,1.60e-02,
323,-1.20e-02,
324,2.00e-02,
325,-1.60e-02,
326,3.60e-02,
327,-2.40e-02,
328,-7.20e-02,
329,5.60e-02,
330,-1.60e-02,
331,2.00e-02,
332,2.00e-02,
333,-1.60e-02,
334,-1.20e-02,
335,1.60e-02,
336,-1.20e-02,
337,1.60e-02,
338,4.40e-02,
339,-3.20e-02,
340,-1.20e-02,
341,1.60e-02,
342,-1.20e-02,
343,1.60e-02,
344,-2.00e-02,
345,1.60e-02,
346,1.60e-02,
347,-1.20e-02,
348,-1.20e-02,
349,1.60e-02,
350,3.60e-02,
351,-1.08e-01,
352,1.60e-02,
353,-1.60e-02,
354,-1.20e-02,
355,1.60e-02,
356,1.60e-02,
357,-1.60e-02,
358,-1.20e-02,
359,1.60e-02,
360,-1.60e-02,
361,1.60e-02,
362,-2.00e-02,
363,2.80e-02,
364,-1.20e-02,
365,1.60e-02,
366,-1.20e-02,
367,2.80e-02,
368,-1.60e-02,
369,2.00e-02,
370,-1.20e-02,
371,2.00e-02,
372,-1.60e-02,
373,2.00e-02,
374,-2.80e-02,
375,3.60e-02,
376,-6.80e-02,
377,9.60e-02,
378,1.60e-02,
379,-1.60e-02,
380,1.60e-02,
381,-1.20e-02,
382,1.60e-02,
383,-1.20e-02,
384,1.60e-02,
385,-1.20e-02,
386,4.40e-02,
387,-3.60e-02,
388,-1.20e-02,
389,1.60e-02,
390,1.60e-02,
391,-1.20e-02,
392,1.60e-02,
393,-1.60e-02,
394,1.60e-02,
395,-1.60e-02,
396,-1.20e-02,
397,1.60e-02,
398,2.40e-02,
399,-1.60e-02,
400,-4.80e-02,
401,4.00e-02,
402,2.00e-02,
403,-1.60e-02,
404,-1.20e-02,
405,1.60e-02,
406,-1.20e-02,
407,1.60e-02,
408,-1.60e-02,
409,1.60e-02,
410,4.00e-02,
411,-3.60e-02,
412,-1.60e-02,
413,2.00e-02,
414,-1.60e-02,
415,2.00e-02,
416,2.00e-02,
417,-1.20e-02,
418,-1.20e-02,
419,1.60e-02,
420,1.60e-02,
421,-1.20e-02,
422,4.00e-02,
423,-2.80e-02,
424,-1.20e-02,
425,1.60e-02,
426,1.60e-02,
427,-1.20e-02,
428,-1.20e-02,
429,2.00e-02,
430,1.60e-02,
431,-1.20e-02,
432,1.60e-02,
433,-1.20e-02,
434,-2.40e-02,
435,1.60e-02,
436,1.60e-02,
437,-1.20e-02,
438,2.40e-02,
439,-2.80e-02,
440,1.60e-02,
441,-1.60e-02,
442,-1.60e-02,
443,2.00e-02,
444,4.40e-02,
445,-3.20e-02,
446,-1.60e-02,
447,2.00e-02,
448,-1.60e-02,
449,6.40e-02,
450,-1.60e-02,
451,2.40e-02,
452,2.00e-02,
453,-1.60e-02,
454,-1.60e-02,
455,2.40e-02,
456,3.20e-02,
457,-4.80e-02,
458,-1.60e-02,
459,2.00e-02,
460,1.60e-02,
461,-1.20e-02,
462,-1.20e-02,
463,2.00e-02,
464,1.60e-02,
465,-1.20e-02,
466,1.60e-02,
467,-1.20e-02,
468,2.80e-02,
469,-2.00e-02,
470,1.60e-02,
471,-1.20e-02,
472,-1.20e-02,
473,7.20e-02,
474,1.60e-02,
475,-1.60e-02,
476,-1.20e-02,
477,1.60e-02,
478,1.60e-02,
479,-1.60e-02,
480,-3.60e-02,
481,3.20e-02,
482,1.60e-02,
483,-1.20e-02,
484,-1.20e-02,
485,1.60e-02,
486,-1.60e-02,
487,1.60e-02,
488,-1.20e-02,
489,2.00e-02,
490,-1.60e-02,
491,2.00e-02,
492,-4.80e-02,
493,4.40e-02,
494,-1.60e-02,
495,2.00e-02,
496,-1.60e-02,
497,7.20e-02,
498,-1.20e-02,
499,2.00e-02,
500,-1.20e-02,
501,2.00e-02,
502,-1.20e-02,
503,1.60e-02,
504,3.20e-02,
505,-2.40e-02,
506,-1.20e-02,
507,2.00e-02,
508,-1.20e-02,
509,1.60e-02,
510,1.60e-02,
511,-1.60e-02,
512,-1.20e-02,
513,1.60e-02,
514,-1.20e-02,
515,2.00e-02,
516,-1.60e-02,
517,4.40e-02,
518,1.60e-02,
519,-1.60e-02,
520,-1.60e-02,
521,1.20e-01,
522,2.00e-02,
523,-1.60e-02,
524,-1.60e-02,
525,2.00e-02,
526,1.60e-02,
527,-1.60e-02,
528,-5.20e-02,
529,4.00e-02,
530,-1.60e-02,
531,1.60e-02,
532,2.00e-02,
533,-1.60e-02,
534,-1.60e-02,
535,2.00e-02,
536,-1.60e-02,
537,2.00e-02,
538,-2.00e-02,
539,1.60e-02,
540,3.20e-02,
541,-3.20e-02,
542,1.60e-02,
543,-1.60e-02,
544,1.60e-02,
545,-2.40e-02,
546,1.60e-02,
547,-1.20e-02,
548,-1.20e-02,
549,1.60e-02,
550,1.60e-02,
551,-1.20e-02,
552,1.60e-02,
553,-2.00e-02,
554,-1.20e-02,
555,1.60e-02,
556,1.60e-02,
557,-1.20e-02,
558,1.60e-02,
559,-1.60e-02,
560,1.60e-02,
561,-1.60e-02,
562,-1.20e-02,
563,1.60e-02,
564,6.00e-02,
565,-2.80e-02,
566,1.60e-02,
567,-1.20e-02,
568,-1.20e-02,
569,2.00e-02,
570,6.80e-02,
571,-1.20e-02,
572,-1.20e-02,
573,1.60e-02,
574,2.00e-02,
575,-1.60e-02,
576,3.60e-02,
577,-4.80e-02,
578,-2.00e-02,
579,2.00e-02,
580,-1.20e-02,
581,1.60e-02,
582,-1.60e-02,
583,1.60e-02,
584,-1.20e-02,
585,2.00e-02,
586,3.20e-02,
587,-5.20e-02,
588,-1.60e-02,
589,1.60e-02,
590,-1.20e-02,
591,1.60e-02,
592,-2.00e-02,
593,8.80e-02,
594,1.60e-02,
595,-1.20e-02,
596,1.60e-02,
597,-1.20e-02,
598,1.60e-02,
599,-1.20e-02,
600,3.60e-02,
601,-3.60e-02,
602,-1.20e-02,
603,2.00e-02,
604,-1.20e-02,
605,2.40e-02,
606,-1.60e-02,
607,2.00e-02,
608,-1.20e-02,
609,2.00e-02,
610,-2.40e-02,
611,2.80e-02,
612,2.00e-02,
613,-2.00e-02,
614,2.00e-02,
615,-1.60e-02,
616,2.00e-02,
617,-6.40e-02,
618,-1.60e-02,
619,1.60e-02,
620,-1.20e-02,
621,2.00e-02,
622,-2.00e-02,
623,4.80e-02,
624,2.00e-02,
625,-1.60e-02,
626,-1.20e-02,
627,1.60e-02,
628,1.60e-02,
629,-1.20e-02,
630,1.60e-02,
631,-1.20e-02,
632,-1.20e-02,
633,1.60e-02,
634,-1.20e-02,
635,6.00e-02,
636,1.60e-02,
637,-1.20e-02,
638,1.60e-02,
639,-1.20e-02,
640,7.60e-02,
641,-8.00e-02,
642,1.60e-02,
643,-1.20e-02,
644,-1.60e-02,
645,2.00e-02,
646,-2.00e-02,
647,2.40e-02,
648,1.60e-02,
649,-1.20e-02,
650,-1.20e-02,
651,1.60e-02,
652,2.00e-02,
653,-1.60e-02,
654,1.60e-02,
655,-1.20e-02,
656,-1.20e-02,
657,2.00e-02,
658,3.20e-02,
659,-3.20e-02,
660,-1.20e-02,
661,2.00e-02,
662,1.60e-02,
663,-1.20e-02,
664,-8.80e-02,
665,2.00e-02,
666,2.00e-02,
667,-1.60e-02,
668,1.60e-02,
669,-1.60e-02,
670,-1.20e-02,
671,5.20e-02,
672,-1.20e-02,
673,1.60e-02,
674,1.60e-02,
675,-1.60e-02,
676,1.60e-02,
677,-1.60e-02,
678,1.60e-02,
679,-1.20e-02,
680,1.60e-02,
681,-1.20e-02,
682,-2.00e-02,
683,2.80e-02,
684,1.60e-02,
685,-1.60e-02,
686,-1.20e-02,
687,2.00e-02,
688,-7.20e-02,
689,2.40e-02,
690,-1.60e-02,
691,2.00e-02,
692,2.00e-02,
693,-1.20e-02,
694,-3.60e-02,
695,4.00e-02,
696,-1.20e-02,
697,2.00e-02,
698,2.00e-02,
699,-1.60e-02,
700,2.00e-02,
701,-1.60e-02,
702,-1.20e-02,
703,1.60e-02,
704,1.60e-02,
705,-1.60e-02,
706,-4.40e-02,
707,1.60e-02,
708,-1.60e-02,
709,1.60e-02,
710,1.60e-02,
711,-1.20e-02,
712,-1.20e-02,
713,7.20e-02,
714,1.60e-02,
715,-1.20e-02,
716,-1.20e-02,
717,1.60e-02,
718,3.20e-02,
719,-2.40e-02,
720,1.60e-02,
721,-1.20e-02,
722,-1.20e-02,
723,2.40e-02,
724,-1.20e-02,
725,2.00e-02,
726,1.60e-02,
727,-1.20e-02,
728,-3.60e-02,
729,3.20e-02,
730,-1.20e-02,
731,1.60e-02,
732,-1.20e-02,
733,1.60e-02,
734,-1.20e-02,
735,2.40e-02,
736,-1.20e-02,
737,7.60e-02,
738,1.60e-02,
739,-1.20e-02,
740,1.60e-02,
741,-1.60e-02,
742,5.20e-02,
743,-1.60e-02,
744,-1.20e-02,
745,2.00e-02,
746,1.60e-02,
747,-1.20e-02,
748,1.60e-02,
749,-1.60e-02,
750,1.60e-02,
751,-1.20e-02,
752,-1.60e-02,
753,3.60e-02,
754,-2.00e-02,
755,1.60e-02,
756,-1.20e-02,
757,1.60e-02,
758,1.60e-02,
759,-1.20e-02,
760,1.60e-02,
761,-7.20e-02,
762,1.60e-02,
763,-1.20e-02,
764,-2.00e-02,
765,4.40e-02,
766,1.60e-02,
767,-1.20e-02,
768,2.00e-02,
769,-1.60e-02,
770,-1.20e-02,
771,2.00e-02,
772,-1.20e-02,
773,1.60e-02,
774,-1.20e-02,
775,2.00e-02,
776,-3.60e-02,
777,3.20e-02,
778,-1.60e-02,
779,2.00e-02,
780,-1.20e-02,
781,2.00e-02,
782,1.60e-02,
783,-1.60e-02,
784,2.00e-02,
785,-1.60e-02,
786,-1.60e-02,
787,2.00e-02,
788,2.80e-02,
789,-2.40e-02,
790,1.60e-02,
791,-1.60e-02,
792,1.60e-02,
793,-1.60e-02,
794,2.00e-02,
795,-1.60e-02,
796,1.60e-02,
797,-1.60e-02,
798,1.60e-02,
799,-1.20e-02,
800,-3.20e-02,
801,3.20e-02,
802,1.60e-02,
803,-1.20e-02,
804,1.60e-02,
805,-1.20e-02,
806,-1.20e-02,
807,2.00e-02,
808,1.60e-02,
809,-8.00e-02,
810,-1.20e-02,
811,2.00e-02,
812,4.80e-02,
813,-4.80e-02,
814,-1.20e-02,
815,1.60e-02,
816,-1.20e-02,
817,2.00e-02,
818,-1.20e-02,
819,1.60e-02,
820,1.60e-02,
821,-1.20e-02,
822,1.60e-02,
823,-1.20e-02,
824,-2.80e-02,
825,2.00e-02,
826,-1.60e-02,
827,1.60e-02,
828,-1.20e-02,
829,1.60e-02,
830,1.60e-02,
831,-1.60e-02,
832,1.60e-02,
833,-1.60e-02,
834,1.60e-02,
835,-1.20e-02,
836,4.00e-02,
837,-2.00e-02,
838,1.60e-02,
839,-1.20e-02,
840,1.60e-02,
841,-3.20e-02,
842,-1.60e-02,
843,1.60e-02,
844,1.60e-02,
845,-1.20e-02,
846,1.60e-02,
847,-1.20e-02,
848,3.60e-02,
849,-4.80e-02,
850,2.40e-02,
851,-4.80e-02,
852,2.00e-02,
853,-1.20e-02,
854,2.00e-02,
855,-1.60e-02,
856,1.60e-02,
857,-1.20e-02,
858,-1.60e-02,
859,2.00e-02,
860,2.40e-02,
861,-9.60e-02,
862,-1.20e-02,
863,1.60e-02,
864,-1.60e-02,
865,2.40e-02,
866,1.60e-02,
867,-1.60e-02,
868,2.00e-02,
869,-1.60e-02,
870,4.00e-02,
871,-2.00e-02,
872,-1.60e-02,
873,2.00e-02,
874,-1.60e-02,
875,1.60e-02,
876,-1.60e-02,
877,1.60e-02,
878,1.60e-02,
879,-1.20e-02,
880,-1.20e-02,
881,2.00e-02,
882,6.40e-02,
883,-3.20e-02,
884,-1.60e-02,
885,1.20e-01,
886,-1.20e-02,
887,2.00e-02,
888,1.60e-02,
889,-1.20e-02,
890,-1.20e-02,
891,2.00e-02,
892,-1.20e-02,
893,2.00e-02,
894,-2.40e-02,
895,3.20e-02,
896,1.60e-02,
897,-1.60e-02,
898,1.60e-02,
899,-1.20e-02,
900,-1.20e-02,
901,2.00e-02,
902,-1.20e-02,
903,1.60e-02,
904,1.60e-02,
905,-1.20e-02,
906,4.00e-02,
907,-3.60e-02,
908,2.00e-02,
909,-2.00e-02,
910,1.60e-02,
911,-1.60e-02,
912,1.60e-02,
913,-6.80e-02,
914,1.60e-02,
915,-1.60e-02,
916,-1.20e-02,
917,1.60e-02,
918,4.80e-02,
919,-7.60e-02,
920,1.60e-02,
921,-1.20e-02,
922,1.60e-02,
923,-1.60e-02,
924,1.60e-02,
925,-1.20e-02,
926,-1.20e-02,
927,1.60e-02,
928,-1.20e-02,
929,1.60e-02,
930,4.40e-02,
931,-2.00e-02,
932,1.60e-02,
933,-1.20e-02,
934,2.00e-02,
935,-1.60e-02,
936,-1.20e-02,
937,2.00e-02,
938,1.60e-02,
939,-7.60e-02,
940,1.60e-02,
941,-1.60e-02,
942,4.40e-02,
943,-1.60e-02,
944,-1.20e-02,
945,2.00e-02,
946,-1.60e-02,
947,2.40e-02,
948,2.00e-02,
949,-1.60e-02,
950,1.60e-02,
951,-1.60e-02,
952,-1.20e-02,
953,2.00e-02,
954,-1.60e-02,
955,4.80e-02,
956,1.60e-02,
957,-1.20e-02,
958,1.60e-02,
959,-1.60e-02,
960,-1.60e-02,
961,2.00e-02,
962,-1.20e-02,
963,9.60e-02,
964,1.60e-02,
965,-1.20e-02,
966,2.00e-02,
967,-2.00e-02,
968,-1.20e-02,
969,1.60e-02,
970,1.60e-02,
971,-1.20e-02,
972,-1.20e-02,
973,1.60e-02,
974,1.60e-02,
975,-1.60e-02,
976,2.00e-02,
977,-1.60e-02,
978,-2.40e-02,
979,1.60e-02,
980,1.60e-02,
981,-1.20e-02,
982,-1.60e-02,
983,2.00e-02,
984,-1.20e-02,
985,1.60e-02,
986,-1.20e-02,
987,1.60e-02,
988,1.60e-02,
989,-8.80e-02,
990,6.00e-02,
991,-2.80e-02,
992,-1.20e-02,
993,2.00e-02,
994,1.60e-02,
995,-1.60e-02,
996,-1.60e-02,
997,1.60e-02,
998,-1.20e-02,
999,2.00e-02,
1000,-2.00e-02,
1001,1.60e-02,
1002,-2.80e-02,
1003,3.20e-02,
1004,1.60e-02,
1005,-1.20e-02,
1006,2.00e-02,
1007,-2.00e-02,
1008,-1.20e-02,
1009,1.60e-02,
1010,-1.20e-02,
1011,1.60e-02,
1012,6.80e-02,
1013,-4.40e-02,
1014,-1.20e-02,
1015,1.60e-02,
1016,1.60e-02,
1017,-1.20e-02,
1018,2.80e-02,
1019,-2.80e-02,
1020,-1.20e-02,
1021,1.60e-02,
1022,-1.20e-02,
1023,1.60e-02,
1024,3.20e-02,
1025,-4.40e-02,
1026,1.60e-02,
1027,-1.60e-02,
1028,1.60e-02,
1029,-1.60e-02,
1030,1.60e-02,
1031,-1.20e-02,
1032,-1.20e-02,
1033,1.60e-02,
1034,1.60e-02,
1035,-1.20e-02,
1036,-8.00e-02,
1037,3.60e-02,
1038,1.60e-02,
1039,-1.60e-02,
1040,1.60e-02,
1041,-1.60e-02,
1042,2.00e-02,
1043,-1.60e-02,
1044,-1.20e-02,
1045,1.60e-02,
1046,-1.20e-02,
1047,1.60e-02,
1048,-3.20e-02,
1049,3.60e-02,
1050,1.60e-02,
1051,-1.20e-02,
1052,1.60e-02,
1053,-1.20e-02,
1054,2.00e-02,
1055,-1.60e-02,
1056,-1.20e-02,
1057,1.60e-02,
1058,-1.20e-02,
1059,1.60e-02,
1060,-4.00e-02,
1061,3.20e-02,
1062,-1.20e-02,
1063,1.04e-01,
1064,1.60e-02,
1065,-1.60e-02,
1066,1.60e-02,
1067,-1.20e-02,
1068,-1.20e-02,
1069,1.60e-02,
1070,-1.20e-02,
1071,2.00e-02,
1072,-1.20e-02,
1073,3.20e-02,
1074,-1.20e-02,
1075,2.00e-02,
1076,2.00e-02,
1077,-1.20e-02,
1078,2.00e-02,
1079,-1.20e-02,
1080,1.60e-02,
1081,-1.60e-02,
1082,-1.20e-02,
1083,1.60e-02,
1084,4.80e-02,
1085,-2.80e-02,
1086,4.80e-02,
1087,-2.40e-02,
1088,-1.60e-02,
1089,2.40e-02,
1090,2.00e-02,
1091,-1.20e-02,
1092,1.60e-02,
1093,-1.20e-02,
1094,-1.20e-02,
1095,2.00e-02,
1096,-4.80e-02,
1097,4.40e-02,
1098,1.60e-02,
1099,-1.20e-02,
1100,2.00e-02,
1101,-1.60e-02,
1102,2.00e-02,
1103,-2.00e-02,
1104,1.60e-02,
1105,-1.20e-02,
1106,-1.60e-02,
1107,1.60e-02,
1108,3.20e-02,
1109,-2.00e-02,
1110,-1.20e-02,
1111,1.16e-01,
1112,1.60e-02,
1113,-1.60e-02,
1114,-1.20e-02,
1115,1.60e-02,
1116,2.00e-02,
1117,-1.60e-02,
1118,2.00e-02,
1119,-1.60e-02,
1120,4.40e-02,
1121,-4.80e-02,
1122,-1.20e-02,
1123,2.00e-02,
1124,2.00e-02,
1125,-1.60e-02,
1126,-1.20e-02,
1127,1.60e-02,
1128,1.60e-02,
1129,-1.20e-02,
1130,-1.20e-02,
1131,1.60e-02,
1132,5.60e-02,
1133,-4.40e-02,
1134,2.00e-02,
1135,-8.00e-02,
1136,1.60e-02,
1137,-1.20e-02,
1138,1.60e-02,
1139,-1.20e-02,
1140,-1.20e-02,
1141,1.60e-02,
1142,-1.20e-02,
1143,2.00e-02,
1144,-2.00e-02,
1145,3.20e-02,
1146,1.60e-02,
1147,-1.60e-02,
1148,2.00e-02,
1149,-1.60e-02,
1150,1.60e-02,
1151,-1.20e-02,
1152,1.60e-02,
1153,-1.60e-02,
1154,3.20e-02,
1155,-3.60e-02,
1156,1.60e-02,
1157,-1.20e-02,
1158,-1.20e-02,
1159,1.60e-02,
1160,7.60e-02,
1161,-1.60e-02,
1162,-1.60e-02,
1163,2.00e-02,
1164,1.60e-02,
1165,-1.20e-02,
1166,-3.60e-02,
1167,6.00e-02,
1168,2.00e-02,
1169,-1.20e-02,
1170,1.60e-02,
1171,-1.20e-02,
1172,-1.20e-02,
1173,1.60e-02,
1174,-1.20e-02,
1175,1.60e-02,
1176,-1.20e-02,
1177,1.60e-02,
1178,4.80e-02,
1179,-2.00e-02,
1180,-1.20e-02,
1181,1.60e-02,
1182,-1.20e-02,
1183,6.00e-02,
1184,-1.20e-02,
1185,2.00e-02,
1186,1.60e-02,
1187,-1.60e-02,
1188,-1.20e-02,
1189,1.60e-02,
1190,1.60e-02,
1191,-4.00e-02,
1192,1.60e-02,
1193,-1.60e-02,
1194,-1.20e-02,
1195,2.00e-02,
1196,-1.20e-02,
1197,2.00e-02,
1198,-1.20e-02,
1199,2.00e-02,
