Laptop_1/LAPTOP_CHRGR_1_OFF/time domain/NewFile12.csv

X,CH1,Start,Increment,
Sequence,Volt,-1.500000e-01,2.000000e-04
0,2.00e-02,
1,-1.60e-02,
2,-1.60e-02,
3,2.00e-02,
4,4.40e-02,
5,-8.80e-02,
6,-1.60e-02,
7,3.60e-02,
8,2.00e-02,
9,-2.00e-02,
10,2.40e-02,
11,-1.60e-02,
12,2.40e-02,
13,-1.60e-02,
14,6.00e-02,
15,-1.60e-02,
16,-4.00e-02,
17,7.20e-02,
18,-2.00e-02,
19,2.80e-02,
20,-1.92e-01,
21,5.20e-02,
22,2.40e-02,
23,-3.60e-02,
24,-1.60e-02,
25,2.40e-02,
26,-4.00e-02,
27,2.40e-02,
28,-1.60e-02,
29,2.00e-02,
30,1.60e-02,
31,-1.60e-02,
32,2.40e-02,
33,-9.20e-02,
34,2.00e-02,
35,-1.60e-02,
36,1.60e-02,
37,-3.20e-02,
38,-1.60e-02,
39,2.00e-02,
40,-1.60e-02,
41,2.00e-02,
42,6.40e-02,
43,-5.60e-02,
44,-8.00e-02,
45,2.56e-01,
46,-6.00e-02,
47,2.80e-02,
48,-2.40e-02,
49,2.80e-02,
50,-1.60e-02,
51,2.80e-02,
52,-3.60e-02,
53,4.40e-02,
54,-2.00e-02,
55,2.80e-02,
56,3.20e-02,
57,-3.20e-02,
58,2.80e-02,
59,-2.40e-02,
60,-2.40e-02,
61,2.40e-02,
62,-7.20e-02,
63,7.60e-02,
64,-2.00e-02,
65,3.20e-02,
66,-9.20e-02,
67,4.00e-02,
68,2.00e-02,
69,-1.60e-02,
70,2.00e-02,
71,-6.40e-02,
72,2.00e-02,
73,-1.60e-02,
74,2.40e-02,
75,-5.60e-02,
76,-1.60e-02,
77,2.40e-02,
78,1.60e-02,
79,-2.00e-02,
80,-2.80e-02,
81,4.00e-02,
82,2.40e-02,
83,-1.60e-02,
84,-4.80e-02,
85,4.40e-02,
86,-1.60e-02,
87,2.40e-02,
88,-2.40e-02,
89,2.40e-02,
90,7.60e-02,
91,-1.32e-01,
92,2.40e-02,
93,-1.60e-02,
94,2.00e-02,
95,-2.00e-02,
96,2.40e-02,
97,-2.00e-02,
98,-1.60e-02,
99,2.80e-02,
100,2.40e-02,
101,-6.40e-02,
102,2.80e-02,
103,-1.60e-02,
104,5.60e-02,
105,-3.60e-02,
106,2.40e-02,
107,-2.00e-02,
108,2.80e-02,
109,-1.60e-02,
110,2.00e-02,
111,-1.60e-02,
112,-1.60e-02,
113,2.40e-02,
114,3.20e-02,
115,-2.24e-01,
116,-1.20e-02,
117,2.00e-02,
118,6.80e-02,
119,-9.20e-02,
120,2.00e-02,
121,-1.60e-02,
122,-1.60e-02,
123,2.80e-02,
124,-1.60e-02,
125,2.40e-02,
126,-2.00e-02,
127,2.80e-02,
128,-6.40e-02,
129,6.40e-02,
130,2.40e-02,
131,-2.00e-02,
132,6.00e-02,
133,-7.60e-02,
134,2.40e-02,
135,-2.00e-02,
136,2.80e-02,
137,-2.00e-02,
138,2.44e-01,
139,-4.80e-02,
140,2.80e-02,
141,-2.40e-02,
142,2.80e-02,
143,-5.20e-02,
144,-2.00e-02,
145,2.40e-02,
146,-2.00e-02,
147,2.16e-01,
148,-8.00e-02,
149,2.40e-02,
150,-2.00e-02,
151,2.00e-02,
152,-1.60e-02,
153,2.00e-02,
154,-1.20e-02,
155,2.00e-02,
156,-1.60e-02,
157,2.76e-01,
158,4.40e-02,
159,-1.60e-02,
160,2.00e-02,
161,-1.60e-02,
162,4.00e-02,
163,-8.00e-02,
164,1.60e-02,
165,-1.60e-02,
166,1.24e-01,
167,-9.60e-02,
168,2.40e-02,
169,-1.60e-02,
170,-1.60e-02,
171,2.40e-02,
172,5.60e-02,
173,-3.20e-02,
174,-1.60e-02,
175,2.40e-02,
176,-7.60e-02,
177,1.16e-01,
178,2.00e-02,
179,-2.00e-02,
180,-2.40e-02,
181,3.20e-02,
182,2.00e-02,
183,-2.00e-02,
184,-2.40e-02,
185,2.40e-02,
186,-3.60e-02,
187,8.40e-02,
188,2.64e-01,
189,-4.80e-02,
190,7.20e-02,
191,-4.80e-02,
192,-1.60e-02,
193,2.00e-02,
194,-1.20e-02,
195,1.60e-02,
196,5.20e-02,
197,-2.80e-02,
198,-1.20e-02,
199,2.00e-02,
200,4.40e-02,
201,-5.20e-02,
202,-1.60e-02,
203,2.40e-02,
204,1.60e-02,
205,-1.60e-02,
206,1.00e-01,
207,-9.60e-02,
208,-1.60e-02,
209,2.00e-02,
210,-3.20e-02,
211,3.60e-02,
212,2.40e-02,
213,-2.00e-02,
214,-9.20e-02,
215,2.72e-01,
216,9.60e-02,
217,-6.40e-02,
218,2.40e-02,
219,-2.00e-02,
220,5.60e-02,
221,-6.00e-02,
222,2.40e-02,
223,-2.00e-02,
224,-2.40e-02,
225,5.20e-02,
226,2.40e-02,
227,-1.60e-02,
228,-2.40e-02,
229,3.20e-02,
230,2.00e-02,
231,-1.60e-02,
232,2.40e-02,
233,-1.60e-02,
234,-2.80e-02,
235,7.60e-02,
236,2.00e-02,
237,-2.00e-02,
238,2.00e-02,
239,-2.40e-02,
240,1.12e-01,
241,-2.24e-01,
242,-1.60e-02,
243,2.00e-02,
244,-3.60e-02,
245,8.00e-02,
246,1.60e-02,
247,-1.60e-02,
248,7.60e-02,
249,-9.20e-02,
250,2.00e-02,
251,-2.00e-02,
252,-2.00e-02,
253,2.40e-02,
254,3.20e-02,
255,-5.20e-02,
256,-1.60e-02,
257,2.40e-02,
258,-5.60e-02,
259,7.20e-02,
260,2.00e-02,
261,-1.60e-02,
262,2.00e-02,
263,-1.60e-02,
264,-1.72e-01,
265,8.40e-02,
266,2.40e-02,
267,-1.52e-01,
268,-2.80e-02,
269,2.80e-02,
270,2.40e-02,
271,-2.00e-02,
272,-2.00e-02,
273,2.40e-02,
274,-4.80e-02,
275,2.40e-02,
276,-1.20e-02,
277,2.00e-02,
278,-5.20e-02,
279,9.20e-02,
280,2.00e-02,
281,-2.00e-02,
282,-7.60e-02,
283,7.60e-02,
284,-1.60e-02,
285,2.00e-02,
286,-3.20e-02,
287,3.60e-02,
288,-1.20e-02,
289,2.00e-02,
290,1.04e-01,
291,-9.20e-02,
292,7.60e-02,
293,-1.00e-01,
294,2.00e-02,
295,-1.60e-02,
296,2.80e-02,
297,-2.40e-02,
298,-2.00e-02,
299,2.40e-02,
300,2.40e-02,
301,-2.00e-02,
302,2.40e-02,
303,-6.00e-02,
304,-2.00e-02,
305,2.40e-02,
306,2.80e-02,
307,-4.80e-02,
308,2.80e-02,
309,-2.80e-02,
310,-2.00e-02,
311,2.40e-02,
312,-3.60e-02,
313,4.80e-02,
314,2.68e-01,
315,-2.40e-02,
316,3.60e-02,
317,-1.60e-02,
318,-1.60e-02,
319,2.40e-02,
320,1.60e-02,
321,-1.60e-02,
322,1.08e-01,
323,-6.80e-02,
324,2.40e-02,
325,-2.00e-02,
326,-1.60e-02,
327,2.00e-02,
328,-1.20e-02,
329,2.00e-02,
330,8.00e-02,
331,-6.40e-02,
332,-1.60e-02,
333,2.00e-02,
334,-3.60e-02,
335,6.00e-02,
336,2.00e-02,
337,-1.60e-02,
338,-2.16e-01,
339,8.80e-02,
340,-2.40e-02,
341,4.00e-02,
342,2.00e-02,
343,-2.00e-02,
344,2.40e-02,
345,-7.20e-02,
346,-2.00e-02,
347,2.00e-02,
348,-1.20e-02,
349,2.40e-02,
350,2.00e-02,
351,-8.00e-02,
352,2.40e-02,
353,-1.60e-02,
354,-1.60e-02,
355,2.40e-02,
356,-1.60e-02,
357,2.40e-02,
358,2.00e-02,
359,-2.00e-02,
360,-5.60e-02,
361,7.20e-02,
362,6.40e-02,
363,-1.24e-01,
364,-8.00e-02,
365,6.80e-02,
366,-1.20e-02,
367,2.40e-02,
368,2.00e-02,
369,-1.60e-02,
370,5.60e-02,
371,-1.00e-01,
372,2.40e-02,
373,-1.60e-02,
374,6.80e-02,
375,-3.20e-02,
376,2.80e-02,
377,-2.00e-02,
378,2.40e-02,
379,-1.60e-02,
380,6.00e-02,
381,-8.80e-02,
382,-1.60e-02,
383,2.80e-02,
384,2.80e-02,
385,-2.80e-02,
386,-1.60e-02,
387,2.40e-02,
388,-1.60e-02,
389,6.40e-02,
390,2.40e-02,
391,-2.00e-02,
392,-1.12e-01,
393,4.40e-02,
394,-1.60e-02,
395,2.00e-02,
396,-2.00e-02,
397,2.80e-02,
398,6.40e-02,
399,-2.00e-02,
400,2.40e-02,
401,-2.00e-02,
402,-3.20e-02,
403,4.80e-02,
404,2.00e-02,
405,-1.60e-02,
406,-1.60e-02,
407,2.00e-02,
408,8.40e-02,
409,-1.76e-01,
410,1.60e-02,
411,-1.60e-02,
412,3.60e-02,
413,-3.20e-02,
414,2.00e-02,
415,-1.60e-02,
416,2.00e-02,
417,-1.60e-02,
418,-3.60e-02,
419,9.20e-02,
420,-1.60e-02,
421,2.40e-02,
422,4.40e-02,
423,-4.40e-02,
424,2.00e-02,
425,-1.60e-02,
426,2.40e-02,
427,-5.20e-02,
428,-2.00e-02,
429,2.40e-02,
430,2.00e-02,
431,-1.60e-02,
432,-1.00e-01,
433,3.60e-02,
434,-1.60e-02,
435,2.40e-02,
436,-4.80e-02,
437,2.40e-02,
438,-2.00e-02,
439,2.40e-02,
440,2.40e-02,
441,-2.40e-02,
442,2.00e-02,
443,-2.00e-02,
444,2.00e-02,
445,-1.60e-02,
446,-4.40e-02,
447,5.60e-02,
448,-1.20e-02,
449,2.80e-02,
450,5.60e-02,
451,-7.60e-02,
452,2.00e-02,
453,-1.60e-02,
454,2.00e-02,
455,-1.60e-02,
456,-2.20e-01,
457,1.64e-01,
458,2.40e-02,
459,-2.00e-02,
460,7.20e-02,
461,-2.80e-02,
462,2.40e-02,
463,-2.00e-02,
464,-2.00e-02,
465,2.00e-02,
466,-7.20e-02,
467,3.20e-02,
468,2.40e-02,
469,-2.00e-02,
470,4.00e-02,
471,-2.00e-02,
472,-1.60e-02,
473,2.40e-02,
474,-1.60e-02,
475,2.40e-02,
476,8.40e-02,
477,-2.00e-02,
478,-1.52e-01,
479,4.80e-02,
480,-1.60e-02,
481,2.00e-02,
482,2.40e-02,
483,-2.00e-02,
484,-6.00e-02,
485,3.20e-02,
486,2.00e-02,
487,-1.60e-02,
488,-4.00e-02,
489,4.40e-02,
490,2.00e-02,
491,-1.60e-02,
492,2.00e-02,
493,-1.60e-02,
494,-6.80e-02,
495,1.12e-01,
496,2.00e-02,
497,-1.60e-02,
498,2.40e-02,
499,-2.00e-02,
500,2.00e-02,
501,-1.60e-02,
502,-2.00e-02,
503,3.60e-02,
504,-1.60e-02,
505,7.20e-02,
506,-1.60e-02,
507,2.40e-02,
508,-4.80e-02,
509,5.60e-02,
510,-1.60e-02,
511,2.40e-02,
512,-1.60e-02,
513,2.40e-02,
514,-4.40e-02,
515,2.40e-02,
516,-2.00e-02,
517,2.40e-02,
518,4.80e-02,
519,-2.00e-02,
520,-2.00e-02,
521,2.80e-02,
522,2.80e-02,
523,-2.40e-02,
524,-7.20e-02,
525,8.40e-02,
526,-2.00e-01,
527,2.48e-01,
528,2.00e-02,
529,-1.20e-02,
530,2.00e-02,
531,-1.60e-02,
532,-4.80e-02,
533,5.60e-02,
534,-1.60e-02,
535,2.00e-02,
536,-6.00e-02,
537,6.40e-02,
538,1.60e-02,
539,-1.60e-02,
540,2.00e-02,
541,-1.60e-02,
542,8.00e-02,
543,-1.60e-02,
544,-2.40e-02,
545,2.40e-02,
546,2.40e-02,
547,-3.20e-02,
548,2.40e-02,
549,-1.88e-01,
550,-1.60e-02,
551,2.40e-02,
552,-3.60e-02,
553,7.60e-02,
554,2.80e-02,
555,-2.00e-02,
556,2.40e-02,
557,-2.00e-02,
558,-2.00e-02,
559,2.40e-02,
560,2.40e-02,
561,-2.00e-02,
562,-8.80e-02,
563,1.08e-01,
564,2.80e-02,
565,-2.40e-02,
566,-3.60e-02,
567,3.60e-02,
568,2.00e-02,
569,-1.60e-02,
570,-4.40e-02,
571,4.80e-02,
572,2.28e-01,
573,-1.96e-01,
574,-1.60e-02,
575,2.00e-02,
576,-5.20e-02,
577,4.00e-02,
578,2.00e-02,
579,-1.20e-02,
580,5.60e-02,
581,-8.00e-02,
582,2.00e-02,
583,-1.20e-02,
584,-1.60e-02,
585,2.00e-02,
586,2.00e-02,
587,-1.60e-02,
588,-1.60e-02,
589,2.00e-02,
590,-1.60e-02,
591,1.04e-01,
592,-1.60e-02,
593,2.40e-02,
594,-4.00e-02,
595,5.60e-02,
596,-1.20e-02,
597,2.40e-02,
598,-1.60e-02,
599,9.20e-02,
600,-5.20e-02,
601,5.20e-02,
602,2.40e-02,
603,-2.40e-02,
604,5.60e-02,
605,-5.60e-02,
606,2.80e-02,
607,-2.40e-02,
608,-2.00e-02,
609,2.80e-02,
610,1.12e-01,
611,-5.60e-02,
612,2.00e-02,
613,-1.60e-02,
614,-2.00e-02,
615,2.00e-02,
616,2.00e-02,
617,-1.60e-02,
618,1.60e-02,
619,-2.00e-02,
620,1.72e-01,
621,-2.40e-01,
622,2.00e-02,
623,-1.60e-02,
624,-4.00e-02,
625,2.00e-02,
626,2.40e-02,
627,-1.60e-02,
628,2.00e-02,
629,-2.80e-02,
630,2.40e-02,
631,-2.00e-02,
632,3.60e-02,
633,-2.40e-02,
634,2.40e-02,
635,-1.60e-02,
636,-1.60e-02,
637,2.40e-02,
638,7.60e-02,
639,-9.60e-02,
640,-1.60e-02,
641,2.80e-02,
642,2.80e-02,
643,-2.80e-02,
644,-2.08e-01,
645,1.68e-01,
646,2.40e-02,
647,-2.40e-02,
648,-8.80e-02,
649,1.00e-01,
650,2.00e-02,
651,-2.00e-02,
652,4.40e-02,
653,-5.20e-02,
654,2.00e-02,
655,-2.00e-02,
656,-1.60e-02,
657,2.00e-02,
658,4.80e-02,
659,-5.20e-02,
660,2.00e-02,
661,-2.00e-02,
662,-5.60e-02,
663,2.00e-02,
664,-1.20e-02,
665,2.00e-02,
666,-1.20e-02,
667,2.00e-02,
668,-9.20e-02,
669,8.40e-02,
670,-1.60e-02,
671,2.80e-02,
672,-1.20e-02,
673,2.00e-02,
674,2.00e-02,
675,-1.60e-02,
676,-1.60e-02,
677,1.28e-01,
678,2.00e-02,
679,-1.60e-02,
680,7.60e-02,
681,-6.40e-02,
682,-2.00e-02,
683,2.80e-02,
684,2.80e-02,
685,-2.00e-02,
686,-5.20e-02,
687,8.80e-02,
688,-2.00e-02,
689,2.80e-02,
690,-2.40e-02,
691,4.80e-02,
692,1.52e-01,
693,-1.40e-01,
694,2.00e-02,
695,-1.60e-02,
696,1.04e-01,
697,-9.20e-02,
698,-1.60e-02,
699,2.00e-02,
700,-2.40e-02,
701,3.20e-02,
702,-1.60e-02,
703,2.00e-02,
704,2.00e-02,
705,-1.20e-02,
706,-1.60e-02,
707,5.60e-02,
708,2.40e-02,
709,-1.60e-02,
710,2.40e-02,
711,-5.60e-02,
712,2.40e-02,
713,-2.00e-02,
714,-2.00e-02,
715,1.40e-01,
716,2.80e-02,
717,-1.60e-02,
718,2.40e-02,
719,-2.00e-02,
720,3.60e-02,
721,-4.40e-02,
722,-2.00e-02,
723,2.40e-02,
724,-2.40e-02,
725,4.40e-02,
726,-8.40e-02,
727,6.80e-02,
728,-2.00e-02,
729,2.80e-02,
730,2.40e-02,
731,-2.40e-02,
732,2.40e-02,
733,-2.00e-02,
734,9.20e-02,
735,-7.60e-02,
736,1.28e-01,
737,-1.80e-01,
738,-6.80e-02,
739,5.20e-02,
740,2.00e-02,
741,-1.60e-02,
742,-1.60e-02,
743,1.60e-02,
744,-3.60e-02,
745,2.00e-02,
746,-1.20e-02,
747,2.00e-02,
748,-1.20e-02,
749,3.20e-02,
750,-1.60e-02,
751,2.00e-02,
752,-1.60e-02,
753,2.00e-02,
754,-7.60e-02,
755,7.20e-02,
756,-1.20e-02,
757,2.00e-02,
758,4.40e-02,
759,-2.00e-02,
760,-2.00e-02,
761,2.00e-02,
762,2.44e-01,
763,-1.52e-01,
764,-6.40e-02,
765,8.40e-02,
766,2.40e-02,
767,-2.40e-02,
768,5.60e-02,
769,-4.40e-02,
770,2.40e-02,
771,-2.00e-02,
772,6.00e-02,
773,-6.40e-02,
774,-2.40e-02,
775,2.40e-02,
776,2.00e-02,
777,-2.00e-02,
778,3.20e-02,
779,-3.20e-02,
780,-1.60e-02,
781,2.00e-02,
782,6.00e-02,
783,-4.40e-02,
784,2.00e-02,
785,-8.40e-02,
786,-1.20e-02,
787,2.00e-02,
788,-1.20e-02,
789,2.00e-02,
790,2.40e-02,
791,-2.00e-02,
792,-8.80e-02,
793,2.00e-02,
794,-1.60e-02,
795,2.00e-02,
796,4.80e-02,
797,-6.00e-02,
798,-1.60e-02,
799,2.40e-02,
800,2.00e-02,
801,-1.60e-02,
802,5.20e-02,
803,-4.40e-02,
804,-1.60e-02,
805,2.40e-02,
806,-4.40e-02,
807,4.80e-02,
808,2.52e-01,
809,-2.40e-01,
810,-2.00e-02,
811,2.80e-02,
812,-8.00e-02,
813,9.20e-02,
814,-2.00e-02,
815,2.80e-02,
816,2.40e-02,
817,-2.40e-02,
818,-1.60e-02,
819,2.00e-02,
820,-1.60e-02,
821,2.00e-02,
822,2.00e-02,
823,-8.00e-02,
824,1.60e-02,
825,-1.60e-02,
826,6.00e-02,
827,-4.80e-02,
828,2.00e-02,
829,-1.60e-02,
830,1.60e-02,
831,-7.60e-02,
832,-1.20e-02,
833,2.40e-02,
834,-1.20e-01,
835,2.80e-02,
836,1.60e-02,
837,-1.60e-02,
838,-1.60e-02,
839,2.40e-02,
840,-8.80e-02,
841,1.08e-01,
842,2.00e-02,
843,-2.00e-02,
844,2.00e-02,
845,-2.00e-02,
846,-2.00e-02,
847,2.40e-02,
848,-2.00e-02,
849,2.40e-02,
850,-9.20e-02,
851,9.20e-02,
852,2.80e-02,
853,-1.60e-02,
854,4.80e-02,
855,-6.40e-02,
856,2.80e-02,
857,-2.00e-02,
858,-1.36e-01,
859,2.40e-01,
860,4.00e-02,
861,-4.40e-02,
862,2.00e-02,
863,-1.60e-02,
864,-4.40e-02,
865,2.40e-02,
866,2.00e-02,
867,-1.20e-02,
868,2.00e-02,
869,-1.60e-02,
870,-2.00e-02,
871,6.40e-02,
872,-2.00e-02,
873,2.00e-02,
874,2.40e-02,
875,-1.20e-02,
876,-1.60e-02,
877,2.40e-02,
878,-1.60e-02,
879,2.40e-02,
880,2.32e-01,
881,-1.44e-01,
882,-5.20e-02,
883,4.40e-02,
884,-2.00e-02,
885,2.40e-02,
886,-1.60e-02,
887,2.40e-02,
888,-6.40e-02,
889,4.00e-02,
890,-1.60e-02,
891,2.40e-02,
892,2.80e-02,
893,-3.20e-02,
894,2.40e-02,
895,-2.00e-02,
896,-2.80e-02,
897,2.80e-02,
898,-8.00e-02,
899,7.60e-02,
900,-1.60e-02,
901,2.40e-02,
902,-1.60e-02,
903,3.20e-02,
904,-1.60e-02,
905,2.68e-01,
906,-1.20e-02,
907,1.60e-02,
908,6.80e-02,
909,-1.60e-02,
910,-1.60e-02,
911,2.00e-02,
912,4.40e-02,
913,-4.40e-02,
914,1.60e-02,
915,-1.20e-02,
916,-1.20e-02,
917,2.00e-02,
918,-4.40e-02,
919,2.40e-02,
920,-1.20e-02,
921,2.40e-02,
922,4.40e-02,
923,-6.00e-02,
924,-1.60e-02,
925,2.00e-02,
926,2.00e-02,
927,-1.60e-02,
928,1.00e-01,
929,-8.80e-02,
930,-4.80e-02,
931,1.96e-01,
932,2.40e-02,
933,-1.60e-02,
934,-1.60e-02,
935,2.80e-02,
936,8.40e-02,
937,-2.80e-02,
938,-1.60e-02,
939,2.40e-02,
940,5.60e-02,
941,-5.20e-02,
942,-2.40e-02,
943,2.00e-02,
944,-1.60e-02,
945,2.00e-02,
946,-3.20e-02,
947,2.00e-02,
948,1.60e-02,
949,-1.20e-02,
950,-2.80e-02,
951,2.80e-02,
952,1.20e-01,
953,-1.60e-02,
954,-1.20e-02,
955,2.00e-02,
956,9.20e-02,
957,-5.60e-02,
958,-1.60e-02,
959,2.00e-02,
960,-2.00e-02,
961,2.40e-02,
962,-2.00e-02,
963,2.40e-02,
964,2.00e-02,
965,-2.00e-02,
966,-5.20e-02,
967,7.20e-02,
968,2.40e-02,
969,-2.00e-02,
970,4.80e-02,
971,-6.80e-02,
972,-2.00e-02,
973,2.40e-02,
974,1.52e-01,
975,-1.52e-01,
976,2.40e-02,
977,-2.40e-02,
978,2.80e-02,
979,-2.40e-02,
980,4.40e-02,
981,-2.00e-02,
982,2.40e-02,
983,-2.00e-02,
984,2.00e-02,
985,-7.60e-02,
986,1.60e-02,
987,-2.40e-02,
988,-1.20e-02,
989,3.20e-02,
990,-1.60e-02,
991,2.00e-02,
992,1.60e-02,
993,-1.60e-02,
994,-1.20e-02,
995,4.00e-02,
996,-1.20e-02,
997,1.60e-02,
998,6.00e-02,
999,-2.16e-01,
1000,2.00e-02,
1001,-1.60e-02,
1002,2.40e-02,
1003,-1.60e-02,
1004,4.80e-02,
1005,-3.20e-02,
1006,2.40e-02,
1007,-2.00e-02,
1008,5.20e-02,
1009,-4.00e-02,
1010,-1.60e-02,
1011,2.00e-02,
1012,-2.00e-02,
1013,2.40e-02,
1014,-9.60e-02,
1015,1.40e-01,
1016,-1.60e-02,
1017,2.40e-02,
1018,2.40e-02,
1019,-2.40e-02,
1020,2.40e-02,
1021,-2.40e-02,
1022,-1.60e-02,
1023,2.40e-01,
1024,-5.20e-02,
1025,3.20e-02,
1026,-1.60e-02,
1027,1.60e-02,
1028,3.60e-02,
1029,-5.60e-02,
1030,1.60e-02,
1031,-1.60e-02,
1032,1.60e-02,
1033,-5.20e-02,
1034,-1.20e-02,
1035,2.00e-02,
1036,-1.60e-02,
1037,2.00e-02,
1038,-5.20e-02,
1039,2.00e-02,
1040,2.00e-02,
1041,-1.60e-02,
1042,1.00e-01,
1043,-1.44e-01,
1044,2.40e-02,
1045,-2.00e-02,
1046,2.56e-01,
1047,-2.36e-01,
1048,-2.00e-02,
1049,2.40e-02,
1050,2.00e-02,
1051,-2.00e-02,
1052,-1.12e-01,
1053,1.00e-01,
1054,-1.60e-02,
1055,2.40e-02,
1056,4.80e-02,
1057,-7.20e-02,
1058,-2.00e-02,
1059,2.80e-02,
1060,2.80e-02,
1061,-2.00e-02,
1062,-1.60e-02,
1063,5.60e-02,
1064,-1.60e-02,
1065,2.40e-02,
1066,4.80e-02,
1067,-2.00e-02,
1068,2.00e-02,
1069,-2.00e-02,
1070,-1.52e-01,
1071,2.00e-02,
1072,-1.48e-01,
1073,7.20e-02,
1074,1.60e-02,
1075,-1.20e-02,
1076,2.00e-02,
1077,-1.60e-02,
1078,-1.20e-02,
1079,1.60e-02,
1080,-1.60e-02,
1081,2.00e-02,
1082,7.60e-02,
1083,-4.00e-02,
1084,-1.60e-02,
1085,2.40e-02,
1086,6.00e-02,
1087,-4.00e-02,
1088,-2.00e-02,
1089,2.40e-02,
1090,-6.00e-02,
1091,7.60e-02,
1092,1.64e-01,
1093,-2.08e-01,
1094,-3.60e-02,
1095,4.80e-02,
1096,-2.00e-02,
1097,2.00e-02,
1098,-1.20e-02,
1099,2.40e-02,
1100,-8.40e-02,
1101,6.40e-02,
1102,2.40e-02,
1103,-2.40e-02,
1104,-1.60e-02,
1105,2.80e-02,
1106,-2.40e-02,
1107,2.40e-02,
1108,-1.60e-02,
1109,2.00e-02,
1110,-4.40e-02,
1111,2.00e-02,
1112,1.60e-02,
1113,-1.60e-02,
1114,-1.20e-02,
1115,4.80e-02,
1116,-2.40e-02,
1117,4.40e-02,
1118,-1.60e-02,
1119,2.00e-02,
1120,4.80e-02,
1121,-5.60e-02,
1122,-1.60e-02,
1123,2.00e-02,
1124,4.00e-02,
1125,-4.40e-02,
1126,-1.20e-02,
1127,2.40e-02,
1128,-1.60e-02,
1129,2.40e-02,
1130,8.80e-02,
1131,-7.20e-02,
1132,-2.40e-02,
1133,2.00e-02,
1134,-2.00e-02,
1135,2.40e-02,
1136,2.40e-02,
1137,-2.00e-02,
1138,-1.60e-02,
1139,2.40e-02,
1140,-2.12e-01,
1141,1.60e-01,
1142,-2.40e-02,
1143,5.20e-02,
1144,2.40e-02,
1145,-2.00e-02,
1146,2.40e-02,
1147,-1.60e-02,
1148,2.40e-02,
1149,-3.60e-02,
1150,-2.00e-02,
1151,2.40e-02,
1152,-2.00e-02,
1153,5.20e-02,
1154,-1.20e-02,
1155,1.60e-02,
1156,2.00e-02,
1157,-1.20e-02,
1158,8.00e-02,
1159,-9.20e-02,
1160,-1.20e-02,
1161,2.00e-02,
1162,3.60e-02,
1163,-2.80e-02,
1164,-6.80e-02,
1165,1.04e-01,
1166,-1.60e-02,
1167,2.00e-02,
1168,5.20e-02,
1169,-5.20e-02,
1170,-1.60e-02,
1171,2.00e-02,
1172,-2.00e-02,
1173,3.60e-02,
1174,-2.24e-01,
1175,3.60e-02,
1176,-2.00e-02,
1177,2.00e-02,
1178,-5.60e-02,
1179,5.60e-02,
1180,2.40e-02,
1181,-1.60e-02,
1182,-4.40e-02,
1183,2.40e-02,
1184,-2.00e-02,
1185,3.60e-02,
1186,2.00e-02,
1187,-2.00e-02,
1188,9.60e-02,
1189,-2.00e-02,
1190,2.00e-02,
1191,-2.40e-02,
1192,2.00e-02,
1193,-1.60e-02,
1194,3.20e-02,
1195,-4.40e-02,
1196,-1.20e-02,
1197,1.60e-02,
1198,-6.40e-02,
1199,1.60e-02,
