Laptop_1/LAPTOP_CHRGR_1_OFF/time domain/NewFile48.csv

X,CH1,Start,Increment,
Sequence,Volt,-1.500000e-01,2.000000e-04
0,1.60e-02,
1,-1.60e-02,
2,-1.60e-02,
3,2.00e-02,
4,2.00e-02,
5,-1.20e-02,
6,-1.20e-02,
7,1.60e-02,
8,-7.60e-02,
9,2.00e-02,
10,-1.20e-02,
11,1.60e-02,
12,-1.60e-02,
13,1.60e-02,
14,1.60e-02,
15,-1.60e-02,
16,-1.20e-02,
17,1.60e-02,
18,-1.20e-02,
19,1.60e-02,
20,-1.20e-02,
21,1.60e-02,
22,-1.20e-02,
23,1.60e-02,
24,-1.20e-02,
25,1.60e-02,
26,-1.60e-02,
27,2.00e-02,
28,-1.20e-02,
29,2.00e-02,
30,1.60e-02,
31,-1.20e-02,
32,-2.00e-02,
33,2.00e-02,
34,1.60e-02,
35,-1.08e-01,
36,2.00e-02,
37,-1.60e-02,
38,1.60e-02,
39,-1.60e-02,
40,-1.20e-02,
41,2.40e-02,
42,-1.20e-02,
43,2.00e-02,
44,2.00e-02,
45,-2.40e-02,
46,-1.20e-02,
47,1.60e-02,
48,-1.20e-02,
49,2.00e-02,
50,1.60e-02,
51,-1.20e-02,
52,-1.20e-02,
53,1.60e-02,
54,1.60e-02,
55,-1.20e-02,
56,1.60e-02,
57,-1.20e-02,
58,2.00e-02,
59,-1.20e-02,
60,5.60e-02,
61,-1.60e-02,
62,1.60e-02,
63,-1.60e-02,
64,1.60e-02,
65,-1.60e-02,
66,1.60e-02,
67,-1.60e-02,
68,-1.20e-02,
69,2.40e-02,
70,1.60e-02,
71,-1.60e-02,
72,-1.60e-02,
73,1.60e-02,
74,1.60e-02,
75,-1.60e-02,
76,1.60e-02,
77,-1.60e-02,
78,2.00e-02,
79,-1.60e-02,
80,1.60e-02,
81,-2.80e-02,
82,2.40e-02,
83,-1.60e-02,
84,-1.60e-02,
85,2.00e-02,
86,8.80e-02,
87,-2.00e-02,
88,-1.20e-02,
89,1.60e-02,
90,2.40e-02,
91,-2.00e-02,
92,1.60e-02,
93,-1.20e-02,
94,1.60e-02,
95,-1.20e-02,
96,-1.60e-02,
97,2.00e-02,
98,1.60e-02,
99,-1.20e-02,
100,-1.20e-02,
101,1.60e-02,
102,-1.20e-02,
103,2.80e-02,
104,1.60e-02,
105,-1.60e-02,
106,2.00e-02,
107,-1.20e-02,
108,1.60e-02,
109,-1.20e-02,
110,1.60e-02,
111,-1.20e-02,
112,1.60e-02,
113,-2.00e-02,
114,3.20e-02,
115,-1.60e-02,
116,1.60e-02,
117,-1.20e-02,
118,1.60e-02,
119,-1.60e-02,
120,1.60e-02,
121,-1.60e-02,
122,2.00e-02,
123,-1.60e-02,
124,-1.20e-02,
125,2.00e-02,
126,2.00e-02,
127,-1.60e-02,
128,1.60e-02,
129,-1.60e-02,
130,2.40e-02,
131,-1.60e-02,
132,-1.20e-02,
133,1.60e-02,
134,-1.20e-02,
135,2.00e-02,
136,-1.20e-02,
137,1.60e-02,
138,8.80e-02,
139,-2.00e-02,
140,-1.20e-02,
141,1.60e-02,
142,1.60e-02,
143,-1.20e-02,
144,-1.20e-02,
145,1.60e-02,
146,-1.20e-02,
147,1.60e-02,
148,-1.60e-02,
149,1.60e-02,
150,1.60e-02,
151,-1.60e-02,
152,-1.60e-02,
153,2.00e-02,
154,-1.20e-02,
155,2.00e-02,
156,1.60e-02,
157,-2.00e-02,
158,2.00e-02,
159,-2.00e-02,
160,-1.20e-02,
161,2.00e-02,
162,-1.20e-02,
163,2.00e-02,
164,2.00e-02,
165,-1.60e-02,
166,-6.80e-02,
167,2.40e-02,
168,-1.20e-02,
169,2.00e-02,
170,-1.60e-02,
171,2.00e-02,
172,1.60e-02,
173,-1.20e-02,
174,2.80e-02,
175,-1.60e-02,
176,1.60e-02,
177,-6.80e-02,
178,1.60e-02,
179,-1.20e-02,
180,-1.20e-02,
181,1.60e-02,
182,-1.20e-02,
183,1.60e-02,
184,-3.20e-02,
185,2.00e-02,
186,-1.20e-02,
187,1.60e-02,
188,-1.60e-02,
189,1.60e-02,
190,1.60e-02,
191,-1.60e-02,
192,-1.20e-02,
193,1.60e-02,
194,2.00e-02,
195,-1.60e-02,
196,1.60e-02,
197,-8.40e-02,
198,-1.20e-02,
199,1.60e-02,
200,-1.20e-02,
201,2.00e-02,
202,2.00e-02,
203,-1.60e-02,
204,-1.60e-02,
205,2.00e-02,
206,2.00e-02,
207,-1.20e-02,
208,-1.60e-02,
209,2.40e-02,
210,1.60e-02,
211,-1.60e-02,
212,1.60e-02,
213,-1.20e-02,
214,-1.20e-02,
215,1.60e-02,
216,1.60e-02,
217,-1.60e-02,
218,1.60e-02,
219,-1.60e-02,
220,-2.00e-02,
221,2.00e-02,
222,1.60e-02,
223,-1.20e-02,
224,-1.20e-02,
225,1.60e-02,
226,1.60e-02,
227,-2.00e-02,
228,-1.20e-02,
229,1.60e-02,
230,-1.20e-02,
231,1.60e-02,
232,-1.60e-02,
233,2.00e-02,
234,1.60e-02,
235,-1.20e-02,
236,2.00e-02,
237,-1.60e-02,
238,1.60e-02,
239,-1.20e-02,
240,-1.20e-02,
241,1.60e-02,
242,-1.20e-02,
243,2.00e-02,
244,-2.40e-02,
245,2.40e-02,
246,-1.60e-02,
247,2.00e-02,
248,2.00e-02,
249,-1.60e-02,
250,-1.20e-02,
251,1.60e-02,
252,-1.20e-02,
253,1.60e-02,
254,1.60e-02,
255,-1.60e-02,
256,-2.80e-02,
257,1.00e-01,
258,1.60e-02,
259,-1.60e-02,
260,-1.20e-02,
261,2.00e-02,
262,-1.20e-02,
263,1.60e-02,
264,-1.20e-02,
265,1.60e-02,
266,-1.20e-02,
267,1.60e-02,
268,-1.20e-02,
269,1.60e-02,
270,1.60e-02,
271,-1.20e-02,
272,-1.20e-02,
273,1.60e-02,
274,1.60e-02,
275,-1.20e-02,
276,1.60e-02,
277,-1.20e-02,
278,2.40e-02,
279,-1.60e-02,
280,1.60e-02,
281,-1.60e-02,
282,1.60e-02,
283,-1.60e-02,
284,-4.40e-02,
285,4.00e-02,
286,-1.60e-02,
287,2.00e-02,
288,-1.20e-02,
289,2.00e-02,
290,2.40e-02,
291,-1.60e-02,
292,-1.20e-02,
293,2.00e-02,
294,2.00e-02,
295,-1.60e-02,
296,1.60e-02,
297,-1.20e-02,
298,-1.20e-02,
299,1.60e-02,
300,1.60e-02,
301,-1.20e-02,
302,1.60e-02,
303,-2.00e-02,
304,-1.20e-02,
305,1.60e-02,
306,1.60e-02,
307,-1.60e-02,
308,1.60e-02,
309,-1.60e-02,
310,1.60e-02,
311,-1.60e-02,
312,1.60e-02,
313,-1.20e-02,
314,1.60e-02,
315,-2.40e-02,
316,2.00e-02,
317,-1.20e-02,
318,1.60e-02,
319,-1.20e-02,
320,1.60e-02,
321,-1.60e-02,
322,1.60e-02,
323,-1.20e-02,
324,-1.20e-02,
325,1.60e-02,
326,2.00e-02,
327,-2.00e-02,
328,1.60e-02,
329,-1.60e-02,
330,1.60e-02,
331,-1.60e-02,
332,-1.60e-02,
333,2.00e-02,
334,-1.20e-02,
335,1.60e-02,
336,1.60e-02,
337,-8.80e-02,
338,-1.20e-02,
339,2.00e-02,
340,1.60e-02,
341,-1.20e-02,
342,1.60e-02,
343,-1.20e-02,
344,1.60e-02,
345,-1.20e-02,
346,-1.20e-02,
347,1.60e-02,
348,-1.20e-02,
349,1.60e-02,
350,2.80e-02,
351,-2.40e-02,
352,-1.20e-02,
353,1.60e-02,
354,1.60e-02,
355,-1.20e-02,
356,-1.20e-02,
357,2.00e-02,
358,-1.60e-02,
359,1.60e-02,
360,-1.20e-02,
361,2.00e-02,
362,2.40e-02,
363,-2.00e-02,
364,6.40e-02,
365,-1.60e-02,
366,2.00e-02,
367,-1.20e-02,
368,1.60e-02,
369,-1.20e-02,
370,-1.20e-02,
371,1.60e-02,
372,-1.20e-02,
373,2.00e-02,
374,2.00e-02,
375,-1.60e-02,
376,1.60e-02,
377,-1.60e-02,
378,-1.60e-02,
379,1.60e-02,
380,1.60e-02,
381,-1.60e-02,
382,-1.20e-02,
383,1.60e-02,
384,2.00e-02,
385,-3.20e-02,
386,-1.20e-02,
387,1.60e-02,
388,-1.20e-02,
389,1.60e-02,
390,1.60e-02,
391,-8.80e-02,
392,-1.20e-02,
393,1.60e-02,
394,1.20e-02,
395,-1.20e-02,
396,2.40e-02,
397,-2.00e-02,
398,-1.20e-02,
399,1.60e-02,
400,1.60e-02,
401,-1.20e-02,
402,-1.20e-02,
403,2.00e-02,
404,1.60e-02,
405,-1.20e-02,
406,1.60e-02,
407,-1.60e-02,
408,1.60e-02,
409,-1.60e-02,
410,2.00e-02,
411,-1.60e-02,
412,2.00e-02,
413,-1.60e-02,
414,-1.60e-02,
415,2.00e-02,
416,-3.20e-02,
417,5.60e-02,
418,-1.60e-02,
419,2.00e-02,
420,3.20e-02,
421,-2.00e-02,
422,-1.20e-02,
423,1.60e-02,
424,-1.20e-02,
425,1.60e-02,
426,-1.20e-02,
427,1.60e-02,
428,1.60e-02,
429,-1.60e-02,
430,-1.20e-02,
431,1.60e-02,
432,1.60e-02,
433,-1.60e-02,
434,1.60e-02,
435,-1.20e-02,
436,-1.20e-02,
437,1.60e-02,
438,-1.20e-02,
439,1.60e-02,
440,-1.20e-02,
441,1.60e-02,
442,-1.60e-02,
443,7.20e-02,
444,-1.20e-02,
445,1.60e-02,
446,-1.20e-02,
447,2.00e-02,
448,2.00e-02,
449,-1.60e-02,
450,1.60e-02,
451,-1.60e-02,
452,-1.20e-02,
453,2.00e-02,
454,-1.60e-02,
455,3.60e-02,
456,-1.60e-02,
457,2.00e-02,
458,-1.20e-02,
459,2.00e-02,
460,1.60e-02,
461,-1.60e-02,
462,-1.20e-02,
463,1.60e-02,
464,1.60e-02,
465,-1.20e-02,
466,2.80e-02,
467,-1.60e-02,
468,-1.20e-02,
469,1.08e-01,
470,-1.20e-02,
471,1.60e-02,
472,1.60e-02,
473,-1.60e-02,
474,1.60e-02,
475,-1.60e-02,
476,-1.20e-02,
477,1.60e-02,
478,-1.60e-02,
479,2.00e-02,
480,-1.20e-02,
481,2.00e-02,
482,-1.20e-02,
483,1.60e-02,
484,-1.20e-02,
485,2.00e-02,
486,2.00e-02,
487,-1.60e-02,
488,1.60e-02,
489,-1.20e-02,
490,2.40e-02,
491,-2.00e-02,
492,6.80e-02,
493,-6.40e-02,
494,2.00e-02,
495,-1.20e-02,
496,-1.20e-02,
497,2.00e-02,
498,-1.60e-02,
499,2.00e-02,
500,-1.20e-02,
501,2.00e-02,
502,-1.20e-02,
503,3.20e-02,
504,1.60e-02,
505,-1.20e-02,
506,-1.20e-02,
507,1.60e-02,
508,-1.20e-02,
509,1.60e-02,
510,-1.20e-02,
511,1.60e-02,
512,-1.20e-02,
513,1.60e-02,
514,-2.00e-02,
515,1.60e-02,
516,-1.20e-02,
517,1.60e-02,
518,-1.20e-02,
519,1.60e-02,
520,7.20e-02,
521,-6.00e-02,
522,-1.20e-02,
523,2.00e-02,
524,-1.20e-02,
525,1.60e-02,
526,-2.40e-02,
527,2.40e-02,
528,-1.20e-02,
529,1.60e-02,
530,-1.20e-02,
531,1.60e-02,
532,-1.20e-02,
533,1.60e-02,
534,1.60e-02,
535,-1.60e-02,
536,-1.20e-02,
537,2.40e-02,
538,-2.00e-02,
539,2.40e-02,
540,-1.20e-02,
541,2.00e-02,
542,-1.20e-02,
543,2.00e-02,
544,2.00e-02,
545,-5.60e-02,
546,-1.20e-02,
547,1.60e-02,
548,-1.20e-02,
549,2.00e-02,
550,1.60e-02,
551,-1.20e-02,
552,1.60e-02,
553,-1.20e-02,
554,1.60e-02,
555,-2.00e-02,
556,-1.20e-02,
557,1.60e-02,
558,-1.20e-02,
559,1.60e-02,
560,-1.60e-02,
561,2.80e-02,
562,-1.20e-02,
563,2.00e-02,
564,2.00e-02,
565,-1.20e-02,
566,-1.60e-02,
567,2.00e-02,
568,2.00e-02,
569,-1.60e-02,
570,3.20e-02,
571,-8.00e-02,
572,2.00e-02,
573,-2.00e-02,
574,-1.20e-02,
575,1.60e-02,
576,1.60e-02,
577,-1.60e-02,
578,1.60e-02,
579,-1.60e-02,
580,1.60e-02,
581,-1.60e-02,
582,-1.60e-02,
583,2.00e-02,
584,-1.20e-02,
585,2.00e-02,
586,-1.20e-02,
587,2.00e-02,
588,-1.20e-02,
589,2.00e-02,
590,1.60e-02,
591,-1.20e-02,
592,-1.20e-02,
593,1.60e-02,
594,-1.20e-02,
595,1.60e-02,
596,-1.60e-02,
597,7.20e-02,
598,-1.20e-02,
599,1.60e-02,
600,-1.20e-02,
601,1.60e-02,
602,-1.20e-02,
603,1.60e-02,
604,1.60e-02,
605,-1.20e-02,
606,-1.20e-02,
607,1.60e-02,
608,-2.40e-02,
609,2.40e-02,
610,1.60e-02,
611,-1.20e-02,
612,-1.20e-02,
613,2.00e-02,
614,-1.20e-02,
615,1.60e-02,
616,1.60e-02,
617,-1.20e-02,
618,-1.20e-02,
619,1.60e-02,
620,2.00e-02,
621,-1.60e-02,
622,1.60e-02,
623,-3.20e-02,
624,1.60e-02,
625,-1.60e-02,
626,-1.20e-02,
627,2.00e-02,
628,2.00e-02,
629,-1.60e-02,
630,1.60e-02,
631,-1.20e-02,
632,1.60e-02,
633,-2.00e-02,
634,-1.20e-02,
635,1.60e-02,
636,1.60e-02,
637,-1.20e-02,
638,1.60e-02,
639,-1.60e-02,
640,-1.20e-02,
641,1.60e-02,
642,2.80e-02,
643,-1.60e-02,
644,1.60e-02,
645,-1.20e-02,
646,-1.20e-02,
647,1.60e-02,
648,2.00e-02,
649,-6.80e-02,
650,-1.20e-02,
651,2.00e-02,
652,-1.20e-02,
653,1.60e-02,
654,-1.20e-02,
655,2.00e-02,
656,1.60e-02,
657,-1.60e-02,
658,-1.20e-02,
659,2.00e-02,
660,1.60e-02,
661,-2.00e-02,
662,2.00e-02,
663,-1.20e-02,
664,-1.20e-02,
665,2.00e-02,
666,-2.40e-02,
667,2.40e-02,
668,-1.60e-02,
669,2.00e-02,
670,-1.20e-02,
671,2.00e-02,
672,-1.20e-02,
673,8.00e-02,
674,-1.20e-02,
675,1.60e-02,
676,-1.20e-02,
677,1.60e-02,
678,1.60e-02,
679,-2.00e-02,
680,-1.20e-02,
681,1.60e-02,
682,1.60e-02,
683,-2.00e-02,
684,-1.20e-02,
685,1.60e-02,
686,-1.20e-02,
687,1.60e-02,
688,-1.20e-02,
689,1.60e-02,
690,2.00e-02,
691,-1.60e-02,
692,-1.20e-02,
693,1.60e-02,
694,-2.00e-02,
695,2.00e-02,
696,1.60e-02,
697,-1.60e-02,
698,1.60e-02,
699,-1.20e-02,
700,2.40e-02,
701,-6.80e-02,
702,-1.20e-02,
703,2.80e-02,
704,-1.20e-02,
705,2.00e-02,
706,1.60e-02,
707,-1.60e-02,
708,-1.60e-02,
709,2.00e-02,
710,-1.20e-02,
711,1.60e-02,
712,-1.60e-02,
713,1.60e-02,
714,-2.00e-02,
715,1.60e-02,
716,-1.20e-02,
717,1.60e-02,
718,-1.60e-02,
719,2.00e-02,
720,1.60e-02,
721,-1.20e-02,
722,1.60e-02,
723,-1.20e-02,
724,-1.20e-02,
725,2.00e-02,
726,-6.40e-02,
727,6.80e-02,
728,1.60e-02,
729,-1.60e-02,
730,-1.20e-02,
731,2.00e-02,
732,1.60e-02,
733,-1.20e-02,
734,-1.20e-02,
735,2.00e-02,
736,2.80e-02,
737,-2.00e-02,
738,-1.20e-02,
739,2.00e-02,
740,-1.20e-02,
741,1.60e-02,
742,-1.20e-02,
743,2.00e-02,
744,-1.20e-02,
745,2.00e-02,
746,1.60e-02,
747,-1.60e-02,
748,-1.60e-02,
749,2.80e-02,
750,2.00e-02,
751,-1.60e-02,
752,-1.20e-02,
753,3.60e-02,
754,-1.60e-02,
755,1.60e-02,
756,1.60e-02,
757,-1.20e-02,
758,-1.20e-02,
759,1.60e-02,
760,-1.60e-02,
761,2.00e-02,
762,-1.20e-02,
763,1.60e-02,
764,1.60e-02,
765,-1.20e-02,
766,-1.20e-02,
767,1.60e-02,
768,-1.20e-02,
769,1.60e-02,
770,-1.20e-02,
771,1.60e-02,
772,-3.20e-02,
773,2.40e-02,
774,-1.20e-02,
775,1.60e-02,
776,1.60e-02,
777,-1.20e-02,
778,-1.20e-02,
779,1.60e-02,
780,9.20e-02,
781,-1.60e-02,
782,1.60e-02,
783,-1.20e-02,
784,-1.20e-02,
785,2.80e-02,
786,-1.60e-02,
787,2.00e-02,
788,1.60e-02,
789,-1.20e-02,
790,-1.60e-02,
791,2.00e-02,
792,-1.20e-02,
793,2.00e-02,
794,-1.20e-02,
795,1.60e-02,
796,-1.60e-02,
797,1.60e-02,
798,1.60e-02,
799,-1.20e-02,
800,1.60e-02,
801,-1.20e-02,
802,1.60e-02,
803,-1.20e-02,
804,1.60e-02,
805,-1.20e-02,
806,5.60e-02,
807,-7.20e-02,
808,2.40e-02,
809,-2.00e-02,
810,1.60e-02,
811,-1.20e-02,
812,-1.20e-02,
813,2.00e-02,
814,1.60e-02,
815,-1.20e-02,
816,1.60e-02,
817,-1.20e-02,
818,2.40e-02,
819,-2.40e-02,
820,1.60e-02,
821,-1.60e-02,
822,-1.60e-02,
823,2.00e-02,
824,-1.20e-02,
825,1.60e-02,
826,-1.20e-02,
827,1.60e-02,
828,1.60e-02,
829,-1.20e-02,
830,-1.20e-02,
831,3.20e-02,
832,-1.20e-02,
833,2.00e-02,
834,-1.60e-02,
835,2.00e-02,
836,1.60e-02,
837,-1.20e-02,
838,1.60e-02,
839,-1.20e-02,
840,1.60e-02,
841,-1.20e-02,
842,3.20e-02,
843,-2.40e-02,
844,1.60e-02,
845,-1.20e-02,
846,1.60e-02,
847,-1.20e-02,
848,1.60e-02,
849,-1.20e-02,
850,-1.20e-02,
851,2.00e-02,
852,1.60e-02,
853,-1.20e-02,
854,2.40e-02,
855,-2.40e-02,
856,1.60e-02,
857,-1.60e-02,
858,6.00e-02,
859,-8.00e-02,
860,1.60e-02,
861,-1.20e-02,
862,1.60e-02,
863,-1.20e-02,
864,-1.20e-02,
865,2.00e-02,
866,-1.20e-02,
867,2.00e-02,
868,2.00e-02,
869,-1.60e-02,
870,-1.20e-02,
871,2.00e-02,
872,2.00e-02,
873,-1.20e-02,
874,-1.20e-02,
875,2.00e-02,
876,2.00e-02,
877,-1.60e-02,
878,-1.20e-02,
879,2.40e-02,
880,1.60e-02,
881,-1.20e-02,
882,7.60e-02,
883,-1.04e-01,
884,1.60e-02,
885,-1.20e-02,
886,-1.20e-02,
887,1.60e-02,
888,1.60e-02,
889,-1.20e-02,
890,-2.40e-02,
891,2.40e-02,
892,-1.20e-02,
893,1.60e-02,
894,-1.20e-02,
895,1.60e-02,
896,-1.20e-02,
897,2.00e-02,
898,-1.20e-02,
899,1.60e-02,
900,-1.20e-02,
901,2.00e-02,
902,1.60e-02,
903,-1.20e-02,
904,-1.20e-02,
905,2.00e-02,
906,2.00e-02,
907,-5.60e-02,
908,2.00e-02,
909,-1.60e-02,
910,-1.20e-02,
911,2.00e-02,
912,-1.20e-02,
913,2.40e-02,
914,-1.20e-02,
915,2.00e-02,
916,1.60e-02,
917,-1.20e-02,
918,-1.60e-02,
919,1.60e-02,
920,-1.20e-02,
921,1.60e-02,
922,-1.20e-02,
923,1.60e-02,
924,2.80e-02,
925,-2.00e-02,
926,-1.20e-02,
927,1.60e-02,
928,-1.20e-02,
929,1.60e-02,
930,1.60e-02,
931,-1.20e-02,
932,1.60e-02,
933,-1.20e-02,
934,-4.80e-02,
935,8.40e-02,
936,-1.20e-02,
937,2.00e-02,
938,1.60e-02,
939,-1.20e-02,
940,1.60e-02,
941,-1.60e-02,
942,1.60e-02,
943,-1.20e-02,
944,-1.20e-02,
945,2.00e-02,
946,1.60e-02,
947,-1.60e-02,
948,2.40e-02,
949,-2.00e-02,
950,1.60e-02,
951,-1.60e-02,
952,-1.20e-02,
953,1.60e-02,
954,-1.20e-02,
955,2.00e-02,
956,2.00e-02,
957,-1.60e-02,
958,-1.60e-02,
959,2.00e-02,
960,-2.80e-02,
961,2.80e-02,
962,-1.20e-02,
963,1.60e-02,
964,1.60e-02,
965,-1.60e-02,
966,-1.20e-02,
967,1.60e-02,
968,-1.20e-02,
969,1.60e-02,
970,-1.20e-02,
971,1.60e-02,
972,1.60e-02,
973,-1.20e-02,
974,1.60e-02,
975,-1.20e-02,
976,-1.60e-02,
977,2.00e-02,
978,-1.20e-02,
979,1.60e-02,
980,1.60e-02,
981,-1.60e-02,
982,1.60e-02,
983,-1.60e-02,
984,-1.20e-02,
985,2.40e-02,
986,-1.20e-02,
987,2.00e-02,
988,-1.20e-02,
989,2.00e-02,
990,2.00e-02,
991,-1.20e-02,
992,-1.20e-02,
993,1.60e-02,
994,1.60e-02,
995,-1.20e-02,
996,1.60e-02,
997,-2.00e-02,
998,-1.20e-02,
999,2.00e-02,
1000,-1.60e-02,
1001,2.00e-02,
1002,2.00e-02,
1003,-1.60e-02,
1004,1.60e-02,
1005,-1.20e-02,
1006,-1.20e-02,
1007,1.60e-02,
1008,-1.20e-02,
1009,1.60e-02,
1010,-1.20e-02,
1011,1.60e-02,
1012,7.60e-02,
1013,-1.08e-01,
1014,1.60e-02,
1015,-1.20e-02,
1016,1.60e-02,
1017,-1.20e-02,
1018,-2.40e-02,
1019,2.40e-02,
1020,1.60e-02,
1021,-1.20e-02,
1022,-1.20e-02,
1023,1.60e-02,
1024,1.60e-02,
1025,-1.60e-02,
1026,-1.20e-02,
1027,1.60e-02,
1028,1.60e-02,
1029,-1.20e-02,
1030,-1.20e-02,
1031,2.40e-02,
1032,1.60e-02,
1033,-1.20e-02,
1034,-1.20e-02,
1035,2.00e-02,
1036,1.60e-02,
1037,-1.20e-02,
1038,-1.60e-02,
1039,6.80e-02,
1040,-1.60e-02,
1041,2.40e-02,
1042,-2.00e-02,
1043,2.00e-02,
1044,-1.20e-02,
1045,2.00e-02,
1046,2.00e-02,
1047,-1.60e-02,
1048,-1.20e-02,
1049,1.60e-02,
1050,1.60e-02,
1051,-1.20e-02,
1052,-1.20e-02,
1053,1.60e-02,
1054,2.40e-02,
1055,-2.00e-02,
1056,-1.20e-02,
1057,1.60e-02,
1058,-1.20e-02,
1059,1.60e-02,
1060,-1.60e-02,
1061,1.60e-02,
1062,2.00e-02,
1063,-1.60e-02,
1064,-1.20e-02,
1065,5.60e-02,
1066,-1.20e-02,
1067,2.00e-02,
1068,2.00e-02,
1069,-1.60e-02,
1070,2.00e-02,
1071,-2.00e-02,
1072,-1.20e-02,
1073,1.60e-02,
1074,2.00e-02,
1075,-1.60e-02,
1076,1.60e-02,
1077,-1.60e-02,
1078,-1.60e-02,
1079,2.00e-02,
1080,1.60e-02,
1081,-1.20e-02,
1082,-1.20e-02,
1083,1.60e-02,
1084,1.60e-02,
1085,-1.60e-02,
1086,2.00e-02,
1087,-1.20e-02,
1088,-7.20e-02,
1089,1.08e-01,
1090,2.00e-02,
1091,-2.40e-02,
1092,-1.20e-02,
1093,1.60e-02,
1094,-1.20e-02,
1095,1.60e-02,
1096,-1.20e-02,
1097,2.00e-02,
1098,-1.20e-02,
1099,1.20e-02,
1100,2.40e-02,
1101,-2.00e-02,
1102,1.60e-02,
1103,-1.60e-02,
1104,-1.20e-02,
1105,1.60e-02,
1106,-1.20e-02,
1107,2.00e-02,
1108,-1.20e-02,
1109,1.60e-02,
1110,1.60e-02,
1111,-1.60e-02,
1112,-1.20e-02,
1113,1.60e-02,
1114,-1.20e-02,
1115,1.60e-02,
1116,-8.40e-02,
1117,1.60e-02,
1118,-1.60e-02,
1119,2.00e-02,
1120,-1.20e-02,
1121,2.00e-02,
1122,1.60e-02,
1123,-1.60e-02,
1124,-2.40e-02,
1125,2.80e-02,
1126,-1.60e-02,
1127,2.00e-02,
1128,-1.20e-02,
1129,2.00e-02,
1130,-1.20e-02,
1131,1.60e-02,
1132,1.60e-02,
1133,-1.20e-02,
1134,-1.20e-02,
1135,1.60e-02,
1136,1.60e-02,
1137,-2.00e-02,
1138,1.60e-02,
1139,-1.20e-02,
1140,-1.20e-02,
1141,1.60e-02,
1142,-1.20e-02,
1143,1.60e-02,
1144,-1.20e-02,
1145,1.60e-02,
1146,-1.20e-02,
1147,2.00e-02,
1148,-1.20e-02,
1149,2.00e-02,
1150,-1.20e-02,
1151,2.00e-02,
1152,-1.60e-02,
1153,1.60e-02,
1154,1.60e-02,
1155,-1.60e-02,
1156,-1.20e-02,
1157,1.60e-02,
1158,1.60e-02,
1159,-1.60e-02,
1160,2.40e-02,
1161,-2.00e-02,
1162,-1.20e-02,
1163,2.00e-02,
1164,2.00e-02,
1165,-1.20e-02,
1166,-1.20e-02,
1167,2.00e-02,
1168,9.60e-02,
1169,-2.00e-02,
1170,1.60e-02,
1171,-1.60e-02,
1172,-1.20e-02,
1173,2.40e-02,
1174,-1.20e-02,
1175,1.60e-02,
1176,2.00e-02,
1177,-1.60e-02,
1178,1.60e-02,
1179,-1.20e-02,
1180,-1.20e-02,
1181,1.60e-02,
1182,-1.20e-02,
1183,1.60e-02,
1184,1.60e-02,
1185,-2.40e-02,
1186,1.60e-02,
1187,-1.20e-02,
1188,-1.20e-02,
1189,2.00e-02,
1190,2.00e-02,
1191,-1.20e-02,
1192,-1.20e-02,
1193,1.60e-02,
1194,1.20e-01,
1195,-1.60e-02,
1196,-1.20e-02,
1197,1.60e-02,
1198,-1.20e-02,
1199,1.60e-02,
