Laptop_1/LAPTOP_CHRGR_1_OFF/time domain/NewFile27.csv

X,CH1,Start,Increment,
Sequence,Volt,-1.500000e-01,2.000000e-04
0,-1.20e-02,
1,1.60e-02,
2,-1.20e-02,
3,1.60e-02,
4,-1.20e-02,
5,1.60e-02,
6,-1.20e-02,
7,1.60e-02,
8,-8.00e-03,
9,1.60e-02,
10,4.80e-02,
11,-2.40e-02,
12,1.60e-02,
13,-1.60e-02,
14,-1.20e-02,
15,1.60e-02,
16,1.60e-02,
17,-1.20e-02,
18,-8.00e-03,
19,1.60e-02,
20,1.60e-02,
21,-1.20e-02,
22,2.00e-02,
23,-1.60e-02,
24,1.60e-02,
25,-8.00e-03,
26,1.60e-02,
27,-1.20e-02,
28,-1.20e-02,
29,1.60e-02,
30,-1.20e-02,
31,2.00e-02,
32,1.60e-02,
33,-1.20e-02,
34,-8.80e-02,
35,3.20e-02,
36,1.20e-02,
37,-1.20e-02,
38,-1.20e-02,
39,2.00e-02,
40,1.20e-02,
41,-8.00e-03,
42,-1.20e-02,
43,1.60e-02,
44,1.60e-02,
45,-1.20e-02,
46,2.00e-02,
47,-1.20e-02,
48,1.20e-02,
49,-1.20e-02,
50,1.60e-02,
51,-1.60e-02,
52,1.20e-02,
53,-8.00e-03,
54,1.20e-02,
55,-1.20e-02,
56,1.20e-02,
57,-1.20e-02,
58,-7.60e-02,
59,2.40e-02,
60,1.60e-02,
61,-1.20e-02,
62,1.60e-02,
63,-1.20e-02,
64,-1.20e-02,
65,1.60e-02,
66,1.20e-02,
67,-8.00e-03,
68,1.20e-02,
69,-1.20e-02,
70,-2.00e-02,
71,2.00e-02,
72,1.60e-02,
73,-1.60e-02,
74,-1.20e-02,
75,2.00e-02,
76,-1.20e-02,
77,1.60e-02,
78,-1.20e-02,
79,1.60e-02,
80,2.40e-02,
81,-1.60e-02,
82,1.60e-02,
83,-8.00e-02,
84,-8.00e-03,
85,1.20e-02,
86,-1.20e-02,
87,2.00e-02,
88,1.60e-02,
89,-1.20e-02,
90,-8.00e-03,
91,1.20e-02,
92,1.60e-02,
93,-1.20e-02,
94,2.80e-02,
95,-2.00e-02,
96,1.60e-02,
97,-1.60e-02,
98,-1.20e-02,
99,1.60e-02,
100,-1.20e-02,
101,1.60e-02,
102,-1.20e-02,
103,2.00e-02,
104,1.60e-02,
105,-2.00e-02,
106,7.60e-02,
107,-1.60e-02,
108,-1.20e-02,
109,1.60e-02,
110,-1.20e-02,
111,2.00e-02,
112,1.60e-02,
113,-2.00e-02,
114,1.60e-02,
115,-1.20e-02,
116,1.60e-02,
117,-1.60e-02,
118,1.60e-02,
119,-1.20e-02,
120,1.60e-02,
121,-1.20e-02,
122,-1.20e-02,
123,1.60e-02,
124,1.20e-02,
125,-1.20e-02,
126,1.20e-02,
127,-1.60e-02,
128,2.40e-02,
129,-2.00e-02,
130,1.60e-02,
131,-3.20e-02,
132,1.20e-02,
133,-1.20e-02,
134,1.60e-02,
135,-1.20e-02,
136,1.60e-02,
137,-1.20e-02,
138,-1.20e-02,
139,1.60e-02,
140,2.00e-02,
141,-2.80e-02,
142,1.60e-02,
143,-1.20e-02,
144,-1.20e-02,
145,1.60e-02,
146,1.60e-02,
147,-1.20e-02,
148,-1.20e-02,
149,1.60e-02,
150,-1.20e-02,
151,1.60e-02,
152,1.60e-02,
153,-1.60e-02,
154,1.60e-02,
155,-1.16e-01,
156,1.60e-02,
157,-1.20e-02,
158,1.60e-02,
159,-1.60e-02,
160,1.60e-02,
161,-1.20e-02,
162,-1.20e-02,
163,1.60e-02,
164,2.00e-02,
165,-3.20e-02,
166,1.60e-02,
167,-1.20e-02,
168,1.20e-02,
169,-1.20e-02,
170,-1.20e-02,
171,1.60e-02,
172,-8.00e-03,
173,1.60e-02,
174,-8.00e-03,
175,1.20e-02,
176,-1.60e-02,
177,2.00e-02,
178,-2.00e-02,
179,8.00e-02,
180,2.00e-02,
181,-1.20e-02,
182,-1.20e-02,
183,1.60e-02,
184,-8.00e-03,
185,1.60e-02,
186,-1.20e-02,
187,2.00e-02,
188,-1.60e-02,
189,2.00e-02,
190,1.20e-02,
191,-1.20e-02,
192,-1.20e-02,
193,1.60e-02,
194,-1.20e-02,
195,2.00e-02,
196,2.00e-02,
197,-1.60e-02,
198,1.60e-02,
199,-1.20e-02,
200,-2.00e-02,
201,1.20e-01,
202,-1.20e-02,
203,1.60e-02,
204,1.60e-02,
205,-1.20e-02,
206,-8.00e-03,
207,1.60e-02,
208,-1.20e-02,
209,1.60e-02,
210,1.60e-02,
211,-1.60e-02,
212,1.20e-02,
213,-1.20e-02,
214,1.60e-02,
215,-1.20e-02,
216,1.60e-02,
217,-1.20e-02,
218,1.20e-02,
219,-1.20e-02,
220,-1.20e-02,
221,1.60e-02,
222,-1.60e-02,
223,2.00e-02,
224,3.20e-02,
225,-4.00e-02,
226,2.00e-02,
227,-1.20e-02,
228,2.00e-02,
229,-1.60e-02,
230,1.60e-02,
231,-1.20e-02,
232,1.60e-02,
233,-1.20e-02,
234,-2.40e-02,
235,2.00e-02,
236,1.60e-02,
237,-1.20e-02,
238,-8.00e-03,
239,1.60e-02,
240,-8.00e-03,
241,2.00e-02,
242,-1.60e-02,
243,1.60e-02,
244,1.60e-02,
245,-1.60e-02,
246,-1.60e-02,
247,2.40e-02,
248,-1.60e-02,
249,9.60e-02,
250,-1.20e-02,
251,1.60e-02,
252,-1.20e-02,
253,1.60e-02,
254,-8.00e-03,
255,1.60e-02,
256,1.60e-02,
257,-1.20e-02,
258,-1.60e-02,
259,3.20e-02,
260,-1.20e-02,
261,1.60e-02,
262,-1.20e-02,
263,2.00e-02,
264,-1.20e-02,
265,2.00e-02,
266,-1.20e-02,
267,1.60e-02,
268,1.60e-02,
269,-1.20e-02,
270,2.00e-02,
271,-1.60e-02,
272,-1.20e-02,
273,8.40e-02,
274,1.60e-02,
275,-1.60e-02,
276,-1.60e-02,
277,1.60e-02,
278,1.60e-02,
279,-1.20e-02,
280,-1.20e-02,
281,1.60e-02,
282,-2.00e-02,
283,4.00e-02,
284,-1.20e-02,
285,2.00e-02,
286,-1.20e-02,
287,2.00e-02,
288,1.20e-02,
289,-1.20e-02,
290,1.60e-02,
291,-1.20e-02,
292,-1.20e-02,
293,2.00e-02,
294,-1.20e-02,
295,1.60e-02,
296,-1.20e-02,
297,7.20e-02,
298,1.20e-02,
299,-1.20e-02,
300,1.20e-02,
301,-8.00e-03,
302,-1.20e-02,
303,1.60e-02,
304,-1.20e-02,
305,1.60e-02,
306,2.80e-02,
307,-1.20e-02,
308,-1.20e-02,
309,1.60e-02,
310,1.60e-02,
311,-1.20e-02,
312,-1.20e-02,
313,1.60e-02,
314,-1.20e-02,
315,1.60e-02,
316,-1.60e-02,
317,2.40e-02,
318,1.20e-02,
319,-1.20e-02,
320,1.60e-02,
321,-1.20e-02,
322,4.40e-02,
323,-1.12e-01,
324,2.00e-02,
325,-1.20e-02,
326,1.20e-02,
327,-1.20e-02,
328,1.60e-02,
329,-1.60e-02,
330,-1.20e-02,
331,1.60e-02,
332,1.20e-02,
333,-1.20e-02,
334,1.60e-02,
335,-1.60e-02,
336,-1.20e-02,
337,1.60e-02,
338,-1.20e-02,
339,1.60e-02,
340,-2.00e-02,
341,2.40e-02,
342,1.20e-02,
343,-1.20e-02,
344,-8.00e-03,
345,1.60e-02,
346,8.80e-02,
347,-1.60e-02,
348,1.60e-02,
349,-1.20e-02,
350,1.20e-02,
351,-1.20e-02,
352,2.00e-02,
353,-1.60e-02,
354,1.60e-02,
355,-1.20e-02,
356,-8.00e-03,
357,1.60e-02,
358,-1.60e-02,
359,1.60e-02,
360,1.60e-02,
361,-1.20e-02,
362,1.60e-02,
363,-1.20e-02,
364,2.00e-02,
365,-1.60e-02,
366,2.00e-02,
367,-1.20e-02,
368,2.00e-02,
369,-3.60e-02,
370,1.60e-02,
371,-1.20e-02,
372,1.60e-02,
373,-1.20e-02,
374,-8.00e-03,
375,1.60e-02,
376,-1.60e-02,
377,3.60e-02,
378,1.20e-02,
379,-1.20e-02,
380,1.60e-02,
381,-1.20e-02,
382,-8.00e-03,
383,1.60e-02,
384,-8.00e-03,
385,1.60e-02,
386,-1.20e-02,
387,1.60e-02,
388,-2.00e-02,
389,1.60e-02,
390,1.60e-02,
391,-1.20e-02,
392,1.60e-02,
393,-1.16e-01,
394,-1.20e-02,
395,1.60e-02,
396,-1.20e-02,
397,1.60e-02,
398,1.60e-02,
399,-1.20e-02,
400,1.60e-02,
401,-1.60e-02,
402,2.00e-02,
403,-1.20e-02,
404,-1.20e-02,
405,2.00e-02,
406,-1.20e-02,
407,2.00e-02,
408,-1.20e-02,
409,1.60e-02,
410,1.20e-02,
411,-1.60e-02,
412,-2.00e-02,
413,2.00e-02,
414,-1.20e-02,
415,1.60e-02,
416,-1.20e-02,
417,1.60e-02,
418,1.60e-02,
419,-1.20e-02,
420,-1.20e-02,
421,1.60e-02,
422,-1.20e-02,
423,2.40e-02,
424,1.20e-02,
425,-8.00e-03,
426,1.60e-02,
427,-1.20e-02,
428,-8.00e-03,
429,1.60e-02,
430,1.60e-02,
431,-1.20e-02,
432,1.60e-02,
433,-1.20e-02,
434,1.60e-02,
435,-1.60e-02,
436,-1.20e-02,
437,2.00e-02,
438,1.20e-02,
439,-1.20e-02,
440,2.40e-02,
441,-1.08e-01,
442,1.60e-02,
443,-1.20e-02,
444,1.60e-02,
445,-1.60e-02,
446,-2.00e-02,
447,2.00e-02,
448,1.60e-02,
449,-2.00e-02,
450,1.60e-02,
451,-2.00e-02,
452,2.00e-02,
453,-1.20e-02,
454,-1.20e-02,
455,2.80e-02,
456,1.60e-02,
457,-1.20e-02,
458,-1.20e-02,
459,2.40e-02,
460,-1.20e-02,
461,1.60e-02,
462,-8.00e-03,
463,1.60e-02,
464,-1.20e-02,
465,1.60e-02,
466,-1.20e-02,
467,1.60e-02,
468,1.60e-02,
469,-1.20e-02,
470,-2.00e-02,
471,1.60e-02,
472,-1.20e-02,
473,1.60e-02,
474,1.60e-02,
475,-5.60e-02,
476,-1.20e-02,
477,1.60e-02,
478,-1.20e-02,
479,1.60e-02,
480,1.60e-02,
481,-1.20e-02,
482,2.00e-02,
483,-1.60e-02,
484,-1.20e-02,
485,1.60e-02,
486,1.60e-02,
487,-1.60e-02,
488,-1.60e-02,
489,1.24e-01,
490,-1.20e-02,
491,2.00e-02,
492,1.60e-02,
493,-1.60e-02,
494,2.00e-02,
495,-1.60e-02,
496,-1.20e-02,
497,1.60e-02,
498,1.60e-02,
499,-1.60e-02,
500,1.60e-02,
501,-1.20e-02,
502,1.60e-02,
503,-1.20e-02,
504,-1.20e-02,
505,2.00e-02,
506,-1.20e-02,
507,1.60e-02,
508,-1.20e-02,
509,1.60e-02,
510,-1.20e-02,
511,2.00e-02,
512,-1.20e-02,
513,1.60e-02,
514,-1.20e-02,
515,1.60e-02,
516,-1.20e-02,
517,2.40e-02,
518,-2.00e-02,
519,9.20e-02,
520,1.60e-02,
521,-1.20e-02,
522,-1.60e-02,
523,2.00e-02,
524,2.00e-02,
525,-1.20e-02,
526,2.00e-02,
527,-1.60e-02,
528,-2.40e-02,
529,2.40e-02,
530,-1.20e-02,
531,2.00e-02,
532,-1.20e-02,
533,2.00e-02,
534,1.60e-02,
535,-1.60e-02,
536,-1.20e-02,
537,1.60e-02,
538,-8.00e-03,
539,1.60e-02,
540,-1.20e-02,
541,2.40e-02,
542,-1.20e-02,
543,1.60e-02,
544,1.60e-02,
545,-1.60e-02,
546,1.60e-02,
547,-1.20e-02,
548,-1.20e-02,
549,1.60e-02,
550,-8.00e-03,
551,2.00e-02,
552,-1.60e-02,
553,1.60e-02,
554,1.20e-02,
555,-1.20e-02,
556,-1.20e-02,
557,1.60e-02,
558,-1.20e-02,
559,1.60e-02,
560,1.60e-02,
561,-1.20e-02,
562,-1.20e-02,
563,1.60e-02,
564,2.80e-02,
565,-2.00e-02,
566,1.60e-02,
567,-1.20e-02,
568,1.60e-02,
569,-1.60e-02,
570,3.60e-02,
571,-4.00e-02,
572,-1.60e-02,
573,2.00e-02,
574,2.00e-02,
575,-1.60e-02,
576,-2.40e-02,
577,1.60e-02,
578,-1.20e-02,
579,1.60e-02,
580,1.20e-02,
581,-1.20e-02,
582,1.60e-02,
583,-1.20e-02,
584,1.20e-02,
585,-1.20e-02,
586,-1.20e-02,
587,2.00e-02,
588,-1.60e-02,
589,2.40e-02,
590,-1.20e-02,
591,1.60e-02,
592,-1.20e-02,
593,1.60e-02,
594,-8.00e-03,
595,1.60e-02,
596,1.60e-02,
597,-8.40e-02,
598,-1.60e-02,
599,2.00e-02,
600,-1.60e-02,
601,2.00e-02,
602,2.00e-02,
603,-1.20e-02,
604,1.60e-02,
605,-1.20e-02,
606,-1.20e-02,
607,1.60e-02,
608,2.00e-02,
609,-1.20e-02,
610,2.00e-02,
611,-1.60e-02,
612,2.00e-02,
613,-1.60e-02,
614,-1.60e-02,
615,2.00e-02,
616,1.60e-02,
617,-1.60e-02,
618,1.60e-02,
619,-1.60e-02,
620,-2.00e-02,
621,8.40e-02,
622,1.60e-02,
623,-3.20e-02,
624,2.00e-02,
625,-1.20e-02,
626,1.60e-02,
627,-1.20e-02,
628,1.60e-02,
629,-1.20e-02,
630,1.20e-02,
631,-1.20e-02,
632,-1.20e-02,
633,1.60e-02,
634,1.20e-02,
635,-1.60e-02,
636,-1.20e-02,
637,1.60e-02,
638,1.60e-02,
639,-1.20e-02,
640,-1.20e-02,
641,1.60e-02,
642,1.60e-02,
643,-1.20e-02,
644,1.60e-02,
645,-1.20e-02,
646,8.40e-02,
647,-1.60e-02,
648,-1.20e-02,
649,2.00e-02,
650,-1.20e-02,
651,2.00e-02,
652,-1.60e-02,
653,2.00e-02,
654,-8.00e-03,
655,2.00e-02,
656,2.00e-02,
657,-1.60e-02,
658,2.40e-02,
659,-2.00e-02,
660,1.60e-02,
661,-1.20e-02,
662,-1.20e-02,
663,1.60e-02,
664,1.60e-02,
665,-1.20e-02,
666,-8.00e-03,
667,1.60e-02,
668,2.00e-02,
669,-1.20e-02,
670,-8.40e-02,
671,2.40e-02,
672,-1.20e-02,
673,1.60e-02,
674,-8.00e-03,
675,1.60e-02,
676,1.60e-02,
677,-1.20e-02,
678,-1.20e-02,
679,1.60e-02,
680,-8.00e-03,
681,2.00e-02,
682,-2.00e-02,
683,2.40e-02,
684,2.00e-02,
685,-1.60e-02,
686,-1.20e-02,
687,1.60e-02,
688,-1.20e-02,
689,1.60e-02,
690,1.60e-02,
691,-1.20e-02,
692,2.00e-02,
693,-7.60e-02,
694,-2.00e-02,
695,2.40e-02,
696,-1.20e-02,
697,2.00e-02,
698,-1.20e-02,
699,2.00e-02,
700,2.00e-02,
701,-1.60e-02,
702,1.60e-02,
703,-1.20e-02,
704,-1.20e-02,
705,1.60e-02,
706,2.40e-02,
707,-1.20e-02,
708,1.20e-02,
709,-8.00e-03,
710,-1.20e-02,
711,1.60e-02,
712,1.60e-02,
713,-1.20e-02,
714,1.60e-02,
715,-1.20e-02,
716,1.60e-02,
717,-1.20e-02,
718,5.60e-02,
719,-1.20e-02,
720,-1.20e-02,
721,1.60e-02,
722,-1.20e-02,
723,2.00e-02,
724,1.60e-02,
725,-1.60e-02,
726,-1.20e-02,
727,1.60e-02,
728,1.60e-02,
729,-1.60e-02,
730,-8.00e-03,
731,1.60e-02,
732,-1.20e-02,
733,1.60e-02,
734,-1.20e-02,
735,1.60e-02,
736,2.00e-02,
737,-1.20e-02,
738,1.60e-02,
739,-1.20e-02,
740,2.40e-02,
741,-2.40e-02,
742,1.60e-02,
743,-9.20e-02,
744,1.60e-02,
745,-1.20e-02,
746,-1.20e-02,
747,1.60e-02,
748,1.60e-02,
749,-1.20e-02,
750,-1.20e-02,
751,1.60e-02,
752,2.00e-02,
753,-1.20e-02,
754,1.60e-02,
755,-1.20e-02,
756,1.20e-02,
757,-1.20e-02,
758,-1.20e-02,
759,1.60e-02,
760,1.60e-02,
761,-1.20e-02,
762,1.60e-02,
763,-1.20e-02,
764,2.00e-02,
765,-2.00e-02,
766,-5.20e-02,
767,5.60e-02,
768,-1.20e-02,
769,2.00e-02,
770,-1.60e-02,
771,1.60e-02,
772,1.20e-02,
773,-1.20e-02,
774,1.20e-02,
775,-1.20e-02,
776,-1.60e-02,
777,2.40e-02,
778,1.60e-02,
779,-1.20e-02,
780,2.00e-02,
781,-1.60e-02,
782,1.60e-02,
783,-1.20e-02,
784,-1.60e-02,
785,1.60e-02,
786,-1.20e-02,
787,1.60e-02,
788,1.20e-02,
789,-2.00e-02,
790,-1.20e-02,
791,3.20e-02,
792,1.60e-02,
793,-1.20e-02,
794,-8.00e-03,
795,1.60e-02,
796,-1.20e-02,
797,1.60e-02,
798,1.60e-02,
799,-1.20e-02,
800,-2.00e-02,
801,2.40e-02,
802,-1.20e-02,
803,1.60e-02,
804,1.20e-02,
805,-1.20e-02,
806,-1.20e-02,
807,1.60e-02,
808,1.20e-02,
809,-1.20e-02,
810,1.60e-02,
811,-1.20e-02,
812,-1.20e-02,
813,2.40e-02,
814,-2.40e-02,
815,1.60e-02,
816,-1.20e-02,
817,1.60e-02,
818,2.00e-02,
819,-1.20e-02,
820,1.60e-02,
821,-1.20e-02,
822,1.60e-02,
823,-2.00e-02,
824,1.60e-02,
825,-1.60e-02,
826,1.60e-02,
827,-1.20e-02,
828,1.60e-02,
829,-1.20e-02,
830,1.20e-02,
831,-1.20e-02,
832,1.60e-02,
833,-1.20e-02,
834,-2.00e-02,
835,2.00e-02,
836,-8.00e-03,
837,1.60e-02,
838,-1.20e-02,
839,1.12e-01,
840,1.60e-02,
841,-1.20e-02,
842,-1.20e-02,
843,1.60e-02,
844,-1.20e-02,
845,1.60e-02,
846,-2.00e-02,
847,3.60e-02,
848,-1.20e-02,
849,1.60e-02,
850,2.00e-02,
851,-1.20e-02,
852,-1.20e-02,
853,1.60e-02,
854,1.60e-02,
855,-1.60e-02,
856,1.60e-02,
857,-1.60e-02,
858,2.40e-02,
859,-1.60e-02,
860,-1.20e-02,
861,2.00e-02,
862,-1.20e-02,
863,6.40e-02,
864,2.00e-02,
865,-1.60e-02,
866,-1.20e-02,
867,2.00e-02,
868,1.60e-02,
869,-1.20e-02,
870,-1.60e-02,
871,2.00e-02,
872,1.20e-02,
873,-1.20e-02,
874,-8.00e-03,
875,1.60e-02,
876,-1.20e-02,
877,1.60e-02,
878,-1.20e-02,
879,1.60e-02,
880,1.20e-02,
881,-1.20e-02,
882,2.40e-02,
883,-1.60e-02,
884,-1.20e-02,
885,1.60e-02,
886,1.60e-02,
887,-1.20e-02,
888,1.60e-02,
889,-3.60e-02,
890,1.60e-02,
891,-1.20e-02,
892,1.60e-02,
893,-1.20e-02,
894,2.00e-02,
895,-1.20e-02,
896,-1.20e-02,
897,1.60e-02,
898,-1.20e-02,
899,2.00e-02,
900,-1.60e-02,
901,1.60e-02,
902,1.60e-02,
903,-1.60e-02,
904,-1.20e-02,
905,1.60e-02,
906,-2.00e-02,
907,1.60e-02,
908,1.60e-02,
909,-2.00e-02,
910,1.60e-02,
911,-1.20e-02,
912,1.60e-02,
913,-1.20e-02,
914,-1.20e-02,
915,1.20e-02,
916,1.20e-02,
917,-1.20e-02,
918,-2.00e-02,
919,2.40e-02,
920,-1.20e-02,
921,1.20e-02,
922,-1.20e-02,
923,1.60e-02,
924,-1.20e-02,
925,1.60e-02,
926,1.60e-02,
927,-1.20e-02,
928,-1.60e-02,
929,2.00e-02,
930,1.60e-02,
931,-1.20e-02,
932,1.60e-02,
933,-1.20e-02,
934,4.00e-02,
935,-6.80e-02,
936,-1.60e-02,
937,1.60e-02,
938,1.60e-02,
939,-1.20e-02,
940,-1.60e-02,
941,2.00e-02,
942,1.60e-02,
943,-1.60e-02,
944,1.60e-02,
945,-1.20e-02,
946,1.60e-02,
947,-1.20e-02,
948,1.60e-02,
949,-1.60e-02,
950,-1.60e-02,
951,1.60e-02,
952,2.40e-02,
953,-2.00e-02,
954,1.20e-02,
955,-1.20e-02,
956,-1.20e-02,
957,1.60e-02,
958,1.20e-02,
959,-1.20e-02,
960,3.20e-02,
961,-2.00e-02,
962,-8.00e-03,
963,1.60e-02,
964,2.40e-02,
965,-1.60e-02,
966,-8.00e-03,
967,1.60e-02,
968,-8.00e-03,
969,1.60e-02,
970,1.60e-02,
971,-1.20e-02,
972,1.60e-02,
973,-1.20e-02,
974,1.60e-02,
975,-1.20e-02,
976,-2.00e-02,
977,2.40e-02,
978,1.60e-02,
979,-1.60e-02,
980,1.60e-02,
981,-1.20e-02,
982,1.20e-02,
983,-1.20e-02,
984,1.60e-02,
985,-1.20e-02,
986,1.60e-02,
987,-8.80e-02,
988,-1.60e-02,
989,2.40e-02,
990,1.60e-02,
991,-1.60e-02,
992,-1.20e-02,
993,1.60e-02,
994,1.60e-02,
995,-1.20e-02,
996,-8.00e-03,
997,1.20e-02,
998,-1.20e-02,
999,1.60e-02,
1000,-1.20e-02,
1001,1.60e-02,
1002,1.60e-02,
1003,-1.20e-02,
1004,2.00e-02,
1005,-1.20e-02,
1006,1.60e-02,
1007,-1.20e-02,
1008,2.80e-02,
1009,-2.80e-02,
1010,1.20e-02,
1011,-1.20e-02,
1012,2.80e-02,
1013,-2.00e-02,
1014,-1.20e-02,
1015,2.00e-02,
1016,-1.20e-02,
1017,2.00e-02,
1018,-1.20e-02,
1019,1.60e-02,
1020,-1.20e-02,
1021,1.60e-02,
1022,1.60e-02,
1023,-1.20e-02,
1024,2.00e-02,
1025,-1.60e-02,
1026,1.60e-02,
1027,-1.20e-02,
1028,-1.20e-02,
1029,2.00e-02,
1030,-1.20e-02,
1031,1.60e-02,
1032,1.60e-02,
1033,-5.20e-02,
1034,-2.00e-02,
1035,2.00e-02,
1036,-8.00e-03,
1037,1.60e-02,
1038,-1.20e-02,
1039,1.60e-02,
1040,-1.20e-02,
1041,1.60e-02,
1042,-8.00e-03,
1043,1.60e-02,
1044,-1.20e-02,
1045,1.60e-02,
1046,-1.60e-02,
1047,2.40e-02,
1048,1.20e-02,
1049,-1.20e-02,
1050,1.60e-02,
1051,-1.20e-02,
1052,1.20e-02,
1053,-1.20e-02,
1054,-1.60e-02,
1055,1.60e-02,
1056,5.20e-02,
1057,-1.04e-01,
1058,1.60e-02,
1059,-2.40e-02,
1060,-8.00e-03,
1061,1.60e-02,
1062,-1.20e-02,
1063,1.60e-02,
1064,1.60e-02,
1065,-2.00e-02,
1066,-1.20e-02,
1067,2.00e-02,
1068,2.00e-02,
1069,-1.20e-02,
1070,2.00e-02,
1071,-1.60e-02,
1072,1.60e-02,
1073,-1.20e-02,
1074,-1.20e-02,
1075,1.60e-02,
1076,-1.20e-02,
1077,1.60e-02,
1078,-8.00e-03,
1079,1.60e-02,
1080,-6.40e-02,
1081,1.08e-01,
1082,2.00e-02,
1083,-2.00e-02,
1084,1.20e-02,
1085,-1.20e-02,
1086,-1.20e-02,
1087,1.60e-02,
1088,1.60e-02,
1089,-1.20e-02,
1090,-1.20e-02,
1091,1.60e-02,
1092,1.20e-02,
1093,-1.20e-02,
1094,-1.60e-02,
1095,2.40e-02,
1096,1.60e-02,
1097,-1.20e-02,
1098,1.60e-02,
1099,-1.60e-02,
1100,-1.20e-02,
1101,1.60e-02,
1102,-1.20e-02,
1103,1.60e-02,
1104,-1.20e-02,
1105,6.80e-02,
1106,1.20e-02,
1107,-1.60e-02,
1108,1.60e-02,
1109,-1.60e-02,
1110,-2.00e-02,
1111,2.00e-02,
1112,-1.20e-02,
1113,2.00e-02,
1114,1.60e-02,
1115,-1.60e-02,
1116,2.00e-02,
1117,-1.20e-02,
1118,-1.60e-02,
1119,1.60e-02,
1120,1.60e-02,
1121,-1.20e-02,
1122,1.20e-02,
1123,-1.20e-02,
1124,-8.00e-03,
1125,1.60e-02,
1126,1.20e-02,
1127,-1.20e-02,
1128,1.20e-02,
1129,-5.60e-02,
1130,-1.60e-02,
1131,2.80e-02,
1132,-1.20e-02,
1133,1.60e-02,
1134,-1.20e-02,
1135,1.60e-02,
1136,1.60e-02,
1137,-1.20e-02,
1138,-1.20e-02,
1139,1.60e-02,
1140,-8.00e-03,
1141,1.60e-02,
1142,-1.20e-02,
1143,1.60e-02,
1144,1.60e-02,
1145,-1.20e-02,
1146,-1.20e-02,
1147,2.00e-02,
1148,1.60e-02,
1149,-1.20e-02,
1150,-1.20e-02,
1151,1.60e-02,
1152,2.00e-02,
1153,-2.00e-02,
1154,-4.00e-02,
1155,2.00e-02,
1156,-1.60e-02,
1157,1.60e-02,
1158,1.60e-02,
1159,-1.60e-02,
1160,-1.60e-02,
1161,1.60e-02,
1162,1.20e-02,
1163,-1.60e-02,
1164,2.00e-02,
1165,-1.60e-02,
1166,1.20e-02,
1167,-1.20e-02,
1168,1.60e-02,
1169,-1.20e-02,
1170,1.60e-02,
1171,-1.20e-02,
1172,-1.20e-02,
1173,1.60e-02,
1174,1.60e-02,
1175,-1.20e-02,
1176,-6.80e-02,
1177,8.00e-02,
1178,-1.20e-02,
1179,1.60e-02,
1180,1.60e-02,
1181,-1.20e-02,
1182,-1.20e-02,
1183,2.00e-02,
1184,1.60e-02,
1185,-1.20e-02,
1186,-1.20e-02,
1187,2.00e-02,
1188,2.40e-02,
1189,-1.20e-02,
1190,-1.20e-02,
1191,2.00e-02,
1192,1.60e-02,
1193,-1.20e-02,
1194,1.60e-02,
1195,-1.20e-02,
1196,-8.00e-03,
1197,1.60e-02,
1198,-1.20e-02,
1199,1.60e-02,
