Laptop_1/LAPTOP_CHRGR_1_OFF/time domain/NewFile37.csv

X,CH1,Start,Increment,
Sequence,Volt,-1.500000e-01,2.000000e-04
0,-1.20e-02,
1,2.80e-02,
2,-1.20e-02,
3,1.60e-02,
4,-1.20e-02,
5,2.00e-02,
6,-2.00e-02,
7,2.80e-02,
8,-1.20e-02,
9,2.00e-02,
10,1.60e-02,
11,-1.60e-02,
12,1.60e-02,
13,-1.20e-02,
14,2.00e-02,
15,-1.60e-02,
16,-6.00e-02,
17,7.60e-02,
18,-1.60e-02,
19,3.60e-02,
20,-1.20e-02,
21,2.00e-02,
22,1.60e-02,
23,-1.60e-02,
24,1.60e-02,
25,-1.60e-02,
26,-1.20e-02,
27,1.60e-02,
28,-1.20e-02,
29,1.60e-02,
30,-1.20e-02,
31,2.80e-02,
32,-1.20e-02,
33,1.60e-02,
34,1.60e-02,
35,-1.60e-02,
36,1.60e-02,
37,-1.20e-02,
38,1.60e-02,
39,-1.20e-02,
40,-1.20e-02,
41,2.40e-02,
42,3.20e-02,
43,-3.60e-02,
44,2.00e-02,
45,-1.20e-02,
46,1.60e-02,
47,-1.60e-02,
48,-1.20e-02,
49,2.00e-02,
50,-1.60e-02,
51,2.00e-02,
52,-1.20e-02,
53,2.00e-02,
54,-3.20e-02,
55,2.80e-02,
56,1.60e-02,
57,-1.60e-02,
58,-1.20e-02,
59,2.00e-02,
60,-1.60e-02,
61,6.40e-02,
62,1.60e-02,
63,-1.60e-02,
64,-1.60e-02,
65,3.60e-02,
66,1.60e-02,
67,-1.60e-02,
68,2.00e-02,
69,-1.20e-02,
70,1.60e-02,
71,-1.20e-02,
72,-1.20e-02,
73,1.60e-02,
74,-1.20e-02,
75,1.60e-02,
76,1.60e-02,
77,-1.20e-02,
78,-2.40e-02,
79,1.60e-02,
80,1.60e-02,
81,-1.60e-02,
82,1.60e-02,
83,-1.20e-02,
84,-5.20e-02,
85,5.60e-02,
86,-1.20e-02,
87,1.60e-02,
88,2.80e-02,
89,-2.40e-02,
90,-1.20e-02,
91,1.60e-02,
92,1.60e-02,
93,-1.20e-02,
94,1.60e-02,
95,-1.60e-02,
96,1.60e-02,
97,-1.20e-02,
98,-1.20e-02,
99,2.00e-02,
100,-2.40e-02,
101,3.20e-02,
102,-1.20e-02,
103,2.00e-02,
104,-1.20e-02,
105,2.00e-02,
106,-1.60e-02,
107,2.00e-02,
108,-1.60e-02,
109,1.08e-01,
110,1.60e-02,
111,-1.60e-02,
112,1.60e-02,
113,-2.80e-02,
114,-1.20e-02,
115,1.60e-02,
116,-1.20e-02,
117,1.60e-02,
118,-1.20e-02,
119,1.60e-02,
120,-1.20e-02,
121,1.60e-02,
122,-1.20e-02,
123,1.60e-02,
124,2.80e-02,
125,-2.40e-02,
126,-1.20e-02,
127,2.00e-02,
128,-1.20e-02,
129,2.00e-02,
130,2.00e-02,
131,-1.60e-02,
132,-3.60e-02,
133,9.20e-02,
134,-1.20e-02,
135,1.60e-02,
136,2.80e-02,
137,-2.40e-02,
138,-1.20e-02,
139,2.00e-02,
140,2.00e-02,
141,-1.60e-02,
142,1.60e-02,
143,-1.20e-02,
144,2.00e-02,
145,-1.60e-02,
146,1.60e-02,
147,-1.60e-02,
148,-2.00e-02,
149,3.20e-02,
150,-1.20e-02,
151,1.60e-02,
152,1.60e-02,
153,-1.20e-02,
154,-1.20e-02,
155,1.60e-02,
156,3.20e-02,
157,-1.20e-02,
158,-1.20e-02,
159,1.60e-02,
160,-2.00e-02,
161,4.00e-02,
162,-1.20e-02,
163,2.00e-02,
164,-1.20e-02,
165,1.60e-02,
166,-1.20e-02,
167,1.60e-02,
168,-1.60e-02,
169,2.00e-02,
170,-1.20e-02,
171,2.00e-02,
172,1.60e-02,
173,-1.20e-02,
174,-1.20e-02,
175,2.00e-02,
176,-2.40e-02,
177,2.40e-02,
178,2.00e-02,
179,-1.20e-02,
180,-1.20e-02,
181,5.20e-02,
182,-1.20e-02,
183,3.20e-02,
184,-1.60e-02,
185,1.60e-02,
186,1.60e-02,
187,-1.20e-02,
188,-1.20e-02,
189,2.00e-02,
190,1.60e-02,
191,-1.20e-02,
192,-8.00e-03,
193,2.00e-02,
194,-1.20e-02,
195,2.80e-02,
196,-1.20e-02,
197,1.60e-02,
198,-1.20e-02,
199,2.00e-02,
200,1.60e-02,
201,-1.20e-02,
202,1.60e-02,
203,-1.20e-02,
204,-5.60e-02,
205,2.40e-02,
206,-1.60e-02,
207,3.60e-02,
208,1.60e-02,
209,-1.60e-02,
210,-1.20e-02,
211,2.00e-02,
212,-1.20e-02,
213,1.60e-02,
214,-1.20e-02,
215,2.00e-02,
216,2.00e-02,
217,-1.20e-02,
218,-2.80e-02,
219,3.60e-02,
220,1.60e-02,
221,-1.60e-02,
222,-1.20e-02,
223,2.00e-02,
224,2.00e-02,
225,-1.60e-02,
226,-1.60e-02,
227,2.00e-02,
228,8.40e-02,
229,-1.60e-02,
230,2.40e-02,
231,-1.60e-02,
232,-1.20e-02,
233,1.60e-02,
234,-1.20e-02,
235,1.60e-02,
236,1.60e-02,
237,-1.20e-02,
238,-1.20e-02,
239,1.60e-02,
240,-2.40e-02,
241,2.40e-02,
242,1.60e-02,
243,-1.20e-02,
244,-1.20e-02,
245,1.60e-02,
246,1.60e-02,
247,-2.00e-02,
248,-1.20e-02,
249,1.60e-02,
250,-1.20e-02,
251,1.60e-02,
252,-7.60e-02,
253,2.00e-02,
254,-2.00e-02,
255,2.40e-02,
256,-1.20e-02,
257,1.60e-02,
258,-1.20e-02,
259,2.00e-02,
260,-1.20e-02,
261,1.60e-02,
262,-1.20e-02,
263,1.60e-02,
264,-2.40e-02,
265,2.40e-02,
266,-1.20e-02,
267,2.00e-02,
268,1.60e-02,
269,-1.60e-02,
270,-1.60e-02,
271,2.00e-02,
272,2.00e-02,
273,-1.60e-02,
274,-1.20e-02,
275,2.00e-02,
276,-1.08e-01,
277,3.20e-02,
278,1.60e-02,
279,-1.20e-02,
280,1.60e-02,
281,-1.20e-02,
282,-1.60e-02,
283,2.00e-02,
284,1.60e-02,
285,-1.20e-02,
286,-1.20e-02,
287,1.60e-02,
288,-2.80e-02,
289,3.60e-02,
290,1.60e-02,
291,-1.60e-02,
292,-1.20e-02,
293,2.00e-02,
294,1.60e-02,
295,-1.20e-02,
296,-1.20e-02,
297,2.00e-02,
298,6.40e-02,
299,-1.60e-02,
300,2.00e-02,
301,-1.60e-02,
302,-1.20e-02,
303,2.00e-02,
304,-1.20e-02,
305,2.00e-02,
306,-1.20e-02,
307,2.00e-02,
308,1.60e-02,
309,-1.20e-02,
310,1.60e-02,
311,-1.20e-02,
312,1.60e-02,
313,-1.20e-02,
314,-1.20e-02,
315,2.00e-02,
316,1.60e-02,
317,-1.60e-02,
318,1.60e-02,
319,-1.20e-02,
320,1.60e-02,
321,-1.20e-02,
322,4.80e-02,
323,-6.80e-02,
324,3.60e-02,
325,-2.40e-02,
326,1.60e-02,
327,-1.20e-02,
328,-1.20e-02,
329,1.60e-02,
330,2.00e-02,
331,-1.20e-02,
332,1.60e-02,
333,-1.20e-02,
334,1.60e-02,
335,-1.20e-02,
336,3.20e-02,
337,-2.40e-02,
338,1.60e-02,
339,-1.20e-02,
340,1.60e-02,
341,-1.20e-02,
342,1.60e-02,
343,-1.20e-02,
344,1.60e-02,
345,-1.20e-02,
346,-4.80e-02,
347,1.60e-02,
348,1.60e-02,
349,-1.60e-02,
350,-1.60e-02,
351,2.00e-02,
352,-1.20e-02,
353,2.00e-02,
354,-1.20e-02,
355,2.00e-02,
356,1.60e-02,
357,-1.60e-02,
358,-2.00e-02,
359,3.20e-02,
360,1.60e-02,
361,-1.20e-02,
362,1.60e-02,
363,-1.60e-02,
364,-1.20e-02,
365,1.60e-02,
366,1.60e-02,
367,-1.20e-02,
368,1.60e-02,
369,-1.20e-02,
370,1.12e-01,
371,-2.40e-02,
372,-1.20e-02,
373,1.60e-02,
374,-1.20e-02,
375,2.00e-02,
376,1.60e-02,
377,-1.20e-02,
378,2.00e-02,
379,-1.60e-02,
380,1.60e-02,
381,-1.20e-02,
382,1.60e-02,
383,-1.20e-02,
384,-1.20e-02,
385,2.00e-02,
386,1.60e-02,
387,-1.20e-02,
388,2.00e-02,
389,-1.60e-02,
390,-2.00e-02,
391,1.60e-02,
392,1.60e-02,
393,-1.60e-02,
394,7.60e-02,
395,-2.40e-02,
396,1.60e-02,
397,-1.20e-02,
398,-1.20e-02,
399,2.00e-02,
400,-1.20e-02,
401,1.60e-02,
402,1.60e-02,
403,-1.20e-02,
404,-1.20e-02,
405,1.60e-02,
406,-2.40e-02,
407,4.00e-02,
408,1.60e-02,
409,-1.20e-02,
410,-1.20e-02,
411,2.00e-02,
412,1.60e-02,
413,-1.20e-02,
414,1.60e-02,
415,-1.20e-02,
416,1.60e-02,
417,-1.20e-02,
418,3.60e-02,
419,-8.40e-02,
420,1.60e-02,
421,-1.20e-02,
422,-2.00e-02,
423,2.00e-02,
424,1.60e-02,
425,-1.20e-02,
426,1.60e-02,
427,-1.20e-02,
428,1.60e-02,
429,-1.20e-02,
430,-2.80e-02,
431,2.00e-02,
432,-1.20e-02,
433,2.00e-02,
434,1.60e-02,
435,-1.60e-02,
436,-1.60e-02,
437,1.60e-02,
438,1.60e-02,
439,-1.20e-02,
440,3.60e-02,
441,-2.80e-02,
442,-2.40e-02,
443,3.60e-02,
444,1.60e-02,
445,-1.20e-02,
446,1.60e-02,
447,-1.60e-02,
448,1.60e-02,
449,-1.20e-02,
450,1.60e-02,
451,-1.20e-02,
452,-2.80e-02,
453,3.20e-02,
454,1.60e-02,
455,-1.20e-02,
456,1.60e-02,
457,-1.20e-02,
458,-1.60e-02,
459,2.00e-02,
460,-1.20e-02,
461,2.00e-02,
462,-1.20e-02,
463,1.60e-02,
464,-1.00e-01,
465,2.80e-02,
466,-1.20e-02,
467,1.60e-02,
468,2.00e-02,
469,-1.20e-02,
470,-1.20e-02,
471,2.00e-02,
472,1.60e-02,
473,-1.60e-02,
474,1.60e-02,
475,-1.60e-02,
476,-1.20e-02,
477,2.80e-02,
478,1.60e-02,
479,-1.60e-02,
480,1.60e-02,
481,-1.60e-02,
482,-1.20e-02,
483,2.00e-02,
484,1.60e-02,
485,-1.20e-02,
486,-6.00e-02,
487,6.80e-02,
488,-2.40e-02,
489,2.40e-02,
490,-1.20e-02,
491,1.60e-02,
492,1.60e-02,
493,-1.60e-02,
494,1.60e-02,
495,-1.20e-02,
496,-1.20e-02,
497,1.60e-02,
498,1.60e-02,
499,-1.60e-02,
500,2.40e-02,
501,-3.60e-02,
502,1.60e-02,
503,-1.60e-02,
504,2.00e-02,
505,-1.60e-02,
506,-1.20e-02,
507,1.60e-02,
508,1.60e-02,
509,-1.60e-02,
510,-1.20e-02,
511,2.40e-02,
512,-1.20e-02,
513,2.00e-02,
514,-1.20e-02,
515,2.00e-02,
516,-1.60e-02,
517,2.00e-02,
518,-1.60e-02,
519,2.00e-02,
520,-1.20e-02,
521,2.00e-02,
522,2.40e-02,
523,-2.00e-02,
524,2.00e-02,
525,-1.60e-02,
526,1.60e-02,
527,-1.20e-02,
528,-1.20e-02,
529,2.00e-02,
530,1.60e-02,
531,-1.20e-02,
532,1.60e-02,
533,-1.20e-02,
534,1.00e-01,
535,-2.40e-02,
536,1.60e-02,
537,-1.20e-02,
538,1.60e-02,
539,-1.20e-02,
540,1.60e-02,
541,-1.20e-02,
542,-1.20e-02,
543,1.60e-02,
544,-1.60e-02,
545,2.00e-02,
546,-1.60e-02,
547,2.80e-02,
548,-1.20e-02,
549,2.00e-02,
550,-1.20e-02,
551,2.00e-02,
552,2.00e-02,
553,-1.20e-02,
554,-1.20e-02,
555,1.60e-02,
556,-1.20e-02,
557,2.00e-02,
558,-8.00e-02,
559,3.20e-02,
560,1.60e-02,
561,-1.60e-02,
562,2.00e-02,
563,-1.60e-02,
564,2.00e-02,
565,-1.60e-02,
566,2.40e-02,
567,-1.20e-02,
568,-8.80e-02,
569,1.16e-01,
570,3.20e-02,
571,-2.80e-02,
572,1.60e-02,
573,-1.20e-02,
574,-1.20e-02,
575,1.60e-02,
576,1.60e-02,
577,-1.20e-02,
578,-6.80e-02,
579,8.80e-02,
580,1.60e-02,
581,-1.20e-02,
582,1.60e-02,
583,-2.00e-02,
584,1.60e-02,
585,-1.20e-02,
586,-1.20e-02,
587,2.00e-02,
588,1.60e-02,
589,-1.20e-02,
590,-5.20e-02,
591,2.00e-02,
592,1.60e-02,
593,-1.60e-02,
594,1.60e-02,
595,-2.00e-02,
596,-1.20e-02,
597,1.60e-02,
598,-1.20e-02,
599,2.80e-02,
600,1.60e-02,
601,-1.60e-02,
602,2.00e-02,
603,-1.60e-02,
604,2.00e-02,
605,-1.60e-02,
606,-2.40e-02,
607,4.00e-02,
608,7.20e-02,
609,-1.08e-01,
610,1.60e-02,
611,-1.20e-02,
612,1.60e-02,
613,-1.20e-02,
614,-1.20e-02,
615,1.60e-02,
616,-1.20e-02,
617,1.60e-02,
618,-3.20e-02,
619,2.40e-02,
620,-1.20e-02,
621,1.60e-02,
622,-1.20e-02,
623,1.60e-02,
624,-1.20e-02,
625,1.60e-02,
626,-1.20e-02,
627,2.00e-02,
628,-1.20e-02,
629,3.20e-02,
630,1.60e-02,
631,-1.20e-02,
632,-1.20e-02,
633,1.60e-02,
634,-1.60e-02,
635,1.60e-02,
636,7.60e-02,
637,-1.20e-02,
638,1.60e-02,
639,-1.20e-02,
640,-1.60e-02,
641,2.80e-02,
642,-1.60e-02,
643,2.40e-02,
644,-1.20e-02,
645,2.00e-02,
646,-1.60e-02,
647,2.00e-02,
648,2.00e-02,
649,-1.60e-02,
650,1.60e-02,
651,-1.20e-02,
652,4.00e-02,
653,-2.80e-02,
654,1.60e-02,
655,-1.20e-02,
656,-1.20e-02,
657,1.60e-02,
658,1.20e-02,
659,-1.20e-02,
660,1.60e-02,
661,-1.20e-02,
662,1.60e-02,
663,-8.00e-02,
664,-1.20e-02,
665,2.40e-02,
666,1.60e-02,
667,-1.20e-02,
668,-1.20e-02,
669,2.00e-02,
670,-1.20e-02,
671,2.00e-02,
672,1.60e-02,
673,-1.60e-02,
674,-1.20e-02,
675,1.60e-02,
676,-2.40e-02,
677,1.60e-02,
678,-1.20e-02,
679,1.60e-02,
680,1.60e-02,
681,-1.20e-02,
682,-1.60e-02,
683,2.00e-02,
684,2.00e-02,
685,-1.60e-02,
686,2.00e-02,
687,-1.60e-02,
688,-1.60e-02,
689,6.00e-02,
690,1.60e-02,
691,-1.60e-02,
692,-1.20e-02,
693,1.60e-02,
694,-1.20e-02,
695,1.60e-02,
696,1.60e-02,
697,-1.20e-02,
698,-1.20e-02,
699,2.40e-02,
700,1.60e-02,
701,-1.60e-02,
702,1.60e-02,
703,-1.60e-02,
704,1.60e-02,
705,-1.60e-02,
706,-1.20e-02,
707,1.60e-02,
708,-1.20e-02,
709,1.60e-02,
710,2.00e-02,
711,-2.80e-02,
712,7.60e-02,
713,-8.00e-02,
714,1.60e-02,
715,-1.60e-02,
716,2.00e-02,
717,-1.60e-02,
718,-1.20e-02,
719,1.60e-02,
720,1.60e-02,
721,-1.20e-02,
722,-2.40e-02,
723,2.80e-02,
724,-1.60e-02,
725,2.00e-02,
726,-1.60e-02,
727,2.00e-02,
728,-2.00e-02,
729,2.00e-02,
730,2.00e-02,
731,-1.60e-02,
732,1.60e-02,
733,-1.60e-02,
734,-2.80e-02,
735,3.20e-02,
736,-8.00e-02,
737,9.60e-02,
738,-1.20e-02,
739,2.00e-02,
740,-1.60e-02,
741,1.60e-02,
742,1.60e-02,
743,-1.20e-02,
744,1.60e-02,
745,-1.20e-02,
746,-1.20e-02,
747,2.40e-02,
748,-1.20e-02,
749,1.60e-02,
750,1.60e-02,
751,-1.60e-02,
752,-1.20e-02,
753,1.60e-02,
754,1.60e-02,
755,-1.20e-02,
756,-1.20e-02,
757,2.00e-02,
758,-2.00e-02,
759,2.00e-02,
760,3.20e-02,
761,-2.80e-02,
762,1.60e-02,
763,-1.20e-02,
764,-1.20e-02,
765,2.00e-02,
766,-1.60e-02,
767,2.00e-02,
768,-1.60e-02,
769,2.40e-02,
770,2.80e-02,
771,-3.60e-02,
772,2.00e-02,
773,-1.20e-02,
774,-1.60e-02,
775,2.40e-02,
776,-1.20e-02,
777,1.60e-02,
778,-1.20e-02,
779,1.60e-02,
780,-1.20e-02,
781,1.60e-02,
782,-3.20e-02,
783,2.80e-02,
784,-1.20e-02,
785,8.00e-02,
786,-1.20e-02,
787,1.60e-02,
788,1.60e-02,
789,-1.20e-02,
790,-1.20e-02,
791,1.60e-02,
792,1.60e-02,
793,-1.60e-02,
794,-3.60e-02,
795,2.00e-02,
796,-1.20e-02,
797,2.00e-02,
798,-1.20e-02,
799,2.00e-02,
800,-1.20e-02,
801,1.60e-02,
802,-1.20e-02,
803,2.00e-02,
804,2.40e-02,
805,-1.60e-02,
806,-1.20e-02,
807,1.60e-02,
808,7.20e-02,
809,-4.40e-02,
810,-2.00e-02,
811,2.40e-02,
812,2.00e-02,
813,-1.60e-02,
814,-1.20e-02,
815,2.40e-02,
816,-1.60e-02,
817,3.20e-02,
818,-1.20e-02,
819,1.60e-02,
820,2.00e-02,
821,-1.20e-02,
822,-1.20e-02,
823,1.60e-02,
824,1.60e-02,
825,-1.20e-02,
826,1.60e-02,
827,-1.20e-02,
828,3.60e-02,
829,-2.00e-02,
830,1.60e-02,
831,-1.20e-02,
832,1.60e-02,
833,-1.20e-02,
834,-1.20e-02,
835,1.60e-02,
836,1.60e-02,
837,-1.20e-02,
838,-1.20e-02,
839,1.60e-02,
840,-2.00e-02,
841,2.40e-02,
842,-1.20e-02,
843,1.60e-02,
844,2.40e-02,
845,-2.00e-02,
846,-1.20e-02,
847,1.60e-02,
848,-1.60e-02,
849,2.00e-02,
850,-1.20e-02,
851,2.00e-02,
852,4.00e-02,
853,-2.00e-02,
854,-1.20e-02,
855,2.00e-02,
856,2.00e-02,
857,-1.60e-02,
858,8.00e-02,
859,-1.04e-01,
860,-1.20e-02,
861,1.60e-02,
862,-1.20e-02,
863,2.00e-02,
864,1.60e-02,
865,-2.40e-02,
866,1.60e-02,
867,-1.20e-02,
868,2.00e-02,
869,-1.20e-02,
870,1.60e-02,
871,-1.20e-02,
872,1.60e-02,
873,-1.60e-02,
874,1.60e-02,
875,-1.60e-02,
876,-1.20e-02,
877,1.60e-02,
878,-1.60e-02,
879,2.00e-02,
880,2.40e-02,
881,-4.00e-02,
882,2.00e-02,
883,-1.60e-02,
884,2.00e-02,
885,-1.20e-02,
886,3.60e-02,
887,-2.80e-02,
888,1.60e-02,
889,-1.20e-02,
890,2.00e-02,
891,-1.60e-02,
892,2.00e-02,
893,-1.60e-02,
894,2.00e-02,
895,-1.60e-02,
896,-1.60e-02,
897,2.00e-02,
898,2.40e-02,
899,-4.00e-02,
900,1.60e-02,
901,-1.20e-02,
902,-1.20e-02,
903,1.60e-02,
904,1.60e-02,
905,-7.60e-02,
906,-1.20e-02,
907,2.00e-02,
908,-1.20e-02,
909,1.60e-02,
910,-1.20e-02,
911,2.40e-02,
912,1.60e-02,
913,-1.20e-02,
914,1.60e-02,
915,-1.20e-02,
916,1.60e-02,
917,-2.00e-02,
918,-1.20e-02,
919,1.60e-02,
920,1.60e-02,
921,-1.20e-02,
922,3.60e-02,
923,-3.20e-02,
924,-1.20e-02,
925,1.60e-02,
926,1.60e-02,
927,-1.60e-02,
928,2.40e-02,
929,-3.60e-02,
930,1.60e-02,
931,-1.20e-02,
932,1.60e-02,
933,-1.60e-02,
934,-2.00e-02,
935,2.40e-02,
936,-2.00e-02,
937,2.00e-02,
938,2.00e-02,
939,-1.60e-02,
940,-1.60e-02,
941,1.60e-02,
942,1.60e-02,
943,-1.20e-02,
944,-1.20e-02,
945,1.60e-02,
946,-2.80e-02,
947,1.60e-02,
948,-1.20e-02,
949,1.60e-02,
950,1.60e-02,
951,-2.40e-02,
952,1.60e-02,
953,-8.80e-02,
954,-1.20e-02,
955,1.60e-02,
956,-1.20e-02,
957,1.60e-02,
958,4.80e-02,
959,-2.00e-02,
960,1.60e-02,
961,-1.60e-02,
962,-1.20e-02,
963,2.00e-02,
964,-1.20e-02,
965,2.00e-02,
966,1.60e-02,
967,-1.20e-02,
968,1.60e-02,
969,-1.20e-02,
970,-2.00e-02,
971,3.60e-02,
972,-1.20e-02,
973,2.00e-02,
974,2.00e-02,
975,-1.60e-02,
976,2.00e-02,
977,-4.80e-02,
978,-1.20e-02,
979,2.00e-02,
980,2.40e-02,
981,-1.60e-02,
982,1.60e-02,
983,-1.20e-02,
984,-1.20e-02,
985,1.60e-02,
986,-1.20e-02,
987,2.40e-02,
988,1.60e-02,
989,-1.20e-02,
990,-1.20e-02,
991,1.60e-02,
992,-1.20e-02,
993,2.80e-02,
994,-1.20e-02,
995,1.60e-02,
996,-1.20e-02,
997,1.60e-02,
998,1.60e-02,
999,-1.20e-02,
1000,-6.80e-02,
1001,6.80e-02,
1002,-1.20e-02,
1003,1.60e-02,
1004,-2.40e-02,
1005,3.20e-02,
1006,-1.20e-02,
1007,2.00e-02,
1008,-1.60e-02,
1009,2.00e-02,
1010,1.60e-02,
1011,-1.60e-02,
1012,1.60e-02,
1013,-1.60e-02,
1014,-1.20e-02,
1015,1.60e-02,
1016,3.60e-02,
1017,-1.60e-02,
1018,2.00e-02,
1019,-2.00e-02,
1020,2.00e-02,
1021,-1.60e-02,
1022,-1.60e-02,
1023,2.00e-02,
1024,-1.20e-02,
1025,1.60e-02,
1026,1.60e-02,
1027,-1.20e-02,
1028,1.60e-02,
1029,-4.00e-02,
1030,-1.20e-02,
1031,2.00e-02,
1032,1.60e-02,
1033,-1.20e-02,
1034,1.60e-02,
1035,-1.60e-02,
1036,1.60e-02,
1037,-1.20e-02,
1038,-1.20e-02,
1039,1.60e-02,
1040,-2.00e-02,
1041,2.40e-02,
1042,-1.20e-02,
1043,2.00e-02,
1044,-1.20e-02,
1045,2.00e-02,
1046,1.60e-02,
1047,-1.60e-02,
1048,4.80e-02,
1049,-7.20e-02,
1050,-2.40e-02,
1051,4.00e-02,
1052,-1.20e-02,
1053,1.60e-02,
1054,-1.20e-02,
1055,2.00e-02,
1056,-1.20e-02,
1057,2.00e-02,
1058,2.00e-02,
1059,-1.60e-02,
1060,-1.60e-02,
1061,1.60e-02,
1062,3.60e-02,
1063,-1.60e-02,
1064,-1.20e-02,
1065,2.00e-02,
1066,-1.60e-02,
1067,1.60e-02,
1068,1.60e-02,
1069,-1.60e-02,
1070,-1.20e-02,
1071,1.60e-02,
1072,1.60e-02,
1073,-1.20e-01,
1074,-3.20e-02,
1075,1.60e-02,
1076,1.60e-02,
1077,-1.20e-02,
1078,1.60e-02,
1079,-1.20e-02,
1080,-1.20e-02,
1081,1.60e-02,
1082,1.60e-02,
1083,-1.60e-02,
1084,1.60e-02,
1085,-1.20e-02,
1086,2.40e-02,
1087,-2.80e-02,
1088,-1.20e-02,
1089,1.60e-02,
1090,2.00e-02,
1091,-1.20e-02,
1092,2.40e-02,
1093,-1.60e-02,
1094,-1.20e-02,
1095,2.00e-02,
1096,1.60e-02,
1097,-1.20e-02,
1098,-7.60e-02,
1099,3.60e-02,
1100,-1.20e-02,
1101,2.00e-02,
1102,2.00e-02,
1103,-1.20e-02,
1104,-1.20e-02,
1105,2.00e-02,
1106,-1.20e-02,
1107,2.00e-02,
1108,-1.20e-02,
1109,2.00e-02,
1110,1.60e-02,
1111,-2.80e-02,
1112,-1.20e-02,
1113,2.00e-02,
1114,1.60e-02,
1115,-1.20e-02,
1116,1.60e-02,
1117,-1.20e-02,
1118,1.60e-02,
1119,-1.20e-02,
1120,7.20e-02,
1121,-6.40e-02,
1122,3.20e-02,
1123,-4.00e-02,
1124,-1.20e-02,
1125,2.00e-02,
1126,2.00e-02,
1127,-1.60e-02,
1128,1.60e-02,
1129,-1.20e-02,
1130,1.60e-02,
1131,-1.20e-02,
1132,-1.60e-02,
1133,2.00e-02,
1134,-2.00e-02,
1135,2.80e-02,
1136,-1.60e-02,
1137,2.00e-02,
1138,1.60e-02,
1139,-1.60e-02,
1140,-1.60e-02,
1141,2.00e-02,
1142,2.00e-02,
1143,-9.20e-02,
1144,1.60e-02,
1145,-1.60e-02,
1146,3.20e-02,
1147,-2.00e-02,
1148,1.60e-02,
1149,-1.60e-02,
1150,1.60e-02,
1151,-1.20e-02,
1152,1.60e-02,
1153,-1.20e-02,
1154,1.60e-02,
1155,-1.20e-02,
1156,1.60e-02,
1157,-2.40e-02,
1158,1.60e-02,
1159,-1.20e-02,
1160,1.60e-02,
1161,-1.20e-02,
1162,1.60e-02,
1163,-1.20e-02,
1164,-1.20e-02,
1165,1.60e-02,
1166,-1.60e-02,
1167,7.60e-02,
1168,4.00e-02,
1169,-2.80e-02,
1170,1.60e-02,
1171,-1.20e-02,
1172,-1.20e-02,
1173,1.60e-02,
1174,2.00e-02,
1175,-1.60e-02,
1176,-1.20e-02,
1177,1.60e-02,
1178,1.60e-02,
1179,-1.60e-02,
1180,1.60e-02,
1181,-2.40e-02,
1182,1.60e-02,
1183,-1.60e-02,
1184,2.00e-02,
1185,-1.60e-02,
1186,1.60e-02,
1187,-1.60e-02,
1188,-1.20e-02,
1189,2.00e-02,
1190,1.60e-02,
1191,-8.00e-02,
1192,1.60e-02,
1193,-2.00e-02,
1194,-1.20e-02,
1195,1.60e-02,
1196,-1.20e-02,
1197,2.00e-02,
1198,1.60e-02,
1199,-1.20e-02,
