Laptop_1/LAPTOP_CHRGR_1_OFF/time domain/NewFile44.csv

X,CH1,Start,Increment,
Sequence,Volt,-1.500000e-01,2.000000e-04
0,-6.40e-02,
1,4.40e-02,
2,1.60e-02,
3,-1.20e-02,
4,1.60e-02,
5,-1.20e-02,
6,-1.60e-02,
7,1.60e-02,
8,-1.20e-02,
9,1.60e-02,
10,-1.20e-02,
11,2.00e-02,
12,-1.20e-02,
13,2.40e-02,
14,1.60e-02,
15,-1.20e-02,
16,1.60e-02,
17,-1.20e-02,
18,3.60e-02,
19,-8.80e-02,
20,-1.20e-02,
21,2.00e-02,
22,1.60e-02,
23,-1.60e-02,
24,2.00e-02,
25,-3.20e-02,
26,-1.20e-02,
27,1.60e-02,
28,1.60e-02,
29,-1.60e-02,
30,1.60e-02,
31,-1.60e-02,
32,-1.20e-02,
33,2.00e-02,
34,2.00e-02,
35,-1.20e-02,
36,-4.40e-02,
37,1.60e-02,
38,-1.20e-02,
39,1.60e-02,
40,-1.20e-02,
41,1.60e-02,
42,2.00e-02,
43,-6.00e-02,
44,1.60e-02,
45,-1.20e-02,
46,-1.20e-02,
47,1.60e-02,
48,2.00e-02,
49,-1.60e-02,
50,-1.20e-02,
51,1.60e-02,
52,2.00e-02,
53,-1.60e-02,
54,1.60e-02,
55,-1.20e-02,
56,1.60e-02,
57,-1.20e-02,
58,-1.20e-02,
59,1.60e-02,
60,-4.40e-02,
61,2.40e-02,
62,1.60e-02,
63,-1.60e-02,
64,2.00e-02,
65,-1.60e-02,
66,1.60e-02,
67,-1.20e-02,
68,1.60e-02,
69,-1.20e-02,
70,1.60e-02,
71,-6.00e-02,
72,-4.40e-02,
73,3.60e-02,
74,1.60e-02,
75,-1.60e-02,
76,-1.20e-02,
77,2.00e-02,
78,-1.20e-02,
79,2.00e-02,
80,2.00e-02,
81,-1.20e-02,
82,1.60e-02,
83,-1.20e-02,
84,-2.00e-02,
85,2.40e-02,
86,1.60e-02,
87,-1.20e-02,
88,2.00e-02,
89,-1.60e-02,
90,-1.20e-02,
91,1.60e-02,
92,-1.20e-02,
93,1.60e-02,
94,3.60e-02,
95,-4.80e-02,
96,4.40e-02,
97,-7.20e-02,
98,-1.20e-02,
99,1.60e-02,
100,-1.60e-02,
101,2.40e-02,
102,2.00e-02,
103,-1.60e-02,
104,1.60e-02,
105,-1.60e-02,
106,-3.60e-02,
107,3.60e-02,
108,1.60e-02,
109,-1.20e-02,
110,-1.20e-02,
111,2.00e-02,
112,-1.20e-02,
113,1.60e-02,
114,1.60e-02,
115,-1.60e-02,
116,-1.60e-02,
117,2.00e-02,
118,-1.60e-02,
119,1.60e-02,
120,7.60e-02,
121,-9.60e-02,
122,1.60e-02,
123,-2.00e-02,
124,2.00e-02,
125,-2.40e-02,
126,-1.20e-02,
127,2.00e-02,
128,1.60e-02,
129,-1.20e-02,
130,-2.80e-02,
131,4.40e-02,
132,-1.20e-02,
133,1.60e-02,
134,-1.20e-02,
135,1.60e-02,
136,-2.00e-02,
137,1.60e-02,
138,-1.20e-02,
139,1.60e-02,
140,1.60e-02,
141,-1.20e-02,
142,-3.60e-02,
143,2.80e-02,
144,1.60e-02,
145,-1.20e-02,
146,1.20e-02,
147,-1.20e-02,
148,1.20e-02,
149,-6.80e-02,
150,1.60e-02,
151,-1.60e-02,
152,1.60e-02,
153,-1.60e-02,
154,-1.60e-02,
155,1.60e-02,
156,-1.60e-02,
157,2.00e-02,
158,-1.60e-02,
159,1.60e-02,
160,-1.20e-02,
161,2.00e-02,
162,2.00e-02,
163,-1.60e-02,
164,2.00e-02,
165,-1.60e-02,
166,3.60e-02,
167,-3.20e-02,
168,-1.20e-02,
169,1.60e-02,
170,-1.20e-02,
171,2.00e-02,
172,1.20e-02,
173,-1.20e-02,
174,1.60e-02,
175,-1.60e-02,
176,-1.20e-02,
177,1.60e-02,
178,4.40e-02,
179,-3.60e-02,
180,1.60e-02,
181,-1.20e-02,
182,1.60e-02,
183,-1.20e-02,
184,1.60e-02,
185,-1.20e-02,
186,-1.20e-02,
187,1.60e-02,
188,1.60e-02,
189,-1.20e-02,
190,1.60e-02,
191,-1.60e-02,
192,-1.20e-02,
193,1.60e-02,
194,2.00e-02,
195,-2.40e-02,
196,1.60e-02,
197,-1.20e-02,
198,2.00e-02,
199,-6.80e-02,
200,-3.20e-02,
201,4.00e-02,
202,-1.20e-02,
203,2.00e-02,
204,-1.60e-02,
205,2.00e-02,
206,-2.40e-02,
207,2.00e-02,
208,1.60e-02,
209,-1.20e-02,
210,-1.20e-02,
211,1.60e-02,
212,3.20e-02,
213,-4.00e-02,
214,1.20e-02,
215,-1.20e-02,
216,1.60e-02,
217,-1.20e-02,
218,2.00e-02,
219,-1.20e-02,
220,-8.00e-03,
221,2.00e-02,
222,1.60e-02,
223,-1.20e-02,
224,-2.00e-02,
225,2.00e-02,
226,-5.20e-02,
227,1.60e-02,
228,-1.20e-02,
229,1.60e-02,
230,-1.20e-02,
231,1.60e-02,
232,-1.20e-02,
233,1.60e-02,
234,-1.60e-02,
235,1.60e-02,
236,-1.20e-02,
237,3.60e-02,
238,-1.20e-02,
239,1.60e-02,
240,-1.60e-02,
241,2.00e-02,
242,-1.60e-02,
243,2.80e-02,
244,1.60e-02,
245,-1.20e-02,
246,-1.60e-02,
247,1.60e-02,
248,-4.00e-02,
249,5.20e-02,
250,-1.20e-02,
251,1.60e-02,
252,-6.40e-02,
253,8.40e-02,
254,1.60e-02,
255,-1.20e-02,
256,-1.20e-02,
257,1.60e-02,
258,-1.20e-02,
259,1.60e-02,
260,-2.00e-02,
261,2.40e-02,
262,1.60e-02,
263,-1.20e-02,
264,1.60e-02,
265,-1.60e-02,
266,-1.20e-02,
267,1.60e-02,
268,1.60e-02,
269,-1.20e-02,
270,-1.20e-02,
271,2.00e-02,
272,-3.20e-02,
273,3.20e-02,
274,-1.20e-02,
275,2.00e-02,
276,2.40e-02,
277,-4.80e-02,
278,1.60e-02,
279,-1.20e-02,
280,2.00e-02,
281,-1.60e-02,
282,-1.20e-02,
283,1.60e-02,
284,4.80e-02,
285,-4.00e-02,
286,-1.20e-02,
287,2.00e-02,
288,1.60e-02,
289,-1.20e-02,
290,2.00e-02,
291,-1.20e-02,
292,1.60e-02,
293,-1.20e-02,
294,-1.20e-02,
295,1.60e-02,
296,2.00e-02,
297,-1.60e-02,
298,-1.20e-02,
299,1.60e-02,
300,-1.20e-02,
301,1.60e-02,
302,-1.20e-02,
303,1.60e-02,
304,1.20e-02,
305,-6.80e-02,
306,4.00e-02,
307,-2.80e-02,
308,-1.60e-02,
309,1.60e-02,
310,-1.20e-02,
311,1.60e-02,
312,1.60e-02,
313,-1.60e-02,
314,-1.20e-02,
315,1.60e-02,
316,-1.20e-02,
317,1.60e-02,
318,4.40e-02,
319,-4.80e-02,
320,-1.60e-02,
321,1.20e-02,
322,-1.60e-02,
323,1.60e-02,
324,-1.60e-02,
325,2.00e-02,
326,1.60e-02,
327,-1.60e-02,
328,7.60e-02,
329,-1.04e-01,
330,2.00e-02,
331,-2.00e-02,
332,-1.20e-02,
333,1.60e-02,
334,-1.20e-02,
335,1.60e-02,
336,-1.60e-02,
337,2.00e-02,
338,1.60e-02,
339,-1.20e-02,
340,1.60e-02,
341,-1.20e-02,
342,-1.20e-02,
343,4.00e-02,
344,-1.20e-02,
345,1.60e-02,
346,-1.20e-02,
347,1.60e-02,
348,1.60e-02,
349,-2.00e-02,
350,1.20e-02,
351,-1.60e-02,
352,-1.20e-02,
353,2.00e-02,
354,-1.20e-02,
355,4.00e-02,
356,-1.20e-02,
357,1.60e-02,
358,1.60e-02,
359,-1.20e-02,
360,1.60e-02,
361,-1.60e-02,
362,-1.20e-02,
363,1.60e-02,
364,1.60e-02,
365,-1.60e-02,
366,-1.60e-02,
367,2.40e-02,
368,-1.20e-02,
369,1.60e-02,
370,-1.20e-02,
371,2.40e-02,
372,2.00e-02,
373,-1.20e-02,
374,1.60e-02,
375,-1.20e-02,
376,1.60e-02,
377,-1.20e-02,
378,4.40e-02,
379,-3.20e-02,
380,6.00e-02,
381,-3.60e-02,
382,1.60e-02,
383,-1.60e-02,
384,-1.20e-02,
385,1.60e-02,
386,-1.20e-02,
387,1.60e-02,
388,-1.20e-02,
389,1.60e-02,
390,4.00e-02,
391,-2.80e-02,
392,-1.20e-02,
393,1.60e-02,
394,1.60e-02,
395,-1.60e-02,
396,-1.20e-02,
397,1.60e-02,
398,1.60e-02,
399,-1.60e-02,
400,-1.20e-02,
401,1.60e-02,
402,2.40e-02,
403,-1.60e-02,
404,-1.20e-02,
405,1.60e-02,
406,6.00e-02,
407,-2.80e-02,
408,-1.20e-02,
409,1.60e-02,
410,-1.20e-02,
411,2.00e-02,
412,3.60e-02,
413,-2.80e-02,
414,-1.60e-02,
415,1.60e-02,
416,1.60e-02,
417,-1.20e-02,
418,1.60e-02,
419,-2.00e-02,
420,-1.20e-02,
421,1.60e-02,
422,1.20e-02,
423,-1.20e-02,
424,1.60e-02,
425,-1.20e-02,
426,4.40e-02,
427,-2.00e-02,
428,-1.20e-02,
429,1.60e-02,
430,-1.20e-02,
431,1.60e-02,
432,1.60e-02,
433,-7.60e-02,
434,-1.20e-02,
435,1.60e-02,
436,1.60e-02,
437,-2.00e-02,
438,-1.60e-02,
439,2.00e-02,
440,1.60e-02,
441,-1.60e-02,
442,2.00e-02,
443,-1.60e-02,
444,-1.20e-02,
445,1.60e-02,
446,-1.20e-02,
447,2.00e-02,
448,3.60e-02,
449,-3.20e-02,
450,-1.60e-02,
451,2.00e-02,
452,-1.20e-02,
453,1.60e-02,
454,-1.60e-02,
455,2.00e-02,
456,2.00e-02,
457,-1.60e-02,
458,6.00e-02,
459,-8.00e-02,
460,-2.80e-02,
461,6.00e-02,
462,-1.20e-02,
463,1.60e-02,
464,1.20e-02,
465,-1.20e-02,
466,-1.20e-02,
467,1.60e-02,
468,1.20e-02,
469,-1.20e-02,
470,-1.20e-02,
471,1.60e-02,
472,-1.20e-02,
473,2.00e-02,
474,-1.20e-02,
475,1.60e-02,
476,-1.20e-02,
477,1.60e-02,
478,2.00e-02,
479,-1.20e-02,
480,-1.20e-02,
481,1.60e-02,
482,1.60e-02,
483,-1.20e-02,
484,-5.20e-02,
485,1.16e-01,
486,-1.20e-02,
487,1.60e-02,
488,-1.60e-02,
489,2.00e-02,
490,1.60e-02,
491,-1.20e-02,
492,1.60e-02,
493,-1.20e-02,
494,-1.60e-02,
495,2.00e-02,
496,4.40e-02,
497,-4.80e-02,
498,-1.20e-02,
499,1.60e-02,
500,2.00e-02,
501,-1.60e-02,
502,-1.20e-02,
503,1.20e-02,
504,1.20e-02,
505,-1.20e-02,
506,1.60e-02,
507,-1.20e-02,
508,-1.20e-02,
509,2.40e-02,
510,-1.20e-02,
511,6.40e-02,
512,1.60e-02,
513,-1.60e-02,
514,-1.20e-02,
515,2.00e-02,
516,-1.20e-02,
517,2.00e-02,
518,4.40e-02,
519,-4.80e-02,
520,2.00e-02,
521,-1.60e-02,
522,-1.20e-02,
523,1.60e-02,
524,2.40e-02,
525,-1.60e-02,
526,-1.20e-02,
527,1.60e-02,
528,-1.20e-02,
529,1.60e-02,
530,-1.60e-02,
531,2.00e-02,
532,-4.40e-02,
533,5.60e-02,
534,-8.00e-02,
535,1.60e-02,
536,1.60e-02,
537,-1.60e-02,
538,2.00e-02,
539,-1.60e-02,
540,1.60e-02,
541,-1.20e-02,
542,-1.20e-02,
543,1.60e-02,
544,-1.60e-02,
545,2.00e-02,
546,1.60e-02,
547,-1.20e-02,
548,-1.60e-02,
549,1.60e-02,
550,-1.20e-02,
551,1.60e-02,
552,-1.20e-02,
553,1.60e-02,
554,1.60e-02,
555,-3.20e-02,
556,1.60e-02,
557,-1.20e-02,
558,1.60e-02,
559,-1.20e-02,
560,-5.60e-02,
561,7.60e-02,
562,1.60e-02,
563,-1.20e-02,
564,1.60e-02,
565,-1.20e-02,
566,-4.00e-02,
567,4.00e-02,
568,1.60e-02,
569,-1.20e-02,
570,-1.20e-02,
571,2.00e-02,
572,1.60e-02,
573,-1.60e-02,
574,-1.20e-02,
575,1.60e-02,
576,-1.20e-02,
577,2.00e-02,
578,-7.20e-02,
579,7.20e-02,
580,1.60e-02,
581,-1.60e-02,
582,-1.20e-02,
583,1.60e-02,
584,-2.40e-02,
585,1.60e-02,
586,1.60e-02,
587,-1.20e-02,
588,8.40e-02,
589,-6.40e-02,
590,3.60e-02,
591,-1.20e-02,
592,1.60e-02,
593,-1.20e-02,
594,-1.20e-02,
595,2.00e-02,
596,1.60e-02,
597,-1.20e-02,
598,-6.40e-02,
599,2.00e-02,
600,-1.20e-02,
601,2.00e-02,
602,-3.60e-02,
603,3.20e-02,
604,-1.20e-02,
605,2.00e-02,
606,-1.20e-02,
607,1.60e-02,
608,2.00e-02,
609,-1.20e-02,
610,-1.20e-02,
611,2.00e-02,
612,1.60e-02,
613,-1.60e-02,
614,-1.60e-02,
615,2.40e-02,
616,-1.20e-02,
617,6.80e-02,
618,-1.60e-02,
619,2.40e-02,
620,1.60e-02,
621,-1.20e-02,
622,1.60e-02,
623,-1.20e-02,
624,-1.20e-02,
625,1.60e-02,
626,4.40e-02,
627,-1.20e-02,
628,1.60e-02,
629,-1.20e-02,
630,1.60e-02,
631,-2.80e-02,
632,-1.20e-02,
633,1.60e-02,
634,-1.20e-02,
635,1.60e-02,
636,1.60e-02,
637,-1.60e-02,
638,-2.80e-02,
639,4.00e-02,
640,1.60e-02,
641,-1.20e-02,
642,1.60e-02,
643,-8.00e-03,
644,-1.20e-02,
645,2.00e-02,
646,-6.00e-02,
647,7.20e-02,
648,-1.60e-02,
649,1.60e-02,
650,-2.00e-02,
651,2.40e-02,
652,2.00e-02,
653,-1.20e-02,
654,1.60e-02,
655,-1.60e-02,
656,-1.60e-02,
657,2.00e-02,
658,-1.60e-02,
659,2.00e-02,
660,-1.20e-02,
661,4.00e-02,
662,1.60e-02,
663,-1.20e-02,
664,-1.20e-02,
665,1.60e-02,
666,1.60e-02,
667,-2.40e-02,
668,-1.20e-02,
669,1.60e-02,
670,1.60e-02,
671,-1.20e-02,
672,-1.20e-02,
673,5.60e-02,
674,-1.20e-02,
675,1.60e-02,
676,-7.20e-02,
677,1.60e-02,
678,1.60e-02,
679,-1.20e-02,
680,1.60e-02,
681,-1.20e-02,
682,-1.20e-02,
683,1.60e-02,
684,-1.20e-02,
685,2.40e-02,
686,-8.00e-03,
687,1.60e-02,
688,2.00e-02,
689,-1.20e-02,
690,-1.60e-02,
691,2.00e-02,
692,-1.20e-02,
693,2.00e-02,
694,-1.20e-02,
695,2.00e-02,
696,-3.20e-02,
697,4.00e-02,
698,2.00e-02,
699,-1.60e-02,
700,-1.60e-02,
701,2.00e-02,
702,-2.00e-02,
703,2.00e-02,
704,-1.60e-02,
705,2.00e-02,
706,-1.60e-02,
707,1.60e-02,
708,4.80e-02,
709,-4.40e-02,
710,1.60e-02,
711,-1.60e-02,
712,1.20e-02,
713,-1.20e-02,
714,-1.20e-02,
715,1.60e-02,
716,1.60e-02,
717,-1.20e-02,
718,-1.20e-02,
719,1.60e-02,
720,2.80e-02,
721,-1.60e-02,
722,1.60e-02,
723,-1.60e-02,
724,2.00e-02,
725,-2.00e-02,
726,-1.20e-02,
727,1.60e-02,
728,-8.00e-02,
729,2.00e-02,
730,1.60e-02,
731,-1.20e-02,
732,-4.40e-02,
733,4.00e-02,
734,1.60e-02,
735,-1.20e-02,
736,2.00e-02,
737,-1.60e-02,
738,-1.60e-02,
739,1.60e-02,
740,2.00e-02,
741,-1.60e-02,
742,-1.20e-02,
743,1.60e-02,
744,-5.60e-02,
745,2.00e-02,
746,1.60e-02,
747,-1.20e-02,
748,-1.20e-02,
749,1.60e-02,
750,-1.20e-02,
751,1.60e-02,
752,-1.20e-02,
753,1.60e-02,
754,-1.20e-02,
755,1.60e-02,
756,-2.80e-02,
757,2.80e-02,
758,-1.20e-02,
759,1.60e-02,
760,-1.60e-02,
761,2.80e-02,
762,1.20e-02,
763,-1.20e-02,
764,-1.20e-02,
765,1.60e-02,
766,-4.80e-02,
767,3.20e-02,
768,1.60e-02,
769,-1.20e-02,
770,-1.20e-02,
771,2.00e-02,
772,-2.40e-02,
773,2.80e-02,
774,1.60e-02,
775,-1.60e-02,
776,1.60e-02,
777,-1.20e-02,
778,4.40e-02,
779,-5.20e-02,
780,-1.60e-02,
781,8.80e-02,
782,1.60e-02,
783,-1.60e-02,
784,-1.20e-02,
785,1.60e-02,
786,1.60e-02,
787,-1.20e-02,
788,-1.60e-02,
789,1.60e-02,
790,-1.20e-02,
791,2.00e-02,
792,1.60e-02,
793,-1.20e-02,
794,1.20e-02,
795,-1.20e-02,
796,-2.00e-02,
797,1.60e-02,
798,-1.20e-02,
799,1.60e-02,
800,-1.20e-02,
801,1.60e-02,
802,4.40e-02,
803,-3.60e-02,
804,1.60e-02,
805,-1.20e-02,
806,-1.20e-02,
807,1.60e-02,
808,4.00e-02,
809,-5.20e-02,
810,1.60e-02,
811,-1.20e-02,
812,-1.20e-02,
813,1.60e-02,
814,-3.20e-02,
815,3.20e-02,
816,-1.20e-02,
817,1.60e-02,
818,-1.20e-02,
819,1.60e-02,
820,1.60e-02,
821,-1.20e-02,
822,-1.60e-02,
823,1.60e-02,
824,-1.20e-02,
825,1.60e-02,
826,-2.40e-02,
827,2.00e-02,
828,1.60e-02,
829,-1.20e-02,
830,-1.60e-02,
831,1.60e-02,
832,-1.20e-02,
833,1.60e-02,
834,-1.20e-02,
835,1.60e-02,
836,1.20e-02,
837,-1.20e-02,
838,-1.20e-02,
839,4.00e-02,
840,-1.20e-02,
841,1.60e-02,
842,2.40e-02,
843,-2.40e-02,
844,-1.20e-02,
845,1.60e-02,
846,-1.20e-02,
847,1.60e-02,
848,-1.20e-02,
849,1.60e-02,
850,4.40e-02,
851,-3.60e-02,
852,-1.20e-02,
853,1.60e-02,
854,1.60e-02,
855,-1.60e-02,
856,-1.20e-02,
857,1.60e-02,
858,-1.60e-02,
859,2.00e-02,
860,-3.20e-02,
861,9.20e-02,
862,-1.20e-02,
863,2.40e-02,
864,-1.20e-02,
865,2.00e-02,
866,-1.20e-02,
867,2.00e-02,
868,1.60e-02,
869,-1.60e-02,
870,1.60e-02,
871,-1.20e-02,
872,-4.80e-02,
873,4.00e-02,
874,-1.20e-02,
875,1.60e-02,
876,1.60e-02,
877,-1.20e-02,
878,2.00e-02,
879,-2.00e-02,
880,1.60e-02,
881,-1.20e-02,
882,1.20e-02,
883,-1.20e-02,
884,-1.20e-02,
885,8.00e-02,
886,4.00e-02,
887,-3.60e-02,
888,-1.20e-02,
889,1.60e-02,
890,-1.20e-02,
891,1.60e-02,
892,-1.20e-02,
893,1.60e-02,
894,1.60e-02,
895,-1.20e-02,
896,-1.20e-02,
897,2.00e-02,
898,2.00e-02,
899,-1.20e-02,
900,1.60e-02,
901,-1.20e-02,
902,-8.00e-03,
903,2.00e-02,
904,-1.20e-02,
905,1.60e-02,
906,2.00e-02,
907,-1.20e-02,
908,1.60e-02,
909,-3.60e-02,
910,6.40e-02,
911,-1.60e-02,
912,-1.20e-02,
913,2.00e-02,
914,-1.60e-02,
915,1.60e-02,
916,1.60e-02,
917,-1.20e-02,
918,-1.20e-02,
919,1.60e-02,
920,4.40e-02,
921,-5.60e-02,
922,1.60e-02,
923,-1.20e-02,
924,1.60e-02,
925,-1.20e-02,
926,1.60e-02,
927,-1.20e-02,
928,-1.20e-02,
929,2.00e-02,
930,-1.20e-02,
931,1.60e-02,
932,-2.00e-02,
933,2.40e-02,
934,-1.20e-02,
935,1.60e-02,
936,-7.60e-02,
937,4.40e-02,
938,-2.00e-02,
939,1.60e-02,
940,1.60e-02,
941,-1.60e-02,
942,-1.20e-02,
943,1.60e-02,
944,4.00e-02,
945,-1.60e-02,
946,-1.20e-02,
947,1.60e-02,
948,2.00e-02,
949,-1.60e-02,
950,-1.20e-02,
951,1.60e-02,
952,1.60e-02,
953,-1.60e-02,
954,1.60e-02,
955,-1.20e-02,
956,6.40e-02,
957,-4.00e-02,
958,-8.00e-03,
959,1.60e-02,
960,1.60e-02,
961,-1.20e-02,
962,-6.40e-02,
963,2.00e-02,
964,-1.20e-02,
965,1.60e-02,
966,-1.20e-02,
967,1.60e-02,
968,1.60e-02,
969,-2.00e-02,
970,-1.20e-02,
971,1.60e-02,
972,-1.60e-02,
973,2.40e-02,
974,1.60e-02,
975,-1.20e-02,
976,-1.20e-02,
977,1.60e-02,
978,-1.20e-02,
979,4.00e-02,
980,-1.20e-02,
981,1.60e-02,
982,1.20e-02,
983,-1.20e-02,
984,-1.20e-02,
985,2.00e-02,
986,-1.20e-02,
987,1.60e-02,
988,-8.00e-02,
989,5.20e-02,
990,-1.20e-02,
991,2.00e-02,
992,-4.40e-02,
993,2.00e-02,
994,1.60e-02,
995,-1.60e-02,
996,-1.60e-02,
997,1.60e-02,
998,-1.20e-02,
999,2.00e-02,
1000,1.20e-02,
1001,-1.20e-02,
1002,1.20e-02,
1003,-1.20e-02,
1004,-2.00e-02,
1005,2.00e-02,
1006,-1.20e-02,
1007,1.60e-02,
1008,2.40e-02,
1009,-1.60e-02,
1010,-1.20e-02,
1011,1.60e-02,
1012,-1.20e-02,
1013,1.60e-02,
1014,-8.80e-02,
1015,4.00e-02,
1016,1.60e-02,
1017,-1.60e-02,
1018,1.60e-02,
1019,-1.20e-02,
1020,-1.20e-02,
1021,2.00e-02,
1022,-1.20e-02,
1023,1.60e-02,
1024,1.60e-02,
1025,-1.60e-02,
1026,4.80e-02,
1027,-1.20e-02,
1028,2.00e-02,
1029,-1.20e-02,
1030,-1.20e-02,
1031,1.60e-02,
1032,1.60e-02,
1033,-2.00e-02,
1034,-1.20e-02,
1035,2.00e-02,
1036,2.00e-02,
1037,-1.60e-02,
1038,3.20e-02,
1039,-1.00e-01,
1040,1.60e-02,
1041,-1.60e-02,
1042,1.60e-02,
1043,-1.20e-02,
1044,-1.20e-02,
1045,2.40e-02,
1046,-1.20e-02,
1047,1.60e-02,
1048,-1.20e-02,
1049,1.60e-02,
1050,-4.40e-02,
1051,4.80e-02,
1052,-1.20e-02,
1053,1.60e-02,
1054,1.60e-02,
1055,-1.20e-02,
1056,-2.00e-02,
1057,1.60e-02,
1058,-1.20e-02,
1059,1.60e-02,
1060,1.60e-02,
1061,-1.20e-02,
1062,4.40e-02,
1063,-3.20e-02,
1064,-1.20e-02,
1065,6.40e-02,
1066,2.00e-02,
1067,-1.20e-02,
1068,1.60e-02,
1069,-1.20e-02,
1070,1.60e-02,
1071,-1.60e-02,
1072,-1.20e-02,
1073,1.60e-02,
1074,1.60e-02,
1075,-2.80e-02,
1076,2.00e-02,
1077,-1.60e-02,
1078,-1.20e-02,
1079,2.00e-02,
1080,-1.20e-02,
1081,2.00e-02,
1082,1.60e-02,
1083,-1.20e-02,
1084,-1.20e-02,
1085,1.60e-02,
1086,-2.80e-02,
1087,4.80e-02,
1088,4.00e-02,
1089,-2.40e-02,
1090,-1.20e-02,
1091,2.00e-02,
1092,1.60e-02,
1093,-1.20e-02,
1094,1.60e-02,
1095,-1.60e-02,
1096,-1.20e-02,
1097,1.60e-02,
1098,5.20e-02,
1099,-3.20e-02,
1100,-1.20e-02,
1101,2.00e-02,
1102,-1.20e-02,
1103,1.60e-02,
1104,1.60e-02,
1105,-1.20e-02,
1106,1.60e-02,
1107,-1.60e-02,
1108,-1.20e-02,
1109,1.60e-02,
1110,2.00e-02,
1111,-2.40e-02,
1112,-1.20e-02,
1113,1.60e-02,
1114,2.80e-02,
1115,-8.00e-02,
1116,1.60e-02,
1117,-1.60e-02,
1118,-1.20e-02,
1119,1.60e-02,
1120,4.00e-02,
1121,-2.80e-02,
1122,1.60e-02,
1123,-1.60e-02,
1124,-1.20e-02,
1125,1.60e-02,
1126,-1.60e-02,
1127,2.00e-02,
1128,-1.20e-02,
1129,1.60e-02,
1130,1.20e-02,
1131,-1.20e-02,
1132,-3.20e-02,
1133,4.00e-02,
1134,-1.20e-02,
1135,1.60e-02,
1136,-1.20e-02,
1137,1.60e-02,
1138,-8.00e-03,
1139,2.00e-02,
1140,1.60e-02,
1141,-1.60e-02,
1142,1.60e-02,
1143,-1.20e-02,
1144,-1.20e-02,
1145,3.20e-02,
1146,1.60e-02,
1147,-1.20e-02,
1148,-1.20e-02,
1149,1.60e-02,
1150,2.40e-02,
1151,-1.60e-02,
1152,1.60e-02,
1153,-1.60e-02,
1154,2.00e-02,
1155,-1.20e-02,
1156,-2.40e-02,
1157,4.00e-02,
1158,-1.20e-02,
1159,1.60e-02,
1160,-1.20e-02,
1161,2.00e-02,
1162,2.00e-02,
1163,-1.60e-02,
1164,-1.20e-02,
1165,1.60e-02,
1166,-8.00e-02,
1167,2.00e-02,
1168,-2.80e-02,
1169,5.60e-02,
1170,1.60e-02,
1171,-1.20e-02,
1172,1.60e-02,
1173,-1.60e-02,
1174,-1.20e-02,
1175,1.60e-02,
1176,1.60e-02,
1177,-1.20e-02,
1178,-1.20e-02,
1179,1.60e-02,
1180,2.40e-02,
1181,-1.20e-02,
1182,-1.20e-02,
1183,1.60e-02,
1184,-1.20e-02,
1185,2.40e-02,
1186,-1.20e-02,
1187,2.00e-02,
1188,-1.20e-02,
1189,2.00e-02,
1190,6.00e-02,
1191,-1.60e-02,
1192,4.40e-02,
1193,-1.60e-02,
1194,-1.20e-02,
1195,1.60e-02,
1196,1.60e-02,
1197,-1.60e-02,
1198,1.60e-02,
1199,-1.60e-02,
