Laptop_1/LAPTOP_CHRGR_1_OFF/time domain/NewFile2.csv

X,CH1,Start,Increment,
Sequence,Volt,-1.500000e-01,2.000000e-04
0,1.84e-01,
1,-1.80e-01,
2,-2.40e-02,
3,2.40e-02,
4,2.40e-02,
5,-2.00e-02,
6,2.00e-02,
7,-2.00e-02,
8,-2.00e-02,
9,2.00e-02,
10,2.00e-02,
11,-2.00e-02,
12,1.60e-02,
13,-1.60e-02,
14,2.00e-02,
15,-1.60e-02,
16,-1.20e-02,
17,2.00e-02,
18,-1.60e-02,
19,2.00e-02,
20,2.00e-02,
21,-1.20e-02,
22,2.00e-02,
23,-1.60e-02,
24,2.00e-02,
25,-1.60e-02,
26,1.80e-01,
27,-1.20e-02,
28,-1.60e-02,
29,2.40e-02,
30,-1.20e-02,
31,2.40e-02,
32,-1.60e-02,
33,2.00e-02,
34,2.00e-02,
35,-2.00e-02,
36,2.00e-02,
37,-1.60e-02,
38,2.40e-02,
39,-1.60e-02,
40,2.00e-02,
41,-2.00e-02,
42,2.40e-02,
43,-2.00e-02,
44,-2.40e-02,
45,2.80e-02,
46,-2.00e-02,
47,2.00e-02,
48,-1.60e-02,
49,2.00e-02,
50,2.40e-01,
51,-2.40e-02,
52,-1.60e-02,
53,2.00e-02,
54,-1.20e-02,
55,2.00e-02,
56,-1.20e-02,
57,2.00e-02,
58,2.00e-02,
59,-1.20e-02,
60,2.00e-02,
61,-1.60e-02,
62,2.00e-02,
63,-1.60e-02,
64,1.60e-02,
65,-1.60e-02,
66,-1.60e-02,
67,2.40e-02,
68,2.00e-02,
69,-1.60e-02,
70,-1.60e-02,
71,2.40e-02,
72,2.00e-02,
73,-1.60e-02,
74,-1.60e-02,
75,1.60e-02,
76,2.40e-02,
77,-1.60e-02,
78,2.00e-02,
79,-1.60e-02,
80,-2.00e-02,
81,2.40e-02,
82,2.40e-02,
83,-1.60e-02,
84,2.80e-02,
85,-2.00e-02,
86,2.40e-02,
87,-2.00e-02,
88,-2.80e-02,
89,2.40e-02,
90,-1.20e-02,
91,2.40e-02,
92,-1.60e-02,
93,2.00e-02,
94,2.00e-02,
95,-1.60e-02,
96,-1.60e-02,
97,2.40e-02,
98,-1.60e-02,
99,2.00e-02,
100,-1.28e-01,
101,2.56e-01,
102,1.60e-02,
103,-1.20e-02,
104,-1.20e-02,
105,2.00e-02,
106,-1.60e-02,
107,2.00e-02,
108,2.80e-02,
109,-2.00e-02,
110,2.00e-02,
111,-1.60e-02,
112,2.40e-02,
113,-1.60e-02,
114,-2.00e-02,
115,2.00e-02,
116,-1.60e-02,
117,2.40e-02,
118,-1.60e-02,
119,2.40e-02,
120,2.80e-02,
121,-2.40e-02,
122,2.40e-02,
123,-2.00e-02,
124,-2.00e-02,
125,2.80e-02,
126,1.28e-01,
127,-4.00e-02,
128,-2.40e-02,
129,2.40e-02,
130,2.40e-02,
131,-2.00e-02,
132,2.00e-02,
133,-1.60e-02,
134,-1.60e-02,
135,2.40e-02,
136,-1.60e-02,
137,2.00e-02,
138,-1.20e-02,
139,2.00e-02,
140,1.60e-02,
141,-1.20e-02,
142,1.60e-02,
143,-1.60e-02,
144,-1.60e-02,
145,2.00e-02,
146,-1.20e-02,
147,2.00e-02,
148,1.60e-02,
149,-1.60e-02,
150,2.00e-02,
151,-1.60e-02,
152,-5.20e-02,
153,2.00e-02,
154,2.00e-02,
155,-2.00e-02,
156,2.00e-02,
157,-1.60e-02,
158,-1.20e-02,
159,2.00e-02,
160,-1.60e-02,
161,2.00e-02,
162,2.40e-02,
163,-2.00e-02,
164,-2.00e-02,
165,2.40e-02,
166,-2.00e-02,
167,2.40e-02,
168,-2.00e-02,
169,2.00e-02,
170,2.40e-02,
171,-2.40e-02,
172,-1.60e-02,
173,2.00e-02,
174,2.00e-02,
175,-1.20e-02,
176,5.60e-02,
177,-1.16e-01,
178,-1.60e-02,
179,2.00e-02,
180,2.00e-02,
181,-1.60e-02,
182,-1.20e-02,
183,2.00e-02,
184,-1.60e-02,
185,2.00e-02,
186,-2.00e-02,
187,2.00e-02,
188,-1.60e-02,
189,2.00e-02,
190,2.00e-02,
191,-2.00e-02,
192,-1.60e-02,
193,2.00e-02,
194,2.00e-02,
195,-1.60e-02,
196,2.40e-02,
197,-1.60e-02,
198,2.00e-02,
199,-1.60e-02,
200,2.40e-02,
201,-1.60e-02,
202,-2.16e-01,
203,1.48e-01,
204,-2.40e-02,
205,2.80e-02,
206,-2.80e-02,
207,3.20e-02,
208,-1.60e-02,
209,2.80e-02,
210,2.80e-02,
211,-2.40e-02,
212,2.40e-02,
213,-2.40e-02,
214,2.40e-02,
215,-1.60e-02,
216,2.00e-02,
217,-1.60e-02,
218,1.60e-02,
219,-1.60e-02,
220,-1.60e-02,
221,2.00e-02,
222,-1.20e-02,
223,1.60e-02,
224,-1.60e-02,
225,2.00e-02,
226,-1.60e-02,
227,2.00e-02,
228,-1.20e-02,
229,1.68e-01,
230,2.00e-02,
231,-1.20e-02,
232,1.60e-02,
233,-1.60e-02,
234,-1.60e-02,
235,1.60e-02,
236,-1.60e-02,
237,2.00e-02,
238,-1.60e-02,
239,1.60e-02,
240,2.00e-02,
241,-1.60e-02,
242,2.00e-02,
243,-1.60e-02,
244,2.00e-02,
245,-1.60e-02,
246,-2.00e-02,
247,2.80e-02,
248,2.40e-02,
249,-2.40e-02,
250,-2.40e-02,
251,2.80e-02,
252,-2.00e-02,
253,2.80e-02,
254,-9.20e-02,
255,3.20e-02,
256,-2.00e-02,
257,2.00e-02,
258,1.60e-02,
259,-1.60e-02,
260,2.00e-02,
261,-2.00e-02,
262,-2.00e-02,
263,1.60e-02,
264,-1.60e-02,
265,2.00e-02,
266,-1.60e-02,
267,1.60e-02,
268,-1.60e-02,
269,2.00e-02,
270,1.60e-02,
271,-1.20e-02,
272,2.00e-02,
273,-2.00e-02,
274,-2.00e-02,
275,2.40e-02,
276,2.40e-02,
277,-1.60e-02,
278,-1.60e-02,
279,6.80e-02,
280,-2.00e-02,
281,2.40e-02,
282,-1.60e-02,
283,2.80e-02,
284,-1.60e-02,
285,2.40e-02,
286,-1.60e-02,
287,2.40e-02,
288,2.80e-02,
289,-2.40e-02,
290,-2.00e-02,
291,2.40e-02,
292,2.00e-02,
293,-2.00e-02,
294,-1.60e-02,
295,2.40e-02,
296,-2.40e-02,
297,2.80e-02,
298,1.60e-02,
299,-2.00e-02,
300,1.60e-02,
301,-1.60e-02,
302,-1.20e-02,
303,1.04e-01,
304,1.60e-02,
305,-1.60e-02,
306,1.60e-02,
307,-1.20e-02,
308,-1.20e-02,
309,2.00e-02,
310,2.00e-02,
311,-1.60e-02,
312,-1.60e-02,
313,1.60e-02,
314,2.40e-02,
315,-2.00e-02,
316,2.00e-02,
317,-2.00e-02,
318,2.00e-02,
319,-2.00e-02,
320,2.00e-02,
321,-2.00e-02,
322,-1.60e-02,
323,2.00e-02,
324,-1.60e-02,
325,2.00e-02,
326,2.80e-02,
327,-2.00e-02,
328,9.20e-02,
329,-7.20e-02,
330,-2.40e-02,
331,2.80e-02,
332,-2.40e-02,
333,2.80e-02,
334,2.00e-02,
335,-2.40e-02,
336,2.80e-02,
337,-2.00e-02,
338,2.40e-02,
339,-2.40e-02,
340,2.00e-02,
341,-1.60e-02,
342,2.00e-02,
343,-1.60e-02,
344,-1.60e-02,
345,2.00e-02,
346,-1.60e-02,
347,2.00e-02,
348,2.00e-02,
349,-1.20e-02,
350,1.60e-02,
351,-1.60e-02,
352,1.60e-02,
353,-1.20e-02,
354,3.60e-02,
355,-2.00e-02,
356,-1.60e-02,
357,2.00e-02,
358,-1.60e-02,
359,2.00e-02,
360,2.40e-02,
361,-2.00e-02,
362,2.80e-02,
363,-1.60e-02,
364,2.80e-02,
365,-1.60e-02,
366,-2.40e-02,
367,2.80e-02,
368,2.40e-02,
369,-2.00e-02,
370,-1.60e-02,
371,2.00e-02,
372,2.80e-02,
373,-2.40e-02,
374,2.80e-02,
375,-2.00e-02,
376,-2.00e-02,
377,2.80e-02,
378,-2.40e-02,
379,2.40e-02,
380,-1.12e-01,
381,2.32e-01,
382,2.00e-02,
383,-1.60e-02,
384,2.00e-02,
385,-1.20e-02,
386,-1.20e-02,
387,2.00e-02,
388,-1.60e-02,
389,2.00e-02,
390,-1.20e-02,
391,2.00e-02,
392,2.00e-02,
393,-1.20e-02,
394,2.00e-02,
395,-1.60e-02,
396,-1.60e-02,
397,2.00e-02,
398,-2.00e-02,
399,2.00e-02,
400,2.00e-02,
401,-2.00e-02,
402,2.80e-02,
403,-1.60e-02,
404,2.00e-02,
405,-1.60e-02,
406,-2.08e-01,
407,7.20e-02,
408,2.00e-02,
409,-2.00e-02,
410,2.00e-02,
411,-1.60e-02,
412,2.80e-02,
413,-2.00e-02,
414,-2.40e-02,
415,2.40e-02,
416,2.48e-01,
417,-1.16e-01,
418,2.80e-02,
419,-2.00e-02,
420,2.40e-02,
421,-2.40e-02,
422,-2.00e-02,
423,2.00e-02,
424,-2.00e-02,
425,2.00e-02,
426,1.60e-02,
427,-1.60e-02,
428,-1.60e-02,
429,2.04e-01,
430,-1.60e-02,
431,2.00e-02,
432,-1.20e-02,
433,2.00e-02,
434,2.00e-02,
435,-1.60e-02,
436,1.60e-02,
437,-2.00e-02,
438,8.80e-02,
439,-2.00e-02,
440,2.40e-02,
441,-1.60e-02,
442,2.40e-02,
443,-2.40e-02,
444,-2.00e-02,
445,2.40e-02,
446,2.80e-02,
447,-2.00e-02,
448,-2.00e-02,
449,2.40e-02,
450,-1.60e-02,
451,2.80e-02,
452,2.00e-02,
453,-1.60e-02,
454,-1.60e-02,
455,2.80e-02,
456,2.40e-02,
457,-2.00e-02,
458,2.80e-02,
459,-2.00e-02,
460,-2.40e-02,
461,2.80e-02,
462,2.00e-02,
463,-4.80e-02,
464,2.00e-02,
465,-1.60e-02,
466,-1.60e-02,
467,2.00e-02,
468,1.60e-02,
469,-1.20e-02,
470,2.00e-02,
471,-1.60e-02,
472,1.60e-02,
473,-1.20e-02,
474,1.60e-02,
475,-1.60e-02,
476,2.00e-02,
477,-1.60e-02,
478,-1.20e-02,
479,2.00e-02,
480,-1.20e-02,
481,2.00e-02,
482,2.40e-02,
483,-2.40e-02,
484,2.40e-02,
485,-2.00e-02,
486,-1.60e-02,
487,2.00e-02,
488,-1.60e-02,
489,2.00e-02,
490,-1.20e-02,
491,2.40e-02,
492,1.84e-01,
493,-1.36e-01,
494,2.40e-02,
495,-2.00e-02,
496,-2.40e-02,
497,3.20e-02,
498,2.40e-02,
499,-2.80e-02,
500,2.40e-02,
501,-2.40e-02,
502,-1.60e-02,
503,2.40e-02,
504,2.00e-02,
505,-1.60e-02,
506,2.00e-02,
507,-1.60e-02,
508,-1.60e-02,
509,2.00e-02,
510,1.60e-02,
511,-2.00e-02,
512,-1.60e-02,
513,1.60e-02,
514,-1.20e-02,
515,2.00e-02,
516,1.60e-02,
517,-1.60e-02,
518,-2.00e-01,
519,1.20e-01,
520,-1.60e-02,
521,2.00e-02,
522,-2.00e-02,
523,2.40e-02,
524,-2.00e-02,
525,2.40e-02,
526,2.40e-02,
527,-2.00e-02,
528,2.80e-02,
529,-2.00e-02,
530,-1.60e-02,
531,2.40e-02,
532,-2.00e-02,
533,2.40e-02,
534,-1.60e-02,
535,2.80e-02,
536,-1.60e-02,
537,2.40e-02,
538,-2.00e-02,
539,2.80e-02,
540,-2.00e-02,
541,2.40e-02,
542,-1.60e-02,
543,2.00e-02,
544,-2.00e-02,
545,2.00e-02,
546,1.60e-01,
547,-1.60e-02,
548,2.00e-02,
549,-1.60e-02,
550,-1.20e-02,
551,2.00e-02,
552,2.00e-02,
553,-1.60e-02,
554,1.60e-02,
555,-2.00e-02,
556,1.60e-02,
557,-1.60e-02,
558,-1.20e-02,
559,2.00e-02,
560,2.00e-02,
561,-1.60e-02,
562,2.00e-02,
563,-2.00e-02,
564,2.00e-02,
565,-1.60e-02,
566,-1.20e-02,
567,2.00e-02,
568,-1.20e-02,
569,2.40e-02,
570,2.40e-02,
571,-2.00e-02,
572,-1.68e-01,
573,4.00e-02,
574,2.00e-02,
575,-2.00e-02,
576,2.00e-02,
577,-2.00e-02,
578,2.00e-02,
579,-1.60e-02,
580,2.40e-02,
581,-2.00e-02,
582,2.40e-02,
583,-2.00e-02,
584,-2.00e-02,
585,2.00e-02,
586,-2.00e-02,
587,2.40e-02,
588,-1.60e-02,
589,2.40e-02,
590,1.60e-02,
591,-1.60e-02,
592,-1.20e-02,
593,2.00e-02,
594,2.00e-02,
595,-1.60e-02,
596,1.60e-02,
597,-1.20e-02,
598,1.60e-02,
599,-2.12e-01,
600,-1.60e-02,
601,2.00e-02,
602,-1.60e-02,
603,2.00e-02,
604,-1.20e-02,
605,2.00e-02,
606,2.40e-02,
607,-2.00e-02,
608,2.40e-02,
609,-1.60e-02,
610,2.40e-02,
611,-2.00e-02,
612,-2.00e-02,
613,2.40e-02,
614,2.00e-02,
615,-1.60e-02,
616,2.00e-02,
617,-2.80e-02,
618,-1.60e-02,
619,2.40e-02,
620,2.40e-02,
621,-2.00e-02,
622,-2.00e-02,
623,2.40e-02,
624,-7.20e-02,
625,2.40e-02,
626,2.40e-02,
627,-2.00e-02,
628,2.80e-02,
629,-1.60e-02,
630,2.00e-02,
631,-2.00e-02,
632,-1.60e-02,
633,2.00e-02,
634,1.60e-02,
635,-1.60e-02,
636,-1.20e-02,
637,2.00e-02,
638,1.60e-02,
639,-1.60e-02,
640,-1.60e-02,
641,2.00e-02,
642,1.60e-02,
643,-1.60e-02,
644,2.00e-02,
645,-1.60e-02,
646,2.00e-02,
647,-1.60e-02,
648,2.40e-02,
649,-1.60e-02,
650,2.16e-01,
651,-2.40e-02,
652,-1.60e-02,
653,2.00e-02,
654,-2.00e-02,
655,2.00e-02,
656,-1.20e-02,
657,1.60e-02,
658,-2.00e-02,
659,2.40e-02,
660,-1.60e-02,
661,2.00e-02,
662,-2.00e-02,
663,2.40e-02,
664,2.40e-02,
665,-2.00e-02,
666,-2.00e-02,
667,2.80e-02,
668,-1.60e-02,
669,2.00e-02,
670,-2.00e-02,
671,2.40e-02,
672,-2.00e-02,
673,2.00e-02,
674,-1.88e-01,
675,2.80e-02,
676,2.00e-02,
677,-1.60e-02,
678,-1.20e-02,
679,1.60e-02,
680,1.60e-02,
681,-1.60e-02,
682,2.00e-02,
683,-1.20e-02,
684,-1.20e-02,
685,2.00e-02,
686,2.00e-02,
687,-1.60e-02,
688,-1.60e-02,
689,2.00e-02,
690,-2.00e-02,
691,2.40e-02,
692,2.00e-02,
693,-1.60e-02,
694,2.00e-02,
695,-2.40e-02,
696,2.00e-02,
697,-1.60e-02,
698,-1.96e-01,
699,3.60e-02,
700,-1.60e-02,
701,2.00e-02,
702,2.00e-02,
703,-2.00e-02,
704,2.40e-02,
705,-2.00e-02,
706,-1.60e-02,
707,2.80e-02,
708,-2.40e-02,
709,2.40e-02,
710,-2.40e-02,
711,2.80e-02,
712,-2.00e-02,
713,2.80e-02,
714,2.00e-02,
715,-1.60e-02,
716,-1.60e-02,
717,2.40e-02,
718,1.60e-02,
719,-2.00e-02,
720,2.00e-02,
721,-1.60e-02,
722,-2.00e-02,
723,2.00e-02,
724,-2.00e-02,
725,2.00e-02,
726,-1.60e-01,
727,2.20e-01,
728,2.00e-02,
729,-1.60e-02,
730,-1.60e-02,
731,2.40e-02,
732,2.00e-02,
733,-1.60e-02,
734,1.60e-02,
735,-2.00e-02,
736,2.00e-02,
737,-1.60e-02,
738,2.00e-02,
739,-2.00e-02,
740,2.40e-02,
741,-2.00e-02,
742,-1.60e-02,
743,2.00e-02,
744,-1.60e-02,
745,2.00e-02,
746,-1.60e-02,
747,2.00e-02,
748,-2.00e-02,
749,2.40e-02,
750,2.40e-02,
751,-2.00e-02,
752,6.00e-02,
753,-1.60e-02,
754,-1.60e-02,
755,2.00e-02,
756,1.60e-02,
757,-1.60e-02,
758,-1.60e-02,
759,2.00e-02,
760,-1.60e-02,
761,2.00e-02,
762,-1.20e-02,
763,2.00e-02,
764,-1.20e-02,
765,2.00e-02,
766,2.00e-02,
767,-1.20e-02,
768,-1.20e-02,
769,2.00e-02,
770,1.60e-02,
771,-1.20e-02,
772,2.00e-02,
773,-1.60e-02,
774,-2.00e-02,
775,2.40e-02,
776,-1.60e-02,
777,2.40e-02,
778,2.32e-01,
779,-6.40e-02,
780,2.00e-02,
781,-2.00e-02,
782,-1.60e-02,
783,2.00e-02,
784,-1.60e-02,
785,2.00e-02,
786,2.00e-02,
787,-1.60e-02,
788,2.00e-02,
789,-1.60e-02,
790,-2.00e-02,
791,2.40e-02,
792,2.40e-02,
793,-1.60e-02,
794,-2.00e-02,
795,2.40e-02,
796,-1.60e-02,
797,2.40e-02,
798,-1.20e-02,
799,2.00e-02,
800,2.00e-02,
801,-1.60e-02,
802,-1.68e-01,
803,3.20e-02,
804,-2.00e-02,
805,2.00e-02,
806,2.00e-02,
807,-1.60e-02,
808,-1.60e-02,
809,2.00e-02,
810,2.00e-02,
811,-1.60e-02,
812,-1.20e-02,
813,2.00e-02,
814,2.00e-02,
815,-1.60e-02,
816,-1.60e-02,
817,2.00e-02,
818,-1.60e-02,
819,2.40e-02,
820,-1.60e-02,
821,2.00e-02,
822,1.60e-02,
823,-1.60e-02,
824,1.60e-02,
825,-2.00e-02,
826,2.00e-02,
827,-1.60e-02,
828,-2.12e-01,
829,2.00e-02,
830,2.00e-02,
831,-2.00e-02,
832,2.00e-02,
833,-1.60e-02,
834,2.40e-02,
835,-2.00e-02,
836,-2.00e-02,
837,2.40e-02,
838,-1.60e-02,
839,2.40e-02,
840,-1.20e-02,
841,2.40e-02,
842,-1.60e-02,
843,2.00e-02,
844,-1.20e-02,
845,1.60e-02,
846,1.60e-02,
847,-1.60e-02,
848,-1.20e-02,
849,2.40e-02,
850,1.60e-02,
851,-1.20e-02,
852,-1.60e-02,
853,1.36e-01,
854,-2.00e-02,
855,2.00e-02,
856,2.80e-02,
857,-2.00e-02,
858,2.00e-02,
859,-2.00e-02,
860,2.40e-02,
861,-2.00e-02,
862,-1.60e-02,
863,2.40e-02,
864,-1.60e-02,
865,2.40e-02,
866,2.40e-02,
867,-1.60e-02,
868,1.60e-02,
869,-1.60e-02,
870,-2.40e-02,
871,2.80e-02,
872,-2.40e-02,
873,2.40e-02,
874,-2.00e-02,
875,2.40e-02,
876,-3.60e-02,
877,2.80e-02,
878,2.40e-02,
879,-2.00e-02,
880,-2.00e-02,
881,2.40e-02,
882,-1.60e-02,
883,2.00e-02,
884,-1.20e-02,
885,2.00e-02,
886,-1.20e-02,
887,2.00e-02,
888,2.00e-02,
889,-1.20e-02,
890,-1.20e-02,
891,2.00e-02,
892,2.00e-02,
893,-1.60e-02,
894,1.60e-02,
895,-1.60e-02,
896,-1.60e-02,
897,2.00e-02,
898,-2.00e-02,
899,2.00e-02,
900,-1.60e-02,
901,2.00e-02,
902,2.40e-02,
903,-2.00e-02,
904,2.00e-02,
905,-3.60e-02,
906,-1.60e-02,
907,1.60e-02,
908,-1.60e-02,
909,2.00e-02,
910,-1.20e-02,
911,2.40e-02,
912,2.00e-02,
913,-2.00e-02,
914,2.00e-02,
915,-2.00e-02,
916,2.00e-02,
917,-1.60e-02,
918,2.80e-02,
919,-2.40e-02,
920,-2.00e-02,
921,2.40e-02,
922,-2.00e-02,
923,2.40e-02,
924,1.60e-02,
925,-1.60e-02,
926,-1.20e-02,
927,2.00e-02,
928,1.32e-01,
929,-5.60e-02,
930,2.00e-02,
931,-1.20e-02,
932,-1.20e-02,
933,2.00e-02,
934,-1.20e-02,
935,2.00e-02,
936,-1.20e-02,
937,2.40e-02,
938,2.00e-02,
939,-1.60e-02,
940,2.40e-02,
941,-2.00e-02,
942,-1.60e-02,
943,2.40e-02,
944,-1.60e-02,
945,2.40e-02,
946,2.00e-02,
947,-2.00e-02,
948,2.00e-02,
949,-1.60e-02,
950,2.80e-02,
951,-2.00e-02,
952,-2.00e-02,
953,2.00e-02,
954,-4.40e-02,
955,2.40e-02,
956,-2.00e-02,
957,2.00e-02,
958,-1.60e-02,
959,2.40e-02,
960,-1.60e-02,
961,2.80e-02,
962,2.40e-02,
963,-2.40e-02,
964,-1.60e-02,
965,2.00e-02,
966,-1.20e-02,
967,2.40e-02,
968,-1.20e-02,
969,2.00e-02,
970,-1.20e-02,
971,2.00e-02,
972,1.60e-02,
973,-2.00e-02,
974,-1.20e-02,
975,1.60e-02,
976,-1.20e-02,
977,2.00e-02,
978,1.60e-02,
979,-1.60e-02,
980,2.00e-02,
981,-5.20e-02,
982,-1.60e-02,
983,2.00e-02,
984,2.00e-02,
985,-2.00e-02,
986,1.60e-02,
987,-1.60e-02,
988,-1.60e-02,
989,2.40e-02,
990,-1.20e-02,
991,1.60e-02,
992,2.00e-02,
993,-1.60e-02,
994,-1.20e-02,
995,2.40e-02,
996,-1.60e-02,
997,2.40e-02,
998,-2.00e-02,
999,2.40e-02,
1000,-1.60e-02,
1001,2.80e-02,
1002,2.80e-02,
1003,-2.00e-02,
1004,2.40e-02,
1005,-2.00e-02,
1006,4.00e-02,
1007,-7.60e-02,
1008,-1.20e-02,
1009,2.00e-02,
1010,2.40e-02,
1011,-1.60e-02,
1012,-1.20e-02,
1013,2.40e-02,
1014,-1.20e-02,
1015,2.00e-02,
1016,-1.20e-02,
1017,2.00e-02,
1018,-1.60e-02,
1019,2.00e-02,
1020,1.60e-02,
1021,-1.20e-02,
1022,1.60e-02,
1023,-1.60e-02,
1024,2.00e-02,
1025,-1.20e-02,
1026,-1.60e-02,
1027,2.40e-02,
1028,-2.00e-02,
1029,2.40e-02,
1030,-1.60e-02,
1031,2.00e-02,
1032,-4.80e-02,
1033,2.40e-02,
1034,-1.60e-02,
1035,2.40e-02,
1036,2.00e-02,
1037,-2.00e-02,
1038,2.40e-02,
1039,-2.40e-02,
1040,-2.40e-02,
1041,2.80e-02,
1042,2.40e-02,
1043,-1.60e-02,
1044,-2.00e-02,
1045,2.80e-02,
1046,-2.00e-02,
1047,2.40e-02,
1048,2.00e-02,
1049,-1.20e-02,
1050,-1.60e-02,
1051,2.00e-02,
1052,-1.20e-02,
1053,2.00e-02,
1054,2.00e-02,
1055,-1.60e-02,
1056,1.60e-02,
1057,-1.60e-02,
1058,-4.80e-02,
1059,2.00e-01,
1060,-1.60e-02,
1061,2.00e-02,
1062,-1.60e-02,
1063,2.00e-02,
1064,-2.00e-02,
1065,2.00e-02,
1066,2.00e-02,
1067,-1.60e-02,
1068,2.00e-02,
1069,-1.20e-02,
1070,-1.20e-02,
1071,2.00e-02,
1072,2.00e-02,
1073,-2.00e-02,
1074,2.00e-02,
1075,-1.60e-02,
1076,2.00e-02,
1077,-1.60e-02,
1078,-2.00e-02,
1079,2.40e-02,
1080,-1.60e-02,
1081,2.80e-02,
1082,-2.00e-02,
1083,2.40e-02,
1084,-4.80e-02,
1085,1.56e-01,
1086,-2.00e-02,
1087,2.80e-02,
1088,-2.00e-02,
1089,2.40e-02,
1090,2.00e-02,
1091,-2.00e-02,
1092,-1.20e-02,
1093,2.00e-02,
1094,1.60e-02,
1095,-1.20e-02,
1096,-1.20e-02,
1097,2.00e-02,
1098,-1.20e-02,
1099,2.00e-02,
1100,-1.20e-02,
1101,2.00e-02,
1102,-1.20e-02,
1103,2.40e-02,
1104,-1.20e-02,
1105,2.00e-02,
1106,-1.20e-02,
1107,2.00e-02,
1108,2.40e-02,
1109,-2.00e-02,
1110,2.00e-02,
1111,-7.60e-02,
1112,-1.60e-02,
1113,2.00e-02,
1114,2.00e-02,
1115,-1.60e-02,
1116,2.00e-02,
1117,-1.60e-02,
1118,2.40e-02,
1119,-2.00e-02,
1120,2.80e-02,
1121,-2.40e-02,
1122,-2.40e-02,
1123,2.40e-02,
1124,-2.00e-02,
1125,2.80e-02,
1126,-2.00e-02,
1127,2.40e-02,
1128,2.80e-02,
1129,-2.00e-02,
1130,2.80e-02,
1131,-2.40e-02,
1132,2.00e-02,
1133,-1.60e-02,
1134,2.00e-02,
1135,-1.60e-02,
1136,-1.16e-01,
1137,2.80e-02,
1138,-1.60e-02,
1139,2.00e-02,
1140,-1.20e-02,
1141,1.60e-02,
1142,1.60e-02,
1143,-1.20e-02,
1144,2.00e-02,
1145,-1.60e-02,
1146,1.60e-02,
1147,-1.20e-02,
1148,1.60e-02,
1149,-1.60e-02,
1150,1.60e-02,
1151,-1.20e-02,
1152,2.00e-02,
1153,-1.60e-02,
1154,2.00e-02,
1155,-1.60e-02,
1156,-1.60e-02,
1157,2.00e-02,
1158,-2.00e-02,
1159,2.00e-02,
1160,2.00e-02,
1161,-1.60e-02,
1162,-1.32e-01,
1163,1.88e-01,
1164,2.80e-02,
1165,-2.40e-02,
1166,2.40e-02,
1167,-2.40e-02,
1168,-2.00e-02,
1169,2.80e-02,
1170,-1.60e-02,
1171,2.40e-02,
1172,2.40e-02,
1173,-2.00e-02,
1174,-1.20e-02,
1175,2.00e-02,
1176,-1.60e-02,
1177,1.60e-02,
1178,1.60e-02,
1179,-1.20e-02,
1180,-1.20e-02,
1181,2.00e-02,
1182,2.00e-02,
1183,-1.60e-02,
1184,2.00e-02,
1185,-1.20e-02,
1186,1.60e-02,
1187,-2.00e-02,
1188,2.40e-02,
1189,-1.60e-02,
1190,2.00e-02,
1191,-2.00e-02,
1192,-1.60e-02,
1193,2.40e-02,
1194,2.00e-02,
1195,-2.00e-02,
1196,-1.60e-02,
1197,2.40e-02,
1198,-2.00e-02,
1199,2.40e-02,
