Laptop_1/LAPTOP_CHRGR_1_OFF/time domain/NewFile10.csv

X,CH1,Start,Increment,
Sequence,Volt,-1.500000e-01,2.000000e-04
0,-3.20e-02,
1,2.80e-02,
2,-2.40e-02,
3,2.80e-02,
4,2.40e-02,
5,-2.40e-02,
6,3.20e-02,
7,-2.40e-02,
8,2.80e-02,
9,-2.40e-02,
10,2.40e-02,
11,-2.00e-02,
12,5.20e-02,
13,-2.00e-02,
14,-1.48e-01,
15,5.60e-02,
16,-2.00e-02,
17,2.40e-02,
18,2.00e-02,
19,-2.00e-02,
20,-1.60e-02,
21,2.40e-02,
22,2.40e-02,
23,-1.60e-02,
24,-2.00e-02,
25,2.40e-02,
26,2.00e-02,
27,-2.00e-02,
28,2.40e-02,
29,-1.60e-02,
30,-1.60e-02,
31,2.00e-02,
32,-2.00e-02,
33,2.80e-02,
34,2.00e-02,
35,-2.00e-02,
36,2.00e-02,
37,-2.00e-02,
38,-2.00e-02,
39,3.20e-02,
40,2.40e-02,
41,-2.40e-02,
42,-2.40e-02,
43,2.80e-02,
44,-2.00e-02,
45,3.20e-02,
46,2.40e-02,
47,-2.80e-02,
48,2.40e-02,
49,-2.00e-02,
50,-3.60e-02,
51,3.20e-02,
52,-2.00e-02,
53,2.40e-02,
54,-1.60e-02,
55,2.00e-02,
56,2.40e-02,
57,-2.40e-02,
58,-1.60e-02,
59,2.40e-02,
60,2.40e-02,
61,-2.00e-02,
62,2.00e-02,
63,-1.60e-02,
64,2.00e-02,
65,-3.20e-02,
66,-1.60e-02,
67,2.00e-02,
68,-2.00e-02,
69,2.80e-02,
70,2.80e-02,
71,-2.00e-02,
72,2.00e-02,
73,-2.00e-02,
74,2.40e-02,
75,-2.40e-02,
76,-1.60e-02,
77,2.40e-02,
78,2.80e-02,
79,-2.00e-02,
80,-2.40e-02,
81,2.80e-02,
82,-2.00e-02,
83,3.20e-02,
84,-2.80e-02,
85,3.20e-02,
86,-6.80e-02,
87,1.88e-01,
88,2.80e-02,
89,-2.80e-02,
90,-2.00e-02,
91,2.80e-02,
92,2.80e-02,
93,-2.40e-02,
94,-1.60e-02,
95,2.40e-02,
96,2.40e-02,
97,-2.00e-02,
98,2.00e-02,
99,-1.60e-02,
100,-1.60e-02,
101,2.00e-02,
102,2.40e-02,
103,-1.60e-02,
104,-1.60e-02,
105,2.40e-02,
106,-1.20e-02,
107,2.40e-02,
108,2.00e-02,
109,-1.60e-02,
110,2.40e-02,
111,-2.40e-02,
112,-7.20e-02,
113,2.40e-02,
114,-2.00e-02,
115,2.40e-02,
116,-2.00e-02,
117,3.20e-02,
118,2.40e-02,
119,-2.40e-02,
120,-2.00e-02,
121,2.40e-02,
122,2.40e-02,
123,-2.00e-02,
124,2.40e-02,
125,-2.40e-02,
126,-2.80e-02,
127,2.80e-02,
128,-2.40e-02,
129,2.80e-02,
130,2.40e-02,
131,-2.00e-02,
132,-2.00e-02,
133,2.80e-02,
134,-1.60e-02,
135,2.40e-02,
136,-2.04e-01,
137,4.00e-02,
138,2.40e-02,
139,-1.60e-02,
140,2.40e-02,
141,-1.60e-02,
142,-1.60e-02,
143,2.40e-02,
144,-1.60e-02,
145,2.40e-02,
146,2.00e-02,
147,-2.00e-02,
148,2.00e-02,
149,-2.00e-02,
150,-1.60e-02,
151,2.00e-02,
152,-2.00e-02,
153,2.80e-02,
154,-2.40e-02,
155,2.00e-02,
156,2.40e-02,
157,-2.00e-02,
158,-1.60e-02,
159,2.80e-02,
160,-8.00e-02,
161,1.72e-01,
162,-2.40e-02,
163,2.80e-02,
164,2.40e-02,
165,-2.00e-02,
166,2.40e-02,
167,-2.40e-02,
168,-2.40e-02,
169,2.80e-02,
170,-2.40e-02,
171,2.80e-02,
172,-2.00e-02,
173,2.80e-02,
174,-2.40e-02,
175,3.20e-02,
176,-1.60e-02,
177,2.40e-02,
178,2.00e-02,
179,-2.00e-02,
180,-1.60e-02,
181,2.40e-02,
182,2.00e-02,
183,-1.60e-02,
184,-2.00e-02,
185,2.40e-02,
186,-2.00e-01,
187,2.00e-02,
188,-2.00e-02,
189,2.00e-02,
190,-1.60e-02,
191,2.40e-02,
192,-1.60e-02,
193,2.40e-02,
194,2.40e-02,
195,-2.00e-02,
196,-2.00e-02,
197,2.80e-02,
198,1.60e-02,
199,-2.00e-02,
200,-2.00e-02,
201,2.00e-02,
202,-1.60e-02,
203,2.40e-02,
204,2.00e-02,
205,-2.40e-02,
206,2.40e-02,
207,-2.00e-02,
208,2.40e-02,
209,-2.00e-02,
210,-2.40e-02,
211,4.00e-02,
212,-2.40e-02,
213,2.80e-02,
214,2.80e-02,
215,-2.40e-02,
216,-2.00e-02,
217,3.20e-02,
218,2.40e-02,
219,-2.00e-02,
220,-2.00e-02,
221,2.00e-02,
222,-1.60e-02,
223,2.00e-02,
224,2.40e-02,
225,-2.00e-02,
226,2.00e-02,
227,-1.60e-02,
228,-1.60e-02,
229,2.40e-02,
230,-1.60e-02,
231,2.00e-02,
232,2.00e-02,
233,-2.40e-02,
234,2.00e-02,
235,-4.40e-02,
236,-2.40e-02,
237,2.00e-02,
238,-2.40e-02,
239,2.80e-02,
240,2.40e-02,
241,-2.00e-02,
242,2.80e-02,
243,-2.40e-02,
244,-2.80e-02,
245,4.40e-02,
246,-2.40e-02,
247,2.80e-02,
248,2.00e-02,
249,-1.60e-02,
250,2.80e-02,
251,-2.40e-02,
252,-2.40e-02,
253,2.80e-02,
254,-2.00e-02,
255,2.80e-02,
256,2.80e-02,
257,-2.40e-02,
258,2.80e-02,
259,-2.80e-02,
260,-2.00e-01,
261,1.08e-01,
262,2.40e-02,
263,-2.00e-02,
264,2.00e-02,
265,-2.40e-02,
266,-1.60e-02,
267,2.40e-02,
268,-1.60e-02,
269,2.00e-02,
270,-1.60e-02,
271,2.00e-02,
272,-1.60e-02,
273,2.00e-02,
274,2.40e-02,
275,-2.00e-02,
276,2.00e-02,
277,-2.00e-02,
278,-2.00e-02,
279,2.40e-02,
280,-2.40e-02,
281,2.40e-02,
282,2.40e-02,
283,-2.00e-02,
284,2.32e-01,
285,-2.16e-01,
286,2.40e-02,
287,-2.40e-02,
288,2.40e-02,
289,-2.00e-02,
290,-1.60e-02,
291,2.80e-02,
292,-2.80e-02,
293,3.20e-02,
294,2.40e-02,
295,-2.80e-02,
296,2.80e-02,
297,-2.40e-02,
298,2.40e-02,
299,-2.40e-02,
300,2.40e-02,
301,-2.00e-02,
302,2.00e-02,
303,-1.60e-02,
304,2.40e-02,
305,-2.00e-02,
306,2.40e-02,
307,-1.60e-02,
308,-1.60e-02,
309,2.00e-02,
310,1.64e-01,
311,-1.60e-02,
312,-1.60e-02,
313,2.40e-02,
314,2.40e-02,
315,-2.00e-02,
316,-1.60e-02,
317,2.00e-02,
318,2.40e-02,
319,-2.00e-02,
320,-2.40e-02,
321,2.80e-02,
322,-2.00e-02,
323,2.80e-02,
324,2.80e-02,
325,-2.00e-02,
326,2.40e-02,
327,-2.40e-02,
328,2.40e-02,
329,-2.00e-02,
330,-2.00e-02,
331,2.80e-02,
332,2.80e-02,
333,-2.40e-02,
334,-2.24e-01,
335,3.20e-02,
336,-2.00e-02,
337,2.80e-02,
338,2.80e-02,
339,-2.80e-02,
340,2.80e-02,
341,-2.00e-02,
342,2.00e-02,
343,-2.40e-02,
344,-1.60e-02,
345,2.40e-02,
346,2.40e-02,
347,-2.40e-02,
348,2.00e-02,
349,-1.60e-02,
350,2.40e-02,
351,-2.00e-02,
352,-1.60e-02,
353,2.40e-02,
354,2.00e-02,
355,-1.60e-02,
356,-1.60e-02,
357,2.40e-02,
358,2.00e-02,
359,-1.60e-02,
360,-2.12e-01,
361,8.00e-02,
362,-2.00e-02,
363,2.80e-02,
364,2.00e-02,
365,-1.60e-02,
366,2.80e-02,
367,-2.80e-02,
368,2.40e-02,
369,-2.40e-02,
370,2.00e-02,
371,-2.00e-02,
372,2.40e-02,
373,-2.40e-02,
374,-2.40e-02,
375,3.20e-02,
376,2.80e-02,
377,-2.80e-02,
378,2.80e-02,
379,-2.00e-02,
380,-2.40e-02,
381,2.80e-02,
382,3.20e-02,
383,-2.80e-02,
384,2.40e-02,
385,-1.60e-01,
386,2.00e-02,
387,-2.00e-02,
388,-1.60e-02,
389,2.40e-02,
390,2.00e-02,
391,-2.00e-02,
392,-2.00e-02,
393,2.40e-02,
394,-2.00e-02,
395,2.40e-02,
396,2.00e-02,
397,-1.60e-02,
398,-1.60e-02,
399,2.00e-02,
400,-2.00e-02,
401,2.80e-02,
402,2.40e-02,
403,-2.00e-02,
404,-2.40e-02,
405,3.20e-02,
406,2.40e-02,
407,-2.00e-02,
408,-2.00e-02,
409,2.80e-02,
410,1.84e-01,
411,-2.40e-02,
412,2.80e-02,
413,-2.00e-02,
414,-1.60e-02,
415,2.80e-02,
416,2.80e-02,
417,-2.40e-02,
418,-2.80e-02,
419,3.20e-02,
420,-2.00e-02,
421,2.80e-02,
422,-2.40e-02,
423,2.80e-02,
424,-2.00e-02,
425,2.40e-02,
426,2.00e-02,
427,-2.00e-02,
428,2.80e-02,
429,-1.60e-02,
430,-1.60e-02,
431,2.00e-02,
432,-1.60e-02,
433,2.00e-02,
434,-1.60e-02,
435,7.20e-02,
436,2.40e-02,
437,-1.60e-02,
438,2.00e-02,
439,-1.60e-02,
440,-2.00e-02,
441,2.80e-02,
442,2.80e-02,
443,-2.00e-02,
444,-2.00e-02,
445,2.80e-02,
446,-2.00e-02,
447,2.40e-02,
448,2.80e-02,
449,-2.40e-02,
450,-2.00e-02,
451,2.80e-02,
452,-2.00e-02,
453,2.00e-02,
454,-2.00e-02,
455,2.40e-02,
456,-2.00e-02,
457,2.40e-02,
458,-1.24e-01,
459,2.60e-01,
460,-2.80e-02,
461,3.20e-02,
462,2.80e-02,
463,-2.00e-02,
464,2.40e-02,
465,-2.00e-02,
466,-2.40e-02,
467,2.80e-02,
468,2.00e-02,
469,-2.00e-02,
470,-1.20e-02,
471,2.00e-02,
472,2.40e-02,
473,-2.00e-02,
474,-1.60e-02,
475,2.40e-02,
476,2.00e-02,
477,-1.60e-02,
478,2.00e-02,
479,-1.60e-02,
480,-2.40e-02,
481,2.00e-02,
482,-1.60e-02,
483,2.40e-02,
484,2.40e-02,
485,-2.32e-01,
486,2.80e-02,
487,-2.40e-02,
488,2.40e-02,
489,-2.40e-02,
490,-2.00e-02,
491,2.40e-02,
492,2.40e-02,
493,-2.00e-02,
494,2.80e-02,
495,-2.00e-02,
496,-2.00e-02,
497,2.80e-02,
498,-2.00e-02,
499,2.80e-02,
500,-2.80e-02,
501,2.80e-02,
502,2.80e-02,
503,-2.40e-02,
504,3.20e-02,
505,-2.40e-02,
506,-2.40e-02,
507,2.72e-01,
508,3.20e-02,
509,-2.00e-02,
510,2.00e-02,
511,-2.00e-02,
512,-2.00e-02,
513,2.80e-02,
514,-1.60e-02,
515,2.40e-02,
516,-2.00e-02,
517,2.40e-02,
518,-1.60e-02,
519,2.40e-02,
520,2.40e-02,
521,-1.60e-02,
522,-1.60e-02,
523,2.40e-02,
524,-1.60e-02,
525,2.00e-02,
526,2.40e-02,
527,-2.00e-02,
528,2.40e-02,
529,-2.40e-02,
530,-2.00e-02,
531,2.40e-02,
532,-2.00e-02,
533,9.20e-02,
534,-1.60e-02,
535,2.80e-02,
536,2.40e-02,
537,-2.00e-02,
538,2.40e-02,
539,-1.60e-02,
540,2.40e-02,
541,-2.40e-02,
542,-2.00e-02,
543,2.80e-02,
544,-2.80e-02,
545,2.80e-02,
546,2.40e-02,
547,-2.00e-02,
548,-2.40e-02,
549,2.40e-02,
550,-1.60e-02,
551,2.80e-02,
552,2.00e-02,
553,-2.00e-02,
554,-1.60e-02,
555,2.00e-02,
556,-1.60e-02,
557,2.40e-02,
558,2.40e-02,
559,-2.00e-02,
560,-1.60e-02,
561,2.00e-02,
562,-1.60e-02,
563,2.00e-02,
564,-1.60e-02,
565,2.00e-02,
566,-1.60e-02,
567,2.00e-02,
568,-2.00e-02,
569,2.80e-02,
570,-2.00e-02,
571,2.80e-02,
572,-2.00e-02,
573,2.80e-02,
574,-2.40e-02,
575,2.40e-02,
576,2.80e-02,
577,-2.40e-02,
578,2.80e-02,
579,-2.40e-02,
580,2.80e-02,
581,-2.00e-02,
582,-2.00e-02,
583,2.52e-01,
584,-2.40e-02,
585,2.80e-02,
586,2.40e-02,
587,-2.40e-02,
588,-2.40e-02,
589,2.80e-02,
590,-2.40e-02,
591,2.80e-02,
592,-2.00e-02,
593,2.00e-02,
594,2.00e-02,
595,-2.00e-02,
596,-1.60e-02,
597,2.40e-02,
598,-2.00e-02,
599,2.40e-02,
600,2.00e-02,
601,-2.40e-02,
602,-2.00e-02,
603,2.40e-02,
604,-2.00e-02,
605,2.40e-02,
606,2.00e-02,
607,-2.00e-02,
608,2.36e-01,
609,-8.40e-02,
610,2.40e-02,
611,-2.00e-02,
612,-2.40e-02,
613,2.80e-02,
614,-2.00e-02,
615,2.80e-02,
616,2.00e-02,
617,-2.00e-02,
618,2.80e-02,
619,-3.60e-02,
620,-2.40e-02,
621,2.80e-02,
622,2.40e-02,
623,-2.40e-02,
624,-2.80e-02,
625,2.80e-02,
626,2.40e-02,
627,-2.00e-02,
628,-2.00e-02,
629,2.80e-02,
630,-1.60e-02,
631,3.20e-02,
632,-5.20e-02,
633,3.60e-02,
634,-2.40e-02,
635,2.80e-02,
636,-2.00e-02,
637,2.40e-02,
638,2.40e-02,
639,-2.00e-02,
640,2.40e-02,
641,-2.00e-02,
642,-1.60e-02,
643,2.00e-02,
644,-1.60e-02,
645,2.00e-02,
646,2.00e-02,
647,-1.60e-02,
648,-2.00e-02,
649,2.40e-02,
650,-2.00e-02,
651,2.80e-02,
652,-2.40e-02,
653,3.20e-02,
654,-2.40e-02,
655,3.20e-02,
656,-4.40e-02,
657,2.80e-02,
658,-2.00e-02,
659,2.80e-02,
660,3.20e-02,
661,-2.00e-02,
662,-1.60e-02,
663,2.40e-02,
664,-2.40e-02,
665,2.40e-02,
666,-2.00e-02,
667,2.80e-02,
668,2.40e-02,
669,-2.40e-02,
670,2.80e-02,
671,-2.40e-02,
672,-2.80e-02,
673,2.80e-02,
674,-2.40e-02,
675,2.80e-02,
676,2.40e-02,
677,-1.60e-02,
678,2.00e-02,
679,-2.00e-02,
680,-4.00e-02,
681,4.80e-02,
682,-2.16e-01,
683,4.80e-02,
684,2.00e-02,
685,-1.60e-02,
686,-1.60e-02,
687,2.40e-02,
688,-1.60e-02,
689,2.40e-02,
690,-2.00e-02,
691,2.00e-02,
692,2.00e-02,
693,-2.00e-02,
694,-2.80e-02,
695,2.80e-02,
696,2.40e-02,
697,-2.00e-02,
698,2.40e-02,
699,-2.00e-02,
700,2.40e-02,
701,-2.00e-02,
702,2.40e-02,
703,-2.40e-02,
704,2.00e-02,
705,-2.40e-02,
706,-2.00e-02,
707,1.84e-01,
708,2.40e-02,
709,-2.80e-02,
710,3.20e-02,
711,-2.00e-02,
712,-2.40e-02,
713,2.40e-02,
714,-2.40e-02,
715,2.40e-02,
716,2.80e-02,
717,-6.40e-02,
718,-2.00e-02,
719,2.40e-02,
720,2.00e-02,
721,-1.60e-02,
722,-1.60e-02,
723,2.40e-02,
724,2.00e-02,
725,-1.60e-02,
726,-2.28e-01,
727,2.80e-02,
728,2.40e-02,
729,-2.00e-02,
730,-1.60e-02,
731,2.00e-02,
732,-2.00e-02,
733,2.40e-02,
734,-2.00e-02,
735,2.80e-02,
736,-2.40e-02,
737,2.80e-02,
738,-1.44e-01,
739,6.00e-02,
740,3.60e-02,
741,-2.80e-02,
742,2.40e-02,
743,-2.00e-02,
744,2.40e-02,
745,-2.00e-02,
746,-2.40e-02,
747,2.40e-02,
748,2.00e-02,
749,-2.00e-02,
750,2.80e-02,
751,-2.40e-02,
752,-2.40e-02,
753,2.40e-02,
754,-2.40e-02,
755,2.80e-02,
756,-2.80e-02,
757,3.20e-02,
758,-2.00e-02,
759,2.80e-02,
760,-1.60e-02,
761,2.00e-02,
762,-1.60e-02,
763,2.80e-02,
764,-2.00e-02,
765,2.40e-02,
766,-1.60e-02,
767,2.80e-02,
768,2.00e-02,
769,-2.00e-02,
770,-1.60e-02,
771,2.40e-02,
772,-2.00e-02,
773,2.40e-02,
774,-1.60e-02,
775,2.00e-02,
776,-2.40e-02,
777,2.40e-02,
778,2.40e-02,
779,-1.60e-02,
780,2.40e-02,
781,-2.40e-02,
782,-1.60e-02,
783,2.40e-02,
784,2.00e-02,
785,-2.00e-02,
786,2.80e-02,
787,-2.40e-02,
788,-2.00e-02,
789,2.00e-02,
790,2.40e-02,
791,-1.60e-02,
792,-2.40e-02,
793,2.80e-02,
794,2.40e-02,
795,-2.40e-02,
796,-2.40e-02,
797,2.80e-02,
798,2.40e-02,
799,-2.00e-02,
800,2.80e-02,
801,-2.00e-02,
802,-2.40e-02,
803,3.20e-02,
804,1.60e-02,
805,-1.60e-02,
806,-1.60e-02,
807,2.40e-02,
808,2.00e-02,
809,-2.00e-02,
810,2.40e-02,
811,-1.60e-02,
812,2.00e-02,
813,-1.60e-02,
814,-8.40e-02,
815,2.56e-01,
816,2.00e-02,
817,-2.40e-02,
818,-1.60e-02,
819,2.00e-02,
820,2.80e-02,
821,-2.40e-02,
822,-1.60e-02,
823,2.80e-02,
824,2.40e-02,
825,-2.40e-02,
826,-2.40e-02,
827,2.40e-02,
828,2.00e-02,
829,-2.00e-02,
830,2.40e-02,
831,-2.00e-02,
832,-2.40e-02,
833,2.40e-02,
834,-2.00e-02,
835,2.80e-02,
836,-2.00e-02,
837,2.80e-02,
838,-2.40e-02,
839,3.20e-02,
840,-2.04e-01,
841,4.40e-02,
842,-2.40e-02,
843,2.80e-02,
844,-1.60e-02,
845,2.80e-02,
846,2.00e-02,
847,-1.60e-02,
848,-1.60e-02,
849,2.40e-02,
850,-2.00e-02,
851,2.00e-02,
852,-1.60e-02,
853,2.00e-02,
854,-1.60e-02,
855,2.40e-02,
856,-1.60e-02,
857,2.40e-02,
858,2.40e-02,
859,-1.60e-02,
860,-2.00e-02,
861,2.80e-02,
862,2.40e-02,
863,-2.00e-02,
864,-2.40e-02,
865,2.60e-01,
866,-1.60e-02,
867,2.00e-02,
868,-1.60e-02,
869,2.40e-02,
870,-2.00e-02,
871,2.00e-02,
872,2.40e-02,
873,-2.00e-02,
874,-2.40e-02,
875,2.80e-02,
876,-2.00e-02,
877,2.40e-02,
878,2.40e-02,
879,-2.40e-02,
880,-2.40e-02,
881,2.80e-02,
882,-2.00e-02,
883,2.80e-02,
884,2.40e-02,
885,-1.60e-02,
886,-1.60e-02,
887,2.40e-02,
888,-2.00e-02,
889,2.80e-02,
890,-6.40e-02,
891,2.16e-01,
892,2.00e-02,
893,-2.00e-02,
894,2.00e-02,
895,-2.00e-02,
896,2.00e-02,
897,-1.60e-02,
898,-1.60e-02,
899,2.00e-02,
900,-2.00e-02,
901,2.00e-02,
902,-1.60e-02,
903,2.40e-02,
904,-2.00e-02,
905,2.40e-02,
906,-1.60e-02,
907,2.40e-02,
908,2.00e-02,
909,-1.60e-02,
910,-2.40e-02,
911,2.40e-02,
912,2.40e-02,
913,-1.60e-02,
914,2.40e-02,
915,-8.40e-02,
916,2.40e-02,
917,-2.40e-02,
918,-2.80e-02,
919,3.20e-02,
920,2.80e-02,
921,-2.80e-02,
922,2.80e-02,
923,-2.40e-02,
924,2.80e-02,
925,-2.80e-02,
926,-1.60e-02,
927,2.40e-02,
928,-2.40e-02,
929,2.40e-02,
930,2.40e-02,
931,-2.00e-02,
932,-1.60e-02,
933,2.00e-02,
934,2.00e-02,
935,-1.60e-02,
936,2.00e-02,
937,-1.60e-02,
938,-2.00e-02,
939,2.00e-02,
940,-1.24e-01,
941,2.40e-01,
942,2.40e-02,
943,-2.00e-02,
944,-2.40e-02,
945,2.00e-02,
946,2.00e-02,
947,-2.00e-02,
948,2.00e-02,
949,-1.60e-02,
950,2.40e-02,
951,-2.00e-02,
952,2.40e-02,
953,-2.40e-02,
954,2.40e-02,
955,-2.00e-02,
956,-1.60e-02,
957,2.40e-02,
958,2.80e-02,
959,-2.80e-02,
960,2.80e-02,
961,-2.40e-02,
962,3.20e-02,
963,-2.40e-02,
964,2.80e-02,
965,-2.80e-02,
966,-2.40e-01,
967,3.20e-02,
968,2.40e-02,
969,-2.00e-02,
970,2.00e-02,
971,-1.60e-02,
972,2.00e-02,
973,-2.00e-02,
974,2.00e-02,
975,-2.00e-02,
976,2.00e-02,
977,-1.60e-02,
978,-2.00e-02,
979,2.80e-02,
980,2.40e-02,
981,-2.00e-02,
982,2.00e-02,
983,-2.00e-02,
984,2.00e-02,
985,-2.00e-02,
986,2.00e-02,
987,-2.40e-02,
988,-2.00e-02,
989,2.80e-02,
990,-2.00e-02,
991,4.00e-02,
992,2.40e-02,
993,-2.40e-02,
994,2.00e-02,
995,-2.40e-02,
996,-2.00e-02,
997,2.40e-02,
998,2.40e-02,
999,-2.00e-02,
1000,-2.80e-02,
1001,2.80e-02,
1002,-2.40e-02,
1003,2.80e-02,
1004,2.80e-02,
1005,-2.40e-02,
1006,2.80e-02,
1007,-2.40e-02,
1008,2.80e-02,
1009,-2.80e-02,
1010,2.00e-02,
1011,-2.40e-02,
1012,-1.60e-02,
1013,2.00e-02,
1014,1.96e-01,
1015,-3.60e-02,
1016,-2.00e-02,
1017,2.00e-02,
1018,2.00e-02,
1019,-2.40e-02,
1020,-1.60e-02,
1021,2.00e-02,
1022,-2.00e-02,
1023,2.00e-02,
1024,1.60e-02,
1025,-2.00e-02,
1026,2.40e-02,
1027,-2.00e-02,
1028,-2.00e-02,
1029,2.00e-02,
1030,-2.00e-02,
1031,2.40e-02,
1032,-1.60e-02,
1033,2.40e-02,
1034,-2.00e-02,
1035,2.40e-02,
1036,2.40e-02,
1037,-2.00e-02,
1038,-2.00e-02,
1039,2.00e-02,
1040,1.88e-01,
1041,-1.32e-01,
1042,3.20e-02,
1043,-2.80e-02,
1044,2.40e-02,
1045,-2.40e-02,
1046,-2.00e-02,
1047,2.40e-02,
1048,-2.00e-02,
1049,2.80e-02,
1050,-2.40e-02,
1051,2.80e-02,
1052,-1.60e-02,
1053,2.40e-02,
1054,-1.60e-02,
1055,5.60e-02,
1056,2.40e-02,
1057,-2.00e-02,
1058,1.60e-02,
1059,-1.60e-02,
1060,2.40e-02,
1061,-1.60e-02,
1062,-2.00e-02,
1063,3.20e-02,
1064,-1.60e-02,
1065,2.00e-02,
1066,2.40e-02,
1067,-2.00e-02,
1068,2.40e-02,
1069,-2.00e-02,
1070,-2.40e-02,
1071,2.80e-02,
1072,-2.40e-02,
1073,2.00e-02,
1074,-2.00e-02,
1075,2.80e-02,
1076,2.40e-02,
1077,-2.40e-02,
1078,-1.60e-02,
1079,2.40e-02,
1080,-2.00e-02,
1081,2.40e-02,
1082,-2.80e-02,
1083,2.80e-02,
1084,2.80e-02,
1085,-2.40e-02,
1086,-1.32e-01,
1087,2.44e-01,
1088,-2.00e-02,
1089,2.80e-02,
1090,-2.40e-02,
1091,2.40e-02,
1092,2.40e-02,
1093,-2.00e-02,
1094,-2.00e-02,
1095,2.40e-02,
1096,2.00e-02,
1097,-1.60e-02,
1098,2.40e-02,
1099,-1.60e-02,
1100,-2.00e-02,
1101,2.00e-02,
1102,-1.60e-02,
1103,2.00e-02,
1104,1.60e-02,
1105,-1.60e-02,
1106,-1.60e-02,
1107,2.00e-02,
1108,-2.00e-02,
1109,2.00e-02,
1110,2.40e-02,
1111,-2.00e-02,
1112,-2.00e-02,
1113,2.40e-02,
1114,2.80e-02,
1115,-2.00e-02,
1116,-2.00e-02,
1117,3.20e-02,
1118,-1.60e-02,
1119,2.00e-02,
1120,2.40e-02,
1121,-2.00e-02,
1122,2.40e-02,
1123,-2.00e-02,
1124,2.40e-02,
1125,-2.40e-02,
1126,2.80e-02,
1127,-2.40e-02,
1128,2.80e-02,
1129,-2.80e-02,
1130,-2.00e-02,
1131,3.20e-02,
1132,2.40e-02,
1133,-2.00e-02,
1134,2.80e-02,
1135,-2.00e-02,
1136,-2.00e-02,
1137,2.40e-02,
1138,-3.20e-02,
1139,1.92e-01,
1140,-2.40e-02,
1141,2.40e-02,
1142,2.00e-02,
1143,-2.00e-02,
1144,2.40e-02,
1145,-2.40e-02,
1146,-1.60e-02,
1147,2.00e-02,
1148,2.40e-02,
1149,-1.60e-02,
1150,2.40e-02,
1151,-2.00e-02,
1152,-2.00e-02,
1153,2.80e-02,
1154,2.40e-02,
1155,-2.40e-02,
1156,-2.00e-02,
1157,2.80e-02,
1158,-2.40e-02,
1159,2.80e-02,
1160,-2.00e-02,
1161,3.20e-02,
1162,-4.40e-02,
1163,2.36e-01,
1164,-2.00e-02,
1165,2.40e-02,
1166,-2.80e-02,
1167,2.80e-02,
1168,2.80e-02,
1169,-2.40e-02,
1170,3.20e-02,
1171,-2.40e-02,
1172,-2.00e-02,
1173,2.40e-02,
1174,2.00e-02,
1175,-2.40e-02,
1176,2.40e-02,
1177,-2.00e-02,
1178,-1.60e-02,
1179,2.40e-02,
1180,2.40e-02,
1181,-1.60e-02,
1182,-2.40e-02,
1183,2.40e-02,
1184,-2.00e-02,
1185,2.80e-02,
1186,2.00e-02,
1187,-1.60e-02,
1188,-1.60e-02,
1189,2.00e-02,
1190,2.00e-02,
1191,-1.60e-02,
1192,-1.60e-02,
1193,2.40e-02,
1194,2.00e-02,
1195,-2.00e-02,
1196,2.00e-02,
1197,-2.00e-02,
1198,-2.00e-02,
1199,2.80e-02,
