Laptop_1/LAPTOP_CHRGR_1_OFF/time domain/NewFile23.csv

X,CH1,Start,Increment,
Sequence,Volt,-1.500000e-01,2.000000e-04
0,1.60e-02,
1,-2.00e-02,
2,1.20e-02,
3,-1.20e-02,
4,6.40e-02,
5,-1.60e-02,
6,-1.60e-02,
7,1.60e-02,
8,-1.20e-02,
9,1.60e-02,
10,-1.60e-02,
11,1.60e-02,
12,1.60e-02,
13,-1.20e-02,
14,-1.20e-02,
15,2.00e-02,
16,1.60e-02,
17,-1.20e-02,
18,-1.20e-02,
19,1.60e-02,
20,1.60e-02,
21,-1.20e-02,
22,2.00e-02,
23,-1.60e-02,
24,1.20e-02,
25,-1.20e-02,
26,-1.20e-02,
27,1.60e-02,
28,-8.00e-03,
29,1.60e-02,
30,1.20e-02,
31,-7.20e-02,
32,-1.20e-02,
33,1.60e-02,
34,1.20e-02,
35,-2.00e-02,
36,1.20e-02,
37,-1.20e-02,
38,1.20e-02,
39,-1.20e-02,
40,2.40e-02,
41,-1.20e-02,
42,1.20e-02,
43,-8.00e-03,
44,-8.00e-03,
45,1.60e-02,
46,1.20e-02,
47,-1.60e-02,
48,-8.00e-03,
49,1.60e-02,
50,1.20e-02,
51,-1.20e-02,
52,1.20e-02,
53,-1.20e-02,
54,1.60e-02,
55,-1.20e-02,
56,-2.40e-02,
57,8.00e-02,
58,2.80e-02,
59,-2.00e-02,
60,-1.20e-02,
61,2.00e-02,
62,1.60e-02,
63,-1.60e-02,
64,-1.20e-02,
65,1.60e-02,
66,-8.00e-03,
67,1.60e-02,
68,-1.20e-02,
69,1.60e-02,
70,-1.60e-02,
71,1.60e-02,
72,-1.20e-02,
73,1.60e-02,
74,-1.20e-02,
75,1.60e-02,
76,-8.00e-03,
77,1.60e-02,
78,1.60e-02,
79,-1.20e-02,
80,-1.60e-02,
81,2.00e-02,
82,-2.00e-02,
83,6.00e-02,
84,-1.20e-02,
85,1.60e-02,
86,2.00e-02,
87,-1.60e-02,
88,1.60e-02,
89,-1.20e-02,
90,-1.20e-02,
91,1.60e-02,
92,-1.20e-02,
93,1.60e-02,
94,2.40e-02,
95,-1.60e-02,
96,-1.20e-02,
97,1.60e-02,
98,-1.20e-02,
99,1.60e-02,
100,1.20e-02,
101,-1.20e-02,
102,1.60e-02,
103,-1.20e-02,
104,-1.20e-02,
105,2.40e-02,
106,1.60e-02,
107,-8.40e-02,
108,1.60e-02,
109,-1.20e-02,
110,-1.20e-02,
111,1.60e-02,
112,-1.20e-02,
113,1.60e-02,
114,-1.20e-02,
115,1.60e-02,
116,1.20e-02,
117,-1.20e-02,
118,1.20e-02,
119,-1.20e-02,
120,-8.00e-03,
121,1.20e-02,
122,-1.60e-02,
123,1.60e-02,
124,-8.00e-03,
125,1.20e-02,
126,1.60e-02,
127,-1.20e-02,
128,-1.60e-02,
129,2.40e-02,
130,1.60e-02,
131,-1.20e-02,
132,-1.20e-02,
133,1.08e-01,
134,1.20e-02,
135,-1.20e-02,
136,1.20e-02,
137,-1.20e-02,
138,1.60e-02,
139,-1.20e-02,
140,-1.20e-02,
141,2.00e-02,
142,1.60e-02,
143,-1.20e-02,
144,1.60e-02,
145,-1.60e-02,
146,1.60e-02,
147,-1.60e-02,
148,1.60e-02,
149,-1.20e-02,
150,1.20e-02,
151,-1.20e-02,
152,-1.20e-02,
153,1.60e-02,
154,-8.00e-03,
155,1.60e-02,
156,1.60e-02,
157,-7.60e-02,
158,-8.00e-03,
159,1.60e-02,
160,1.60e-02,
161,-1.20e-02,
162,1.20e-02,
163,-1.20e-02,
164,1.60e-02,
165,-2.00e-02,
166,1.20e-02,
167,-8.00e-03,
168,1.20e-02,
169,-1.20e-02,
170,-1.20e-02,
171,1.60e-02,
172,-8.00e-03,
173,1.60e-02,
174,-1.20e-02,
175,2.40e-02,
176,1.60e-02,
177,-1.60e-02,
178,1.20e-02,
179,-1.60e-02,
180,1.60e-02,
181,-1.60e-02,
182,-1.20e-02,
183,1.60e-02,
184,1.60e-02,
185,-1.60e-02,
186,-1.20e-02,
187,1.60e-02,
188,-8.00e-03,
189,1.60e-02,
190,-1.20e-02,
191,2.00e-02,
192,2.00e-02,
193,-1.20e-02,
194,1.20e-02,
195,-1.20e-02,
196,-1.20e-02,
197,1.60e-02,
198,2.00e-02,
199,-2.00e-02,
200,1.20e-02,
201,-1.20e-02,
202,-8.00e-03,
203,1.20e-02,
204,1.20e-02,
205,-8.00e-03,
206,2.00e-02,
207,-6.40e-02,
208,1.20e-02,
209,-1.20e-02,
210,2.00e-02,
211,-3.60e-02,
212,-1.20e-02,
213,1.60e-02,
214,1.60e-02,
215,-1.20e-02,
216,1.60e-02,
217,-1.60e-02,
218,-1.20e-02,
219,1.60e-02,
220,1.20e-02,
221,-1.20e-02,
222,2.00e-02,
223,-1.60e-02,
224,1.20e-02,
225,-1.20e-02,
226,1.60e-02,
227,-1.20e-02,
228,-1.20e-02,
229,1.20e-02,
230,-1.20e-02,
231,1.60e-02,
232,1.60e-02,
233,-8.80e-02,
234,-2.00e-02,
235,2.00e-02,
236,1.60e-02,
237,-1.20e-02,
238,-1.20e-02,
239,1.20e-02,
240,-8.00e-03,
241,1.60e-02,
242,-8.00e-03,
243,1.20e-02,
244,-1.20e-02,
245,1.60e-02,
246,-1.20e-02,
247,1.20e-02,
248,1.60e-02,
249,-1.20e-02,
250,1.60e-02,
251,-1.20e-02,
252,-1.20e-02,
253,1.60e-02,
254,-1.60e-02,
255,1.60e-02,
256,1.60e-02,
257,-1.60e-02,
258,1.12e-01,
259,-1.60e-02,
260,-1.20e-02,
261,2.00e-02,
262,1.60e-02,
263,-2.00e-02,
264,-1.20e-02,
265,1.60e-02,
266,-1.60e-02,
267,1.60e-02,
268,2.00e-02,
269,-2.40e-02,
270,-1.60e-02,
271,1.60e-02,
272,-1.60e-02,
273,2.00e-02,
274,1.60e-02,
275,-1.60e-02,
276,1.60e-02,
277,-1.20e-02,
278,1.20e-02,
279,-1.20e-02,
280,1.60e-02,
281,-2.00e-02,
282,1.20e-02,
283,-1.20e-02,
284,-4.00e-02,
285,9.20e-02,
286,1.60e-02,
287,-1.20e-02,
288,-1.20e-02,
289,1.60e-02,
290,1.20e-02,
291,-1.20e-02,
292,2.40e-02,
293,-1.60e-02,
294,1.20e-02,
295,-1.20e-02,
296,-1.20e-02,
297,1.60e-02,
298,-1.20e-02,
299,1.60e-02,
300,1.20e-02,
301,-1.20e-02,
302,1.60e-02,
303,-1.60e-02,
304,2.00e-02,
305,-2.00e-02,
306,1.60e-02,
307,-1.20e-02,
308,-1.60e-02,
309,1.60e-02,
310,1.60e-02,
311,-1.60e-02,
312,-1.60e-02,
313,1.60e-02,
314,1.60e-02,
315,-1.20e-02,
316,-1.60e-02,
317,1.60e-02,
318,1.20e-02,
319,-1.20e-02,
320,-8.00e-03,
321,1.60e-02,
322,1.20e-02,
323,-8.00e-03,
324,-1.20e-02,
325,1.60e-02,
326,-1.20e-02,
327,2.00e-02,
328,-1.20e-02,
329,1.20e-02,
330,1.60e-02,
331,-1.20e-02,
332,-1.20e-02,
333,1.60e-02,
334,6.00e-02,
335,-1.60e-02,
336,1.60e-02,
337,-1.60e-02,
338,2.00e-02,
339,-1.60e-02,
340,-1.20e-02,
341,1.60e-02,
342,1.60e-02,
343,-1.60e-02,
344,1.60e-02,
345,-1.60e-02,
346,-1.20e-02,
347,1.60e-02,
348,-1.60e-02,
349,1.60e-02,
350,2.40e-02,
351,-1.60e-02,
352,1.60e-02,
353,-1.20e-02,
354,1.60e-02,
355,-1.20e-02,
356,1.60e-02,
357,-1.20e-02,
358,-1.20e-02,
359,5.20e-02,
360,-6.80e-02,
361,1.60e-02,
362,-1.20e-02,
363,2.00e-02,
364,1.20e-02,
365,-1.20e-02,
366,1.20e-02,
367,-1.20e-02,
368,1.20e-02,
369,-1.60e-02,
370,1.20e-02,
371,-1.20e-02,
372,-8.00e-03,
373,1.20e-02,
374,2.40e-02,
375,-1.60e-02,
376,1.20e-02,
377,-1.20e-02,
378,-8.00e-03,
379,1.60e-02,
380,1.20e-02,
381,-8.00e-03,
382,1.20e-02,
383,-1.20e-02,
384,-8.00e-03,
385,1.60e-02,
386,1.60e-02,
387,-1.60e-02,
388,1.60e-02,
389,-1.20e-02,
390,-1.20e-02,
391,1.60e-02,
392,1.20e-02,
393,-1.20e-02,
394,-1.60e-02,
395,1.60e-02,
396,2.00e-02,
397,-1.60e-02,
398,-1.20e-02,
399,1.60e-02,
400,1.60e-02,
401,-1.20e-02,
402,1.60e-02,
403,-1.20e-02,
404,1.20e-02,
405,-1.20e-02,
406,-1.20e-02,
407,1.60e-02,
408,2.00e-02,
409,-2.00e-02,
410,1.20e-02,
411,-8.00e-03,
412,1.20e-02,
413,-7.20e-02,
414,1.20e-02,
415,-1.20e-02,
416,1.60e-02,
417,-1.20e-02,
418,1.20e-02,
419,-1.20e-02,
420,1.60e-02,
421,-1.20e-02,
422,-1.20e-02,
423,1.60e-02,
424,1.60e-02,
425,-1.20e-02,
426,-1.20e-02,
427,1.60e-02,
428,1.60e-02,
429,-1.20e-02,
430,-1.20e-02,
431,1.60e-02,
432,-1.20e-02,
433,2.00e-02,
434,-1.20e-02,
435,1.60e-02,
436,1.60e-02,
437,-1.20e-02,
438,3.60e-02,
439,-2.40e-02,
440,-1.20e-02,
441,1.60e-02,
442,-8.00e-03,
443,1.60e-02,
444,-2.40e-02,
445,2.00e-02,
446,1.20e-02,
447,-1.20e-02,
448,1.20e-02,
449,-1.20e-02,
450,1.20e-02,
451,-1.20e-02,
452,1.20e-02,
453,-8.00e-03,
454,-1.20e-02,
455,1.60e-02,
456,-8.00e-03,
457,1.60e-02,
458,1.20e-02,
459,-1.20e-02,
460,1.60e-02,
461,-1.20e-02,
462,-1.20e-02,
463,1.20e-02,
464,1.20e-02,
465,-8.40e-02,
466,1.60e-02,
467,-1.20e-02,
468,2.00e-02,
469,-1.20e-02,
470,1.20e-02,
471,-1.20e-02,
472,1.60e-02,
473,-1.20e-02,
474,1.20e-02,
475,-1.20e-02,
476,1.60e-02,
477,-1.20e-02,
478,-1.20e-02,
479,1.60e-02,
480,-1.60e-02,
481,2.40e-02,
482,1.60e-02,
483,-1.20e-02,
484,1.20e-02,
485,-1.60e-02,
486,1.20e-02,
487,-1.20e-02,
488,-8.00e-03,
489,1.20e-02,
490,6.40e-02,
491,-2.80e-02,
492,1.20e-02,
493,-1.20e-02,
494,1.20e-02,
495,-1.20e-02,
496,1.20e-02,
497,-1.20e-02,
498,1.20e-02,
499,-1.20e-02,
500,1.20e-02,
501,-1.20e-02,
502,1.20e-02,
503,-1.60e-02,
504,1.60e-02,
505,-1.20e-02,
506,-1.20e-02,
507,1.60e-02,
508,1.60e-02,
509,-1.20e-02,
510,-1.20e-02,
511,1.60e-02,
512,1.60e-02,
513,-1.60e-02,
514,1.60e-02,
515,-8.80e-02,
516,-1.20e-02,
517,2.00e-02,
518,-1.20e-02,
519,1.60e-02,
520,-1.20e-02,
521,1.60e-02,
522,1.60e-02,
523,-1.20e-02,
524,-1.20e-02,
525,1.60e-02,
526,-1.20e-02,
527,2.40e-02,
528,1.20e-02,
529,-1.20e-02,
530,-8.00e-03,
531,1.60e-02,
532,-8.00e-03,
533,1.60e-02,
534,-8.00e-03,
535,1.20e-02,
536,1.60e-02,
537,-8.00e-03,
538,2.00e-02,
539,-1.60e-02,
540,5.20e-02,
541,-5.20e-02,
542,-1.20e-02,
543,2.00e-02,
544,1.20e-02,
545,-8.00e-03,
546,-1.20e-02,
547,1.60e-02,
548,-1.20e-02,
549,1.20e-02,
550,2.00e-02,
551,-1.20e-02,
552,1.20e-02,
553,-1.20e-02,
554,1.20e-02,
555,-1.20e-02,
556,-8.00e-03,
557,1.60e-02,
558,-1.20e-02,
559,1.60e-02,
560,1.60e-02,
561,-1.60e-02,
562,2.40e-02,
563,-1.20e-02,
564,1.60e-02,
565,-1.60e-02,
566,-7.60e-02,
567,8.80e-02,
568,-1.20e-02,
569,1.60e-02,
570,1.60e-02,
571,-1.20e-02,
572,1.60e-02,
573,-1.60e-02,
574,1.20e-02,
575,-1.20e-02,
576,1.20e-02,
577,-1.20e-02,
578,-1.20e-02,
579,2.00e-02,
580,1.20e-02,
581,-1.20e-02,
582,1.20e-02,
583,-1.20e-02,
584,1.20e-02,
585,-1.20e-02,
586,1.60e-02,
587,-1.20e-02,
588,-1.20e-02,
589,1.60e-02,
590,-1.20e-02,
591,6.80e-02,
592,1.60e-02,
593,-1.20e-02,
594,-1.20e-02,
595,1.60e-02,
596,-1.20e-02,
597,2.00e-02,
598,-1.60e-02,
599,1.60e-02,
600,1.60e-02,
601,-1.20e-02,
602,1.60e-02,
603,-1.20e-02,
604,2.00e-02,
605,-1.60e-02,
606,1.60e-02,
607,-1.20e-02,
608,-1.20e-02,
609,1.60e-02,
610,1.60e-02,
611,-1.20e-02,
612,1.20e-02,
613,-1.60e-02,
614,5.60e-02,
615,-8.40e-02,
616,-8.00e-03,
617,1.60e-02,
618,-8.00e-03,
619,1.20e-02,
620,2.40e-02,
621,-1.60e-02,
622,1.20e-02,
623,-1.20e-02,
624,-8.00e-03,
625,5.60e-02,
626,-8.00e-03,
627,1.60e-02,
628,1.20e-02,
629,-1.20e-02,
630,-1.20e-02,
631,1.60e-02,
632,2.00e-02,
633,-1.20e-02,
634,-1.20e-02,
635,1.16e-01,
636,1.20e-02,
637,-1.60e-02,
638,-1.20e-02,
639,1.60e-02,
640,1.20e-02,
641,-1.20e-02,
642,-1.60e-02,
643,2.00e-02,
644,-1.20e-02,
645,1.60e-02,
646,-6.80e-02,
647,4.80e-02,
648,1.60e-02,
649,-1.20e-02,
650,-1.20e-02,
651,1.60e-02,
652,1.60e-02,
653,-1.20e-02,
654,1.60e-02,
655,-2.40e-02,
656,1.20e-02,
657,-8.00e-03,
658,1.20e-02,
659,-1.20e-02,
660,1.60e-02,
661,-1.20e-02,
662,1.60e-02,
663,-8.00e-03,
664,1.20e-02,
665,-8.00e-03,
666,-1.20e-02,
667,1.60e-02,
668,-1.20e-02,
669,1.60e-02,
670,1.20e-02,
671,-1.20e-02,
672,-1.20e-02,
673,1.60e-02,
674,-1.20e-02,
675,8.00e-02,
676,1.20e-02,
677,-1.60e-02,
678,2.40e-02,
679,-1.20e-02,
680,-1.20e-02,
681,1.60e-02,
682,1.60e-02,
683,-1.20e-02,
684,2.00e-02,
685,-1.60e-02,
686,-1.20e-02,
687,1.60e-02,
688,1.60e-02,
689,-1.60e-02,
690,2.40e-02,
691,-1.60e-02,
692,1.60e-02,
693,-1.20e-02,
694,-1.20e-02,
695,1.60e-02,
696,-8.00e-03,
697,1.60e-02,
698,-1.20e-02,
699,1.60e-02,
700,1.20e-02,
701,-1.20e-02,
702,2.40e-02,
703,-1.60e-02,
704,-8.00e-03,
705,6.40e-02,
706,1.20e-02,
707,-1.20e-02,
708,1.20e-02,
709,-1.20e-02,
710,-8.00e-03,
711,1.60e-02,
712,-1.20e-02,
713,2.00e-02,
714,1.60e-02,
715,-8.00e-03,
716,1.20e-02,
717,-1.20e-02,
718,-1.20e-02,
719,1.60e-02,
720,-1.20e-02,
721,1.60e-02,
722,-1.20e-02,
723,1.60e-02,
724,-1.20e-02,
725,2.80e-02,
726,1.60e-02,
727,-1.20e-02,
728,-1.20e-02,
729,1.60e-02,
730,1.60e-02,
731,-1.60e-02,
732,-1.60e-02,
733,5.20e-02,
734,2.00e-02,
735,-1.20e-02,
736,-1.60e-02,
737,2.00e-02,
738,1.20e-02,
739,-1.20e-02,
740,1.20e-02,
741,-1.20e-02,
742,-1.20e-02,
743,1.60e-02,
744,-8.00e-03,
745,1.60e-02,
746,1.20e-02,
747,-1.20e-02,
748,1.60e-02,
749,-1.60e-02,
750,1.20e-02,
751,-1.20e-02,
752,-1.20e-02,
753,1.60e-02,
754,-1.20e-02,
755,1.60e-02,
756,-8.00e-03,
757,1.60e-02,
758,-4.40e-02,
759,7.20e-02,
760,2.00e-02,
761,-2.00e-02,
762,-1.20e-02,
763,1.60e-02,
764,1.60e-02,
765,-1.20e-02,
766,1.20e-02,
767,-1.20e-02,
768,1.60e-02,
769,-1.20e-02,
770,-1.20e-02,
771,1.60e-02,
772,2.00e-02,
773,-1.60e-02,
774,1.60e-02,
775,-1.60e-02,
776,-1.20e-02,
777,1.60e-02,
778,-1.60e-02,
779,1.60e-02,
780,1.20e-02,
781,-1.20e-02,
782,1.20e-02,
783,-1.60e-02,
784,1.20e-02,
785,-8.00e-03,
786,1.20e-02,
787,-3.20e-02,
788,1.20e-02,
789,-8.00e-03,
790,1.20e-02,
791,-1.20e-02,
792,-8.00e-03,
793,1.20e-02,
794,-2.00e-02,
795,2.00e-02,
796,-1.20e-02,
797,1.60e-02,
798,1.20e-02,
799,-1.20e-02,
800,-8.00e-03,
801,1.60e-02,
802,-8.00e-03,
803,1.60e-02,
804,1.20e-02,
805,-1.20e-02,
806,2.40e-02,
807,-1.60e-02,
808,1.60e-02,
809,-1.20e-02,
810,-1.20e-02,
811,1.60e-02,
812,6.40e-02,
813,-9.60e-02,
814,-1.20e-02,
815,2.00e-02,
816,1.60e-02,
817,-1.20e-02,
818,-1.20e-02,
819,1.60e-02,
820,-1.60e-02,
821,1.20e-02,
822,1.20e-02,
823,-1.20e-02,
824,-1.60e-02,
825,1.60e-02,
826,-8.00e-03,
827,1.60e-02,
828,1.20e-02,
829,-1.20e-02,
830,-1.60e-02,
831,2.00e-02,
832,1.60e-02,
833,-1.20e-02,
834,-1.20e-02,
835,1.60e-02,
836,1.20e-02,
837,-1.20e-02,
838,-4.80e-02,
839,1.60e-02,
840,-1.20e-02,
841,1.20e-02,
842,2.00e-02,
843,-1.60e-02,
844,1.20e-02,
845,-1.20e-02,
846,-1.20e-02,
847,1.60e-02,
848,1.60e-02,
849,-1.60e-02,
850,-1.20e-02,
851,1.60e-02,
852,1.60e-02,
853,-1.60e-02,
854,-1.60e-02,
855,2.00e-02,
856,1.60e-02,
857,-2.00e-02,
858,-1.20e-02,
859,2.00e-02,
860,-1.20e-02,
861,1.60e-02,
862,1.20e-02,
863,-1.08e-01,
864,1.20e-02,
865,-1.20e-02,
866,-2.00e-02,
867,2.00e-02,
868,1.20e-02,
869,-1.20e-02,
870,1.20e-02,
871,-1.20e-02,
872,-8.00e-03,
873,1.20e-02,
874,-1.20e-02,
875,1.20e-02,
876,-1.20e-02,
877,1.60e-02,
878,1.20e-02,
879,-1.20e-02,
880,-1.20e-02,
881,1.60e-02,
882,1.20e-02,
883,-1.60e-02,
884,1.20e-02,
885,-1.20e-02,
886,-1.20e-02,
887,1.60e-02,
888,1.60e-02,
889,-1.20e-02,
890,-5.20e-02,
891,8.00e-02,
892,-1.20e-02,
893,1.60e-02,
894,2.00e-02,
895,-1.20e-02,
896,-1.20e-02,
897,1.60e-02,
898,1.60e-02,
899,-1.60e-02,
900,2.40e-02,
901,-1.20e-02,
902,-1.20e-02,
903,1.60e-02,
904,1.60e-02,
905,-1.20e-02,
906,-1.20e-02,
907,1.60e-02,
908,1.20e-02,
909,-1.20e-02,
910,1.20e-02,
911,-1.20e-02,
912,-8.00e-03,
913,2.40e-02,
914,-1.20e-02,
915,9.20e-02,
916,-8.00e-03,
917,1.60e-02,
918,-1.20e-02,
919,1.60e-02,
920,1.60e-02,
921,-1.60e-02,
922,-1.20e-02,
923,1.60e-02,
924,-1.20e-02,
925,2.00e-02,
926,1.60e-02,
927,-1.20e-02,
928,-1.20e-02,
929,2.00e-02,
930,1.60e-02,
931,-1.60e-02,
932,1.60e-02,
933,-1.20e-02,
934,1.60e-02,
935,-1.20e-02,
936,-1.60e-02,
937,2.00e-02,
938,-1.20e-02,
939,2.00e-02,
940,7.20e-02,
941,-2.00e-02,
942,1.20e-02,
943,-1.20e-02,
944,-1.20e-02,
945,1.60e-02,
946,-1.20e-02,
947,2.00e-02,
948,1.20e-02,
949,-1.20e-02,
950,-1.20e-02,
951,1.60e-02,
952,-8.00e-03,
953,1.60e-02,
954,1.20e-02,
955,-1.20e-02,
956,1.20e-02,
957,-8.00e-03,
958,1.60e-02,
959,-1.60e-02,
960,1.20e-02,
961,-1.20e-02,
962,1.60e-02,
963,-1.20e-02,
964,-1.20e-02,
965,1.60e-02,
966,2.40e-02,
967,-6.00e-02,
968,-1.20e-02,
969,1.60e-02,
970,-2.00e-02,
971,2.40e-02,
972,1.20e-02,
973,-1.20e-02,
974,1.20e-02,
975,-1.60e-02,
976,-1.20e-02,
977,2.00e-02,
978,1.60e-02,
979,-1.60e-02,
980,1.60e-02,
981,-1.20e-02,
982,1.60e-02,
983,-1.60e-02,
984,-1.20e-02,
985,1.60e-02,
986,1.20e-02,
987,-1.20e-02,
988,1.20e-02,
989,-1.20e-02,
990,-1.20e-02,
991,3.60e-02,
992,-8.00e-03,
993,1.20e-02,
994,-1.20e-02,
995,2.00e-02,
996,1.60e-02,
997,-1.20e-02,
998,1.20e-02,
999,-1.20e-02,
1000,-1.20e-02,
1001,1.60e-02,
1002,-1.20e-02,
1003,1.60e-02,
1004,-1.20e-02,
1005,1.60e-02,
1006,2.00e-02,
1007,-1.60e-02,
1008,-1.20e-02,
1009,1.60e-02,
1010,-1.20e-02,
1011,1.20e-02,
1012,-8.00e-03,
1013,1.60e-02,
1014,-1.20e-02,
1015,1.60e-02,
1016,-8.40e-02,
1017,8.00e-02,
1018,-2.00e-02,
1019,2.00e-02,
1020,-1.20e-02,
1021,1.60e-02,
1022,-1.20e-02,
1023,1.20e-02,
1024,1.60e-02,
1025,-1.20e-02,
1026,-1.20e-02,
1027,1.60e-02,
1028,2.00e-02,
1029,-2.00e-02,
1030,1.20e-02,
1031,-1.20e-02,
1032,1.20e-02,
1033,-1.20e-02,
1034,1.20e-02,
1035,-1.20e-02,
1036,1.20e-02,
1037,-1.20e-02,
1038,-1.20e-02,
1039,1.60e-02,
1040,2.80e-02,
1041,-2.00e-02,
1042,-2.00e-02,
1043,6.40e-02,
1044,1.20e-02,
1045,-1.20e-02,
1046,1.20e-02,
1047,-1.20e-02,
1048,1.20e-02,
1049,-1.20e-02,
1050,1.20e-02,
1051,-1.20e-02,
1052,-1.60e-02,
1053,2.00e-02,
1054,1.20e-02,
1055,-1.20e-02,
1056,1.20e-02,
1057,-1.20e-02,
1058,1.60e-02,
1059,-1.20e-02,
1060,2.00e-02,
1061,-1.60e-02,
1062,1.60e-02,
1063,-1.20e-02,
1064,2.40e-02,
1065,-1.20e-02,
1066,-1.20e-02,
1067,1.60e-02,
1068,1.60e-02,
1069,-2.40e-02,
1070,-1.20e-02,
1071,1.20e-02,
1072,1.60e-02,
1073,-1.20e-02,
1074,1.20e-02,
1075,-1.20e-02,
1076,2.00e-02,
1077,-2.00e-02,
1078,1.20e-02,
1079,-1.20e-02,
1080,1.20e-02,
1081,-1.20e-02,
1082,1.20e-02,
1083,-1.20e-02,
1084,1.20e-02,
1085,-1.20e-02,
1086,1.60e-02,
1087,-1.20e-02,
1088,2.00e-02,
1089,-2.00e-02,
1090,1.60e-02,
1091,-1.20e-02,
1092,1.20e-02,
1093,-1.20e-02,
1094,-8.00e-02,
1095,8.80e-02,
1096,-1.20e-02,
1097,1.60e-02,
1098,-1.20e-02,
1099,2.40e-02,
1100,1.60e-02,
1101,-1.60e-02,
1102,-8.00e-03,
1103,1.60e-02,
1104,2.40e-02,
1105,-1.20e-02,
1106,-1.20e-02,
1107,2.00e-02,
1108,1.60e-02,
1109,-1.20e-02,
1110,-1.20e-02,
1111,2.80e-02,
1112,1.20e-02,
1113,-1.20e-02,
1114,1.20e-02,
1115,-1.20e-02,
1116,-8.00e-03,
1117,1.20e-02,
1118,1.20e-02,
1119,-8.00e-03,
1120,-6.80e-02,
1121,3.60e-02,
1122,2.00e-02,
1123,-2.00e-02,
1124,1.20e-02,
1125,-1.20e-02,
1126,1.20e-02,
1127,-1.20e-02,
1128,1.60e-02,
1129,-1.20e-02,
1130,-1.20e-02,
1131,1.60e-02,
1132,1.20e-02,
1133,-1.20e-02,
1134,-1.20e-02,
1135,2.40e-02,
1136,1.60e-02,
1137,-1.20e-02,
1138,-1.20e-02,
1139,2.00e-02,
1140,-1.20e-02,
1141,1.60e-02,
1142,-1.20e-02,
1143,1.60e-02,
1144,-1.20e-02,
1145,8.00e-02,
1146,2.40e-02,
1147,-1.60e-02,
1148,1.60e-02,
1149,-1.20e-02,
1150,-1.20e-02,
1151,1.60e-02,
1152,-1.20e-02,
1153,1.20e-02,
1154,-1.20e-02,
1155,1.60e-02,
1156,-8.00e-03,
1157,1.60e-02,
1158,2.40e-02,
1159,-1.20e-02,
1160,-8.00e-03,
1161,1.60e-02,
1162,-1.20e-02,
1163,2.00e-02,
1164,1.60e-02,
1165,-1.20e-02,
1166,1.60e-02,
1167,-1.20e-02,
1168,-1.20e-02,
1169,2.40e-02,
1170,-6.40e-02,
1171,2.40e-02,
1172,1.60e-02,
1173,-1.20e-02,
1174,-1.20e-02,
1175,2.40e-02,
1176,1.20e-02,
1177,-8.00e-03,
1178,-1.60e-02,
1179,1.60e-02,
1180,2.00e-02,
1181,-2.40e-02,
1182,-1.20e-02,
1183,1.60e-02,
1184,-1.20e-02,
1185,1.60e-02,
1186,-1.20e-02,
1187,1.60e-02,
1188,-1.20e-02,
1189,1.60e-02,
1190,1.20e-02,
1191,-1.20e-02,
1192,-1.60e-02,
1193,2.40e-02,
1194,1.60e-02,
1195,-6.40e-02,
1196,1.20e-02,
1197,-8.00e-03,
1198,1.60e-02,
1199,-1.20e-02,
