Laptop_1/LAPTOP_CHRGR_1_OFF/time domain/NewFile18.csv

X,CH1,Start,Increment,
Sequence,Volt,-1.500000e-01,2.000000e-04
0,-4.40e-02,
1,5.60e-02,
2,-2.00e-02,
3,2.80e-02,
4,3.20e-02,
5,-2.40e-02,
6,-2.40e-02,
7,2.80e-02,
8,2.40e-02,
9,-2.00e-02,
10,-4.80e-02,
11,6.40e-02,
12,-1.84e-01,
13,4.00e-02,
14,2.00e-02,
15,-2.80e-02,
16,2.40e-02,
17,-1.60e-02,
18,2.00e-02,
19,-1.60e-02,
20,-4.00e-02,
21,4.40e-02,
22,2.00e-02,
23,-1.60e-02,
24,2.00e-02,
25,-2.00e-02,
26,-1.60e-02,
27,2.40e-02,
28,2.40e-02,
29,-2.00e-02,
30,-3.20e-02,
31,4.40e-02,
32,-2.00e-02,
33,2.40e-02,
34,-2.00e-02,
35,2.80e-02,
36,-2.40e-02,
37,1.48e-01,
38,2.40e-02,
39,-2.40e-02,
40,5.20e-02,
41,-8.80e-02,
42,-2.00e-02,
43,2.80e-02,
44,-2.40e-02,
45,2.80e-02,
46,3.20e-02,
47,-2.80e-02,
48,2.80e-02,
49,-2.40e-02,
50,5.60e-02,
51,-4.40e-02,
52,2.00e-02,
53,-1.60e-02,
54,-1.60e-02,
55,2.40e-02,
56,2.00e-02,
57,-2.00e-02,
58,2.00e-02,
59,-1.20e-02,
60,6.80e-02,
61,-5.60e-02,
62,-1.60e-02,
63,2.00e-02,
64,2.00e-02,
65,-3.20e-02,
66,-2.00e-02,
67,2.00e-02,
68,2.40e-02,
69,-2.40e-02,
70,6.00e-02,
71,-5.60e-02,
72,2.00e-02,
73,-2.00e-02,
74,2.40e-02,
75,-3.20e-02,
76,-1.20e-02,
77,2.40e-02,
78,2.80e-02,
79,-2.40e-02,
80,5.20e-02,
81,-4.80e-02,
82,2.40e-02,
83,-2.40e-02,
84,-2.40e-02,
85,2.80e-02,
86,-2.40e-02,
87,2.80e-02,
88,2.16e-01,
89,-2.40e-02,
90,2.80e-02,
91,-4.00e-02,
92,5.20e-02,
93,-4.40e-02,
94,-1.60e-02,
95,2.40e-02,
96,2.40e-02,
97,-1.60e-02,
98,2.00e-02,
99,-2.00e-02,
100,-1.20e-02,
101,2.00e-02,
102,-7.60e-02,
103,6.40e-02,
104,-1.60e-02,
105,1.60e-02,
106,2.80e-02,
107,-1.60e-02,
108,-1.60e-02,
109,3.20e-02,
110,-2.40e-02,
111,5.20e-02,
112,-2.00e-02,
113,2.40e-02,
114,-2.00e-02,
115,2.64e-01,
116,3.60e-02,
117,-2.40e-02,
118,2.40e-02,
119,-2.40e-02,
120,2.40e-02,
121,-2.40e-02,
122,-5.20e-02,
123,4.40e-02,
124,2.40e-02,
125,-2.80e-02,
126,2.40e-02,
127,-2.40e-02,
128,-2.00e-02,
129,2.80e-02,
130,2.80e-02,
131,-2.40e-02,
132,6.40e-02,
133,-8.00e-02,
134,2.00e-02,
135,-1.60e-02,
136,3.60e-02,
137,-3.60e-02,
138,2.00e-02,
139,-1.60e-02,
140,-1.84e-01,
141,3.20e-02,
142,4.80e-02,
143,-3.20e-02,
144,-1.60e-02,
145,2.00e-02,
146,4.00e-02,
147,-2.80e-02,
148,2.40e-02,
149,-1.60e-02,
150,-1.60e-02,
151,2.40e-02,
152,7.20e-02,
153,-2.80e-02,
154,2.00e-02,
155,-1.60e-02,
156,2.00e-02,
157,-2.00e-02,
158,-2.00e-02,
159,2.80e-02,
160,-2.00e-02,
161,2.40e-02,
162,7.60e-02,
163,-8.00e-02,
164,-1.60e-02,
165,2.40e-02,
166,2.44e-01,
167,-4.00e-02,
168,-2.00e-02,
169,2.80e-02,
170,2.40e-02,
171,-2.00e-02,
172,-4.40e-02,
173,4.00e-02,
174,2.40e-02,
175,-2.40e-02,
176,-2.80e-02,
177,2.80e-02,
178,2.00e-02,
179,-1.60e-02,
180,2.00e-02,
181,-1.60e-02,
182,4.80e-02,
183,-5.20e-02,
184,-1.60e-02,
185,2.00e-02,
186,-1.60e-02,
187,2.00e-02,
188,-1.60e-02,
189,2.40e-02,
190,-1.24e-01,
191,2.80e-02,
192,-3.20e-02,
193,4.00e-02,
194,2.80e-02,
195,-2.00e-02,
196,-2.80e-02,
197,2.40e-02,
198,2.40e-02,
199,-2.00e-02,
200,2.40e-02,
201,-2.40e-02,
202,3.60e-02,
203,-4.40e-02,
204,2.40e-02,
205,-2.00e-02,
206,-2.00e-02,
207,3.60e-02,
208,2.80e-02,
209,-2.80e-02,
210,3.20e-02,
211,-2.40e-02,
212,6.00e-02,
213,-7.60e-02,
214,3.20e-02,
215,-2.40e-02,
216,3.20e-02,
217,-1.96e-01,
218,-1.60e-02,
219,2.00e-02,
220,-1.60e-02,
221,2.00e-02,
222,-1.20e-02,
223,5.60e-02,
224,-1.60e-02,
225,2.00e-02,
226,-1.20e-02,
227,2.80e-02,
228,2.00e-02,
229,-2.00e-02,
230,-1.60e-02,
231,2.00e-02,
232,-1.60e-02,
233,5.20e-02,
234,-1.60e-02,
235,2.40e-02,
236,1.60e-02,
237,-2.40e-02,
238,-1.60e-02,
239,2.40e-02,
240,1.60e-02,
241,-2.00e-02,
242,-2.20e-01,
243,9.20e-02,
244,2.40e-02,
245,-2.00e-02,
246,2.40e-02,
247,-2.00e-02,
248,2.40e-02,
249,-1.60e-02,
250,-2.40e-02,
251,2.80e-02,
252,-7.20e-02,
253,6.80e-02,
254,2.80e-02,
255,-2.00e-02,
256,3.60e-02,
257,-3.60e-02,
258,-2.40e-02,
259,2.80e-02,
260,2.00e-02,
261,-2.00e-02,
262,-1.60e-02,
263,4.80e-02,
264,2.00e-02,
265,-1.60e-02,
266,2.80e-02,
267,-2.40e-02,
268,1.76e-01,
269,-2.80e-02,
270,1.60e-02,
271,-1.60e-02,
272,4.00e-02,
273,-6.00e-02,
274,-1.60e-02,
275,2.00e-02,
276,-1.60e-02,
277,3.20e-02,
278,2.00e-02,
279,-1.60e-02,
280,2.40e-02,
281,-2.00e-02,
282,-6.80e-02,
283,6.00e-02,
284,2.80e-02,
285,-2.00e-02,
286,-2.80e-02,
287,2.80e-02,
288,-2.00e-02,
289,2.80e-02,
290,2.40e-02,
291,-2.00e-02,
292,-1.92e-01,
293,8.80e-02,
294,-2.40e-02,
295,2.80e-02,
296,3.20e-02,
297,-2.00e-02,
298,2.80e-02,
299,-2.80e-02,
300,-2.00e-02,
301,2.80e-02,
302,2.00e-02,
303,-2.00e-02,
304,6.40e-02,
305,-1.60e-02,
306,-1.60e-02,
307,2.00e-02,
308,-1.20e-02,
309,2.00e-02,
310,2.00e-02,
311,-2.00e-02,
312,2.00e-02,
313,-2.00e-02,
314,-4.80e-02,
315,3.20e-02,
316,2.00e-02,
317,-1.60e-02,
318,2.40e-02,
319,-1.92e-01,
320,2.40e-02,
321,-2.00e-02,
322,6.00e-02,
323,-4.40e-02,
324,-2.00e-02,
325,2.40e-02,
326,2.40e-02,
327,-2.00e-02,
328,-2.40e-02,
329,3.60e-02,
330,2.00e-02,
331,-2.00e-02,
332,-2.40e-02,
333,2.80e-02,
334,4.40e-02,
335,-6.00e-02,
336,2.80e-02,
337,-2.40e-02,
338,-2.00e-02,
339,2.40e-02,
340,-2.80e-02,
341,3.20e-02,
342,-1.60e-01,
343,4.40e-02,
344,4.80e-02,
345,-7.20e-02,
346,1.60e-02,
347,-1.60e-02,
348,-2.00e-02,
349,2.00e-02,
350,2.40e-02,
351,-1.60e-02,
352,2.00e-02,
353,-1.60e-02,
354,4.40e-02,
355,-7.20e-02,
356,1.60e-02,
357,-1.60e-02,
358,-1.60e-02,
359,2.80e-02,
360,2.80e-02,
361,-2.00e-02,
362,-2.00e-02,
363,2.40e-02,
364,-4.80e-02,
365,6.80e-02,
366,-2.00e-02,
367,2.40e-02,
368,3.60e-02,
369,-1.76e-01,
370,2.00e-02,
371,-1.60e-02,
372,2.00e-02,
373,-2.00e-02,
374,-5.60e-02,
375,8.40e-02,
376,-2.40e-02,
377,2.80e-02,
378,3.20e-02,
379,-2.00e-02,
380,2.80e-02,
381,-2.40e-02,
382,2.40e-02,
383,-2.00e-02,
384,2.00e-02,
385,-3.20e-02,
386,-1.20e-02,
387,2.00e-02,
388,2.00e-02,
389,-2.80e-02,
390,-1.60e-02,
391,2.00e-02,
392,2.00e-02,
393,-1.88e-01,
394,-1.60e-02,
395,7.20e-02,
396,2.00e-02,
397,-2.00e-02,
398,2.40e-02,
399,-2.00e-02,
400,2.00e-02,
401,-1.60e-02,
402,-2.00e-02,
403,2.40e-02,
404,-6.80e-02,
405,7.60e-02,
406,2.40e-02,
407,-1.60e-02,
408,-2.00e-02,
409,3.20e-02,
410,-2.00e-02,
411,2.40e-02,
412,2.40e-02,
413,-2.40e-02,
414,-3.20e-02,
415,4.40e-02,
416,2.40e-02,
417,-2.00e-02,
418,3.60e-02,
419,-3.60e-02,
420,-8.00e-02,
421,2.40e-01,
422,-2.00e-02,
423,2.40e-02,
424,2.00e-02,
425,-5.60e-02,
426,2.00e-02,
427,-1.60e-02,
428,1.60e-02,
429,-2.00e-02,
430,2.00e-02,
431,-1.60e-02,
432,-1.60e-02,
433,1.60e-02,
434,7.20e-02,
435,-4.80e-02,
436,-1.60e-02,
437,2.00e-02,
438,3.20e-02,
439,-2.00e-02,
440,2.40e-02,
441,-1.60e-02,
442,-1.60e-02,
443,2.00e-02,
444,-1.52e-01,
445,8.00e-02,
446,2.80e-02,
447,-2.00e-02,
448,-2.80e-02,
449,3.20e-02,
450,2.80e-02,
451,-2.00e-02,
452,-2.00e-02,
453,2.40e-02,
454,-4.00e-02,
455,5.60e-02,
456,-1.60e-02,
457,2.80e-02,
458,2.80e-02,
459,-2.00e-02,
460,-2.40e-02,
461,2.80e-02,
462,-2.40e-02,
463,2.80e-02,
464,5.60e-02,
465,-4.80e-02,
466,2.00e-02,
467,-2.00e-02,
468,4.40e-02,
469,-2.04e-01,
470,-1.60e-02,
471,2.40e-02,
472,2.00e-02,
473,-1.60e-02,
474,-5.20e-02,
475,2.80e-02,
476,-1.60e-02,
477,2.00e-02,
478,2.00e-02,
479,-1.60e-02,
480,2.00e-02,
481,-1.60e-02,
482,-1.20e-02,
483,2.00e-02,
484,4.00e-02,
485,-4.00e-02,
486,2.40e-02,
487,-2.00e-02,
488,2.40e-02,
489,-1.60e-02,
490,-2.00e-02,
491,2.40e-02,
492,-1.60e-02,
493,2.40e-02,
494,4.80e-02,
495,-3.20e-02,
496,2.20e-01,
497,-1.24e-01,
498,2.40e-02,
499,-2.00e-02,
500,-2.00e-02,
501,2.80e-02,
502,-2.00e-02,
503,2.80e-02,
504,2.40e-02,
505,-2.80e-02,
506,2.40e-02,
507,-2.00e-02,
508,2.40e-02,
509,-1.60e-02,
510,2.80e-02,
511,-3.20e-02,
512,-1.60e-02,
513,2.40e-02,
514,1.60e-02,
515,-1.60e-02,
516,-1.60e-02,
517,4.80e-02,
518,2.00e-02,
519,-2.00e-02,
520,2.48e-01,
521,-7.60e-02,
522,-1.60e-02,
523,2.00e-02,
524,2.00e-02,
525,-2.00e-02,
526,-7.20e-02,
527,4.80e-02,
528,2.80e-02,
529,-1.60e-02,
530,-2.40e-02,
531,2.80e-02,
532,2.40e-02,
533,-2.00e-02,
534,-2.00e-02,
535,3.20e-02,
536,5.20e-02,
537,-6.00e-02,
538,-2.00e-02,
539,2.40e-02,
540,-2.40e-02,
541,2.80e-02,
542,2.40e-02,
543,-2.40e-02,
544,-2.40e-02,
545,2.40e-02,
546,6.00e-02,
547,-1.64e-01,
548,2.40e-02,
549,-2.00e-02,
550,2.80e-02,
551,-2.00e-02,
552,2.00e-02,
553,-1.60e-02,
554,-1.20e-02,
555,1.60e-02,
556,-9.20e-02,
557,4.00e-02,
558,2.00e-02,
559,-1.20e-02,
560,2.40e-02,
561,-2.80e-02,
562,2.00e-02,
563,-1.60e-02,
564,2.00e-02,
565,-1.60e-02,
566,-3.20e-02,
567,4.40e-02,
568,2.40e-02,
569,-2.00e-02,
570,-2.40e-02,
571,3.20e-02,
572,2.40e-02,
573,-1.64e-01,
574,-1.60e-02,
575,2.40e-02,
576,-6.40e-02,
577,3.60e-02,
578,-2.00e-02,
579,2.40e-02,
580,2.00e-02,
581,-2.00e-02,
582,2.80e-02,
583,-2.00e-02,
584,-2.00e-02,
585,2.40e-02,
586,5.60e-02,
587,-4.80e-02,
588,-2.00e-02,
589,2.80e-02,
590,2.40e-02,
591,-2.00e-02,
592,-2.00e-02,
593,2.00e-02,
594,-1.20e-02,
595,2.00e-02,
596,3.20e-02,
597,-2.80e-02,
598,-1.60e-02,
599,2.40e-02,
600,-3.20e-02,
601,3.20e-02,
602,-1.20e-02,
603,2.00e-02,
604,2.00e-02,
605,-1.60e-02,
606,-4.80e-02,
607,4.80e-02,
608,-1.60e-02,
609,2.40e-02,
610,-2.00e-02,
611,2.40e-02,
612,-2.00e-02,
613,2.40e-02,
614,2.40e-02,
615,-2.00e-02,
616,-5.20e-02,
617,7.60e-02,
618,2.40e-02,
619,-2.00e-02,
620,3.60e-02,
621,-3.60e-02,
622,5.20e-02,
623,-2.00e-02,
624,-1.60e-02,
625,2.80e-02,
626,4.00e-02,
627,-2.80e-02,
628,-2.40e-02,
629,2.80e-02,
630,2.80e-02,
631,-2.40e-02,
632,-1.60e-02,
633,2.80e-02,
634,2.00e-02,
635,-2.00e-02,
636,3.20e-02,
637,-3.60e-02,
638,1.60e-02,
639,-1.60e-02,
640,-2.00e-02,
641,2.00e-02,
642,2.00e-02,
643,-2.00e-02,
644,-1.60e-02,
645,2.40e-02,
646,-5.60e-02,
647,8.00e-02,
648,2.56e-01,
649,-8.80e-02,
650,-1.60e-02,
651,2.40e-02,
652,-1.60e-02,
653,2.40e-02,
654,-1.60e-02,
655,2.40e-02,
656,3.60e-02,
657,-3.20e-02,
658,-2.00e-02,
659,2.80e-02,
660,-2.00e-02,
661,2.80e-02,
662,-1.60e-02,
663,2.00e-02,
664,2.00e-02,
665,-1.60e-02,
666,4.40e-02,
667,-2.80e-02,
668,-2.00e-02,
669,2.40e-02,
670,-2.40e-02,
671,2.00e-02,
672,2.40e-02,
673,-8.00e-02,
674,2.80e-02,
675,-2.00e-02,
676,2.40e-02,
677,-1.04e-01,
678,2.00e-02,
679,-1.60e-02,
680,2.40e-02,
681,-2.80e-02,
682,2.00e-02,
683,-1.60e-02,
684,1.60e-02,
685,-1.60e-02,
686,3.60e-02,
687,-3.20e-02,
688,2.00e-02,
689,-2.00e-02,
690,2.00e-02,
691,-2.40e-02,
692,-2.40e-02,
693,2.80e-02,
694,2.40e-02,
695,-2.00e-02,
696,2.40e-02,
697,-2.00e-02,
698,3.60e-02,
699,-2.00e-01,
700,2.40e-02,
701,-2.00e-02,
702,2.40e-02,
703,-1.60e-02,
704,2.40e-02,
705,-1.60e-02,
706,2.40e-02,
707,-2.00e-02,
708,-5.60e-02,
709,5.60e-02,
710,2.00e-02,
711,-2.40e-02,
712,2.40e-02,
713,-2.00e-02,
714,-2.40e-02,
715,3.20e-02,
716,2.40e-02,
717,-2.40e-02,
718,-3.60e-02,
719,2.80e-02,
720,2.00e-02,
721,-2.00e-02,
722,-1.32e-01,
723,2.52e-01,
724,2.00e-02,
725,-1.60e-02,
726,2.00e-02,
727,-1.60e-02,
728,4.40e-02,
729,-2.80e-02,
730,1.60e-02,
731,-1.60e-02,
732,-1.60e-02,
733,2.00e-02,
734,-1.60e-02,
735,2.40e-02,
736,-1.60e-02,
737,2.80e-02,
738,-9.20e-02,
739,1.04e-01,
740,-1.60e-02,
741,2.40e-02,
742,-2.40e-02,
743,2.40e-02,
744,2.40e-02,
745,-1.60e-02,
746,2.00e-02,
747,-1.60e-02,
748,1.88e-01,
749,-2.00e-02,
750,2.40e-02,
751,-1.60e-02,
752,2.40e-02,
753,-2.40e-02,
754,2.00e-02,
755,-2.00e-02,
756,2.80e-02,
757,-1.60e-02,
758,-4.40e-02,
759,4.40e-02,
760,1.60e-02,
761,-2.00e-02,
762,-2.00e-02,
763,2.40e-02,
764,2.40e-02,
765,-2.00e-02,
766,-1.60e-02,
767,2.00e-02,
768,-8.00e-02,
769,5.20e-02,
770,1.60e-02,
771,-1.60e-02,
772,2.00e-02,
773,-2.80e-02,
774,2.28e-01,
775,-3.20e-02,
776,-2.40e-02,
777,2.40e-02,
778,-4.00e-02,
779,4.00e-02,
780,-2.00e-02,
781,2.40e-02,
782,-2.00e-02,
783,3.20e-02,
784,2.00e-02,
785,-2.00e-02,
786,-1.60e-02,
787,2.40e-02,
788,6.00e-02,
789,-2.40e-02,
790,2.00e-02,
791,-2.00e-02,
792,-2.00e-02,
793,2.40e-02,
794,-2.00e-02,
795,2.80e-02,
796,2.00e-02,
797,-2.40e-02,
798,1.52e-01,
799,-1.48e-01,
800,-2.00e-02,
801,2.40e-02,
802,2.40e-02,
803,-2.00e-02,
804,-1.20e-02,
805,2.00e-02,
806,-1.60e-02,
807,2.00e-02,
808,6.40e-02,
809,-3.60e-02,
810,2.00e-02,
811,-1.60e-02,
812,2.00e-02,
813,-2.00e-02,
814,1.60e-02,
815,-1.60e-02,
816,-1.60e-02,
817,2.00e-02,
818,6.00e-02,
819,-3.20e-02,
820,2.40e-02,
821,-2.00e-02,
822,-2.00e-02,
823,2.40e-02,
824,2.00e-02,
825,-1.92e-01,
826,2.40e-02,
827,-1.60e-02,
828,1.12e-01,
829,-3.60e-02,
830,-1.60e-02,
831,2.40e-02,
832,2.40e-02,
833,-2.00e-02,
834,-2.00e-02,
835,2.40e-02,
836,-2.00e-02,
837,2.40e-02,
838,3.20e-02,
839,-2.40e-02,
840,2.40e-02,
841,-2.00e-02,
842,-2.40e-02,
843,4.00e-02,
844,-1.60e-02,
845,2.40e-02,
846,-1.60e-02,
847,2.00e-02,
848,-4.80e-02,
849,4.40e-02,
850,-2.16e-01,
851,4.40e-02,
852,-1.60e-02,
853,2.80e-02,
854,-1.60e-02,
855,2.00e-02,
856,-1.60e-02,
857,2.80e-02,
858,8.00e-02,
859,-5.60e-02,
860,4.00e-02,
861,-3.20e-02,
862,2.40e-02,
863,-1.60e-02,
864,2.80e-02,
865,-2.00e-02,
866,-2.40e-02,
867,2.40e-02,
868,3.20e-02,
869,-2.80e-02,
870,-1.60e-02,
871,2.40e-02,
872,2.00e-02,
873,-1.60e-02,
874,-2.80e-02,
875,2.40e-02,
876,1.80e-01,
877,-2.40e-02,
878,2.80e-02,
879,-2.40e-02,
880,-4.80e-02,
881,4.00e-02,
882,-2.00e-02,
883,2.80e-02,
884,2.80e-02,
885,-2.40e-02,
886,-1.60e-02,
887,2.40e-02,
888,2.00e-02,
889,-2.00e-02,
890,9.20e-02,
891,-6.00e-02,
892,-1.20e-02,
893,2.00e-02,
894,2.00e-02,
895,-1.60e-02,
896,-1.60e-02,
897,1.60e-02,
898,-1.20e-02,
899,2.00e-02,
900,-3.20e-02,
901,4.00e-02,
902,-1.60e-02,
903,1.48e-01,
904,2.00e-02,
905,-2.00e-02,
906,-2.00e-02,
907,2.00e-02,
908,2.40e-02,
909,-1.60e-02,
910,2.00e-02,
911,-6.80e-02,
912,-4.00e-02,
913,2.40e-02,
914,-2.00e-02,
915,2.80e-02,
916,-2.00e-02,
917,2.80e-02,
918,3.20e-02,
919,-2.00e-02,
920,5.60e-02,
921,-7.60e-02,
922,2.68e-01,
923,-1.40e-01,
924,-2.40e-02,
925,2.80e-02,
926,2.40e-02,
927,-1.60e-02,
928,-1.60e-02,
929,2.00e-02,
930,4.80e-02,
931,-3.20e-02,
932,2.00e-02,
933,-1.60e-02,
934,1.88e-01,
935,-1.00e-01,
936,-1.20e-02,
937,2.00e-02,
938,-1.20e-02,
939,2.00e-02,
940,3.60e-02,
941,-3.20e-02,
942,-1.60e-02,
943,2.00e-02,
944,2.00e-02,
945,-2.40e-02,
946,2.40e-02,
947,-2.00e-02,
948,2.80e-02,
949,-2.00e-02,
950,2.40e-02,
951,-6.00e-02,
952,2.80e-02,
953,-2.00e-02,
954,-2.40e-02,
955,2.40e-02,
956,2.40e-02,
957,-2.00e-02,
958,-2.00e-02,
959,2.80e-02,
960,-4.00e-02,
961,5.20e-02,
962,-1.56e-01,
963,3.60e-02,
964,-3.20e-02,
965,3.20e-02,
966,-2.40e-02,
967,2.40e-02,
968,2.40e-02,
969,-2.00e-02,
970,4.80e-02,
971,-6.00e-02,
972,2.40e-02,
973,-2.00e-02,
974,-1.20e-02,
975,2.00e-02,
976,-2.00e-02,
977,2.00e-02,
978,-1.20e-02,
979,2.00e-02,
980,6.80e-02,
981,-6.00e-02,
982,2.00e-02,
983,-1.60e-02,
984,-1.60e-02,
985,2.40e-02,
986,2.00e-02,
987,-1.60e-02,
988,-2.00e-02,
989,2.40e-02,
990,2.80e-02,
991,-2.52e-01,
992,-1.60e-02,
993,1.60e-02,
994,-1.60e-02,
995,4.00e-02,
996,-1.60e-02,
997,2.00e-02,
998,-1.60e-02,
999,2.00e-02,
1000,-4.00e-02,
1001,4.80e-02,
1002,-2.40e-02,
1003,2.40e-02,
1004,2.80e-02,
1005,-2.00e-02,
1006,-2.40e-02,
1007,3.20e-02,
1008,2.40e-02,
1009,-2.00e-02,
1010,7.60e-02,
1011,-7.20e-02,
1012,-2.00e-02,
1013,2.40e-02,
1014,1.60e-02,
1015,-2.40e-02,
1016,2.00e-02,
1017,-2.00e-02,
1018,2.20e-01,
1019,-2.08e-01,
1020,4.00e-02,
1021,-5.20e-02,
1022,2.00e-02,
1023,-1.60e-02,
1024,-1.60e-02,
1025,2.00e-02,
1026,-2.00e-02,
1027,2.00e-02,
1028,2.80e-02,
1029,-1.60e-02,
1030,2.00e-02,
1031,-2.00e-02,
1032,-4.40e-02,
1033,2.40e-02,
1034,2.80e-02,
1035,-2.00e-02,
1036,2.00e-02,
1037,-2.00e-02,
1038,2.40e-02,
1039,-2.00e-02,
1040,2.40e-02,
1041,-2.00e-02,
1042,8.00e-02,
1043,-5.20e-02,
1044,2.24e-01,
1045,-2.80e-02,
1046,4.00e-02,
1047,-2.40e-02,
1048,-2.80e-02,
1049,2.80e-02,
1050,5.20e-02,
1051,-4.00e-02,
1052,6.00e-02,
1053,-1.60e-02,
1054,2.00e-02,
1055,-2.00e-02,
1056,-2.40e-02,
1057,2.00e-02,
1058,-1.60e-02,
1059,2.40e-02,
1060,2.00e-02,
1061,-1.60e-02,
1062,-5.20e-02,
1063,5.20e-02,
1064,1.60e-02,
1065,-1.20e-02,
1066,2.00e-02,
1067,-1.60e-02,
1068,-2.00e-02,
1069,2.00e-02,
1070,-2.00e-02,
1071,3.60e-02,
1072,-6.80e-02,
1073,4.40e-02,
1074,-2.00e-02,
1075,2.40e-02,
1076,-2.00e-02,
1077,2.80e-02,
1078,-1.60e-02,
1079,2.00e-02,
1080,2.00e-02,
1081,-2.00e-02,
1082,-2.40e-02,
1083,4.00e-02,
1084,2.40e-02,
1085,-1.60e-02,
1086,3.20e-02,
1087,-2.40e-02,
1088,-2.00e-02,
1089,2.40e-02,
1090,-2.00e-02,
1091,2.40e-02,
1092,5.20e-02,
1093,-4.00e-02,
1094,-1.60e-02,
1095,2.00e-02,
1096,-1.60e-01,
1097,1.32e-01,
1098,-1.20e-02,
1099,2.40e-02,
1100,-1.60e-02,
1101,2.40e-02,
1102,-1.60e-02,
1103,6.40e-02,
1104,-2.00e-02,
1105,2.40e-02,
1106,-1.60e-02,
1107,2.40e-02,
1108,2.00e-02,
1109,-1.60e-02,
1110,-2.00e-02,
1111,2.00e-02,
1112,3.20e-02,
1113,-2.80e-02,
1114,2.00e-02,
1115,-2.00e-02,
1116,-2.40e-02,
1117,2.40e-02,
1118,-2.00e-02,
1119,2.80e-02,
1120,-2.40e-02,
1121,2.80e-02,
1122,-2.12e-01,
1123,4.00e-02,
1124,-2.40e-02,
1125,2.40e-02,
1126,2.80e-02,
1127,-2.40e-02,
1128,2.40e-02,
1129,-2.40e-02,
1130,-2.80e-02,
1131,2.80e-02,
1132,6.40e-02,
1133,-8.00e-02,
1134,2.80e-02,
1135,-2.00e-02,
1136,4.00e-02,
1137,-3.20e-02,
1138,2.40e-02,
1139,-1.60e-02,
1140,1.60e-02,
1141,-1.60e-02,
1142,-2.40e-02,
1143,4.00e-02,
1144,-1.60e-02,
1145,2.00e-02,
1146,-1.60e-02,
1147,3.20e-02,
1148,1.76e-01,
1149,-4.00e-02,
1150,-1.60e-02,
1151,2.00e-02,
1152,-5.20e-02,
1153,2.40e-02,
1154,2.00e-02,
1155,-2.00e-02,
1156,-2.00e-02,
1157,2.00e-02,
1158,-1.60e-02,
1159,2.40e-02,
1160,2.00e-02,
1161,-2.00e-02,
1162,-6.00e-02,
1163,6.00e-02,
1164,-1.60e-02,
1165,2.40e-02,
1166,-2.40e-02,
1167,2.80e-02,
1168,-2.40e-02,
1169,2.40e-02,
1170,2.80e-02,
1171,-2.00e-02,
1172,-3.20e-02,
1173,4.00e-02,
1174,-1.64e-01,
1175,1.00e-01,
1176,-4.00e-02,
1177,2.80e-02,
1178,2.00e-02,
1179,-1.60e-02,
1180,2.40e-02,
1181,-1.60e-02,
1182,5.20e-02,
1183,-3.20e-02,
1184,2.00e-02,
1185,-1.60e-02,
1186,-1.60e-02,
1187,2.40e-02,
1188,-1.60e-02,
1189,2.40e-02,
1190,-1.60e-02,
1191,2.40e-02,
1192,-2.00e-02,
1193,7.60e-02,
1194,-2.00e-02,
1195,2.00e-02,
1196,2.40e-02,
1197,-1.60e-02,
1198,-1.36e-01,
1199,1.52e-01,
