Motor_Data/MOTOR_1_ON/time domain/NewFile56.csv

X,CH2,Start,Increment,
Sequence,Volt,-3.000000e-02,5.000000e-05
0,-4.00e-03,
1,6.00e-03,
2,-4.00e-03,
3,6.00e-03,
4,6.00e-03,
5,-6.00e-03,
6,6.00e-03,
7,-4.00e-03,
8,-6.00e-03,
9,6.00e-03,
10,6.00e-03,
11,-6.00e-03,
12,6.00e-03,
13,-1.00e-02,
14,-6.00e-03,
15,1.80e-02,
16,-2.12e-01,
17,1.54e-01,
18,-1.20e-02,
19,1.00e-02,
20,-1.80e-02,
21,1.80e-02,
22,-4.00e-03,
23,1.80e-02,
24,4.00e-03,
25,-4.00e-03,
26,-6.00e-03,
27,6.00e-03,
28,-4.00e-03,
29,6.00e-03,
30,-6.00e-03,
31,6.00e-03,
32,4.00e-03,
33,-4.00e-03,
34,-4.00e-03,
35,6.00e-03,
36,6.00e-03,
37,-8.00e-03,
38,6.00e-03,
39,-6.00e-03,
40,2.60e-01,
41,-1.12e-01,
42,-1.00e-02,
43,8.00e-03,
44,-1.60e-02,
45,1.60e-02,
46,-1.40e-02,
47,1.20e-02,
48,-1.00e-02,
49,6.00e-03,
50,-1.20e-02,
51,2.00e-02,
52,-4.00e-03,
53,1.00e-02,
54,-4.00e-03,
55,6.00e-03,
56,-4.00e-03,
57,6.00e-03,
58,6.00e-03,
59,-4.00e-03,
60,4.00e-03,
61,-6.00e-03,
62,6.00e-03,
63,-6.00e-03,
64,-6.00e-03,
65,6.00e-03,
66,1.46e-01,
67,-1.40e-02,
68,-4.00e-03,
69,1.80e-02,
70,6.00e-03,
71,-1.20e-02,
72,4.00e-03,
73,-1.40e-02,
74,-4.00e-03,
75,2.00e-02,
76,1.40e-02,
77,-6.00e-03,
78,4.00e-03,
79,-8.00e-03,
80,4.00e-03,
81,-1.40e-02,
82,-4.00e-03,
83,6.00e-03,
84,6.00e-03,
85,-4.00e-03,
86,-4.00e-03,
87,6.00e-03,
88,6.00e-03,
89,-6.00e-03,
90,-1.28e-01,
91,2.18e-01,
92,6.00e-03,
93,-4.00e-03,
94,-1.00e-02,
95,1.60e-02,
96,-1.00e-02,
97,8.00e-03,
98,2.20e-02,
99,-1.60e-02,
100,-1.20e-02,
101,1.20e-02,
102,8.00e-03,
103,-8.00e-03,
104,-1.80e-02,
105,1.80e-02,
106,-4.00e-03,
107,6.00e-03,
108,-4.00e-03,
109,6.00e-03,
110,-4.00e-03,
111,8.00e-03,
112,-4.00e-03,
113,6.00e-03,
114,-4.00e-03,
115,2.00e-02,
116,-4.00e-03,
117,6.00e-03,
118,-1.20e-02,
119,8.00e-03,
120,-1.00e-02,
121,8.00e-03,
122,1.80e-02,
123,-8.00e-03,
124,1.20e-02,
125,-1.60e-02,
126,6.00e-03,
127,-1.40e-02,
128,-8.00e-03,
129,1.80e-02,
130,-4.00e-03,
131,1.60e-02,
132,6.00e-03,
133,-1.20e-02,
134,6.00e-03,
135,-1.20e-02,
136,6.00e-03,
137,-4.00e-03,
138,-4.00e-03,
139,2.20e-02,
140,-4.00e-03,
141,8.00e-03,
142,4.00e-03,
143,-6.00e-03,
144,-8.00e-03,
145,6.00e-03,
146,-4.00e-03,
147,6.00e-03,
148,1.20e-02,
149,-1.20e-02,
150,1.40e-02,
151,-1.80e-02,
152,1.60e-02,
153,-1.00e-02,
154,-1.20e-02,
155,8.00e-03,
156,1.00e-02,
157,-1.40e-02,
158,2.00e-02,
159,-1.60e-02,
160,-4.00e-03,
161,6.00e-03,
162,4.00e-03,
163,-4.00e-03,
164,3.80e-02,
165,-1.02e-01,
166,6.00e-03,
167,-4.00e-03,
168,4.00e-03,
169,-4.00e-03,
170,-6.00e-03,
171,6.00e-03,
172,-1.20e-02,
173,6.00e-03,
174,-6.00e-03,
175,1.20e-02,
176,1.60e-02,
177,-4.00e-03,
178,1.60e-02,
179,-1.40e-02,
180,1.00e-02,
181,-1.40e-02,
182,1.80e-02,
183,-4.00e-03,
184,8.00e-03,
185,-6.00e-03,
186,8.00e-03,
187,-1.20e-02,
188,1.00e-02,
189,-1.00e-02,
190,6.00e-03,
191,-4.00e-03,
192,-6.00e-03,
193,8.00e-03,
194,6.00e-03,
195,-8.00e-03,
196,6.00e-03,
197,-8.00e-03,
198,6.00e-03,
199,-6.00e-03,
200,-4.00e-03,
201,8.00e-03,
202,-1.20e-02,
203,1.40e-02,
204,2.00e-02,
205,-1.80e-02,
206,1.40e-02,
207,-6.00e-03,
208,-1.00e-02,
209,1.20e-02,
210,1.80e-02,
211,-1.20e-02,
212,1.60e-02,
213,-3.40e-02,
214,-4.00e-03,
215,4.00e-03,
216,-4.00e-03,
217,6.00e-03,
218,-4.00e-03,
219,6.00e-03,
220,4.00e-03,
221,-4.00e-03,
222,-4.00e-03,
223,6.00e-03,
224,-4.00e-03,
225,8.00e-03,
226,6.00e-03,
227,-1.40e-02,
228,-4.00e-03,
229,2.00e-02,
230,1.80e-02,
231,-8.00e-03,
232,-1.00e-02,
233,1.20e-02,
234,-1.60e-02,
235,1.60e-02,
236,2.98e-01,
237,-2.00e-02,
238,1.00e-02,
239,-6.00e-03,
240,6.00e-03,
241,-1.40e-02,
242,4.00e-03,
243,-8.00e-03,
244,6.00e-03,
245,-6.00e-03,
246,-6.00e-03,
247,6.00e-03,
248,4.00e-03,
249,-8.00e-03,
250,-6.00e-03,
251,6.00e-03,
252,-6.00e-03,
253,6.00e-03,
254,-4.00e-03,
255,1.00e-02,
256,-1.40e-02,
257,1.20e-02,
258,-1.60e-02,
259,2.20e-02,
260,-6.00e-03,
261,1.20e-02,
262,-1.20e-02,
263,2.60e-02,
264,1.60e-02,
265,-1.60e-02,
266,1.80e-02,
267,-8.00e-03,
268,4.00e-03,
269,-6.00e-03,
270,-6.00e-03,
271,8.00e-03,
272,4.00e-03,
273,-6.00e-03,
274,-4.00e-03,
275,6.00e-03,
276,4.00e-03,
277,-6.00e-03,
278,-6.00e-03,
279,6.00e-03,
280,-1.00e-02,
281,6.00e-03,
282,2.00e-02,
283,-6.00e-03,
284,-8.00e-03,
285,1.60e-02,
286,-1.40e-02,
287,2.80e-02,
288,-1.60e-02,
289,1.60e-02,
290,-4.00e-03,
291,1.80e-02,
292,8.00e-03,
293,-6.00e-03,
294,4.00e-03,
295,-1.20e-02,
296,4.00e-03,
297,-4.00e-03,
298,-4.00e-03,
299,6.00e-03,
300,-4.00e-03,
301,6.00e-03,
302,-6.00e-03,
303,6.00e-03,
304,4.00e-03,
305,-6.00e-03,
306,-4.00e-03,
307,6.00e-03,
308,-1.00e-02,
309,1.20e-02,
310,1.94e-01,
311,-2.12e-01,
312,-1.80e-02,
313,1.60e-02,
314,-1.20e-02,
315,1.40e-02,
316,-4.00e-03,
317,8.00e-03,
318,2.00e-02,
319,-1.40e-02,
320,1.20e-02,
321,-4.00e-03,
322,-4.00e-03,
323,6.00e-03,
324,-4.00e-03,
325,1.00e-02,
326,-6.00e-03,
327,6.00e-03,
328,-6.00e-03,
329,6.00e-03,
330,-6.00e-03,
331,6.00e-03,
332,-1.00e-02,
333,6.00e-03,
334,-1.20e-02,
335,6.00e-03,
336,-2.12e-01,
337,5.40e-02,
338,-1.40e-02,
339,1.60e-02,
340,6.00e-03,
341,-1.20e-02,
342,-4.00e-03,
343,1.80e-02,
344,1.40e-02,
345,-6.00e-03,
346,6.00e-03,
347,-8.00e-03,
348,4.00e-03,
349,-1.60e-02,
350,-4.00e-03,
351,6.00e-03,
352,4.00e-03,
353,-6.00e-03,
354,6.00e-03,
355,-4.00e-03,
356,6.00e-03,
357,-6.00e-03,
358,4.00e-03,
359,-6.00e-03,
360,2.68e-01,
361,-2.12e-01,
362,-1.00e-02,
363,1.40e-02,
364,8.00e-03,
365,-1.40e-02,
366,2.00e-02,
367,-1.60e-02,
368,1.40e-02,
369,-1.40e-02,
370,-1.00e-02,
371,6.00e-03,
372,-1.80e-02,
373,1.60e-02,
374,-4.00e-03,
375,6.00e-03,
376,6.00e-03,
377,-6.00e-03,
378,-4.00e-03,
379,6.00e-03,
380,6.00e-03,
381,-4.00e-03,
382,-6.00e-03,
383,6.00e-03,
384,-2.12e-01,
385,6.00e-03,
386,6.00e-03,
387,-1.40e-02,
388,-1.40e-02,
389,8.00e-03,
390,2.00e-02,
391,-6.00e-03,
392,-4.00e-03,
393,8.00e-03,
394,4.00e-03,
395,-1.60e-02,
396,-8.00e-03,
397,2.00e-02,
398,-4.00e-03,
399,1.20e-02,
400,6.00e-03,
401,-8.00e-03,
402,6.00e-03,
403,-1.40e-02,
404,-4.00e-03,
405,6.00e-03,
406,-4.00e-03,
407,6.00e-03,
408,6.00e-03,
409,-6.00e-03,
410,-1.68e-01,
411,2.98e-01,
412,-6.00e-03,
413,6.00e-03,
414,6.00e-03,
415,-4.00e-03,
416,-1.40e-02,
417,1.40e-02,
418,1.20e-02,
419,-1.40e-02,
420,1.80e-02,
421,-1.20e-02,
422,-8.00e-03,
423,1.40e-02,
424,8.00e-03,
425,-1.00e-02,
426,2.00e-02,
427,-1.60e-02,
428,6.00e-03,
429,-6.00e-03,
430,6.00e-03,
431,-4.00e-03,
432,6.00e-03,
433,-6.00e-03,
434,2.60e-02,
435,-6.00e-03,
436,-6.00e-03,
437,6.00e-03,
438,6.00e-03,
439,-6.00e-03,
440,6.00e-03,
441,-1.40e-02,
442,-8.00e-03,
443,1.40e-02,
444,1.80e-02,
445,-6.00e-03,
446,1.40e-02,
447,-1.20e-02,
448,6.00e-03,
449,-1.60e-02,
450,1.60e-02,
451,-6.00e-03,
452,-4.00e-03,
453,1.20e-02,
454,6.00e-03,
455,-1.20e-02,
456,6.00e-03,
457,-1.20e-02,
458,-1.74e-01,
459,1.32e-01,
460,-6.00e-03,
461,8.00e-03,
462,-6.00e-03,
463,6.00e-03,
464,4.00e-03,
465,-6.00e-03,
466,6.00e-03,
467,-1.00e-02,
468,-4.00e-03,
469,6.00e-03,
470,1.60e-02,
471,-1.40e-02,
472,2.00e-02,
473,-1.40e-02,
474,1.60e-02,
475,-6.00e-03,
476,4.00e-03,
477,-1.40e-02,
478,1.40e-02,
479,-1.80e-02,
480,2.00e-02,
481,-1.20e-02,
482,2.98e-01,
483,-2.12e-01,
484,-6.00e-03,
485,6.00e-03,
486,-6.00e-03,
487,6.00e-03,
488,6.00e-03,
489,-6.00e-03,
490,-4.00e-03,
491,6.00e-03,
492,-4.00e-03,
493,6.00e-03,
494,6.00e-03,
495,-1.40e-02,
496,-6.00e-03,
497,1.40e-02,
498,-4.00e-03,
499,1.40e-02,
500,-1.40e-02,
501,1.20e-02,
502,-1.40e-02,
503,1.20e-02,
504,1.80e-02,
505,-6.00e-03,
506,8.00e-03,
507,-6.00e-03,
508,2.98e-01,
509,-1.40e-02,
510,-6.00e-03,
511,6.00e-03,
512,6.00e-03,
513,-6.00e-03,
514,6.00e-03,
515,-6.00e-03,
516,4.00e-03,
517,-4.00e-03,
518,6.00e-03,
519,-6.00e-03,
520,4.00e-03,
521,-6.00e-03,
522,-6.00e-03,
523,8.00e-03,
524,-1.00e-02,
525,1.40e-02,
526,-1.40e-02,
527,2.20e-02,
528,1.20e-02,
529,-8.00e-03,
530,-1.00e-02,
531,1.00e-02,
532,9.00e-02,
533,-1.92e-01,
534,1.40e-02,
535,-8.00e-03,
536,6.00e-03,
537,-4.00e-03,
538,6.00e-03,
539,-6.00e-03,
540,6.00e-03,
541,-6.00e-03,
542,-4.00e-03,
543,6.00e-03,
544,-4.00e-03,
545,6.00e-03,
546,-6.00e-03,
547,8.00e-03,
548,-1.40e-02,
549,6.00e-03,
550,-4.00e-03,
551,2.20e-02,
552,-6.00e-03,
553,1.20e-02,
554,-1.40e-02,
555,8.00e-03,
556,8.00e-03,
557,-2.40e-02,
558,-4.00e-03,
559,1.80e-02,
560,-4.00e-03,
561,8.00e-03,
562,4.00e-03,
563,-1.20e-02,
564,6.00e-03,
565,-4.00e-03,
566,6.00e-03,
567,-4.00e-03,
568,-4.00e-03,
569,8.00e-03,
570,6.00e-03,
571,-4.00e-03,
572,4.00e-03,
573,-6.00e-03,
574,-4.00e-03,
575,6.00e-03,
576,-6.00e-03,
577,1.20e-02,
578,-1.00e-02,
579,1.20e-02,
580,1.80e-02,
581,-1.60e-02,
582,1.14e-01,
583,-2.12e-01,
584,8.00e-03,
585,-6.00e-03,
586,6.00e-03,
587,-1.40e-02,
588,1.40e-02,
589,-6.00e-03,
590,-4.00e-03,
591,6.00e-03,
592,1.00e-02,
593,-6.00e-03,
594,-4.00e-03,
595,6.00e-03,
596,-4.00e-03,
597,6.00e-03,
598,6.00e-03,
599,-6.00e-03,
600,6.00e-03,
601,-8.00e-03,
602,-1.40e-02,
603,6.00e-03,
604,1.60e-02,
605,-6.00e-03,
606,-1.60e-02,
607,2.98e-01,
608,4.00e-03,
609,-1.40e-02,
610,-1.40e-02,
611,1.40e-02,
612,-4.00e-03,
613,1.40e-02,
614,4.00e-03,
615,-6.00e-03,
616,6.00e-03,
617,-1.40e-02,
618,6.00e-03,
619,-6.00e-03,
620,-4.00e-03,
621,6.00e-03,
622,8.00e-03,
623,-8.00e-03,
624,4.00e-03,
625,-4.00e-03,
626,4.00e-03,
627,-4.00e-03,
628,-4.00e-03,
629,6.00e-03,
630,1.20e-02,
631,-1.38e-01,
632,6.00e-03,
633,-1.40e-02,
634,1.80e-02,
635,-1.60e-02,
636,-4.00e-03,
637,1.40e-02,
638,-8.00e-03,
639,6.00e-03,
640,-1.40e-02,
641,1.80e-02,
642,-4.00e-03,
643,8.00e-03,
644,-4.00e-03,
645,6.00e-03,
646,-6.00e-03,
647,6.00e-03,
648,6.00e-03,
649,-6.00e-03,
650,-6.00e-03,
651,6.00e-03,
652,4.00e-03,
653,-4.00e-03,
654,-8.00e-03,
655,6.00e-03,
656,1.86e-01,
657,-1.86e-01,
658,1.80e-02,
659,-4.00e-03,
660,1.20e-02,
661,-1.20e-02,
662,4.00e-03,
663,-1.60e-02,
664,-8.00e-03,
665,2.00e-02,
666,-6.00e-03,
667,1.20e-02,
668,6.00e-03,
669,-1.00e-02,
670,6.00e-03,
671,-1.60e-02,
672,4.00e-03,
673,-6.00e-03,
674,-4.00e-03,
675,6.00e-03,
676,6.00e-03,
677,-6.00e-03,
678,-4.00e-03,
679,6.00e-03,
680,-6.00e-03,
681,4.20e-02,
682,-4.00e-03,
683,6.00e-03,
684,1.20e-02,
685,-1.20e-02,
686,1.20e-02,
687,-1.40e-02,
688,1.60e-02,
689,-1.00e-02,
690,1.40e-02,
691,-1.20e-02,
692,8.00e-03,
693,-1.00e-02,
694,2.00e-02,
695,-1.40e-02,
696,-4.00e-03,
697,6.00e-03,
698,-4.00e-03,
699,6.00e-03,
700,-4.00e-03,
701,6.00e-03,
702,6.00e-03,
703,-6.00e-03,
704,-6.00e-03,
705,6.40e-02,
706,4.00e-03,
707,-8.00e-03,
708,6.00e-03,
709,-1.20e-02,
710,-6.00e-03,
711,6.00e-03,
712,-8.00e-03,
713,1.20e-02,
714,4.00e-03,
715,-1.40e-02,
716,6.00e-03,
717,-1.60e-02,
718,2.00e-02,
719,-6.00e-03,
720,-4.00e-03,
721,1.40e-02,
722,6.00e-03,
723,-1.40e-02,
724,-1.20e-02,
725,6.00e-03,
726,4.00e-03,
727,-4.00e-03,
728,-6.00e-03,
729,2.20e-02,
730,-6.00e-03,
731,6.00e-03,
732,-6.00e-03,
733,6.00e-03,
734,4.00e-03,
735,-8.00e-03,
736,-4.00e-03,
737,6.00e-03,
738,1.60e-02,
739,-1.40e-02,
740,1.60e-02,
741,-2.00e-02,
742,1.40e-02,
743,-6.00e-03,
744,4.00e-03,
745,-6.00e-03,
746,6.00e-03,
747,-1.40e-02,
748,4.00e-03,
749,-1.40e-02,
750,4.00e-03,
751,-4.00e-03,
752,-6.00e-03,
753,8.00e-03,
754,-4.00e-03,
755,2.40e-02,
756,4.00e-03,
757,-4.00e-03,
758,4.00e-03,
759,-4.00e-03,
760,-4.00e-03,
761,6.00e-03,
762,4.00e-03,
763,-1.40e-02,
764,-4.00e-03,
765,1.60e-02,
766,1.80e-02,
767,-6.00e-03,
768,-1.20e-02,
769,1.20e-02,
770,-1.60e-02,
771,1.00e-02,
772,-4.00e-03,
773,2.00e-02,
774,6.00e-03,
775,-4.00e-03,
776,6.00e-03,
777,-1.60e-02,
778,6.40e-02,
779,-6.20e-02,
780,-4.00e-03,
781,6.00e-03,
782,-6.00e-03,
783,6.00e-03,
784,-4.00e-03,
785,6.00e-03,
786,-6.00e-03,
787,6.00e-03,
788,-4.00e-03,
789,6.00e-03,
790,-4.00e-03,
791,1.00e-02,
792,-1.20e-02,
793,1.40e-02,
794,-1.80e-02,
795,2.00e-02,
796,6.00e-03,
797,-6.00e-03,
798,-1.20e-02,
799,1.00e-02,
800,1.80e-02,
801,-1.40e-02,
802,-2.12e-01,
803,2.98e-01,
804,-4.00e-03,
805,6.00e-03,
806,6.00e-03,
807,-8.00e-03,
808,-4.00e-03,
809,6.00e-03,
810,6.00e-03,
811,-4.00e-03,
812,-4.00e-03,
813,6.00e-03,
814,-6.00e-03,
815,6.00e-03,
816,6.00e-03,
817,-1.00e-02,
818,-6.00e-03,
819,1.60e-02,
820,-6.00e-03,
821,1.40e-02,
822,-1.60e-02,
823,6.00e-03,
824,-1.40e-02,
825,1.80e-02,
826,2.00e-02,
827,-1.50e-01,
828,8.00e-03,
829,-6.00e-03,
830,6.00e-03,
831,-1.40e-02,
832,6.00e-03,
833,-6.00e-03,
834,4.00e-03,
835,-6.00e-03,
836,-4.00e-03,
837,6.00e-03,
838,-6.00e-03,
839,6.00e-03,
840,-4.00e-03,
841,6.00e-03,
842,-4.00e-03,
843,8.00e-03,
844,-6.00e-03,
845,1.00e-02,
846,-1.00e-02,
847,1.20e-02,
848,1.60e-02,
849,-1.60e-02,
850,-1.00e-02,
851,1.20e-02,
852,-1.60e-02,
853,2.98e-01,
854,-1.20e-02,
855,2.00e-02,
856,1.20e-02,
857,-4.00e-03,
858,-4.00e-03,
859,6.00e-03,
860,-6.00e-03,
861,6.00e-03,
862,6.00e-03,
863,-6.00e-03,
864,4.00e-03,
865,-6.00e-03,
866,-4.00e-03,
867,6.00e-03,
868,6.00e-03,
869,-1.00e-02,
870,-1.20e-02,
871,6.00e-03,
872,-4.00e-03,
873,1.80e-02,
874,-4.00e-03,
875,1.20e-02,
876,-7.40e-02,
877,2.40e-02,
878,-4.00e-03,
879,1.40e-02,
880,-4.00e-03,
881,1.20e-02,
882,4.00e-03,
883,-6.00e-03,
884,4.00e-03,
885,-1.20e-02,
886,4.00e-03,
887,-6.00e-03,
888,-4.00e-03,
889,6.00e-03,
890,-4.00e-03,
891,6.00e-03,
892,-4.00e-03,
893,6.00e-03,
894,-6.00e-03,
895,6.00e-03,
896,6.00e-03,
897,-4.00e-03,
898,-1.00e-02,
899,1.40e-02,
900,2.98e-01,
901,-1.40e-02,
902,1.80e-02,
903,-1.80e-02,
904,6.00e-03,
905,-1.40e-02,
906,-1.00e-02,
907,6.00e-03,
908,1.60e-02,
909,-1.40e-02,
910,-4.00e-03,
911,6.00e-03,
912,4.00e-03,
913,-6.00e-03,
914,-4.00e-03,
915,8.00e-03,
916,-6.00e-03,
917,6.00e-03,
918,6.00e-03,
919,-6.00e-03,
920,-6.00e-03,
921,6.00e-03,
922,6.00e-03,
923,-6.00e-03,
924,6.00e-03,
925,-1.20e-02,
926,-3.00e-02,
927,4.60e-02,
928,1.20e-02,
929,-1.40e-02,
930,-1.40e-02,
931,6.00e-03,
932,-1.00e-02,
933,1.80e-02,
934,-4.00e-03,
935,1.40e-02,
936,6.00e-03,
937,-1.40e-02,
938,4.00e-03,
939,-1.20e-02,
940,-4.00e-03,
941,6.00e-03,
942,6.00e-03,
943,-6.00e-03,
944,-4.00e-03,
945,8.00e-03,
946,-6.00e-03,
947,8.00e-03,
948,6.00e-03,
949,-4.00e-03,
950,6.00e-03,
951,-5.00e-02,
952,-6.00e-03,
953,6.00e-03,
954,1.00e-02,
955,-1.20e-02,
956,1.80e-02,
957,-1.20e-02,
958,-1.20e-02,
959,8.00e-03,
960,8.00e-03,
961,-1.20e-02,
962,1.80e-02,
963,-1.40e-02,
964,6.00e-03,
965,-4.00e-03,
966,6.00e-03,
967,-6.00e-03,
968,-4.00e-03,
969,6.00e-03,
970,6.00e-03,
971,-6.00e-03,
972,6.00e-03,
973,-6.00e-03,
974,1.20e-01,
975,-1.26e-01,
976,-1.20e-02,
977,8.00e-03,
978,-8.00e-03,
979,1.20e-02,
980,1.80e-02,
981,-8.00e-03,
982,4.00e-03,
983,-1.40e-02,
984,8.00e-03,
985,-1.40e-02,
986,-4.00e-03,
987,1.80e-02,
988,-4.00e-03,
989,1.20e-02,
990,6.00e-03,
991,-1.40e-02,
992,-4.00e-03,
993,6.00e-03,
994,6.00e-03,
995,-6.00e-03,
996,-4.00e-03,
997,8.00e-03,
998,6.00e-03,
999,-6.00e-03,
1000,-2.00e-01,
1001,7.40e-02,
1002,4.00e-03,
1003,-6.00e-03,
1004,-4.00e-03,
1005,8.00e-03,
1006,1.00e-02,
1007,-1.40e-02,
1008,1.60e-02,
1009,-1.60e-02,
1010,1.60e-02,
1011,-8.00e-03,
1012,-1.20e-02,
1013,1.00e-02,
1014,1.00e-02,
1015,-1.60e-02,
1016,1.80e-02,
1017,-1.60e-02,
1018,6.00e-03,
1019,-6.00e-03,
1020,4.00e-03,
1021,-4.00e-03,
1022,4.00e-03,
1023,-6.00e-03,
1024,-7.60e-02,
1025,1.60e-02,
1026,-4.00e-03,
1027,6.00e-03,
1028,-4.00e-03,
1029,6.00e-03,
1030,6.00e-03,
1031,-1.00e-02,
1032,-4.00e-03,
1033,8.00e-03,
1034,-4.00e-03,
1035,1.80e-02,
1036,-1.20e-02,
1037,6.00e-03,
1038,1.00e-02,
1039,-1.40e-02,
1040,2.00e-02,
1041,-6.00e-03,
1042,-4.00e-03,
1043,8.00e-03,
1044,6.00e-03,
1045,-1.40e-02,
1046,6.00e-03,
1047,-8.00e-03,
1048,2.00e-01,
1049,-4.80e-02,
1050,-4.00e-03,
1051,6.00e-03,
1052,-6.00e-03,
1053,6.00e-03,
1054,4.00e-03,
1055,-4.00e-03,
1056,-6.00e-03,
1057,6.00e-03,
1058,6.00e-03,
1059,-4.00e-03,
1060,-1.00e-02,
1061,1.40e-02,
1062,2.20e-02,
1063,-1.60e-02,
1064,-6.00e-03,
1065,1.40e-02,
1066,-1.00e-02,
1067,1.00e-02,
1068,-8.00e-03,
1069,1.60e-02,
1070,6.00e-03,
1071,-4.00e-03,
1072,6.00e-03,
1073,-1.28e-01,
1074,6.00e-03,
1075,-6.00e-03,
1076,-4.00e-03,
1077,6.00e-03,
1078,-4.00e-03,
1079,6.00e-03,
1080,6.00e-03,
1081,-6.00e-03,
1082,-4.00e-03,
1083,6.00e-03,
1084,4.00e-03,
1085,-1.40e-02,
1086,-4.00e-03,
1087,1.60e-02,
1088,1.20e-02,
1089,-6.00e-03,
1090,-1.20e-02,
1091,1.00e-02,
1092,-1.60e-02,
1093,1.60e-02,
1094,1.60e-02,
1095,-6.00e-03,
1096,8.00e-03,
1097,-4.00e-03,
1098,-2.12e-01,
1099,2.60e-02,
1100,6.00e-03,
1101,-6.00e-03,
1102,-4.00e-03,
1103,6.00e-03,
1104,-4.00e-03,
1105,6.00e-03,
1106,-8.00e-03,
1107,6.00e-03,
1108,6.00e-03,
1109,-1.00e-02,
1110,6.00e-03,
1111,-6.00e-03,
1112,-4.00e-03,
1113,1.20e-02,
1114,6.00e-03,
1115,-6.00e-03,
1116,6.00e-03,
1117,-1.80e-02,
1118,-6.00e-03,
1119,1.40e-02,
1120,-1.40e-02,
1121,1.00e-02,
1122,1.86e-01,
1123,-3.80e-02,
1124,1.40e-02,
1125,-6.00e-03,
1126,-4.00e-03,
1127,6.00e-03,
1128,6.00e-03,
1129,-4.00e-03,
1130,-4.00e-03,
1131,6.00e-03,
1132,6.00e-03,
1133,-6.00e-03,
1134,6.00e-03,
1135,-6.00e-03,
1136,-4.00e-03,
1137,6.00e-03,
1138,-1.20e-02,
1139,6.00e-03,
1140,2.00e-02,
1141,-6.00e-03,
1142,8.00e-03,
1143,-6.00e-03,
1144,6.00e-03,
1145,-1.00e-02,
1146,-1.60e-02,
1147,2.00e-02,
1148,-4.00e-03,
1149,1.60e-02,
1150,6.00e-03,
1151,-8.00e-03,
1152,6.00e-03,
1153,-6.00e-03,
1154,-4.00e-03,
1155,6.00e-03,
1156,-4.00e-03,
1157,6.00e-03,
1158,6.00e-03,
1159,-4.00e-03,
1160,-4.00e-03,
1161,6.00e-03,
1162,6.00e-03,
1163,-6.00e-03,
1164,-4.00e-03,
1165,6.00e-03,
1166,-8.00e-03,
1167,1.20e-02,
1168,-8.00e-03,
1169,8.00e-03,
1170,1.80e-02,
1171,-1.60e-02,
1172,1.50e-01,
1173,-1.20e-02,
1174,-8.00e-03,
1175,6.00e-03,
1176,-1.40e-02,
1177,2.00e-02,
1178,6.00e-03,
1179,-6.00e-03,
1180,4.00e-03,
1181,-4.00e-03,
1182,6.00e-03,
1183,-4.00e-03,
1184,6.00e-03,
1185,-6.00e-03,
1186,6.00e-03,
1187,-6.00e-03,
1188,-4.00e-03,
1189,6.00e-03,
1190,8.00e-03,
1191,-6.00e-03,
1192,-4.00e-03,
1193,6.00e-03,
1194,1.80e-02,
1195,-8.00e-03,
1196,-6.00e-03,
1197,1.22e-01,
1198,6.00e-03,
1199,-1.40e-02,
