Motor_Data/MOTOR_1_ON/time domain/NewFile55.csv

X,CH2,Start,Increment,
Sequence,Volt,-3.000000e-02,5.000000e-05
0,4.00e-03,
1,-6.00e-03,
2,4.00e-03,
3,-6.00e-03,
4,-8.00e-03,
5,6.00e-03,
6,-4.00e-03,
7,8.00e-03,
8,-8.00e-03,
9,1.20e-02,
10,1.20e-02,
11,-1.20e-02,
12,-3.00e-02,
13,2.40e-02,
14,-1.40e-02,
15,1.20e-02,
16,1.60e-02,
17,-1.20e-02,
18,1.60e-02,
19,-1.00e-02,
20,6.00e-03,
21,-4.00e-03,
22,-4.00e-03,
23,6.00e-03,
24,6.00e-03,
25,-4.00e-03,
26,-4.00e-03,
27,6.00e-03,
28,6.00e-03,
29,-6.00e-03,
30,-6.00e-03,
31,8.00e-03,
32,6.00e-03,
33,-8.00e-03,
34,-6.00e-03,
35,1.60e-02,
36,-3.20e-02,
37,1.40e-02,
38,-8.00e-03,
39,6.00e-03,
40,-1.00e-02,
41,1.40e-02,
42,1.80e-02,
43,-4.00e-03,
44,-4.00e-03,
45,8.00e-03,
46,6.00e-03,
47,-1.40e-02,
48,6.00e-03,
49,-4.00e-03,
50,-4.00e-03,
51,6.00e-03,
52,8.00e-03,
53,-8.00e-03,
54,6.00e-03,
55,-4.00e-03,
56,8.00e-03,
57,-6.00e-03,
58,-4.00e-03,
59,6.00e-03,
60,-1.90e-01,
61,1.08e-01,
62,-8.00e-03,
63,6.00e-03,
64,-1.00e-02,
65,1.20e-02,
66,8.00e-03,
67,-6.00e-03,
68,6.00e-03,
69,-4.00e-03,
70,2.00e-02,
71,-1.40e-02,
72,1.60e-02,
73,-8.00e-03,
74,-4.00e-03,
75,6.00e-03,
76,8.00e-03,
77,-6.00e-03,
78,-4.00e-03,
79,6.00e-03,
80,-4.00e-03,
81,6.00e-03,
82,6.00e-03,
83,-4.00e-03,
84,6.00e-03,
85,-6.00e-03,
86,-1.10e-01,
87,1.00e-01,
88,-4.00e-03,
89,1.20e-02,
90,-4.00e-03,
91,1.00e-02,
92,-1.40e-02,
93,8.00e-03,
94,-1.40e-02,
95,1.80e-02,
96,-4.00e-03,
97,1.20e-02,
98,-4.00e-03,
99,6.00e-03,
100,-1.20e-02,
101,6.00e-03,
102,-4.00e-03,
103,6.00e-03,
104,-4.00e-03,
105,6.00e-03,
106,8.00e-03,
107,-8.00e-03,
108,6.00e-03,
109,-6.00e-03,
110,-7.40e-02,
111,1.40e-02,
112,-4.00e-03,
113,6.00e-03,
114,-4.00e-03,
115,1.00e-02,
116,-1.00e-02,
117,1.00e-02,
118,-1.20e-02,
119,1.60e-02,
120,-1.00e-02,
121,1.20e-02,
122,-8.00e-03,
123,6.00e-03,
124,-1.40e-02,
125,1.60e-02,
126,8.00e-03,
127,-6.00e-03,
128,-4.00e-03,
129,6.00e-03,
130,6.00e-03,
131,-8.00e-03,
132,6.00e-03,
133,-6.00e-03,
134,1.60e-02,
135,-6.00e-03,
136,4.00e-03,
137,-4.00e-03,
138,6.00e-03,
139,-6.00e-03,
140,4.00e-03,
141,-1.00e-02,
142,1.20e-02,
143,-6.00e-03,
144,-4.00e-03,
145,6.00e-03,
146,6.00e-03,
147,-1.40e-02,
148,-4.00e-03,
149,1.60e-02,
150,1.00e-02,
151,-4.00e-03,
152,4.00e-03,
153,-1.20e-02,
154,4.00e-03,
155,-1.20e-02,
156,-4.00e-03,
157,6.00e-03,
158,-6.00e-03,
159,2.80e-02,
160,-4.00e-03,
161,6.00e-03,
162,4.00e-03,
163,-6.00e-03,
164,-8.00e-03,
165,6.00e-03,
166,-4.00e-03,
167,6.00e-03,
168,-6.00e-03,
169,1.20e-02,
170,6.00e-03,
171,-1.00e-02,
172,1.40e-02,
173,-1.20e-02,
174,1.20e-02,
175,-1.00e-02,
176,6.00e-03,
177,-1.20e-02,
178,-1.40e-02,
179,1.40e-02,
180,-4.00e-03,
181,6.00e-03,
182,6.00e-03,
183,-4.00e-03,
184,-8.00e-03,
185,1.40e-02,
186,-4.00e-03,
187,6.00e-03,
188,-6.00e-03,
189,6.00e-03,
190,-6.00e-03,
191,6.00e-03,
192,6.00e-03,
193,-8.00e-03,
194,-8.00e-03,
195,6.00e-03,
196,-4.00e-03,
197,1.20e-02,
198,-4.00e-03,
199,1.00e-02,
200,4.00e-03,
201,-1.40e-02,
202,-8.00e-03,
203,1.80e-02,
204,-4.00e-03,
205,1.40e-02,
206,6.00e-03,
207,-1.40e-02,
208,-1.70e-01,
209,2.98e-01,
210,-4.00e-03,
211,6.00e-03,
212,6.00e-03,
213,-4.00e-03,
214,4.00e-03,
215,-4.00e-03,
216,4.00e-03,
217,-6.00e-03,
218,-6.00e-03,
219,6.00e-03,
220,-4.00e-03,
221,6.00e-03,
222,-8.00e-03,
223,1.20e-02,
224,1.00e-02,
225,-1.00e-02,
226,1.60e-02,
227,-6.00e-03,
228,6.00e-03,
229,-4.00e-03,
230,1.40e-02,
231,-1.20e-02,
232,2.00e-02,
233,-1.40e-02,
234,-4.00e-03,
235,6.00e-03,
236,-4.00e-03,
237,6.00e-03,
238,4.00e-03,
239,-6.00e-03,
240,-4.00e-03,
241,6.00e-03,
242,-4.00e-03,
243,6.00e-03,
244,4.00e-03,
245,-6.00e-03,
246,-8.00e-03,
247,6.00e-03,
248,-8.00e-03,
249,8.00e-03,
250,1.20e-02,
251,-6.00e-03,
252,1.20e-02,
253,-1.20e-02,
254,-4.00e-03,
255,1.20e-02,
256,1.60e-02,
257,-6.00e-03,
258,2.74e-01,
259,-2.80e-02,
260,6.00e-03,
261,-1.40e-02,
262,4.00e-03,
263,-6.00e-03,
264,6.00e-03,
265,-4.00e-03,
266,6.00e-03,
267,-4.00e-03,
268,6.00e-03,
269,-6.00e-03,
270,-4.00e-03,
271,6.00e-03,
272,6.00e-03,
273,-8.00e-03,
274,-2.00e-03,
275,6.00e-03,
276,1.00e-02,
277,-1.00e-02,
278,1.40e-02,
279,-1.40e-02,
280,-4.00e-03,
281,1.40e-02,
282,-1.20e-02,
283,1.40e-02,
284,1.40e-02,
285,-1.60e-02,
286,1.80e-02,
287,-8.00e-03,
288,4.00e-03,
289,-4.00e-03,
290,-6.00e-03,
291,6.00e-03,
292,-4.00e-03,
293,6.00e-03,
294,-4.00e-03,
295,6.00e-03,
296,-4.00e-03,
297,6.00e-03,
298,6.00e-03,
299,-4.00e-03,
300,6.00e-03,
301,-8.00e-03,
302,-4.00e-03,
303,6.00e-03,
304,1.40e-02,
305,-4.00e-03,
306,-1.40e-02,
307,2.40e-02,
308,-1.20e-02,
309,1.60e-02,
310,-4.00e-03,
311,1.40e-02,
312,6.00e-03,
313,-4.00e-03,
314,6.00e-03,
315,-1.20e-02,
316,-4.00e-03,
317,6.00e-03,
318,6.00e-03,
319,-4.00e-03,
320,-4.00e-03,
321,8.00e-03,
322,-4.00e-03,
323,6.00e-03,
324,8.00e-03,
325,-6.00e-03,
326,-8.00e-03,
327,6.00e-03,
328,-4.00e-03,
329,8.00e-03,
330,-1.00e-02,
331,1.40e-02,
332,-1.20e-02,
333,1.60e-02,
334,-8.00e-03,
335,1.40e-02,
336,-1.20e-02,
337,8.00e-03,
338,2.00e-02,
339,-1.60e-02,
340,1.20e-02,
341,-6.00e-03,
342,-4.00e-03,
343,6.00e-03,
344,-4.00e-03,
345,6.00e-03,
346,-4.00e-03,
347,6.00e-03,
348,6.00e-03,
349,-4.00e-03,
350,6.00e-03,
351,-8.00e-03,
352,-4.00e-03,
353,6.00e-03,
354,-1.00e-02,
355,2.04e-01,
356,1.80e-02,
357,-4.00e-03,
358,-6.00e-03,
359,1.20e-02,
360,-1.00e-02,
361,8.00e-03,
362,-1.20e-02,
363,1.60e-02,
364,1.20e-02,
365,-4.00e-03,
366,-4.00e-03,
367,6.00e-03,
368,4.00e-03,
369,-1.20e-02,
370,-4.00e-03,
371,6.00e-03,
372,-4.00e-03,
373,6.00e-03,
374,8.00e-03,
375,-6.00e-03,
376,-4.00e-03,
377,6.00e-03,
378,8.00e-03,
379,-6.00e-03,
380,1.60e-02,
381,-4.00e-03,
382,-4.00e-03,
383,6.00e-03,
384,-4.00e-03,
385,1.00e-02,
386,6.00e-03,
387,-1.00e-02,
388,-4.00e-03,
389,1.60e-02,
390,6.00e-03,
391,-8.00e-03,
392,-1.40e-02,
393,1.40e-02,
394,4.00e-03,
395,-4.00e-03,
396,4.00e-03,
397,-4.00e-03,
398,-6.00e-03,
399,6.00e-03,
400,4.00e-03,
401,-6.00e-03,
402,6.00e-03,
403,-4.00e-03,
404,-1.06e-01,
405,3.00e-02,
406,6.00e-03,
407,-6.00e-03,
408,-1.00e-02,
409,6.00e-03,
410,1.40e-02,
411,-4.00e-03,
412,1.00e-02,
413,-1.00e-02,
414,4.00e-03,
415,-1.00e-02,
416,-8.00e-03,
417,1.80e-02,
418,1.20e-02,
419,-6.00e-03,
420,6.00e-03,
421,-1.00e-02,
422,6.00e-03,
423,-6.00e-03,
424,4.00e-03,
425,-4.00e-03,
426,-4.00e-03,
427,6.00e-03,
428,-8.00e-03,
429,1.60e-02,
430,-8.00e-03,
431,6.00e-03,
432,6.00e-03,
433,-8.00e-03,
434,-4.00e-03,
435,6.00e-03,
436,-4.00e-03,
437,1.40e-02,
438,-1.00e-02,
439,6.00e-03,
440,1.20e-02,
441,-8.00e-03,
442,1.40e-02,
443,-1.00e-02,
444,6.00e-03,
445,-8.00e-03,
446,1.80e-02,
447,-1.40e-02,
448,6.00e-03,
449,-4.00e-03,
450,-4.00e-03,
451,6.00e-03,
452,4.00e-03,
453,-4.00e-03,
454,-1.88e-01,
455,3.60e-02,
456,-6.00e-03,
457,6.00e-03,
458,6.00e-03,
459,-6.00e-03,
460,6.00e-03,
461,-8.00e-03,
462,4.00e-03,
463,-8.00e-03,
464,6.00e-03,
465,-4.00e-03,
466,-6.00e-03,
467,6.00e-03,
468,6.00e-03,
469,-1.20e-02,
470,1.80e-02,
471,-4.00e-03,
472,-4.00e-03,
473,1.40e-02,
474,6.00e-03,
475,-1.40e-02,
476,-1.00e-02,
477,6.00e-03,
478,1.80e-02,
479,-6.00e-03,
480,-4.00e-03,
481,6.00e-03,
482,-8.00e-03,
483,6.00e-03,
484,4.00e-03,
485,-6.00e-03,
486,-8.00e-03,
487,6.00e-03,
488,-4.00e-03,
489,6.00e-03,
490,-8.00e-03,
491,1.20e-02,
492,1.00e-02,
493,-1.40e-02,
494,-6.00e-03,
495,8.00e-03,
496,-8.00e-03,
497,1.20e-02,
498,6.00e-03,
499,-1.40e-02,
500,1.80e-02,
501,-1.20e-02,
502,-4.00e-03,
503,8.00e-02,
504,-4.00e-03,
505,6.00e-03,
506,-6.00e-03,
507,6.00e-03,
508,6.00e-03,
509,-6.00e-03,
510,-4.00e-03,
511,6.00e-03,
512,-6.00e-03,
513,6.00e-03,
514,6.00e-03,
515,-1.00e-02,
516,-6.00e-03,
517,6.00e-03,
518,6.00e-03,
519,-4.00e-03,
520,1.40e-02,
521,-1.20e-02,
522,1.20e-02,
523,-1.00e-02,
524,1.80e-02,
525,-4.00e-03,
526,-4.00e-03,
527,2.00e-02,
528,6.00e-03,
529,-1.40e-02,
530,-6.00e-03,
531,6.00e-03,
532,-4.00e-03,
533,6.00e-03,
534,-4.00e-03,
535,8.00e-03,
536,-6.00e-03,
537,6.00e-03,
538,6.00e-03,
539,-6.00e-03,
540,-6.00e-03,
541,6.00e-03,
542,-4.00e-03,
543,6.00e-03,
544,-4.00e-03,
545,1.20e-02,
546,-6.00e-03,
547,1.20e-02,
548,8.00e-03,
549,-6.00e-03,
550,-4.00e-03,
551,1.00e-02,
552,1.50e-01,
553,-8.00e-03,
554,1.60e-02,
555,-8.00e-03,
556,-4.00e-03,
557,6.00e-03,
558,-4.00e-03,
559,6.00e-03,
560,6.00e-03,
561,-6.00e-03,
562,-4.00e-03,
563,6.00e-03,
564,6.00e-03,
565,-6.00e-03,
566,-6.00e-03,
567,6.00e-03,
568,6.00e-03,
569,-1.00e-02,
570,-4.00e-03,
571,1.40e-02,
572,1.20e-02,
573,-6.00e-03,
574,-1.20e-02,
575,1.20e-02,
576,-1.20e-02,
577,1.60e-02,
578,1.60e-02,
579,-4.00e-03,
580,-4.00e-03,
581,1.00e-02,
582,-4.00e-03,
583,6.00e-03,
584,-4.00e-03,
585,6.00e-03,
586,6.00e-03,
587,-4.00e-03,
588,8.00e-03,
589,-6.00e-03,
590,6.00e-03,
591,-4.00e-03,
592,-6.00e-03,
593,6.00e-03,
594,-4.00e-03,
595,6.00e-03,
596,6.00e-03,
597,-4.00e-03,
598,4.00e-03,
599,-1.00e-02,
600,-1.20e-02,
601,1.60e-02,
602,-1.00e-02,
603,1.40e-02,
604,-1.20e-02,
605,8.00e-03,
606,-1.20e-02,
607,2.00e-02,
608,1.20e-02,
609,-4.00e-03,
610,6.00e-03,
611,-4.00e-03,
612,6.00e-03,
613,-6.00e-03,
614,6.00e-03,
615,-4.00e-03,
616,-4.00e-03,
617,6.00e-03,
618,6.00e-03,
619,-8.00e-03,
620,-4.00e-03,
621,6.00e-03,
622,-8.00e-03,
623,6.00e-03,
624,-4.00e-03,
625,1.80e-02,
626,4.00e-03,
627,-4.00e-03,
628,-1.20e-02,
629,6.00e-03,
630,-4.00e-03,
631,6.00e-03,
632,-4.00e-03,
633,1.20e-02,
634,4.00e-03,
635,-4.00e-03,
636,4.00e-03,
637,-1.80e-02,
638,6.00e-03,
639,-4.00e-03,
640,4.00e-03,
641,-4.00e-03,
642,6.00e-03,
643,-8.00e-03,
644,6.00e-03,
645,-4.00e-03,
646,6.00e-03,
647,-6.00e-03,
648,6.00e-03,
649,-4.00e-03,
650,6.20e-02,
651,-2.06e-01,
652,-1.20e-02,
653,6.00e-03,
654,1.20e-02,
655,-1.40e-02,
656,-1.00e-02,
657,1.20e-02,
658,-8.00e-03,
659,6.00e-03,
660,1.60e-02,
661,-1.40e-02,
662,1.00e-02,
663,-4.00e-03,
664,-4.00e-03,
665,6.00e-03,
666,6.00e-03,
667,-4.00e-03,
668,-4.00e-03,
669,8.00e-03,
670,-4.00e-03,
671,6.00e-03,
672,6.00e-03,
673,-8.00e-03,
674,-1.68e-01,
675,6.00e-03,
676,-1.00e-02,
677,6.00e-03,
678,1.40e-02,
679,-4.00e-03,
680,-1.20e-02,
681,1.00e-02,
682,-1.00e-02,
683,6.00e-03,
684,-8.00e-03,
685,2.00e-02,
686,-4.00e-03,
687,1.60e-02,
688,6.00e-03,
689,-1.00e-02,
690,-1.00e-02,
691,6.00e-03,
692,4.00e-03,
693,-4.00e-03,
694,-4.00e-03,
695,6.00e-03,
696,-8.00e-03,
697,6.00e-03,
698,9.00e-02,
699,-2.60e-02,
700,-6.00e-03,
701,6.00e-03,
702,-4.00e-03,
703,6.00e-03,
704,-4.00e-03,
705,6.00e-03,
706,6.00e-03,
707,-1.00e-02,
708,6.00e-03,
709,-4.00e-03,
710,-4.00e-03,
711,6.00e-03,
712,6.00e-03,
713,-1.20e-02,
714,1.60e-02,
715,-6.00e-03,
716,-4.00e-03,
717,6.00e-03,
718,-4.00e-03,
719,6.00e-03,
720,4.00e-03,
721,-4.00e-03,
722,-4.00e-03,
723,1.60e-02,
724,6.00e-03,
725,-4.00e-03,
726,-4.00e-03,
727,6.00e-03,
728,6.00e-03,
729,-6.00e-03,
730,-8.00e-03,
731,6.00e-03,
732,1.60e-02,
733,-6.00e-03,
734,1.00e-02,
735,-1.20e-02,
736,1.00e-02,
737,-1.20e-02,
738,-4.00e-03,
739,1.80e-02,
740,-4.00e-03,
741,1.20e-02,
742,6.00e-03,
743,-1.40e-02,
744,6.00e-03,
745,-4.00e-03,
746,-4.00e-03,
747,6.00e-03,
748,-4.00e-03,
749,3.00e-02,
750,-4.00e-03,
751,6.00e-03,
752,-4.00e-03,
753,6.00e-03,
754,6.00e-03,
755,-6.00e-03,
756,-4.00e-03,
757,6.00e-03,
758,-4.00e-03,
759,1.00e-02,
760,1.40e-02,
761,-1.40e-02,
762,1.20e-02,
763,-4.00e-03,
764,1.40e-02,
765,-1.20e-02,
766,1.40e-02,
767,-1.20e-02,
768,2.20e-02,
769,-1.00e-02,
770,6.00e-03,
771,-4.00e-03,
772,-1.20e-02,
773,2.98e-01,
774,-4.00e-03,
775,6.00e-03,
776,4.00e-03,
777,-4.00e-03,
778,6.00e-03,
779,-4.00e-03,
780,6.00e-03,
781,-6.00e-03,
782,6.00e-03,
783,-8.00e-03,
784,-4.00e-03,
785,1.00e-02,
786,1.60e-02,
787,-4.00e-03,
788,-1.20e-02,
789,6.00e-03,
790,-4.00e-03,
791,1.60e-02,
792,1.80e-02,
793,-4.00e-03,
794,4.00e-03,
795,-6.00e-03,
796,1.82e-01,
797,-1.00e-02,
798,4.00e-03,
799,-8.00e-03,
800,-4.00e-03,
801,6.00e-03,
802,-6.00e-03,
803,8.00e-03,
804,-6.00e-03,
805,6.00e-03,
806,-6.00e-03,
807,6.00e-03,
808,4.00e-03,
809,-4.00e-03,
810,6.00e-03,
811,-6.00e-03,
812,1.20e-02,
813,-8.00e-03,
814,1.40e-02,
815,-1.00e-02,
816,-6.00e-03,
817,1.20e-02,
818,-1.20e-02,
819,1.00e-02,
820,1.34e-01,
821,-1.20e-02,
822,1.40e-02,
823,-6.00e-03,
824,4.00e-03,
825,-4.00e-03,
826,6.00e-03,
827,-6.00e-03,
828,4.00e-03,
829,-4.00e-03,
830,6.00e-03,
831,-4.00e-03,
832,6.00e-03,
833,-4.00e-03,
834,-4.00e-03,
835,6.00e-03,
836,6.00e-03,
837,-8.00e-03,
838,-4.00e-03,
839,1.60e-02,
840,-4.00e-03,
841,1.00e-02,
842,-1.40e-02,
843,1.20e-02,
844,-1.20e-02,
845,1.80e-02,
846,-2.12e-01,
847,9.40e-02,
848,6.00e-03,
849,-6.00e-03,
850,6.00e-03,
851,-1.20e-02,
852,4.00e-03,
853,-6.00e-03,
854,-4.00e-03,
855,6.00e-03,
856,6.00e-03,
857,-8.00e-03,
858,4.00e-03,
859,-6.00e-03,
860,4.00e-03,
861,-6.00e-03,
862,-6.00e-03,
863,6.00e-03,
864,-4.00e-03,
865,1.00e-02,
866,-4.00e-03,
867,1.00e-02,
868,-1.20e-02,
869,1.60e-02,
870,2.00e-02,
871,-1.00e-02,
872,8.00e-03,
873,-6.00e-03,
874,1.80e-02,
875,-1.40e-02,
876,-4.00e-03,
877,1.20e-02,
878,-4.00e-03,
879,6.00e-03,
880,-4.00e-03,
881,6.00e-03,
882,4.00e-03,
883,-4.00e-03,
884,6.00e-03,
885,-4.00e-03,
886,-6.00e-03,
887,6.00e-03,
888,6.00e-03,
889,-4.00e-03,
890,-1.00e-02,
891,6.00e-03,
892,-4.00e-03,
893,1.40e-02,
894,-3.00e-02,
895,1.80e-02,
896,-1.20e-02,
897,6.00e-03,
898,-1.20e-02,
899,2.00e-02,
900,-4.00e-03,
901,1.20e-02,
902,4.00e-03,
903,-1.00e-02,
904,6.00e-03,
905,-1.20e-02,
906,-4.00e-03,
907,4.00e-03,
908,-4.00e-03,
909,6.00e-03,
910,6.00e-03,
911,-6.00e-03,
912,4.00e-03,
913,-4.00e-03,
914,-6.00e-03,
915,6.00e-03,
916,-4.00e-03,
917,6.00e-03,
918,-6.00e-03,
919,1.20e-02,
920,2.20e-02,
921,-1.00e-02,
922,1.20e-02,
923,-1.00e-02,
924,-1.40e-02,
925,1.20e-02,
926,6.00e-03,
927,-1.00e-02,
928,1.60e-02,
929,-1.40e-02,
930,6.00e-03,
931,-4.00e-03,
932,4.00e-03,
933,-4.00e-03,
934,-6.00e-03,
935,6.00e-03,
936,-4.00e-03,
937,6.00e-03,
938,-4.00e-03,
939,6.00e-03,
940,-4.00e-03,
941,6.00e-03,
942,8.00e-03,
943,-8.00e-03,
944,-1.00e-02,
945,1.98e-01,
946,1.40e-02,
947,-6.00e-03,
948,-1.40e-02,
949,1.00e-02,
950,-1.00e-02,
951,6.00e-03,
952,1.40e-02,
953,-6.00e-03,
954,-4.00e-03,
955,1.20e-02,
956,6.00e-03,
957,-1.20e-02,
958,4.00e-03,
959,-1.40e-02,
960,4.00e-03,
961,-4.00e-03,
962,4.00e-03,
963,-6.00e-03,
964,-6.00e-03,
965,6.00e-03,
966,4.00e-03,
967,-4.00e-03,
968,-2.00e-02,
969,2.66e-01,
970,-4.00e-03,
971,6.00e-03,
972,-1.00e-02,
973,1.20e-02,
974,8.00e-03,
975,-1.00e-02,
976,1.20e-02,
977,-8.00e-03,
978,1.20e-02,
979,-1.00e-02,
980,1.00e-02,
981,-1.20e-02,
982,1.80e-02,
983,-1.60e-02,
984,6.00e-03,
985,-4.00e-03,
986,4.00e-03,
987,-4.00e-03,
988,-4.00e-03,
989,6.00e-03,
990,-4.00e-03,
991,8.00e-03,
992,-4.00e-03,
993,2.40e-02,
994,-6.00e-03,
995,6.00e-03,
996,-1.00e-02,
997,6.00e-03,
998,-8.00e-03,
999,6.00e-03,
1000,1.20e-02,
1001,-4.00e-03,
1002,1.00e-02,
1003,-1.20e-02,
1004,8.00e-03,
1005,-1.00e-02,
1006,-4.00e-03,
1007,1.80e-02,
1008,-4.00e-03,
1009,1.40e-02,
1010,6.00e-03,
1011,-1.20e-02,
1012,4.00e-03,
1013,-1.00e-02,
1014,-4.00e-03,
1015,6.00e-03,
1016,-4.00e-03,
1017,6.00e-03,
1018,1.20e-02,
1019,-6.00e-03,
1020,6.00e-03,
1021,-6.00e-03,
1022,-8.00e-03,
1023,6.00e-03,
1024,-4.00e-03,
1025,6.00e-03,
1026,1.00e-02,
1027,-8.00e-03,
1028,1.20e-02,
1029,-1.40e-02,
1030,1.20e-02,
1031,-4.00e-03,
1032,6.00e-03,
1033,-1.40e-02,
1034,1.80e-02,
1035,-1.60e-02,
1036,2.00e-02,
1037,-1.00e-02,
1038,4.00e-03,
1039,-4.00e-03,
1040,-4.00e-03,
1041,6.00e-03,
1042,-1.00e-02,
1043,1.66e-01,
1044,6.00e-03,
1045,-8.00e-03,
1046,-4.00e-03,
1047,6.00e-03,
1048,-4.00e-03,
1049,6.00e-03,
1050,6.00e-03,
1051,-1.00e-02,
1052,-4.00e-03,
1053,1.20e-02,
1054,-4.00e-03,
1055,1.20e-02,
1056,-1.00e-02,
1057,1.20e-02,
1058,-1.00e-02,
1059,1.20e-02,
1060,2.00e-02,
1061,-4.00e-03,
1062,8.00e-03,
1063,-6.00e-03,
1064,6.00e-03,
1065,-1.60e-02,
1066,7.20e-02,
1067,-1.20e-02,
1068,-4.00e-03,
1069,6.00e-03,
1070,-6.00e-03,
1071,6.00e-03,
1072,6.00e-03,
1073,-6.00e-03,
1074,4.00e-03,
1075,-8.00e-03,
1076,6.00e-03,
1077,-8.00e-03,
1078,-4.00e-03,
1079,1.00e-02,
1080,1.40e-02,
1081,-8.00e-03,
1082,-1.00e-02,
1083,1.60e-02,
1084,-6.00e-03,
1085,1.40e-02,
1086,-8.00e-03,
1087,1.00e-02,
1088,1.80e-02,
1089,-1.20e-02,
1090,2.44e-01,
1091,-2.80e-02,
1092,-4.00e-03,
1093,6.00e-03,
1094,-6.00e-03,
1095,8.00e-03,
1096,6.00e-03,
1097,-4.00e-03,
1098,-4.00e-03,
1099,6.00e-03,
1100,6.00e-03,
1101,-8.00e-03,
1102,-4.00e-03,
1103,6.00e-03,
1104,8.00e-03,
1105,-1.00e-02,
1106,6.00e-03,
1107,-6.00e-03,
1108,8.00e-03,
1109,-4.00e-03,
1110,-4.00e-03,
1111,1.00e-02,
1112,-1.00e-02,
1113,1.80e-02,
1114,1.80e-02,
1115,-4.00e-03,
1116,6.00e-03,
1117,-8.60e-02,
1118,4.00e-03,
1119,-1.40e-02,
1120,-4.00e-03,
1121,6.00e-03,
1122,4.00e-03,
1123,-4.00e-03,
1124,-4.00e-03,
1125,6.00e-03,
1126,-4.00e-03,
1127,6.00e-03,
1128,-8.00e-03,
1129,6.00e-03,
1130,6.00e-03,
1131,-4.00e-03,
1132,-6.00e-03,
1133,8.00e-03,
1134,-8.00e-03,
1135,1.00e-02,
1136,-4.00e-03,
1137,1.40e-02,
1138,-1.00e-02,
1139,1.20e-02,
1140,-1.60e-02,
1141,1.80e-02,
1142,-1.40e-02,
1143,1.80e-02,
1144,1.20e-02,
1145,-4.00e-03,
1146,6.00e-03,
1147,-4.00e-03,
1148,-4.00e-03,
1149,8.00e-03,
1150,-4.00e-03,
1151,6.00e-03,
1152,6.00e-03,
1153,-4.00e-03,
1154,6.00e-03,
1155,-6.00e-03,
1156,-4.00e-03,
1157,6.00e-03,
1158,-8.00e-03,
1159,6.00e-03,
1160,1.40e-02,
1161,-6.00e-03,
1162,-1.00e-02,
1163,1.20e-02,
1164,1.60e-02,
1165,-2.12e-01,
1166,-1.00e-02,
1167,1.80e-02,
1168,1.20e-02,
1169,-4.00e-03,
1170,6.00e-03,
1171,-8.00e-03,
1172,6.00e-03,
1173,-1.40e-02,
1174,4.00e-03,
1175,-4.00e-03,
1176,-4.00e-03,
1177,6.00e-03,
1178,6.00e-03,
1179,-6.00e-03,
1180,-4.00e-03,
1181,6.00e-03,
1182,-6.00e-03,
1183,6.00e-03,
1184,6.00e-03,
1185,-4.00e-03,
1186,-4.00e-03,
1187,1.20e-02,
1188,6.00e-03,
1189,-1.00e-02,
1190,-1.40e-02,
1191,2.00e-02,
1192,-4.00e-03,
1193,4.00e-03,
1194,6.00e-03,
1195,-8.00e-03,
1196,1.60e-02,
1197,-1.60e-02,
1198,6.00e-03,
1199,-4.00e-03,
