Motor_Data/MOTOR_1_ON/time domain/NewFile36.csv

X,CH2,Start,Increment,
Sequence,Volt,-3.000000e-02,5.000000e-05
0,1.40e-02,
1,-1.40e-02,
2,1.00e-02,
3,-1.60e-02,
4,-1.40e-02,
5,8.00e-03,
6,1.20e-02,
7,-1.40e-02,
8,1.40e-02,
9,-1.40e-02,
10,1.80e-02,
11,-1.60e-02,
12,2.98e-01,
13,-2.40e-02,
14,2.20e-02,
15,-8.00e-03,
16,-1.40e-02,
17,8.00e-03,
18,-1.00e-02,
19,8.00e-03,
20,2.00e-02,
21,-1.00e-02,
22,1.00e-02,
23,-1.00e-02,
24,-1.20e-02,
25,1.00e-02,
26,8.00e-03,
27,-8.00e-03,
28,-1.00e-02,
29,8.00e-03,
30,-1.20e-02,
31,8.00e-03,
32,-8.00e-03,
33,1.00e-02,
34,-6.00e-03,
35,1.00e-02,
36,3.00e-02,
37,-1.40e-02,
38,-1.00e-02,
39,1.80e-02,
40,-1.60e-02,
41,1.60e-02,
42,-2.40e-02,
43,1.20e-02,
44,2.00e-02,
45,-1.40e-02,
46,-1.20e-02,
47,8.00e-03,
48,8.00e-03,
49,-8.00e-03,
50,-8.00e-03,
51,1.00e-02,
52,1.60e-02,
53,-1.20e-02,
54,1.80e-02,
55,-1.60e-02,
56,-1.20e-02,
57,1.00e-02,
58,-1.40e-02,
59,1.00e-02,
60,1.40e-02,
61,-8.00e-03,
62,-2.12e-01,
63,2.98e-01,
64,-1.80e-02,
65,1.40e-02,
66,3.00e-02,
67,-2.20e-02,
68,-6.00e-03,
69,1.60e-02,
70,-1.20e-02,
71,8.00e-03,
72,-1.40e-02,
73,1.00e-02,
74,1.40e-02,
75,-8.00e-03,
76,-8.00e-03,
77,1.20e-02,
78,-6.00e-03,
79,1.00e-02,
80,1.00e-02,
81,-6.00e-03,
82,-6.00e-03,
83,1.60e-02,
84,1.20e-02,
85,-6.00e-03,
86,-1.60e-02,
87,1.60e-02,
88,-2.00e-02,
89,1.00e-02,
90,2.80e-02,
91,-6.00e-03,
92,-4.00e-03,
93,1.60e-02,
94,-1.00e-02,
95,1.40e-02,
96,-1.40e-02,
97,2.00e-02,
98,1.60e-02,
99,-8.00e-03,
100,1.00e-02,
101,-8.00e-03,
102,8.00e-03,
103,-1.20e-02,
104,1.00e-02,
105,-1.20e-02,
106,8.00e-03,
107,-1.40e-02,
108,-8.00e-03,
109,8.00e-03,
110,-8.00e-03,
111,8.00e-03,
112,1.00e-02,
113,-2.12e-01,
114,-4.00e-03,
115,2.00e-02,
116,-6.00e-03,
117,1.80e-02,
118,1.00e-02,
119,-2.80e-02,
120,2.80e-02,
121,-1.20e-02,
122,-1.60e-02,
123,1.60e-02,
124,1.20e-02,
125,-1.20e-02,
126,1.80e-02,
127,-1.20e-02,
128,1.40e-02,
129,-6.00e-03,
130,8.00e-03,
131,-6.00e-03,
132,1.20e-02,
133,-6.00e-03,
134,1.20e-02,
135,-6.00e-03,
136,-1.60e-01,
137,9.80e-02,
138,-6.00e-03,
139,1.00e-02,
140,1.00e-02,
141,-2.00e-02,
142,-4.00e-03,
143,2.20e-02,
144,3.00e-02,
145,-6.00e-03,
146,-6.00e-03,
147,2.20e-02,
148,-1.20e-02,
149,1.00e-02,
150,8.00e-03,
151,-1.00e-02,
152,-8.00e-03,
153,1.20e-02,
154,-1.00e-02,
155,8.00e-03,
156,-8.00e-03,
157,8.00e-03,
158,-6.00e-03,
159,1.20e-02,
160,1.40e-02,
161,-6.00e-03,
162,-2.12e-01,
163,1.14e-01,
164,1.20e-02,
165,-1.40e-02,
166,1.60e-02,
167,-1.00e-02,
168,1.40e-02,
169,-8.00e-03,
170,-1.40e-02,
171,2.20e-02,
172,-2.60e-02,
173,2.60e-02,
174,-1.00e-02,
175,1.60e-02,
176,-1.60e-02,
177,1.20e-02,
178,-1.20e-02,
179,1.40e-02,
180,1.80e-02,
181,-8.00e-03,
182,-6.00e-03,
183,1.00e-02,
184,-6.00e-03,
185,8.00e-03,
186,-8.00e-03,
187,2.38e-01,
188,-6.00e-03,
189,1.00e-02,
190,1.40e-02,
191,-8.00e-03,
192,-1.00e-02,
193,1.20e-02,
194,8.00e-03,
195,-6.00e-03,
196,6.00e-03,
197,-8.00e-03,
198,-1.20e-02,
199,1.60e-02,
200,1.60e-02,
201,-2.00e-02,
202,-2.00e-02,
203,1.60e-02,
204,1.80e-02,
205,-8.00e-03,
206,-1.00e-02,
207,8.00e-03,
208,1.00e-02,
209,-1.20e-02,
210,8.00e-03,
211,-1.00e-02,
212,2.98e-01,
213,-2.12e-01,
214,1.40e-02,
215,-1.00e-02,
216,1.00e-02,
217,-1.00e-02,
218,-1.00e-02,
219,1.00e-02,
220,1.80e-02,
221,-8.00e-03,
222,-1.20e-02,
223,1.80e-02,
224,1.20e-02,
225,-2.00e-02,
226,8.00e-03,
227,-2.40e-02,
228,-6.00e-03,
229,1.80e-02,
230,1.00e-02,
231,-8.00e-03,
232,8.00e-03,
233,-1.00e-02,
234,1.00e-02,
235,-6.00e-03,
236,1.00e-02,
237,-1.50e-01,
238,8.00e-03,
239,-1.00e-02,
240,8.00e-03,
241,-8.00e-03,
242,1.60e-02,
243,-1.00e-02,
244,1.20e-02,
245,-8.00e-03,
246,1.20e-02,
247,-1.60e-02,
248,-1.00e-02,
249,1.20e-02,
250,3.20e-02,
251,-1.20e-02,
252,1.80e-02,
253,-1.40e-02,
254,1.00e-02,
255,-2.20e-02,
256,-6.00e-03,
257,1.60e-02,
258,1.00e-02,
259,-8.00e-03,
260,-1.40e-02,
261,8.00e-03,
262,-2.12e-01,
263,4.60e-02,
264,-1.20e-02,
265,1.20e-02,
266,8.00e-03,
267,-1.20e-02,
268,-8.00e-03,
269,8.00e-03,
270,-6.00e-03,
271,8.00e-03,
272,8.00e-03,
273,-1.00e-02,
274,-1.60e-02,
275,8.00e-03,
276,-1.60e-02,
277,1.20e-02,
278,8.00e-03,
279,-2.80e-02,
280,2.60e-02,
281,-1.00e-02,
282,1.20e-02,
283,-1.20e-02,
284,-1.40e-02,
285,1.40e-02,
286,2.98e-01,
287,-2.12e-01,
288,1.00e-02,
289,-1.00e-02,
290,-1.60e-02,
291,1.00e-02,
292,8.00e-03,
293,-1.00e-02,
294,1.40e-02,
295,-8.00e-03,
296,1.60e-02,
297,-1.00e-02,
298,1.40e-02,
299,-8.00e-03,
300,1.00e-02,
301,-1.60e-02,
302,-1.40e-02,
303,2.80e-02,
304,1.80e-02,
305,-1.20e-02,
306,1.40e-02,
307,-1.00e-02,
308,-2.40e-02,
309,8.00e-03,
310,8.00e-03,
311,-1.40e-02,
312,-1.00e-02,
313,5.40e-02,
314,-1.40e-02,
315,1.00e-02,
316,8.00e-03,
317,-8.00e-03,
318,-8.00e-03,
319,8.00e-03,
320,1.80e-02,
321,-1.00e-02,
322,-8.00e-03,
323,1.20e-02,
324,1.20e-02,
325,-8.00e-03,
326,1.60e-02,
327,-1.60e-02,
328,-1.20e-02,
329,1.80e-02,
330,-1.40e-02,
331,1.20e-02,
332,2.80e-02,
333,-2.20e-02,
334,-1.20e-02,
335,1.40e-02,
336,8.00e-03,
337,-1.40e-02,
338,-1.00e-02,
339,2.64e-01,
340,1.80e-02,
341,-1.20e-02,
342,1.20e-02,
343,-1.20e-02,
344,-1.00e-02,
345,1.20e-02,
346,-8.00e-03,
347,8.00e-03,
348,8.00e-03,
349,-8.00e-03,
350,8.00e-03,
351,-1.40e-02,
352,-1.40e-02,
353,1.20e-02,
354,1.20e-02,
355,-4.00e-03,
356,1.00e-02,
357,-1.00e-02,
358,-1.00e-02,
359,2.00e-02,
360,1.20e-02,
361,-2.80e-02,
362,2.98e-01,
363,-2.06e-01,
364,-1.40e-02,
365,1.60e-02,
366,1.00e-02,
367,-8.00e-03,
368,8.00e-03,
369,-1.40e-02,
370,-1.00e-02,
371,1.20e-02,
372,1.60e-02,
373,-8.00e-03,
374,1.20e-02,
375,-4.00e-03,
376,8.00e-03,
377,-1.00e-02,
378,1.00e-02,
379,-1.60e-02,
380,-1.40e-02,
381,1.60e-02,
382,-1.80e-02,
383,1.80e-02,
384,2.20e-02,
385,-2.40e-02,
386,8.00e-03,
387,-1.60e-02,
388,1.40e-02,
389,-1.24e-01,
390,8.00e-03,
391,-1.00e-02,
392,-6.00e-03,
393,8.00e-03,
394,8.00e-03,
395,-1.20e-02,
396,1.40e-02,
397,-6.00e-03,
398,-6.00e-03,
399,8.00e-03,
400,1.00e-02,
401,-8.00e-03,
402,1.80e-02,
403,-1.20e-02,
404,-1.20e-02,
405,1.20e-02,
406,-1.40e-02,
407,1.20e-02,
408,-1.60e-02,
409,2.40e-02,
410,3.40e-02,
411,-1.00e-02,
412,-2.12e-01,
413,2.98e-01,
414,-2.60e-02,
415,1.20e-02,
416,2.00e-02,
417,-6.00e-03,
418,1.20e-02,
419,-8.00e-03,
420,1.00e-02,
421,-1.20e-02,
422,1.20e-02,
423,-1.40e-02,
424,-1.00e-02,
425,1.00e-02,
426,6.00e-03,
427,-1.20e-02,
428,8.00e-03,
429,-1.40e-02,
430,-1.20e-02,
431,8.00e-03,
432,-1.80e-02,
433,8.00e-03,
434,-1.20e-02,
435,8.00e-03,
436,-6.00e-03,
437,2.00e-02,
438,1.00e-02,
439,-4.80e-02,
440,-1.00e-02,
441,1.80e-02,
442,-1.40e-02,
443,1.00e-02,
444,1.60e-02,
445,-1.40e-02,
446,1.60e-02,
447,-1.40e-02,
448,-1.20e-02,
449,1.00e-02,
450,-6.00e-03,
451,1.00e-02,
452,8.00e-03,
453,-6.00e-03,
454,-1.40e-02,
455,1.60e-02,
456,1.40e-02,
457,-1.00e-02,
458,1.00e-02,
459,-1.40e-02,
460,-1.40e-02,
461,1.00e-02,
462,-2.12e-01,
463,2.84e-01,
464,1.80e-02,
465,-1.40e-02,
466,1.20e-02,
467,-1.80e-02,
468,8.00e-03,
469,-8.00e-03,
470,-6.00e-03,
471,1.40e-02,
472,-1.20e-02,
473,8.00e-03,
474,1.00e-02,
475,-1.20e-02,
476,6.00e-03,
477,-1.00e-02,
478,8.00e-03,
479,-1.20e-02,
480,1.80e-02,
481,-1.40e-02,
482,-1.80e-02,
483,1.00e-02,
484,8.00e-03,
485,-1.20e-02,
486,-6.00e-03,
487,1.40e-02,
488,1.30e-01,
489,-1.28e-01,
490,1.20e-02,
491,-2.20e-02,
492,3.00e-02,
493,-2.20e-02,
494,1.60e-02,
495,-1.20e-02,
496,8.00e-03,
497,-1.60e-02,
498,2.00e-02,
499,-1.40e-02,
500,1.40e-02,
501,-8.00e-03,
502,-6.00e-03,
503,1.20e-02,
504,8.00e-03,
505,-1.60e-02,
506,8.00e-03,
507,-1.40e-02,
508,-1.20e-02,
509,8.00e-03,
510,8.00e-03,
511,-1.00e-02,
512,2.98e-01,
513,-2.12e-01,
514,8.00e-03,
515,-6.00e-03,
516,8.00e-03,
517,-6.00e-03,
518,-6.00e-03,
519,1.40e-02,
520,1.00e-02,
521,-2.40e-02,
522,-1.60e-02,
523,1.80e-02,
524,1.20e-02,
525,-1.00e-02,
526,-1.20e-02,
527,8.00e-03,
528,8.00e-03,
529,-1.20e-02,
530,1.20e-02,
531,-8.00e-03,
532,-6.00e-03,
533,1.60e-02,
534,-8.00e-03,
535,8.00e-03,
536,1.00e-02,
537,-1.20e-02,
538,3.40e-02,
539,-1.10e-01,
540,1.60e-02,
541,-1.00e-02,
542,1.80e-02,
543,-1.80e-02,
544,1.00e-02,
545,-2.80e-02,
546,-1.00e-02,
547,1.00e-02,
548,-6.00e-03,
549,8.00e-03,
550,1.00e-02,
551,-8.00e-03,
552,-1.20e-02,
553,8.00e-03,
554,-8.00e-03,
555,8.00e-03,
556,6.00e-03,
557,-1.20e-02,
558,8.00e-03,
559,-1.00e-02,
560,-8.00e-03,
561,1.60e-02,
562,-2.12e-01,
563,4.40e-02,
564,-2.12e-01,
565,1.30e-01,
566,1.00e-02,
567,-2.00e-02,
568,-6.00e-03,
569,3.00e-02,
570,2.00e-02,
571,-8.00e-03,
572,-1.60e-02,
573,1.60e-02,
574,-2.80e-02,
575,1.40e-02,
576,-1.40e-02,
577,1.80e-02,
578,-6.00e-03,
579,1.00e-02,
580,8.00e-03,
581,-1.20e-02,
582,-6.00e-03,
583,1.00e-02,
584,-8.00e-03,
585,8.00e-03,
586,-1.00e-02,
587,8.00e-03,
588,-1.36e-01,
589,8.00e-03,
590,1.00e-02,
591,-1.00e-02,
592,-6.00e-03,
593,8.00e-03,
594,-6.00e-03,
595,1.00e-02,
596,1.60e-02,
597,-8.00e-03,
598,8.00e-03,
599,-2.60e-02,
600,-1.40e-02,
601,1.60e-02,
602,-1.00e-02,
603,1.20e-02,
604,1.40e-02,
605,-1.20e-02,
606,1.40e-02,
607,-8.00e-03,
608,-6.00e-03,
609,1.40e-02,
610,-8.00e-03,
611,1.20e-02,
612,1.00e-02,
613,-8.00e-03,
614,-2.12e-01,
615,1.60e-02,
616,-6.00e-03,
617,1.40e-02,
618,1.20e-02,
619,-1.00e-02,
620,-2.00e-02,
621,1.00e-02,
622,2.40e-02,
623,-8.00e-03,
624,1.80e-02,
625,-8.00e-03,
626,8.00e-03,
627,-2.60e-02,
628,8.00e-03,
629,-2.20e-02,
630,-8.00e-03,
631,1.20e-02,
632,1.00e-02,
633,-8.00e-03,
634,8.00e-03,
635,-6.00e-03,
636,1.40e-02,
637,-4.00e-03,
638,2.60e-02,
639,-1.00e-02,
640,1.20e-02,
641,-8.00e-03,
642,8.00e-03,
643,-6.00e-03,
644,1.00e-02,
645,-8.00e-03,
646,1.60e-02,
647,-6.00e-03,
648,-1.80e-02,
649,2.20e-02,
650,1.60e-02,
651,-2.40e-02,
652,3.00e-02,
653,-1.60e-02,
654,1.40e-02,
655,-1.20e-02,
656,1.00e-02,
657,-8.00e-03,
658,-1.20e-02,
659,2.20e-02,
660,1.00e-02,
661,-6.00e-03,
662,-8.00e-03,
663,1.20e-02,
664,-2.12e-01,
665,2.60e-01,
666,1.00e-02,
667,-1.00e-02,
668,-1.00e-02,
669,8.00e-03,
670,-8.00e-03,
671,8.00e-03,
672,1.00e-02,
673,-1.60e-02,
674,-1.00e-02,
675,2.60e-02,
676,3.00e-02,
677,-1.60e-02,
678,2.00e-02,
679,-1.40e-02,
680,1.40e-02,
681,-2.00e-02,
682,2.20e-02,
683,-1.20e-02,
684,-1.20e-02,
685,1.20e-02,
686,-1.20e-02,
687,1.00e-02,
688,-1.60e-02,
689,2.08e-01,
690,1.00e-02,
691,-1.20e-02,
692,1.60e-02,
693,-1.20e-02,
694,-1.00e-02,
695,1.00e-02,
696,-8.00e-03,
697,1.00e-02,
698,1.40e-02,
699,-1.00e-02,
700,1.40e-02,
701,-1.20e-02,
702,-1.60e-02,
703,2.20e-02,
704,2.80e-02,
705,-6.00e-03,
706,1.60e-02,
707,-8.00e-03,
708,-1.20e-02,
709,8.00e-03,
710,-4.00e-03,
711,1.80e-02,
712,1.40e-02,
713,-6.00e-03,
714,8.00e-03,
715,-6.20e-02,
716,1.00e-02,
717,-1.00e-02,
718,-1.00e-02,
719,1.00e-02,
720,-1.40e-02,
721,1.40e-02,
722,1.60e-02,
723,-8.00e-03,
724,1.40e-02,
725,-6.00e-03,
726,-1.40e-02,
727,8.00e-03,
728,-1.40e-02,
729,3.00e-02,
730,1.60e-02,
731,-1.60e-02,
732,1.40e-02,
733,-1.80e-02,
734,-2.00e-02,
735,1.60e-02,
736,-1.40e-02,
737,1.60e-02,
738,2.98e-01,
739,-4.00e-02,
740,-1.40e-02,
741,1.00e-02,
742,-1.40e-02,
743,1.00e-02,
744,1.20e-02,
745,-6.00e-03,
746,-6.00e-03,
747,1.60e-02,
748,1.40e-02,
749,-6.00e-03,
750,-1.00e-02,
751,8.00e-03,
752,8.00e-03,
753,-1.40e-02,
754,-1.40e-02,
755,1.60e-02,
756,1.40e-02,
757,-2.20e-02,
758,8.00e-03,
759,-2.40e-02,
760,-1.20e-02,
761,1.40e-02,
762,-1.20e-02,
763,1.20e-02,
764,2.98e-01,
765,-2.02e-01,
766,-1.40e-02,
767,1.00e-02,
768,1.00e-02,
769,-1.20e-02,
770,1.20e-02,
771,-1.40e-02,
772,1.20e-02,
773,-1.00e-02,
774,1.00e-02,
775,-6.00e-03,
776,1.00e-02,
777,-8.00e-03,
778,1.00e-02,
779,-1.40e-02,
780,-1.40e-02,
781,1.00e-02,
782,3.00e-02,
783,-1.20e-02,
784,-8.00e-03,
785,1.80e-02,
786,8.00e-03,
787,-2.80e-02,
788,-1.20e-02,
789,1.20e-02,
790,-1.60e-02,
791,1.60e-02,
792,-1.40e-02,
793,8.00e-03,
794,8.00e-03,
795,-1.40e-02,
796,-1.20e-02,
797,8.00e-03,
798,-1.20e-02,
799,8.00e-03,
800,1.20e-02,
801,-6.00e-03,
802,1.00e-02,
803,-1.80e-02,
804,-1.40e-02,
805,1.20e-02,
806,-1.00e-02,
807,1.40e-02,
808,1.40e-02,
809,-1.60e-02,
810,2.60e-02,
811,-2.40e-02,
812,2.40e-02,
813,-1.20e-02,
814,2.64e-01,
815,-2.12e-01,
816,-1.20e-02,
817,1.20e-02,
818,2.00e-02,
819,-8.00e-03,
820,1.00e-02,
821,-1.20e-02,
822,-8.00e-03,
823,1.00e-02,
824,-1.40e-02,
825,1.20e-02,
826,8.00e-03,
827,-8.00e-03,
828,8.00e-03,
829,-8.00e-03,
830,-8.00e-03,
831,1.40e-02,
832,-1.60e-02,
833,1.40e-02,
834,-1.00e-02,
835,8.00e-03,
836,8.00e-03,
837,-1.00e-02,
838,1.80e-02,
839,-8.00e-03,
840,-2.60e-02,
841,1.20e-02,
842,2.00e-02,
843,-6.00e-03,
844,1.00e-02,
845,-8.00e-03,
846,8.00e-03,
847,-1.40e-02,
848,-8.00e-03,
849,1.40e-02,
850,1.20e-02,
851,-1.00e-02,
852,1.60e-02,
853,-1.00e-02,
854,8.00e-03,
855,-1.60e-02,
856,8.00e-03,
857,-1.60e-02,
858,-1.00e-02,
859,1.20e-02,
860,1.60e-02,
861,-1.60e-02,
862,-1.60e-02,
863,1.80e-02,
864,2.40e-02,
865,-2.12e-01,
866,-8.00e-03,
867,1.40e-02,
868,1.00e-02,
869,-6.00e-03,
870,8.00e-03,
871,-8.00e-03,
872,-1.20e-02,
873,8.00e-03,
874,1.20e-02,
875,-8.00e-03,
876,1.00e-02,
877,-6.00e-03,
878,-6.00e-03,
879,8.00e-03,
880,-6.00e-03,
881,1.40e-02,
882,1.60e-02,
883,-1.00e-02,
884,-8.00e-03,
885,1.20e-02,
886,-1.80e-02,
887,1.20e-02,
888,-2.12e-01,
889,2.98e-01,
890,-1.40e-02,
891,2.00e-02,
892,1.20e-02,
893,-2.40e-02,
894,-2.00e-02,
895,1.60e-02,
896,1.80e-02,
897,-1.00e-02,
898,-1.20e-02,
899,1.00e-02,
900,-1.40e-02,
901,8.00e-03,
902,-6.00e-03,
903,1.00e-02,
904,1.20e-02,
905,-1.40e-02,
906,-1.20e-02,
907,1.20e-02,
908,-1.60e-02,
909,8.00e-03,
910,-1.20e-02,
911,8.00e-03,
912,-1.40e-02,
913,8.00e-03,
914,-2.12e-01,
915,2.40e-02,
916,1.60e-02,
917,-2.40e-02,
918,8.00e-03,
919,-2.00e-02,
920,1.40e-02,
921,-1.20e-02,
922,8.00e-03,
923,-1.00e-02,
924,-1.20e-02,
925,1.80e-02,
926,-1.00e-02,
927,1.20e-02,
928,1.40e-02,
929,-6.00e-03,
930,1.20e-02,
931,-6.00e-03,
932,1.20e-02,
933,-1.00e-02,
934,-8.00e-03,
935,2.00e-02,
936,-8.00e-03,
937,1.80e-02,
938,-6.00e-03,
939,2.60e-02,
940,-1.60e-02,
941,1.80e-02,
942,3.20e-02,
943,-6.00e-03,
944,-8.00e-03,
945,1.60e-02,
946,8.00e-03,
947,-2.60e-02,
948,-1.20e-02,
949,1.80e-02,
950,-1.40e-02,
951,1.40e-02,
952,1.00e-02,
953,-6.00e-03,
954,1.00e-02,
955,-8.00e-03,
956,1.40e-02,
957,-1.40e-02,
958,-1.60e-02,
959,1.60e-02,
960,1.20e-02,
961,-1.40e-02,
962,1.00e-02,
963,-1.00e-02,
964,-2.12e-01,
965,2.98e-01,
966,1.40e-02,
967,-6.00e-03,
968,2.20e-02,
969,-2.00e-02,
970,3.20e-02,
971,-2.40e-02,
972,2.00e-02,
973,-8.00e-03,
974,-1.40e-02,
975,1.20e-02,
976,-1.20e-02,
977,1.40e-02,
978,1.40e-02,
979,-1.40e-02,
980,-6.00e-03,
981,1.20e-02,
982,-6.00e-03,
983,1.00e-02,
984,1.20e-02,
985,-6.00e-03,
986,1.00e-02,
987,-1.00e-02,
988,1.40e-02,
989,-2.00e-02,
990,-1.20e-02,
991,1.00e-02,
992,-6.00e-03,
993,1.00e-02,
994,-8.00e-03,
995,8.00e-03,
996,-6.00e-03,
997,1.60e-02,
998,1.40e-02,
999,-1.00e-02,
1000,-2.00e-02,
1001,1.60e-02,
1002,1.60e-02,
1003,-1.00e-02,
1004,-1.00e-02,
1005,8.00e-03,
1006,8.00e-03,
1007,-1.00e-02,
1008,1.00e-02,
1009,-1.20e-02,
1010,-1.00e-02,
1011,1.40e-02,
1012,1.40e-02,
1013,-6.00e-03,
1014,2.98e-01,
1015,-2.00e-01,
1016,-8.00e-03,
1017,1.00e-02,
1018,-8.00e-03,
1019,2.00e-02,
1020,-8.00e-03,
1021,1.80e-02,
1022,-1.60e-02,
1023,1.40e-02,
1024,2.80e-02,
1025,-2.20e-02,
1026,-1.20e-02,
1027,1.60e-02,
1028,8.00e-03,
1029,-1.00e-02,
1030,8.00e-03,
1031,-1.40e-02,
1032,-4.00e-03,
1033,1.00e-02,
1034,8.00e-03,
1035,-8.00e-03,
1036,8.00e-03,
1037,-8.00e-03,
1038,1.00e-02,
1039,-1.00e-02,
1040,1.30e-01,
1041,-2.12e-01,
1042,1.20e-02,
1043,-8.00e-03,
1044,1.20e-02,
1045,-1.20e-02,
1046,-2.00e-02,
1047,1.20e-02,
1048,2.80e-02,
1049,-6.00e-03,
1050,1.60e-02,
1051,-1.20e-02,
1052,1.00e-02,
1053,-3.00e-02,
1054,1.80e-02,
1055,-1.20e-02,
1056,-4.00e-03,
1057,1.60e-02,
1058,-8.00e-03,
1059,8.00e-03,
1060,-8.00e-03,
1061,1.00e-02,
1062,-6.00e-03,
1063,1.20e-02,
1064,-2.12e-01,
1065,1.60e-02,
1066,-8.00e-03,
1067,1.20e-02,
1068,8.00e-03,
1069,-1.60e-02,
1070,8.00e-03,
1071,-1.20e-02,
1072,8.00e-03,
1073,-1.00e-02,
1074,1.80e-02,
1075,-4.00e-03,
1076,8.00e-03,
1077,-2.40e-02,
1078,-1.00e-02,
1079,1.40e-02,
1080,1.60e-02,
1081,-1.40e-02,
1082,1.40e-02,
1083,-1.00e-02,
1084,2.20e-02,
1085,-1.20e-02,
1086,1.40e-02,
1087,-8.00e-03,
1088,1.20e-02,
1089,-1.20e-02,
1090,-1.20e-02,
1091,1.60e-02,
1092,1.00e-02,
1093,-8.00e-03,
1094,-8.00e-03,
1095,1.40e-02,
1096,-6.00e-03,
1097,1.20e-02,
1098,-8.00e-03,
1099,1.00e-02,
1100,-8.00e-03,
1101,2.80e-02,
1102,2.80e-02,
1103,-1.20e-02,
1104,1.60e-02,
1105,-1.00e-02,
1106,1.20e-02,
1107,-2.20e-02,
1108,-8.00e-03,
1109,1.80e-02,
1110,-6.00e-03,
1111,1.00e-02,
1112,8.00e-03,
1113,-1.40e-02,
1114,6.60e-02,
1115,-4.80e-02,
1116,8.00e-03,
1117,-8.00e-03,
1118,-1.00e-02,
1119,1.60e-02,
1120,-1.80e-02,
1121,1.00e-02,
1122,1.20e-02,
1123,-8.00e-03,
1124,1.40e-02,
1125,-1.00e-02,
1126,1.60e-02,
1127,-1.40e-02,
1128,-1.40e-02,
1129,1.80e-02,
1130,-2.40e-02,
1131,2.80e-02,
1132,-1.00e-02,
1133,1.40e-02,
1134,-1.40e-02,
1135,1.00e-02,
1136,1.60e-02,
1137,-1.40e-02,
1138,2.00e-02,
1139,-1.20e-02,
1140,1.38e-01,
1141,-5.00e-02,
1142,-1.00e-02,
1143,1.20e-02,
1144,-1.40e-02,
1145,8.00e-03,
1146,-1.20e-02,
1147,8.00e-03,
1148,-8.00e-03,
1149,8.00e-03,
1150,-8.00e-03,
1151,1.00e-02,
1152,8.00e-03,
1153,-1.40e-02,
1154,-1.40e-02,
1155,8.00e-03,
1156,-8.00e-03,
1157,1.80e-02,
1158,1.20e-02,
1159,-2.20e-02,
1160,-2.00e-02,
1161,2.00e-02,
1162,2.00e-02,
1163,-1.40e-02,
1164,-2.12e-01,
1165,2.98e-01,
1166,8.00e-03,
1167,-1.20e-02,
1168,1.00e-02,
1169,-1.20e-02,
1170,-1.40e-02,
1171,1.40e-02,
1172,1.40e-02,
1173,-1.40e-02,
1174,1.20e-02,
1175,-1.00e-02,
1176,1.00e-02,
1177,-1.00e-02,
1178,-1.40e-02,
1179,1.80e-02,
1180,-1.40e-02,
1181,2.00e-02,
1182,1.40e-02,
1183,-2.20e-02,
1184,2.80e-02,
1185,-2.40e-02,
1186,1.60e-02,
1187,-6.00e-03,
1188,-1.20e-02,
1189,8.00e-03,
1190,8.00e-03,
1191,-2.20e-02,
1192,-1.20e-02,
1193,8.00e-03,
1194,8.00e-03,
1195,-1.40e-02,
1196,-1.40e-02,
1197,8.00e-03,
1198,-1.20e-02,
1199,1.20e-02,
