Motor_Data/MOTOR_1_ON/time domain/NewFile12.csv

X,CH2,Start,Increment,
Sequence,Volt,-3.000000e-02,5.000000e-05
0,8.00e-03,
1,-4.00e-03,
2,1.00e-02,
3,-2.40e-02,
4,3.40e-02,
5,-3.20e-02,
6,-2.12e-01,
7,2.38e-01,
8,3.60e-02,
9,-3.00e-02,
10,2.20e-02,
11,-1.20e-02,
12,2.00e-02,
13,-1.60e-02,
14,-2.40e-02,
15,8.00e-03,
16,-1.60e-02,
17,1.20e-02,
18,-8.00e-03,
19,1.00e-02,
20,-8.00e-03,
21,8.00e-03,
22,-6.00e-03,
23,8.00e-03,
24,8.00e-03,
25,-8.00e-03,
26,8.00e-03,
27,-3.00e-02,
28,1.00e-02,
29,-6.00e-03,
30,-9.60e-02,
31,2.40e-02,
32,8.00e-03,
33,-8.00e-03,
34,8.00e-03,
35,-3.60e-02,
36,-3.40e-02,
37,8.00e-03,
38,-6.00e-03,
39,1.40e-02,
40,-1.40e-02,
41,1.00e-02,
42,1.00e-02,
43,-2.40e-02,
44,8.00e-03,
45,-8.00e-03,
46,-6.00e-03,
47,1.20e-02,
48,-6.00e-03,
49,1.00e-02,
50,8.00e-03,
51,-1.20e-02,
52,-6.00e-03,
53,8.00e-03,
54,8.00e-03,
55,-1.00e-02,
56,-2.12e-01,
57,2.18e-01,
58,-4.20e-02,
59,4.20e-02,
60,-2.00e-02,
61,2.40e-02,
62,3.40e-02,
63,-2.80e-02,
64,1.00e-02,
65,-1.20e-02,
66,-2.00e-02,
67,8.00e-03,
68,1.40e-02,
69,-1.20e-02,
70,1.20e-02,
71,-6.00e-03,
72,8.00e-03,
73,-6.00e-03,
74,-6.00e-03,
75,1.20e-02,
76,8.00e-03,
77,-8.00e-03,
78,8.00e-03,
79,-2.00e-02,
80,-3.40e-02,
81,1.60e-02,
82,-6.00e-03,
83,4.60e-02,
84,2.80e-02,
85,-3.60e-02,
86,3.40e-02,
87,-1.80e-02,
88,-4.40e-02,
89,2.20e-02,
90,-6.00e-03,
91,3.60e-02,
92,1.00e-02,
93,-1.40e-02,
94,1.20e-02,
95,-2.20e-02,
96,-1.60e-02,
97,1.20e-02,
98,-6.00e-03,
99,1.40e-02,
100,-6.00e-03,
101,1.40e-02,
102,8.00e-03,
103,-1.00e-02,
104,8.00e-03,
105,-1.00e-02,
106,-2.12e-01,
107,5.40e-02,
108,-6.00e-03,
109,3.60e-02,
110,2.00e-02,
111,-3.40e-02,
112,3.20e-02,
113,-6.00e-03,
114,8.00e-03,
115,-3.40e-02,
116,1.00e-02,
117,-1.00e-02,
118,8.00e-03,
119,-2.00e-02,
120,8.00e-03,
121,-1.40e-02,
122,1.40e-02,
123,-1.40e-02,
124,8.00e-03,
125,-6.00e-03,
126,8.00e-03,
127,-6.00e-03,
128,8.00e-03,
129,-6.00e-03,
130,-6.00e-03,
131,1.00e-02,
132,1.80e-02,
133,-2.80e-02,
134,-8.00e-03,
135,5.20e-02,
136,1.80e-02,
137,-2.40e-02,
138,3.40e-02,
139,-2.80e-02,
140,-3.20e-02,
141,2.20e-02,
142,-6.00e-03,
143,3.00e-02,
144,2.80e-02,
145,-1.00e-02,
146,1.00e-02,
147,-1.40e-02,
148,8.00e-03,
149,-1.00e-02,
150,-6.00e-03,
151,1.80e-02,
152,-6.00e-03,
153,8.00e-03,
154,8.00e-03,
155,-8.00e-03,
156,-2.12e-01,
157,1.22e-01,
158,8.00e-03,
159,-6.00e-03,
160,1.60e-02,
161,-3.20e-02,
162,3.40e-02,
163,-2.00e-02,
164,-4.40e-02,
165,4.60e-02,
166,-3.20e-02,
167,3.40e-02,
168,1.60e-02,
169,-1.20e-02,
170,-1.60e-02,
171,2.40e-02,
172,-2.00e-02,
173,1.40e-02,
174,1.20e-02,
175,-8.00e-03,
176,-6.00e-03,
177,1.00e-02,
178,8.00e-03,
179,-6.00e-03,
180,-6.00e-03,
181,8.00e-03,
182,-6.00e-03,
183,1.80e-02,
184,-1.40e-02,
185,1.20e-02,
186,-6.00e-03,
187,8.00e-03,
188,-6.00e-03,
189,4.20e-02,
190,-3.60e-02,
191,3.60e-02,
192,-4.40e-02,
193,8.00e-03,
194,8.00e-03,
195,-2.80e-02,
196,-6.00e-03,
197,3.60e-02,
198,8.00e-03,
199,-1.20e-02,
200,-1.60e-02,
201,1.00e-02,
202,-6.00e-03,
203,1.40e-02,
204,1.00e-02,
205,-8.00e-03,
206,-2.12e-01,
207,2.98e-01,
208,-3.60e-02,
209,8.00e-03,
210,8.00e-03,
211,-8.00e-03,
212,1.00e-02,
213,-1.20e-02,
214,-3.40e-02,
215,2.80e-02,
216,4.40e-02,
217,-4.40e-02,
218,-1.80e-02,
219,2.80e-02,
220,-1.60e-02,
221,1.00e-02,
222,-1.00e-02,
223,2.40e-02,
224,2.80e-02,
225,-2.00e-02,
226,-6.00e-03,
227,1.60e-02,
228,1.00e-02,
229,-6.00e-03,
230,-6.00e-03,
231,1.00e-02,
232,-3.40e-02,
233,1.80e-02,
234,-6.00e-03,
235,8.00e-03,
236,1.00e-02,
237,-6.00e-03,
238,8.00e-03,
239,-3.40e-02,
240,-6.00e-03,
241,5.20e-02,
242,2.80e-02,
243,-3.60e-02,
244,2.80e-02,
245,-2.80e-02,
246,-4.20e-02,
247,2.40e-02,
248,-6.00e-03,
249,3.00e-02,
250,8.00e-03,
251,-1.20e-02,
252,-1.40e-02,
253,1.00e-02,
254,8.00e-03,
255,-1.60e-02,
256,-6.00e-03,
257,1.60e-02,
258,2.98e-01,
259,-2.12e-01,
260,1.00e-02,
261,-1.20e-02,
262,8.00e-03,
263,-1.20e-02,
264,8.00e-03,
265,-6.00e-03,
266,-6.00e-03,
267,8.00e-03,
268,1.20e-02,
269,-8.00e-03,
270,-6.00e-03,
271,2.40e-02,
272,-6.00e-03,
273,3.60e-02,
274,8.00e-03,
275,-8.00e-03,
276,-6.00e-03,
277,3.00e-02,
278,-4.00e-03,
279,8.00e-03,
280,1.20e-02,
281,-1.20e-02,
282,1.00e-01,
283,-8.00e-03,
284,-6.00e-03,
285,8.00e-03,
286,-6.00e-03,
287,8.00e-03,
288,8.00e-03,
289,-8.00e-03,
290,-3.20e-02,
291,1.00e-02,
292,-6.00e-03,
293,4.80e-02,
294,1.40e-02,
295,-2.80e-02,
296,3.60e-02,
297,-2.40e-02,
298,-3.60e-02,
299,2.20e-02,
300,-6.00e-03,
301,3.60e-02,
302,1.80e-02,
303,-1.40e-02,
304,-8.00e-03,
305,8.00e-03,
306,8.00e-03,
307,-6.00e-03,
308,1.20e-01,
309,-6.00e-03,
310,-6.00e-03,
311,1.20e-02,
312,-6.00e-03,
313,1.20e-02,
314,1.00e-02,
315,-6.00e-03,
316,8.00e-03,
317,-6.00e-03,
318,-6.00e-03,
319,8.00e-03,
320,-1.60e-02,
321,4.20e-02,
322,-4.60e-02,
323,4.60e-02,
324,-3.00e-02,
325,3.00e-02,
326,1.00e-02,
327,-8.00e-03,
328,-2.00e-02,
329,2.40e-02,
330,-1.80e-02,
331,1.20e-02,
332,2.98e-01,
333,-6.20e-02,
334,-6.00e-03,
335,1.20e-02,
336,-6.00e-03,
337,1.00e-02,
338,8.00e-03,
339,-6.00e-03,
340,-6.00e-03,
341,8.00e-03,
342,8.00e-03,
343,-3.00e-02,
344,8.00e-03,
345,-6.00e-03,
346,3.40e-02,
347,-6.00e-03,
348,-6.00e-03,
349,1.00e-02,
350,8.00e-03,
351,-4.00e-02,
352,-1.80e-02,
353,8.00e-03,
354,3.20e-02,
355,-8.00e-03,
356,8.00e-03,
357,-1.00e-02,
358,-2.12e-01,
359,1.92e-01,
360,-6.00e-03,
361,1.00e-02,
362,1.20e-02,
363,-1.00e-02,
364,1.00e-02,
365,-8.00e-03,
366,8.00e-03,
367,-1.20e-02,
368,8.00e-03,
369,-1.00e-02,
370,1.20e-02,
371,-2.00e-02,
372,3.80e-02,
373,-3.60e-02,
374,5.00e-02,
375,-4.20e-02,
376,3.40e-02,
377,-3.00e-02,
378,2.20e-02,
379,-1.60e-02,
380,1.20e-02,
381,-1.20e-02,
382,-2.20e-02,
383,2.00e-02,
384,2.98e-01,
385,-8.20e-02,
386,1.00e-02,
387,-6.00e-03,
388,-6.00e-03,
389,8.00e-03,
390,8.00e-03,
391,-8.00e-03,
392,8.00e-03,
393,-8.00e-03,
394,-6.00e-03,
395,8.00e-03,
396,1.20e-02,
397,-8.00e-03,
398,-8.00e-03,
399,8.00e-03,
400,3.80e-02,
401,-3.00e-02,
402,1.00e-02,
403,-3.40e-02,
404,-4.00e-02,
405,2.40e-02,
406,-6.00e-03,
407,3.20e-02,
408,-1.46e-01,
409,2.98e-01,
410,1.00e-02,
411,-1.80e-02,
412,-1.40e-02,
413,8.00e-03,
414,1.40e-02,
415,-6.00e-03,
416,-6.00e-03,
417,8.00e-03,
418,8.00e-03,
419,-1.00e-02,
420,8.00e-03,
421,-1.40e-02,
422,8.00e-03,
423,-8.00e-03,
424,-3.00e-02,
425,4.00e-02,
426,-6.00e-03,
427,8.00e-03,
428,8.00e-03,
429,-6.00e-03,
430,-6.00e-03,
431,3.60e-02,
432,8.00e-03,
433,-1.20e-02,
434,-1.20e-02,
435,3.00e-02,
436,-8.00e-03,
437,1.20e-02,
438,-4.00e-03,
439,1.00e-02,
440,-6.00e-03,
441,8.00e-03,
442,-6.00e-03,
443,8.00e-03,
444,-8.00e-03,
445,1.00e-02,
446,8.00e-03,
447,-1.20e-02,
448,8.00e-03,
449,-3.60e-02,
450,-8.00e-03,
451,4.40e-02,
452,-6.00e-03,
453,2.20e-02,
454,3.60e-02,
455,-2.00e-02,
456,-4.00e-02,
457,1.00e-02,
458,-2.12e-01,
459,1.44e-01,
460,1.40e-02,
461,-1.40e-02,
462,1.00e-02,
463,-1.80e-02,
464,8.00e-03,
465,-8.00e-03,
466,-1.20e-02,
467,1.00e-02,
468,-1.00e-02,
469,1.00e-02,
470,8.00e-03,
471,-8.00e-03,
472,8.00e-03,
473,-1.20e-02,
474,-6.00e-03,
475,8.00e-03,
476,1.00e-02,
477,-3.40e-02,
478,-6.00e-03,
479,4.60e-02,
480,-4.00e-02,
481,4.00e-02,
482,3.40e-02,
483,-3.00e-02,
484,-1.00e-02,
485,1.14e-01,
486,2.20e-02,
487,-1.80e-02,
488,-1.80e-02,
489,8.00e-03,
490,1.60e-02,
491,-1.40e-02,
492,-6.00e-03,
493,1.00e-02,
494,8.00e-03,
495,-8.00e-03,
496,8.00e-03,
497,-8.00e-03,
498,-6.00e-03,
499,8.00e-03,
500,8.00e-03,
501,-3.20e-02,
502,-6.00e-03,
503,5.00e-02,
504,2.80e-02,
505,-1.80e-02,
506,-3.00e-02,
507,8.00e-03,
508,-6.00e-03,
509,1.60e-02,
510,2.40e-02,
511,-1.66e-01,
512,8.00e-03,
513,-1.40e-02,
514,8.00e-03,
515,-1.60e-02,
516,8.00e-03,
517,-6.00e-03,
518,8.00e-03,
519,-8.00e-03,
520,8.00e-03,
521,-8.00e-03,
522,8.00e-03,
523,-8.00e-03,
524,8.00e-03,
525,-1.00e-02,
526,8.00e-03,
527,-8.00e-03,
528,1.20e-02,
529,-2.80e-02,
530,3.40e-02,
531,-3.00e-02,
532,5.20e-02,
533,-3.60e-02,
534,-2.40e-02,
535,9.40e-02,
536,2.00e-02,
537,-1.00e-02,
538,-1.20e-02,
539,2.60e-02,
540,-2.40e-02,
541,1.60e-02,
542,-1.40e-02,
543,1.40e-02,
544,8.00e-03,
545,-8.00e-03,
546,-6.00e-03,
547,1.00e-02,
548,-6.00e-03,
549,8.00e-03,
550,1.00e-02,
551,-8.00e-03,
552,8.00e-03,
553,-3.40e-02,
554,-6.00e-03,
555,8.00e-03,
556,-6.00e-03,
557,4.60e-02,
558,3.60e-02,
559,-2.60e-02,
560,-2.12e-01,
561,2.98e-01,
562,-3.20e-02,
563,2.20e-02,
564,3.20e-02,
565,-8.00e-03,
566,8.00e-03,
567,-1.40e-02,
568,1.20e-02,
569,-2.00e-02,
570,-6.00e-03,
571,1.00e-02,
572,-6.00e-03,
573,1.40e-02,
574,1.20e-02,
575,-1.00e-02,
576,8.00e-03,
577,-8.00e-03,
578,8.00e-03,
579,-1.20e-02,
580,8.00e-03,
581,-1.40e-02,
582,-3.00e-02,
583,3.40e-02,
584,3.80e-02,
585,-4.20e-02,
586,3.00e-02,
587,-2.20e-02,
588,3.20e-02,
589,-2.40e-02,
590,-1.40e-02,
591,8.00e-03,
592,8.00e-03,
593,-2.20e-02,
594,-6.00e-03,
595,1.20e-02,
596,-6.00e-03,
597,1.00e-02,
598,8.00e-03,
599,-6.00e-03,
600,8.00e-03,
601,-8.00e-03,
602,1.00e-02,
603,-6.00e-03,
604,-1.60e-02,
605,1.00e-02,
606,1.00e-02,
607,-3.20e-02,
608,4.80e-02,
609,-6.00e-03,
610,-2.12e-01,
611,2.78e-01,
612,2.60e-02,
613,-1.80e-02,
614,-4.00e-02,
615,2.20e-02,
616,-6.00e-03,
617,3.40e-02,
618,8.00e-03,
619,-1.80e-02,
620,1.20e-02,
621,-1.80e-02,
622,-1.40e-02,
623,8.00e-03,
624,-6.00e-03,
625,1.40e-02,
626,8.00e-03,
627,-1.20e-02,
628,8.00e-03,
629,-1.20e-02,
630,-1.20e-02,
631,8.00e-03,
632,-6.00e-03,
633,8.00e-03,
634,-2.00e-02,
635,3.20e-02,
636,1.80e-02,
637,-3.60e-02,
638,-4.20e-02,
639,3.20e-02,
640,3.40e-02,
641,-3.20e-02,
642,1.80e-02,
643,-1.00e-02,
644,2.20e-02,
645,-1.80e-02,
646,-1.60e-02,
647,8.00e-03,
648,1.40e-02,
649,-1.60e-02,
650,8.00e-03,
651,-6.00e-03,
652,-6.00e-03,
653,8.00e-03,
654,1.00e-02,
655,-1.00e-02,
656,-6.00e-03,
657,8.00e-03,
658,8.00e-03,
659,-3.20e-02,
660,2.98e-01,
661,-2.40e-02,
662,1.60e-02,
663,-2.80e-02,
664,3.60e-02,
665,-2.60e-02,
666,6.00e-03,
667,-3.60e-02,
668,-8.00e-03,
669,1.00e-02,
670,1.80e-02,
671,-6.00e-03,
672,8.00e-03,
673,-1.60e-02,
674,-2.00e-02,
675,8.00e-03,
676,-6.00e-03,
677,1.60e-02,
678,1.00e-02,
679,-6.00e-03,
680,8.00e-03,
681,-8.00e-03,
682,8.00e-03,
683,-1.20e-02,
684,8.00e-03,
685,-6.00e-03,
686,1.64e-01,
687,-3.00e-02,
688,3.60e-02,
689,-2.00e-02,
690,-4.00e-02,
691,5.00e-02,
692,-3.00e-02,
693,4.00e-02,
694,1.00e-02,
695,-8.00e-03,
696,2.20e-02,
697,-1.80e-02,
698,-1.60e-02,
699,1.20e-02,
700,-1.60e-02,
701,1.40e-02,
702,8.00e-03,
703,-1.20e-02,
704,8.00e-03,
705,-6.00e-03,
706,-6.00e-03,
707,8.00e-03,
708,-1.00e-02,
709,1.00e-02,
710,8.00e-03,
711,-3.40e-02,
712,2.98e-01,
713,-2.12e-01,
714,4.20e-02,
715,-1.00e-02,
716,-3.80e-02,
717,3.40e-02,
718,-4.40e-02,
719,1.20e-02,
720,-2.60e-02,
721,2.60e-02,
722,3.00e-02,
723,-1.00e-02,
724,-1.40e-02,
725,1.20e-02,
726,8.00e-03,
727,-2.00e-02,
728,-6.00e-03,
729,1.20e-02,
730,8.00e-03,
731,-8.00e-03,
732,-6.00e-03,
733,8.00e-03,
734,8.00e-03,
735,-1.40e-02,
736,-8.00e-03,
737,1.80e-02,
738,8.00e-03,
739,-1.60e-02,
740,2.80e-02,
741,-3.60e-02,
742,4.40e-02,
743,-4.60e-02,
744,-1.40e-02,
745,2.80e-02,
746,2.60e-02,
747,-1.40e-02,
748,-1.00e-02,
749,8.00e-03,
750,8.00e-03,
751,-2.20e-02,
752,-6.00e-03,
753,1.20e-02,
754,-1.20e-02,
755,1.00e-02,
756,1.00e-02,
757,-6.00e-03,
758,8.00e-03,
759,-8.00e-03,
760,-6.00e-03,
761,8.00e-03,
762,-2.12e-01,
763,1.40e-01,
764,-3.40e-02,
765,1.80e-02,
766,-6.00e-03,
767,5.20e-02,
768,-2.80e-02,
769,3.00e-02,
770,2.20e-02,
771,-2.80e-02,
772,-3.80e-02,
773,2.20e-02,
774,3.20e-02,
775,-8.00e-03,
776,8.00e-03,
777,-1.60e-02,
778,8.00e-03,
779,-2.00e-02,
780,8.00e-03,
781,-1.40e-02,
782,1.40e-02,
783,-1.00e-02,
784,8.00e-03,
785,-1.20e-02,
786,-8.00e-03,
787,2.74e-01,
788,-1.20e-02,
789,1.00e-02,
790,-8.00e-03,
791,8.00e-03,
792,-6.00e-03,
793,3.40e-02,
794,8.00e-03,
795,-4.00e-02,
796,-3.40e-02,
797,8.00e-03,
798,3.20e-02,
799,-8.00e-03,
800,-1.20e-02,
801,1.80e-02,
802,2.60e-02,
803,-2.00e-02,
804,1.00e-02,
805,-1.40e-02,
806,1.40e-02,
807,-1.00e-02,
808,8.00e-03,
809,-8.00e-03,
810,8.00e-03,
811,-6.00e-03,
812,2.98e-01,
813,-2.12e-01,
814,8.00e-03,
815,-8.00e-03,
816,1.00e-02,
817,-3.60e-02,
818,-6.00e-03,
819,4.40e-02,
820,1.40e-02,
821,-2.80e-02,
822,3.80e-02,
823,-2.20e-02,
824,-4.00e-02,
825,1.80e-02,
826,-6.00e-03,
827,1.00e-02,
828,2.00e-02,
829,-6.00e-03,
830,8.00e-03,
831,-1.80e-02,
832,8.00e-03,
833,-1.80e-02,
834,1.20e-02,
835,-8.00e-03,
836,1.00e-02,
837,-6.00e-03,
838,8.00e-03,
839,-8.00e-03,
840,-1.20e-02,
841,1.00e-02,
842,8.00e-03,
843,-6.00e-03,
844,3.00e-02,
845,-3.80e-02,
846,-1.80e-02,
847,4.20e-02,
848,-4.60e-02,
849,4.00e-02,
850,-3.60e-02,
851,3.40e-02,
852,1.00e-02,
853,-1.00e-02,
854,2.60e-02,
855,-2.20e-02,
856,8.00e-03,
857,-1.80e-02,
858,1.20e-02,
859,-1.20e-02,
860,-6.00e-03,
861,1.00e-02,
862,-2.12e-01,
863,2.98e-01,
864,-6.00e-03,
865,1.00e-02,
866,-4.00e-03,
867,1.00e-02,
868,1.00e-02,
869,-6.00e-03,
870,8.00e-03,
871,-8.00e-03,
872,8.00e-03,
873,-1.80e-02,
874,-6.00e-03,
875,2.60e-02,
876,-4.00e-02,
877,1.40e-02,
878,-1.00e-02,
879,2.40e-02,
880,3.00e-02,
881,-1.00e-02,
882,8.00e-03,
883,-1.40e-02,
884,-2.00e-02,
885,1.20e-02,
886,-6.00e-03,
887,1.20e-02,
888,-2.20e-02,
889,2.20e-02,
890,1.00e-02,
891,-8.00e-03,
892,1.00e-02,
893,-1.20e-02,
894,8.00e-03,
895,-6.00e-03,
896,1.20e-02,
897,-2.00e-02,
898,3.60e-02,
899,-3.20e-02,
900,5.20e-02,
901,-4.20e-02,
902,3.80e-02,
903,-3.20e-02,
904,2.00e-02,
905,-1.40e-02,
906,8.00e-03,
907,-1.60e-02,
908,8.00e-03,
909,-1.80e-02,
910,-8.00e-03,
911,1.20e-02,
912,1.00e-02,
913,-2.12e-01,
914,-6.00e-03,
915,1.00e-02,
916,-6.00e-03,
917,1.00e-02,
918,8.00e-03,
919,-6.00e-03,
920,8.00e-03,
921,-3.20e-02,
922,-2.40e-02,
923,3.00e-02,
924,5.20e-02,
925,-6.00e-03,
926,-2.80e-02,
927,3.60e-02,
928,-3.80e-02,
929,1.00e-02,
930,-3.60e-02,
931,1.40e-02,
932,3.60e-02,
933,-6.00e-03,
934,-1.80e-02,
935,1.00e-02,
936,8.00e-03,
937,-2.00e-02,
938,-1.40e-02,
939,2.98e-01,
940,1.00e-02,
941,-1.00e-02,
942,8.00e-03,
943,-6.00e-03,
944,-8.00e-03,
945,1.00e-02,
946,-6.00e-03,
947,1.00e-02,
948,-6.00e-03,
949,8.00e-03,
950,-6.00e-03,
951,3.60e-02,
952,8.00e-03,
953,-4.20e-02,
954,-2.60e-02,
955,2.00e-02,
956,3.60e-02,
957,-2.00e-02,
958,-1.40e-02,
959,1.80e-02,
960,-1.80e-02,
961,2.80e-02,
962,1.60e-02,
963,-1.60e-02,
964,2.98e-01,
965,-1.58e-01,
966,-8.00e-03,
967,1.20e-02,
968,-6.00e-03,
969,1.00e-02,
970,8.00e-03,
971,-8.00e-03,
972,8.00e-03,
973,-1.20e-02,
974,8.00e-03,
975,-3.60e-02,
976,4.60e-02,
977,-6.00e-03,
978,2.20e-02,
979,-3.00e-02,
980,3.60e-02,
981,-2.20e-02,
982,-4.40e-02,
983,2.40e-02,
984,-8.00e-03,
985,3.60e-02,
986,1.00e-02,
987,-6.00e-03,
988,1.20e-02,
989,-5.60e-02,
990,8.00e-03,
991,-1.80e-02,
992,1.20e-02,
993,-6.00e-03,
994,-6.00e-03,
995,1.20e-02,
996,8.00e-03,
997,-6.00e-03,
998,-1.20e-02,
999,8.00e-03,
1000,1.00e-02,
1001,-6.00e-03,
1002,3.40e-02,
1003,-3.80e-02,
1004,-2.60e-02,
1005,4.80e-02,
1006,-4.00e-02,
1007,3.40e-02,
1008,3.20e-02,
1009,-3.20e-02,
1010,-8.00e-03,
1011,1.20e-02,
1012,2.40e-02,
1013,-1.80e-02,
1014,-2.12e-01,
1015,2.98e-01,
1016,1.40e-02,
1017,-1.20e-02,
1018,-6.00e-03,
1019,1.00e-02,
1020,-6.00e-03,
1021,1.00e-02,
1022,-8.00e-03,
1023,8.00e-03,
1024,8.00e-03,
1025,-6.00e-03,
1026,-2.40e-02,
1027,1.20e-02,
1028,-8.00e-03,
1029,5.40e-02,
1030,2.00e-02,
1031,-8.00e-03,
1032,3.40e-02,
1033,-3.00e-02,
1034,1.00e-02,
1035,-4.20e-02,
1036,2.60e-02,
1037,-6.00e-03,
1038,2.80e-02,
1039,-1.20e-02,
1040,1.60e-02,
1041,-1.60e-02,
1042,-2.40e-02,
1043,1.00e-02,
1044,1.60e-02,
1045,-1.20e-02,
1046,-6.00e-03,
1047,1.00e-02,
1048,-6.00e-03,
1049,1.00e-02,
1050,8.00e-03,
1051,-1.20e-02,
1052,-6.00e-03,
1053,1.00e-02,
1054,1.00e-02,
1055,-2.60e-02,
1056,3.80e-02,
1057,-3.00e-02,
1058,-3.80e-02,
1059,4.80e-02,
1060,1.00e-02,
1061,-3.00e-02,
1062,1.60e-02,
1063,-1.20e-02,
1064,-1.60e-01,
1065,4.20e-02,
1066,-2.00e-02,
1067,1.80e-02,
1068,1.40e-02,
1069,-1.60e-02,
1070,-6.00e-03,
1071,1.00e-02,
1072,-6.00e-03,
1073,8.00e-03,
1074,8.00e-03,
1075,-6.00e-03,
1076,1.00e-02,
1077,-1.00e-02,
1078,8.00e-03,
1079,-3.60e-02,
1080,-8.00e-03,
1081,4.40e-02,
1082,-6.00e-03,
1083,4.60e-02,
1084,-3.40e-02,
1085,3.20e-02,
1086,-4.20e-02,
1087,1.20e-02,
1088,-2.80e-02,
1089,2.40e-02,
1090,1.06e-01,
1091,-2.12e-01,
1092,8.00e-03,
1093,-1.60e-02,
1094,8.00e-03,
1095,-1.80e-02,
1096,-6.00e-03,
1097,1.00e-02,
1098,1.40e-02,
1099,-8.00e-03,
1100,-6.00e-03,
1101,8.00e-03,
1102,-1.40e-02,
1103,8.00e-03,
1104,-8.00e-03,
1105,8.00e-03,
1106,-6.00e-03,
1107,1.00e-02,
1108,-3.60e-02,
1109,3.00e-02,
1110,8.00e-03,
1111,-4.40e-02,
1112,-2.20e-02,
1113,2.60e-02,
1114,3.00e-02,
1115,-2.12e-01,
1116,1.20e-02,
1117,-1.20e-02,
1118,-2.00e-02,
1119,8.00e-03,
1120,1.40e-02,
1121,-2.00e-02,
1122,1.00e-02,
1123,-8.00e-03,
1124,8.00e-03,
1125,-1.00e-02,
1126,-8.00e-03,
1127,8.00e-03,
1128,-8.00e-03,
1129,8.00e-03,
1130,8.00e-03,
1131,-2.20e-02,
1132,-3.80e-02,
1133,1.20e-02,
1134,-6.00e-03,
1135,4.80e-02,
1136,3.00e-02,
1137,-3.20e-02,
1138,2.80e-02,
1139,-2.20e-02,
1140,-9.00e-02,
1141,1.20e-01,
1142,3.00e-02,
1143,-6.00e-03,
1144,1.00e-02,
1145,-1.20e-02,
1146,8.00e-03,
1147,-2.20e-02,
1148,8.00e-03,
1149,-6.00e-03,
1150,-6.00e-03,
1151,1.60e-02,
1152,-6.00e-03,
1153,1.00e-02,
1154,8.00e-03,
1155,-8.00e-03,
1156,-8.00e-03,
1157,1.00e-02,
1158,-6.00e-03,
1159,8.00e-03,
1160,3.40e-02,
1161,-2.80e-02,
1162,-3.60e-02,
1163,5.00e-02,
1164,-3.80e-02,
1165,3.00e-02,
1166,-2.12e-01,
1167,2.98e-01,
1168,-1.60e-02,
1169,1.00e-02,
1170,2.20e-02,
1171,-2.20e-02,
1172,-1.20e-02,
1173,1.00e-02,
1174,1.40e-02,
1175,-1.40e-02,
1176,8.00e-03,
1177,-6.00e-03,
1178,8.00e-03,
1179,-6.00e-03,
1180,-1.00e-02,
1181,8.00e-03,
1182,-8.00e-03,
1183,8.00e-03,
1184,8.00e-03,
1185,-3.20e-02,
1186,8.00e-03,
1187,-8.00e-03,
1188,1.40e-02,
1189,-3.00e-02,
1190,3.40e-02,
1191,-2.80e-02,
1192,-3.60e-02,
1193,1.40e-02,
1194,-8.00e-03,
1195,1.40e-02,
1196,2.20e-02,
1197,-1.60e-02,
1198,8.00e-03,
1199,-1.60e-02,
