Motor_Data/MOTOR_1_ON/time domain/NewFile23.csv

X,CH2,Start,Increment,
Sequence,Volt,-3.000000e-02,5.000000e-05
0,8.00e-03,
1,-1.00e-02,
2,-6.00e-03,
3,1.00e-02,
4,-2.60e-02,
5,3.40e-02,
6,-3.80e-02,
7,4.80e-02,
8,-3.20e-02,
9,1.80e-02,
10,3.60e-02,
11,-2.80e-02,
12,-1.00e-02,
13,1.60e-02,
14,3.00e-02,
15,-2.00e-02,
16,8.00e-03,
17,-1.20e-02,
18,1.20e-02,
19,-8.00e-03,
20,-4.00e-03,
21,8.00e-03,
22,8.00e-03,
23,-6.00e-03,
24,2.40e-01,
25,-3.80e-02,
26,-6.00e-03,
27,8.00e-03,
28,-4.00e-03,
29,8.00e-03,
30,-6.00e-03,
31,4.60e-02,
32,8.00e-03,
33,-3.00e-02,
34,3.40e-02,
35,-2.60e-02,
36,8.00e-03,
37,-3.80e-02,
38,-8.00e-03,
39,2.60e-02,
40,1.80e-02,
41,-1.20e-02,
42,-1.20e-02,
43,8.00e-03,
44,-2.20e-02,
45,8.00e-03,
46,-6.00e-03,
47,1.60e-02,
48,-6.20e-02,
49,1.40e-02,
50,6.00e-03,
51,-1.00e-02,
52,8.00e-03,
53,-1.00e-02,
54,-4.00e-03,
55,8.00e-03,
56,1.40e-02,
57,-2.60e-02,
58,3.40e-02,
59,-2.20e-02,
60,-4.00e-02,
61,4.60e-02,
62,-2.20e-02,
63,3.60e-02,
64,2.00e-02,
65,-1.00e-02,
66,8.00e-03,
67,-1.80e-02,
68,-2.20e-02,
69,8.00e-03,
70,1.20e-02,
71,-1.00e-02,
72,8.00e-03,
73,-6.00e-03,
74,-6.00e-03,
75,2.98e-01,
76,-4.00e-03,
77,8.00e-03,
78,8.00e-03,
79,-6.00e-03,
80,8.00e-03,
81,-3.00e-02,
82,-1.80e-02,
83,2.80e-02,
84,-6.00e-03,
85,4.20e-02,
86,-3.00e-02,
87,3.80e-02,
88,1.20e-02,
89,-3.60e-02,
90,-3.40e-02,
91,2.80e-02,
92,-4.00e-03,
93,3.40e-02,
94,8.00e-03,
95,-1.60e-02,
96,1.20e-02,
97,-2.00e-02,
98,8.00e-03,
99,-8.00e-03,
100,2.98e-01,
101,-2.12e-01,
102,8.00e-03,
103,-8.00e-03,
104,-4.00e-03,
105,8.00e-03,
106,8.00e-03,
107,-6.00e-03,
108,8.00e-03,
109,-6.00e-03,
110,1.40e-02,
111,-2.80e-02,
112,8.00e-03,
113,-3.80e-02,
114,8.00e-03,
115,-3.40e-02,
116,3.40e-02,
117,-2.60e-02,
118,8.00e-03,
119,-8.00e-03,
120,2.80e-02,
121,-2.20e-02,
122,1.00e-02,
123,-1.20e-02,
124,-2.12e-01,
125,2.98e-01,
126,-4.00e-03,
127,8.00e-03,
128,6.00e-03,
129,-4.00e-03,
130,1.00e-02,
131,-8.00e-03,
132,6.00e-03,
133,-6.00e-03,
134,1.00e-02,
135,-3.20e-02,
136,-6.00e-03,
137,4.60e-02,
138,1.20e-02,
139,-2.80e-02,
140,3.40e-02,
141,-2.60e-02,
142,-3.60e-02,
143,2.00e-02,
144,8.00e-03,
145,-6.00e-03,
146,-4.00e-03,
147,2.20e-02,
148,6.00e-03,
149,-6.00e-03,
150,1.16e-01,
151,-1.00e-02,
152,-4.00e-03,
153,1.40e-02,
154,-6.00e-03,
155,8.00e-03,
156,8.00e-03,
157,-8.00e-03,
158,6.00e-03,
159,-1.00e-02,
160,-4.00e-03,
161,6.00e-03,
162,1.60e-02,
163,-2.60e-02,
164,3.40e-02,
165,-2.40e-02,
166,-3.60e-02,
167,4.60e-02,
168,3.40e-02,
169,-2.40e-02,
170,-6.00e-03,
171,1.80e-02,
172,-1.60e-02,
173,2.40e-02,
174,1.80e-02,
175,-3.20e-02,
176,1.20e-02,
177,-1.00e-02,
178,-6.00e-03,
179,8.00e-03,
180,-6.00e-03,
181,8.00e-03,
182,8.00e-03,
183,-6.00e-03,
184,6.00e-03,
185,-6.00e-03,
186,8.00e-03,
187,-3.00e-02,
188,1.00e-02,
189,-6.00e-03,
190,-6.00e-03,
191,4.40e-02,
192,-4.00e-03,
193,3.60e-02,
194,8.00e-03,
195,-3.40e-02,
196,-2.80e-02,
197,2.60e-02,
198,-4.00e-03,
199,1.20e-02,
200,2.98e-01,
201,-4.00e-02,
202,8.00e-03,
203,-2.00e-02,
204,-1.00e-02,
205,1.00e-02,
206,1.20e-02,
207,-8.00e-03,
208,-8.00e-03,
209,1.00e-02,
210,8.00e-03,
211,-1.00e-02,
212,-1.00e-02,
213,8.00e-03,
214,-4.00e-03,
215,1.00e-02,
216,-3.00e-02,
217,3.20e-02,
218,-3.80e-02,
219,4.60e-02,
220,1.60e-02,
221,-2.60e-02,
222,3.40e-02,
223,-2.80e-02,
224,6.00e-03,
225,-1.78e-01,
226,-5.40e-02,
227,1.20e-02,
228,-6.00e-03,
229,1.00e-02,
230,-6.00e-03,
231,1.00e-02,
232,-6.00e-03,
233,1.00e-02,
234,-4.00e-03,
235,6.00e-03,
236,6.00e-03,
237,-1.00e-02,
238,-6.00e-03,
239,8.00e-03,
240,-3.40e-02,
241,8.00e-03,
242,-6.00e-03,
243,4.20e-02,
244,1.40e-02,
245,-3.20e-02,
246,3.60e-02,
247,-2.00e-02,
248,-4.00e-02,
249,2.00e-02,
250,2.98e-01,
251,-2.00e-02,
252,1.80e-02,
253,-1.20e-02,
254,1.00e-02,
255,-1.20e-02,
256,-2.00e-02,
257,1.00e-02,
258,-6.00e-03,
259,1.20e-02,
260,6.00e-03,
261,-1.00e-02,
262,8.00e-03,
263,-8.00e-03,
264,-6.00e-03,
265,6.00e-03,
266,1.20e-02,
267,-6.00e-03,
268,-6.00e-03,
269,2.00e-02,
270,3.00e-02,
271,-6.00e-03,
272,-4.20e-02,
273,8.00e-03,
274,-6.00e-03,
275,8.00e-03,
276,2.52e-01,
277,-3.00e-02,
278,6.00e-03,
279,-8.00e-03,
280,-2.00e-02,
281,1.60e-02,
282,1.00e-02,
283,-1.40e-02,
284,1.00e-02,
285,-8.00e-03,
286,6.00e-03,
287,-8.00e-03,
288,8.00e-03,
289,-8.00e-03,
290,6.00e-03,
291,-6.00e-03,
292,1.00e-02,
293,-3.00e-02,
294,-1.40e-02,
295,3.60e-02,
296,-6.00e-03,
297,4.00e-02,
298,-3.00e-02,
299,3.60e-02,
300,2.00e-02,
301,-3.60e-02,
302,-6.00e-03,
303,2.20e-02,
304,3.40e-02,
305,-6.00e-03,
306,6.00e-03,
307,-1.40e-02,
308,1.00e-02,
309,-2.00e-02,
310,-6.00e-03,
311,8.00e-03,
312,1.20e-02,
313,-6.00e-03,
314,1.00e-02,
315,-8.00e-03,
316,-6.00e-03,
317,1.00e-02,
318,-6.00e-03,
319,8.00e-03,
320,-6.00e-03,
321,8.00e-03,
322,-2.80e-02,
323,3.40e-02,
324,-4.20e-02,
325,4.20e-02,
326,2.20e-02,
327,-3.00e-02,
328,3.60e-02,
329,-2.40e-02,
330,-1.00e-02,
331,1.80e-02,
332,2.80e-02,
333,-1.60e-02,
334,8.00e-03,
335,-1.40e-02,
336,1.40e-02,
337,-1.00e-02,
338,8.00e-03,
339,-4.00e-03,
340,-6.00e-03,
341,8.00e-03,
342,8.00e-03,
343,-8.00e-03,
344,6.00e-03,
345,-1.20e-02,
346,1.00e-02,
347,-1.40e-02,
348,8.00e-03,
349,-6.00e-03,
350,-6.00e-03,
351,5.00e-02,
352,8.00e-03,
353,-2.20e-02,
354,-4.00e-03,
355,8.00e-03,
356,6.00e-03,
357,-1.00e-02,
358,1.00e-02,
359,-1.20e-02,
360,8.00e-03,
361,-1.80e-02,
362,-2.00e-02,
363,8.00e-03,
364,1.40e-02,
365,-8.00e-03,
366,6.00e-03,
367,-8.00e-03,
368,6.00e-03,
369,-6.00e-03,
370,-1.20e-02,
371,8.00e-03,
372,8.00e-03,
373,-6.00e-03,
374,2.20e-02,
375,-3.20e-02,
376,-1.64e-01,
377,2.98e-01,
378,-4.20e-02,
379,4.40e-02,
380,-2.80e-02,
381,3.00e-02,
382,1.80e-02,
383,-8.00e-03,
384,6.00e-03,
385,-1.00e-02,
386,-4.00e-03,
387,6.00e-03,
388,1.40e-02,
389,-1.60e-02,
390,1.00e-02,
391,-6.00e-03,
392,8.00e-03,
393,-6.00e-03,
394,-6.00e-03,
395,1.00e-02,
396,6.00e-03,
397,-8.00e-03,
398,1.20e-02,
399,-3.40e-02,
400,4.20e-02,
401,-1.74e-01,
402,-6.00e-03,
403,3.80e-02,
404,-3.20e-02,
405,3.80e-02,
406,8.00e-03,
407,-4.00e-02,
408,-2.60e-02,
409,2.60e-02,
410,3.40e-02,
411,-1.00e-02,
412,6.00e-03,
413,-1.40e-02,
414,6.00e-03,
415,-2.20e-02,
416,1.20e-02,
417,-6.00e-03,
418,8.00e-03,
419,-8.00e-03,
420,-6.00e-03,
421,8.00e-03,
422,-6.00e-03,
423,8.00e-03,
424,8.00e-03,
425,-6.00e-03,
426,-4.00e-02,
427,1.52e-01,
428,-6.00e-03,
429,8.00e-03,
430,-4.20e-02,
431,8.00e-03,
432,8.00e-03,
433,-2.80e-02,
434,-4.00e-03,
435,3.20e-02,
436,-8.00e-03,
437,8.00e-03,
438,-2.00e-02,
439,1.20e-02,
440,1.20e-02,
441,-1.00e-02,
442,-8.00e-03,
443,8.00e-03,
444,8.00e-03,
445,-6.00e-03,
446,-6.00e-03,
447,8.00e-03,
448,8.00e-03,
449,-8.00e-03,
450,-1.34e-01,
451,2.20e-02,
452,1.00e-02,
453,-3.60e-02,
454,-4.00e-03,
455,4.00e-02,
456,1.80e-02,
457,-3.40e-02,
458,3.20e-02,
459,-1.60e-02,
460,-3.80e-02,
461,2.40e-02,
462,-6.00e-03,
463,3.40e-02,
464,-4.00e-03,
465,8.00e-03,
466,8.00e-03,
467,-1.80e-02,
468,8.00e-03,
469,-6.00e-03,
470,-4.00e-03,
471,1.00e-02,
472,8.00e-03,
473,-8.00e-03,
474,-6.00e-03,
475,8.00e-03,
476,1.00e-02,
477,-2.12e-01,
478,-4.00e-03,
479,8.00e-03,
480,2.40e-02,
481,-3.00e-02,
482,-1.20e-02,
483,3.80e-02,
484,-4.20e-02,
485,3.80e-02,
486,-2.80e-02,
487,3.00e-02,
488,-1.00e-02,
489,1.00e-02,
490,-2.00e-02,
491,2.40e-02,
492,-2.00e-02,
493,1.00e-02,
494,1.40e-02,
495,-1.20e-02,
496,-4.00e-03,
497,8.00e-03,
498,8.00e-03,
499,-6.00e-03,
500,8.00e-03,
501,-8.00e-03,
502,2.98e-01,
503,-2.08e-01,
504,-4.00e-03,
505,6.00e-03,
506,8.00e-03,
507,-6.00e-03,
508,8.00e-03,
509,-6.00e-03,
510,6.00e-03,
511,-6.00e-03,
512,-6.00e-03,
513,1.20e-02,
514,-4.00e-03,
515,6.00e-03,
516,-4.00e-03,
517,1.20e-02,
518,8.00e-03,
519,-8.00e-03,
520,6.00e-03,
521,-2.00e-02,
522,-6.00e-03,
523,1.00e-02,
524,1.20e-02,
525,-6.00e-03,
526,-2.12e-01,
527,2.98e-01,
528,8.00e-03,
529,-1.20e-02,
530,6.00e-03,
531,-8.00e-03,
532,8.00e-03,
533,-1.00e-02,
534,-2.80e-02,
535,3.20e-02,
536,-4.20e-02,
537,4.20e-02,
538,2.20e-02,
539,-2.80e-02,
540,3.00e-02,
541,-2.40e-02,
542,-1.20e-02,
543,2.20e-02,
544,6.00e-03,
545,-6.00e-03,
546,-6.00e-03,
547,8.00e-03,
548,-6.00e-03,
549,1.00e-02,
550,-6.00e-03,
551,1.00e-02,
552,1.00e-02,
553,-5.00e-02,
554,-4.00e-03,
555,8.00e-03,
556,6.00e-03,
557,-6.00e-03,
558,8.00e-03,
559,-1.00e-02,
560,4.20e-02,
561,-8.00e-03,
562,2.20e-02,
563,-3.40e-02,
564,3.40e-02,
565,-2.00e-02,
566,-3.60e-02,
567,2.40e-02,
568,-6.00e-03,
569,3.20e-02,
570,1.40e-02,
571,-1.20e-02,
572,6.00e-03,
573,-1.60e-02,
574,-1.80e-02,
575,8.00e-03,
576,2.98e-01,
577,-2.12e-01,
578,8.00e-03,
579,-8.00e-03,
580,1.00e-02,
581,-8.00e-03,
582,6.00e-03,
583,-1.00e-02,
584,-6.00e-03,
585,6.00e-03,
586,-4.00e-03,
587,8.00e-03,
588,8.00e-03,
589,-1.60e-02,
590,-6.00e-03,
591,8.00e-03,
592,-4.00e-03,
593,1.20e-02,
594,8.00e-03,
595,-8.00e-03,
596,8.00e-03,
597,-1.00e-02,
598,8.00e-03,
599,-8.00e-03,
600,1.40e-02,
601,-1.20e-02,
602,-2.12e-01,
603,4.80e-02,
604,-4.00e-03,
605,1.00e-02,
606,-6.00e-03,
607,1.00e-02,
608,1.00e-02,
609,-1.00e-02,
610,8.00e-03,
611,-3.20e-02,
612,-8.00e-03,
613,4.40e-02,
614,3.40e-02,
615,-8.00e-03,
616,-3.20e-02,
617,3.00e-02,
618,1.00e-02,
619,-3.60e-02,
620,-1.80e-02,
621,1.80e-02,
622,3.40e-02,
623,-8.00e-03,
624,8.00e-03,
625,-1.20e-02,
626,-6.00e-03,
627,1.00e-02,
628,2.10e-01,
629,-1.00e-02,
630,6.00e-03,
631,-8.00e-03,
632,-8.00e-03,
633,8.00e-03,
634,6.00e-03,
635,-1.00e-02,
636,8.00e-03,
637,-6.00e-03,
638,6.00e-03,
639,-1.20e-02,
640,-3.40e-02,
641,3.00e-02,
642,4.00e-02,
643,-4.40e-02,
644,2.60e-02,
645,-3.20e-02,
646,3.00e-02,
647,-2.00e-02,
648,-1.20e-02,
649,2.20e-02,
650,-2.60e-02,
651,2.20e-02,
652,2.50e-01,
653,-6.40e-02,
654,8.00e-03,
655,-8.00e-03,
656,8.00e-03,
657,-6.00e-03,
658,1.00e-02,
659,-8.00e-03,
660,8.00e-03,
661,-8.00e-03,
662,8.00e-03,
663,-1.60e-02,
664,1.20e-02,
665,-3.40e-02,
666,-6.00e-03,
667,4.20e-02,
668,6.00e-03,
669,-3.40e-02,
670,-1.60e-02,
671,8.00e-03,
672,-6.00e-03,
673,2.80e-02,
674,-6.00e-03,
675,2.00e-02,
676,8.00e-03,
677,-1.20e-02,
678,-2.12e-01,
679,8.00e-03,
680,-1.80e-02,
681,8.00e-03,
682,1.40e-02,
683,-1.00e-02,
684,-8.00e-03,
685,1.00e-02,
686,8.00e-03,
687,-1.00e-02,
688,-1.00e-02,
689,8.00e-03,
690,-6.00e-03,
691,6.00e-03,
692,2.60e-02,
693,-3.20e-02,
694,-2.20e-02,
695,4.40e-02,
696,-4.00e-02,
697,3.40e-02,
698,-3.00e-02,
699,3.00e-02,
700,1.20e-02,
701,-1.20e-02,
702,-2.12e-01,
703,2.98e-01,
704,-1.60e-02,
705,1.00e-02,
706,1.40e-02,
707,-6.00e-03,
708,6.00e-03,
709,-6.00e-03,
710,-4.00e-03,
711,1.00e-02,
712,8.00e-03,
713,-8.00e-03,
714,-1.00e-02,
715,6.00e-03,
716,-6.00e-03,
717,1.20e-02,
718,-6.00e-03,
719,4.40e-02,
720,3.20e-02,
721,-1.60e-02,
722,-3.00e-02,
723,3.20e-02,
724,-4.20e-02,
725,1.40e-02,
726,-1.60e-02,
727,2.80e-02,
728,-2.12e-01,
729,1.26e-01,
730,6.00e-03,
731,-1.20e-02,
732,-1.80e-02,
733,8.00e-03,
734,1.40e-02,
735,-1.00e-02,
736,8.00e-03,
737,-1.00e-02,
738,8.00e-03,
739,-6.00e-03,
740,8.00e-03,
741,-1.00e-02,
742,8.00e-03,
743,-8.00e-03,
744,-4.00e-03,
745,8.00e-03,
746,-4.00e-03,
747,3.20e-02,
748,8.00e-03,
749,-4.00e-02,
750,-1.00e-02,
751,3.20e-02,
752,3.00e-02,
753,-2.12e-01,
754,8.00e-03,
755,-1.00e-02,
756,6.00e-03,
757,-1.80e-02,
758,-1.00e-02,
759,1.40e-02,
760,1.00e-02,
761,-6.00e-03,
762,6.00e-03,
763,-6.00e-03,
764,6.00e-03,
765,-8.00e-03,
766,-6.00e-03,
767,8.00e-03,
768,-1.40e-02,
769,8.00e-03,
770,-3.40e-02,
771,1.20e-02,
772,4.80e-02,
773,-8.00e-03,
774,2.60e-02,
775,-3.20e-02,
776,2.80e-02,
777,-2.00e-02,
778,2.98e-01,
779,-2.12e-01,
780,-6.00e-03,
781,3.00e-02,
782,8.00e-03,
783,-1.60e-02,
784,8.00e-03,
785,-2.00e-02,
786,-1.60e-02,
787,1.00e-02,
788,-4.00e-03,
789,1.60e-02,
790,8.00e-03,
791,-8.00e-03,
792,-6.00e-03,
793,8.00e-03,
794,6.00e-03,
795,-1.00e-02,
796,-4.00e-03,
797,8.00e-03,
798,2.80e-02,
799,-3.20e-02,
800,-2.40e-02,
801,4.20e-02,
802,6.60e-02,
803,-9.00e-02,
804,-2.80e-02,
805,2.80e-02,
806,1.20e-02,
807,-1.00e-02,
808,2.60e-02,
809,-2.40e-02,
810,-1.40e-02,
811,8.00e-03,
812,1.80e-02,
813,-6.00e-03,
814,8.00e-03,
815,-6.00e-03,
816,6.00e-03,
817,-6.00e-03,
818,-8.00e-03,
819,8.00e-03,
820,6.00e-03,
821,-8.00e-03,
822,8.00e-03,
823,-3.60e-02,
824,-6.00e-03,
825,5.20e-02,
826,-6.00e-03,
827,3.00e-02,
828,2.98e-01,
829,-2.12e-01,
830,-4.20e-02,
831,1.40e-02,
832,-1.40e-02,
833,2.00e-02,
834,2.80e-02,
835,-1.20e-02,
836,-1.40e-02,
837,8.00e-03,
838,-2.20e-02,
839,1.00e-02,
840,-6.00e-03,
841,1.20e-02,
842,8.00e-03,
843,-6.00e-03,
844,8.00e-03,
845,-1.00e-02,
846,-1.20e-02,
847,8.00e-03,
848,8.00e-03,
849,-1.00e-02,
850,6.00e-03,
851,-1.60e-02,
852,3.00e-02,
853,-3.20e-02,
854,-1.56e-01,
855,2.38e-01,
856,3.00e-02,
857,-3.00e-02,
858,2.40e-02,
859,-1.20e-02,
860,-1.00e-02,
861,2.80e-02,
862,-2.20e-02,
863,2.60e-02,
864,1.20e-02,
865,-1.00e-02,
866,8.00e-03,
867,-6.00e-03,
868,6.00e-03,
869,-6.00e-03,
870,-4.00e-03,
871,1.00e-02,
872,8.00e-03,
873,-6.00e-03,
874,-4.00e-03,
875,8.00e-03,
876,8.00e-03,
877,-3.40e-02,
878,-4.00e-03,
879,4.60e-02,
880,2.80e-02,
881,-3.00e-02,
882,2.60e-02,
883,-2.00e-02,
884,-4.00e-02,
885,2.60e-02,
886,-6.00e-03,
887,2.80e-02,
888,-1.40e-02,
889,1.20e-02,
890,8.00e-03,
891,-1.80e-02,
892,-1.20e-02,
893,8.00e-03,
894,1.60e-02,
895,-8.00e-03,
896,8.00e-03,
897,-1.20e-02,
898,6.00e-03,
899,-1.00e-02,
900,-1.00e-02,
901,8.00e-03,
902,-4.00e-03,
903,8.00e-03,
904,-8.60e-02,
905,3.40e-02,
906,2.00e-02,
907,-2.80e-02,
908,8.00e-03,
909,-3.80e-02,
910,-3.40e-02,
911,2.60e-02,
912,6.00e-03,
913,-1.00e-02,
914,8.00e-03,
915,-2.40e-02,
916,6.00e-03,
917,-1.40e-02,
918,1.20e-02,
919,-8.00e-03,
920,6.00e-03,
921,-6.00e-03,
922,-6.00e-03,
923,8.00e-03,
924,6.00e-03,
925,-8.00e-03,
926,8.00e-03,
927,-1.00e-02,
928,-2.12e-01,
929,2.98e-01,
930,-8.00e-03,
931,4.60e-02,
932,2.40e-02,
933,-2.00e-02,
934,3.00e-02,
935,-3.40e-02,
936,-4.00e-02,
937,1.40e-02,
938,-8.00e-03,
939,2.60e-02,
940,3.00e-02,
941,-1.40e-02,
942,-1.20e-02,
943,8.00e-03,
944,-1.80e-02,
945,1.00e-02,
946,-4.00e-03,
947,8.00e-03,
948,-6.00e-03,
949,8.00e-03,
950,6.00e-03,
951,-8.00e-03,
952,-1.00e-02,
953,8.00e-03,
954,-4.00e-02,
955,8.00e-03,
956,-4.00e-03,
957,8.00e-03,
958,-3.20e-02,
959,1.60e-02,
960,4.40e-02,
961,-3.80e-02,
962,3.00e-02,
963,-3.00e-02,
964,2.60e-02,
965,-1.60e-02,
966,-1.20e-02,
967,2.40e-02,
968,-2.20e-02,
969,2.20e-02,
970,1.60e-02,
971,-1.20e-02,
972,8.00e-03,
973,-8.00e-03,
974,8.00e-03,
975,-6.00e-03,
976,8.00e-03,
977,-8.00e-03,
978,-2.12e-01,
979,1.58e-01,
980,8.00e-03,
981,-2.20e-02,
982,8.00e-03,
983,-3.00e-02,
984,5.00e-02,
985,-6.00e-03,
986,3.00e-02,
987,-3.00e-02,
988,2.40e-02,
989,-2.00e-02,
990,-3.80e-02,
991,2.60e-02,
992,-6.00e-03,
993,3.00e-02,
994,8.00e-03,
995,-1.20e-02,
996,-1.40e-02,
997,8.00e-03,
998,-1.40e-02,
999,8.00e-03,
1000,1.60e-02,
1001,-6.00e-03,
1002,-8.00e-03,
1003,8.00e-03,
1004,-2.12e-01,
1005,6.60e-02,
1006,-1.00e-02,
1007,8.00e-03,
1008,-6.00e-03,
1009,8.00e-03,
1010,2.80e-02,
1011,-3.20e-02,
1012,-2.80e-02,
1013,4.80e-02,
1014,-3.80e-02,
1015,2.80e-02,
1016,3.00e-02,
1017,-2.80e-02,
1018,8.00e-03,
1019,-8.00e-03,
1020,2.60e-02,
1021,-2.20e-02,
1022,-1.40e-02,
1023,8.00e-03,
1024,-4.00e-03,
1025,1.20e-02,
1026,-6.00e-03,
1027,1.00e-02,
1028,-1.20e-02,
1029,1.40e-02,
1030,-4.00e-03,
1031,8.00e-03,
1032,-6.00e-03,
1033,8.00e-03,
1034,-2.20e-02,
1035,8.00e-03,
1036,-8.00e-03,
1037,4.80e-02,
1038,2.00e-02,
1039,-1.60e-02,
1040,3.00e-02,
1041,-2.80e-02,
1042,-3.80e-02,
1043,1.40e-02,
1044,3.20e-02,
1045,-6.00e-03,
1046,2.80e-02,
1047,-1.20e-02,
1048,-1.20e-02,
1049,1.20e-02,
1050,-2.00e-02,
1051,8.00e-03,
1052,-4.00e-03,
1053,1.60e-02,
1054,8.00e-03,
1055,-4.20e-02,
1056,1.40e-02,
1057,-6.00e-03,
1058,-8.00e-03,
1059,8.00e-03,
1060,8.00e-03,
1061,-8.00e-03,
1062,1.20e-02,
1063,-1.80e-02,
1064,3.20e-02,
1065,-2.80e-02,
1066,-3.60e-02,
1067,2.40e-02,
1068,3.40e-02,
1069,-3.00e-02,
1070,2.60e-02,
1071,-8.00e-03,
1072,-1.60e-02,
1073,8.00e-03,
1074,6.00e-03,
1075,-2.00e-02,
1076,-1.20e-02,
1077,1.40e-02,
1078,-4.00e-03,
1079,8.00e-03,
1080,2.98e-01,
1081,-1.02e-01,
1082,8.00e-03,
1083,-6.00e-03,
1084,8.00e-03,
1085,-6.00e-03,
1086,1.00e-02,
1087,-2.60e-02,
1088,-2.80e-02,
1089,2.00e-02,
1090,4.60e-02,
1091,-6.00e-03,
1092,3.40e-02,
1093,-3.20e-02,
1094,2.20e-02,
1095,-2.60e-02,
1096,-3.60e-02,
1097,2.80e-02,
1098,-6.00e-03,
1099,3.40e-02,
1100,-1.00e-02,
1101,1.20e-02,
1102,-1.20e-02,
1103,1.20e-02,
1104,-1.40e-02,
1105,2.00e-02,
1106,-4.00e-03,
1107,1.40e-02,
1108,-6.00e-03,
1109,8.00e-03,
1110,-4.00e-03,
1111,1.00e-02,
1112,8.00e-03,
1113,-1.00e-02,
1114,8.00e-03,
1115,-6.00e-03,
1116,-4.00e-03,
1117,3.40e-02,
1118,-3.40e-02,
1119,4.40e-02,
1120,-3.60e-02,
1121,2.20e-02,
1122,3.40e-02,
1123,-2.80e-02,
1124,1.60e-02,
1125,-8.00e-03,
1126,2.80e-02,
1127,-2.40e-02,
1128,8.00e-03,
1129,-1.00e-02,
1130,-2.12e-01,
1131,2.98e-01,
1132,-4.00e-03,
1133,8.00e-03,
1134,-4.00e-03,
1135,8.00e-03,
1136,8.00e-03,
1137,-1.00e-02,
1138,8.00e-03,
1139,-8.00e-03,
1140,1.00e-02,
1141,-2.80e-02,
1142,-4.00e-03,
1143,4.80e-02,
1144,1.40e-02,
1145,-6.00e-03,
1146,3.20e-02,
1147,-6.00e-03,
1148,8.00e-03,
1149,-3.60e-02,
1150,-6.00e-03,
1151,3.40e-02,
1152,3.00e-02,
1153,-6.00e-03,
1154,-1.20e-02,
1155,2.50e-01,
1156,-2.00e-02,
1157,1.20e-02,
1158,1.60e-02,
1159,-8.00e-03,
1160,8.00e-03,
1161,-8.00e-03,
1162,-6.00e-03,
1163,1.00e-02,
1164,6.00e-03,
1165,-8.00e-03,
1166,8.00e-03,
1167,-6.00e-03,
1168,1.40e-02,
1169,-2.00e-02,
1170,3.60e-02,
1171,-2.80e-02,
1172,-3.60e-02,
1173,4.80e-02,
1174,3.80e-02,
1175,-3.00e-02,
1176,-1.00e-02,
1177,1.20e-02,
1178,-1.60e-02,
1179,2.40e-02,
1180,-2.12e-01,
1181,4.20e-02,
1182,-1.60e-02,
1183,1.40e-02,
1184,-6.00e-03,
1185,8.00e-03,
1186,-4.00e-03,
1187,8.00e-03,
1188,8.00e-03,
1189,-8.00e-03,
1190,8.00e-03,
1191,-8.00e-03,
1192,-6.00e-03,
1193,1.00e-02,
1194,6.00e-03,
1195,-2.40e-02,
1196,-6.00e-03,
1197,4.60e-02,
1198,3.00e-02,
1199,-2.60e-02,
