Motor_Data/MOTOR_1_ON/time domain/NewFile69.csv

X,CH2,Start,Increment,
Sequence,Volt,-3.000000e-02,5.000000e-05
0,-4.00e-03,
1,8.00e-03,
2,-6.00e-03,
3,6.00e-03,
4,8.00e-03,
5,-1.60e-02,
6,-1.00e-02,
7,2.20e-02,
8,2.00e-02,
9,-6.00e-03,
10,-1.80e-02,
11,1.60e-02,
12,-1.60e-02,
13,8.00e-03,
14,-1.60e-02,
15,2.40e-02,
16,-4.00e-03,
17,1.80e-02,
18,-6.00e-03,
19,1.00e-02,
20,-1.60e-02,
21,8.00e-03,
22,-4.00e-03,
23,6.00e-03,
24,-6.00e-03,
25,6.00e-03,
26,4.00e-03,
27,-8.00e-03,
28,6.00e-03,
29,-1.20e-02,
30,6.00e-03,
31,-1.00e-02,
32,-5.60e-02,
33,1.20e-02,
34,6.00e-03,
35,-1.20e-02,
36,6.00e-03,
37,-6.00e-03,
38,1.20e-02,
39,-8.00e-03,
40,2.00e-02,
41,-1.40e-02,
42,1.40e-02,
43,-6.00e-03,
44,2.00e-02,
45,-1.80e-02,
46,-6.00e-03,
47,6.00e-03,
48,6.00e-03,
49,-6.00e-03,
50,6.00e-03,
51,-6.00e-03,
52,-4.00e-03,
53,8.00e-03,
54,-6.00e-03,
55,6.00e-03,
56,3.40e-02,
57,-1.80e-01,
58,1.00e-02,
59,-1.40e-02,
60,-6.00e-03,
61,2.20e-02,
62,1.80e-02,
63,-1.00e-02,
64,-1.80e-02,
65,6.00e-03,
66,-4.00e-03,
67,6.00e-03,
68,2.20e-02,
69,-4.00e-03,
70,6.00e-03,
71,-4.00e-03,
72,6.00e-03,
73,-6.00e-03,
74,6.00e-03,
75,-6.00e-03,
76,6.00e-03,
77,-4.00e-03,
78,6.00e-03,
79,-4.00e-03,
80,-1.60e-02,
81,1.40e-02,
82,8.00e-03,
83,-1.20e-02,
84,-8.00e-03,
85,8.00e-03,
86,-4.00e-03,
87,8.00e-03,
88,-1.60e-02,
89,1.80e-02,
90,-2.00e-02,
91,2.40e-02,
92,-1.40e-02,
93,1.00e-02,
94,1.60e-02,
95,-8.00e-03,
96,-6.00e-03,
97,2.00e-02,
98,-1.80e-02,
99,1.80e-02,
100,-4.00e-03,
101,6.00e-03,
102,6.00e-03,
103,-6.00e-03,
104,-4.00e-03,
105,5.60e-02,
106,-4.00e-03,
107,6.00e-03,
108,-4.00e-03,
109,6.00e-03,
110,6.00e-03,
111,-6.00e-03,
112,8.00e-03,
113,-1.60e-02,
114,-8.00e-03,
115,2.40e-02,
116,1.20e-02,
117,-1.00e-02,
118,-4.00e-03,
119,1.40e-02,
120,-2.00e-02,
121,2.00e-02,
122,-8.00e-03,
123,2.40e-02,
124,1.80e-02,
125,-4.00e-03,
126,6.00e-03,
127,-1.20e-02,
128,2.98e-01,
129,-2.12e-01,
130,6.00e-03,
131,-6.00e-03,
132,6.00e-03,
133,-6.00e-03,
134,-6.00e-03,
135,8.00e-03,
136,6.00e-03,
137,-1.40e-02,
138,-1.20e-02,
139,6.00e-03,
140,-8.00e-03,
141,8.00e-03,
142,1.60e-02,
143,-1.20e-02,
144,2.20e-02,
145,-2.40e-02,
146,6.00e-03,
147,-1.40e-02,
148,1.60e-02,
149,-4.00e-03,
150,1.20e-02,
151,-1.00e-02,
152,-1.80e-02,
153,2.00e-02,
154,-4.00e-03,
155,8.00e-03,
156,-6.00e-03,
157,6.00e-03,
158,1.00e-02,
159,-6.00e-03,
160,-8.00e-03,
161,6.00e-03,
162,6.00e-03,
163,-6.00e-03,
164,6.00e-03,
165,-6.00e-03,
166,-1.40e-02,
167,8.00e-03,
168,-6.00e-03,
169,2.60e-02,
170,1.00e-02,
171,-1.40e-02,
172,2.20e-02,
173,-1.80e-02,
174,-1.80e-02,
175,2.20e-02,
176,1.80e-02,
177,-6.00e-03,
178,-2.12e-01,
179,2.98e-01,
180,6.00e-03,
181,-1.20e-02,
182,-1.60e-02,
183,6.00e-03,
184,-4.00e-03,
185,6.00e-03,
186,-4.00e-03,
187,1.00e-02,
188,6.00e-03,
189,-6.00e-03,
190,-8.00e-03,
191,6.00e-03,
192,-4.00e-03,
193,1.00e-02,
194,-4.00e-03,
195,1.00e-02,
196,-4.00e-03,
197,1.20e-02,
198,2.00e-02,
199,-2.40e-02,
200,-1.80e-02,
201,7.60e-02,
202,-1.80e-02,
203,1.60e-02,
204,-1.20e-02,
205,2.20e-02,
206,-2.00e-02,
207,1.20e-02,
208,-6.00e-03,
209,8.00e-03,
210,-8.00e-03,
211,6.00e-03,
212,6.00e-03,
213,-8.00e-03,
214,6.00e-03,
215,-4.00e-03,
216,-4.00e-03,
217,6.00e-03,
218,8.00e-03,
219,-8.00e-03,
220,8.00e-03,
221,-1.60e-02,
222,-4.00e-03,
223,2.40e-02,
224,-6.00e-03,
225,6.00e-03,
226,2.00e-02,
227,-1.80e-02,
228,-1.80e-02,
229,2.00e-02,
230,2.20e-02,
231,-6.00e-03,
232,1.60e-02,
233,-6.00e-03,
234,8.00e-03,
235,-1.40e-02,
236,4.00e-03,
237,-6.00e-03,
238,6.00e-03,
239,-8.00e-03,
240,8.00e-03,
241,-6.00e-03,
242,6.00e-03,
243,-6.00e-03,
244,-1.20e-02,
245,6.00e-03,
246,4.00e-03,
247,-6.00e-03,
248,8.00e-03,
249,-1.00e-02,
250,8.00e-02,
251,-3.40e-02,
252,2.60e-02,
253,-2.00e-02,
254,1.80e-02,
255,-1.60e-02,
256,-1.40e-02,
257,6.00e-03,
258,-1.40e-02,
259,2.20e-02,
260,-1.40e-02,
261,1.00e-02,
262,6.00e-03,
263,-6.00e-03,
264,6.00e-03,
265,-6.00e-03,
266,-4.00e-03,
267,6.00e-03,
268,-4.00e-03,
269,8.00e-03,
270,-4.00e-03,
271,8.00e-03,
272,6.00e-03,
273,-1.00e-02,
274,-1.60e-02,
275,2.40e-02,
276,6.00e-03,
277,-4.00e-03,
278,6.00e-03,
279,-1.80e-02,
280,1.60e-02,
281,-1.40e-02,
282,-2.00e-02,
283,2.60e-02,
284,-4.00e-03,
285,1.80e-02,
286,1.40e-02,
287,-6.00e-03,
288,6.00e-03,
289,-1.60e-02,
290,-1.00e-02,
291,6.00e-03,
292,8.00e-03,
293,-4.00e-03,
294,-4.00e-03,
295,8.00e-03,
296,6.00e-03,
297,-1.00e-02,
298,-4.20e-02,
299,1.40e-02,
300,-4.00e-03,
301,6.00e-03,
302,-4.00e-03,
303,1.20e-02,
304,1.60e-02,
305,-6.00e-03,
306,-2.00e-02,
307,1.00e-02,
308,-8.00e-03,
309,1.80e-02,
310,-4.00e-03,
311,1.20e-02,
312,6.00e-03,
313,-1.60e-02,
314,-1.00e-02,
315,6.00e-03,
316,4.00e-03,
317,-4.00e-03,
318,-6.00e-03,
319,6.00e-03,
320,-4.00e-03,
321,6.00e-03,
322,-2.12e-01,
323,2.14e-01,
324,-8.00e-03,
325,6.00e-03,
326,8.00e-03,
327,-1.20e-02,
328,8.00e-03,
329,-1.60e-02,
330,-4.00e-03,
331,2.40e-02,
332,-8.00e-03,
333,1.80e-02,
334,1.60e-02,
335,-1.00e-02,
336,-2.20e-02,
337,2.00e-02,
338,-8.00e-03,
339,1.60e-02,
340,-4.00e-03,
341,1.00e-02,
342,6.00e-03,
343,-1.80e-02,
344,-6.00e-03,
345,1.00e-02,
346,-1.74e-01,
347,1.40e-02,
348,-4.00e-03,
349,8.00e-03,
350,8.00e-03,
351,-6.00e-03,
352,6.00e-03,
353,-4.00e-03,
354,-4.00e-03,
355,6.00e-03,
356,-6.00e-03,
357,1.40e-02,
358,1.60e-02,
359,-6.00e-03,
360,-2.00e-02,
361,2.40e-02,
362,1.60e-02,
363,-1.60e-02,
364,1.20e-02,
365,-8.00e-03,
366,2.20e-02,
367,-1.80e-02,
368,-8.00e-03,
369,6.00e-03,
370,-1.32e-01,
371,2.38e-01,
372,6.00e-03,
373,-8.00e-03,
374,-1.00e-02,
375,6.00e-03,
376,6.00e-03,
377,-4.00e-03,
378,6.00e-03,
379,-8.00e-03,
380,8.00e-03,
381,-1.60e-02,
382,-1.40e-02,
383,1.00e-02,
384,-6.00e-03,
385,8.00e-03,
386,-6.00e-03,
387,1.80e-02,
388,-4.00e-03,
389,1.00e-02,
390,-2.00e-02,
391,2.20e-02,
392,1.80e-02,
393,-4.00e-03,
394,1.00e-02,
395,-6.00e-03,
396,-1.60e-02,
397,6.00e-03,
398,-6.00e-03,
399,6.00e-03,
400,-6.00e-03,
401,6.00e-03,
402,8.00e-03,
403,-8.00e-03,
404,6.00e-03,
405,-1.00e-02,
406,-1.60e-02,
407,6.00e-03,
408,8.00e-03,
409,-4.00e-03,
410,1.40e-02,
411,-1.80e-02,
412,-8.00e-03,
413,2.40e-02,
414,-2.20e-02,
415,2.20e-02,
416,-1.20e-02,
417,1.40e-02,
418,-2.12e-01,
419,5.40e-02,
420,2.00e-02,
421,-1.80e-02,
422,-6.00e-03,
423,6.00e-03,
424,8.00e-03,
425,-6.00e-03,
426,-6.00e-03,
427,8.00e-03,
428,6.00e-03,
429,-6.00e-03,
430,-4.00e-03,
431,6.00e-03,
432,-4.00e-03,
433,6.00e-03,
434,6.00e-03,
435,-6.00e-03,
436,-1.00e-02,
437,1.80e-02,
438,2.60e-02,
439,-8.00e-03,
440,2.00e-02,
441,-1.60e-02,
442,-1.60e-02,
443,1.80e-02,
444,-1.60e-02,
445,2.00e-02,
446,1.80e-02,
447,-6.00e-03,
448,8.00e-03,
449,-6.00e-03,
450,-1.40e-02,
451,8.00e-03,
452,-4.00e-03,
453,6.00e-03,
454,-4.00e-03,
455,8.00e-03,
456,8.00e-03,
457,-1.00e-02,
458,6.00e-03,
459,-1.20e-02,
460,-1.40e-02,
461,6.00e-03,
462,-4.00e-03,
463,6.00e-03,
464,-4.00e-03,
465,2.00e-02,
466,-1.80e-02,
467,2.60e-02,
468,-2.40e-02,
469,2.00e-02,
470,-4.00e-03,
471,1.60e-02,
472,8.00e-03,
473,-6.00e-03,
474,6.00e-03,
475,-1.60e-02,
476,-4.00e-03,
477,8.00e-03,
478,-8.00e-03,
479,6.00e-03,
480,6.00e-03,
481,-8.00e-03,
482,6.00e-03,
483,-6.00e-03,
484,8.00e-03,
485,-6.00e-03,
486,6.00e-03,
487,-8.00e-03,
488,6.00e-03,
489,-1.40e-02,
490,-1.20e-02,
491,2.00e-02,
492,-1.44e-01,
493,6.40e-02,
494,1.80e-02,
495,-1.40e-02,
496,-1.80e-02,
497,8.00e-03,
498,-1.80e-02,
499,1.80e-02,
500,1.60e-02,
501,-4.00e-03,
502,1.00e-02,
503,-6.00e-03,
504,-1.60e-02,
505,6.00e-03,
506,-4.00e-03,
507,6.00e-03,
508,-4.00e-03,
509,6.00e-03,
510,8.00e-03,
511,-8.00e-03,
512,8.00e-03,
513,-6.00e-03,
514,-1.40e-02,
515,6.00e-03,
516,6.00e-03,
517,-2.00e-02,
518,1.80e-02,
519,-1.60e-02,
520,-1.80e-02,
521,2.40e-02,
522,-1.80e-02,
523,1.40e-02,
524,1.60e-02,
525,-1.60e-02,
526,-6.00e-03,
527,1.40e-02,
528,-1.40e-02,
529,2.00e-02,
530,4.00e-03,
531,-4.00e-03,
532,6.00e-03,
533,-6.00e-03,
534,-6.00e-03,
535,8.00e-03,
536,-4.00e-03,
537,6.00e-03,
538,-4.00e-03,
539,6.00e-03,
540,-4.60e-02,
541,2.60e-01,
542,6.00e-03,
543,-1.60e-02,
544,-8.00e-03,
545,2.20e-02,
546,6.00e-03,
547,-8.00e-03,
548,1.60e-02,
549,-1.80e-02,
550,1.00e-02,
551,-2.00e-02,
552,-4.00e-03,
553,2.20e-02,
554,2.00e-02,
555,-4.00e-03,
556,6.00e-03,
557,-6.00e-03,
558,-1.80e-02,
559,6.00e-03,
560,-4.00e-03,
561,6.00e-03,
562,-6.00e-03,
563,8.00e-03,
564,-2.12e-01,
565,2.98e-01,
566,-1.20e-02,
567,8.00e-03,
568,-1.20e-02,
569,6.00e-03,
570,-4.00e-03,
571,8.00e-03,
572,-1.80e-02,
573,1.80e-02,
574,-2.00e-02,
575,2.40e-02,
576,-1.60e-02,
577,1.00e-02,
578,1.60e-02,
579,-1.60e-02,
580,-1.00e-02,
581,2.00e-02,
582,-2.00e-02,
583,2.20e-02,
584,-4.00e-03,
585,6.00e-03,
586,-6.00e-03,
587,6.00e-03,
588,2.00e-02,
589,-6.00e-03,
590,-8.00e-03,
591,6.00e-03,
592,-4.00e-03,
593,6.00e-03,
594,-4.00e-03,
595,6.00e-03,
596,8.00e-03,
597,-1.60e-02,
598,6.00e-03,
599,-6.00e-03,
600,1.40e-02,
601,-1.00e-02,
602,1.80e-02,
603,-1.60e-02,
604,-2.20e-02,
605,1.60e-02,
606,-6.00e-03,
607,2.00e-02,
608,1.60e-02,
609,-6.00e-03,
610,6.00e-03,
611,-1.20e-02,
612,2.56e-01,
613,-3.80e-02,
614,6.00e-03,
615,-6.00e-03,
616,6.00e-03,
617,-6.00e-03,
618,8.00e-03,
619,-8.00e-03,
620,6.00e-03,
621,-1.20e-02,
622,6.00e-03,
623,-8.00e-03,
624,-4.00e-03,
625,1.00e-02,
626,-4.00e-03,
627,1.40e-02,
628,-8.00e-03,
629,6.00e-03,
630,8.00e-03,
631,-6.00e-03,
632,1.60e-02,
633,-4.00e-03,
634,4.00e-03,
635,-8.00e-03,
636,6.00e-03,
637,-5.60e-02,
638,6.00e-03,
639,-6.00e-03,
640,-6.00e-03,
641,8.00e-03,
642,8.00e-03,
643,-6.00e-03,
644,6.00e-03,
645,-4.00e-03,
646,4.00e-03,
647,-6.00e-03,
648,6.00e-03,
649,-8.00e-03,
650,6.00e-03,
651,-1.40e-02,
652,-4.00e-03,
653,2.40e-02,
654,8.00e-03,
655,-1.20e-02,
656,2.00e-02,
657,-1.80e-02,
658,-2.00e-02,
659,2.00e-02,
660,2.98e-01,
661,-1.96e-01,
662,1.60e-02,
663,-6.00e-03,
664,6.00e-03,
665,-1.20e-02,
666,-1.20e-02,
667,6.00e-03,
668,-4.00e-03,
669,6.00e-03,
670,6.00e-03,
671,-6.00e-03,
672,4.00e-03,
673,-6.00e-03,
674,-1.00e-02,
675,6.00e-03,
676,-4.00e-03,
677,6.00e-03,
678,6.00e-03,
679,-6.00e-03,
680,1.80e-02,
681,-1.20e-02,
682,2.00e-02,
683,-2.00e-02,
684,-2.12e-01,
685,3.40e-02,
686,1.80e-02,
687,-1.40e-02,
688,-1.20e-02,
689,2.20e-02,
690,-1.40e-02,
691,1.40e-02,
692,8.00e-03,
693,-6.00e-03,
694,-6.00e-03,
695,8.00e-03,
696,6.00e-03,
697,-6.00e-03,
698,-6.00e-03,
699,6.00e-03,
700,8.00e-03,
701,-6.00e-03,
702,6.00e-03,
703,-6.00e-03,
704,1.00e-02,
705,-4.00e-03,
706,2.00e-02,
707,-4.00e-03,
708,6.00e-03,
709,-1.60e-02,
710,-2.12e-01,
711,1.30e-01,
712,-1.60e-02,
713,2.00e-02,
714,1.80e-02,
715,-6.00e-03,
716,-4.00e-03,
717,1.60e-02,
718,-1.60e-02,
719,8.00e-03,
720,-1.20e-02,
721,6.00e-03,
722,-4.00e-03,
723,8.00e-03,
724,8.00e-03,
725,-6.00e-03,
726,6.00e-03,
727,-1.00e-02,
728,6.00e-03,
729,-1.20e-02,
730,-6.00e-03,
731,6.00e-03,
732,-1.20e-02,
733,1.38e-01,
734,1.80e-02,
735,-1.40e-02,
736,2.40e-02,
737,-2.20e-02,
738,1.80e-02,
739,-1.40e-02,
740,1.80e-02,
741,-1.20e-02,
742,1.60e-02,
743,-1.60e-02,
744,-4.00e-03,
745,6.00e-03,
746,6.00e-03,
747,-4.00e-03,
748,4.00e-03,
749,-4.00e-03,
750,-6.00e-03,
751,6.00e-03,
752,8.00e-03,
753,-4.00e-03,
754,-4.00e-03,
755,6.00e-03,
756,6.00e-03,
757,-8.00e-03,
758,-4.20e-02,
759,8.00e-03,
760,-4.00e-03,
761,2.20e-02,
762,1.60e-02,
763,-1.40e-02,
764,1.60e-02,
765,-1.40e-02,
766,-1.80e-02,
767,2.00e-02,
768,-4.00e-03,
769,2.00e-02,
770,1.20e-02,
771,-6.00e-03,
772,6.00e-03,
773,-1.40e-02,
774,8.00e-03,
775,-4.00e-03,
776,6.00e-03,
777,-8.00e-03,
778,6.00e-03,
779,-6.00e-03,
780,6.00e-03,
781,-8.00e-03,
782,-2.12e-01,
783,4.40e-02,
784,-6.00e-03,
785,6.00e-03,
786,-4.00e-03,
787,1.20e-02,
788,1.80e-02,
789,-6.00e-03,
790,-2.00e-02,
791,6.00e-03,
792,-6.00e-03,
793,1.00e-02,
794,1.20e-02,
795,-6.00e-03,
796,4.00e-03,
797,-1.80e-02,
798,4.00e-03,
799,-1.20e-02,
800,-4.00e-03,
801,6.00e-03,
802,-6.00e-03,
803,8.00e-03,
804,4.00e-03,
805,-4.00e-03,
806,2.60e-02,
807,-6.00e-03,
808,6.00e-03,
809,-6.00e-03,
810,6.00e-03,
811,-1.20e-02,
812,-1.60e-02,
813,8.00e-03,
814,2.20e-02,
815,-4.00e-03,
816,1.60e-02,
817,-1.60e-02,
818,1.20e-02,
819,-1.20e-02,
820,-2.20e-02,
821,2.20e-02,
822,1.20e-02,
823,-4.00e-03,
824,-4.00e-03,
825,1.00e-02,
826,-1.80e-02,
827,1.00e-02,
828,-8.00e-03,
829,6.00e-03,
830,-6.00e-03,
831,4.20e-02,
832,-4.00e-03,
833,1.00e-02,
834,-4.00e-03,
835,6.00e-03,
836,-4.00e-03,
837,6.00e-03,
838,-4.00e-03,
839,6.00e-03,
840,1.20e-02,
841,-1.60e-02,
842,1.80e-02,
843,-8.00e-03,
844,-2.00e-02,
845,2.40e-02,
846,2.00e-02,
847,-1.40e-02,
848,1.20e-02,
849,-8.00e-03,
850,1.80e-02,
851,-1.80e-02,
852,-1.00e-02,
853,8.00e-03,
854,2.54e-01,
855,-2.12e-01,
856,-6.00e-03,
857,8.00e-03,
858,6.00e-03,
859,-6.00e-03,
860,-4.00e-03,
861,6.00e-03,
862,6.00e-03,
863,-8.00e-03,
864,6.00e-03,
865,-1.60e-02,
866,8.00e-03,
867,-8.00e-03,
868,6.00e-03,
869,-6.00e-03,
870,-4.00e-03,
871,1.00e-02,
872,1.00e-02,
873,-1.00e-02,
874,-4.00e-03,
875,2.00e-02,
876,-6.00e-03,
877,1.20e-02,
878,2.20e-02,
879,-6.00e-03,
880,6.00e-03,
881,-1.40e-02,
882,-8.00e-03,
883,6.00e-03,
884,-4.00e-03,
885,6.00e-03,
886,8.00e-03,
887,-6.00e-03,
888,6.00e-03,
889,-8.00e-03,
890,6.00e-03,
891,-1.20e-02,
892,6.00e-03,
893,-6.00e-03,
894,-8.00e-03,
895,1.40e-02,
896,-1.00e-02,
897,1.80e-02,
898,-2.00e-02,
899,2.20e-02,
900,-1.40e-02,
901,1.60e-02,
902,1.40e-02,
903,-5.20e-02,
904,-1.80e-02,
905,1.20e-02,
906,-8.00e-03,
907,6.00e-03,
908,6.00e-03,
909,-6.00e-03,
910,8.00e-03,
911,-4.00e-03,
912,6.00e-03,
913,-6.00e-03,
914,-4.00e-03,
915,6.00e-03,
916,6.00e-03,
917,-4.00e-03,
918,8.00e-03,
919,-1.40e-02,
920,-1.00e-02,
921,1.80e-02,
922,2.40e-02,
923,-1.00e-02,
924,2.00e-02,
925,-1.80e-02,
926,-1.40e-02,
927,1.80e-02,
928,-2.00e-02,
929,2.20e-02,
930,1.60e-02,
931,-4.00e-03,
932,6.00e-03,
933,-8.00e-03,
934,-1.40e-02,
935,1.00e-02,
936,-4.00e-03,
937,8.00e-03,
938,6.00e-03,
939,-4.00e-03,
940,-4.00e-03,
941,8.00e-03,
942,-6.00e-03,
943,1.00e-02,
944,-4.00e-03,
945,6.00e-03,
946,8.00e-03,
947,-4.00e-03,
948,-4.00e-03,
949,1.60e-02,
950,8.00e-03,
951,-1.60e-02,
952,2.20e-02,
953,-1.80e-02,
954,1.40e-02,
955,-1.00e-02,
956,-4.00e-03,
957,6.00e-03,
958,-1.60e-02,
959,1.80e-02,
960,-6.00e-03,
961,8.00e-03,
962,6.00e-03,
963,-6.00e-03,
964,6.00e-03,
965,-6.00e-03,
966,-6.00e-03,
967,8.00e-03,
968,-4.00e-03,
969,8.00e-03,
970,-6.00e-03,
971,6.00e-03,
972,6.00e-03,
973,-1.60e-02,
974,-1.20e-02,
975,2.20e-02,
976,2.00e-02,
977,-8.00e-03,
978,-1.80e-02,
979,1.60e-02,
980,-2.00e-02,
981,1.00e-02,
982,-1.40e-02,
983,6.00e-03,
984,-4.00e-03,
985,1.40e-02,
986,-6.00e-03,
987,6.00e-03,
988,-1.80e-02,
989,6.00e-03,
990,4.00e-03,
991,-6.00e-03,
992,-4.00e-03,
993,1.00e-02,
994,8.00e-03,
995,-6.00e-03,
996,6.00e-03,
997,-1.20e-02,
998,-1.20e-02,
999,6.00e-03,
1000,2.92e-01,
1001,-2.00e-02,
1002,1.80e-02,
1003,-1.60e-02,
1004,-1.80e-02,
1005,2.20e-02,
1006,-2.20e-02,
1007,1.40e-02,
1008,1.40e-02,
1009,-1.80e-02,
1010,-6.00e-03,
1011,1.80e-02,
1012,-1.80e-02,
1013,2.00e-02,
1014,-4.00e-03,
1015,6.00e-03,
1016,6.00e-03,
1017,-8.00e-03,
1018,8.00e-03,
1019,-8.00e-03,
1020,-4.00e-03,
1021,6.00e-03,
1022,-6.00e-03,
1023,8.00e-03,
1024,2.00e-02,
1025,-6.00e-03,
1026,8.00e-03,
1027,-4.00e-03,
1028,-4.00e-03,
1029,6.00e-03,
1030,-8.00e-03,
1031,6.00e-03,
1032,1.60e-02,
1033,-4.00e-03,
1034,-2.20e-02,
1035,1.20e-02,
1036,-1.20e-02,
1037,2.20e-02,
1038,-4.00e-03,
1039,1.00e-02,
1040,6.00e-03,
1041,-1.00e-02,
1042,-1.40e-02,
1043,6.00e-03,
1044,-4.00e-03,
1045,6.00e-03,
1046,6.00e-03,
1047,-6.00e-03,
1048,2.98e-01,
1049,-7.60e-02,
1050,8.00e-03,
1051,-1.00e-02,
1052,-1.20e-02,
1053,6.00e-03,
1054,-4.00e-03,
1055,6.00e-03,
1056,-1.20e-02,
1057,1.40e-02,
1058,-1.80e-02,
1059,2.40e-02,
1060,-1.80e-02,
1061,8.00e-03,
1062,1.60e-02,
1063,-1.40e-02,
1064,-4.00e-03,
1065,6.00e-03,
1066,2.20e-02,
1067,-4.00e-03,
1068,6.00e-03,
1069,-4.00e-03,
1070,6.00e-03,
1071,-4.00e-03,
1072,4.80e-02,
1073,-4.00e-03,
1074,6.00e-03,
1075,-6.00e-03,
1076,6.00e-03,
1077,-4.00e-03,
1078,6.00e-03,
1079,-6.00e-03,
1080,8.00e-03,
1081,-1.80e-02,
1082,-6.00e-03,
1083,2.40e-02,
1084,1.20e-02,
1085,-8.00e-03,
1086,1.60e-02,
1087,-1.60e-02,
1088,-2.20e-02,
1089,1.40e-02,
1090,-4.00e-03,
1091,1.80e-02,
1092,-4.00e-03,
1093,2.00e-02,
1094,8.00e-03,
1095,-1.00e-02,
1096,-2.12e-01,
1097,2.98e-01,
1098,6.00e-03,
1099,-6.00e-03,
1100,6.00e-03,
1101,-8.00e-03,
1102,8.00e-03,
1103,-8.00e-03,
1104,6.00e-03,
1105,-4.00e-03,
1106,-6.00e-03,
1107,8.00e-03,
1108,-4.00e-03,
1109,8.00e-03,
1110,-4.00e-03,
1111,1.60e-02,
1112,6.00e-03,
1113,-6.00e-03,
1114,-4.00e-03,
1115,1.20e-02,
1116,8.00e-03,
1117,-4.00e-03,
1118,-8.00e-03,
1119,2.00e-02,
1120,-8.20e-02,
1121,1.32e-01,
1122,-6.00e-03,
1123,6.00e-03,
1124,8.00e-03,
1125,-6.00e-03,
1126,6.00e-03,
1127,-6.00e-03,
1128,-4.00e-03,
1129,6.00e-03,
1130,6.00e-03,
1131,-4.00e-03,
1132,-6.00e-03,
1133,6.00e-03,
1134,1.00e-02,
1135,-1.20e-02,
1136,-4.00e-03,
1137,2.40e-02,
1138,-1.40e-02,
1139,8.00e-03,
1140,1.60e-02,
1141,-1.80e-02,
1142,-1.60e-02,
1143,6.00e-03,
1144,8.00e-02,
1145,-3.20e-02,
1146,1.40e-02,
1147,-4.00e-03,
1148,-4.00e-03,
1149,6.00e-03,
1150,-1.40e-02,
1151,6.00e-03,
1152,-6.00e-03,
1153,1.00e-02,
1154,6.00e-03,
1155,-8.00e-03,
1156,-6.00e-03,
1157,6.00e-03,
1158,6.00e-03,
1159,-1.40e-02,
1160,-4.00e-03,
1161,8.00e-03,
1162,8.00e-03,
1163,-1.00e-02,
1164,1.80e-02,
1165,-1.40e-02,
1166,2.40e-02,
1167,-2.20e-02,
1168,1.84e-01,
1169,-1.60e-02,
1170,2.00e-02,
1171,-1.20e-02,
1172,-1.20e-02,
1173,2.40e-02,
1174,-2.00e-02,
1175,1.40e-02,
1176,-4.00e-03,
1177,6.00e-03,
1178,6.00e-03,
1179,-6.00e-03,
1180,6.00e-03,
1181,-6.00e-03,
1182,6.00e-03,
1183,-6.00e-03,
1184,-4.00e-03,
1185,6.00e-03,
1186,6.00e-03,
1187,-4.00e-03,
1188,6.00e-03,
1189,-8.00e-03,
1190,4.00e-03,
1191,-4.00e-03,
1192,6.00e-03,
1193,-4.20e-02,
1194,-4.00e-03,
1195,4.00e-03,
1196,6.00e-03,
1197,-4.00e-03,
1198,-4.00e-03,
1199,1.60e-02,
