Motor_Data/MOTOR_1_ON/time domain/NewFile37.csv

X,CH2,Start,Increment,
Sequence,Volt,-3.000000e-02,5.000000e-05
0,6.00e-03,
1,-6.00e-03,
2,6.00e-03,
3,-8.00e-03,
4,-4.00e-03,
5,8.00e-03,
6,1.00e-02,
7,-1.40e-02,
8,-2.12e-01,
9,1.20e-01,
10,-1.60e-02,
11,1.80e-02,
12,1.40e-02,
13,-1.40e-02,
14,-4.00e-03,
15,8.00e-03,
16,1.80e-02,
17,-1.80e-02,
18,-1.00e-02,
19,8.00e-03,
20,8.00e-03,
21,-4.00e-03,
22,-6.00e-03,
23,6.00e-03,
24,-4.00e-03,
25,6.00e-03,
26,-4.00e-03,
27,6.00e-03,
28,-6.00e-03,
29,8.00e-03,
30,8.00e-03,
31,-6.00e-03,
32,2.00e-02,
33,-1.08e-01,
34,1.80e-02,
35,-6.00e-03,
36,8.00e-03,
37,-8.00e-03,
38,6.00e-03,
39,-1.20e-02,
40,-1.20e-02,
41,1.60e-02,
42,1.60e-02,
43,-6.00e-03,
44,-8.00e-03,
45,8.00e-03,
46,-1.40e-02,
47,6.00e-03,
48,-4.00e-03,
49,8.00e-03,
50,8.00e-03,
51,-4.00e-03,
52,-8.00e-03,
53,8.00e-03,
54,8.00e-03,
55,-1.00e-02,
56,8.00e-03,
57,-6.00e-03,
58,2.98e-01,
59,-2.12e-01,
60,-1.40e-02,
61,1.60e-02,
62,-2.00e-02,
63,2.00e-02,
64,-1.20e-02,
65,8.00e-03,
66,1.60e-02,
67,-4.00e-03,
68,8.00e-03,
69,-6.00e-03,
70,-1.20e-02,
71,8.00e-03,
72,-4.00e-03,
73,1.00e-02,
74,-6.00e-03,
75,8.00e-03,
76,-6.00e-03,
77,8.00e-03,
78,-4.00e-03,
79,8.00e-03,
80,6.00e-03,
81,-4.00e-03,
82,8.00e-03,
83,-6.00e-03,
84,9.80e-02,
85,-2.04e-01,
86,-4.00e-03,
87,2.40e-02,
88,-1.40e-02,
89,8.00e-03,
90,1.80e-02,
91,-8.00e-03,
92,-1.20e-02,
93,8.00e-03,
94,-4.00e-03,
95,2.00e-02,
96,8.00e-03,
97,-4.00e-03,
98,8.00e-03,
99,-1.00e-02,
100,-1.60e-02,
101,8.00e-03,
102,8.00e-03,
103,-4.00e-03,
104,6.00e-03,
105,-4.00e-03,
106,-4.00e-03,
107,8.00e-03,
108,-1.96e-01,
109,1.20e-02,
110,-4.00e-03,
111,8.00e-03,
112,-4.00e-03,
113,8.00e-03,
114,-4.00e-03,
115,6.00e-03,
116,8.00e-03,
117,-6.00e-03,
118,-1.00e-02,
119,8.00e-03,
120,8.00e-03,
121,-6.00e-03,
122,-1.40e-02,
123,2.20e-02,
124,-1.40e-02,
125,1.40e-02,
126,8.00e-03,
127,-6.00e-03,
128,6.00e-03,
129,-6.00e-03,
130,-4.00e-03,
131,6.00e-03,
132,-4.00e-03,
133,6.00e-03,
134,-2.12e-01,
135,1.20e-01,
136,6.00e-03,
137,-1.40e-02,
138,-1.40e-02,
139,1.00e-02,
140,2.40e-02,
141,-4.00e-03,
142,1.80e-02,
143,-1.20e-02,
144,6.00e-03,
145,-4.00e-03,
146,-1.80e-02,
147,6.00e-03,
148,6.00e-03,
149,-6.00e-03,
150,-4.00e-03,
151,6.00e-03,
152,8.00e-03,
153,-1.80e-02,
154,-4.00e-03,
155,8.00e-03,
156,-4.00e-03,
157,6.00e-03,
158,2.18e-01,
159,-1.20e-02,
160,6.00e-03,
161,-8.00e-03,
162,6.00e-03,
163,-1.00e-02,
164,-4.00e-03,
165,6.00e-03,
166,1.40e-02,
167,-1.80e-02,
168,-8.00e-03,
169,1.80e-02,
170,-1.80e-02,
171,1.40e-02,
172,1.60e-02,
173,-1.20e-02,
174,1.00e-02,
175,-6.00e-03,
176,2.20e-02,
177,-1.60e-02,
178,-8.00e-03,
179,8.00e-03,
180,6.00e-03,
181,-6.00e-03,
182,8.00e-03,
183,-6.00e-03,
184,-2.12e-01,
185,1.64e-01,
186,-4.00e-03,
187,8.00e-03,
188,-4.00e-03,
189,8.00e-03,
190,8.00e-03,
191,-1.80e-02,
192,-4.00e-03,
193,2.00e-02,
194,1.40e-02,
195,-6.00e-03,
196,-1.40e-02,
197,8.00e-03,
198,8.00e-03,
199,-6.00e-03,
200,-6.00e-03,
201,1.80e-02,
202,1.40e-02,
203,-8.00e-03,
204,6.00e-03,
205,-4.00e-03,
206,-1.60e-02,
207,6.00e-03,
208,8.00e-03,
209,-6.00e-03,
210,2.98e-01,
211,-2.12e-01,
212,1.00e-02,
213,-6.00e-03,
214,6.00e-03,
215,-1.00e-02,
216,-4.00e-03,
217,6.00e-03,
218,6.00e-03,
219,-4.00e-03,
220,-1.20e-02,
221,2.00e-02,
222,-2.20e-02,
223,1.80e-02,
224,6.00e-03,
225,-1.60e-02,
226,-6.00e-03,
227,6.00e-03,
228,-4.00e-03,
229,1.60e-02,
230,1.80e-02,
231,-6.00e-03,
232,-6.00e-03,
233,8.00e-03,
234,-1.28e-01,
235,8.00e-03,
236,-6.00e-03,
237,6.00e-03,
238,-4.00e-03,
239,8.00e-03,
240,8.00e-03,
241,-6.00e-03,
242,-6.00e-03,
243,8.00e-03,
244,1.00e-02,
245,-1.80e-02,
246,-4.00e-03,
247,2.00e-02,
248,1.00e-02,
249,-1.40e-02,
250,2.20e-02,
251,-8.00e-03,
252,-1.80e-02,
253,1.80e-02,
254,-4.00e-03,
255,1.60e-02,
256,8.00e-03,
257,-6.00e-03,
258,-4.00e-03,
259,6.00e-03,
260,-2.12e-01,
261,2.98e-01,
262,8.00e-03,
263,-4.00e-03,
264,8.00e-03,
265,-4.00e-03,
266,-4.00e-03,
267,8.00e-03,
268,-8.00e-03,
269,8.00e-03,
270,-4.00e-03,
271,8.00e-03,
272,1.20e-02,
273,-1.20e-02,
274,1.80e-02,
275,-1.00e-02,
276,-1.80e-02,
277,2.20e-02,
278,-1.00e-02,
279,1.80e-02,
280,8.00e-03,
281,-4.00e-03,
282,-1.40e-02,
283,1.60e-02,
284,5.40e-02,
285,-4.20e-02,
286,8.00e-03,
287,-4.00e-03,
288,-4.00e-03,
289,8.00e-03,
290,6.00e-03,
291,-4.00e-03,
292,8.00e-03,
293,-4.00e-03,
294,6.00e-03,
295,-6.00e-03,
296,8.00e-03,
297,-1.60e-02,
298,-1.00e-02,
299,1.40e-02,
300,-4.00e-03,
301,2.20e-02,
302,-1.40e-02,
303,1.80e-02,
304,1.40e-02,
305,-1.60e-02,
306,-1.40e-02,
307,2.00e-02,
308,1.80e-02,
309,-4.00e-03,
310,-4.00e-03,
311,2.98e-01,
312,8.00e-03,
313,-1.40e-02,
314,6.00e-03,
315,-4.00e-03,
316,-4.00e-03,
317,8.00e-03,
318,-8.00e-03,
319,8.00e-03,
320,-4.00e-03,
321,8.00e-03,
322,-6.00e-03,
323,8.00e-03,
324,8.00e-03,
325,-4.00e-03,
326,2.00e-02,
327,-1.20e-02,
328,-1.20e-02,
329,2.20e-02,
330,-1.40e-02,
331,1.00e-02,
332,2.00e-02,
333,-8.00e-03,
334,-4.00e-03,
335,2.98e-01,
336,-2.20e-02,
337,8.60e-02,
338,-4.00e-03,
339,8.00e-03,
340,-4.00e-03,
341,8.00e-03,
342,8.00e-03,
343,-4.00e-03,
344,-4.00e-03,
345,8.00e-03,
346,-4.00e-03,
347,8.00e-03,
348,-6.00e-03,
349,8.00e-03,
350,8.00e-03,
351,-1.40e-02,
352,-4.00e-03,
353,2.20e-02,
354,1.00e-02,
355,-1.40e-02,
356,-1.20e-02,
357,1.60e-02,
358,-2.20e-02,
359,1.20e-02,
360,-2.12e-01,
361,2.98e-01,
362,1.00e-02,
363,-6.00e-03,
364,-1.00e-02,
365,8.00e-03,
366,8.00e-03,
367,-1.60e-02,
368,-4.00e-03,
369,8.00e-03,
370,-4.00e-03,
371,6.00e-03,
372,-4.00e-03,
373,8.00e-03,
374,-8.00e-03,
375,6.00e-03,
376,6.00e-03,
377,-6.00e-03,
378,8.00e-03,
379,-6.00e-03,
380,1.80e-02,
381,-1.80e-02,
382,2.00e-02,
383,-1.80e-02,
384,1.40e-02,
385,-1.60e-02,
386,1.60e-02,
387,-1.20e-02,
388,-1.00e-02,
389,1.80e-02,
390,-1.80e-02,
391,1.20e-02,
392,-4.00e-03,
393,8.00e-03,
394,-4.00e-03,
395,6.00e-03,
396,8.00e-03,
397,-4.00e-03,
398,-6.00e-03,
399,8.00e-03,
400,-4.00e-03,
401,6.00e-03,
402,8.00e-03,
403,-6.00e-03,
404,8.00e-03,
405,-1.40e-02,
406,-4.00e-03,
407,2.40e-02,
408,1.20e-02,
409,-1.20e-02,
410,2.98e-01,
411,-2.12e-01,
412,-2.00e-02,
413,1.60e-02,
414,1.60e-02,
415,-6.00e-03,
416,-6.00e-03,
417,8.00e-03,
418,6.00e-03,
419,-1.60e-02,
420,-1.40e-02,
421,8.00e-03,
422,-4.00e-03,
423,6.00e-03,
424,6.00e-03,
425,-6.00e-03,
426,6.00e-03,
427,-6.00e-03,
428,-6.00e-03,
429,8.00e-03,
430,-4.00e-03,
431,6.00e-03,
432,1.20e-02,
433,-1.40e-02,
434,2.00e-02,
435,-8.00e-03,
436,-1.80e-02,
437,8.00e-03,
438,-1.20e-02,
439,1.60e-02,
440,-4.00e-03,
441,1.00e-02,
442,1.80e-02,
443,-1.60e-02,
444,-8.00e-03,
445,8.00e-03,
446,8.00e-03,
447,-6.00e-03,
448,-4.00e-03,
449,8.00e-03,
450,-4.00e-03,
451,6.00e-03,
452,-4.00e-03,
453,6.00e-03,
454,-4.00e-03,
455,8.00e-03,
456,8.00e-03,
457,-1.80e-02,
458,-8.00e-03,
459,1.40e-02,
460,2.20e-02,
461,-6.00e-03,
462,-2.12e-01,
463,2.20e-01,
464,-1.80e-02,
465,8.00e-03,
466,-1.00e-02,
467,1.80e-02,
468,1.60e-02,
469,-4.00e-03,
470,-6.00e-03,
471,8.00e-03,
472,-1.40e-02,
473,8.00e-03,
474,-4.00e-03,
475,8.00e-03,
476,8.00e-03,
477,-4.00e-03,
478,8.00e-03,
479,-6.00e-03,
480,-6.00e-03,
481,8.00e-03,
482,6.00e-03,
483,-8.00e-03,
484,8.00e-03,
485,-4.00e-03,
486,2.98e-01,
487,-8.20e-02,
488,-1.60e-02,
489,2.20e-02,
490,8.00e-03,
491,-1.20e-02,
492,2.00e-02,
493,-1.00e-02,
494,-8.00e-03,
495,1.40e-02,
496,-1.20e-02,
497,1.80e-02,
498,-4.00e-03,
499,1.00e-02,
500,-4.00e-03,
501,8.00e-03,
502,-4.00e-03,
503,8.00e-03,
504,-4.00e-03,
505,8.00e-03,
506,8.00e-03,
507,-6.00e-03,
508,-4.00e-03,
509,8.00e-03,
510,1.20e-02,
511,-1.20e-02,
512,-2.12e-01,
513,2.98e-01,
514,8.00e-03,
515,-1.80e-02,
516,-1.20e-02,
517,8.00e-03,
518,-1.60e-02,
519,1.80e-02,
520,-4.00e-03,
521,2.20e-02,
522,8.00e-03,
523,-4.00e-03,
524,6.00e-03,
525,-8.00e-03,
526,-1.80e-02,
527,8.00e-03,
528,-4.00e-03,
529,8.00e-03,
530,6.00e-03,
531,-4.00e-03,
532,8.00e-03,
533,-4.00e-03,
534,6.00e-03,
535,-6.00e-03,
536,6.00e-03,
537,-4.00e-03,
538,2.98e-01,
539,-6.60e-02,
540,1.80e-02,
541,-1.40e-02,
542,2.40e-02,
543,-1.40e-02,
544,1.80e-02,
545,-1.00e-02,
546,1.00e-02,
547,-4.00e-03,
548,-1.60e-02,
549,2.20e-02,
550,-1.60e-02,
551,1.40e-02,
552,6.00e-03,
553,-6.00e-03,
554,6.00e-03,
555,-4.00e-03,
556,6.00e-03,
557,-4.00e-03,
558,-4.00e-03,
559,6.00e-03,
560,8.00e-03,
561,-6.00e-03,
562,2.98e-01,
563,-2.12e-01,
564,-1.40e-02,
565,8.00e-03,
566,-4.00e-03,
567,2.20e-02,
568,-1.60e-02,
569,1.40e-02,
570,1.40e-02,
571,-8.00e-03,
572,-1.60e-02,
573,2.20e-02,
574,1.80e-02,
575,-4.00e-03,
576,6.00e-03,
577,-8.00e-03,
578,8.00e-03,
579,-1.40e-02,
580,-4.00e-03,
581,6.00e-03,
582,8.00e-03,
583,-4.00e-03,
584,8.00e-03,
585,-6.00e-03,
586,-8.00e-03,
587,8.00e-03,
588,-6.00e-03,
589,6.00e-02,
590,8.00e-03,
591,-4.00e-03,
592,1.80e-02,
593,-1.60e-02,
594,-8.00e-03,
595,2.00e-02,
596,-1.60e-02,
597,1.80e-02,
598,1.80e-02,
599,-6.00e-03,
600,-4.00e-03,
601,1.00e-02,
602,1.60e-02,
603,-1.60e-02,
604,-6.00e-03,
605,6.00e-03,
606,-4.00e-03,
607,8.00e-03,
608,-4.00e-03,
609,6.00e-03,
610,6.00e-03,
611,-6.00e-03,
612,-2.12e-01,
613,2.98e-01,
614,-4.00e-03,
615,8.00e-03,
616,8.00e-03,
617,-2.20e-02,
618,-4.00e-03,
619,2.20e-02,
620,1.60e-02,
621,-6.00e-03,
622,-1.40e-02,
623,2.00e-02,
624,-1.80e-02,
625,1.00e-02,
626,-1.00e-02,
627,1.80e-02,
628,6.00e-03,
629,-6.00e-03,
630,8.00e-03,
631,-8.00e-03,
632,-1.40e-02,
633,6.00e-03,
634,-4.00e-03,
635,6.00e-03,
636,-4.00e-03,
637,8.00e-03,
638,1.82e-01,
639,-3.00e-02,
640,-8.00e-03,
641,8.00e-03,
642,-6.00e-03,
643,6.00e-03,
644,6.00e-03,
645,-6.00e-03,
646,-1.80e-02,
647,1.80e-02,
648,-2.00e-02,
649,2.00e-02,
650,1.20e-02,
651,-1.60e-02,
652,1.40e-02,
653,-8.00e-03,
654,-8.00e-03,
655,1.80e-02,
656,-1.60e-02,
657,1.60e-02,
658,-4.00e-03,
659,8.00e-03,
660,6.00e-03,
661,-6.00e-03,
662,8.00e-03,
663,-6.00e-03,
664,-2.12e-01,
665,8.00e-03,
666,6.00e-03,
667,-4.00e-03,
668,-6.00e-03,
669,8.00e-03,
670,1.20e-02,
671,-1.60e-02,
672,-4.00e-03,
673,1.80e-02,
674,8.00e-03,
675,-1.60e-02,
676,2.00e-02,
677,-8.00e-03,
678,-1.60e-02,
679,1.60e-02,
680,1.80e-02,
681,-6.00e-03,
682,8.00e-03,
683,-6.00e-03,
684,6.00e-03,
685,-1.60e-02,
686,-1.20e-02,
687,6.00e-03,
688,-4.00e-03,
689,1.60e-02,
690,8.00e-03,
691,-6.00e-03,
692,-8.00e-03,
693,6.00e-03,
694,8.00e-03,
695,-6.00e-03,
696,8.00e-03,
697,-6.00e-03,
698,1.20e-02,
699,-1.40e-02,
700,1.60e-02,
701,-1.20e-02,
702,-1.80e-02,
703,2.00e-02,
704,-1.20e-02,
705,6.00e-03,
706,-4.00e-03,
707,8.00e-03,
708,-1.40e-02,
709,2.20e-02,
710,-1.40e-02,
711,8.00e-03,
712,6.00e-03,
713,-6.00e-03,
714,2.98e-01,
715,-2.12e-01,
716,6.00e-03,
717,-6.00e-03,
718,6.00e-03,
719,-4.00e-03,
720,-4.00e-03,
721,6.00e-03,
722,8.00e-03,
723,-1.60e-02,
724,-1.40e-02,
725,1.00e-02,
726,2.00e-02,
727,-6.00e-03,
728,-1.40e-02,
729,1.60e-02,
730,1.00e-02,
731,-1.00e-02,
732,-1.40e-02,
733,1.80e-02,
734,1.60e-02,
735,-6.00e-03,
736,6.00e-03,
737,-6.00e-03,
738,-1.40e-02,
739,1.96e-01,
740,-6.00e-03,
741,8.00e-03,
742,6.00e-03,
743,-4.00e-03,
744,6.00e-03,
745,-8.00e-03,
746,8.00e-03,
747,-6.00e-03,
748,-6.00e-03,
749,6.00e-03,
750,-4.00e-03,
751,8.00e-03,
752,1.40e-02,
753,-1.40e-02,
754,-1.20e-02,
755,2.20e-02,
756,-1.60e-02,
757,1.20e-02,
758,1.80e-02,
759,-1.40e-02,
760,-6.00e-03,
761,1.40e-02,
762,1.80e-02,
763,-1.60e-02,
764,-2.12e-01,
765,1.64e-01,
766,6.00e-03,
767,-6.00e-03,
768,8.00e-03,
769,-4.00e-03,
770,-4.00e-03,
771,6.00e-03,
772,-4.00e-03,
773,6.00e-03,
774,8.00e-03,
775,-6.00e-03,
776,8.00e-03,
777,-1.40e-02,
778,-4.00e-03,
779,2.40e-02,
780,1.00e-02,
781,-1.20e-02,
782,-1.20e-02,
783,1.80e-02,
784,-1.80e-02,
785,1.00e-02,
786,2.20e-02,
787,-6.00e-03,
788,1.60e-01,
789,-1.00e-02,
790,1.20e-02,
791,-6.00e-03,
792,-1.80e-02,
793,6.00e-03,
794,-4.00e-03,
795,1.00e-02,
796,-6.00e-03,
797,8.00e-03,
798,-4.00e-03,
799,8.00e-03,
800,6.00e-03,
801,-6.00e-03,
802,-6.00e-03,
803,6.00e-03,
804,8.00e-03,
805,-8.00e-03,
806,1.60e-02,
807,-1.40e-02,
808,2.20e-02,
809,-1.60e-02,
810,1.60e-02,
811,-1.40e-02,
812,6.00e-03,
813,-4.00e-03,
814,-2.12e-01,
815,1.48e-01,
816,1.40e-02,
817,-6.00e-03,
818,6.00e-03,
819,-6.00e-03,
820,6.00e-03,
821,-4.00e-03,
822,6.00e-03,
823,-6.00e-03,
824,8.00e-03,
825,-6.00e-03,
826,8.00e-03,
827,-4.00e-03,
828,8.00e-03,
829,-8.00e-03,
830,8.00e-03,
831,-4.00e-03,
832,-4.00e-03,
833,1.40e-02,
834,-1.40e-02,
835,6.00e-03,
836,1.40e-02,
837,-6.00e-03,
838,-2.00e-02,
839,2.00e-02,
840,1.40e-02,
841,-4.00e-02,
842,-8.00e-03,
843,8.00e-03,
844,6.00e-03,
845,-1.60e-02,
846,-1.00e-02,
847,6.00e-03,
848,-4.00e-03,
849,6.00e-03,
850,6.00e-03,
851,-6.00e-03,
852,-6.00e-03,
853,8.00e-03,
854,-8.00e-03,
855,8.00e-03,
856,6.00e-03,
857,-6.00e-03,
858,1.00e-02,
859,-1.80e-02,
860,2.00e-02,
861,-1.00e-02,
862,-1.60e-02,
863,1.80e-02,
864,1.60e-02,
865,-2.12e-01,
866,-4.00e-03,
867,1.00e-02,
868,2.00e-02,
869,-1.60e-02,
870,-1.20e-02,
871,8.00e-03,
872,-4.00e-03,
873,8.00e-03,
874,-6.00e-03,
875,8.00e-03,
876,-4.00e-03,
877,8.00e-03,
878,-4.00e-03,
879,8.00e-03,
880,6.00e-03,
881,-6.00e-03,
882,1.20e-02,
883,-1.80e-02,
884,-6.00e-03,
885,1.80e-02,
886,-4.00e-03,
887,2.20e-02,
888,-1.40e-02,
889,1.80e-02,
890,2.58e-01,
891,-1.60e-02,
892,-1.60e-02,
893,2.20e-02,
894,8.00e-03,
895,-6.00e-03,
896,8.00e-03,
897,-6.00e-03,
898,-1.20e-02,
899,8.00e-03,
900,-4.00e-03,
901,8.00e-03,
902,-4.00e-03,
903,6.00e-03,
904,8.00e-03,
905,-6.00e-03,
906,6.00e-03,
907,-1.00e-02,
908,-4.00e-03,
909,8.00e-03,
910,-4.00e-03,
911,8.00e-03,
912,-1.00e-02,
913,1.80e-02,
914,-1.20e-02,
915,2.20e-02,
916,-2.12e-01,
917,1.20e-01,
918,-4.00e-03,
919,1.60e-02,
920,-6.00e-03,
921,1.40e-02,
922,-1.20e-02,
923,1.80e-02,
924,-6.00e-03,
925,1.00e-02,
926,-6.00e-03,
927,8.00e-03,
928,6.00e-03,
929,-4.00e-03,
930,-4.00e-03,
931,6.00e-03,
932,-6.00e-03,
933,8.00e-03,
934,6.00e-03,
935,-6.00e-03,
936,6.00e-03,
937,-1.60e-02,
938,6.00e-03,
939,-4.00e-03,
940,-4.80e-02,
941,2.10e-01,
942,2.00e-02,
943,-1.20e-02,
944,-1.40e-02,
945,1.20e-02,
946,-4.00e-03,
947,1.80e-02,
948,1.00e-02,
949,-8.00e-03,
950,8.00e-03,
951,-8.00e-03,
952,-1.20e-02,
953,8.00e-03,
954,8.00e-03,
955,-4.00e-03,
956,-6.00e-03,
957,6.00e-03,
958,6.00e-03,
959,-6.00e-03,
960,8.00e-03,
961,-8.00e-03,
962,-8.00e-03,
963,8.00e-03,
964,1.00e-02,
965,-1.00e-02,
966,-2.12e-01,
967,2.98e-01,
968,-1.40e-02,
969,2.00e-02,
970,1.60e-02,
971,-1.40e-02,
972,-4.00e-03,
973,6.00e-03,
974,-1.40e-02,
975,1.80e-02,
976,-1.60e-02,
977,8.00e-03,
978,-6.00e-03,
979,8.00e-03,
980,-4.00e-03,
981,6.00e-03,
982,-4.00e-03,
983,6.00e-03,
984,6.00e-03,
985,-4.00e-03,
986,-4.00e-03,
987,8.00e-03,
988,-4.00e-03,
989,8.00e-03,
990,1.00e-02,
991,-2.12e-01,
992,2.20e-02,
993,-4.00e-03,
994,1.40e-02,
995,-1.40e-02,
996,8.00e-03,
997,-6.00e-03,
998,-2.00e-02,
999,2.00e-02,
1000,1.60e-02,
1001,-6.00e-03,
1002,-8.00e-03,
1003,6.00e-03,
1004,6.00e-03,
1005,-1.40e-02,
1006,-8.00e-03,
1007,6.00e-03,
1008,1.00e-02,
1009,-6.00e-03,
1010,-4.00e-03,
1011,8.00e-03,
1012,6.00e-03,
1013,-6.00e-03,
1014,-4.00e-03,
1015,6.00e-03,
1016,2.98e-01,
1017,-6.20e-02,
1018,1.60e-02,
1019,-1.80e-02,
1020,-8.00e-03,
1021,2.00e-02,
1022,-1.80e-02,
1023,1.60e-02,
1024,6.00e-03,
1025,-6.00e-03,
1026,-6.00e-03,
1027,8.00e-03,
1028,1.80e-02,
1029,-1.20e-02,
1030,-8.00e-03,
1031,8.00e-03,
1032,1.20e-02,
1033,-6.00e-03,
1034,-4.00e-03,
1035,8.00e-03,
1036,8.00e-03,
1037,-6.00e-03,
1038,-4.00e-03,
1039,8.00e-03,
1040,-4.00e-03,
1041,6.00e-03,
1042,1.20e-02,
1043,-1.60e-02,
1044,-6.00e-03,
1045,2.20e-02,
1046,1.40e-02,
1047,-8.00e-03,
1048,-1.40e-02,
1049,2.00e-02,
1050,-2.00e-02,
1051,8.00e-03,
1052,-8.00e-03,
1053,1.60e-02,
1054,1.60e-02,
1055,-6.00e-03,
1056,6.00e-03,
1057,-6.00e-03,
1058,-1.40e-02,
1059,6.00e-03,
1060,8.00e-03,
1061,-6.00e-03,
1062,-4.00e-03,
1063,8.00e-03,
1064,8.00e-03,
1065,-6.00e-03,
1066,-6.00e-03,
1067,2.66e-01,
1068,6.00e-03,
1069,-6.00e-03,
1070,6.00e-03,
1071,-6.00e-03,
1072,-1.60e-02,
1073,2.20e-02,
1074,1.60e-02,
1075,-1.80e-02,
1076,6.00e-03,
1077,-1.60e-02,
1078,1.40e-02,
1079,-8.00e-03,
1080,-8.00e-03,
1081,1.80e-02,
1082,-1.40e-02,
1083,1.60e-02,
1084,-6.00e-03,
1085,8.00e-03,
1086,-6.00e-03,
1087,6.00e-03,
1088,6.00e-03,
1089,-6.00e-03,
1090,-6.00e-03,
1091,6.00e-03,
1092,2.20e-01,
1093,-1.54e-01,
1094,-4.00e-03,
1095,6.00e-03,
1096,8.00e-03,
1097,-1.80e-02,
1098,-4.00e-03,
1099,2.20e-02,
1100,8.00e-03,
1101,-1.80e-02,
1102,1.80e-02,
1103,-8.00e-03,
1104,-1.80e-02,
1105,1.60e-02,
1106,1.80e-02,
1107,-6.00e-03,
1108,8.00e-03,
1109,-6.00e-03,
1110,-1.60e-02,
1111,6.00e-03,
1112,-1.40e-02,
1113,8.00e-03,
1114,8.00e-03,
1115,-6.00e-03,
1116,6.00e-03,
1117,-8.00e-03,
1118,8.00e-03,
1119,-2.12e-01,
1120,6.00e-03,
1121,-8.00e-03,
1122,6.00e-03,
1123,-6.00e-03,
1124,1.00e-02,
1125,-1.60e-02,
1126,2.20e-02,
1127,-1.40e-02,
1128,-1.40e-02,
1129,2.20e-02,
1130,-1.00e-02,
1131,1.80e-02,
1132,8.00e-03,
1133,-6.00e-03,
1134,-1.60e-02,
1135,2.20e-02,
1136,-1.00e-02,
1137,8.00e-03,
1138,-4.00e-03,
1139,6.00e-03,
1140,-4.00e-03,
1141,8.00e-03,
1142,-4.00e-03,
1143,2.20e-02,
1144,-4.00e-03,
1145,6.00e-03,
1146,6.00e-03,
1147,-8.00e-03,
1148,1.20e-02,
1149,-1.40e-02,
1150,6.00e-03,
1151,-1.60e-02,
1152,-4.00e-03,
1153,2.00e-02,
1154,1.60e-02,
1155,-8.00e-03,
1156,1.20e-02,
1157,-1.00e-02,
1158,-1.60e-02,
1159,2.40e-02,
1160,-4.00e-03,
1161,2.00e-02,
1162,-6.00e-03,
1163,8.00e-03,
1164,6.00e-03,
1165,-1.40e-02,
1166,-4.00e-03,
1167,1.00e-02,
1168,-2.12e-01,
1169,6.00e-02,
1170,6.00e-03,
1171,-6.00e-03,
1172,6.00e-03,
1173,-6.00e-03,
1174,6.00e-03,
1175,-6.00e-03,
1176,-6.00e-03,
1177,8.00e-03,
1178,1.80e-02,
1179,-1.40e-02,
1180,-1.00e-02,
1181,2.00e-02,
1182,-1.80e-02,
1183,1.40e-02,
1184,1.60e-02,
1185,-4.00e-03,
1186,-4.00e-03,
1187,1.00e-02,
1188,6.00e-03,
1189,-1.80e-02,
1190,-4.00e-03,
1191,8.00e-03,
1192,2.00e-01,
1193,-2.12e-01,
1194,-6.00e-03,
1195,6.00e-03,
1196,-4.00e-03,
1197,6.00e-03,
1198,-4.00e-03,
1199,6.00e-03,
