Motor_Data/MOTOR_1_ON/time domain/NewFile57.csv

X,CH2,Start,Increment,
Sequence,Volt,-3.000000e-02,5.000000e-05
0,-8.00e-03,
1,2.00e-02,
2,1.80e-02,
3,-8.00e-03,
4,-8.00e-03,
5,1.60e-02,
6,1.00e-02,
7,-6.00e-03,
8,-6.00e-03,
9,1.20e-02,
10,-1.60e-02,
11,1.00e-02,
12,-8.00e-03,
13,1.20e-02,
14,-1.20e-02,
15,1.00e-02,
16,-1.40e-01,
17,9.00e-02,
18,1.00e-02,
19,-1.40e-02,
20,-1.40e-02,
21,1.00e-02,
22,-8.00e-03,
23,1.20e-02,
24,-4.00e-03,
25,1.80e-02,
26,2.20e-02,
27,-6.00e-03,
28,-6.00e-03,
29,1.80e-02,
30,-4.00e-03,
31,1.40e-02,
32,1.00e-02,
33,-4.00e-03,
34,-1.60e-02,
35,8.00e-03,
36,6.00e-03,
37,-8.00e-03,
38,-6.00e-03,
39,3.20e-02,
40,6.00e-03,
41,-1.40e-02,
42,-1.00e-02,
43,1.00e-02,
44,1.20e-02,
45,-1.60e-02,
46,-1.80e-02,
47,1.00e-02,
48,8.00e-03,
49,-1.60e-02,
50,-1.40e-02,
51,1.20e-02,
52,-6.00e-03,
53,1.80e-02,
54,-8.00e-03,
55,1.60e-02,
56,-8.00e-03,
57,1.60e-02,
58,1.80e-02,
59,-1.00e-02,
60,1.20e-02,
61,-6.00e-03,
62,1.20e-02,
63,-1.40e-02,
64,-1.40e-02,
65,3.20e-02,
66,-4.00e-03,
67,1.20e-02,
68,-4.00e-03,
69,1.40e-02,
70,-4.00e-03,
71,1.20e-02,
72,-4.00e-03,
73,8.00e-03,
74,-4.00e-03,
75,1.20e-02,
76,-4.00e-03,
77,2.00e-02,
78,-6.00e-03,
79,2.00e-02,
80,1.80e-02,
81,-6.00e-03,
82,-4.00e-03,
83,1.80e-02,
84,-1.00e-02,
85,1.80e-02,
86,1.80e-02,
87,-1.00e-02,
88,-1.80e-02,
89,3.80e-02,
90,-8.00e-03,
91,1.20e-02,
92,-1.40e-02,
93,1.20e-02,
94,-8.00e-03,
95,1.20e-02,
96,8.00e-03,
97,-1.00e-02,
98,1.00e-02,
99,-1.60e-02,
100,-1.80e-02,
101,1.20e-02,
102,-1.40e-02,
103,1.60e-02,
104,-4.00e-03,
105,1.60e-02,
106,1.60e-02,
107,-6.00e-03,
108,1.60e-02,
109,-6.00e-03,
110,1.60e-02,
111,-6.00e-03,
112,1.80e-02,
113,-1.14e-01,
114,-1.00e-02,
115,1.60e-02,
116,-1.40e-02,
117,1.20e-02,
118,-1.60e-02,
119,1.40e-02,
120,1.40e-02,
121,-1.00e-02,
122,1.20e-02,
123,-1.40e-02,
124,-1.40e-02,
125,1.00e-02,
126,-1.40e-02,
127,1.40e-02,
128,-1.60e-02,
129,1.40e-02,
130,-8.00e-03,
131,1.80e-02,
132,-1.00e-02,
133,1.80e-02,
134,2.00e-02,
135,-6.00e-03,
136,-8.00e-03,
137,9.40e-02,
138,-1.40e-02,
139,1.60e-02,
140,1.80e-02,
141,-1.40e-02,
142,-1.20e-02,
143,1.60e-02,
144,1.40e-02,
145,-6.00e-03,
146,1.00e-02,
147,-6.00e-03,
148,6.00e-03,
149,-4.00e-03,
150,-8.00e-03,
151,1.20e-02,
152,-4.00e-03,
153,1.60e-02,
154,1.60e-02,
155,-4.00e-03,
156,1.60e-02,
157,-6.00e-03,
158,-4.00e-03,
159,1.60e-02,
160,1.80e-02,
161,-6.00e-03,
162,1.20e-01,
163,-5.00e-02,
164,-6.00e-03,
165,1.80e-02,
166,1.20e-02,
167,-6.00e-03,
168,1.40e-02,
169,-1.00e-02,
170,1.80e-02,
171,-1.40e-02,
172,-1.00e-02,
173,1.00e-02,
174,-1.00e-02,
175,1.20e-02,
176,1.40e-02,
177,-1.60e-02,
178,-1.60e-02,
179,1.40e-02,
180,1.60e-02,
181,-1.80e-02,
182,-8.00e-03,
183,1.60e-02,
184,-4.00e-03,
185,1.40e-02,
186,5.80e-02,
187,-4.00e-03,
188,1.60e-02,
189,-6.00e-03,
190,1.40e-02,
191,-6.00e-03,
192,-6.00e-03,
193,1.40e-02,
194,-1.60e-02,
195,1.60e-02,
196,-1.60e-02,
197,1.00e-02,
198,6.00e-03,
199,-8.00e-03,
200,-8.00e-03,
201,1.00e-02,
202,1.40e-02,
203,-1.00e-02,
204,1.80e-02,
205,-1.00e-02,
206,-1.60e-02,
207,1.60e-02,
208,-1.20e-02,
209,1.60e-02,
210,1.94e-01,
211,-6.20e-02,
212,-1.20e-02,
213,1.00e-02,
214,8.00e-03,
215,-1.20e-02,
216,1.40e-02,
217,-8.00e-03,
218,1.60e-02,
219,-8.00e-03,
220,-6.00e-03,
221,1.80e-02,
222,1.60e-02,
223,-8.00e-03,
224,1.00e-02,
225,-1.60e-02,
226,-8.00e-03,
227,1.20e-02,
228,-4.00e-03,
229,1.20e-02,
230,1.20e-02,
231,-4.00e-03,
232,8.00e-03,
233,-4.00e-03,
234,1.00e-02,
235,-3.00e-02,
236,-4.00e-03,
237,8.00e-03,
238,-4.00e-03,
239,1.00e-02,
240,1.00e-02,
241,-1.40e-02,
242,-6.00e-03,
243,1.60e-02,
244,1.60e-02,
245,-8.00e-03,
246,-4.00e-03,
247,1.40e-02,
248,1.80e-02,
249,-1.40e-02,
250,-8.00e-03,
251,8.00e-03,
252,1.00e-02,
253,-6.00e-03,
254,-1.00e-02,
255,1.20e-02,
256,-8.00e-03,
257,1.00e-02,
258,8.00e-03,
259,-1.20e-02,
260,-1.56e-01,
261,5.80e-02,
262,-1.40e-02,
263,1.00e-02,
264,-4.00e-03,
265,1.20e-02,
266,6.00e-03,
267,-8.00e-03,
268,-4.00e-03,
269,1.80e-02,
270,1.60e-02,
271,-6.00e-03,
272,8.00e-03,
273,-8.00e-03,
274,1.40e-02,
275,-8.00e-03,
276,6.00e-03,
277,-8.00e-03,
278,8.00e-03,
279,-1.40e-02,
280,8.00e-03,
281,-8.00e-03,
282,1.00e-02,
283,-1.00e-02,
284,-1.40e-02,
285,3.20e-02,
286,-1.60e-02,
287,8.00e-03,
288,1.40e-02,
289,-1.60e-02,
290,-1.20e-02,
291,1.20e-02,
292,-6.00e-03,
293,1.60e-02,
294,-8.00e-03,
295,2.00e-02,
296,-6.00e-03,
297,1.80e-02,
298,-8.00e-03,
299,1.40e-02,
300,1.00e-02,
301,-6.00e-03,
302,-1.40e-02,
303,2.00e-02,
304,-8.00e-03,
305,1.00e-02,
306,6.00e-03,
307,-6.00e-03,
308,-4.00e-02,
309,2.20e-02,
310,-4.00e-03,
311,8.00e-03,
312,-4.00e-03,
313,1.00e-02,
314,1.20e-02,
315,-4.00e-03,
316,-4.00e-03,
317,8.00e-03,
318,-4.00e-03,
319,1.20e-02,
320,-8.00e-03,
321,1.80e-02,
322,1.80e-02,
323,-8.00e-03,
324,1.40e-02,
325,-6.00e-03,
326,-6.00e-03,
327,1.80e-02,
328,-6.00e-03,
329,1.40e-02,
330,1.40e-02,
331,-8.00e-03,
332,1.06e-01,
333,-5.00e-02,
334,-1.00e-02,
335,1.20e-02,
336,-1.00e-02,
337,1.40e-02,
338,1.00e-02,
339,-1.80e-02,
340,-1.40e-02,
341,6.00e-03,
342,-1.40e-02,
343,1.00e-02,
344,-4.00e-03,
345,1.40e-02,
346,-4.00e-03,
347,1.60e-02,
348,-4.00e-03,
349,1.60e-02,
350,-8.00e-03,
351,1.00e-02,
352,-4.00e-03,
353,1.40e-02,
354,-6.00e-03,
355,1.20e-02,
356,4.00e-03,
357,-1.60e-02,
358,-1.20e-02,
359,1.20e-02,
360,-1.20e-02,
361,1.40e-02,
362,1.00e-02,
363,-1.40e-02,
364,-1.20e-02,
365,8.00e-03,
366,-1.40e-02,
367,8.00e-03,
368,-1.60e-02,
369,1.20e-02,
370,-1.40e-02,
371,1.40e-02,
372,-1.60e-02,
373,1.40e-02,
374,-8.00e-03,
375,1.60e-02,
376,-1.00e-02,
377,1.80e-02,
378,2.00e-02,
379,-8.00e-03,
380,1.80e-02,
381,-8.00e-03,
382,4.80e-02,
383,-8.00e-03,
384,1.80e-02,
385,-1.20e-02,
386,-1.40e-02,
387,1.00e-02,
388,-4.00e-03,
389,1.20e-02,
390,8.00e-03,
391,-4.00e-03,
392,6.00e-03,
393,-1.60e-02,
394,-4.00e-03,
395,1.60e-02,
396,1.20e-02,
397,-6.00e-03,
398,1.60e-02,
399,-8.00e-03,
400,1.40e-02,
401,-8.00e-03,
402,-6.00e-03,
403,1.60e-02,
404,-6.00e-03,
405,1.80e-02,
406,-1.00e-02,
407,1.30e-01,
408,1.80e-02,
409,-1.00e-02,
410,-1.60e-02,
411,1.60e-02,
412,-8.00e-03,
413,1.60e-02,
414,-1.00e-02,
415,1.40e-02,
416,8.00e-03,
417,-1.00e-02,
418,-1.20e-02,
419,8.00e-03,
420,-1.60e-02,
421,1.60e-02,
422,-1.60e-02,
423,1.40e-02,
424,-6.00e-03,
425,1.60e-02,
426,-4.00e-03,
427,1.60e-02,
428,-4.00e-03,
429,1.80e-02,
430,-6.00e-03,
431,4.00e-02,
432,1.80e-02,
433,-6.00e-03,
434,-4.00e-03,
435,1.60e-02,
436,1.80e-02,
437,-6.00e-03,
438,-1.40e-02,
439,1.60e-02,
440,-1.60e-02,
441,1.00e-02,
442,-8.00e-03,
443,1.00e-02,
444,1.40e-02,
445,-1.60e-02,
446,-1.40e-02,
447,1.20e-02,
448,1.60e-02,
449,-1.60e-02,
450,-1.20e-02,
451,1.60e-02,
452,-6.00e-03,
453,1.80e-02,
454,-8.00e-03,
455,2.00e-02,
456,6.60e-02,
457,-8.00e-03,
458,-1.00e-02,
459,1.40e-02,
460,-1.20e-02,
461,1.40e-02,
462,1.40e-02,
463,-1.60e-02,
464,-1.60e-02,
465,1.40e-02,
466,8.00e-03,
467,-8.00e-03,
468,-4.00e-03,
469,1.00e-02,
470,-1.00e-02,
471,1.60e-02,
472,-1.00e-02,
473,1.40e-02,
474,1.60e-02,
475,-4.00e-03,
476,-4.00e-03,
477,1.20e-02,
478,-4.00e-03,
479,8.00e-03,
480,3.20e-02,
481,-1.40e-02,
482,-8.00e-03,
483,1.00e-02,
484,-8.00e-03,
485,1.20e-02,
486,1.80e-02,
487,-1.00e-02,
488,-8.00e-03,
489,1.60e-02,
490,1.40e-02,
491,-8.00e-03,
492,1.20e-02,
493,-1.60e-02,
494,-1.00e-02,
495,1.40e-02,
496,1.80e-02,
497,-6.00e-03,
498,1.20e-02,
499,-1.40e-02,
500,-1.40e-02,
501,1.40e-02,
502,-1.40e-02,
503,1.40e-02,
504,-4.80e-02,
505,1.40e-02,
506,-4.00e-03,
507,1.00e-02,
508,-4.00e-03,
509,1.60e-02,
510,-4.00e-03,
511,1.40e-02,
512,-4.00e-03,
513,1.80e-02,
514,-6.00e-03,
515,1.80e-02,
516,6.00e-03,
517,-1.60e-02,
518,6.00e-03,
519,-1.20e-02,
520,-8.00e-03,
521,8.00e-03,
522,8.00e-03,
523,-8.00e-03,
524,6.00e-03,
525,-8.00e-03,
526,6.00e-03,
527,-1.20e-02,
528,-1.40e-02,
529,3.40e-02,
530,8.00e-03,
531,-1.60e-02,
532,8.00e-03,
533,-1.20e-02,
534,-1.00e-02,
535,1.00e-02,
536,-8.00e-03,
537,1.20e-02,
538,1.80e-02,
539,-1.00e-02,
540,-4.00e-03,
541,1.60e-02,
542,-4.00e-03,
543,1.40e-02,
544,6.00e-03,
545,-1.00e-02,
546,1.40e-02,
547,-1.60e-02,
548,-4.00e-03,
549,1.00e-02,
550,-4.00e-03,
551,1.20e-02,
552,-4.00e-03,
553,5.00e-02,
554,6.00e-03,
555,-4.00e-03,
556,-4.00e-03,
557,1.20e-02,
558,-4.00e-03,
559,8.00e-03,
560,-8.00e-03,
561,1.60e-02,
562,-1.00e-02,
563,1.80e-02,
564,-6.00e-03,
565,1.80e-02,
566,-8.00e-03,
567,1.80e-02,
568,1.00e-02,
569,-6.00e-03,
570,1.80e-02,
571,-1.60e-02,
572,-8.00e-03,
573,8.00e-03,
574,8.00e-03,
575,-8.00e-03,
576,-1.00e-02,
577,1.20e-02,
578,6.60e-02,
579,-3.60e-02,
580,-1.20e-02,
581,1.00e-02,
582,-1.40e-02,
583,1.40e-02,
584,8.00e-03,
585,-1.40e-02,
586,-4.00e-03,
587,8.00e-03,
588,-4.00e-03,
589,1.40e-02,
590,-6.00e-03,
591,1.80e-02,
592,-4.00e-03,
593,1.60e-02,
594,-6.00e-03,
595,6.00e-03,
596,1.00e-02,
597,-6.00e-03,
598,1.00e-02,
599,-1.00e-02,
600,-1.40e-02,
601,1.00e-02,
602,-8.00e-03,
603,1.18e-01,
604,1.20e-02,
605,-1.20e-02,
606,-1.80e-02,
607,1.40e-02,
608,1.20e-02,
609,-1.40e-02,
610,-1.40e-02,
611,8.00e-03,
612,-8.00e-03,
613,1.80e-02,
614,1.60e-02,
615,-8.00e-03,
616,1.60e-02,
617,-8.00e-03,
618,-4.00e-03,
619,1.20e-02,
620,-8.00e-03,
621,1.20e-02,
622,-6.00e-03,
623,8.00e-03,
624,-1.60e-02,
625,1.20e-02,
626,-6.00e-03,
627,2.80e-02,
628,-4.00e-03,
629,1.00e-02,
630,-4.00e-03,
631,1.20e-02,
632,-4.00e-03,
633,1.00e-02,
634,-4.00e-03,
635,1.00e-02,
636,6.00e-03,
637,-1.20e-02,
638,-1.20e-02,
639,1.20e-02,
640,-1.40e-02,
641,1.60e-02,
642,-1.00e-02,
643,1.40e-02,
644,-1.00e-02,
645,1.60e-02,
646,1.60e-02,
647,-8.00e-03,
648,2.00e-02,
649,-6.00e-03,
650,1.78e-01,
651,-4.00e-02,
652,1.80e-02,
653,-1.00e-02,
654,1.60e-02,
655,-1.00e-02,
656,1.20e-02,
657,-1.00e-02,
658,1.00e-02,
659,-1.20e-02,
660,6.00e-03,
661,-1.40e-02,
662,-1.20e-02,
663,1.40e-02,
664,-4.00e-03,
665,1.60e-02,
666,1.40e-02,
667,-6.00e-03,
668,-6.00e-03,
669,1.60e-02,
670,-4.00e-03,
671,1.80e-02,
672,-1.00e-02,
673,1.80e-02,
674,2.00e-02,
675,-6.00e-03,
676,3.60e-02,
677,-6.00e-03,
678,-1.40e-02,
679,1.20e-02,
680,1.20e-02,
681,-1.00e-02,
682,1.40e-02,
683,-1.00e-02,
684,8.00e-03,
685,-1.20e-02,
686,-1.00e-02,
687,8.00e-03,
688,-1.40e-02,
689,1.40e-02,
690,-1.40e-02,
691,1.40e-02,
692,-1.60e-02,
693,1.40e-02,
694,-1.00e-02,
695,1.40e-02,
696,-6.00e-03,
697,1.80e-02,
698,-1.00e-02,
699,1.40e-02,
700,-4.00e-03,
701,2.60e-02,
702,2.00e-02,
703,-6.00e-03,
704,-4.00e-03,
705,1.20e-02,
706,-1.40e-02,
707,1.60e-02,
708,-1.60e-02,
709,6.00e-03,
710,6.00e-03,
711,-8.00e-03,
712,-6.00e-03,
713,1.20e-02,
714,-4.00e-03,
715,1.40e-02,
716,-4.00e-03,
717,1.60e-02,
718,1.60e-02,
719,-1.20e-02,
720,-8.00e-03,
721,1.40e-02,
722,1.80e-02,
723,-1.00e-02,
724,-1.34e-01,
725,8.00e-02,
726,-1.00e-02,
727,1.60e-02,
728,1.20e-02,
729,-1.00e-02,
730,-1.20e-02,
731,1.80e-02,
732,-1.40e-02,
733,1.40e-02,
734,1.00e-02,
735,-8.00e-03,
736,6.00e-03,
737,-8.00e-03,
738,-8.00e-03,
739,1.20e-02,
740,1.60e-02,
741,-1.00e-02,
742,-1.60e-02,
743,1.60e-02,
744,-4.00e-03,
745,1.60e-02,
746,1.40e-02,
747,-6.00e-03,
748,1.20e-02,
749,-9.80e-02,
750,-4.00e-03,
751,1.20e-02,
752,-8.00e-03,
753,8.00e-03,
754,6.00e-03,
755,-1.00e-02,
756,1.80e-02,
757,-6.00e-03,
758,-8.00e-03,
759,1.60e-02,
760,1.00e-02,
761,-1.20e-02,
762,-1.60e-02,
763,1.00e-02,
764,-1.00e-02,
765,1.60e-02,
766,1.40e-02,
767,-1.40e-02,
768,-1.40e-02,
769,1.40e-02,
770,1.60e-02,
771,-1.60e-02,
772,1.88e-01,
773,-2.20e-02,
774,1.20e-02,
775,-1.00e-02,
776,-1.00e-02,
777,1.40e-02,
778,1.00e-02,
779,-1.00e-02,
780,-8.00e-03,
781,2.00e-02,
782,-8.00e-03,
783,1.80e-02,
784,6.00e-03,
785,-8.00e-03,
786,-1.60e-02,
787,6.00e-03,
788,8.00e-03,
789,-8.00e-03,
790,-4.00e-03,
791,1.60e-02,
792,4.00e-03,
793,-1.00e-02,
794,-1.00e-02,
795,1.20e-02,
796,-4.00e-03,
797,8.00e-03,
798,1.00e-02,
799,-5.60e-02,
800,-1.80e-02,
801,8.00e-03,
802,-1.20e-02,
803,8.00e-03,
804,8.00e-03,
805,-8.00e-03,
806,-1.20e-02,
807,2.00e-02,
808,-6.00e-03,
809,2.00e-02,
810,1.60e-02,
811,-6.00e-03,
812,1.20e-02,
813,-8.00e-03,
814,-1.20e-02,
815,1.00e-02,
816,-1.20e-02,
817,8.00e-03,
818,-1.00e-02,
819,8.00e-03,
820,1.00e-02,
821,-1.80e-02,
822,-1.00e-02,
823,7.40e-02,
824,-4.00e-03,
825,1.00e-02,
826,-4.00e-03,
827,1.20e-02,
828,8.00e-03,
829,-6.00e-03,
830,-4.00e-03,
831,1.60e-02,
832,1.60e-02,
833,-8.00e-03,
834,-6.00e-03,
835,1.60e-02,
836,1.40e-02,
837,-6.00e-03,
838,-1.40e-02,
839,1.40e-02,
840,-1.20e-02,
841,1.20e-02,
842,-6.00e-03,
843,6.00e-03,
844,-8.00e-03,
845,1.00e-02,
846,1.82e-01,
847,-1.06e-01,
848,-1.20e-02,
849,1.20e-02,
850,1.00e-02,
851,-1.80e-02,
852,-1.60e-02,
853,8.00e-03,
854,-1.40e-02,
855,6.00e-03,
856,-8.00e-03,
857,1.60e-02,
858,-8.00e-03,
859,1.80e-02,
860,-4.00e-03,
861,1.60e-02,
862,-6.00e-03,
863,1.60e-02,
864,-8.00e-03,
865,1.40e-02,
866,6.00e-03,
867,-6.00e-03,
868,1.20e-02,
869,-6.00e-03,
870,-6.00e-03,
871,9.80e-02,
872,-4.00e-03,
873,1.00e-02,
874,-4.00e-03,
875,1.20e-02,
876,-4.00e-03,
877,1.20e-02,
878,1.00e-02,
879,-1.40e-02,
880,-1.00e-02,
881,1.40e-02,
882,1.80e-02,
883,-8.00e-03,
884,-8.00e-03,
885,2.00e-02,
886,-6.00e-03,
887,1.40e-02,
888,1.20e-02,
889,-1.20e-02,
890,1.40e-02,
891,-6.00e-03,
892,2.00e-02,
893,-1.60e-02,
894,-8.00e-03,
895,1.00e-02,
896,1.38e-01,
897,-1.40e-02,
898,1.20e-02,
899,-1.40e-02,
900,-1.20e-02,
901,1.00e-02,
902,1.00e-02,
903,-4.00e-03,
904,-1.80e-02,
905,8.00e-03,
906,-4.00e-03,
907,1.20e-02,
908,-4.00e-03,
909,1.40e-02,
910,-4.00e-03,
911,1.60e-02,
912,-6.00e-03,
913,1.20e-02,
914,-4.00e-03,
915,1.60e-02,
916,-6.00e-03,
917,8.00e-03,
918,-6.00e-03,
919,1.60e-02,
920,5.00e-02,
921,-1.00e-02,
922,-1.60e-02,
923,1.40e-02,
924,-1.00e-02,
925,1.40e-02,
926,1.40e-02,
927,-1.20e-02,
928,8.00e-03,
929,-1.60e-02,
930,-1.40e-02,
931,1.00e-02,
932,1.20e-02,
933,-1.40e-02,
934,-8.00e-03,
935,1.40e-02,
936,1.40e-02,
937,-1.00e-02,
938,-8.00e-03,
939,1.80e-02,
940,-8.00e-03,
941,1.40e-02,
942,-8.00e-03,
943,1.60e-02,
944,-4.00e-03,
945,3.00e-02,
946,-8.00e-03,
947,1.80e-02,
948,-4.00e-03,
949,1.20e-02,
950,-4.00e-03,
951,1.20e-02,
952,-4.00e-03,
953,1.00e-02,
954,6.00e-03,
955,-4.00e-03,
956,1.00e-02,
957,-6.00e-03,
958,1.40e-02,
959,-1.40e-02,
960,-1.60e-02,
961,1.60e-02,
962,-1.40e-02,
963,1.60e-02,
964,-6.00e-03,
965,2.00e-02,
966,-8.00e-03,
967,1.80e-02,
968,-7.40e-02,
969,3.20e-02,
970,2.00e-02,
971,-6.00e-03,
972,-8.00e-03,
973,1.60e-02,
974,1.20e-02,
975,-1.20e-02,
976,-1.60e-02,
977,1.40e-02,
978,1.40e-02,
979,-1.20e-02,
980,-1.40e-02,
981,1.00e-02,
982,-1.40e-02,
983,1.60e-02,
984,-4.00e-03,
985,1.60e-02,
986,-4.00e-03,
987,1.60e-02,
988,-4.00e-03,
989,1.80e-02,
990,-8.00e-03,
991,1.60e-02,
992,-4.00e-03,
993,2.00e-02,
994,1.80e-01,
995,-3.40e-02,
996,-4.00e-03,
997,1.40e-02,
998,1.40e-02,
999,-1.20e-02,
1000,-1.60e-02,
1001,1.60e-02,
1002,-8.00e-03,
1003,1.00e-02,
1004,6.00e-03,
1005,-1.00e-02,
1006,-8.00e-03,
1007,1.00e-02,
1008,-8.00e-03,
1009,1.20e-02,
1010,-1.40e-02,
1011,1.40e-02,
1012,-1.20e-02,
1013,1.80e-02,
1014,-1.60e-02,
1015,1.40e-02,
1016,-1.20e-02,
1017,1.20e-02,
1018,7.20e-02,
1019,-4.80e-02,
1020,-8.00e-03,
1021,1.80e-02,
1022,1.00e-02,
1023,-1.00e-02,
1024,-4.00e-03,
1025,1.80e-02,
1026,-4.00e-03,
1027,2.00e-02,
1028,-4.00e-03,
1029,1.60e-02,
1030,-6.00e-03,
1031,6.00e-03,
1032,-6.00e-03,
1033,1.80e-02,
1034,-4.00e-03,
1035,1.60e-02,
1036,-4.00e-03,
1037,1.60e-02,
1038,-1.40e-02,
1039,1.60e-02,
1040,1.60e-02,
1041,-1.40e-02,
1042,1.82e-01,
1043,-1.40e-02,
1044,-1.00e-02,
1045,1.40e-02,
1046,8.00e-03,
1047,-8.00e-03,
1048,-6.00e-03,
1049,1.60e-02,
1050,-1.00e-02,
1051,1.80e-02,
1052,-1.20e-02,
1053,1.60e-02,
1054,-1.60e-02,
1055,1.20e-02,
1056,-6.00e-03,
1057,1.00e-02,
1058,-1.00e-02,
1059,1.20e-02,
1060,1.40e-02,
1061,-8.00e-03,
1062,1.00e-02,
1063,-8.00e-03,
1064,-4.00e-03,
1065,8.00e-03,
1066,-4.00e-03,
1067,9.60e-02,
1068,-4.00e-03,
1069,8.00e-03,
1070,8.00e-03,
1071,-1.20e-02,
1072,-4.00e-03,
1073,8.00e-03,
1074,-6.00e-03,
1075,1.60e-02,
1076,-4.00e-03,
1077,2.00e-02,
1078,-6.00e-03,
1079,1.80e-02,
1080,1.20e-02,
1081,-6.00e-03,
1082,1.00e-02,
1083,-1.40e-02,
1084,-1.20e-02,
1085,1.60e-02,
1086,-1.00e-02,
1087,1.40e-02,
1088,1.20e-02,
1089,-1.40e-02,
1090,-1.40e-02,
1091,1.00e-02,
1092,2.24e-01,
1093,-1.80e-02,
1094,8.00e-03,
1095,-1.20e-02,
1096,8.00e-03,
1097,-8.00e-03,
1098,-8.00e-03,
1099,1.40e-02,
1100,1.60e-02,
1101,-8.00e-03,
1102,-4.00e-03,
1103,1.60e-02,
1104,1.60e-02,
1105,-8.00e-03,
1106,8.00e-03,
1107,-1.60e-02,
1108,-4.00e-03,
1109,1.20e-02,
1110,-4.00e-03,
1111,8.00e-03,
1112,-4.00e-03,
1113,6.00e-03,
1114,-6.00e-03,
1115,1.00e-02,
1116,-4.00e-03,
1117,3.80e-02,
1118,-1.40e-02,
1119,1.20e-02,
1120,-1.40e-02,
1121,1.00e-02,
1122,-1.60e-02,
1123,8.00e-03,
1124,-1.00e-02,
1125,1.00e-02,
1126,-1.00e-02,
1127,1.80e-02,
1128,-6.00e-03,
1129,2.00e-02,
1130,-8.00e-03,
1131,1.80e-02,
1132,1.20e-02,
1133,-6.00e-03,
1134,1.20e-02,
1135,-6.00e-03,
1136,-1.60e-02,
1137,1.20e-02,
1138,-1.00e-02,
1139,8.00e-03,
1140,-1.16e-01,
1141,1.40e-01,
1142,-1.40e-02,
1143,1.40e-02,
1144,1.00e-02,
1145,-4.00e-03,
1146,-4.00e-03,
1147,1.00e-02,
1148,-4.00e-03,
1149,8.00e-03,
1150,-4.00e-03,
1151,1.80e-02,
1152,-4.00e-03,
1153,1.80e-02,
1154,6.00e-03,
1155,-6.00e-03,
1156,1.20e-02,
1157,-6.00e-03,
1158,1.00e-02,
1159,-6.00e-03,
1160,1.60e-02,
1161,-1.40e-02,
1162,-8.00e-03,
1163,1.20e-02,
1164,-8.00e-03,
1165,1.02e-01,
1166,-1.00e-02,
1167,1.00e-02,
1168,-1.40e-02,
1169,1.00e-02,
1170,1.00e-02,
1171,-1.60e-02,
1172,8.00e-03,
1173,-1.60e-02,
1174,-1.20e-02,
1175,8.00e-03,
1176,1.40e-02,
1177,-1.40e-02,
1178,-1.20e-02,
1179,1.60e-02,
1180,-1.00e-02,
1181,1.80e-02,
1182,1.60e-02,
1183,-8.00e-03,
1184,-6.00e-03,
1185,8.00e-03,
1186,1.40e-02,
1187,-6.00e-03,
1188,1.80e-02,
1189,-6.00e-03,
1190,2.56e-01,
1191,-1.00e-02,
1192,-8.00e-03,
1193,1.40e-02,
1194,-4.00e-03,
1195,1.40e-02,
1196,-4.00e-03,
1197,1.40e-02,
1198,-1.20e-02,
1199,1.00e-02,
