Motor_Data/MOTOR_1_ON/time domain/NewFile48.csv

X,CH2,Start,Increment,
Sequence,Volt,-3.000000e-02,5.000000e-05
0,4.40e-02,
1,-2.60e-02,
2,3.40e-02,
3,-2.20e-02,
4,4.40e-02,
5,-5.80e-02,
6,3.40e-02,
7,-5.80e-02,
8,-4.40e-02,
9,3.00e-02,
10,2.80e-02,
11,-2.40e-02,
12,2.20e-02,
13,-3.40e-02,
14,2.40e-02,
15,-4.40e-02,
16,-4.40e-02,
17,2.00e-02,
18,-3.40e-02,
19,3.00e-02,
20,-8.20e-02,
21,2.98e-01,
22,4.00e-02,
23,-1.60e-02,
24,-2.60e-02,
25,3.80e-02,
26,8.00e-03,
27,-2.40e-02,
28,-2.00e-02,
29,1.00e-02,
30,8.00e-03,
31,-4.60e-02,
32,-5.40e-02,
33,8.00e-03,
34,8.00e-03,
35,-4.20e-02,
36,-3.60e-02,
37,8.00e-03,
38,2.40e-02,
39,-1.00e-02,
40,2.60e-02,
41,-3.20e-02,
42,2.60e-02,
43,-3.60e-02,
44,1.02e-01,
45,-9.20e-02,
46,4.20e-02,
47,-2.00e-02,
48,3.80e-02,
49,-3.60e-02,
50,-3.40e-02,
51,3.80e-02,
52,-2.00e-02,
53,4.80e-02,
54,4.60e-02,
55,-5.00e-02,
56,3.60e-02,
57,-5.20e-02,
58,4.80e-02,
59,-4.00e-02,
60,3.40e-02,
61,-2.20e-02,
62,2.20e-02,
63,-2.20e-02,
64,2.20e-02,
65,-2.40e-02,
66,-8.00e-03,
67,2.60e-02,
68,-2.20e-02,
69,2.98e-01,
70,-1.60e-02,
71,2.80e-02,
72,-4.00e-02,
73,1.00e-02,
74,8.00e-03,
75,-3.80e-02,
76,-2.80e-02,
77,1.00e-02,
78,-2.20e-02,
79,8.00e-03,
80,4.00e-02,
81,-4.60e-02,
82,4.80e-02,
83,-5.00e-02,
84,4.20e-02,
85,-4.40e-02,
86,3.40e-02,
87,-4.20e-02,
88,3.20e-02,
89,-4.00e-02,
90,3.20e-02,
91,-5.00e-02,
92,-5.80e-02,
93,2.40e-02,
94,3.00e-02,
95,-4.60e-02,
96,3.00e-02,
97,-5.40e-02,
98,-4.80e-02,
99,2.80e-02,
100,-4.20e-02,
101,3.80e-02,
102,3.60e-02,
103,-2.00e-02,
104,4.00e-02,
105,-5.00e-02,
106,4.80e-02,
107,-5.00e-02,
108,8.00e-03,
109,-4.00e-02,
110,-3.40e-02,
111,8.00e-03,
112,8.00e-03,
113,-3.00e-02,
114,-3.20e-02,
115,3.40e-02,
116,-1.20e-02,
117,3.40e-02,
118,-9.80e-02,
119,2.80e-02,
120,2.60e-02,
121,-5.00e-02,
122,-5.00e-02,
123,2.40e-02,
124,-4.00e-02,
125,3.00e-02,
126,-2.40e-02,
127,3.20e-02,
128,3.20e-02,
129,-2.40e-02,
130,4.00e-02,
131,-4.20e-02,
132,3.40e-02,
133,-5.00e-02,
134,-4.80e-02,
135,4.40e-02,
136,4.80e-02,
137,-4.80e-02,
138,3.80e-02,
139,-5.40e-02,
140,3.60e-02,
141,-4.60e-02,
142,1.56e-01,
143,-2.04e-01,
144,3.00e-02,
145,-5.00e-02,
146,2.20e-02,
147,-3.80e-02,
148,2.20e-02,
149,-5.40e-02,
150,-1.00e-02,
151,3.20e-02,
152,3.00e-02,
153,-2.20e-02,
154,8.00e-03,
155,-4.40e-02,
156,8.00e-03,
157,-5.20e-02,
158,-4.20e-02,
159,8.00e-03,
160,4.80e-02,
161,-3.80e-02,
162,3.80e-02,
163,-4.20e-02,
164,4.20e-02,
165,-5.40e-02,
166,2.98e-01,
167,-2.12e-01,
168,2.80e-02,
169,-5.40e-02,
170,-5.20e-02,
171,2.00e-02,
172,-5.40e-02,
173,2.40e-02,
174,-4.80e-02,
175,2.60e-02,
176,-3.00e-02,
177,3.20e-02,
178,2.40e-02,
179,-2.60e-02,
180,2.40e-02,
181,-4.40e-02,
182,3.80e-02,
183,-5.00e-02,
184,4.20e-02,
185,-5.00e-02,
186,-4.60e-02,
187,3.60e-02,
188,3.80e-02,
189,-3.80e-02,
190,6.00e-02,
191,-4.80e-02,
192,8.00e-03,
193,-4.20e-02,
194,8.00e-03,
195,-2.40e-02,
196,1.40e-02,
197,-4.40e-02,
198,-5.20e-02,
199,2.40e-02,
200,-4.60e-02,
201,3.00e-02,
202,2.20e-02,
203,-3.00e-02,
204,2.20e-02,
205,-5.20e-02,
206,-5.40e-02,
207,3.80e-02,
208,4.20e-02,
209,-5.40e-02,
210,-4.80e-02,
211,3.20e-02,
212,3.80e-02,
213,-5.00e-02,
214,-5.20e-02,
215,2.98e-01,
216,3.80e-02,
217,-5.00e-02,
218,-3.40e-02,
219,4.40e-02,
220,-4.00e-02,
221,4.20e-02,
222,2.40e-02,
223,-5.60e-02,
224,-5.60e-02,
225,2.60e-02,
226,-3.80e-02,
227,3.00e-02,
228,2.60e-02,
229,-2.40e-02,
230,-8.00e-03,
231,2.40e-02,
232,-8.00e-03,
233,2.40e-02,
234,-1.00e-02,
235,2.60e-02,
236,-2.00e-02,
237,4.00e-02,
238,4.20e-02,
239,-2.60e-02,
240,3.60e-02,
241,-1.80e-02,
242,4.80e-02,
243,-2.00e-02,
244,4.80e-02,
245,-1.80e-02,
246,3.80e-02,
247,-3.40e-02,
248,3.40e-02,
249,-5.20e-02,
250,3.40e-02,
251,-4.80e-02,
252,2.40e-02,
253,-4.00e-02,
254,2.20e-02,
255,-3.80e-02,
256,-5.40e-02,
257,2.00e-02,
258,2.20e-02,
259,-5.20e-02,
260,-4.80e-02,
261,4.00e-02,
262,-2.12e-01,
263,1.32e-01,
264,3.40e-02,
265,-3.40e-02,
266,-3.00e-02,
267,4.60e-02,
268,4.80e-02,
269,-1.40e-02,
270,1.60e-02,
271,-3.00e-02,
272,-5.00e-02,
273,1.00e-02,
274,-5.00e-02,
275,1.00e-02,
276,8.00e-03,
277,-3.60e-02,
278,-2.80e-02,
279,1.00e-02,
280,-2.20e-02,
281,2.80e-02,
282,2.60e-02,
283,-2.40e-02,
284,3.20e-02,
285,-3.20e-02,
286,2.98e-01,
287,-2.12e-01,
288,3.40e-02,
289,-2.20e-02,
290,3.80e-02,
291,-2.80e-02,
292,4.00e-02,
293,-3.20e-02,
294,-1.80e-02,
295,3.60e-02,
296,4.20e-02,
297,-3.40e-02,
298,4.60e-02,
299,-5.00e-02,
300,3.40e-02,
301,-3.80e-02,
302,3.40e-02,
303,-3.80e-02,
304,3.00e-02,
305,-3.20e-02,
306,-3.40e-02,
307,2.00e-02,
308,-3.00e-02,
309,2.20e-02,
310,-3.60e-02,
311,1.60e-02,
312,2.98e-01,
313,-3.40e-02,
314,1.60e-02,
315,-4.40e-02,
316,-3.80e-02,
317,3.60e-02,
318,-3.40e-02,
319,1.60e-02,
320,5.00e-02,
321,-3.20e-02,
322,4.80e-02,
323,-5.40e-02,
324,-4.60e-02,
325,3.80e-02,
326,-4.40e-02,
327,4.60e-02,
328,3.40e-02,
329,-3.40e-02,
330,-2.80e-02,
331,3.00e-02,
332,3.20e-02,
333,-4.20e-02,
334,2.80e-02,
335,-4.60e-02,
336,4.60e-02,
337,-2.12e-01,
338,-3.40e-02,
339,3.20e-02,
340,-4.20e-02,
341,3.00e-02,
342,3.40e-02,
343,-2.20e-02,
344,3.80e-02,
345,-2.00e-02,
346,3.40e-02,
347,-4.20e-02,
348,-5.00e-02,
349,8.00e-03,
350,1.00e-02,
351,-4.20e-02,
352,-3.40e-02,
353,8.00e-03,
354,1.20e-02,
355,-3.00e-02,
356,1.00e-02,
357,-3.80e-02,
358,-3.20e-02,
359,2.80e-02,
360,5.00e-02,
361,-2.12e-01,
362,-5.20e-02,
363,2.60e-02,
364,2.40e-02,
365,-4.60e-02,
366,-4.80e-02,
367,2.80e-02,
368,-4.00e-02,
369,4.00e-02,
370,3.60e-02,
371,-2.40e-02,
372,3.40e-02,
373,-4.60e-02,
374,-5.00e-02,
375,4.80e-02,
376,4.60e-02,
377,-4.60e-02,
378,-4.40e-02,
379,3.60e-02,
380,4.20e-02,
381,-5.00e-02,
382,3.20e-02,
383,-5.80e-02,
384,-4.60e-02,
385,5.40e-02,
386,8.00e-03,
387,-5.60e-02,
388,1.00e-02,
389,-5.00e-02,
390,-5.20e-02,
391,2.20e-02,
392,-1.00e-02,
393,3.20e-02,
394,3.40e-02,
395,-8.00e-03,
396,1.40e-02,
397,-3.20e-02,
398,1.40e-02,
399,-5.00e-02,
400,3.80e-02,
401,-4.80e-02,
402,-4.40e-02,
403,4.20e-02,
404,5.00e-02,
405,-4.60e-02,
406,4.40e-02,
407,-5.00e-02,
408,-2.12e-01,
409,5.20e-02,
410,-5.00e-02,
411,3.60e-02,
412,3.00e-02,
413,-3.80e-02,
414,-4.80e-02,
415,2.00e-02,
416,-5.00e-02,
417,2.60e-02,
418,-4.20e-02,
419,2.80e-02,
420,3.00e-02,
421,-3.00e-02,
422,4.00e-02,
423,-4.60e-02,
424,3.60e-02,
425,-5.40e-02,
426,3.60e-02,
427,-5.20e-02,
428,-5.20e-02,
429,8.00e-03,
430,-4.60e-02,
431,8.00e-03,
432,-2.12e-01,
433,3.20e-02,
434,8.00e-03,
435,-5.20e-02,
436,-3.00e-02,
437,8.00e-03,
438,1.00e-02,
439,-4.40e-02,
440,-5.20e-02,
441,2.40e-02,
442,-4.20e-02,
443,2.80e-02,
444,2.60e-02,
445,-2.40e-02,
446,2.60e-02,
447,-3.40e-02,
448,-5.20e-02,
449,3.40e-02,
450,-5.40e-02,
451,3.60e-02,
452,4.00e-02,
453,-5.00e-02,
454,3.20e-02,
455,-5.00e-02,
456,-5.40e-02,
457,2.98e-01,
458,4.60e-02,
459,-4.80e-02,
460,4.20e-02,
461,-1.80e-02,
462,3.40e-02,
463,-2.00e-02,
464,3.40e-02,
465,-5.00e-02,
466,-1.40e-02,
467,2.60e-02,
468,-8.00e-03,
469,3.00e-02,
470,1.60e-02,
471,-3.00e-02,
472,1.20e-02,
473,-4.20e-02,
474,2.40e-02,
475,-5.20e-02,
476,-5.20e-02,
477,1.40e-02,
478,1.00e-02,
479,-3.40e-02,
480,-1.40e-01,
481,1.32e-01,
482,-4.20e-02,
483,4.80e-02,
484,4.60e-02,
485,-1.60e-02,
486,3.80e-02,
487,-1.80e-02,
488,4.60e-02,
489,-5.00e-02,
490,3.00e-02,
491,-5.40e-02,
492,-4.40e-02,
493,3.20e-02,
494,-2.80e-02,
495,3.00e-02,
496,2.40e-02,
497,-3.20e-02,
498,-4.40e-02,
499,2.40e-02,
500,2.40e-02,
501,-4.80e-02,
502,2.40e-02,
503,-4.60e-02,
504,-3.40e-02,
505,4.00e-02,
506,-1.80e-02,
507,4.20e-02,
508,8.00e-03,
509,-1.80e-02,
510,-2.00e-02,
511,8.00e-03,
512,1.00e-02,
513,-2.40e-02,
514,8.00e-03,
515,-4.00e-02,
516,-5.20e-02,
517,8.00e-03,
518,-4.80e-02,
519,8.00e-03,
520,-3.60e-02,
521,3.00e-02,
522,2.00e-02,
523,-3.00e-02,
524,-2.60e-02,
525,2.00e-02,
526,-3.20e-02,
527,2.60e-02,
528,3.60e-02,
529,-4.00e-02,
530,-5.80e-02,
531,2.98e-01,
532,3.40e-02,
533,-3.20e-02,
534,-3.40e-02,
535,4.20e-02,
536,-2.40e-02,
537,5.00e-02,
538,4.20e-02,
539,-4.20e-02,
540,4.00e-02,
541,-5.40e-02,
542,4.60e-02,
543,-4.60e-02,
544,-3.40e-02,
545,3.40e-02,
546,-2.40e-02,
547,2.40e-02,
548,2.60e-02,
549,-2.60e-02,
550,8.00e-03,
551,-2.40e-02,
552,2.00e-02,
553,-2.40e-02,
554,3.20e-02,
555,-7.20e-02,
556,1.20e-02,
557,-3.60e-02,
558,1.40e-02,
559,-3.00e-02,
560,3.80e-02,
561,-2.60e-02,
562,3.60e-02,
563,-1.80e-02,
564,4.60e-02,
565,-4.80e-02,
566,4.80e-02,
567,-5.20e-02,
568,3.40e-02,
569,-4.40e-02,
570,3.40e-02,
571,-4.20e-02,
572,3.20e-02,
573,-4.00e-02,
574,-4.20e-02,
575,3.20e-02,
576,-5.00e-02,
577,2.80e-02,
578,-2.08e-01,
579,2.98e-01,
580,-4.60e-02,
581,3.40e-02,
582,-4.60e-02,
583,3.80e-02,
584,4.40e-02,
585,-4.20e-02,
586,3.20e-02,
587,-1.60e-02,
588,1.00e-02,
589,-4.20e-02,
590,-5.20e-02,
591,1.00e-02,
592,-4.60e-02,
593,1.60e-02,
594,3.60e-02,
595,-3.80e-02,
596,-4.00e-02,
597,8.00e-03,
598,-2.60e-02,
599,3.00e-02,
600,-3.60e-02,
601,3.40e-02,
602,2.98e-01,
603,-1.12e-01,
604,2.60e-02,
605,-4.40e-02,
606,-4.80e-02,
607,2.80e-02,
608,-4.40e-02,
609,2.80e-02,
610,3.40e-02,
611,-3.00e-02,
612,-1.80e-02,
613,3.60e-02,
614,4.20e-02,
615,-4.20e-02,
616,-5.20e-02,
617,3.80e-02,
618,-4.60e-02,
619,4.60e-02,
620,4.80e-02,
621,-4.40e-02,
622,3.60e-02,
623,-4.40e-02,
624,-5.20e-02,
625,3.20e-02,
626,8.60e-02,
627,-1.24e-01,
628,3.00e-02,
629,-1.20e-02,
630,-5.40e-02,
631,1.60e-02,
632,-5.20e-02,
633,2.80e-02,
634,-4.80e-02,
635,3.40e-02,
636,2.00e-02,
637,-3.00e-02,
638,1.60e-02,
639,-4.40e-02,
640,-5.00e-02,
641,2.80e-02,
642,-4.20e-02,
643,4.40e-02,
644,4.80e-02,
645,-3.40e-02,
646,3.60e-02,
647,-3.80e-02,
648,-4.40e-02,
649,4.60e-02,
650,-5.00e-02,
651,5.40e-02,
652,3.00e-02,
653,-5.60e-02,
654,2.00e-02,
655,-4.20e-02,
656,2.60e-02,
657,-5.00e-02,
658,2.80e-02,
659,-5.00e-02,
660,-4.40e-02,
661,3.20e-02,
662,3.00e-02,
663,-1.80e-02,
664,2.40e-02,
665,-2.80e-02,
666,3.40e-02,
667,-4.40e-02,
668,8.00e-03,
669,-5.00e-02,
670,3.40e-02,
671,-4.40e-02,
672,-4.00e-02,
673,8.00e-03,
674,-2.20e-02,
675,1.80e-02,
676,-5.00e-02,
677,8.00e-03,
678,8.00e-03,
679,-3.80e-02,
680,3.40e-02,
681,-2.80e-02,
682,2.20e-02,
683,-5.60e-02,
684,-5.00e-02,
685,3.00e-02,
686,-3.60e-02,
687,2.60e-02,
688,2.40e-02,
689,-4.20e-02,
690,-5.00e-02,
691,4.00e-02,
692,3.60e-02,
693,-4.80e-02,
694,-4.80e-02,
695,3.40e-02,
696,-4.60e-02,
697,4.60e-02,
698,4.60e-02,
699,-5.00e-02,
700,2.98e-01,
701,-2.12e-01,
702,-4.20e-02,
703,5.00e-02,
704,3.40e-02,
705,-3.60e-02,
706,1.00e-02,
707,-5.60e-02,
708,2.40e-02,
709,-1.40e-02,
710,-1.00e-02,
711,3.00e-02,
712,-2.60e-02,
713,1.60e-02,
714,2.20e-02,
715,-2.80e-02,
716,1.40e-02,
717,-3.40e-02,
718,-3.00e-02,
719,3.00e-02,
720,-2.00e-02,
721,3.80e-02,
722,4.00e-02,
723,-1.60e-02,
724,-2.12e-01,
725,1.28e-01,
726,-2.20e-02,
727,4.80e-02,
728,4.60e-02,
729,-2.20e-02,
730,3.40e-02,
731,-2.40e-02,
732,3.60e-02,
733,-5.20e-02,
734,3.20e-02,
735,-5.00e-02,
736,-4.20e-02,
737,2.60e-02,
738,2.40e-02,
739,-4.20e-02,
740,2.20e-02,
741,-5.60e-02,
742,2.40e-02,
743,-5.00e-02,
744,-5.00e-02,
745,4.20e-02,
746,3.60e-02,
747,-3.40e-02,
748,1.00e-02,
749,-2.12e-01,
750,-2.00e-02,
751,1.00e-02,
752,8.00e-03,
753,-2.20e-02,
754,8.00e-03,
755,-2.20e-02,
756,8.00e-03,
757,-4.80e-02,
758,-5.20e-02,
759,2.80e-02,
760,-4.00e-02,
761,2.60e-02,
762,2.60e-02,
763,-3.00e-02,
764,-2.40e-02,
765,2.60e-02,
766,2.60e-02,
767,-2.60e-02,
768,-2.60e-02,
769,2.60e-02,
770,2.80e-02,
771,-2.20e-02,
772,2.98e-01,
773,-1.36e-01,
774,-1.80e-02,
775,3.80e-02,
776,4.20e-02,
777,-2.60e-02,
778,-2.00e-02,
779,3.80e-02,
780,4.80e-02,
781,-3.20e-02,
782,4.20e-02,
783,-5.00e-02,
784,3.40e-02,
785,-4.40e-02,
786,-3.60e-02,
787,1.00e-02,
788,8.00e-03,
789,-3.80e-02,
790,-3.60e-02,
791,2.00e-02,
792,-4.00e-02,
793,1.80e-02,
794,-3.80e-02,
795,1.40e-02,
796,9.40e-02,
797,-5.40e-02,
798,4.20e-02,
799,-3.80e-02,
800,3.60e-02,
801,-4.00e-02,
802,-3.60e-02,
803,3.80e-02,
804,4.60e-02,
805,-2.00e-02,
806,4.60e-02,
807,-5.00e-02,
808,-5.60e-02,
809,3.40e-02,
810,5.00e-02,
811,-4.20e-02,
812,3.00e-02,
813,-3.80e-02,
814,2.80e-02,
815,-2.80e-02,
816,-3.20e-02,
817,3.00e-02,
818,2.80e-02,
819,-4.20e-02,
820,-4.80e-02,
821,2.40e-02,
822,3.00e-02,
823,-3.40e-02,
824,3.00e-02,
825,-3.80e-02,
826,3.00e-02,
827,-3.40e-02,
828,1.00e-02,
829,-1.80e-02,
830,8.00e-03,
831,-2.20e-02,
832,8.00e-03,
833,-4.60e-02,
834,8.00e-03,
835,-4.80e-02,
836,-4.20e-02,
837,1.40e-02,
838,-3.20e-02,
839,3.00e-02,
840,-4.20e-02,
841,3.00e-02,
842,2.80e-02,
843,-3.20e-02,
844,-4.80e-02,
845,5.20e-02,
846,2.60e-02,
847,-5.20e-02,
848,2.80e-02,
849,-5.20e-02,
850,-5.00e-02,
851,3.40e-02,
852,-4.40e-02,
853,4.00e-02,
854,3.20e-02,
855,-2.20e-02,
856,4.00e-02,
857,-4.80e-02,
858,-5.00e-02,
859,5.00e-02,
860,4.20e-02,
861,-4.20e-02,
862,-4.00e-02,
863,3.60e-02,
864,4.60e-02,
865,-4.60e-02,
866,2.80e-02,
867,-5.80e-02,
868,8.00e-03,
869,-2.12e-01,
870,2.60e-02,
871,-5.00e-02,
872,-5.20e-02,
873,8.00e-03,
874,1.80e-02,
875,-5.00e-02,
876,-4.40e-02,
877,1.40e-02,
878,-2.00e-02,
879,2.80e-02,
880,3.60e-02,
881,-3.00e-02,
882,4.00e-02,
883,-5.00e-02,
884,-4.80e-02,
885,3.60e-02,
886,-4.60e-02,
887,4.60e-02,
888,5.00e-02,
889,-4.00e-02,
890,4.20e-02,
891,-4.40e-02,
892,3.20e-02,
893,-4.80e-02,
894,3.20e-02,
895,-5.00e-02,
896,2.60e-02,
897,-5.20e-02,
898,-4.40e-02,
899,1.80e-02,
900,2.00e-02,
901,-5.40e-02,
902,-4.80e-02,
903,3.00e-02,
904,3.40e-02,
905,-1.80e-02,
906,3.60e-02,
907,-4.60e-02,
908,8.00e-03,
909,-5.40e-02,
910,8.00e-03,
911,-5.00e-02,
912,-5.00e-02,
913,1.00e-02,
914,8.00e-03,
915,-5.20e-02,
916,8.00e-03,
917,-4.80e-02,
918,3.20e-02,
919,-4.60e-02,
920,2.80e-02,
921,-5.20e-02,
922,2.20e-02,
923,-5.20e-02,
924,-6.00e-02,
925,2.60e-02,
926,-4.40e-02,
927,3.00e-02,
928,-2.60e-02,
929,3.00e-02,
930,2.20e-02,
931,-3.40e-02,
932,-5.00e-02,
933,3.40e-02,
934,-5.20e-02,
935,3.60e-02,
936,-5.20e-02,
937,3.40e-02,
938,3.60e-02,
939,-4.80e-02,
940,4.60e-02,
941,-5.00e-02,
942,2.98e-01,
943,-4.40e-02,
944,3.60e-02,
945,-2.20e-02,
946,3.20e-02,
947,-3.80e-02,
948,1.00e-02,
949,-3.40e-02,
950,8.00e-03,
951,-5.60e-02,
952,-1.40e-02,
953,2.60e-02,
954,3.00e-02,
955,-2.60e-02,
956,1.80e-02,
957,-3.20e-02,
958,3.80e-02,
959,-4.00e-02,
960,4.00e-02,
961,-4.40e-02,
962,3.20e-02,
963,-3.80e-02,
964,-2.00e-02,
965,4.40e-02,
966,4.80e-02,
967,-5.60e-02,
968,3.80e-02,
969,-2.20e-02,
970,-3.20e-02,
971,4.60e-02,
972,-4.20e-02,
973,4.00e-02,
974,2.60e-02,
975,-5.40e-02,
976,-4.40e-02,
977,2.80e-02,
978,-3.60e-02,
979,2.80e-02,
980,2.20e-02,
981,-2.60e-02,
982,2.00e-02,
983,-4.20e-02,
984,-5.00e-02,
985,3.00e-02,
986,-1.60e-02,
987,2.80e-02,
988,1.00e-02,
989,-3.80e-02,
990,-2.12e-01,
991,5.60e-02,
992,-1.80e-02,
993,3.40e-02,
994,-2.00e-02,
995,1.00e-02,
996,8.00e-03,
997,-2.20e-02,
998,3.00e-02,
999,-4.00e-02,
1000,3.20e-02,
1001,-5.00e-02,
1002,3.40e-02,
1003,-4.20e-02,
1004,2.60e-02,
1005,-3.80e-02,
1006,2.00e-02,
1007,-2.40e-02,
1008,-2.80e-02,
1009,2.60e-02,
1010,2.80e-02,
1011,-2.20e-02,
1012,4.00e-02,
1013,-3.00e-02,
1014,2.98e-01,
1015,-2.12e-01,
1016,-1.20e-02,
1017,3.60e-02,
1018,3.60e-02,
1019,-3.20e-02,
1020,4.80e-02,
1021,-3.00e-02,
1022,3.80e-02,
1023,-4.00e-02,
1024,4.80e-02,
1025,-5.40e-02,
1026,-4.40e-02,
1027,8.00e-03,
1028,-8.00e-03,
1029,2.80e-02,
1030,8.00e-03,
1031,-2.20e-02,
1032,2.20e-02,
1033,-3.00e-02,
1034,8.00e-03,
1035,-3.00e-02,
1036,-2.20e-02,
1037,1.20e-02,
1038,3.40e-02,
1039,-7.80e-02,
1040,3.00e-02,
1041,-2.00e-02,
1042,3.80e-02,
1043,-3.00e-02,
1044,-2.60e-02,
1045,4.00e-02,
1046,3.60e-02,
1047,-1.80e-02,
1048,4.80e-02,
1049,-3.60e-02,
1050,4.80e-02,
1051,-4.60e-02,
1052,3.60e-02,
1053,-4.20e-02,
1054,-3.80e-02,
1055,3.20e-02,
1056,3.00e-02,
1057,-3.20e-02,
1058,-3.00e-02,
1059,3.00e-02,
1060,-4.00e-02,
1061,3.20e-02,
1062,2.80e-02,
1063,-1.58e-01,
1064,-3.40e-02,
1065,2.80e-02,
1066,3.40e-02,
1067,-4.20e-02,
1068,-4.00e-02,
1069,1.00e-02,
1070,8.00e-03,
1071,-2.40e-02,
1072,1.00e-02,
1073,-4.20e-02,
1074,8.00e-03,
1075,-5.00e-02,
1076,-4.20e-02,
1077,3.60e-02,
1078,-4.40e-02,
1079,4.80e-02,
1080,-2.80e-02,
1081,3.00e-02,
1082,3.00e-02,
1083,-2.00e-02,
1084,2.80e-02,
1085,-2.40e-02,
1086,-3.20e-02,
1087,3.20e-02,
1088,-2.12e-01,
1089,8.00e-02,
1090,2.80e-02,
1091,-4.60e-02,
1092,3.00e-02,
1093,-4.20e-02,
1094,3.20e-02,
1095,-3.40e-02,
1096,4.00e-02,
1097,-2.20e-02,
1098,3.80e-02,
1099,-3.20e-02,
1100,-4.00e-02,
1101,3.40e-02,
1102,-4.80e-02,
1103,5.00e-02,
1104,4.80e-02,
1105,-4.60e-02,
1106,3.20e-02,
1107,-4.60e-02,
1108,-5.20e-02,
1109,1.00e-02,
1110,1.00e-02,
1111,-5.00e-02,
1112,-1.40e-02,
1113,2.80e-02,
1114,2.80e-02,
1115,-4.80e-02,
1116,1.40e-02,
1117,-4.80e-02,
1118,-4.00e-02,
1119,3.40e-02,
1120,-3.40e-02,
1121,4.00e-02,
1122,4.00e-02,
1123,-3.40e-02,
1124,3.60e-02,
1125,-5.00e-02,
1126,-4.80e-02,
1127,4.80e-02,
1128,4.60e-02,
1129,-4.20e-02,
1130,-3.20e-02,
1131,3.40e-02,
1132,4.40e-02,
1133,-4.20e-02,
1134,3.00e-02,
1135,-3.80e-02,
1136,-5.60e-02,
1137,4.60e-02,
1138,2.00e-02,
1139,-5.40e-02,
1140,-4.80e-02,
1141,2.20e-02,
1142,2.60e-02,
1143,-5.40e-02,
1144,-4.00e-02,
1145,3.20e-02,
1146,-2.00e-02,
1147,1.20e-02,
1148,1.00e-02,
1149,-3.40e-02,
1150,8.00e-03,
1151,-4.60e-02,
1152,-5.00e-02,
1153,3.40e-02,
1154,3.60e-02,
1155,-5.00e-02,
1156,-4.80e-02,
1157,1.00e-02,
1158,-3.80e-02,
1159,3.80e-02,
1160,2.98e-01,
1161,-2.12e-01,
1162,3.40e-02,
1163,-4.20e-02,
1164,2.80e-02,
1165,-2.80e-02,
1166,1.80e-02,
1167,-4.60e-02,
1168,-5.20e-02,
1169,3.20e-02,
1170,-3.60e-02,
1171,2.80e-02,
1172,2.20e-02,
1173,-3.80e-02,
1174,4.00e-02,
1175,-5.00e-02,
1176,3.80e-02,
1177,-4.80e-02,
1178,3.60e-02,
1179,-4.60e-02,
1180,4.60e-02,
1181,-4.60e-02,
1182,4.60e-02,
1183,-5.20e-02,
1184,-5.40e-02,
1185,2.98e-01,
1186,4.40e-02,
1187,-5.00e-02,
1188,-4.00e-02,
1189,8.00e-03,
1190,1.00e-02,
1191,-5.40e-02,
1192,-5.20e-02,
1193,2.20e-02,
1194,-1.00e-02,
1195,2.60e-02,
1196,-2.20e-02,
1197,1.00e-02,
1198,2.20e-02,
1199,-2.60e-02,
