Motor_Data/MOTOR_1_ON/time domain/NewFile66.csv

X,CH2,Start,Increment,
Sequence,Volt,-3.000000e-02,5.000000e-05
0,-4.00e-03,
1,8.00e-03,
2,-6.00e-03,
3,8.00e-03,
4,1.20e-02,
5,-2.60e-02,
6,-8.00e-03,
7,4.00e-02,
8,2.80e-02,
9,-8.00e-03,
10,-2.20e-02,
11,2.20e-02,
12,6.00e-03,
13,-1.00e-02,
14,-2.00e-02,
15,2.60e-02,
16,1.80e-02,
17,-1.00e-02,
18,6.00e-03,
19,-1.20e-02,
20,6.00e-03,
21,-1.80e-02,
22,1.40e-02,
23,-6.00e-03,
24,-4.00e-03,
25,8.00e-03,
26,-4.00e-03,
27,1.20e-02,
28,6.00e-03,
29,-8.00e-03,
30,6.00e-03,
31,-4.00e-03,
32,8.00e-03,
33,-6.00e-03,
34,-4.00e-03,
35,6.00e-03,
36,2.60e-02,
37,-6.00e-03,
38,-2.80e-02,
39,1.40e-02,
40,-1.86e-01,
41,2.98e-01,
42,-6.00e-03,
43,1.80e-02,
44,2.60e-02,
45,-1.60e-02,
46,1.00e-02,
47,-8.00e-03,
48,8.00e-03,
49,-8.00e-03,
50,1.20e-02,
51,-4.00e-03,
52,6.00e-03,
53,-4.00e-03,
54,-4.00e-03,
55,8.00e-03,
56,-4.00e-03,
57,6.00e-03,
58,8.00e-03,
59,-2.00e-02,
60,-4.00e-03,
61,4.20e-02,
62,2.00e-02,
63,-1.60e-02,
64,2.00e-02,
65,-1.20e-02,
66,6.00e-03,
67,-2.00e-02,
68,-1.20e-02,
69,2.60e-02,
70,-4.00e-03,
71,1.60e-02,
72,6.00e-03,
73,-6.00e-03,
74,6.00e-03,
75,-8.00e-03,
76,-4.00e-03,
77,1.40e-02,
78,-4.00e-03,
79,8.00e-03,
80,8.00e-03,
81,-6.00e-03,
82,6.00e-03,
83,-8.00e-03,
84,6.00e-03,
85,-6.00e-03,
86,8.00e-03,
87,-8.00e-03,
88,2.98e-01,
89,-2.12e-01,
90,3.40e-02,
91,-3.40e-02,
92,1.80e-02,
93,-1.80e-02,
94,2.00e-02,
95,-1.40e-02,
96,-6.00e-03,
97,2.20e-02,
98,-2.00e-02,
99,2.40e-02,
100,6.00e-03,
101,-6.00e-03,
102,6.00e-03,
103,-1.00e-02,
104,-4.00e-03,
105,1.00e-02,
106,-4.00e-03,
107,6.00e-03,
108,-6.00e-03,
109,6.00e-03,
110,6.00e-03,
111,-6.00e-03,
112,-4.00e-03,
113,1.40e-02,
114,-4.00e-03,
115,3.80e-02,
116,1.00e-02,
117,-1.20e-02,
118,2.80e-02,
119,-1.20e-02,
120,-2.80e-02,
121,1.60e-02,
122,-6.00e-03,
123,2.40e-02,
124,1.40e-02,
125,-6.00e-03,
126,6.00e-03,
127,-1.00e-02,
128,6.00e-03,
129,-2.00e-02,
130,1.00e-02,
131,-6.00e-03,
132,-6.00e-03,
133,8.00e-03,
134,6.00e-03,
135,-6.00e-03,
136,4.80e-02,
137,-2.12e-01,
138,6.00e-03,
139,-6.00e-03,
140,8.00e-03,
141,-1.60e-02,
142,-4.00e-03,
143,2.60e-02,
144,-3.20e-02,
145,3.00e-02,
146,-2.20e-02,
147,8.00e-03,
148,-4.00e-03,
149,1.60e-02,
150,-8.00e-03,
151,2.60e-02,
152,-2.00e-02,
153,6.00e-03,
154,1.00e-02,
155,-6.00e-03,
156,-4.00e-03,
157,6.00e-03,
158,-4.00e-03,
159,8.00e-03,
160,2.40e-02,
161,-6.00e-03,
162,-6.00e-03,
163,8.00e-03,
164,8.00e-03,
165,-1.20e-02,
166,1.00e-02,
167,-3.00e-02,
168,3.40e-02,
169,-6.00e-03,
170,1.40e-02,
171,-2.00e-02,
172,2.60e-02,
173,-1.40e-02,
174,-3.00e-02,
175,2.20e-02,
176,-4.00e-03,
177,2.20e-02,
178,8.00e-03,
179,-1.20e-02,
180,8.00e-03,
181,-2.00e-02,
182,-1.60e-02,
183,6.00e-03,
184,-1.42e-01,
185,2.98e-01,
186,-4.00e-03,
187,8.00e-03,
188,-4.00e-03,
189,8.00e-03,
190,-1.00e-02,
191,6.00e-03,
192,-4.00e-03,
193,6.00e-03,
194,6.00e-03,
195,-2.20e-02,
196,2.60e-02,
197,-6.00e-03,
198,-3.00e-02,
199,2.00e-02,
200,-1.60e-02,
201,2.00e-02,
202,1.40e-02,
203,-1.00e-02,
204,-1.40e-02,
205,2.40e-02,
206,-2.00e-02,
207,1.00e-02,
208,-8.00e-03,
209,2.98e-01,
210,-1.20e-02,
211,1.40e-02,
212,-4.00e-03,
213,6.00e-03,
214,8.00e-03,
215,-4.00e-03,
216,-4.00e-03,
217,6.00e-03,
218,1.00e-02,
219,-1.60e-02,
220,-2.20e-02,
221,1.40e-02,
222,4.00e-02,
223,-6.00e-03,
224,6.00e-03,
225,-1.80e-02,
226,2.00e-02,
227,-1.40e-02,
228,-1.40e-02,
229,2.60e-02,
230,-4.00e-03,
231,2.00e-02,
232,-8.00e-03,
233,1.60e-02,
234,-2.12e-01,
235,8.00e-03,
236,6.00e-03,
237,-8.00e-03,
238,1.20e-02,
239,-4.00e-03,
240,-4.00e-03,
241,1.20e-02,
242,6.00e-03,
243,-6.00e-03,
244,6.00e-03,
245,-8.00e-03,
246,-4.00e-03,
247,8.00e-03,
248,1.60e-02,
249,-2.60e-02,
250,-1.00e-02,
251,3.00e-02,
252,-3.40e-02,
253,3.60e-02,
254,1.20e-02,
255,-1.80e-02,
256,-6.20e-02,
257,2.98e-01,
258,-1.80e-02,
259,2.60e-02,
260,6.00e-03,
261,-1.40e-02,
262,1.00e-02,
263,-1.20e-02,
264,1.00e-02,
265,-1.00e-02,
266,6.00e-03,
267,-4.00e-03,
268,6.00e-03,
269,-4.00e-03,
270,-4.00e-03,
271,8.00e-03,
272,-4.00e-03,
273,8.00e-03,
274,8.00e-03,
275,-4.00e-03,
276,4.00e-02,
277,-8.00e-03,
278,6.00e-03,
279,-1.60e-02,
280,1.00e-02,
281,-2.20e-02,
282,2.98e-01,
283,-5.40e-02,
284,2.00e-02,
285,-6.00e-03,
286,-8.00e-03,
287,8.00e-03,
288,6.00e-03,
289,-1.60e-02,
290,-4.00e-03,
291,1.00e-02,
292,8.00e-03,
293,-4.00e-03,
294,8.00e-03,
295,-6.00e-03,
296,-4.00e-03,
297,6.00e-03,
298,-6.00e-03,
299,6.00e-03,
300,6.00e-03,
301,-6.00e-03,
302,-1.20e-02,
303,2.40e-02,
304,4.00e-03,
305,-2.20e-02,
306,2.00e-02,
307,-3.60e-02,
308,6.00e-03,
309,-2.20e-02,
310,4.00e-03,
311,-6.00e-03,
312,-1.80e-02,
313,2.00e-02,
314,6.00e-03,
315,-1.00e-02,
316,-4.00e-03,
317,6.00e-03,
318,-4.00e-03,
319,8.00e-03,
320,-4.00e-03,
321,8.00e-03,
322,-4.00e-03,
323,6.00e-03,
324,8.00e-03,
325,-6.00e-03,
326,8.00e-03,
327,-2.80e-02,
328,-6.00e-03,
329,3.60e-02,
330,4.00e-02,
331,-1.74e-01,
332,-2.20e-02,
333,2.60e-02,
334,6.00e-03,
335,-2.80e-02,
336,-2.80e-02,
337,2.00e-02,
338,2.00e-02,
339,-8.00e-03,
340,6.00e-03,
341,-1.20e-02,
342,4.00e-03,
343,-1.80e-02,
344,6.00e-03,
345,-6.00e-03,
346,-6.00e-03,
347,8.00e-03,
348,6.00e-03,
349,-6.00e-03,
350,6.00e-03,
351,-6.00e-03,
352,-4.00e-03,
353,6.00e-03,
354,1.60e-02,
355,-6.00e-03,
356,-2.00e-02,
357,2.80e-02,
358,-2.80e-02,
359,4.20e-02,
360,-3.00e-02,
361,2.40e-02,
362,2.00e-02,
363,-1.80e-02,
364,-4.00e-03,
365,1.00e-02,
366,2.60e-02,
367,-2.00e-02,
368,-6.00e-03,
369,8.00e-03,
370,6.00e-03,
371,-1.00e-02,
372,1.00e-02,
373,-4.00e-03,
374,-4.00e-03,
375,6.00e-03,
376,6.00e-03,
377,-4.00e-03,
378,-4.20e-02,
379,4.00e-02,
380,1.00e-02,
381,-2.60e-02,
382,6.00e-03,
383,-6.00e-03,
384,3.00e-02,
385,-8.00e-03,
386,2.20e-02,
387,-1.40e-02,
388,6.00e-03,
389,-1.20e-02,
390,2.60e-02,
391,-8.00e-03,
392,-4.00e-03,
393,6.00e-03,
394,6.00e-03,
395,-1.00e-02,
396,6.00e-03,
397,-2.00e-02,
398,6.00e-03,
399,-6.00e-03,
400,-4.00e-03,
401,8.00e-03,
402,1.00e-02,
403,-8.00e-03,
404,6.00e-03,
405,-1.00e-02,
406,-8.00e-03,
407,6.00e-03,
408,6.00e-03,
409,-6.00e-03,
410,-2.40e-02,
411,2.60e-02,
412,-3.00e-02,
413,3.80e-02,
414,-2.60e-02,
415,1.40e-02,
416,2.00e-02,
417,-1.60e-02,
418,-6.00e-03,
419,1.80e-02,
420,-1.60e-02,
421,2.20e-02,
422,-6.00e-03,
423,1.20e-02,
424,8.00e-03,
425,-1.20e-02,
426,2.80e-02,
427,-2.12e-01,
428,-6.00e-03,
429,8.00e-03,
430,-6.00e-03,
431,6.00e-03,
432,6.00e-03,
433,-6.00e-03,
434,6.00e-03,
435,-2.20e-02,
436,6.00e-03,
437,-8.00e-03,
438,1.80e-02,
439,-1.60e-02,
440,2.60e-02,
441,-2.00e-02,
442,-3.20e-02,
443,1.00e-02,
444,-1.00e-02,
445,2.40e-02,
446,1.60e-02,
447,-8.00e-03,
448,6.00e-03,
449,-1.20e-02,
450,-1.60e-02,
451,3.00e-02,
452,-4.00e-03,
453,1.00e-02,
454,-4.00e-03,
455,8.00e-03,
456,8.00e-03,
457,-4.00e-03,
458,6.00e-03,
459,-1.00e-02,
460,-4.00e-03,
461,6.00e-03,
462,-6.00e-03,
463,1.00e-02,
464,-4.00e-03,
465,2.20e-02,
466,-1.60e-02,
467,3.60e-02,
468,-1.00e-02,
469,6.00e-03,
470,-4.00e-03,
471,6.00e-03,
472,-6.00e-03,
473,6.00e-03,
474,8.00e-03,
475,-2.12e-01,
476,-6.00e-03,
477,8.00e-03,
478,8.00e-03,
479,-1.00e-02,
480,1.00e-02,
481,-4.00e-03,
482,6.00e-03,
483,-6.00e-03,
484,-4.00e-03,
485,8.00e-03,
486,6.00e-03,
487,-1.00e-02,
488,8.00e-03,
489,-2.60e-02,
490,4.00e-02,
491,-1.00e-02,
492,1.00e-02,
493,-2.00e-02,
494,2.80e-02,
495,-1.80e-02,
496,-3.00e-02,
497,2.20e-02,
498,2.60e-02,
499,-6.00e-03,
500,1.40e-02,
501,-1.00e-02,
502,6.00e-03,
503,-1.20e-02,
504,6.00e-03,
505,-4.00e-03,
506,-4.00e-03,
507,8.00e-03,
508,6.00e-03,
509,-6.00e-03,
510,6.00e-03,
511,-8.00e-03,
512,-4.00e-03,
513,6.00e-03,
514,-4.00e-03,
515,8.00e-03,
516,-4.00e-03,
517,6.00e-03,
518,-4.00e-03,
519,3.00e-02,
520,4.00e-02,
521,-3.60e-02,
522,1.80e-02,
523,-1.80e-02,
524,2.32e-01,
525,-3.00e-02,
526,2.40e-02,
527,-8.00e-03,
528,-1.60e-02,
529,1.60e-02,
530,-8.00e-03,
531,8.00e-03,
532,-1.20e-02,
533,8.00e-03,
534,8.00e-03,
535,-4.00e-03,
536,6.00e-03,
537,-6.00e-03,
538,6.00e-03,
539,-6.00e-03,
540,6.00e-03,
541,-1.40e-02,
542,-2.80e-02,
543,1.00e-02,
544,6.00e-03,
545,-6.00e-03,
546,6.00e-03,
547,-1.20e-02,
548,2.98e-01,
549,-2.60e-02,
550,-4.00e-03,
551,6.00e-03,
552,-4.00e-03,
553,6.00e-03,
554,-4.00e-03,
555,6.00e-03,
556,-4.00e-03,
557,6.00e-03,
558,8.00e-03,
559,-6.00e-03,
560,-4.00e-03,
561,1.00e-02,
562,-4.00e-03,
563,1.00e-02,
564,-4.00e-03,
565,6.00e-03,
566,6.00e-03,
567,-1.00e-02,
568,-4.00e-03,
569,8.00e-03,
570,1.60e-02,
571,-2.20e-02,
572,-2.12e-01,
573,2.98e-01,
574,-3.00e-02,
575,4.00e-02,
576,-1.60e-02,
577,2.00e-02,
578,1.40e-02,
579,-1.00e-02,
580,-1.60e-02,
581,2.40e-02,
582,-1.80e-02,
583,1.00e-02,
584,-4.00e-03,
585,8.00e-03,
586,8.00e-03,
587,-6.00e-03,
588,-4.00e-03,
589,6.00e-03,
590,6.00e-03,
591,-6.00e-03,
592,-4.00e-03,
593,8.00e-03,
594,-4.00e-03,
595,1.00e-02,
596,6.00e-03,
597,-2.40e-02,
598,-6.00e-03,
599,2.20e-02,
600,2.20e-02,
601,-2.00e-02,
602,2.00e-02,
603,-2.00e-02,
604,-3.00e-02,
605,2.40e-02,
606,-4.00e-03,
607,2.00e-02,
608,8.00e-03,
609,-1.00e-02,
610,6.00e-03,
611,-1.80e-02,
612,-1.20e-02,
613,8.00e-03,
614,-4.00e-03,
615,1.00e-02,
616,-4.00e-03,
617,1.00e-02,
618,6.00e-03,
619,-6.00e-03,
620,1.44e-01,
621,-5.80e-02,
622,-4.00e-03,
623,6.00e-03,
624,-4.00e-03,
625,8.00e-03,
626,6.00e-03,
627,-6.00e-03,
628,6.00e-03,
629,-2.00e-02,
630,4.00e-03,
631,-8.00e-03,
632,6.00e-03,
633,-6.00e-03,
634,4.00e-03,
635,-2.00e-02,
636,-4.00e-03,
637,6.00e-03,
638,6.00e-03,
639,-6.00e-03,
640,8.00e-03,
641,-8.00e-03,
642,-4.00e-03,
643,6.00e-03,
644,-2.12e-01,
645,2.98e-01,
646,-4.00e-03,
647,8.00e-03,
648,1.00e-02,
649,-2.40e-02,
650,-1.60e-02,
651,2.60e-02,
652,4.00e-02,
653,-1.00e-02,
654,-2.00e-02,
655,2.80e-02,
656,8.00e-03,
657,-8.00e-03,
658,-2.80e-02,
659,2.20e-02,
660,2.00e-02,
661,-6.00e-03,
662,6.00e-03,
663,-1.00e-02,
664,6.00e-03,
665,-1.20e-02,
666,-4.00e-03,
667,6.00e-03,
668,-2.80e-02,
669,8.20e-02,
670,6.00e-03,
671,-6.00e-03,
672,6.00e-03,
673,-6.00e-03,
674,6.00e-03,
675,-6.00e-03,
676,-6.00e-03,
677,8.00e-03,
678,2.40e-02,
679,-2.80e-02,
680,-2.00e-02,
681,3.80e-02,
682,-3.40e-02,
683,3.00e-02,
684,2.00e-02,
685,-1.60e-02,
686,8.00e-03,
687,-8.00e-03,
688,2.20e-02,
689,-2.00e-02,
690,6.00e-03,
691,-8.00e-03,
692,-5.80e-02,
693,2.98e-01,
694,1.40e-02,
695,-1.00e-02,
696,6.00e-03,
697,-6.00e-03,
698,-4.00e-03,
699,8.00e-03,
700,-4.00e-03,
701,8.00e-03,
702,6.00e-03,
703,-2.80e-02,
704,-4.00e-03,
705,3.60e-02,
706,3.40e-02,
707,-1.00e-02,
708,4.00e-03,
709,-2.20e-02,
710,6.00e-03,
711,-8.00e-03,
712,2.40e-02,
713,-6.00e-03,
714,6.00e-03,
715,-1.20e-02,
716,-8.00e-03,
717,6.00e-03,
718,-6.20e-02,
719,8.00e-03,
720,-6.00e-03,
721,1.00e-02,
722,-8.00e-03,
723,8.00e-03,
724,8.00e-03,
725,-6.00e-03,
726,1.20e-02,
727,-6.00e-03,
728,-8.00e-03,
729,6.00e-03,
730,6.00e-03,
731,-8.00e-03,
732,-1.80e-02,
733,3.00e-02,
734,-2.60e-02,
735,4.00e-02,
736,-3.00e-02,
737,2.40e-02,
738,2.20e-02,
739,-1.60e-02,
740,-4.00e-03,
741,1.60e-02,
742,4.00e-02,
743,-2.00e-02,
744,8.00e-03,
745,-1.00e-02,
746,1.00e-02,
747,-1.20e-02,
748,-4.00e-03,
749,8.00e-03,
750,-4.00e-03,
751,6.00e-03,
752,-4.00e-03,
753,6.00e-03,
754,6.00e-03,
755,-6.00e-03,
756,1.00e-02,
757,-2.40e-02,
758,-4.00e-03,
759,3.80e-02,
760,2.60e-02,
761,-1.20e-02,
762,-2.00e-02,
763,2.20e-02,
764,-3.20e-02,
765,1.40e-02,
766,2.98e-01,
767,-2.12e-01,
768,1.60e-02,
769,-8.00e-03,
770,8.00e-03,
771,-1.00e-02,
772,6.00e-03,
773,-1.60e-02,
774,8.00e-03,
775,-4.00e-03,
776,6.00e-03,
777,-4.00e-03,
778,8.00e-03,
779,-6.00e-03,
780,6.00e-03,
781,-6.00e-03,
782,8.00e-03,
783,-6.00e-03,
784,6.00e-03,
785,-8.00e-03,
786,-2.80e-02,
787,2.60e-02,
788,6.00e-03,
789,-3.20e-02,
790,8.00e-03,
791,-1.84e-01,
792,-1.40e-02,
793,6.00e-03,
794,-6.00e-03,
795,1.80e-02,
796,6.00e-03,
797,-1.80e-02,
798,8.00e-03,
799,-8.00e-03,
800,8.00e-03,
801,-1.20e-02,
802,-4.00e-03,
803,1.00e-02,
804,6.00e-03,
805,-4.00e-03,
806,-4.00e-03,
807,6.00e-03,
808,8.00e-03,
809,-6.00e-03,
810,1.00e-02,
811,-2.20e-02,
812,-8.00e-03,
813,4.00e-02,
814,2.98e-01,
815,-2.12e-01,
816,2.60e-02,
817,-2.00e-02,
818,-3.20e-02,
819,1.40e-02,
820,-1.00e-02,
821,2.60e-02,
822,-6.00e-03,
823,8.00e-03,
824,6.00e-03,
825,-8.00e-03,
826,-2.00e-02,
827,8.00e-03,
828,8.00e-03,
829,-6.00e-03,
830,-4.00e-03,
831,8.00e-03,
832,-4.00e-03,
833,8.00e-03,
834,-8.00e-03,
835,6.00e-03,
836,-4.00e-03,
837,8.00e-03,
838,1.00e-02,
839,-1.40e-02,
840,2.20e-02,
841,-2.40e-02,
842,3.60e-02,
843,-3.60e-02,
844,1.60e-02,
845,-1.80e-02,
846,1.60e-02,
847,-1.20e-02,
848,2.20e-02,
849,-6.00e-03,
850,-2.00e-02,
851,2.00e-02,
852,1.00e-02,
853,-8.00e-03,
854,-8.00e-03,
855,6.00e-03,
856,1.00e-02,
857,-6.00e-03,
858,-4.00e-03,
859,8.00e-03,
860,-4.00e-03,
861,6.00e-03,
862,1.50e-01,
863,-2.12e-01,
864,1.00e-02,
865,-2.80e-02,
866,-4.00e-03,
867,4.00e-02,
868,-1.00e-02,
869,8.00e-03,
870,2.80e-02,
871,-1.60e-02,
872,-3.20e-02,
873,2.20e-02,
874,-6.00e-03,
875,2.00e-02,
876,1.60e-02,
877,-1.00e-02,
878,6.00e-03,
879,-1.20e-02,
880,6.00e-03,
881,-1.80e-02,
882,-4.00e-03,
883,1.20e-02,
884,-4.00e-03,
885,1.00e-02,
886,3.80e-02,
887,-6.00e-03,
888,6.00e-03,
889,-1.00e-02,
890,6.00e-03,
891,-4.00e-03,
892,1.20e-02,
893,-1.80e-02,
894,2.80e-02,
895,-2.20e-02,
896,4.00e-02,
897,-3.20e-02,
898,2.20e-02,
899,-2.00e-02,
900,1.60e-02,
901,-1.20e-02,
902,1.00e-02,
903,-1.20e-02,
904,-1.80e-02,
905,1.40e-02,
906,-4.00e-03,
907,1.00e-02,
908,8.00e-03,
909,-6.00e-03,
910,2.98e-01,
911,-1.20e-02,
912,-4.00e-03,
913,6.00e-03,
914,6.00e-03,
915,-6.00e-03,
916,6.00e-03,
917,-1.60e-02,
918,8.00e-03,
919,-2.60e-02,
920,3.80e-02,
921,-8.00e-03,
922,2.00e-02,
923,-2.20e-02,
924,2.20e-02,
925,-1.20e-02,
926,-3.20e-02,
927,2.00e-02,
928,-6.00e-03,
929,1.80e-02,
930,1.20e-02,
931,-1.00e-02,
932,6.00e-03,
933,-1.60e-02,
934,-2.20e-02,
935,2.60e-01,
936,1.00e-02,
937,-4.00e-03,
938,-4.00e-03,
939,1.20e-02,
940,-6.00e-03,
941,6.00e-03,
942,-8.00e-03,
943,6.00e-03,
944,-4.00e-03,
945,6.00e-03,
946,-4.00e-03,
947,1.40e-02,
948,2.60e-02,
949,-6.00e-03,
950,-3.40e-02,
951,1.20e-02,
952,6.00e-03,
953,-1.40e-02,
954,8.00e-03,
955,-1.00e-02,
956,1.60e-02,
957,-1.40e-02,
958,-1.60e-02,
959,6.00e-03,
960,2.98e-01,
961,-8.20e-02,
962,8.00e-03,
963,-1.20e-02,
964,8.00e-03,
965,-6.00e-03,
966,-4.00e-03,
967,6.00e-03,
968,6.00e-03,
969,-6.00e-03,
970,8.00e-03,
971,-2.00e-02,
972,-2.00e-02,
973,1.80e-02,
974,4.20e-02,
975,-8.00e-03,
976,2.60e-02,
977,-1.80e-02,
978,1.40e-02,
979,-2.20e-02,
980,-3.60e-02,
981,2.40e-02,
982,1.80e-02,
983,-6.00e-03,
984,-4.00e-03,
985,8.00e-03,
986,-8.00e-03,
987,6.00e-03,
988,6.00e-03,
989,-6.00e-03,
990,1.00e-02,
991,-4.00e-03,
992,1.00e-02,
993,-6.00e-03,
994,-4.00e-03,
995,6.00e-03,
996,-6.00e-03,
997,6.00e-03,
998,-4.00e-03,
999,8.00e-03,
1000,2.40e-02,
1001,-2.60e-02,
1002,-1.40e-02,
1003,3.40e-02,
1004,-3.60e-02,
1005,3.60e-02,
1006,-1.80e-02,
1007,1.80e-02,
1008,6.20e-02,
1009,-2.20e-02,
1010,2.40e-02,
1011,-2.00e-02,
1012,-1.40e-02,
1013,6.00e-03,
1014,1.40e-02,
1015,-8.00e-03,
1016,8.00e-03,
1017,-1.20e-02,
1018,6.00e-03,
1019,-6.00e-03,
1020,6.00e-03,
1021,-6.00e-03,
1022,-4.00e-03,
1023,1.00e-02,
1024,8.00e-03,
1025,-2.80e-02,
1026,-1.00e-02,
1027,3.00e-02,
1028,3.80e-02,
1029,-1.20e-02,
1030,-2.00e-02,
1031,2.80e-02,
1032,6.00e-03,
1033,-2.80e-02,
1034,-3.20e-02,
1035,2.60e-02,
1036,-6.00e-03,
1037,1.40e-02,
1038,4.00e-03,
1039,-1.20e-02,
1040,6.00e-03,
1041,-2.00e-02,
1042,-4.00e-03,
1043,1.00e-02,
1044,8.00e-03,
1045,-6.00e-03,
1046,8.00e-03,
1047,-4.00e-03,
1048,8.00e-03,
1049,-6.00e-03,
1050,6.00e-03,
1051,-1.00e-02,
1052,-4.00e-03,
1053,8.00e-03,
1054,2.60e-02,
1055,-2.40e-02,
1056,2.90e-01,
1057,-2.12e-01,
1058,-3.40e-02,
1059,2.80e-02,
1060,2.20e-02,
1061,-1.80e-02,
1062,6.00e-03,
1063,-8.00e-03,
1064,2.60e-02,
1065,-2.20e-02,
1066,1.00e-02,
1067,-8.00e-03,
1068,1.00e-02,
1069,-1.20e-02,
1070,1.00e-02,
1071,-6.00e-03,
1072,6.00e-03,
1073,-6.00e-03,
1074,-6.00e-03,
1075,8.00e-03,
1076,-4.00e-03,
1077,8.00e-03,
1078,1.00e-02,
1079,-2.60e-02,
1080,-2.12e-01,
1081,1.82e-01,
1082,3.40e-02,
1083,-8.00e-03,
1084,-2.20e-02,
1085,2.40e-02,
1086,6.00e-03,
1087,-3.00e-02,
1088,-2.20e-02,
1089,2.40e-02,
1090,2.20e-02,
1091,-8.00e-03,
1092,6.00e-03,
1093,-1.00e-02,
1094,4.00e-03,
1095,-1.60e-02,
1096,-4.00e-03,
1097,8.00e-03,
1098,-4.00e-03,
1099,6.00e-03,
1100,-4.00e-03,
1101,1.20e-02,
1102,6.00e-03,
1103,-8.00e-03,
1104,1.40e-02,
1105,-2.12e-01,
1106,6.00e-03,
1107,-4.00e-03,
1108,2.80e-02,
1109,-1.60e-02,
1110,6.00e-03,
1111,-3.20e-02,
1112,-2.80e-02,
1113,1.60e-02,
1114,6.00e-03,
1115,-1.00e-02,
1116,6.00e-03,
1117,-6.00e-03,
1118,2.80e-02,
1119,-2.00e-02,
1120,8.00e-03,
1121,-8.00e-03,
1122,8.00e-03,
1123,-1.20e-02,
1124,1.00e-02,
1125,-6.00e-03,
1126,6.00e-03,
1127,-4.00e-03,
1128,-4.20e-02,
1129,1.00e-02,
1130,6.00e-03,
1131,-6.00e-03,
1132,8.00e-03,
1133,-2.20e-02,
1134,-4.00e-03,
1135,4.00e-02,
1136,2.60e-02,
1137,-1.40e-02,
1138,2.60e-02,
1139,-2.00e-02,
1140,-3.20e-02,
1141,1.40e-02,
1142,-1.60e-02,
1143,2.00e-02,
1144,1.00e-02,
1145,-1.00e-02,
1146,-8.00e-03,
1147,6.00e-03,
1148,-2.00e-02,
1149,6.00e-03,
1150,-4.00e-03,
1151,1.20e-02,
1152,-8.00e-03,
1153,4.40e-02,
1154,-2.12e-01,
1155,1.20e-02,
1156,-1.00e-02,
1157,8.00e-03,
1158,-6.00e-03,
1159,8.00e-03,
1160,1.00e-02,
1161,-8.00e-03,
1162,2.20e-02,
1163,-2.20e-02,
1164,-3.20e-02,
1165,3.40e-02,
1166,1.20e-02,
1167,-2.00e-02,
1168,2.00e-02,
1169,-1.20e-02,
1170,-6.00e-03,
1171,2.00e-02,
1172,-2.20e-02,
1173,2.40e-02,
1174,1.00e-02,
1175,-1.00e-02,
1176,-1.20e-02,
1177,2.20e-02,
1178,1.20e-02,
1179,-4.00e-03,
1180,-4.00e-03,
1181,6.00e-03,
1182,6.00e-03,
1183,-4.00e-03,
1184,8.00e-03,
1185,-8.00e-03,
1186,8.00e-03,
1187,-2.60e-02,
1188,-4.00e-03,
1189,4.20e-02,
1190,-1.00e-02,
1191,1.00e-02,
1192,6.00e-03,
1193,-4.00e-03,
1194,-2.40e-02,
1195,8.00e-03,
1196,-4.00e-03,
1197,2.80e-02,
1198,6.00e-03,
1199,-8.00e-03,
