Motor_Data/MOTOR_1_ON/time domain/NewFile1.csv

X,CH2,Start,Increment,
Sequence,Volt,-3.000000e-02,5.000000e-05
0,-1.20e-02,
1,1.40e-02,
2,1.40e-02,
3,-1.40e-02,
4,-1.20e-02,
5,1.60e-02,
6,1.80e-02,
7,-1.00e-02,
8,1.80e-02,
9,-1.40e-02,
10,1.40e-02,
11,-1.40e-02,
12,2.98e-01,
13,-8.60e-02,
14,-1.80e-02,
15,8.00e-03,
16,-1.60e-02,
17,8.00e-03,
18,-1.20e-02,
19,1.20e-02,
20,1.40e-02,
21,-1.20e-02,
22,1.40e-02,
23,-6.00e-03,
24,6.00e-03,
25,-1.40e-02,
26,-1.60e-02,
27,6.00e-03,
28,-1.40e-02,
29,8.00e-03,
30,-1.20e-02,
31,8.00e-03,
32,-1.20e-02,
33,8.00e-03,
34,-1.80e-02,
35,6.00e-03,
36,-1.80e-02,
37,6.00e-03,
38,-1.20e-02,
39,8.00e-03,
40,1.00e-02,
41,-1.60e-02,
42,1.20e-02,
43,-1.60e-02,
44,-1.40e-02,
45,1.20e-02,
46,-1.00e-02,
47,1.00e-02,
48,1.00e-02,
49,-6.00e-03,
50,1.40e-02,
51,-8.00e-03,
52,1.40e-02,
53,-1.20e-02,
54,-1.40e-02,
55,1.20e-02,
56,-1.40e-02,
57,1.60e-02,
58,1.80e-02,
59,-1.20e-02,
60,1.80e-02,
61,-1.40e-02,
62,1.40e-02,
63,-2.12e-01,
64,6.00e-03,
65,-1.20e-02,
66,-1.40e-02,
67,8.00e-03,
68,-4.00e-03,
69,1.00e-02,
70,1.20e-02,
71,-1.20e-02,
72,-1.00e-02,
73,8.00e-03,
74,8.00e-03,
75,-8.00e-03,
76,1.00e-02,
77,-1.60e-02,
78,-1.40e-02,
79,6.00e-03,
80,1.20e-02,
81,-1.40e-02,
82,1.60e-02,
83,-1.60e-02,
84,1.40e-02,
85,-1.40e-02,
86,1.60e-02,
87,-1.80e-02,
88,2.34e-01,
89,-1.40e-01,
90,1.00e-02,
91,-1.40e-02,
92,6.00e-03,
93,-1.80e-02,
94,1.20e-02,
95,-1.60e-02,
96,-1.20e-02,
97,1.20e-02,
98,1.20e-02,
99,-1.00e-02,
100,1.00e-02,
101,-6.00e-03,
102,1.20e-02,
103,-1.00e-02,
104,1.40e-02,
105,-1.80e-02,
106,-1.60e-02,
107,1.20e-02,
108,-1.60e-02,
109,6.00e-03,
110,6.00e-03,
111,-1.40e-02,
112,8.00e-03,
113,-1.40e-02,
114,-1.20e-02,
115,1.14e-01,
116,-1.60e-02,
117,8.00e-03,
118,8.00e-03,
119,-1.20e-02,
120,6.00e-03,
121,-1.20e-02,
122,-1.60e-02,
123,1.00e-02,
124,-1.00e-02,
125,1.40e-02,
126,-8.00e-03,
127,1.40e-02,
128,1.20e-02,
129,-1.40e-02,
130,1.00e-02,
131,-1.60e-02,
132,-1.40e-02,
133,1.40e-02,
134,1.60e-02,
135,-1.40e-02,
136,1.60e-02,
137,-1.80e-02,
138,-1.40e-02,
139,1.20e-02,
140,2.98e-01,
141,-1.60e-02,
142,1.00e-02,
143,-1.40e-02,
144,-1.20e-02,
145,6.00e-03,
146,6.00e-03,
147,-1.60e-02,
148,-1.60e-02,
149,1.00e-02,
150,-1.00e-02,
151,1.20e-02,
152,1.20e-02,
153,-4.00e-03,
154,6.00e-03,
155,-8.00e-03,
156,-1.20e-02,
157,8.00e-03,
158,-1.80e-02,
159,1.40e-02,
160,1.00e-02,
161,-1.60e-02,
162,-1.40e-02,
163,1.40e-02,
164,2.00e-02,
165,-1.60e-02,
166,2.98e-01,
167,-2.12e-01,
168,1.40e-02,
169,-1.40e-02,
170,1.20e-02,
171,-1.20e-02,
172,-1.40e-02,
173,1.00e-02,
174,-1.20e-02,
175,8.00e-03,
176,1.20e-02,
177,-1.20e-02,
178,1.00e-02,
179,-8.00e-03,
180,1.40e-02,
181,-1.40e-02,
182,1.00e-02,
183,-1.80e-02,
184,1.00e-02,
185,-1.20e-02,
186,1.00e-02,
187,-1.60e-02,
188,-1.60e-02,
189,1.00e-02,
190,-1.20e-02,
191,6.00e-03,
192,1.40e-02,
193,-1.60e-02,
194,-1.60e-02,
195,6.00e-03,
196,6.00e-03,
197,-1.60e-02,
198,-1.40e-02,
199,8.00e-03,
200,1.40e-02,
201,-1.00e-02,
202,-1.20e-02,
203,1.40e-02,
204,-6.00e-03,
205,1.00e-02,
206,1.00e-02,
207,-1.20e-02,
208,1.40e-02,
209,-1.40e-02,
210,1.40e-02,
211,-1.60e-02,
212,1.00e-02,
213,-1.80e-02,
214,1.00e-02,
215,-1.20e-02,
216,2.44e-01,
217,-6.40e-02,
218,1.40e-02,
219,-1.40e-02,
220,1.40e-02,
221,-1.00e-02,
222,1.20e-02,
223,-1.40e-02,
224,-1.20e-02,
225,8.00e-03,
226,1.20e-02,
227,-4.00e-03,
228,1.00e-02,
229,-8.00e-03,
230,-8.00e-03,
231,1.40e-02,
232,6.00e-03,
233,-1.40e-02,
234,-1.60e-02,
235,8.00e-03,
236,-1.60e-02,
237,8.00e-03,
238,-1.60e-02,
239,8.00e-03,
240,1.80e-02,
241,-1.20e-02,
242,2.58e-01,
243,-1.20e-01,
244,1.60e-02,
245,-1.20e-02,
246,1.60e-02,
247,-1.00e-02,
248,-1.00e-02,
249,1.00e-02,
250,6.00e-03,
251,-1.40e-02,
252,-1.00e-02,
253,1.00e-02,
254,-1.00e-02,
255,1.20e-02,
256,-4.00e-03,
257,8.00e-03,
258,1.20e-02,
259,-1.40e-02,
260,1.00e-02,
261,-1.60e-02,
262,1.40e-02,
263,-1.40e-02,
264,1.00e-02,
265,-1.60e-02,
266,-1.20e-02,
267,6.00e-03,
268,-2.12e-01,
269,6.80e-02,
270,6.00e-03,
271,-1.00e-02,
272,-6.00e-03,
273,6.00e-03,
274,-1.20e-02,
275,8.00e-03,
276,6.00e-03,
277,-1.20e-02,
278,8.00e-03,
279,-4.00e-03,
280,8.00e-03,
281,-1.20e-02,
282,1.00e-02,
283,-6.00e-03,
284,1.20e-02,
285,-1.00e-02,
286,-1.40e-02,
287,1.40e-02,
288,1.00e-02,
289,-1.40e-02,
290,1.40e-02,
291,-1.20e-02,
292,1.40e-02,
293,-6.00e-03,
294,1.80e-02,
295,-2.60e-02,
296,-6.00e-03,
297,1.80e-02,
298,-1.40e-02,
299,1.80e-02,
300,1.00e-02,
301,-1.20e-02,
302,8.00e-03,
303,-1.60e-02,
304,1.00e-02,
305,-1.20e-02,
306,1.40e-02,
307,-6.00e-03,
308,1.20e-02,
309,-6.00e-03,
310,-1.00e-02,
311,1.00e-02,
312,-1.20e-02,
313,8.00e-03,
314,-1.20e-02,
315,6.00e-03,
316,6.00e-03,
317,-1.20e-02,
318,6.00e-03,
319,-1.00e-02,
320,2.98e-01,
321,-2.12e-01,
322,1.60e-02,
323,-6.00e-03,
324,1.60e-02,
325,-8.00e-03,
326,1.60e-02,
327,-1.60e-02,
328,-1.20e-02,
329,1.40e-02,
330,1.20e-02,
331,-1.40e-02,
332,-1.00e-02,
333,1.00e-02,
334,8.00e-03,
335,-1.20e-02,
336,1.20e-02,
337,-1.20e-02,
338,1.40e-02,
339,-1.40e-02,
340,1.20e-02,
341,-1.80e-02,
342,-1.40e-02,
343,1.20e-02,
344,1.40e-02,
345,-2.00e-02,
346,-1.20e-02,
347,8.00e-03,
348,-8.00e-03,
349,8.00e-03,
350,8.00e-03,
351,-1.00e-02,
352,6.00e-03,
353,-1.60e-02,
354,-1.20e-02,
355,8.00e-03,
356,1.20e-02,
357,-4.00e-03,
358,-8.00e-03,
359,1.00e-02,
360,1.20e-02,
361,-6.00e-03,
362,1.00e-02,
363,-1.20e-02,
364,-1.60e-02,
365,1.00e-02,
366,1.20e-02,
367,-1.20e-02,
368,1.20e-02,
369,-6.00e-03,
370,-2.12e-01,
371,2.98e-01,
372,1.40e-02,
373,-1.20e-02,
374,2.00e-02,
375,-6.00e-03,
376,1.80e-02,
377,-6.00e-03,
378,1.20e-02,
379,-1.20e-02,
380,1.20e-02,
381,-1.60e-02,
382,1.20e-02,
383,-1.20e-02,
384,-4.00e-03,
385,1.00e-02,
386,-8.00e-03,
387,6.00e-03,
388,-1.20e-02,
389,8.00e-03,
390,-1.20e-02,
391,8.00e-03,
392,-1.00e-02,
393,8.00e-03,
394,-6.00e-03,
395,6.00e-03,
396,1.06e-01,
397,-4.00e-02,
398,-4.00e-03,
399,8.00e-03,
400,1.40e-02,
401,-6.00e-03,
402,1.40e-02,
403,-1.00e-02,
404,1.60e-02,
405,-1.40e-02,
406,1.40e-02,
407,-1.40e-02,
408,-1.60e-02,
409,1.00e-02,
410,-1.00e-02,
411,1.60e-02,
412,-6.00e-03,
413,1.00e-02,
414,1.00e-02,
415,-8.00e-03,
416,1.00e-02,
417,-1.40e-02,
418,-1.00e-02,
419,1.20e-02,
420,-4.00e-03,
421,1.60e-02,
422,1.84e-01,
423,-2.12e-01,
424,-6.00e-03,
425,6.00e-03,
426,-4.00e-03,
427,6.00e-03,
428,-4.00e-03,
429,6.00e-03,
430,6.00e-03,
431,-8.00e-03,
432,4.00e-03,
433,-1.60e-02,
434,-1.40e-02,
435,1.00e-02,
436,-1.20e-02,
437,8.00e-03,
438,-8.00e-03,
439,6.00e-03,
440,8.00e-03,
441,-8.00e-03,
442,-6.00e-03,
443,1.20e-02,
444,1.40e-02,
445,-8.00e-03,
446,-1.00e-02,
447,1.20e-02,
448,-2.12e-01,
449,1.54e-01,
450,1.60e-02,
451,-8.00e-03,
452,1.60e-02,
453,-6.00e-03,
454,1.60e-02,
455,-6.00e-03,
456,-1.40e-02,
457,2.00e-02,
458,1.00e-02,
459,-1.40e-02,
460,-1.20e-02,
461,1.00e-02,
462,-8.00e-03,
463,1.00e-02,
464,-1.00e-02,
465,8.00e-03,
466,-8.00e-03,
467,1.20e-02,
468,-6.00e-03,
469,8.00e-03,
470,-8.00e-03,
471,6.00e-03,
472,8.00e-03,
473,-8.00e-03,
474,-4.00e-03,
475,5.80e-02,
476,-6.00e-03,
477,8.00e-03,
478,6.00e-03,
479,-6.00e-03,
480,1.60e-02,
481,-8.00e-03,
482,1.60e-02,
483,-1.00e-02,
484,1.60e-02,
485,-1.60e-02,
486,-1.00e-02,
487,1.40e-02,
488,8.00e-03,
489,-1.00e-02,
490,-8.00e-03,
491,1.00e-02,
492,-8.00e-03,
493,8.00e-03,
494,1.00e-02,
495,-1.40e-02,
496,1.40e-02,
497,-6.00e-03,
498,2.98e-01,
499,-1.22e-01,
500,1.20e-02,
501,-1.60e-02,
502,-8.00e-03,
503,1.20e-02,
504,-6.00e-03,
505,8.00e-03,
506,-1.20e-02,
507,8.00e-03,
508,6.00e-03,
509,-1.60e-02,
510,6.00e-03,
511,-1.40e-02,
512,-4.00e-03,
513,1.20e-02,
514,-4.00e-03,
515,1.00e-02,
516,6.00e-03,
517,-1.00e-02,
518,-1.20e-02,
519,1.00e-02,
520,-8.00e-03,
521,1.00e-02,
522,1.20e-02,
523,-6.00e-03,
524,-2.00e-01,
525,2.12e-01,
526,1.40e-02,
527,-6.00e-03,
528,1.40e-02,
529,-4.00e-03,
530,-6.00e-03,
531,1.20e-02,
532,1.60e-02,
533,-8.00e-03,
534,1.60e-02,
535,-1.20e-02,
536,1.60e-02,
537,-1.40e-02,
538,-1.80e-02,
539,1.40e-02,
540,1.20e-02,
541,-8.00e-03,
542,-8.00e-03,
543,6.00e-03,
544,-6.00e-03,
545,6.00e-03,
546,-1.00e-02,
547,8.00e-03,
548,1.20e-02,
549,-6.00e-03,
550,9.80e-02,
551,-2.02e-01,
552,8.00e-03,
553,-6.00e-03,
554,-6.00e-03,
555,1.40e-02,
556,-6.00e-03,
557,1.80e-02,
558,1.40e-02,
559,-1.00e-02,
560,1.60e-02,
561,-1.40e-02,
562,2.20e-02,
563,-1.40e-02,
564,-1.20e-02,
565,1.40e-02,
566,-6.00e-03,
567,1.20e-02,
568,-6.00e-03,
569,1.20e-02,
570,-6.00e-03,
571,1.20e-02,
572,-6.00e-03,
573,1.00e-02,
574,-6.00e-03,
575,1.00e-02,
576,-9.00e-02,
577,2.82e-01,
578,-6.00e-03,
579,1.40e-02,
580,-6.00e-03,
581,1.60e-02,
582,1.40e-02,
583,-4.00e-03,
584,-6.00e-03,
585,1.80e-02,
586,2.00e-02,
587,-4.00e-03,
588,-4.00e-03,
589,1.80e-02,
590,1.80e-02,
591,-4.00e-03,
592,1.20e-02,
593,-4.00e-03,
594,1.20e-02,
595,-6.00e-03,
596,1.00e-02,
597,-4.00e-03,
598,-4.00e-03,
599,1.40e-02,
600,-1.20e-02,
601,1.40e-02,
602,-2.12e-01,
603,1.88e-01,
604,1.40e-02,
605,-8.00e-03,
606,1.20e-02,
607,-1.20e-02,
608,1.40e-02,
609,-6.00e-03,
610,1.80e-02,
611,-1.20e-02,
612,-1.60e-02,
613,1.60e-02,
614,-1.40e-02,
615,1.80e-02,
616,-1.20e-02,
617,1.40e-02,
618,-8.00e-03,
619,1.00e-02,
620,1.00e-02,
621,-8.00e-03,
622,1.60e-02,
623,-6.00e-03,
624,-4.00e-03,
625,1.20e-02,
626,-8.00e-03,
627,8.00e-03,
628,-2.80e-02,
629,4.60e-02,
630,-6.00e-03,
631,8.00e-03,
632,-6.00e-03,
633,8.00e-03,
634,-4.00e-03,
635,6.00e-03,
636,1.20e-02,
637,-4.00e-03,
638,6.00e-03,
639,-1.60e-02,
640,1.60e-02,
641,-1.20e-02,
642,1.40e-02,
643,-1.20e-02,
644,1.20e-02,
645,-1.00e-02,
646,1.20e-02,
647,-1.00e-02,
648,-8.00e-03,
649,1.00e-02,
650,-8.00e-03,
651,1.00e-02,
652,2.98e-01,
653,-1.80e-02,
654,-6.00e-03,
655,1.40e-02,
656,1.40e-02,
657,-8.00e-03,
658,1.20e-02,
659,-8.00e-03,
660,1.60e-02,
661,-6.00e-03,
662,1.60e-02,
663,-1.00e-02,
664,-1.60e-02,
665,8.00e-03,
666,8.00e-03,
667,-1.40e-02,
668,-1.20e-02,
669,1.20e-02,
670,1.20e-02,
671,-8.00e-03,
672,8.00e-03,
673,-8.00e-03,
674,8.00e-03,
675,-8.00e-03,
676,1.40e-02,
677,-6.00e-03,
678,-4.00e-03,
679,2.98e-01,
680,-8.00e-03,
681,1.20e-02,
682,1.20e-02,
683,-8.00e-03,
684,1.60e-02,
685,-6.00e-03,
686,1.40e-02,
687,-6.00e-03,
688,1.20e-02,
689,-1.00e-02,
690,1.80e-02,
691,-1.40e-02,
692,1.80e-02,
693,-1.40e-02,
694,-1.20e-02,
695,1.80e-02,
696,1.20e-02,
697,-1.60e-02,
698,1.20e-02,
699,-8.00e-03,
700,-1.20e-02,
701,1.00e-02,
702,-1.00e-02,
703,1.00e-02,
704,-1.40e-02,
705,3.20e-02,
706,1.00e-02,
707,-1.20e-02,
708,-1.20e-02,
709,8.00e-03,
710,-1.20e-02,
711,6.00e-03,
712,-6.00e-03,
713,6.00e-03,
714,6.00e-03,
715,-1.40e-02,
716,-1.80e-02,
717,6.00e-03,
718,-1.40e-02,
719,6.00e-03,
720,1.80e-02,
721,-1.40e-02,
722,1.20e-02,
723,-1.00e-02,
724,-6.00e-03,
725,1.20e-02,
726,1.20e-02,
727,-8.00e-03,
728,-8.00e-03,
729,1.20e-02,
730,2.98e-01,
731,-2.12e-01,
732,-1.00e-02,
733,1.40e-02,
734,1.20e-02,
735,-1.00e-02,
736,1.40e-02,
737,-8.00e-03,
738,1.20e-02,
739,-4.00e-03,
740,-8.00e-03,
741,1.20e-02,
742,1.20e-02,
743,-1.40e-02,
744,-1.40e-02,
745,6.00e-03,
746,4.00e-03,
747,-1.20e-02,
748,6.00e-03,
749,-1.60e-02,
750,-1.40e-02,
751,6.00e-03,
752,1.20e-02,
753,-4.00e-03,
754,-1.40e-02,
755,4.00e-02,
756,2.60e-02,
757,-6.00e-03,
758,1.40e-02,
759,-1.60e-02,
760,1.20e-02,
761,-1.40e-02,
762,1.20e-02,
763,-8.00e-03,
764,1.20e-02,
765,-6.00e-03,
766,1.40e-02,
767,-1.40e-02,
768,1.60e-02,
769,-1.40e-02,
770,1.60e-02,
771,-1.20e-02,
772,-1.40e-02,
773,2.00e-02,
774,1.40e-02,
775,-8.00e-03,
776,-1.00e-02,
777,1.20e-02,
778,1.00e-02,
779,-1.00e-02,
780,-1.88e-01,
781,1.58e-01,
782,1.00e-02,
783,-4.00e-03,
784,-1.20e-02,
785,8.00e-03,
786,-1.20e-02,
787,8.00e-03,
788,-6.00e-03,
789,8.00e-03,
790,-6.00e-03,
791,6.00e-03,
792,8.00e-03,
793,-1.40e-02,
794,-1.40e-02,
795,8.00e-03,
796,-1.60e-02,
797,6.00e-03,
798,-1.20e-02,
799,6.00e-03,
800,1.40e-02,
801,-1.00e-02,
802,1.40e-02,
803,-1.60e-02,
804,1.40e-02,
805,-1.60e-02,
806,2.98e-01,
807,-9.80e-02,
808,-1.20e-02,
809,1.00e-02,
810,1.40e-02,
811,-1.40e-02,
812,-1.60e-02,
813,1.20e-02,
814,1.40e-02,
815,-1.00e-02,
816,-6.00e-03,
817,1.20e-02,
818,1.60e-02,
819,-1.20e-02,
820,-1.40e-02,
821,2.00e-02,
822,1.80e-02,
823,-1.20e-02,
824,8.00e-03,
825,-1.60e-02,
826,6.00e-03,
827,-1.20e-02,
828,1.20e-02,
829,-6.00e-03,
830,1.40e-02,
831,-4.00e-03,
832,6.00e-03,
833,-2.12e-01,
834,-1.40e-02,
835,1.20e-02,
836,-1.40e-02,
837,6.00e-03,
838,-1.20e-02,
839,1.20e-02,
840,-6.00e-03,
841,1.20e-02,
842,-6.00e-03,
843,1.40e-02,
844,1.40e-02,
845,-1.00e-02,
846,1.00e-02,
847,-1.60e-02,
848,-1.40e-02,
849,1.60e-02,
850,-1.00e-02,
851,2.00e-02,
852,1.40e-02,
853,-1.00e-02,
854,1.40e-02,
855,-1.20e-02,
856,1.00e-02,
857,-1.80e-02,
858,-5.00e-02,
859,2.52e-01,
860,8.00e-03,
861,-1.60e-02,
862,8.00e-03,
863,-1.40e-02,
864,-1.40e-02,
865,1.00e-02,
866,-1.20e-02,
867,8.00e-03,
868,8.00e-03,
869,-6.00e-03,
870,-1.60e-02,
871,8.00e-03,
872,-1.40e-02,
873,6.00e-03,
874,-1.20e-02,
875,8.00e-03,
876,-1.00e-02,
877,8.00e-03,
878,6.00e-03,
879,-1.60e-02,
880,1.40e-02,
881,-1.00e-02,
882,-1.20e-02,
883,1.00e-02,
884,-1.92e-01,
885,2.98e-01,
886,1.20e-02,
887,-1.40e-02,
888,1.20e-02,
889,-1.60e-02,
890,-1.00e-02,
891,1.20e-02,
892,-8.00e-03,
893,1.20e-02,
894,-4.00e-03,
895,1.40e-02,
896,1.60e-02,
897,-1.40e-02,
898,-1.40e-02,
899,1.20e-02,
900,1.20e-02,
901,-1.40e-02,
902,1.60e-02,
903,-1.40e-02,
904,-1.40e-02,
905,6.00e-03,
906,-1.40e-02,
907,6.00e-03,
908,-3.60e-02,
909,8.00e-03,
910,-1.20e-02,
911,1.00e-02,
912,8.00e-03,
913,-1.00e-02,
914,-1.40e-02,
915,8.00e-03,
916,-1.40e-02,
917,1.00e-02,
918,-8.00e-03,
919,1.00e-02,
920,1.20e-02,
921,-8.00e-03,
922,-1.40e-02,
923,1.20e-02,
924,1.20e-02,
925,-1.60e-02,
926,1.80e-02,
927,-1.00e-02,
928,-1.00e-02,
929,1.80e-02,
930,1.80e-02,
931,-1.40e-02,
932,1.60e-02,
933,-1.40e-02,
934,-5.80e-02,
935,2.84e-01,
936,-1.20e-02,
937,8.00e-03,
938,1.20e-02,
939,-1.40e-02,
940,1.00e-02,
941,-1.40e-02,
942,-1.20e-02,
943,1.00e-02,
944,-4.00e-03,
945,1.40e-02,
946,6.00e-03,
947,-8.00e-03,
948,8.00e-03,
949,-1.40e-02,
950,-1.60e-02,
951,1.20e-02,
952,-1.60e-02,
953,6.00e-03,
954,-1.20e-02,
955,8.00e-03,
956,-1.40e-02,
957,8.00e-03,
958,6.00e-03,
959,-1.60e-02,
960,2.88e-01,
961,-2.80e-02,
962,1.00e-02,
963,-1.80e-02,
964,-1.40e-02,
965,1.00e-02,
966,-1.40e-02,
967,8.00e-03,
968,-1.20e-02,
969,1.20e-02,
970,-1.00e-02,
971,1.40e-02,
972,1.40e-02,
973,-1.00e-02,
974,1.20e-02,
975,-1.60e-02,
976,1.20e-02,
977,-1.60e-02,
978,1.60e-02,
979,-1.20e-02,
980,1.80e-02,
981,-1.20e-02,
982,1.60e-02,
983,-1.00e-02,
984,6.00e-03,
985,-1.60e-02,
986,-1.06e-01,
987,1.20e-02,
988,6.00e-03,
989,-1.40e-02,
990,-1.60e-02,
991,6.00e-03,
992,-1.20e-02,
993,6.00e-03,
994,-1.00e-02,
995,1.20e-02,
996,-4.00e-03,
997,1.20e-02,
998,-6.00e-03,
999,1.00e-02,
1000,1.20e-02,
1001,-1.40e-02,
1002,-1.60e-02,
1003,1.20e-02,
1004,-1.60e-02,
1005,1.20e-02,
1006,-1.60e-02,
1007,1.40e-02,
1008,1.60e-02,
1009,-1.80e-02,
1010,1.60e-02,
1011,-1.00e-02,
1012,2.98e-01,
1013,-1.60e-02,
1014,-1.40e-02,
1015,1.20e-02,
1016,6.00e-03,
1017,-1.20e-02,
1018,-1.60e-02,
1019,1.00e-02,
1020,-1.40e-02,
1021,1.00e-02,
1022,-8.00e-03,
1023,1.40e-02,
1024,-1.40e-02,
1025,1.00e-02,
1026,-1.60e-02,
1027,8.00e-03,
1028,-1.60e-02,
1029,6.00e-03,
1030,-1.40e-02,
1031,6.00e-03,
1032,-1.20e-02,
1033,8.00e-03,
1034,6.00e-03,
1035,-1.60e-02,
1036,-1.60e-02,
1037,6.00e-03,
1038,-9.60e-02,
1039,2.98e-01,
1040,-1.60e-02,
1041,8.00e-03,
1042,-1.80e-02,
1043,8.00e-03,
1044,1.40e-02,
1045,-1.60e-02,
1046,-1.40e-02,
1047,1.20e-02,
1048,-6.00e-03,
1049,1.20e-02,
1050,1.00e-02,
1051,-6.00e-03,
1052,1.40e-02,
1053,-1.00e-02,
1054,1.20e-02,
1055,-1.60e-02,
1056,1.20e-02,
1057,-1.40e-02,
1058,1.20e-02,
1059,-1.40e-02,
1060,-1.00e-02,
1061,1.80e-02,
1062,1.40e-02,
1063,-1.54e-01,
1064,-1.20e-02,
1065,6.00e-03,
1066,-1.20e-02,
1067,8.00e-03,
1068,8.00e-03,
1069,-1.00e-02,
1070,-1.60e-02,
1071,1.00e-02,
1072,1.20e-02,
1073,-1.00e-02,
1074,-1.00e-02,
1075,1.20e-02,
1076,6.00e-03,
1077,-1.00e-02,
1078,1.00e-02,
1079,-1.60e-02,
1080,-1.60e-02,
1081,1.20e-02,
1082,1.20e-02,
1083,-1.40e-02,
1084,-1.40e-02,
1085,1.80e-02,
1086,1.60e-02,
1087,-1.60e-02,
1088,2.98e-01,
1089,-2.12e-01,
1090,1.80e-02,
1091,-1.40e-02,
1092,8.00e-03,
1093,-1.40e-02,
1094,-1.60e-02,
1095,8.00e-03,
1096,-1.40e-02,
1097,1.40e-02,
1098,1.00e-02,
1099,-1.00e-02,
1100,8.00e-03,
1101,-6.00e-03,
1102,1.20e-02,
1103,-1.20e-02,
1104,-1.20e-02,
1105,8.00e-03,
1106,6.00e-03,
1107,-1.40e-02,
1108,1.40e-02,
1109,-1.40e-02,
1110,-1.60e-02,
1111,6.00e-03,
1112,-1.40e-02,
1113,6.00e-03,
1114,-6.00e-03,
1115,6.00e-02,
1116,-1.40e-02,
1117,6.00e-03,
1118,-1.60e-02,
1119,1.20e-02,
1120,1.20e-02,
1121,-1.20e-02,
1122,-1.60e-02,
1123,1.00e-02,
1124,-1.20e-02,
1125,1.00e-02,
1126,-1.00e-02,
1127,1.00e-02,
1128,-1.00e-02,
1129,1.40e-02,
1130,1.40e-02,
1131,-1.40e-02,
1132,-1.60e-02,
1133,1.00e-02,
1134,1.00e-02,
1135,-1.60e-02,
1136,-1.20e-02,
1137,1.60e-02,
1138,-1.40e-02,
1139,2.00e-02,
1140,2.98e-01,
1141,-2.12e-01,
1142,1.80e-02,
1143,-1.60e-02,
1144,6.00e-03,
1145,-1.60e-02,
1146,-1.60e-02,
1147,8.00e-03,
1148,-1.40e-02,
1149,6.00e-03,
1150,-1.00e-02,
1151,8.00e-03,
1152,-8.00e-03,
1153,8.00e-03,
1154,1.20e-02,
1155,-8.00e-03,
1156,-1.20e-02,
1157,8.00e-03,
1158,-1.20e-02,
1159,1.40e-02,
1160,1.20e-02,
1161,-1.20e-02,
1162,1.20e-02,
1163,-1.20e-02,
1164,-8.00e-03,
1165,1.20e-02,
1166,3.00e-02,
1167,-2.12e-01,
1168,-6.00e-03,
1169,1.60e-02,
1170,1.40e-02,
1171,-1.40e-02,
1172,1.40e-02,
1173,-1.20e-02,
1174,-1.40e-02,
1175,1.20e-02,
1176,-1.00e-02,
1177,1.20e-02,
1178,1.00e-02,
1179,-8.00e-03,
1180,1.20e-02,
1181,-1.00e-02,
1182,1.40e-02,
1183,-1.40e-02,
1184,8.00e-03,
1185,-1.80e-02,
1186,-1.40e-02,
1187,6.00e-03,
1188,-1.40e-02,
1189,6.00e-03,
1190,-1.40e-02,
1191,8.00e-03,
1192,3.40e-02,
1193,-2.12e-01,
1194,6.00e-03,
1195,-1.00e-02,
1196,-1.00e-02,
1197,8.00e-03,
1198,8.00e-03,
1199,-1.80e-02,
