Motor_Data/MOTOR_1_ON/time domain/NewFile22.csv

X,CH2,Start,Increment,
Sequence,Volt,-3.000000e-02,5.000000e-05
0,-1.40e-02,
1,1.00e-02,
2,-2.12e-01,
3,2.00e-01,
4,-6.00e-03,
5,1.40e-02,
6,-6.00e-03,
7,1.20e-02,
8,-6.00e-03,
9,1.20e-02,
10,6.00e-03,
11,-8.00e-03,
12,8.00e-03,
13,-8.00e-03,
14,8.00e-03,
15,-1.40e-02,
16,3.20e-02,
17,-3.80e-02,
18,-2.80e-02,
19,4.60e-02,
20,3.20e-02,
21,-3.60e-02,
22,3.20e-02,
23,-2.00e-02,
24,-1.00e-02,
25,8.00e-03,
26,-2.00e-02,
27,2.18e-01,
28,1.60e-02,
29,-1.80e-02,
30,1.00e-02,
31,-1.20e-02,
32,-6.00e-03,
33,8.00e-03,
34,-6.00e-03,
35,8.00e-03,
36,-6.00e-03,
37,8.00e-03,
38,-2.00e-02,
39,8.00e-03,
40,1.00e-02,
41,-4.00e-02,
42,-6.00e-03,
43,5.40e-02,
44,3.00e-02,
45,-3.80e-02,
46,3.40e-02,
47,-1.80e-02,
48,-5.20e-02,
49,3.00e-02,
50,-8.00e-03,
51,3.60e-02,
52,2.98e-01,
53,-2.12e-01,
54,8.00e-03,
55,-1.80e-02,
56,8.00e-03,
57,-2.20e-02,
58,2.00e-02,
59,-8.00e-03,
60,-6.00e-03,
61,1.20e-02,
62,-6.00e-03,
63,8.00e-03,
64,6.00e-03,
65,-6.00e-03,
66,-6.00e-03,
67,8.00e-03,
68,3.40e-02,
69,-3.80e-02,
70,3.20e-02,
71,-2.80e-02,
72,-5.20e-02,
73,4.80e-02,
74,3.20e-02,
75,-4.00e-02,
76,5.60e-02,
77,-1.00e-02,
78,-2.40e-02,
79,2.60e-02,
80,-1.40e-02,
81,8.00e-03,
82,2.20e-02,
83,-2.20e-02,
84,8.00e-03,
85,-8.00e-03,
86,-6.00e-03,
87,8.00e-03,
88,8.00e-03,
89,-8.00e-03,
90,-6.00e-03,
91,8.00e-03,
92,1.00e-02,
93,-4.20e-02,
94,-6.00e-03,
95,5.60e-02,
96,4.00e-02,
97,-1.60e-02,
98,3.00e-02,
99,-4.00e-02,
100,-5.60e-02,
101,1.60e-02,
102,-2.12e-01,
103,1.84e-01,
104,3.60e-02,
105,-1.60e-02,
106,8.00e-03,
107,-1.80e-02,
108,8.00e-03,
109,-1.80e-02,
110,-6.00e-03,
111,2.00e-02,
112,1.60e-02,
113,-6.00e-03,
114,-6.00e-03,
115,1.00e-02,
116,6.00e-03,
117,-8.00e-03,
118,-6.00e-03,
119,8.00e-03,
120,1.00e-02,
121,-2.00e-02,
122,3.60e-02,
123,-4.20e-02,
124,5.80e-02,
125,-5.00e-02,
126,3.40e-02,
127,-3.60e-02,
128,3.40e-02,
129,-1.60e-02,
130,-1.00e-02,
131,2.60e-02,
132,-2.40e-02,
133,2.20e-02,
134,1.80e-02,
135,-1.60e-02,
136,1.00e-02,
137,-1.00e-02,
138,1.00e-02,
139,-6.00e-03,
140,8.00e-03,
141,-8.00e-03,
142,-6.00e-03,
143,1.00e-02,
144,-2.20e-02,
145,8.00e-03,
146,-4.00e-03,
147,1.60e-02,
148,-6.00e-03,
149,6.20e-02,
150,3.00e-02,
151,-3.40e-02,
152,1.52e-01,
153,-2.40e-02,
154,-5.00e-02,
155,2.80e-02,
156,-6.00e-03,
157,3.60e-02,
158,1.20e-02,
159,-1.60e-02,
160,6.00e-03,
161,-2.20e-02,
162,-1.60e-02,
163,8.00e-03,
164,1.40e-02,
165,-6.00e-03,
166,-1.00e-02,
167,1.20e-02,
168,8.00e-03,
169,-8.00e-03,
170,-1.00e-02,
171,8.00e-03,
172,-6.00e-03,
173,8.00e-03,
174,-1.80e-02,
175,3.80e-02,
176,2.98e-01,
177,-3.00e-02,
178,-4.80e-02,
179,4.60e-02,
180,3.40e-02,
181,-4.00e-02,
182,-1.00e-02,
183,1.20e-02,
184,8.00e-03,
185,-2.20e-02,
186,8.00e-03,
187,-1.60e-02,
188,1.60e-02,
189,-1.40e-02,
190,-6.00e-03,
191,8.00e-03,
192,6.00e-03,
193,-6.00e-03,
194,-6.00e-03,
195,8.00e-03,
196,-6.00e-03,
197,8.00e-03,
198,1.20e-02,
199,-4.00e-02,
200,-6.00e-03,
201,6.00e-02,
202,2.98e-01,
203,-2.12e-01,
204,3.20e-02,
205,-3.60e-02,
206,1.00e-02,
207,-5.00e-02,
208,-1.80e-02,
209,3.00e-02,
210,3.40e-02,
211,-1.60e-02,
212,-1.20e-02,
213,1.00e-02,
214,8.00e-03,
215,-2.20e-02,
216,-6.00e-03,
217,1.60e-02,
218,8.00e-03,
219,-8.00e-03,
220,-6.00e-03,
221,1.00e-02,
222,8.00e-03,
223,-6.00e-03,
224,8.00e-03,
225,-6.00e-03,
226,1.60e-02,
227,-2.40e-02,
228,-3.60e-02,
229,2.60e-02,
230,8.00e-03,
231,-5.00e-02,
232,3.60e-02,
233,-3.40e-02,
234,3.00e-02,
235,-1.20e-02,
236,6.00e-03,
237,-1.60e-02,
238,8.00e-03,
239,-2.40e-02,
240,1.60e-02,
241,-1.60e-02,
242,8.00e-03,
243,-1.40e-02,
244,8.00e-03,
245,-6.00e-03,
246,-6.00e-03,
247,8.00e-03,
248,8.00e-03,
249,-8.00e-03,
250,2.98e-01,
251,-1.76e-01,
252,-4.00e-02,
253,2.00e-02,
254,-8.00e-03,
255,5.80e-02,
256,3.60e-02,
257,-4.00e-02,
258,3.00e-02,
259,-3.00e-02,
260,-5.20e-02,
261,2.80e-02,
262,3.40e-02,
263,-6.00e-03,
264,-1.80e-02,
265,1.00e-02,
266,1.00e-02,
267,-2.20e-02,
268,8.00e-03,
269,-1.80e-02,
270,1.80e-02,
271,-8.00e-03,
272,6.00e-03,
273,-6.00e-03,
274,8.00e-03,
275,-6.00e-03,
276,-6.00e-03,
277,1.40e-02,
278,8.00e-03,
279,-6.00e-03,
280,4.00e-02,
281,-3.60e-02,
282,-4.20e-02,
283,5.40e-02,
284,-5.20e-02,
285,3.80e-02,
286,3.40e-02,
287,-3.60e-02,
288,-1.00e-02,
289,1.20e-02,
290,2.60e-02,
291,-2.40e-02,
292,1.00e-02,
293,-1.40e-02,
294,1.80e-02,
295,-1.20e-02,
296,-6.00e-03,
297,8.00e-03,
298,-6.00e-03,
299,8.00e-03,
300,-6.00e-03,
301,8.00e-03,
302,-2.12e-01,
303,2.22e-01,
304,1.20e-02,
305,-3.40e-02,
306,-6.00e-03,
307,5.60e-02,
308,2.80e-02,
309,-2.40e-02,
310,3.60e-02,
311,-3.60e-02,
312,-5.00e-02,
313,1.80e-02,
314,-1.00e-02,
315,2.60e-02,
316,3.20e-02,
317,-6.00e-03,
318,1.00e-02,
319,-1.00e-02,
320,-2.40e-02,
321,8.00e-03,
322,-6.00e-03,
323,1.80e-02,
324,8.00e-03,
325,-6.00e-03,
326,1.04e-01,
327,-6.40e-02,
328,1.20e-02,
329,-1.20e-02,
330,-6.00e-03,
331,1.00e-02,
332,1.20e-02,
333,-2.20e-02,
334,-3.40e-02,
335,1.60e-02,
336,-4.60e-02,
337,3.60e-02,
338,3.80e-02,
339,-4.00e-02,
340,2.60e-02,
341,-1.20e-02,
342,-1.40e-02,
343,2.40e-02,
344,-2.40e-02,
345,1.00e-02,
346,-1.60e-02,
347,1.80e-02,
348,8.00e-03,
349,-1.40e-02,
350,8.00e-03,
351,-2.12e-01,
352,8.00e-03,
353,-6.00e-03,
354,-6.00e-03,
355,8.00e-03,
356,-6.00e-03,
357,8.00e-03,
358,2.40e-02,
359,-6.00e-03,
360,-6.00e-03,
361,6.00e-02,
362,3.60e-02,
363,-3.20e-02,
364,2.40e-02,
365,-3.40e-02,
366,-4.60e-02,
367,2.60e-02,
368,-6.00e-03,
369,3.80e-02,
370,-1.40e-02,
371,8.00e-03,
372,8.00e-03,
373,-2.40e-02,
374,-1.60e-02,
375,8.00e-03,
376,2.98e-01,
377,-9.20e-02,
378,-8.00e-03,
379,1.00e-02,
380,8.00e-03,
381,-8.00e-03,
382,8.00e-03,
383,-8.00e-03,
384,-6.00e-03,
385,8.00e-03,
386,3.80e-02,
387,-3.60e-02,
388,1.80e-02,
389,-4.40e-02,
390,-5.00e-02,
391,3.60e-02,
392,4.00e-02,
393,-3.40e-02,
394,-1.00e-02,
395,8.00e-03,
396,8.00e-03,
397,-2.60e-02,
398,-1.80e-02,
399,1.60e-02,
400,2.98e-01,
401,-1.72e-01,
402,-6.00e-03,
403,1.00e-02,
404,6.00e-03,
405,-6.00e-03,
406,-6.00e-03,
407,1.00e-02,
408,-8.00e-03,
409,8.00e-03,
410,1.00e-02,
411,-3.40e-02,
412,-6.00e-03,
413,5.60e-02,
414,2.40e-02,
415,-2.80e-02,
416,4.00e-02,
417,-3.60e-02,
418,8.00e-03,
419,-5.00e-02,
420,-6.00e-03,
421,4.00e-02,
422,3.00e-02,
423,-1.80e-02,
424,-1.80e-02,
425,8.00e-03,
426,-2.60e-02,
427,1.40e-02,
428,-6.00e-03,
429,2.20e-02,
430,-4.00e-03,
431,8.00e-03,
432,-8.00e-03,
433,8.00e-03,
434,6.00e-03,
435,-1.20e-02,
436,-6.00e-03,
437,8.00e-03,
438,8.00e-03,
439,-2.60e-02,
440,4.00e-02,
441,-3.60e-02,
442,-4.60e-02,
443,6.00e-02,
444,4.00e-02,
445,-3.40e-02,
446,2.20e-02,
447,-1.20e-02,
448,-1.40e-02,
449,2.60e-02,
450,-2.12e-01,
451,1.88e-01,
452,-1.20e-02,
453,1.40e-02,
454,1.00e-02,
455,-6.00e-03,
456,-6.00e-03,
457,1.00e-02,
458,8.00e-03,
459,-1.00e-02,
460,8.00e-03,
461,-6.00e-03,
462,6.00e-03,
463,-3.40e-02,
464,1.00e-02,
465,-6.00e-03,
466,6.00e-02,
467,-6.00e-03,
468,-2.80e-02,
469,4.00e-02,
470,8.00e-03,
471,-3.60e-02,
472,-4.80e-02,
473,2.80e-02,
474,3.80e-02,
475,-6.00e-03,
476,-2.12e-01,
477,8.00e-03,
478,8.00e-03,
479,-1.00e-02,
480,8.00e-03,
481,-1.40e-02,
482,-6.00e-03,
483,1.60e-02,
484,-6.00e-03,
485,1.00e-02,
486,6.00e-03,
487,-8.00e-03,
488,-1.00e-02,
489,8.00e-03,
490,6.00e-03,
491,-6.00e-03,
492,-2.80e-02,
493,4.20e-02,
494,-4.60e-02,
495,6.00e-02,
496,-4.20e-02,
497,3.00e-02,
498,3.80e-02,
499,-3.60e-02,
500,2.98e-01,
501,-2.12e-01,
502,2.40e-02,
503,-2.40e-02,
504,8.00e-03,
505,-2.00e-02,
506,1.80e-02,
507,-1.60e-02,
508,-6.00e-03,
509,8.00e-03,
510,-6.00e-03,
511,8.00e-03,
512,-6.00e-03,
513,8.00e-03,
514,6.00e-03,
515,-6.00e-03,
516,-3.40e-02,
517,8.00e-03,
518,-6.00e-03,
519,5.80e-02,
520,2.00e-02,
521,-3.00e-02,
522,3.40e-02,
523,-3.60e-02,
524,-5.00e-02,
525,2.00e-02,
526,1.72e-01,
527,-1.60e-02,
528,2.60e-02,
529,-1.80e-02,
530,8.00e-03,
531,-1.40e-02,
532,6.00e-03,
533,-2.60e-02,
534,2.20e-02,
535,-8.00e-03,
536,-6.00e-03,
537,1.00e-02,
538,-6.00e-03,
539,1.00e-02,
540,8.00e-03,
541,-1.20e-02,
542,-6.00e-03,
543,8.00e-03,
544,-6.00e-03,
545,2.00e-02,
546,8.00e-03,
547,-3.20e-02,
548,-4.60e-02,
549,8.00e-03,
550,2.98e-01,
551,-5.40e-02,
552,1.80e-02,
553,-1.20e-02,
554,8.00e-03,
555,-1.80e-02,
556,-2.60e-02,
557,8.00e-03,
558,1.60e-02,
559,-1.40e-02,
560,-6.00e-03,
561,8.00e-03,
562,-6.00e-03,
563,8.00e-03,
564,8.00e-03,
565,-6.00e-03,
566,-6.00e-03,
567,8.00e-03,
568,1.00e-02,
569,-3.40e-02,
570,-2.80e-02,
571,3.80e-02,
572,-1.00e-02,
573,6.00e-02,
574,-3.20e-02,
575,4.00e-02,
576,1.40e-02,
577,-4.40e-02,
578,-4.60e-02,
579,2.80e-02,
580,2.40e-02,
581,-1.00e-02,
582,-2.00e-02,
583,8.00e-03,
584,-6.00e-03,
585,1.00e-02,
586,-6.00e-03,
587,1.00e-02,
588,1.80e-02,
589,-8.00e-03,
590,8.00e-03,
591,-6.00e-03,
592,-6.00e-03,
593,8.00e-03,
594,8.00e-03,
595,-8.00e-03,
596,-4.00e-03,
597,8.00e-03,
598,4.20e-02,
599,-2.80e-02,
600,2.98e-01,
601,-8.60e-02,
602,-3.60e-02,
603,1.80e-02,
604,4.00e-02,
605,-3.40e-02,
606,2.00e-02,
607,-1.00e-02,
608,3.00e-02,
609,-2.20e-02,
610,1.20e-02,
611,-2.00e-02,
612,2.00e-02,
613,-1.00e-02,
614,1.00e-02,
615,-6.00e-03,
616,-6.00e-03,
617,8.00e-03,
618,8.00e-03,
619,-8.00e-03,
620,8.00e-03,
621,-6.00e-03,
622,8.00e-03,
623,-3.40e-02,
624,4.00e-02,
625,-8.00e-03,
626,1.88e-01,
627,-2.12e-01,
628,8.00e-03,
629,-3.20e-02,
630,-4.20e-02,
631,8.00e-03,
632,-6.00e-03,
633,1.20e-02,
634,2.20e-02,
635,-1.00e-02,
636,8.00e-03,
637,-6.00e-03,
638,8.00e-03,
639,-8.00e-03,
640,-6.00e-03,
641,1.40e-02,
642,8.00e-03,
643,-6.00e-03,
644,8.00e-03,
645,-8.00e-03,
646,-1.00e-02,
647,1.00e-02,
648,-6.00e-03,
649,8.00e-03,
650,2.98e-01,
651,-3.80e-02,
652,4.40e-02,
653,-2.80e-02,
654,-5.00e-02,
655,6.00e-02,
656,4.20e-02,
657,-3.00e-02,
658,2.00e-02,
659,-1.40e-02,
660,-1.80e-02,
661,2.80e-02,
662,-2.20e-02,
663,1.80e-02,
664,1.80e-02,
665,-1.60e-02,
666,8.00e-03,
667,-6.00e-03,
668,-6.00e-03,
669,1.00e-02,
670,8.00e-03,
671,-6.00e-03,
672,-4.00e-03,
673,1.00e-02,
674,1.20e-02,
675,-3.80e-02,
676,8.00e-03,
677,-2.12e-01,
678,-6.00e-03,
679,5.20e-02,
680,-3.00e-02,
681,4.20e-02,
682,1.20e-02,
683,-4.60e-02,
684,-4.20e-02,
685,3.40e-02,
686,4.00e-02,
687,-1.00e-02,
688,8.00e-03,
689,-1.80e-02,
690,8.00e-03,
691,-2.20e-02,
692,8.00e-03,
693,-1.00e-02,
694,1.20e-02,
695,-6.00e-03,
696,8.00e-03,
697,-6.00e-03,
698,8.00e-03,
699,-8.00e-03,
700,-2.12e-01,
701,2.70e-01,
702,8.00e-03,
703,-6.00e-03,
704,-6.00e-03,
705,4.00e-02,
706,8.00e-03,
707,-8.00e-03,
708,-3.80e-02,
709,8.00e-03,
710,-6.00e-03,
711,4.20e-02,
712,8.00e-03,
713,-1.20e-02,
714,-2.00e-02,
715,1.40e-02,
716,1.00e-02,
717,-1.80e-02,
718,1.60e-02,
719,-1.20e-02,
720,1.00e-02,
721,-8.00e-03,
722,8.00e-03,
723,-6.00e-03,
724,-6.00e-03,
725,8.00e-03,
726,-2.12e-01,
727,4.60e-02,
728,8.00e-03,
729,-4.00e-02,
730,-6.00e-03,
731,5.60e-02,
732,1.20e-02,
733,-3.60e-02,
734,4.20e-02,
735,-3.00e-02,
736,-4.60e-02,
737,2.00e-02,
738,-6.00e-03,
739,4.20e-02,
740,2.00e-02,
741,-1.60e-02,
742,8.00e-03,
743,-1.80e-02,
744,6.00e-03,
745,-2.40e-02,
746,-6.00e-03,
747,1.80e-02,
748,8.00e-03,
749,-8.00e-03,
750,2.98e-01,
751,-2.12e-01,
752,-6.00e-03,
753,8.00e-03,
754,8.00e-03,
755,-6.00e-03,
756,8.00e-03,
757,-3.60e-02,
758,4.00e-02,
759,-2.40e-02,
760,-5.00e-02,
761,5.40e-02,
762,-2.80e-02,
763,4.20e-02,
764,1.40e-02,
765,-1.20e-02,
766,-1.80e-02,
767,3.00e-02,
768,-2.20e-02,
769,1.20e-02,
770,1.20e-02,
771,-1.60e-02,
772,6.00e-03,
773,-8.00e-03,
774,-2.12e-01,
775,1.92e-01,
776,8.00e-03,
777,-6.00e-03,
778,6.00e-03,
779,-8.00e-03,
780,8.00e-03,
781,-4.00e-02,
782,-2.00e-02,
783,4.60e-02,
784,-6.00e-03,
785,8.00e-03,
786,2.00e-02,
787,-3.80e-02,
788,8.00e-03,
789,-4.60e-02,
790,-3.80e-02,
791,3.00e-02,
792,1.80e-02,
793,-1.20e-02,
794,-4.00e-03,
795,8.00e-03,
796,-6.00e-03,
797,1.00e-02,
798,1.40e-02,
799,-6.00e-03,
800,-2.12e-01,
801,2.98e-01,
802,1.00e-02,
803,-1.00e-02,
804,8.00e-03,
805,-1.20e-02,
806,-1.20e-02,
807,8.00e-03,
808,8.00e-03,
809,-8.00e-03,
810,2.60e-02,
811,-3.80e-02,
812,-5.20e-02,
813,5.80e-02,
814,-3.40e-02,
815,2.00e-02,
816,4.00e-02,
817,-2.60e-02,
818,-6.00e-03,
819,2.20e-02,
820,3.00e-02,
821,-2.00e-02,
822,1.40e-02,
823,-1.40e-02,
824,-2.12e-01,
825,2.98e-01,
826,-1.60e-02,
827,8.00e-03,
828,8.00e-03,
829,-6.00e-03,
830,-6.00e-03,
831,1.00e-02,
832,8.00e-03,
833,-6.00e-03,
834,1.00e-02,
835,-3.80e-02,
836,-6.00e-03,
837,4.80e-02,
838,1.80e-02,
839,-3.60e-02,
840,4.20e-02,
841,-2.40e-02,
842,-4.80e-02,
843,2.20e-02,
844,-8.00e-03,
845,4.00e-02,
846,2.20e-02,
847,-1.80e-02,
848,8.00e-03,
849,-2.20e-02,
850,-2.12e-01,
851,2.98e-01,
852,-6.00e-03,
853,1.60e-02,
854,-6.00e-03,
855,1.20e-02,
856,8.00e-03,
857,-6.00e-03,
858,-6.00e-03,
859,8.00e-03,
860,8.00e-03,
861,-6.00e-03,
862,2.00e-02,
863,-3.80e-02,
864,-2.20e-02,
865,4.40e-02,
866,-5.40e-02,
867,8.00e-03,
868,-3.00e-02,
869,3.60e-02,
870,-6.00e-03,
871,1.60e-02,
872,-1.00e-02,
873,8.00e-03,
874,-2.20e-02,
875,1.20e-02,
876,-6.00e-03,
877,1.60e-02,
878,-6.00e-03,
879,1.20e-02,
880,8.00e-03,
881,-6.00e-03,
882,6.00e-03,
883,-8.00e-03,
884,1.00e-02,
885,-6.00e-03,
886,1.00e-02,
887,-4.00e-02,
888,-1.20e-02,
889,5.00e-02,
890,-6.00e-03,
891,5.20e-02,
892,-4.00e-02,
893,4.20e-02,
894,-4.80e-02,
895,1.00e-02,
896,-3.80e-02,
897,2.60e-02,
898,3.60e-02,
899,-1.20e-02,
900,2.98e-01,
901,-6.60e-02,
902,-2.00e-02,
903,8.00e-03,
904,-6.00e-03,
905,1.20e-02,
906,1.60e-02,
907,-1.20e-02,
908,8.00e-03,
909,-6.00e-03,
910,-6.00e-03,
911,8.00e-03,
912,-6.00e-03,
913,8.00e-03,
914,8.00e-03,
915,-8.00e-03,
916,-6.00e-03,
917,4.00e-02,
918,-5.60e-02,
919,5.60e-02,
920,2.20e-02,
921,-3.20e-02,
922,3.80e-02,
923,-2.80e-02,
924,2.98e-01,
925,-1.26e-01,
926,-2.20e-02,
927,2.80e-02,
928,1.80e-02,
929,-2.00e-02,
930,1.60e-02,
931,-1.00e-02,
932,8.00e-03,
933,-6.00e-03,
934,8.00e-03,
935,-8.00e-03,
936,-6.00e-03,
937,8.00e-03,
938,6.00e-03,
939,-1.20e-02,
940,1.20e-02,
941,-4.40e-02,
942,5.00e-02,
943,-6.00e-03,
944,8.00e-03,
945,-4.00e-02,
946,4.20e-02,
947,-6.00e-03,
948,-5.40e-02,
949,2.60e-02,
950,-1.24e-01,
951,4.00e-02,
952,2.00e-02,
953,-6.00e-03,
954,-6.00e-03,
955,1.00e-02,
956,-2.20e-02,
957,8.00e-03,
958,1.40e-02,
959,-8.00e-03,
960,6.00e-03,
961,-8.00e-03,
962,8.00e-03,
963,-8.00e-03,
964,-1.00e-02,
965,8.00e-03,
966,-4.00e-03,
967,8.00e-03,
968,2.80e-02,
969,-3.80e-02,
970,-1.60e-02,
971,4.80e-02,
972,-5.20e-02,
973,5.20e-02,
974,1.24e-01,
975,-2.12e-01,
976,1.00e-02,
977,-1.00e-02,
978,-2.20e-02,
979,2.40e-02,
980,-2.20e-02,
981,1.00e-02,
982,1.40e-02,
983,-1.80e-02,
984,8.00e-03,
985,-6.00e-03,
986,-6.00e-03,
987,8.00e-03,
988,8.00e-03,
989,-6.00e-03,
990,6.00e-03,
991,-6.00e-03,
992,-1.80e-02,
993,1.20e-02,
994,-6.00e-03,
995,5.40e-02,
996,-6.00e-03,
997,5.00e-02,
998,3.80e-02,
999,-2.40e-02,
1000,2.98e-01,
1001,-2.12e-01,
1002,-3.40e-02,
1003,2.60e-02,
1004,3.40e-02,
1005,-1.40e-02,
1006,-1.80e-02,
1007,1.00e-02,
1008,8.00e-03,
1009,-2.20e-02,
1010,-6.00e-03,
1011,1.20e-02,
1012,1.40e-02,
1013,-6.00e-03,
1014,-6.00e-03,
1015,8.00e-03,
1016,6.00e-03,
1017,-6.00e-03,
1018,-6.00e-03,
1019,8.00e-03,
1020,8.00e-03,
1021,-1.00e-02,
1022,3.40e-02,
1023,-1.40e-02,
1024,-2.00e-02,
1025,1.40e-02,
1026,6.00e-03,
1027,-2.40e-02,
1028,-6.00e-03,
1029,3.60e-02,
1030,-1.20e-02,
1031,6.00e-03,
1032,6.00e-03,
1033,-8.00e-03,
1034,-8.00e-03,
1035,1.40e-02,
1036,8.00e-03,
1037,-8.00e-03,
1038,-6.00e-03,
1039,6.00e-03,
1040,8.00e-03,
1041,-8.00e-03,
1042,8.00e-03,
1043,-6.00e-03,
1044,8.00e-03,
1045,-1.60e-02,
1046,1.40e-02,
1047,-3.80e-02,
1048,-6.00e-03,
1049,5.20e-02,
1050,2.98e-01,
1051,-1.70e-01,
1052,3.80e-02,
1053,-2.00e-02,
1054,-4.80e-02,
1055,2.60e-02,
1056,-8.00e-03,
1057,3.80e-02,
1058,1.20e-02,
1059,-2.00e-02,
1060,8.00e-03,
1061,-1.20e-02,
1062,8.00e-03,
1063,-2.20e-02,
1064,-6.00e-03,
1065,1.40e-02,
1066,8.00e-03,
1067,-6.00e-03,
1068,8.00e-03,
1069,-6.00e-03,
1070,-1.20e-02,
1071,8.00e-03,
1072,8.00e-03,
1073,-6.00e-03,
1074,-1.20e-02,
1075,2.98e-01,
1076,8.00e-03,
1077,-2.20e-02,
1078,8.00e-03,
1079,-5.40e-02,
1080,-3.80e-02,
1081,3.80e-02,
1082,-1.00e-02,
1083,1.20e-02,
1084,-2.40e-02,
1085,2.80e-02,
1086,8.00e-03,
1087,-1.60e-02,
1088,2.00e-02,
1089,-1.20e-02,
1090,-4.00e-03,
1091,8.00e-03,
1092,8.00e-03,
1093,-6.00e-03,
1094,8.00e-03,
1095,-8.00e-03,
1096,1.00e-02,
1097,-6.00e-03,
1098,-2.00e-02,
1099,1.20e-02,
1100,-2.12e-01,
1101,2.36e-01,
1102,-4.00e-03,
1103,4.80e-02,
1104,2.80e-02,
1105,-6.00e-03,
1106,8.00e-03,
1107,-1.80e-02,
1108,-3.00e-02,
1109,2.60e-02,
1110,-6.00e-03,
1111,1.00e-02,
1112,-4.00e-03,
1113,8.00e-03,
1114,8.00e-03,
1115,-6.00e-03,
1116,-6.00e-03,
1117,2.00e-02,
1118,8.00e-03,
1119,-8.00e-03,
1120,1.20e-02,
1121,-6.00e-03,
1122,8.00e-03,
1123,-1.00e-02,
1124,2.08e-01,
1125,-1.70e-01,
1126,8.00e-03,
1127,-1.40e-02,
1128,-3.80e-02,
1129,3.40e-02,
1130,5.20e-02,
1131,-5.20e-02,
1132,8.00e-03,
1133,-3.60e-02,
1134,3.40e-02,
1135,-2.40e-02,
1136,-1.20e-02,
1137,2.20e-02,
1138,-2.20e-02,
1139,3.00e-02,
1140,-1.40e-02,
1141,1.80e-02,
1142,1.20e-02,
1143,-1.00e-02,
1144,8.00e-03,
1145,-4.00e-03,
1146,8.00e-03,
1147,-6.00e-03,
1148,-6.00e-03,
1149,8.00e-03,
1150,8.00e-03,
1151,-1.62e-01,
1152,8.00e-03,
1153,-6.00e-03,
1154,8.00e-03,
1155,-6.00e-03,
1156,8.00e-03,
1157,-6.00e-03,
1158,8.00e-03,
1159,-1.60e-02,
1160,-5.20e-02,
1161,2.80e-02,
1162,-4.00e-03,
1163,3.80e-02,
1164,8.00e-03,
1165,-1.40e-02,
1166,8.00e-03,
1167,-2.00e-02,
1168,8.00e-03,
1169,-2.20e-02,
1170,1.80e-02,
1171,-6.00e-03,
1172,8.00e-03,
1173,-6.00e-03,
1174,2.80e-02,
1175,-8.00e-03,
1176,8.00e-03,
1177,-8.00e-03,
1178,8.00e-03,
1179,-4.00e-03,
1180,3.40e-02,
1181,-4.00e-02,
1182,3.20e-02,
1183,-2.80e-02,
1184,-6.00e-03,
1185,4.80e-02,
1186,3.40e-02,
1187,-6.00e-03,
1188,8.00e-03,
1189,-8.00e-03,
1190,-1.00e-02,
1191,8.00e-03,
1192,-1.80e-02,
1193,8.00e-03,
1194,-4.00e-03,
1195,8.00e-03,
1196,-6.00e-03,
1197,1.40e-02,
1198,-6.00e-03,
1199,8.00e-03,
