Motor_Data/MOTOR_1_ON/time domain/NewFile21.csv

X,CH2,Start,Increment,
Sequence,Volt,-3.000000e-02,5.000000e-05
0,8.00e-03,
1,-6.00e-03,
2,-4.00e-03,
3,8.00e-03,
4,-1.20e-02,
5,1.00e-02,
6,2.40e-02,
7,-3.00e-02,
8,3.60e-02,
9,-4.00e-02,
10,2.20e-02,
11,-2.60e-02,
12,2.00e-02,
13,-1.80e-02,
14,-4.00e-03,
15,2.00e-02,
16,8.00e-03,
17,-1.60e-02,
18,-6.00e-03,
19,8.00e-03,
20,8.00e-03,
21,-8.00e-03,
22,-4.00e-03,
23,1.20e-02,
24,8.00e-03,
25,-4.00e-03,
26,-6.00e-03,
27,8.00e-03,
28,8.00e-03,
29,-6.00e-03,
30,-7.20e-02,
31,5.00e-02,
32,-6.00e-03,
33,3.20e-02,
34,6.00e-03,
35,-8.00e-03,
36,2.80e-02,
37,-1.60e-02,
38,-6.00e-03,
39,2.00e-02,
40,-6.00e-03,
41,2.60e-02,
42,8.00e-03,
43,-8.00e-03,
44,6.00e-03,
45,-1.80e-02,
46,-8.00e-03,
47,8.00e-03,
48,1.00e-02,
49,-6.00e-03,
50,-6.00e-03,
51,8.00e-03,
52,8.00e-03,
53,-8.00e-03,
54,8.00e-03,
55,-6.00e-03,
56,-2.12e-01,
57,2.98e-01,
58,6.00e-03,
59,-3.00e-02,
60,-1.80e-02,
61,3.60e-02,
62,-3.80e-02,
63,3.20e-02,
64,8.00e-03,
65,-6.00e-03,
66,-6.00e-03,
67,1.00e-02,
68,-1.80e-02,
69,8.00e-03,
70,8.00e-03,
71,-1.40e-02,
72,-6.00e-03,
73,1.20e-02,
74,-6.00e-03,
75,8.00e-03,
76,-6.00e-03,
77,8.00e-03,
78,8.00e-03,
79,-6.00e-03,
80,-6.00e-03,
81,2.98e-01,
82,-1.84e-01,
83,1.00e-02,
84,-6.00e-03,
85,4.20e-02,
86,3.20e-02,
87,-8.00e-03,
88,-2.80e-02,
89,2.80e-02,
90,-3.60e-02,
91,1.00e-02,
92,-1.60e-02,
93,2.20e-02,
94,-6.00e-03,
95,2.80e-02,
96,8.00e-03,
97,-1.20e-02,
98,6.00e-03,
99,-1.80e-02,
100,-6.00e-03,
101,1.20e-02,
102,-6.00e-03,
103,1.00e-02,
104,1.00e-02,
105,-6.00e-03,
106,-6.00e-03,
107,1.44e-01,
108,-6.00e-03,
109,8.00e-03,
110,-6.00e-03,
111,1.00e-02,
112,2.60e-02,
113,-6.00e-03,
114,-2.00e-02,
115,6.00e-03,
116,-6.00e-03,
117,2.60e-02,
118,2.20e-02,
119,-6.00e-03,
120,-8.00e-03,
121,2.00e-02,
122,-1.60e-02,
123,2.00e-02,
124,-1.00e-02,
125,1.00e-02,
126,-6.00e-03,
127,1.00e-02,
128,-6.00e-03,
129,8.00e-03,
130,-6.00e-03,
131,8.00e-03,
132,-2.12e-01,
133,2.52e-01,
134,8.00e-03,
135,-1.40e-02,
136,8.00e-03,
137,-3.20e-02,
138,-6.00e-03,
139,4.40e-02,
140,2.00e-02,
141,-2.60e-02,
142,2.60e-02,
143,-1.00e-02,
144,-3.80e-02,
145,1.00e-02,
146,8.00e-03,
147,-6.00e-03,
148,-6.00e-03,
149,8.00e-03,
150,8.00e-03,
151,-1.80e-02,
152,-6.00e-03,
153,8.00e-03,
154,-6.00e-03,
155,1.00e-02,
156,-6.00e-03,
157,8.00e-03,
158,2.40e-02,
159,-6.00e-03,
160,8.00e-03,
161,-6.00e-03,
162,8.00e-03,
163,-6.00e-03,
164,2.60e-02,
165,-3.20e-02,
166,-2.20e-02,
167,3.40e-02,
168,-4.00e-02,
169,4.00e-02,
170,-2.60e-02,
171,2.60e-02,
172,-6.00e-03,
173,1.00e-02,
174,1.80e-02,
175,-1.60e-02,
176,-1.00e-02,
177,1.00e-02,
178,1.00e-02,
179,-8.00e-03,
180,-6.00e-03,
181,1.00e-02,
182,-2.12e-01,
183,2.98e-01,
184,-6.00e-03,
185,8.00e-03,
186,-6.00e-03,
187,8.00e-03,
188,-4.00e-03,
189,8.00e-03,
190,-4.00e-03,
191,8.00e-03,
192,8.00e-03,
193,-6.00e-03,
194,-6.00e-03,
195,8.00e-03,
196,-6.00e-03,
197,8.00e-03,
198,-6.00e-03,
199,1.40e-02,
200,-6.00e-03,
201,2.60e-02,
202,8.00e-03,
203,-1.40e-02,
204,-1.80e-02,
205,1.00e-02,
206,-6.00e-03,
207,8.00e-03,
208,4.40e-02,
209,-2.12e-01,
210,8.00e-03,
211,-8.00e-03,
212,1.00e-02,
213,-6.00e-03,
214,8.00e-03,
215,-6.00e-03,
216,1.00e-02,
217,-1.20e-02,
218,2.60e-02,
219,-2.80e-02,
220,3.80e-02,
221,-3.80e-02,
222,-1.20e-02,
223,2.00e-02,
224,-6.00e-03,
225,8.00e-03,
226,-6.00e-03,
227,8.00e-03,
228,8.00e-03,
229,-6.00e-03,
230,8.00e-03,
231,-6.00e-03,
232,-8.00e-03,
233,1.00e-02,
234,2.98e-01,
235,-2.12e-01,
236,-6.00e-03,
237,6.00e-03,
238,-6.00e-03,
239,8.00e-03,
240,8.00e-03,
241,-2.20e-02,
242,1.40e-02,
243,-3.00e-02,
244,-6.00e-03,
245,4.00e-02,
246,2.20e-02,
247,-2.80e-02,
248,2.80e-02,
249,-1.00e-02,
250,-3.60e-02,
251,2.20e-02,
252,-6.00e-03,
253,2.80e-02,
254,8.00e-03,
255,-8.00e-03,
256,1.00e-02,
257,-1.60e-02,
258,-6.80e-02,
259,2.54e-01,
260,-6.00e-03,
261,8.00e-03,
262,-6.00e-03,
263,1.20e-02,
264,-6.00e-03,
265,8.00e-03,
266,-6.00e-03,
267,8.00e-03,
268,-6.00e-03,
269,8.00e-03,
270,6.00e-03,
271,-3.00e-02,
272,-6.00e-03,
273,3.80e-02,
274,-6.00e-03,
275,3.20e-02,
276,6.00e-03,
277,-3.00e-02,
278,-6.00e-03,
279,1.00e-02,
280,2.20e-02,
281,-1.40e-02,
282,-1.40e-02,
283,1.00e-02,
284,-2.12e-01,
285,2.98e-01,
286,-6.00e-03,
287,1.20e-02,
288,6.00e-03,
289,-6.00e-03,
290,-6.00e-03,
291,8.00e-03,
292,-6.00e-03,
293,8.00e-03,
294,1.20e-02,
295,-3.00e-02,
296,-6.00e-03,
297,4.00e-02,
298,2.60e-02,
299,-1.20e-02,
300,-2.80e-02,
301,2.60e-02,
302,-4.00e-02,
303,1.40e-02,
304,-1.80e-02,
305,1.80e-02,
306,6.00e-03,
307,-6.00e-03,
308,-1.20e-02,
309,8.00e-03,
310,2.60e-02,
311,-6.00e-03,
312,-6.00e-03,
313,8.00e-03,
314,6.00e-03,
315,-6.00e-03,
316,6.00e-03,
317,-6.00e-03,
318,-6.00e-03,
319,8.00e-03,
320,8.00e-03,
321,-6.00e-03,
322,8.00e-03,
323,-1.00e-02,
324,2.40e-02,
325,-3.20e-02,
326,3.80e-02,
327,-3.80e-02,
328,2.40e-02,
329,-2.60e-02,
330,2.60e-02,
331,-1.40e-02,
332,-8.00e-03,
333,2.60e-02,
334,-2.12e-01,
335,2.26e-01,
336,8.00e-03,
337,-8.00e-03,
338,1.00e-02,
339,-1.00e-02,
340,8.00e-03,
341,-6.00e-03,
342,-6.00e-03,
343,8.00e-03,
344,-6.00e-03,
345,8.00e-03,
346,8.00e-03,
347,-1.40e-02,
348,1.40e-02,
349,-2.80e-02,
350,8.00e-03,
351,-6.00e-03,
352,2.00e-02,
353,-2.80e-02,
354,2.60e-02,
355,-1.80e-02,
356,-3.40e-02,
357,2.60e-02,
358,2.60e-02,
359,-6.00e-03,
360,2.98e-01,
361,-2.12e-01,
362,8.00e-03,
363,-1.60e-02,
364,-1.20e-02,
365,8.00e-03,
366,1.00e-02,
367,-6.00e-03,
368,-4.00e-03,
369,8.00e-03,
370,-6.00e-03,
371,1.00e-02,
372,-6.00e-03,
373,8.00e-03,
374,-6.00e-03,
375,8.00e-03,
376,2.60e-02,
377,-2.80e-02,
378,-2.00e-02,
379,3.40e-02,
380,-4.00e-02,
381,3.60e-02,
382,-2.80e-02,
383,2.40e-02,
384,-6.00e-03,
385,1.00e-02,
386,2.36e-01,
387,-1.80e-02,
388,8.00e-03,
389,-1.20e-02,
390,8.00e-03,
391,-1.60e-02,
392,8.00e-03,
393,-6.00e-03,
394,8.00e-03,
395,-8.00e-03,
396,-8.00e-03,
397,8.00e-03,
398,6.00e-03,
399,-6.00e-03,
400,1.00e-02,
401,-3.20e-02,
402,3.60e-02,
403,-8.00e-03,
404,3.20e-02,
405,-1.20e-02,
406,-3.00e-02,
407,2.80e-02,
408,-3.40e-02,
409,1.00e-02,
410,-5.40e-02,
411,2.98e-01,
412,2.60e-02,
413,-8.00e-03,
414,-1.00e-02,
415,8.00e-03,
416,-1.60e-02,
417,8.00e-03,
418,-6.00e-03,
419,1.20e-02,
420,8.00e-03,
421,-6.00e-03,
422,1.00e-02,
423,-6.00e-03,
424,6.00e-03,
425,-6.00e-03,
426,-6.00e-03,
427,8.00e-03,
428,8.00e-03,
429,-1.00e-02,
430,-3.00e-02,
431,2.20e-02,
432,3.80e-02,
433,-3.60e-02,
434,2.20e-02,
435,-2.40e-02,
436,2.20e-02,
437,-2.12e-01,
438,8.00e-03,
439,-1.00e-02,
440,-2.00e-02,
441,1.80e-02,
442,-6.00e-03,
443,1.00e-02,
444,-8.00e-03,
445,8.00e-03,
446,-6.00e-03,
447,1.00e-02,
448,-6.00e-03,
449,8.00e-03,
450,8.00e-03,
451,-6.00e-03,
452,8.00e-03,
453,-1.20e-02,
454,8.00e-03,
455,-3.20e-02,
456,3.80e-02,
457,-6.00e-03,
458,2.20e-02,
459,-2.20e-02,
460,2.80e-02,
461,-6.00e-03,
462,2.98e-01,
463,-1.44e-01,
464,-6.00e-03,
465,2.20e-02,
466,8.00e-03,
467,-1.00e-02,
468,-8.00e-03,
469,8.00e-03,
470,-1.00e-02,
471,8.00e-03,
472,1.60e-02,
473,-6.00e-03,
474,-6.00e-03,
475,1.00e-02,
476,-6.00e-03,
477,8.00e-03,
478,-8.00e-03,
479,8.00e-03,
480,-6.00e-03,
481,8.00e-03,
482,2.80e-02,
483,-3.20e-02,
484,-2.00e-02,
485,3.40e-02,
486,-3.80e-02,
487,3.40e-02,
488,-2.12e-01,
489,1.04e-01,
490,-6.00e-03,
491,8.00e-03,
492,2.00e-02,
493,-1.80e-02,
494,8.00e-03,
495,-1.00e-02,
496,1.20e-02,
497,-1.00e-02,
498,8.00e-03,
499,-6.00e-03,
500,-6.00e-03,
501,8.00e-03,
502,-6.00e-03,
503,8.00e-03,
504,-6.00e-03,
505,8.00e-03,
506,1.00e-02,
507,-3.00e-02,
508,-6.00e-03,
509,8.00e-03,
510,2.60e-02,
511,-1.20e-02,
512,2.98e-01,
513,-2.12e-01,
514,-3.40e-02,
515,1.40e-02,
516,-1.80e-02,
517,2.20e-02,
518,8.00e-03,
519,-8.00e-03,
520,8.00e-03,
521,-6.00e-03,
522,8.00e-03,
523,-1.40e-02,
524,-6.00e-03,
525,1.20e-02,
526,-6.00e-03,
527,8.00e-03,
528,-6.00e-03,
529,1.00e-02,
530,-6.00e-03,
531,8.00e-03,
532,8.00e-03,
533,-6.00e-03,
534,8.00e-03,
535,-1.40e-02,
536,2.60e-02,
537,-3.20e-02,
538,2.98e-01,
539,-1.26e-01,
540,2.40e-02,
541,-2.40e-02,
542,2.00e-02,
543,-1.20e-02,
544,8.00e-03,
545,-1.00e-02,
546,1.80e-02,
547,-1.40e-02,
548,1.20e-02,
549,-1.00e-02,
550,-6.00e-03,
551,8.00e-03,
552,-6.00e-03,
553,1.20e-02,
554,-6.00e-03,
555,8.00e-03,
556,-6.00e-03,
557,8.00e-03,
558,8.00e-03,
559,-2.00e-02,
560,8.00e-03,
561,-3.00e-02,
562,4.40e-02,
563,-8.00e-03,
564,-1.80e-01,
565,1.76e-01,
566,2.60e-02,
567,-1.40e-02,
568,-3.40e-02,
569,2.60e-02,
570,-6.00e-03,
571,2.40e-02,
572,-6.00e-03,
573,8.00e-03,
574,8.00e-03,
575,-2.00e-02,
576,-1.00e-02,
577,8.00e-03,
578,1.00e-02,
579,-6.00e-03,
580,-4.00e-03,
581,8.00e-03,
582,-6.00e-03,
583,8.00e-03,
584,-6.00e-03,
585,8.00e-03,
586,8.00e-03,
587,-6.00e-03,
588,2.98e-01,
589,-1.80e-02,
590,-2.00e-02,
591,3.60e-02,
592,3.60e-02,
593,-8.00e-03,
594,-2.40e-02,
595,2.00e-02,
596,-6.00e-03,
597,1.20e-02,
598,2.20e-02,
599,-1.80e-02,
600,-1.20e-02,
601,8.00e-03,
602,-1.00e-02,
603,1.00e-02,
604,-6.00e-03,
605,1.00e-02,
606,8.00e-03,
607,-6.00e-03,
608,8.00e-03,
609,-6.00e-03,
610,-6.00e-03,
611,8.00e-03,
612,8.00e-03,
613,-2.80e-02,
614,-2.12e-01,
615,1.86e-01,
616,3.00e-02,
617,-8.00e-03,
618,2.40e-02,
619,-1.40e-02,
620,-3.60e-02,
621,1.00e-02,
622,-1.80e-02,
623,2.40e-02,
624,-6.00e-03,
625,8.00e-03,
626,-6.00e-03,
627,8.00e-03,
628,-2.00e-02,
629,8.00e-03,
630,-6.00e-03,
631,1.20e-02,
632,1.20e-02,
633,-6.00e-03,
634,8.00e-03,
635,-6.00e-03,
636,8.00e-03,
637,-8.00e-03,
638,-6.00e-03,
639,8.00e-03,
640,-2.12e-01,
641,2.98e-01,
642,-3.20e-02,
643,2.60e-02,
644,3.80e-02,
645,-3.60e-02,
646,2.40e-02,
647,-2.60e-02,
648,2.40e-02,
649,-1.60e-02,
650,-1.00e-02,
651,1.60e-02,
652,-1.60e-02,
653,1.60e-02,
654,1.40e-02,
655,-8.00e-03,
656,8.00e-03,
657,-6.00e-03,
658,8.00e-03,
659,-6.00e-03,
660,-6.00e-03,
661,8.00e-03,
662,-6.00e-03,
663,1.00e-02,
664,8.00e-03,
665,-2.12e-01,
666,-6.00e-03,
667,8.00e-03,
668,-8.00e-03,
669,3.00e-02,
670,-2.60e-02,
671,8.00e-03,
672,2.60e-02,
673,-1.80e-02,
674,-3.40e-02,
675,8.00e-03,
676,-6.00e-03,
677,2.60e-02,
678,-8.00e-03,
679,8.00e-03,
680,8.00e-03,
681,-1.60e-02,
682,8.00e-03,
683,-1.20e-02,
684,8.00e-03,
685,-6.00e-03,
686,-6.00e-03,
687,1.00e-02,
688,-6.00e-03,
689,1.00e-02,
690,-2.12e-01,
691,2.98e-01,
692,8.00e-03,
693,-6.00e-03,
694,2.40e-02,
695,-3.20e-02,
696,-1.60e-02,
697,3.60e-02,
698,-3.60e-02,
699,3.40e-02,
700,2.20e-02,
701,-1.20e-02,
702,-6.00e-03,
703,8.00e-03,
704,1.80e-02,
705,-1.20e-02,
706,-8.00e-03,
707,8.00e-03,
708,8.00e-03,
709,-8.00e-03,
710,-6.00e-03,
711,8.00e-03,
712,-6.00e-03,
713,8.00e-03,
714,-6.00e-03,
715,8.00e-03,
716,8.00e-03,
717,-2.12e-01,
718,8.00e-03,
719,-3.00e-02,
720,-6.00e-03,
721,4.20e-02,
722,2.60e-02,
723,-1.00e-02,
724,2.40e-02,
725,-2.80e-02,
726,-3.60e-02,
727,1.60e-02,
728,-1.40e-02,
729,2.00e-02,
730,2.40e-02,
731,-1.00e-02,
732,-1.20e-02,
733,8.00e-03,
734,6.00e-03,
735,-1.60e-02,
736,-6.00e-03,
737,1.00e-02,
738,8.00e-03,
739,-8.00e-03,
740,-1.00e-02,
741,1.40e-02,
742,-2.12e-01,
743,2.98e-01,
744,-6.00e-03,
745,6.00e-03,
746,8.00e-03,
747,-1.00e-02,
748,2.80e-02,
749,-3.20e-02,
750,-3.60e-02,
751,3.40e-02,
752,8.00e-03,
753,-2.60e-02,
754,8.00e-03,
755,-1.20e-02,
756,-8.00e-03,
757,1.60e-02,
758,-1.60e-02,
759,2.00e-02,
760,-8.00e-03,
761,1.00e-02,
762,8.00e-03,
763,-6.00e-03,
764,1.20e-02,
765,-6.00e-03,
766,-2.12e-01,
767,2.60e-02,
768,8.00e-03,
769,-6.00e-03,
770,8.00e-03,
771,-1.60e-02,
772,1.20e-02,
773,-3.20e-02,
774,4.20e-02,
775,-6.00e-03,
776,2.00e-02,
777,-2.20e-02,
778,2.40e-02,
779,-1.40e-02,
780,-3.80e-02,
781,2.40e-02,
782,-6.00e-03,
783,2.20e-02,
784,6.00e-03,
785,-8.00e-03,
786,-6.00e-03,
787,1.00e-02,
788,-8.00e-03,
789,8.00e-03,
790,-6.00e-03,
791,1.00e-02,
792,2.98e-01,
793,-6.00e-03,
794,-6.00e-03,
795,8.00e-03,
796,8.00e-03,
797,-6.00e-03,
798,-6.00e-03,
799,8.00e-03,
800,2.40e-02,
801,-2.80e-02,
802,-2.20e-02,
803,3.80e-02,
804,-3.80e-02,
805,3.20e-02,
806,2.60e-02,
807,-2.40e-02,
808,-6.00e-03,
809,1.20e-02,
810,2.40e-02,
811,-1.80e-02,
812,-1.40e-02,
813,8.00e-03,
814,1.20e-02,
815,-8.00e-03,
816,-6.00e-03,
817,8.00e-03,
818,-2.12e-01,
819,3.40e-02,
820,8.00e-03,
821,-6.00e-03,
822,-6.00e-03,
823,6.00e-03,
824,1.00e-02,
825,-3.20e-02,
826,-6.00e-03,
827,4.40e-02,
828,3.20e-02,
829,-6.00e-03,
830,-2.60e-02,
831,2.80e-02,
832,8.00e-03,
833,-3.40e-02,
834,-1.60e-02,
835,1.80e-02,
836,-4.00e-03,
837,2.60e-02,
838,8.00e-03,
839,-1.00e-02,
840,-1.80e-02,
841,8.00e-03,
842,2.98e-01,
843,-2.12e-01,
844,8.00e-03,
845,-8.00e-03,
846,8.00e-03,
847,-6.00e-03,
848,6.00e-03,
849,-8.00e-03,
850,-6.00e-03,
851,8.00e-03,
852,8.00e-03,
853,-1.00e-02,
854,2.60e-02,
855,-3.20e-02,
856,3.80e-02,
857,-3.40e-02,
858,2.20e-02,
859,-2.40e-02,
860,2.60e-02,
861,-1.20e-02,
862,-6.00e-03,
863,2.00e-02,
864,-1.80e-02,
865,2.00e-02,
866,-6.00e-03,
867,1.60e-02,
868,7.60e-02,
869,-5.40e-02,
870,8.00e-03,
871,-6.00e-03,
872,-4.00e-03,
873,8.00e-03,
874,8.00e-03,
875,-6.00e-03,
876,8.00e-03,
877,-1.20e-02,
878,1.20e-02,
879,-3.00e-02,
880,-6.00e-03,
881,4.20e-02,
882,2.40e-02,
883,-2.60e-02,
884,2.60e-02,
885,-1.40e-02,
886,-3.60e-02,
887,2.00e-02,
888,-6.00e-03,
889,2.60e-02,
890,-1.00e-02,
891,8.00e-03,
892,8.00e-03,
893,-1.80e-02,
894,2.98e-01,
895,-7.80e-02,
896,1.20e-02,
897,-6.00e-03,
898,8.00e-03,
899,-6.00e-03,
900,8.00e-03,
901,-8.00e-03,
902,8.00e-03,
903,-6.00e-03,
904,8.00e-03,
905,-6.00e-03,
906,2.60e-02,
907,-3.00e-02,
908,-2.00e-02,
909,3.80e-02,
910,-3.80e-02,
911,3.40e-02,
912,2.80e-02,
913,-2.20e-02,
914,8.00e-03,
915,-6.00e-03,
916,-1.80e-02,
917,2.20e-02,
918,-2.12e-01,
919,9.60e-02,
920,1.20e-02,
921,-1.00e-02,
922,-8.00e-03,
923,8.00e-03,
924,-6.00e-03,
925,8.00e-03,
926,8.00e-03,
927,-6.00e-03,
928,-8.00e-03,
929,8.00e-03,
930,8.00e-03,
931,-2.80e-02,
932,-6.00e-03,
933,4.20e-02,
934,-8.00e-03,
935,3.00e-02,
936,-3.00e-02,
937,2.80e-02,
938,-4.00e-02,
939,1.00e-02,
940,-1.40e-02,
941,2.40e-02,
942,2.60e-02,
943,-8.00e-03,
944,2.98e-01,
945,-2.12e-01,
946,-1.40e-02,
947,1.00e-02,
948,-6.00e-03,
949,1.20e-02,
950,-6.00e-03,
951,8.00e-03,
952,8.00e-03,
953,-6.00e-03,
954,-6.00e-03,
955,8.00e-03,
956,8.00e-03,
957,-6.00e-03,
958,8.00e-03,
959,-1.20e-02,
960,2.40e-02,
961,-3.20e-02,
962,3.80e-02,
963,-3.80e-02,
964,2.60e-02,
965,-2.80e-02,
966,2.60e-02,
967,-1.60e-02,
968,-8.00e-03,
969,2.20e-02,
970,-8.20e-02,
971,2.98e-01,
972,1.40e-02,
973,-1.00e-02,
974,6.00e-03,
975,-6.00e-03,
976,-6.00e-03,
977,8.00e-03,
978,-4.00e-03,
979,8.00e-03,
980,8.00e-03,
981,-6.00e-03,
982,8.00e-03,
983,-1.80e-02,
984,-2.60e-02,
985,1.00e-02,
986,4.00e-02,
987,-6.00e-03,
988,-6.00e-03,
989,2.40e-02,
990,2.40e-02,
991,-6.00e-03,
992,-3.40e-02,
993,2.20e-02,
994,2.20e-02,
995,-3.60e-02,
996,1.00e-02,
997,-6.00e-03,
998,1.00e-02,
999,-1.40e-02,
1000,-1.40e-02,
1001,8.00e-03,
1002,1.40e-02,
1003,-6.00e-03,
1004,-6.00e-03,
1005,8.00e-03,
1006,8.00e-03,
1007,-6.00e-03,
1008,-6.00e-03,
1009,8.00e-03,
1010,-4.00e-03,
1011,8.00e-03,
1012,-1.20e-02,
1013,2.60e-02,
1014,-2.40e-02,
1015,3.40e-02,
1016,-3.60e-02,
1017,3.80e-02,
1018,-2.60e-02,
1019,2.60e-02,
1020,-2.12e-01,
1021,1.28e-01,
1022,2.00e-02,
1023,-1.20e-02,
1024,8.00e-03,
1025,-8.00e-03,
1026,-6.00e-03,
1027,1.00e-02,
1028,-6.00e-03,
1029,1.00e-02,
1030,-4.00e-03,
1031,8.00e-03,
1032,-6.00e-03,
1033,8.00e-03,
1034,8.00e-03,
1035,-6.00e-03,
1036,1.00e-02,
1037,-3.00e-02,
1038,-6.00e-03,
1039,4.40e-02,
1040,3.20e-02,
1041,-1.00e-02,
1042,-2.40e-02,
1043,2.80e-02,
1044,-3.60e-02,
1045,1.20e-02,
1046,-2.12e-01,
1047,2.98e-01,
1048,2.60e-02,
1049,-8.00e-03,
1050,-1.00e-02,
1051,8.00e-03,
1052,8.00e-03,
1053,-1.00e-02,
1054,1.20e-02,
1055,-6.00e-03,
1056,8.00e-03,
1057,-6.00e-03,
1058,8.00e-03,
1059,-6.00e-03,
1060,8.00e-03,
1061,-6.00e-03,
1062,8.00e-03,
1063,-1.00e-02,
1064,8.00e-03,
1065,-8.00e-03,
1066,2.60e-02,
1067,-6.00e-03,
1068,-2.00e-02,
1069,3.80e-02,
1070,2.40e-02,
1071,-2.12e-01,
1072,2.80e-02,
1073,-1.20e-02,
1074,-8.00e-03,
1075,2.20e-02,
1076,-1.60e-02,
1077,2.40e-02,
1078,8.00e-03,
1079,-1.00e-02,
1080,8.00e-03,
1081,-8.00e-03,
1082,1.00e-02,
1083,-6.00e-03,
1084,-8.00e-03,
1085,8.00e-03,
1086,-6.00e-03,
1087,8.00e-03,
1088,-1.20e-02,
1089,8.00e-03,
1090,1.00e-02,
1091,-3.20e-02,
1092,3.80e-02,
1093,-6.00e-03,
1094,2.20e-02,
1095,-2.40e-02,
1096,-2.12e-01,
1097,2.98e-01,
1098,-3.40e-02,
1099,2.20e-02,
1100,-6.00e-03,
1101,2.60e-02,
1102,8.00e-03,
1103,-8.00e-03,
1104,-6.00e-03,
1105,8.00e-03,
1106,-1.40e-02,
1107,8.00e-03,
1108,-6.00e-03,
1109,8.00e-03,
1110,-6.00e-03,
1111,1.00e-02,
1112,-6.00e-03,
1113,8.00e-03,
1114,8.00e-03,
1115,-6.00e-03,
1116,-6.00e-03,
1117,1.00e-02,
1118,3.00e-02,
1119,-2.60e-02,
1120,-1.80e-02,
1121,3.80e-02,
1122,2.98e-01,
1123,-1.70e-01,
1124,-2.20e-02,
1125,2.40e-02,
1126,-6.00e-03,
1127,8.00e-03,
1128,2.00e-02,
1129,-1.80e-02,
1130,8.00e-03,
1131,-1.40e-02,
1132,1.20e-02,
1133,-8.00e-03,
1134,8.00e-03,
1135,-6.00e-03,
1136,-6.00e-03,
1137,8.00e-03,
1138,-6.00e-03,
1139,8.00e-03,
1140,8.00e-03,
1141,-6.00e-03,
1142,1.00e-02,
1143,-2.80e-02,
1144,-6.00e-03,
1145,4.20e-02,
1146,2.98e-01,
1147,-2.12e-01,
1148,2.60e-02,
1149,-1.40e-02,
1150,-3.60e-02,
1151,1.00e-02,
1152,-1.40e-02,
1153,2.20e-02,
1154,-6.00e-03,
1155,8.00e-03,
1156,8.00e-03,
1157,-6.00e-03,
1158,6.00e-03,
1159,-1.60e-02,
1160,-6.00e-03,
1161,1.20e-02,
1162,6.00e-03,
1163,-6.00e-03,
1164,8.00e-03,
1165,-6.00e-03,
1166,8.00e-03,
1167,-6.00e-03,
1168,-6.00e-03,
1169,8.00e-03,
1170,-6.00e-03,
1171,8.00e-03,
1172,2.98e-01,
1173,-2.12e-01,
1174,3.80e-02,
1175,-3.80e-02,
1176,2.20e-02,
1177,-2.40e-02,
1178,1.80e-02,
1179,-1.40e-02,
1180,-8.00e-03,
1181,2.00e-02,
1182,-2.00e-02,
1183,1.60e-02,
1184,-6.00e-03,
1185,1.00e-02,
1186,-6.00e-03,
1187,8.00e-03,
1188,-6.00e-03,
1189,8.00e-03,
1190,-6.00e-03,
1191,6.00e-03,
1192,-6.00e-03,
1193,6.00e-03,
1194,1.00e-02,
1195,-1.20e-02,
1196,-6.00e-03,
1197,6.00e-03,
1198,2.98e-01,
1199,-2.12e-01,
