Motor_Data/MOTOR_1_ON/time domain/NewFile68.csv

X,CH2,Start,Increment,
Sequence,Volt,-3.000000e-02,5.000000e-05
0,-6.00e-03,
1,1.80e-02,
2,-1.60e-02,
3,1.80e-02,
4,6.00e-03,
5,-6.00e-03,
6,-4.00e-03,
7,6.00e-03,
8,-4.00e-03,
9,1.00e-02,
10,-4.00e-03,
11,6.00e-03,
12,-4.00e-03,
13,6.00e-03,
14,-4.00e-03,
15,6.00e-03,
16,6.00e-03,
17,-1.60e-02,
18,-6.00e-03,
19,2.60e-02,
20,1.80e-02,
21,-8.00e-03,
22,2.98e-01,
23,-5.00e-02,
24,-2.20e-02,
25,1.40e-02,
26,-4.00e-03,
27,6.00e-03,
28,1.80e-02,
29,-4.00e-03,
30,-4.00e-03,
31,1.00e-02,
32,6.00e-03,
33,-8.00e-03,
34,6.00e-03,
35,-6.00e-03,
36,4.00e-03,
37,-4.00e-03,
38,-4.00e-03,
39,1.00e-02,
40,6.00e-03,
41,-1.20e-02,
42,-8.00e-03,
43,6.00e-03,
44,6.00e-03,
45,-1.00e-02,
46,2.20e-02,
47,-1.60e-02,
48,-2.60e-02,
49,2.60e-02,
50,-1.40e-02,
51,1.00e-02,
52,2.00e-02,
53,-1.80e-02,
54,-1.00e-02,
55,2.20e-02,
56,-1.40e-02,
57,1.80e-02,
58,-4.00e-03,
59,6.00e-03,
60,6.00e-03,
61,-6.00e-03,
62,6.00e-03,
63,-6.00e-03,
64,-4.00e-03,
65,6.00e-03,
66,6.00e-03,
67,-6.00e-03,
68,-4.00e-03,
69,6.00e-03,
70,1.40e-02,
71,-1.62e-01,
72,6.00e-03,
73,-4.00e-03,
74,-6.00e-03,
75,8.00e-03,
76,2.20e-02,
77,-8.00e-03,
78,6.00e-03,
79,-2.00e-02,
80,-4.00e-03,
81,2.20e-02,
82,1.80e-02,
83,-6.00e-03,
84,6.00e-03,
85,-1.20e-02,
86,-1.40e-02,
87,6.00e-03,
88,-4.00e-03,
89,1.20e-02,
90,-6.00e-03,
91,8.00e-03,
92,8.00e-03,
93,-8.00e-03,
94,7.80e-02,
95,-1.36e-01,
96,6.00e-03,
97,-6.00e-03,
98,6.00e-03,
99,-1.00e-02,
100,1.80e-02,
101,-2.00e-02,
102,2.80e-02,
103,-2.40e-02,
104,-1.00e-02,
105,1.20e-02,
106,-4.00e-03,
107,1.00e-02,
108,8.00e-03,
109,-1.20e-02,
110,-6.00e-03,
111,6.00e-03,
112,6.00e-03,
113,-4.00e-03,
114,-4.00e-03,
115,6.00e-03,
116,8.00e-03,
117,-6.00e-03,
118,2.98e-01,
119,-1.80e-02,
120,6.00e-03,
121,-6.00e-03,
122,8.00e-03,
123,-8.00e-03,
124,-2.00e-02,
125,8.00e-03,
126,-4.00e-03,
127,2.40e-02,
128,8.00e-03,
129,-1.40e-02,
130,2.20e-02,
131,-1.60e-02,
132,-1.80e-02,
133,2.00e-02,
134,-4.00e-03,
135,2.00e-02,
136,1.40e-02,
137,-6.00e-03,
138,8.00e-03,
139,-1.80e-02,
140,-1.40e-02,
141,1.00e-02,
142,-2.12e-01,
143,2.18e-01,
144,-4.00e-03,
145,8.00e-03,
146,6.00e-03,
147,-6.00e-03,
148,-4.00e-03,
149,8.00e-03,
150,6.00e-03,
151,-4.00e-03,
152,6.00e-03,
153,-4.00e-03,
154,2.00e-02,
155,-4.00e-03,
156,-1.60e-02,
157,1.80e-02,
158,6.00e-03,
159,-4.00e-03,
160,1.60e-02,
161,-1.00e-02,
162,-1.60e-02,
163,2.80e-02,
164,-1.80e-02,
165,1.00e-02,
166,-1.24e-01,
167,2.98e-01,
168,-8.00e-03,
169,8.00e-03,
170,-6.00e-03,
171,6.00e-03,
172,-6.00e-03,
173,6.00e-03,
174,6.00e-03,
175,-6.00e-03,
176,-1.20e-02,
177,8.00e-03,
178,6.00e-03,
179,-1.80e-02,
180,2.40e-02,
181,-6.00e-03,
182,1.20e-02,
183,-1.60e-02,
184,-4.00e-03,
185,8.00e-03,
186,-4.00e-03,
187,2.40e-02,
188,6.00e-03,
189,-4.00e-03,
190,-6.00e-03,
191,1.40e-02,
192,-8.00e-03,
193,8.00e-03,
194,-1.00e-02,
195,6.00e-03,
196,-4.00e-03,
197,8.00e-03,
198,-6.00e-03,
199,8.00e-03,
200,-8.00e-03,
201,8.00e-03,
202,-8.00e-03,
203,6.00e-03,
204,-6.00e-03,
205,6.00e-03,
206,1.40e-02,
207,-1.60e-02,
208,1.80e-02,
209,-1.20e-02,
210,2.60e-02,
211,-2.20e-02,
212,-1.40e-02,
213,1.80e-02,
214,-8.00e-03,
215,3.60e-02,
216,2.00e-02,
217,-1.60e-02,
218,6.00e-03,
219,-1.20e-02,
220,8.00e-03,
221,-8.00e-03,
222,-6.00e-03,
223,1.00e-02,
224,6.00e-03,
225,-4.00e-03,
226,-4.00e-03,
227,6.00e-03,
228,-4.00e-03,
229,1.00e-02,
230,-4.00e-03,
231,8.00e-03,
232,6.00e-03,
233,-6.00e-03,
234,-4.00e-03,
235,1.40e-02,
236,-6.00e-03,
237,6.00e-03,
238,-1.20e-02,
239,1.40e-02,
240,-2.40e-02,
241,2.00e-02,
242,-4.00e-03,
243,2.00e-02,
244,-4.00e-03,
245,1.20e-02,
246,8.00e-03,
247,-1.40e-02,
248,-6.00e-03,
249,8.00e-03,
250,-4.00e-03,
251,6.00e-03,
252,8.00e-03,
253,-6.00e-03,
254,-6.00e-03,
255,8.00e-03,
256,-1.00e-02,
257,6.00e-03,
258,6.00e-03,
259,-4.00e-03,
260,1.60e-02,
261,-1.60e-02,
262,2.72e-01,
263,-3.40e-02,
264,-4.00e-03,
265,6.00e-03,
266,4.00e-03,
267,-4.00e-03,
268,6.00e-03,
269,-8.00e-03,
270,6.00e-03,
271,-6.00e-03,
272,-4.00e-03,
273,6.00e-03,
274,6.00e-03,
275,-8.00e-03,
276,-4.00e-03,
277,6.00e-03,
278,-4.00e-03,
279,6.00e-03,
280,-4.00e-03,
281,6.00e-03,
282,6.00e-03,
283,-6.00e-03,
284,6.00e-03,
285,-1.80e-02,
286,-1.20e-02,
287,2.40e-02,
288,2.60e-02,
289,-8.00e-03,
290,-1.60e-02,
291,2.00e-02,
292,8.00e-03,
293,-1.60e-02,
294,-2.00e-02,
295,2.00e-02,
296,-4.00e-03,
297,1.80e-02,
298,8.00e-03,
299,-8.00e-03,
300,6.00e-03,
301,-1.60e-02,
302,6.00e-03,
303,-6.00e-03,
304,6.00e-03,
305,-6.00e-03,
306,8.00e-03,
307,-4.00e-03,
308,-4.00e-03,
309,6.00e-03,
310,6.00e-03,
311,-6.00e-03,
312,-2.12e-01,
313,1.28e-01,
314,-4.00e-03,
315,2.00e-02,
316,-4.00e-03,
317,1.60e-02,
318,2.20e-02,
319,-6.00e-03,
320,1.60e-02,
321,-1.80e-02,
322,-4.00e-03,
323,1.20e-02,
324,2.00e-02,
325,-1.80e-02,
326,6.00e-03,
327,-6.00e-03,
328,6.00e-03,
329,-8.00e-03,
330,6.00e-03,
331,-6.00e-03,
332,6.00e-03,
333,-6.00e-03,
334,-4.00e-03,
335,1.60e-02,
336,4.00e-03,
337,-6.00e-03,
338,8.00e-03,
339,-2.20e-02,
340,-1.00e-02,
341,2.20e-02,
342,-4.00e-03,
343,2.40e-02,
344,-8.00e-03,
345,6.00e-03,
346,6.00e-03,
347,-6.00e-03,
348,-4.00e-03,
349,2.20e-02,
350,-4.00e-03,
351,6.00e-03,
352,6.00e-03,
353,-6.00e-03,
354,-6.00e-03,
355,8.00e-03,
356,4.00e-03,
357,-6.00e-03,
358,8.00e-03,
359,-4.00e-03,
360,-2.12e-01,
361,1.52e-01,
362,6.00e-03,
363,-1.00e-02,
364,-1.40e-02,
365,6.00e-03,
366,-6.00e-03,
367,6.00e-03,
368,2.00e-02,
369,-1.60e-02,
370,-1.80e-02,
371,2.80e-02,
372,-2.20e-02,
373,1.60e-02,
374,-1.60e-02,
375,1.60e-02,
376,-4.00e-03,
377,1.60e-02,
378,2.20e-02,
379,-1.80e-02,
380,6.00e-03,
381,-6.00e-03,
382,-4.00e-03,
383,6.00e-03,
384,1.20e-02,
385,-4.00e-03,
386,-4.00e-03,
387,8.00e-03,
388,-4.00e-03,
389,6.00e-03,
390,-4.00e-03,
391,8.00e-03,
392,8.00e-03,
393,-1.80e-02,
394,6.00e-03,
395,-6.00e-03,
396,1.60e-02,
397,-8.00e-03,
398,-6.00e-03,
399,1.00e-02,
400,-2.20e-02,
401,1.40e-02,
402,-1.40e-02,
403,2.60e-02,
404,-4.00e-03,
405,1.80e-02,
406,8.00e-03,
407,-8.00e-03,
408,-2.12e-01,
409,2.80e-02,
410,-4.00e-03,
411,6.00e-03,
412,6.00e-03,
413,-6.00e-03,
414,1.00e-02,
415,-6.00e-03,
416,6.00e-03,
417,-8.00e-03,
418,-1.00e-02,
419,6.00e-03,
420,6.00e-03,
421,-1.00e-02,
422,1.20e-02,
423,-2.00e-02,
424,6.00e-03,
425,-6.00e-03,
426,-6.00e-03,
427,8.00e-03,
428,-4.00e-03,
429,1.20e-02,
430,6.00e-03,
431,-6.00e-03,
432,5.40e-02,
433,-2.00e-02,
434,-4.00e-03,
435,6.00e-03,
436,-4.00e-03,
437,6.00e-03,
438,4.00e-03,
439,-4.00e-03,
440,4.00e-03,
441,-6.00e-03,
442,4.00e-03,
443,-6.00e-03,
444,-4.00e-03,
445,6.00e-03,
446,6.00e-03,
447,-1.60e-02,
448,-6.00e-03,
449,2.60e-02,
450,1.40e-02,
451,-1.00e-02,
452,1.60e-02,
453,-1.60e-02,
454,-2.20e-02,
455,1.60e-02,
456,-1.00e-02,
457,3.00e-02,
458,8.00e-03,
459,-8.00e-03,
460,-1.20e-02,
461,6.00e-03,
462,6.00e-03,
463,-1.80e-02,
464,-4.00e-03,
465,1.00e-02,
466,-6.00e-03,
467,6.00e-03,
468,1.00e-02,
469,-8.00e-03,
470,-1.20e-02,
471,6.00e-03,
472,-1.00e-02,
473,6.00e-03,
474,4.00e-03,
475,-8.00e-03,
476,4.00e-03,
477,-1.80e-02,
478,-4.00e-03,
479,2.60e-02,
480,1.80e-02,
481,-1.40e-02,
482,1.60e-02,
483,-1.40e-02,
484,-1.40e-02,
485,2.00e-02,
486,-2.20e-02,
487,1.80e-02,
488,-6.00e-03,
489,6.00e-03,
490,4.00e-03,
491,-1.00e-02,
492,6.00e-03,
493,-6.00e-03,
494,6.00e-03,
495,-6.00e-03,
496,-4.00e-03,
497,6.00e-03,
498,8.00e-03,
499,-6.00e-03,
500,-1.80e-02,
501,8.00e-03,
502,-4.00e-03,
503,2.60e-02,
504,2.46e-01,
505,-1.20e-02,
506,-2.00e-02,
507,6.00e-03,
508,-4.00e-03,
509,1.80e-02,
510,-4.00e-03,
511,2.20e-02,
512,-6.00e-03,
513,6.00e-03,
514,8.00e-03,
515,-1.00e-02,
516,-4.00e-03,
517,6.00e-03,
518,6.00e-03,
519,-6.00e-03,
520,-6.00e-03,
521,8.00e-03,
522,6.00e-03,
523,-6.00e-03,
524,6.00e-03,
525,-8.00e-03,
526,6.00e-03,
527,-6.00e-03,
528,1.52e-01,
529,-5.80e-02,
530,2.20e-02,
531,-2.00e-02,
532,2.60e-02,
533,-2.40e-02,
534,-6.00e-03,
535,1.40e-02,
536,1.40e-02,
537,-1.20e-02,
538,-1.40e-02,
539,2.40e-02,
540,-1.60e-02,
541,1.40e-02,
542,6.00e-03,
543,-4.00e-03,
544,-6.00e-03,
545,6.00e-03,
546,-4.00e-03,
547,6.00e-03,
548,6.00e-03,
549,-6.00e-03,
550,-4.00e-03,
551,6.00e-03,
552,1.04e-01,
553,-1.00e-02,
554,-2.00e-02,
555,6.00e-03,
556,-4.00e-03,
557,2.40e-02,
558,6.00e-03,
559,-1.60e-02,
560,2.00e-02,
561,-1.40e-02,
562,-2.00e-02,
563,2.00e-02,
564,-4.00e-03,
565,1.80e-02,
566,-4.00e-03,
567,1.20e-02,
568,-1.60e-02,
569,6.00e-03,
570,6.00e-03,
571,-1.40e-02,
572,-4.00e-03,
573,1.00e-02,
574,8.00e-03,
575,-6.00e-03,
576,-2.00e-02,
577,1.26e-01,
578,-1.00e-02,
579,6.00e-03,
580,-4.00e-03,
581,6.00e-03,
582,-4.00e-03,
583,1.00e-02,
584,6.00e-03,
585,-1.40e-02,
586,-2.20e-02,
587,1.40e-02,
588,-8.00e-03,
589,2.00e-02,
590,1.20e-02,
591,-1.20e-02,
592,2.00e-02,
593,-1.40e-02,
594,-1.60e-02,
595,6.00e-03,
596,-4.00e-03,
597,6.00e-03,
598,-8.00e-03,
599,8.00e-03,
600,-1.00e-02,
601,1.14e-01,
602,6.00e-03,
603,-6.00e-03,
604,6.00e-03,
605,-6.00e-03,
606,6.00e-03,
607,-1.20e-02,
608,6.00e-03,
609,-1.60e-02,
610,2.60e-02,
611,-6.00e-03,
612,1.40e-02,
613,-1.80e-02,
614,1.60e-02,
615,-1.20e-02,
616,-2.00e-02,
617,2.40e-02,
618,-4.00e-03,
619,1.80e-02,
620,-4.00e-03,
621,1.40e-02,
622,6.00e-03,
623,-2.00e-02,
624,-1.20e-02,
625,1.60e-02,
626,-4.00e-03,
627,1.00e-02,
628,-6.00e-03,
629,8.00e-03,
630,-4.00e-03,
631,6.00e-03,
632,-4.00e-03,
633,6.00e-03,
634,-6.00e-03,
635,6.00e-03,
636,-4.00e-03,
637,1.20e-02,
638,-4.00e-03,
639,1.80e-02,
640,-2.40e-02,
641,2.40e-02,
642,-1.40e-02,
643,2.00e-02,
644,1.00e-02,
645,-8.00e-03,
646,2.20e-02,
647,-1.60e-02,
648,6.00e-03,
649,-1.20e-02,
650,-6.00e-03,
651,4.20e-02,
652,6.00e-03,
653,-6.00e-03,
654,6.00e-03,
655,-4.00e-03,
656,6.00e-03,
657,-6.00e-03,
658,-4.00e-03,
659,6.00e-03,
660,-6.00e-03,
661,8.00e-03,
662,-4.00e-03,
663,1.00e-02,
664,2.80e-02,
665,-6.00e-03,
666,-6.00e-03,
667,1.00e-02,
668,1.20e-02,
669,-1.40e-02,
670,-2.40e-02,
671,2.40e-02,
672,-6.00e-03,
673,1.80e-02,
674,1.60e-02,
675,-4.00e-03,
676,6.00e-03,
677,-1.40e-02,
678,-4.00e-03,
679,6.00e-03,
680,-6.00e-03,
681,6.00e-03,
682,6.00e-03,
683,-8.00e-03,
684,6.00e-03,
685,-8.00e-03,
686,6.00e-03,
687,-8.00e-03,
688,-4.00e-03,
689,6.00e-03,
690,1.60e-02,
691,-1.60e-02,
692,-8.00e-03,
693,2.00e-02,
694,-2.00e-02,
695,2.20e-02,
696,-1.60e-02,
697,1.60e-02,
698,-2.12e-01,
699,2.98e-01,
700,2.00e-02,
701,-1.60e-02,
702,-6.00e-03,
703,6.00e-03,
704,-4.00e-03,
705,6.00e-03,
706,8.00e-03,
707,-6.00e-03,
708,-4.00e-03,
709,6.00e-03,
710,6.00e-03,
711,-6.00e-03,
712,6.00e-03,
713,-4.00e-03,
714,6.00e-03,
715,-6.00e-03,
716,8.00e-03,
717,-8.00e-03,
718,2.60e-02,
719,-6.00e-03,
720,-1.40e-02,
721,1.80e-02,
722,2.02e-01,
723,-1.62e-01,
724,-2.20e-02,
725,1.80e-02,
726,1.80e-02,
727,-6.00e-03,
728,6.00e-03,
729,-6.00e-03,
730,-1.60e-02,
731,6.00e-03,
732,6.00e-03,
733,-6.00e-03,
734,6.00e-03,
735,-6.00e-03,
736,6.00e-03,
737,-6.00e-03,
738,4.00e-03,
739,-1.00e-02,
740,-8.00e-03,
741,8.00e-03,
742,-4.00e-03,
743,6.00e-03,
744,2.00e-02,
745,-1.60e-02,
746,-2.12e-01,
747,1.52e-01,
748,4.00e-03,
749,-2.00e-02,
750,-4.00e-03,
751,6.00e-03,
752,-4.00e-03,
753,6.00e-03,
754,-1.40e-02,
755,1.20e-02,
756,6.00e-03,
757,-6.00e-03,
758,6.00e-03,
759,-1.00e-02,
760,6.00e-03,
761,-6.00e-03,
762,6.00e-03,
763,-8.00e-03,
764,-4.00e-03,
765,6.00e-03,
766,6.00e-03,
767,-6.00e-03,
768,6.00e-03,
769,-1.80e-02,
770,3.00e-02,
771,-1.00e-02,
772,2.20e-02,
773,-6.00e-03,
774,-1.40e-02,
775,2.00e-02,
776,-2.00e-02,
777,8.00e-03,
778,-1.40e-02,
779,2.40e-02,
780,1.60e-02,
781,-6.00e-03,
782,6.00e-03,
783,-6.00e-03,
784,-1.80e-02,
785,6.00e-03,
786,6.00e-03,
787,-6.00e-03,
788,-4.00e-03,
789,6.00e-03,
790,8.00e-03,
791,-8.00e-03,
792,6.00e-03,
793,-1.00e-02,
794,-1.20e-02,
795,3.20e-02,
796,-4.00e-03,
797,6.00e-03,
798,1.80e-02,
799,-1.40e-02,
800,-2.20e-02,
801,2.40e-02,
802,-2.00e-02,
803,1.20e-02,
804,2.00e-02,
805,-1.80e-02,
806,-8.00e-03,
807,1.80e-02,
808,-2.20e-02,
809,2.00e-02,
810,6.00e-03,
811,-8.00e-03,
812,4.00e-03,
813,-6.00e-03,
814,6.00e-03,
815,-4.00e-03,
816,-4.00e-03,
817,6.00e-03,
818,1.80e-02,
819,-6.00e-03,
820,-6.00e-03,
821,6.00e-03,
822,-4.00e-03,
823,1.00e-02,
824,-4.00e-03,
825,2.60e-02,
826,-8.00e-03,
827,1.40e-02,
828,-1.80e-02,
829,1.40e-02,
830,-2.40e-02,
831,1.40e-02,
832,-1.20e-02,
833,2.60e-02,
834,1.80e-02,
835,-4.00e-03,
836,-1.20e-02,
837,6.00e-03,
838,-1.60e-02,
839,6.00e-03,
840,6.00e-03,
841,-6.00e-03,
842,-2.12e-01,
843,1.92e-01,
844,8.00e-03,
845,-6.00e-03,
846,6.00e-03,
847,-1.00e-02,
848,-1.20e-02,
849,6.00e-03,
850,6.00e-03,
851,-4.00e-03,
852,-1.80e-02,
853,1.80e-02,
854,-2.40e-02,
855,2.40e-02,
856,-1.40e-02,
857,8.00e-03,
858,-1.60e-02,
859,1.20e-02,
860,-1.00e-02,
861,2.00e-02,
862,-2.00e-02,
863,6.00e-03,
864,-4.00e-03,
865,8.00e-03,
866,8.60e-02,
867,-2.12e-01,
868,8.00e-03,
869,-8.00e-03,
870,-4.00e-03,
871,6.00e-03,
872,-4.00e-03,
873,8.00e-03,
874,-4.00e-03,
875,6.00e-03,
876,-1.80e-02,
877,8.00e-03,
878,-8.00e-03,
879,2.60e-02,
880,1.20e-02,
881,-1.40e-02,
882,1.80e-02,
883,-1.60e-02,
884,-2.00e-02,
885,1.80e-02,
886,-4.00e-03,
887,2.40e-02,
888,1.60e-02,
889,-6.00e-03,
890,3.00e-02,
891,-2.40e-02,
892,-1.40e-02,
893,8.00e-03,
894,-4.00e-03,
895,6.00e-03,
896,6.00e-03,
897,-6.00e-03,
898,8.00e-03,
899,-8.00e-03,
900,6.00e-03,
901,-1.20e-02,
902,-6.00e-03,
903,6.00e-03,
904,-4.00e-03,
905,8.00e-03,
906,-6.00e-03,
907,1.80e-02,
908,-2.40e-02,
909,1.80e-02,
910,-8.00e-03,
911,8.00e-03,
912,-4.00e-03,
913,1.60e-02,
914,1.80e-02,
915,-1.00e-02,
916,-1.80e-02,
917,1.40e-02,
918,-6.00e-03,
919,6.00e-03,
920,-8.00e-03,
921,8.00e-03,
922,6.00e-03,
923,-6.00e-03,
924,6.00e-03,
925,-8.00e-03,
926,4.00e-03,
927,-6.00e-03,
928,6.00e-03,
929,-8.00e-03,
930,8.00e-03,
931,-2.00e-02,
932,-4.00e-03,
933,2.40e-02,
934,-1.20e-02,
935,1.00e-02,
936,2.00e-02,
937,-1.80e-02,
938,-2.12e-01,
939,1.68e-01,
940,-4.00e-03,
941,1.80e-02,
942,-4.00e-03,
943,1.40e-02,
944,6.00e-03,
945,-1.60e-02,
946,-1.40e-02,
947,6.00e-03,
948,8.00e-03,
949,-8.00e-03,
950,1.00e-02,
951,-1.00e-02,
952,6.00e-03,
953,-6.00e-03,
954,-1.20e-02,
955,6.00e-03,
956,-4.00e-03,
957,6.00e-03,
958,8.00e-03,
959,-1.40e-02,
960,1.80e-02,
961,-1.60e-02,
962,2.60e-02,
963,-2.40e-02,
964,1.80e-02,
965,-1.60e-02,
966,1.40e-02,
967,-1.00e-02,
968,-1.60e-02,
969,2.00e-02,
970,-1.80e-02,
971,1.00e-02,
972,-6.00e-03,
973,8.00e-03,
974,6.00e-03,
975,-6.00e-03,
976,6.00e-03,
977,-6.00e-03,
978,-4.00e-03,
979,8.00e-03,
980,-4.00e-03,
981,6.00e-03,
982,6.00e-03,
983,-1.40e-02,
984,6.00e-03,
985,-2.00e-02,
986,2.00e-02,
987,-1.58e-01,
988,2.98e-01,
989,-1.60e-02,
990,1.80e-02,
991,-1.40e-02,
992,-2.00e-02,
993,6.00e-03,
994,-4.00e-03,
995,1.40e-02,
996,6.00e-03,
997,-6.00e-03,
998,6.00e-03,
999,-1.80e-02,
1000,6.00e-03,
1001,-1.20e-02,
1002,-6.00e-03,
1003,8.00e-03,
1004,6.00e-03,
1005,-6.00e-03,
1006,6.00e-03,
1007,-6.00e-03,
1008,6.00e-03,
1009,-1.00e-02,
1010,1.32e-01,
1011,-1.76e-01,
1012,1.00e-02,
1013,-1.60e-02,
1014,1.80e-02,
1015,-1.20e-02,
1016,-2.00e-02,
1017,2.60e-02,
1018,2.00e-02,
1019,-1.80e-02,
1020,1.40e-02,
1021,-8.00e-03,
1022,-1.80e-02,
1023,2.40e-02,
1024,6.00e-03,
1025,-1.40e-02,
1026,-4.00e-03,
1027,6.00e-03,
1028,8.00e-03,
1029,-6.00e-03,
1030,-4.00e-03,
1031,8.00e-03,
1032,-4.00e-03,
1033,6.00e-03,
1034,6.00e-03,
1035,-8.00e-03,
1036,2.00e-02,
1037,-3.60e-02,
1038,-1.60e-02,
1039,8.00e-03,
1040,2.60e-02,
1041,-6.00e-03,
1042,1.60e-02,
1043,-1.60e-02,
1044,1.20e-02,
1045,-1.00e-02,
1046,-2.40e-02,
1047,2.40e-02,
1048,-4.00e-03,
1049,1.80e-02,
1050,-4.00e-03,
1051,1.20e-02,
1052,6.00e-03,
1053,-1.60e-02,
1054,4.00e-03,
1055,-6.00e-03,
1056,-4.00e-03,
1057,6.00e-03,
1058,-6.00e-03,
1059,1.60e-02,
1060,-6.00e-03,
1061,6.00e-03,
1062,6.00e-03,
1063,-1.40e-02,
1064,6.00e-03,
1065,-4.00e-03,
1066,6.00e-03,
1067,-1.60e-02,
1068,6.00e-03,
1069,-6.00e-03,
1070,-4.00e-03,
1071,6.00e-03,
1072,-6.00e-03,
1073,1.80e-02,
1074,-4.00e-03,
1075,6.00e-03,
1076,-1.80e-02,
1077,1.60e-02,
1078,-1.00e-02,
1079,6.00e-03,
1080,6.00e-03,
1081,-6.00e-03,
1082,6.00e-03,
1083,-6.00e-03,
1084,-2.12e-01,
1085,1.30e-01,
1086,6.00e-03,
1087,-6.00e-03,
1088,-4.00e-03,
1089,6.00e-03,
1090,8.00e-03,
1091,-1.80e-02,
1092,-1.20e-02,
1093,1.20e-02,
1094,-4.00e-03,
1095,2.80e-02,
1096,2.20e-02,
1097,-1.60e-02,
1098,1.00e-02,
1099,-1.60e-02,
1100,-2.00e-02,
1101,2.20e-02,
1102,1.60e-02,
1103,-6.00e-03,
1104,-4.00e-03,
1105,8.00e-03,
1106,-1.40e-02,
1107,8.00e-03,
1108,1.80e-02,
1109,-6.00e-03,
1110,-4.00e-03,
1111,6.00e-03,
1112,-1.00e-02,
1113,6.00e-03,
1114,6.00e-03,
1115,-4.00e-03,
1116,6.00e-03,
1117,-6.00e-03,
1118,6.00e-03,
1119,-6.00e-03,
1120,2.00e-02,
1121,-1.40e-02,
1122,-1.20e-02,
1123,2.40e-02,
1124,-2.40e-02,
1125,2.00e-02,
1126,1.60e-02,
1127,-1.80e-02,
1128,-4.00e-03,
1129,1.40e-02,
1130,2.20e-02,
1131,-1.80e-02,
1132,-2.12e-01,
1133,2.58e-01,
1134,8.00e-03,
1135,-8.00e-03,
1136,6.00e-03,
1137,-8.00e-03,
1138,4.00e-03,
1139,-8.00e-03,
1140,6.00e-03,
1141,-6.00e-03,
1142,6.00e-03,
1143,-6.00e-03,
1144,6.00e-03,
1145,-8.00e-03,
1146,-6.00e-03,
1147,2.00e-02,
1148,2.20e-02,
1149,-8.00e-03,
1150,-6.00e-03,
1151,8.00e-03,
1152,6.00e-03,
1153,-2.00e-02,
1154,-1.60e-02,
1155,2.20e-02,
1156,-1.14e-01,
1157,5.40e-02,
1158,6.00e-03,
1159,-8.00e-03,
1160,-1.60e-02,
1161,6.00e-03,
1162,4.00e-03,
1163,-4.00e-03,
1164,4.00e-03,
1165,-6.00e-03,
1166,6.00e-03,
1167,-8.00e-03,
1168,4.00e-03,
1169,-1.00e-02,
1170,-8.00e-03,
1171,6.00e-03,
1172,6.00e-03,
1173,-4.00e-03,
1174,1.80e-02,
1175,-1.60e-02,
1176,-1.60e-02,
1177,2.40e-02,
1178,-1.80e-02,
1179,1.60e-02,
1180,-2.12e-01,
1181,6.80e-02,
1182,8.00e-03,
1183,-6.00e-03,
1184,-1.60e-02,
1185,2.40e-02,
1186,-6.00e-03,
1187,6.00e-03,
1188,4.00e-03,
1189,-6.00e-03,
1190,6.00e-03,
1191,-4.00e-03,
1192,-4.00e-03,
1193,6.00e-03,
1194,-4.00e-03,
1195,6.00e-03,
1196,-4.00e-03,
1197,6.00e-03,
1198,8.00e-03,
1199,-1.60e-02,
