Motor_Data/MOTOR_1_ON/time domain/NewFile38.csv

X,CH2,Start,Increment,
Sequence,Volt,-3.000000e-02,5.000000e-05
0,1.80e-02,
1,-6.00e-03,
2,-1.20e-02,
3,2.00e-02,
4,6.00e-03,
5,-1.60e-02,
6,-8.00e-03,
7,1.80e-02,
8,1.60e-02,
9,-6.00e-03,
10,6.00e-03,
11,-6.00e-03,
12,6.00e-03,
13,-1.60e-02,
14,6.00e-03,
15,-6.00e-03,
16,-6.00e-03,
17,6.00e-03,
18,-6.00e-03,
19,6.00e-03,
20,-7.00e-02,
21,1.00e-02,
22,6.00e-03,
23,-1.20e-02,
24,-6.00e-03,
25,6.00e-03,
26,-1.00e-02,
27,1.40e-02,
28,8.00e-03,
29,-1.60e-02,
30,2.20e-02,
31,-1.20e-02,
32,-6.00e-03,
33,1.00e-02,
34,8.00e-03,
35,-4.00e-03,
36,-1.60e-02,
37,2.00e-02,
38,-8.00e-03,
39,8.00e-03,
40,-4.00e-03,
41,6.00e-03,
42,6.00e-03,
43,-4.00e-03,
44,-2.12e-01,
45,2.00e-01,
46,-6.00e-03,
47,8.00e-03,
48,-8.00e-03,
49,1.00e-02,
50,8.00e-03,
51,-8.00e-03,
52,-1.40e-02,
53,2.00e-02,
54,6.00e-03,
55,-6.00e-03,
56,-1.20e-02,
57,1.60e-02,
58,8.00e-03,
59,-1.40e-02,
60,-4.00e-03,
61,2.00e-02,
62,-6.00e-03,
63,1.00e-02,
64,8.00e-03,
65,-1.40e-02,
66,6.00e-03,
67,-1.60e-02,
68,-6.00e-03,
69,8.00e-03,
70,-6.00e-03,
71,5.40e-02,
72,6.00e-03,
73,-8.00e-03,
74,6.00e-03,
75,-8.00e-03,
76,-8.00e-03,
77,8.00e-03,
78,-4.00e-03,
79,8.00e-03,
80,1.60e-02,
81,-1.40e-02,
82,1.80e-02,
83,-1.60e-02,
84,1.80e-02,
85,-1.00e-02,
86,8.00e-03,
87,-6.00e-03,
88,1.40e-02,
89,-1.40e-02,
90,2.00e-02,
91,-1.20e-02,
92,-6.00e-03,
93,6.00e-03,
94,6.00e-03,
95,-6.00e-03,
96,-1.20e-02,
97,1.40e-02,
98,-6.00e-03,
99,6.00e-03,
100,6.00e-03,
101,-6.00e-03,
102,-6.00e-03,
103,8.00e-03,
104,6.00e-03,
105,-2.00e-02,
106,6.00e-03,
107,-6.00e-03,
108,-1.00e-02,
109,1.60e-02,
110,-1.60e-02,
111,1.20e-02,
112,-1.60e-02,
113,1.20e-02,
114,2.00e-02,
115,-4.00e-03,
116,6.00e-03,
117,-6.00e-03,
118,6.00e-03,
119,-1.40e-02,
120,-1.92e-01,
121,2.98e-01,
122,-4.00e-03,
123,6.00e-03,
124,-6.00e-03,
125,6.00e-03,
126,6.00e-03,
127,-6.00e-03,
128,6.00e-03,
129,-1.00e-02,
130,-6.00e-03,
131,6.00e-03,
132,1.00e-02,
133,-1.60e-02,
134,1.40e-02,
135,-6.00e-03,
136,1.80e-02,
137,-1.80e-02,
138,1.80e-02,
139,-1.00e-02,
140,-6.00e-03,
141,8.00e-03,
142,1.80e-02,
143,-1.80e-02,
144,1.40e-02,
145,-4.00e-03,
146,-6.00e-03,
147,1.54e-01,
148,-6.00e-03,
149,6.00e-03,
150,6.00e-03,
151,-6.00e-03,
152,6.00e-03,
153,-6.00e-03,
154,6.00e-03,
155,-6.00e-03,
156,1.00e-02,
157,-6.00e-03,
158,-1.40e-02,
159,1.60e-02,
160,-6.00e-03,
161,1.40e-02,
162,-1.40e-02,
163,1.60e-02,
164,6.00e-03,
165,-1.60e-02,
166,-1.00e-02,
167,2.00e-02,
168,-4.00e-03,
169,1.20e-02,
170,-2.12e-01,
171,2.98e-01,
172,6.00e-03,
173,-1.40e-02,
174,-4.00e-03,
175,6.00e-03,
176,-6.00e-03,
177,6.00e-03,
178,-4.00e-03,
179,8.00e-03,
180,-6.00e-03,
181,6.00e-03,
182,-6.00e-03,
183,8.00e-03,
184,-4.00e-03,
185,6.00e-03,
186,-1.60e-02,
187,2.00e-02,
188,1.20e-02,
189,-1.40e-02,
190,2.00e-02,
191,-1.00e-02,
192,1.00e-02,
193,-6.00e-03,
194,6.00e-03,
195,-8.00e-03,
196,-1.06e-01,
197,8.00e-03,
198,6.00e-03,
199,-6.00e-03,
200,-6.00e-03,
201,8.00e-03,
202,6.00e-03,
203,-6.00e-03,
204,-4.00e-03,
205,6.00e-03,
206,6.00e-03,
207,-6.00e-03,
208,-6.00e-03,
209,8.00e-03,
210,8.00e-03,
211,-1.20e-02,
212,-6.00e-03,
213,1.40e-02,
214,2.00e-02,
215,-1.00e-02,
216,-4.00e-03,
217,2.00e-02,
218,-1.20e-02,
219,1.60e-02,
220,2.98e-01,
221,-1.82e-01,
222,-4.00e-03,
223,8.00e-03,
224,8.00e-03,
225,-1.40e-02,
226,-1.40e-02,
227,6.00e-03,
228,-4.00e-03,
229,6.00e-03,
230,8.00e-03,
231,-4.00e-03,
232,-6.00e-03,
233,6.00e-03,
234,-1.00e-02,
235,6.00e-03,
236,-6.00e-03,
237,6.00e-03,
238,8.00e-03,
239,-1.00e-02,
240,1.80e-02,
241,-1.20e-02,
242,-1.40e-02,
243,2.00e-02,
244,-1.00e-02,
245,1.20e-02,
246,1.80e-02,
247,-6.00e-03,
248,1.80e-02,
249,-1.20e-02,
250,1.60e-02,
251,-1.20e-02,
252,-4.00e-03,
253,8.00e-03,
254,-4.00e-03,
255,6.00e-03,
256,-4.00e-03,
257,6.00e-03,
258,6.00e-03,
259,-6.00e-03,
260,8.00e-03,
261,-6.00e-03,
262,-6.00e-03,
263,1.00e-02,
264,8.00e-03,
265,-1.60e-02,
266,-4.00e-03,
267,1.60e-02,
268,-4.00e-03,
269,8.00e-03,
270,-1.24e-01,
271,7.20e-02,
272,-1.60e-02,
273,1.20e-02,
274,1.80e-02,
275,-6.00e-03,
276,-6.00e-03,
277,6.00e-03,
278,6.00e-03,
279,-1.40e-02,
280,8.00e-03,
281,-6.00e-03,
282,-4.00e-03,
283,6.00e-03,
284,6.00e-03,
285,-4.00e-03,
286,-1.00e-02,
287,6.00e-03,
288,6.00e-03,
289,-1.00e-02,
290,-4.00e-03,
291,6.00e-03,
292,-6.00e-03,
293,1.60e-02,
294,-1.40e-02,
295,1.60e-02,
296,-1.50e-01,
297,2.70e-01,
298,1.40e-02,
299,-1.20e-02,
300,-4.00e-03,
301,6.00e-03,
302,1.80e-02,
303,-1.40e-02,
304,1.40e-02,
305,-4.00e-03,
306,-6.00e-03,
307,6.00e-03,
308,-4.00e-03,
309,8.00e-03,
310,-4.00e-03,
311,8.00e-03,
312,-4.00e-03,
313,8.00e-03,
314,6.00e-03,
315,-1.00e-02,
316,6.00e-03,
317,-6.00e-03,
318,-1.20e-02,
319,8.00e-03,
320,1.60e-02,
321,-4.00e-03,
322,2.98e-01,
323,-1.74e-01,
324,-1.40e-02,
325,1.40e-02,
326,2.20e-02,
327,-6.00e-03,
328,1.40e-02,
329,-6.00e-03,
330,6.00e-03,
331,-6.00e-03,
332,6.00e-03,
333,-1.40e-02,
334,-4.00e-03,
335,6.00e-03,
336,-4.00e-03,
337,8.00e-03,
338,8.00e-03,
339,-8.00e-03,
340,-6.00e-03,
341,6.00e-03,
342,-8.00e-03,
343,6.00e-03,
344,-4.00e-03,
345,6.00e-03,
346,-3.80e-02,
347,1.80e-02,
348,1.60e-02,
349,-1.40e-02,
350,1.60e-02,
351,-6.00e-03,
352,-1.20e-02,
353,6.00e-03,
354,-6.00e-03,
355,1.20e-02,
356,2.00e-02,
357,-1.60e-02,
358,-6.00e-03,
359,6.00e-03,
360,6.00e-03,
361,-6.00e-03,
362,-6.00e-03,
363,8.00e-03,
364,-4.00e-03,
365,6.00e-03,
366,-4.00e-03,
367,6.00e-03,
368,8.00e-03,
369,-6.00e-03,
370,6.00e-03,
371,-1.60e-02,
372,-2.12e-01,
373,2.86e-01,
374,1.20e-02,
375,-6.00e-03,
376,-1.40e-02,
377,1.60e-02,
378,-1.40e-02,
379,8.00e-03,
380,1.60e-02,
381,-4.00e-03,
382,8.00e-03,
383,-6.00e-03,
384,6.00e-03,
385,-1.60e-02,
386,-1.20e-02,
387,6.00e-03,
388,8.00e-03,
389,-6.00e-03,
390,6.00e-03,
391,-6.00e-03,
392,-8.00e-03,
393,8.00e-03,
394,-8.00e-03,
395,6.00e-03,
396,6.00e-03,
397,-2.12e-01,
398,-4.00e-03,
399,8.00e-03,
400,-1.40e-02,
401,1.60e-02,
402,-1.40e-02,
403,1.80e-02,
404,-1.40e-02,
405,1.20e-02,
406,-1.00e-02,
407,8.00e-03,
408,2.00e-02,
409,-1.80e-02,
410,2.00e-02,
411,-1.40e-02,
412,-6.00e-03,
413,6.00e-03,
414,-6.00e-03,
415,6.00e-03,
416,-4.00e-03,
417,6.00e-03,
418,-4.00e-03,
419,6.00e-03,
420,-6.00e-03,
421,6.00e-03,
422,2.98e-01,
423,-1.04e-01,
424,-1.20e-02,
425,6.00e-03,
426,-6.00e-03,
427,6.00e-03,
428,-1.20e-02,
429,1.40e-02,
430,1.40e-02,
431,-8.00e-03,
432,-1.00e-02,
433,1.60e-02,
434,-4.00e-03,
435,1.60e-02,
436,8.00e-03,
437,-4.00e-03,
438,8.00e-03,
439,-1.40e-02,
440,-4.00e-03,
441,8.00e-03,
442,-6.00e-03,
443,6.00e-03,
444,6.00e-03,
445,-4.00e-03,
446,7.00e-02,
447,-2.12e-01,
448,-8.00e-03,
449,6.00e-03,
450,-4.00e-03,
451,6.00e-03,
452,-1.20e-02,
453,1.20e-02,
454,1.20e-02,
455,-1.20e-02,
456,1.80e-02,
457,-1.20e-02,
458,1.60e-02,
459,-1.20e-02,
460,6.00e-03,
461,-4.00e-03,
462,-1.60e-02,
463,2.00e-02,
464,1.20e-02,
465,-4.00e-03,
466,-6.00e-03,
467,6.00e-03,
468,-6.00e-03,
469,6.00e-03,
470,8.00e-03,
471,-4.00e-03,
472,-6.00e-03,
473,2.98e-01,
474,-4.00e-03,
475,6.00e-03,
476,6.00e-03,
477,-1.20e-02,
478,-1.40e-02,
479,6.00e-03,
480,1.80e-02,
481,-4.00e-03,
482,-1.20e-02,
483,1.60e-02,
484,8.00e-03,
485,-1.40e-02,
486,-4.00e-03,
487,2.00e-02,
488,1.20e-02,
489,-6.00e-03,
490,6.00e-03,
491,-1.20e-02,
492,6.00e-03,
493,-1.60e-02,
494,6.00e-03,
495,-4.00e-03,
496,-1.06e-01,
497,1.20e-01,
498,6.00e-03,
499,-6.00e-03,
500,6.00e-03,
501,-1.00e-02,
502,6.00e-03,
503,-6.00e-03,
504,8.00e-03,
505,-6.00e-03,
506,-1.40e-02,
507,1.80e-02,
508,1.40e-02,
509,-1.80e-02,
510,1.40e-02,
511,-6.00e-03,
512,-4.00e-03,
513,1.00e-02,
514,8.00e-03,
515,-1.40e-02,
516,6.00e-03,
517,-1.40e-02,
518,6.00e-03,
519,-6.00e-03,
520,-6.00e-03,
521,6.00e-03,
522,2.98e-01,
523,-2.12e-01,
524,-6.00e-03,
525,8.00e-03,
526,8.00e-03,
527,-6.00e-03,
528,-8.00e-03,
529,6.00e-03,
530,8.00e-03,
531,-1.60e-02,
532,-6.00e-03,
533,1.60e-02,
534,1.60e-02,
535,-6.00e-03,
536,-1.00e-02,
537,1.80e-02,
538,-1.60e-02,
539,2.00e-02,
540,-6.00e-03,
541,1.40e-02,
542,8.00e-03,
543,-6.00e-03,
544,8.00e-03,
545,-1.60e-02,
546,-6.00e-03,
547,2.20e-02,
548,-4.00e-03,
549,1.00e-02,
550,6.00e-03,
551,-6.00e-03,
552,6.00e-03,
553,-6.00e-03,
554,-6.00e-03,
555,6.00e-03,
556,-6.00e-03,
557,6.00e-03,
558,8.00e-03,
559,-6.00e-03,
560,-1.20e-02,
561,1.80e-02,
562,-1.60e-02,
563,1.80e-02,
564,-1.20e-02,
565,1.40e-02,
566,-6.00e-03,
567,6.00e-03,
568,1.60e-02,
569,-1.20e-02,
570,1.40e-02,
571,-1.20e-02,
572,-2.12e-01,
573,1.58e-01,
574,6.00e-03,
575,-6.00e-03,
576,6.00e-03,
577,-6.00e-03,
578,-6.00e-03,
579,6.00e-03,
580,-4.00e-03,
581,6.00e-03,
582,-8.00e-03,
583,1.00e-02,
584,-1.60e-02,
585,6.00e-03,
586,-4.00e-03,
587,1.80e-02,
588,6.00e-03,
589,-6.00e-03,
590,6.00e-03,
591,-1.00e-02,
592,-8.00e-03,
593,1.80e-02,
594,-4.00e-03,
595,1.80e-02,
596,-6.00e-03,
597,2.62e-01,
598,-1.80e-02,
599,8.00e-03,
600,6.00e-03,
601,-4.00e-03,
602,-4.00e-03,
603,6.00e-03,
604,6.00e-03,
605,-6.00e-03,
606,-1.00e-02,
607,4.00e-03,
608,-4.00e-03,
609,6.00e-03,
610,-4.00e-03,
611,6.00e-03,
612,1.80e-02,
613,-1.20e-02,
614,1.00e-02,
615,-1.60e-02,
616,1.80e-02,
617,-1.00e-02,
618,1.60e-02,
619,-1.00e-02,
620,-4.00e-03,
621,1.40e-02,
622,-9.60e-02,
623,1.60e-02,
624,8.00e-03,
625,-4.00e-03,
626,-6.00e-03,
627,8.00e-03,
628,6.00e-03,
629,-6.00e-03,
630,6.00e-03,
631,-6.00e-03,
632,6.00e-03,
633,-6.00e-03,
634,6.00e-03,
635,-8.00e-03,
636,6.00e-03,
637,-1.20e-02,
638,6.00e-03,
639,-4.00e-03,
640,1.80e-02,
641,-1.40e-02,
642,1.60e-02,
643,-1.00e-02,
644,6.00e-03,
645,-1.40e-02,
646,-4.00e-03,
647,2.00e-02,
648,-7.80e-02,
649,1.34e-01,
650,6.00e-03,
651,-1.00e-02,
652,6.00e-03,
653,-6.00e-03,
654,6.00e-03,
655,-4.00e-03,
656,-6.00e-03,
657,8.00e-03,
658,-6.00e-03,
659,6.00e-03,
660,-8.00e-03,
661,8.00e-03,
662,-6.00e-03,
663,6.00e-03,
664,-4.00e-03,
665,8.00e-03,
666,-4.00e-03,
667,1.40e-02,
668,2.00e-02,
669,-1.40e-02,
670,-6.00e-03,
671,1.80e-02,
672,-4.00e-03,
673,2.98e-01,
674,6.00e-03,
675,-4.00e-03,
676,-1.40e-02,
677,1.20e-02,
678,-4.00e-03,
679,6.00e-03,
680,-4.00e-03,
681,6.00e-03,
682,8.00e-03,
683,-6.00e-03,
684,-6.00e-03,
685,4.00e-03,
686,6.00e-03,
687,-6.00e-03,
688,-1.00e-02,
689,8.00e-03,
690,8.00e-03,
691,-1.40e-02,
692,-4.00e-03,
693,2.20e-02,
694,-4.00e-03,
695,8.00e-03,
696,-8.00e-03,
697,2.00e-02,
698,2.20e-02,
699,-1.40e-02,
700,1.80e-02,
701,-4.00e-03,
702,6.00e-03,
703,-6.00e-03,
704,8.00e-03,
705,-1.40e-02,
706,-4.00e-03,
707,6.00e-03,
708,-4.00e-03,
709,8.00e-03,
710,-6.00e-03,
711,6.00e-03,
712,-8.00e-03,
713,6.00e-03,
714,-1.00e-02,
715,8.00e-03,
716,-6.00e-03,
717,8.00e-03,
718,1.00e-02,
719,-1.20e-02,
720,1.40e-02,
721,-6.00e-03,
722,-2.12e-01,
723,2.98e-01,
724,-1.20e-02,
725,1.40e-02,
726,-4.00e-03,
727,8.00e-03,
728,1.60e-02,
729,-1.40e-02,
730,6.00e-03,
731,-1.20e-02,
732,8.00e-03,
733,-8.00e-03,
734,-4.00e-03,
735,6.00e-03,
736,-4.00e-03,
737,6.00e-03,
738,-6.00e-03,
739,6.00e-03,
740,-6.00e-03,
741,6.00e-03,
742,6.00e-03,
743,-6.00e-03,
744,-1.60e-02,
745,8.00e-03,
746,-4.00e-03,
747,1.60e-02,
748,-1.60e-02,
749,2.42e-01,
750,6.00e-03,
751,-1.40e-02,
752,-8.00e-03,
753,1.80e-02,
754,1.80e-02,
755,-6.00e-03,
756,6.00e-03,
757,-6.00e-03,
758,6.00e-03,
759,-1.00e-02,
760,-4.00e-03,
761,8.00e-03,
762,-4.00e-03,
763,6.00e-03,
764,-4.00e-03,
765,8.00e-03,
766,6.00e-03,
767,-1.00e-02,
768,6.00e-03,
769,-6.00e-03,
770,-4.00e-03,
771,8.00e-03,
772,-1.00e-02,
773,1.60e-02,
774,2.00e-01,
775,-1.40e-02,
776,1.20e-02,
777,-1.20e-02,
778,1.40e-02,
779,-8.00e-03,
780,6.00e-03,
781,-6.00e-03,
782,1.40e-02,
783,-1.40e-02,
784,-4.00e-03,
785,8.00e-03,
786,-4.00e-03,
787,6.00e-03,
788,-4.00e-03,
789,8.00e-03,
790,-4.00e-03,
791,8.00e-03,
792,-4.00e-03,
793,8.00e-03,
794,-8.00e-03,
795,6.00e-03,
796,6.00e-03,
797,-1.20e-02,
798,-1.02e-01,
799,1.60e-02,
800,8.00e-03,
801,-1.20e-02,
802,1.60e-02,
803,-8.00e-03,
804,6.00e-03,
805,-1.20e-02,
806,-4.00e-03,
807,1.80e-02,
808,1.00e-02,
809,-4.00e-03,
810,6.00e-03,
811,-1.20e-02,
812,-1.60e-02,
813,6.00e-03,
814,-6.00e-03,
815,6.00e-03,
816,-4.00e-03,
817,6.00e-03,
818,6.00e-03,
819,-1.00e-02,
820,-6.00e-03,
821,8.00e-03,
822,-8.00e-03,
823,6.00e-03,
824,2.98e-01,
825,-4.00e-03,
826,-1.00e-02,
827,1.60e-02,
828,1.60e-02,
829,-1.20e-02,
830,6.00e-03,
831,-8.00e-03,
832,-1.20e-02,
833,6.00e-03,
834,8.00e-03,
835,-1.20e-02,
836,2.20e-02,
837,-1.80e-02,
838,6.00e-03,
839,-4.00e-03,
840,6.00e-03,
841,-6.00e-03,
842,-4.00e-03,
843,6.00e-03,
844,-6.00e-03,
845,6.00e-03,
846,6.00e-03,
847,-6.00e-03,
848,-1.00e-02,
849,2.20e-02,
850,6.00e-03,
851,-1.60e-02,
852,-4.00e-03,
853,1.60e-02,
854,1.20e-02,
855,-1.40e-02,
856,-4.00e-03,
857,1.80e-02,
858,-1.40e-02,
859,1.40e-02,
860,2.20e-02,
861,-6.00e-03,
862,6.00e-03,
863,-6.00e-03,
864,6.00e-03,
865,-1.60e-02,
866,-6.00e-03,
867,6.00e-03,
868,6.00e-03,
869,-6.00e-03,
870,-4.00e-03,
871,6.00e-03,
872,-6.00e-03,
873,6.00e-03,
874,-6.00e-03,
875,1.02e-01,
876,8.00e-03,
877,-6.00e-03,
878,1.40e-02,
879,-1.40e-02,
880,-6.00e-03,
881,1.60e-02,
882,1.40e-02,
883,-1.60e-02,
884,1.40e-02,
885,-1.40e-02,
886,-6.00e-03,
887,1.00e-02,
888,2.00e-02,
889,-2.00e-02,
890,1.60e-02,
891,-8.00e-03,
892,-4.00e-03,
893,8.00e-03,
894,-6.00e-03,
895,6.00e-03,
896,-4.00e-03,
897,8.00e-03,
898,-8.20e-02,
899,5.40e-02,
900,6.00e-03,
901,-6.00e-03,
902,8.00e-03,
903,-6.00e-03,
904,-1.40e-02,
905,6.00e-03,
906,1.40e-02,
907,-6.00e-03,
908,6.00e-03,
909,-1.40e-02,
910,-4.00e-03,
911,6.00e-03,
912,1.20e-02,
913,-6.00e-03,
914,-6.00e-03,
915,8.00e-03,
916,-6.00e-03,
917,6.00e-03,
918,6.00e-03,
919,-1.00e-02,
920,-6.00e-03,
921,6.00e-03,
922,6.00e-03,
923,-6.00e-03,
924,-2.12e-01,
925,2.98e-01,
926,6.00e-03,
927,-1.00e-02,
928,6.00e-03,
929,-6.00e-03,
930,-4.00e-03,
931,8.00e-03,
932,-1.20e-02,
933,1.60e-02,
934,-1.80e-02,
935,1.60e-02,
936,1.00e-02,
937,-1.20e-02,
938,1.40e-02,
939,-1.20e-02,
940,-6.00e-03,
941,1.60e-02,
942,-1.80e-02,
943,1.60e-02,
944,6.00e-03,
945,-6.00e-03,
946,-4.00e-03,
947,6.00e-03,
948,-2.40e-02,
949,4.40e-02,
950,6.00e-03,
951,-6.00e-03,
952,-4.00e-03,
953,6.00e-03,
954,6.00e-03,
955,-8.00e-03,
956,6.00e-03,
957,-1.20e-02,
958,-6.00e-03,
959,1.60e-02,
960,6.00e-03,
961,-1.20e-02,
962,1.20e-02,
963,-1.00e-02,
964,-1.40e-02,
965,1.80e-02,
966,-4.00e-03,
967,1.60e-02,
968,1.00e-02,
969,-8.00e-03,
970,6.00e-03,
971,-1.20e-02,
972,6.00e-03,
973,-1.20e-02,
974,-1.68e-01,
975,2.98e-01,
976,6.00e-03,
977,-6.00e-03,
978,-6.00e-03,
979,6.00e-03,
980,-8.00e-03,
981,6.00e-03,
982,6.00e-03,
983,-6.00e-03,
984,6.00e-03,
985,-6.00e-03,
986,-4.00e-03,
987,1.80e-02,
988,8.00e-03,
989,-1.20e-02,
990,-4.00e-03,
991,6.00e-03,
992,6.00e-03,
993,-4.00e-03,
994,-6.00e-03,
995,6.00e-03,
996,-4.00e-03,
997,1.00e-02,
998,-1.60e-02,
999,1.60e-02,
1000,-4.00e-03,
1001,6.00e-03,
1002,8.00e-03,
1003,-6.00e-03,
1004,6.00e-03,
1005,-6.00e-03,
1006,6.00e-03,
1007,-8.00e-03,
1008,8.00e-03,
1009,-8.00e-03,
1010,8.00e-03,
1011,-1.20e-02,
1012,1.60e-02,
1013,-6.00e-03,
1014,1.40e-02,
1015,-8.00e-03,
1016,-6.00e-03,
1017,1.80e-02,
1018,-1.60e-02,
1019,2.00e-02,
1020,1.40e-02,
1021,-8.00e-03,
1022,-4.00e-03,
1023,8.00e-03,
1024,3.80e-02,
1025,-2.12e-01,
1026,6.00e-03,
1027,-4.00e-03,
1028,6.00e-03,
1029,-4.00e-03,
1030,6.00e-03,
1031,-6.00e-03,
1032,-4.00e-03,
1033,6.00e-03,
1034,-4.00e-03,
1035,8.00e-03,
1036,8.00e-03,
1037,-6.00e-03,
1038,1.60e-02,
1039,-1.40e-02,
1040,-6.00e-03,
1041,1.80e-02,
1042,-1.00e-02,
1043,1.40e-02,
1044,1.40e-02,
1045,-1.40e-02,
1046,-4.00e-03,
1047,1.40e-02,
1048,-1.26e-01,
1049,2.26e-01,
1050,6.00e-03,
1051,-6.00e-03,
1052,-4.00e-03,
1053,8.00e-03,
1054,6.00e-03,
1055,-4.00e-03,
1056,4.00e-03,
1057,-6.00e-03,
1058,-6.00e-03,
1059,6.00e-03,
1060,6.00e-03,
1061,-6.00e-03,
1062,6.00e-03,
1063,-8.00e-03,
1064,-4.00e-03,
1065,6.00e-03,
1066,-4.00e-03,
1067,6.00e-03,
1068,-4.00e-03,
1069,1.40e-02,
1070,6.00e-03,
1071,-6.00e-03,
1072,-6.00e-03,
1073,1.20e-02,
1074,-4.00e-03,
1075,1.28e-01,
1076,6.00e-03,
1077,-6.00e-03,
1078,6.00e-03,
1079,-8.00e-03,
1080,6.00e-03,
1081,-6.00e-03,
1082,-4.00e-03,
1083,6.00e-03,
1084,8.00e-03,
1085,-1.00e-02,
1086,6.00e-03,
1087,-1.00e-02,
1088,6.00e-03,
1089,-8.00e-03,
1090,6.00e-03,
1091,-4.00e-03,
1092,-1.40e-02,
1093,1.40e-02,
1094,1.60e-02,
1095,-1.60e-02,
1096,1.00e-02,
1097,-1.40e-02,
1098,2.98e-01,
1099,-2.12e-01,
1100,-8.00e-03,
1101,1.80e-02,
1102,8.00e-03,
1103,-1.00e-02,
1104,6.00e-03,
1105,-6.00e-03,
1106,6.00e-03,
1107,-6.00e-03,
1108,-6.00e-03,
1109,8.00e-03,
1110,-4.00e-03,
1111,6.00e-03,
1112,6.00e-03,
1113,-6.00e-03,
1114,6.00e-03,
1115,-6.00e-03,
1116,6.00e-03,
1117,-1.20e-02,
1118,-4.00e-03,
1119,1.60e-02,
1120,6.00e-03,
1121,-1.40e-02,
1122,1.80e-02,
1123,-8.00e-03,
1124,-2.12e-01,
1125,4.20e-02,
1126,-4.00e-03,
1127,1.60e-02,
1128,-4.00e-03,
1129,8.00e-03,
1130,6.00e-03,
1131,-1.40e-02,
1132,6.00e-03,
1133,-1.60e-02,
1134,-6.00e-03,
1135,8.00e-03,
1136,6.00e-03,
1137,-6.00e-03,
1138,-8.00e-03,
1139,6.00e-03,
1140,6.00e-03,
1141,-8.00e-03,
1142,6.00e-03,
1143,-4.00e-03,
1144,6.00e-03,
1145,-1.20e-02,
1146,-1.20e-02,
1147,8.00e-03,
1148,-4.00e-03,
1149,1.60e-02,
1150,8.40e-02,
1151,-1.20e-02,
1152,-8.00e-03,
1153,8.00e-03,
1154,-4.00e-03,
1155,1.60e-02,
1156,-1.20e-02,
1157,8.00e-03,
1158,6.00e-03,
1159,-6.00e-03,
1160,6.00e-03,
1161,-6.00e-03,
1162,-6.00e-03,
1163,6.00e-03,
1164,-4.00e-03,
1165,6.00e-03,
1166,6.00e-03,
1167,-8.00e-03,
1168,-8.00e-03,
1169,8.00e-03,
1170,-1.00e-02,
1171,8.00e-03,
1172,-4.00e-03,
1173,2.00e-02,
1174,2.98e-01,
1175,-1.80e-02,
1176,1.40e-02,
1177,-8.00e-03,
1178,-4.00e-03,
1179,1.80e-02,
1180,-6.00e-03,
1181,1.40e-02,
1182,6.00e-03,
1183,-6.00e-03,
1184,-6.00e-03,
1185,8.00e-03,
1186,6.00e-03,
1187,-4.00e-03,
1188,-4.00e-03,
1189,6.00e-03,
1190,6.00e-03,
1191,-8.00e-03,
1192,8.00e-03,
1193,-8.00e-03,
1194,-1.00e-02,
1195,8.00e-03,
1196,6.00e-03,
1197,-6.00e-03,
1198,1.40e-02,
1199,-1.20e-02,
