Laptop_1/LAPTOP_CHRGR_1_ON_CLOSE/time domain/NewFile14.csv

X,CH1,Start,Increment,
Sequence,Volt,-1.500000e-01,2.000000e-04
0,-1.60e-01,
1,1.56e-01,
2,-1.72e-01,
3,1.40e-01,
4,-1.64e-01,
5,1.64e-01,
6,1.52e-01,
7,-1.64e-01,
8,1.56e-01,
9,-1.60e-01,
10,-1.32e-01,
11,1.52e-01,
12,1.56e-01,
13,-1.60e-01,
14,1.40e-01,
15,-1.48e-01,
16,-1.60e-01,
17,1.52e-01,
18,-1.48e-01,
19,1.60e-01,
20,-1.36e-01,
21,1.60e-01,
22,-1.56e-01,
23,1.56e-01,
24,-1.28e-01,
25,1.40e-01,
26,-1.52e-01,
27,1.40e-01,
28,-1.96e-01,
29,2.12e-01,
30,-2.36e-01,
31,2.12e-01,
32,2.24e-01,
33,-2.20e-01,
34,1.36e-01,
35,-6.00e-02,
36,-1.36e-01,
37,1.16e-01,
38,-1.16e-01,
39,7.60e-02,
40,1.48e-01,
41,-1.40e-01,
42,-1.56e-01,
43,1.60e-01,
44,-1.60e-01,
45,1.52e-01,
46,-1.56e-01,
47,1.52e-01,
48,1.36e-01,
49,-1.44e-01,
50,-1.60e-01,
51,1.52e-01,
52,1.44e-01,
53,-1.56e-01,
54,-1.36e-01,
55,1.32e-01,
56,-1.52e-01,
57,1.80e-01,
58,2.08e-01,
59,-2.28e-01,
60,-2.36e-01,
61,2.40e-01,
62,-2.56e-01,
63,2.28e-01,
64,2.56e-01,
65,-2.56e-01,
66,2.52e-01,
67,-2.44e-01,
68,2.52e-01,
69,-2.48e-01,
70,2.36e-01,
71,-2.44e-01,
72,-2.52e-01,
73,2.44e-01,
74,-2.52e-01,
75,2.28e-01,
76,-1.72e-01,
77,1.72e-01,
78,-1.48e-01,
79,1.68e-01,
80,1.52e-01,
81,-1.52e-01,
82,1.60e-01,
83,-1.40e-01,
84,1.60e-01,
85,-1.68e-01,
86,1.56e-01,
87,-1.60e-01,
88,-1.28e-01,
89,1.36e-01,
90,-1.48e-01,
91,1.40e-01,
92,1.48e-01,
93,-1.60e-01,
94,-1.44e-01,
95,1.56e-01,
96,-1.36e-01,
97,1.48e-01,
98,1.60e-01,
99,-1.24e-01,
100,1.48e-01,
101,-1.36e-01,
102,-1.52e-01,
103,1.48e-01,
104,1.36e-01,
105,-1.32e-01,
106,1.48e-01,
107,-1.56e-01,
108,-1.60e-01,
109,1.52e-01,
110,1.56e-01,
111,-1.52e-01,
112,-2.04e-01,
113,2.20e-01,
114,-2.28e-01,
115,2.40e-01,
116,2.32e-01,
117,-1.76e-01,
118,-8.80e-02,
119,1.52e-01,
120,-1.32e-01,
121,1.36e-01,
122,1.56e-01,
123,-1.64e-01,
124,-1.40e-01,
125,1.52e-01,
126,1.40e-01,
127,-1.56e-01,
128,1.44e-01,
129,-1.48e-01,
130,-1.52e-01,
131,1.60e-01,
132,1.48e-01,
133,-1.56e-01,
134,1.48e-01,
135,-1.48e-01,
136,-1.48e-01,
137,1.44e-01,
138,1.44e-01,
139,-1.56e-01,
140,2.08e-01,
141,-2.16e-01,
142,-2.24e-01,
143,2.12e-01,
144,-2.44e-01,
145,2.44e-01,
146,-2.36e-01,
147,2.48e-01,
148,-2.60e-01,
149,2.40e-01,
150,-2.52e-01,
151,2.40e-01,
152,2.44e-01,
153,-2.36e-01,
154,-1.76e-01,
155,2.36e-01,
156,-1.80e-01,
157,2.52e-01,
158,2.16e-01,
159,-2.40e-01,
160,1.64e-01,
161,-1.60e-01,
162,1.64e-01,
163,-1.76e-01,
164,1.64e-01,
165,-1.72e-01,
166,-1.44e-01,
167,1.48e-01,
168,1.52e-01,
169,-1.48e-01,
170,-1.52e-01,
171,1.56e-01,
172,-1.60e-01,
173,1.52e-01,
174,-1.64e-01,
175,1.56e-01,
176,-1.60e-01,
177,1.52e-01,
178,1.52e-01,
179,-1.48e-01,
180,-1.44e-01,
181,1.48e-01,
182,-1.56e-01,
183,1.36e-01,
184,1.44e-01,
185,-1.24e-01,
186,-1.44e-01,
187,1.44e-01,
188,-1.56e-01,
189,1.52e-01,
190,-1.56e-01,
191,1.52e-01,
192,-1.44e-01,
193,1.64e-01,
194,1.52e-01,
195,-2.16e-01,
196,-1.96e-01,
197,2.32e-01,
198,-2.32e-01,
199,2.28e-01,
200,1.92e-01,
201,-1.60e-01,
202,1.48e-01,
203,-1.48e-01,
204,1.52e-01,
205,-1.64e-01,
206,1.48e-01,
207,-1.72e-01,
208,1.44e-01,
209,-1.48e-01,
210,-1.36e-01,
211,1.56e-01,
212,-1.60e-01,
213,1.48e-01,
214,-1.28e-01,
215,1.48e-01,
216,1.48e-01,
217,-1.40e-01,
218,-1.48e-01,
219,1.28e-01,
220,1.48e-01,
221,-1.56e-01,
222,-1.88e-01,
223,1.96e-01,
224,2.20e-01,
225,-2.44e-01,
226,-2.28e-01,
227,2.32e-01,
228,2.32e-01,
229,-2.40e-01,
230,-1.04e-01,
231,2.44e-01,
232,-2.44e-01,
233,2.28e-01,
234,2.40e-01,
235,-2.36e-01,
236,2.56e-01,
237,-2.36e-01,
238,-2.44e-01,
239,2.40e-01,
240,-2.48e-01,
241,2.28e-01,
242,-1.92e-01,
243,1.64e-01,
244,1.68e-01,
245,-1.12e-01,
246,-1.68e-01,
247,1.60e-01,
248,-1.64e-01,
249,1.64e-01,
250,1.56e-01,
251,-1.64e-01,
252,1.64e-01,
253,-1.44e-01,
254,1.64e-01,
255,-1.56e-01,
256,1.64e-01,
257,-1.36e-01,
258,1.60e-01,
259,-1.64e-01,
260,-1.60e-01,
261,1.28e-01,
262,1.56e-01,
263,-1.40e-01,
264,-1.48e-01,
265,1.48e-01,
266,-1.48e-01,
267,1.56e-01,
268,1.52e-01,
269,-1.44e-01,
270,1.36e-01,
271,-1.48e-01,
272,-1.28e-01,
273,1.44e-01,
274,-1.60e-01,
275,1.40e-01,
276,-1.84e-01,
277,1.96e-01,
278,2.28e-01,
279,-2.12e-01,
280,2.36e-01,
281,-2.32e-01,
282,2.48e-01,
283,-2.48e-01,
284,1.44e-01,
285,-1.60e-01,
286,-1.36e-01,
287,1.48e-01,
288,-1.60e-01,
289,1.32e-01,
290,1.48e-01,
291,-1.60e-01,
292,-1.44e-01,
293,1.48e-01,
294,-1.60e-01,
295,1.52e-01,
296,-1.64e-01,
297,1.52e-01,
298,1.36e-01,
299,-1.48e-01,
300,1.56e-01,
301,-1.48e-01,
302,-1.48e-01,
303,1.52e-01,
304,1.64e-01,
305,-2.08e-01,
306,2.04e-01,
307,-2.24e-01,
308,-2.28e-01,
309,2.28e-01,
310,-1.80e-01,
311,2.28e-01,
312,2.40e-01,
313,-2.32e-01,
314,2.32e-01,
315,-2.48e-01,
316,2.28e-01,
317,-1.56e-01,
318,2.40e-01,
319,-1.56e-01,
320,2.40e-01,
321,-2.48e-01,
322,-2.48e-01,
323,2.40e-01,
324,2.44e-01,
325,-2.40e-01,
326,1.52e-01,
327,-1.64e-01,
328,1.12e-01,
329,-1.36e-01,
330,1.64e-01,
331,-1.28e-01,
332,-1.60e-01,
333,1.60e-01,
334,1.52e-01,
335,-1.72e-01,
336,1.48e-01,
337,-1.56e-01,
338,1.44e-01,
339,-1.68e-01,
340,-1.48e-01,
341,1.44e-01,
342,-1.24e-01,
343,1.52e-01,
344,1.36e-01,
345,-1.36e-01,
346,1.48e-01,
347,-1.44e-01,
348,-1.24e-01,
349,1.60e-01,
350,1.56e-01,
351,-1.48e-01,
352,1.52e-01,
353,-1.52e-01,
354,-1.56e-01,
355,1.32e-01,
356,8.00e-02,
357,-1.20e-01,
358,-1.68e-01,
359,1.96e-01,
360,-2.28e-01,
361,2.20e-01,
362,-2.40e-01,
363,2.52e-01,
364,2.48e-01,
365,-2.48e-01,
366,2.16e-01,
367,-2.44e-01,
368,1.52e-01,
369,-1.68e-01,
370,1.60e-01,
371,-1.72e-01,
372,-1.36e-01,
373,1.52e-01,
374,-1.32e-01,
375,1.04e-01,
376,1.28e-01,
377,-1.56e-01,
378,1.36e-01,
379,-1.64e-01,
380,1.44e-01,
381,-1.32e-01,
382,-1.56e-01,
383,1.52e-01,
384,-1.20e-01,
385,1.52e-01,
386,-1.52e-01,
387,1.88e-01,
388,-1.88e-01,
389,2.00e-01,
390,-2.08e-01,
391,2.04e-01,
392,-2.16e-01,
393,2.16e-01,
394,-2.24e-01,
395,2.28e-01,
396,-1.76e-01,
397,2.32e-01,
398,2.36e-01,
399,-2.16e-01,
400,-2.44e-01,
401,2.36e-01,
402,-2.48e-01,
403,2.40e-01,
404,-2.52e-01,
405,2.48e-01,
406,-2.56e-01,
407,1.68e-01,
408,-2.20e-01,
409,2.04e-01,
410,1.64e-01,
411,-1.44e-01,
412,1.64e-01,
413,-1.56e-01,
414,-1.72e-01,
415,1.64e-01,
416,1.56e-01,
417,-1.32e-01,
418,-1.68e-01,
419,1.56e-01,
420,-1.24e-01,
421,1.52e-01,
422,1.56e-01,
423,-1.36e-01,
424,-1.68e-01,
425,1.56e-01,
426,-1.44e-01,
427,1.52e-01,
428,1.60e-01,
429,-1.52e-01,
430,-1.52e-01,
431,1.48e-01,
432,1.56e-01,
433,-1.24e-01,
434,-1.24e-01,
435,1.28e-01,
436,1.48e-01,
437,-1.52e-01,
438,8.00e-02,
439,-1.24e-01,
440,-1.56e-01,
441,1.56e-01,
442,2.12e-01,
443,-2.00e-01,
444,-2.40e-01,
445,2.16e-01,
446,2.44e-01,
447,-2.44e-01,
448,2.48e-01,
449,-2.60e-01,
450,-2.20e-01,
451,2.08e-01,
452,1.56e-01,
453,-1.24e-01,
454,1.60e-01,
455,-1.68e-01,
456,-1.28e-01,
457,1.60e-01,
458,-1.56e-01,
459,1.40e-01,
460,-1.72e-01,
461,1.40e-01,
462,-1.36e-01,
463,1.56e-01,
464,1.40e-01,
465,-1.24e-01,
466,1.56e-01,
467,-1.28e-01,
468,1.36e-01,
469,-1.60e-01,
470,-1.44e-01,
471,1.52e-01,
472,-1.88e-01,
473,1.92e-01,
474,1.92e-01,
475,-2.04e-01,
476,-2.16e-01,
477,2.04e-01,
478,-2.32e-01,
479,2.00e-01,
480,2.24e-01,
481,-2.36e-01,
482,-2.40e-01,
483,2.40e-01,
484,2.40e-01,
485,-2.56e-01,
486,-2.48e-01,
487,2.48e-01,
488,2.44e-01,
489,-2.44e-01,
490,2.48e-01,
491,-2.40e-01,
492,-1.60e-01,
493,1.56e-01,
494,-1.28e-01,
495,1.52e-01,
496,1.52e-01,
497,-1.24e-01,
498,-1.68e-01,
499,1.60e-01,
500,1.60e-01,
501,-1.72e-01,
502,1.60e-01,
503,-1.52e-01,
504,1.32e-01,
505,-1.60e-01,
506,1.40e-01,
507,-1.44e-01,
508,-1.36e-01,
509,1.44e-01,
510,-1.56e-01,
511,1.60e-01,
512,1.52e-01,
513,-1.56e-01,
514,1.28e-01,
515,-1.52e-01,
516,1.44e-01,
517,-1.28e-01,
518,1.32e-01,
519,-1.52e-01,
520,1.60e-01,
521,-1.48e-01,
522,1.56e-01,
523,-1.32e-01,
524,1.60e-01,
525,-1.88e-01,
526,2.20e-01,
527,-2.12e-01,
528,-2.40e-01,
529,2.48e-01,
530,-2.44e-01,
531,2.48e-01,
532,2.40e-01,
533,-2.52e-01,
534,2.16e-01,
535,-1.72e-01,
536,-1.60e-01,
537,1.48e-01,
538,-1.60e-01,
539,1.56e-01,
540,1.56e-01,
541,-1.48e-01,
542,-1.60e-01,
543,1.60e-01,
544,1.52e-01,
545,-1.56e-01,
546,-1.48e-01,
547,1.60e-01,
548,1.52e-01,
549,-1.52e-01,
550,-1.52e-01,
551,1.52e-01,
552,1.44e-01,
553,-1.52e-01,
554,-1.52e-01,
555,1.44e-01,
556,1.56e-01,
557,-1.56e-01,
558,1.60e-01,
559,-1.64e-01,
560,1.96e-01,
561,-1.84e-01,
562,-2.00e-01,
563,2.00e-01,
564,-2.08e-01,
565,2.12e-01,
566,2.20e-01,
567,-2.44e-01,
568,-2.44e-01,
569,2.24e-01,
570,2.40e-01,
571,-2.44e-01,
572,2.28e-01,
573,-2.20e-01,
574,2.24e-01,
575,-1.84e-01,
576,-1.44e-01,
577,1.72e-01,
578,-1.28e-01,
579,1.52e-01,
580,1.44e-01,
581,-1.64e-01,
582,1.64e-01,
583,-1.64e-01,
584,1.68e-01,
585,-1.68e-01,
586,-1.68e-01,
587,1.64e-01,
588,-1.64e-01,
589,1.44e-01,
590,1.60e-01,
591,-1.56e-01,
592,-1.52e-01,
593,1.48e-01,
594,1.52e-01,
595,-1.44e-01,
596,1.48e-01,
597,-1.36e-01,
598,-1.56e-01,
599,1.56e-01,
600,1.56e-01,
601,-1.52e-01,
602,-1.52e-01,
603,1.20e-01,
604,1.56e-01,
605,-1.56e-01,
606,-1.88e-01,
607,1.96e-01,
608,-2.28e-01,
609,1.88e-01,
610,2.44e-01,
611,-2.52e-01,
612,-2.36e-01,
613,2.40e-01,
614,2.56e-01,
615,-2.48e-01,
616,2.28e-01,
617,-2.44e-01,
618,1.68e-01,
619,-1.36e-01,
620,1.32e-01,
621,-1.08e-01,
622,1.60e-01,
623,-1.60e-01,
624,-1.08e-01,
625,1.48e-01,
626,-1.32e-01,
627,1.60e-01,
628,1.52e-01,
629,-1.60e-01,
630,1.40e-01,
631,-1.60e-01,
632,-1.48e-01,
633,1.56e-01,
634,-1.56e-01,
635,1.32e-01,
636,1.36e-01,
637,-1.28e-01,
638,1.28e-01,
639,-1.52e-01,
640,-1.48e-01,
641,1.52e-01,
642,-1.72e-01,
643,1.44e-01,
644,1.60e-01,
645,-1.64e-01,
646,-1.96e-01,
647,1.88e-01,
648,1.96e-01,
649,-2.08e-01,
650,1.68e-01,
651,-2.24e-01,
652,-2.40e-01,
653,2.16e-01,
654,2.28e-01,
655,-2.40e-01,
656,2.28e-01,
657,-2.20e-01,
658,2.20e-01,
659,-1.36e-01,
660,-1.72e-01,
661,1.68e-01,
662,-1.64e-01,
663,1.56e-01,
664,1.56e-01,
665,-1.52e-01,
666,1.52e-01,
667,-1.76e-01,
668,1.36e-01,
669,-1.52e-01,
670,-1.56e-01,
671,1.60e-01,
672,-1.60e-01,
673,1.56e-01,
674,-1.60e-01,
675,1.60e-01,
676,-1.44e-01,
677,1.52e-01,
678,-1.28e-01,
679,1.52e-01,
680,1.52e-01,
681,-1.48e-01,
682,-1.48e-01,
683,1.24e-01,
684,1.52e-01,
685,-1.56e-01,
686,1.44e-01,
687,-1.52e-01,
688,1.88e-01,
689,-1.96e-01,
690,-2.24e-01,
691,2.16e-01,
692,2.32e-01,
693,-2.44e-01,
694,-2.44e-01,
695,2.44e-01,
696,2.44e-01,
697,-2.28e-01,
698,2.32e-01,
699,-2.60e-01,
700,-2.36e-01,
701,2.00e-01,
702,1.32e-01,
703,-1.28e-01,
704,1.48e-01,
705,-1.64e-01,
706,1.32e-01,
707,-1.68e-01,
708,-1.24e-01,
709,1.32e-01,
710,1.44e-01,
711,-1.60e-01,
712,-1.48e-01,
713,1.56e-01,
714,1.60e-01,
715,-1.20e-01,
716,-1.56e-01,
717,1.52e-01,
718,-1.48e-01,
719,1.56e-01,
720,-1.56e-01,
721,1.32e-01,
722,1.52e-01,
723,-1.48e-01,
724,-1.28e-01,
725,1.40e-01,
726,1.52e-01,
727,-1.36e-01,
728,-1.52e-01,
729,1.48e-01,
730,1.44e-01,
731,-1.64e-01,
732,-2.04e-01,
733,2.20e-01,
734,-2.04e-01,
735,2.08e-01,
736,2.08e-01,
737,-2.12e-01,
738,2.28e-01,
739,-2.20e-01,
740,2.44e-01,
741,-2.32e-01,
742,1.68e-01,
743,-1.68e-01,
744,1.52e-01,
745,-1.08e-01,
746,-1.64e-01,
747,1.32e-01,
748,1.48e-01,
749,-1.68e-01,
750,-1.72e-01,
751,1.52e-01,
752,-1.64e-01,
753,1.68e-01,
754,1.36e-01,
755,-1.60e-01,
756,-1.56e-01,
757,1.48e-01,
758,1.56e-01,
759,-1.36e-01,
760,-1.40e-01,
761,1.40e-01,
762,1.56e-01,
763,-1.44e-01,
764,1.40e-01,
765,-1.56e-01,
766,-1.32e-01,
767,1.48e-01,
768,1.40e-01,
769,-1.44e-01,
770,1.80e-01,
771,-1.56e-01,
772,2.00e-01,
773,-2.28e-01,
774,-2.32e-01,
775,2.36e-01,
776,2.32e-01,
777,-2.44e-01,
778,-2.48e-01,
779,2.44e-01,
780,2.40e-01,
781,-2.44e-01,
782,-2.60e-01,
783,2.52e-01,
784,1.88e-01,
785,-1.96e-01,
786,1.44e-01,
787,-1.60e-01,
788,1.20e-01,
789,-1.60e-01,
790,-1.64e-01,
791,1.52e-01,
792,-1.60e-01,
793,1.48e-01,
794,-1.56e-01,
795,1.56e-01,
796,-1.56e-01,
797,1.40e-01,
798,-1.48e-01,
799,1.56e-01,
800,1.56e-01,
801,-1.40e-01,
802,-1.52e-01,
803,1.52e-01,
804,-1.36e-01,
805,1.52e-01,
806,-1.44e-01,
807,1.36e-01,
808,1.40e-01,
809,-1.48e-01,
810,1.52e-01,
811,-1.36e-01,
812,-1.56e-01,
813,1.44e-01,
814,1.48e-01,
815,-1.36e-01,
816,-1.52e-01,
817,1.60e-01,
818,-2.12e-01,
819,1.96e-01,
820,-2.16e-01,
821,1.68e-01,
822,2.20e-01,
823,-1.96e-01,
824,2.32e-01,
825,-2.08e-01,
826,1.64e-01,
827,-1.48e-01,
828,-1.68e-01,
829,1.52e-01,
830,1.64e-01,
831,-1.64e-01,
832,1.64e-01,
833,-1.64e-01,
834,-1.64e-01,
835,1.56e-01,
836,-8.40e-02,
837,1.00e-01,
838,1.00e-01,
839,-1.60e-01,
840,1.52e-01,
841,-1.52e-01,
842,-1.48e-01,
843,1.56e-01,
844,1.60e-01,
845,-1.40e-01,
846,1.60e-01,
847,-1.56e-01,
848,1.36e-01,
849,-1.48e-01,
850,-1.44e-01,
851,1.56e-01,
852,-1.44e-01,
853,1.44e-01,
854,2.00e-01,
855,-2.08e-01,
856,2.36e-01,
857,-2.28e-01,
858,2.44e-01,
859,-2.44e-01,
860,-2.44e-01,
861,2.52e-01,
862,2.44e-01,
863,-2.48e-01,
864,-2.56e-01,
865,2.44e-01,
866,-2.60e-01,
867,2.40e-01,
868,-1.92e-01,
869,1.52e-01,
870,-1.36e-01,
871,1.48e-01,
872,1.48e-01,
873,-1.60e-01,
874,1.60e-01,
875,-1.64e-01,
876,-1.48e-01,
877,1.56e-01,
878,1.44e-01,
879,-1.56e-01,
880,1.56e-01,
881,-1.56e-01,
882,1.52e-01,
883,-1.60e-01,
884,-1.56e-01,
885,1.60e-01,
886,1.36e-01,
887,-1.56e-01,
888,-1.32e-01,
889,1.48e-01,
890,1.28e-01,
891,-1.40e-01,
892,-1.52e-01,
893,1.36e-01,
894,-1.48e-01,
895,1.56e-01,
896,1.44e-01,
897,-1.44e-01,
898,-1.56e-01,
899,1.56e-01,
900,1.44e-01,
901,-1.72e-01,
902,-1.72e-01,
903,1.84e-01,
904,-1.96e-01,
905,2.12e-01,
906,-2.28e-01,
907,2.16e-01,
908,1.88e-01,
909,-1.68e-01,
910,1.28e-01,
911,-1.36e-01,
912,-1.24e-01,
913,1.60e-01,
914,-1.16e-01,
915,1.16e-01,
916,1.12e-01,
917,-1.60e-01,
918,1.40e-01,
919,-1.32e-01,
920,1.44e-01,
921,-1.64e-01,
922,1.60e-01,
923,-1.56e-01,
924,1.56e-01,
925,-1.60e-01,
926,1.44e-01,
927,-1.52e-01,
928,1.60e-01,
929,-1.52e-01,
930,-1.48e-01,
931,1.40e-01,
932,1.48e-01,
933,-1.56e-01,
934,1.52e-01,
935,-1.44e-01,
936,-2.04e-01,
937,2.08e-01,
938,2.12e-01,
939,-2.28e-01,
940,-2.56e-01,
941,2.32e-01,
942,2.52e-01,
943,-2.60e-01,
944,2.32e-01,
945,-2.48e-01,
946,-2.40e-01,
947,2.64e-01,
948,-2.12e-01,
949,2.44e-01,
950,-2.40e-01,
951,2.44e-01,
952,1.52e-01,
953,-1.60e-01,
954,1.48e-01,
955,-1.32e-01,
956,1.44e-01,
957,-1.68e-01,
958,1.64e-01,
959,-1.60e-01,
960,-1.60e-01,
961,1.52e-01,
962,1.56e-01,
963,-1.52e-01,
964,1.60e-01,
965,-1.60e-01,
966,-1.52e-01,
967,1.56e-01,
968,-1.48e-01,
969,1.56e-01,
970,1.56e-01,
971,-1.48e-01,
972,-1.48e-01,
973,1.52e-01,
974,1.36e-01,
975,-1.20e-01,
976,-1.52e-01,
977,1.52e-01,
978,1.36e-01,
979,-1.60e-01,
980,1.48e-01,
981,-1.56e-01,
982,-1.48e-01,
983,1.44e-01,
984,1.56e-01,
985,-1.40e-01,
986,1.64e-01,
987,-1.84e-01,
988,-1.96e-01,
989,1.92e-01,
990,-2.16e-01,
991,2.28e-01,
992,-1.40e-01,
993,8.80e-02,
994,1.48e-01,
995,-1.16e-01,
996,1.12e-01,
997,-1.04e-01,
998,1.68e-01,
999,-1.76e-01,
1000,-1.68e-01,
1001,1.60e-01,
1002,1.60e-01,
1003,-1.64e-01,
1004,-1.20e-01,
1005,1.68e-01,
1006,1.40e-01,
1007,-1.60e-01,
1008,1.56e-01,
1009,-1.64e-01,
1010,-1.32e-01,
1011,1.56e-01,
1012,-1.56e-01,
1013,1.56e-01,
1014,1.52e-01,
1015,-1.48e-01,
1016,1.36e-01,
1017,-1.60e-01,
1018,-1.76e-01,
1019,1.96e-01,
1020,2.16e-01,
1021,-2.24e-01,
1022,2.32e-01,
1023,-2.44e-01,
1024,-2.56e-01,
1025,2.52e-01,
1026,-2.48e-01,
1027,2.32e-01,
1028,2.40e-01,
1029,-2.48e-01,
1030,2.56e-01,
1031,-2.52e-01,
1032,-2.52e-01,
1033,2.40e-01,
1034,-1.48e-01,
1035,1.92e-01,
1036,1.52e-01,
1037,-1.48e-01,
1038,1.28e-01,
1039,-1.52e-01,
1040,-1.56e-01,
1041,1.40e-01,
1042,-1.28e-01,
1043,1.60e-01,
1044,1.36e-01,
1045,-1.64e-01,
1046,1.56e-01,
1047,-1.52e-01,
1048,-1.24e-01,
1049,1.60e-01,
1050,1.52e-01,
1051,-1.56e-01,
1052,-1.24e-01,
1053,1.60e-01,
1054,-1.56e-01,
1055,1.48e-01,
1056,1.32e-01,
1057,-1.40e-01,
1058,1.40e-01,
1059,-1.40e-01,
1060,1.36e-01,
1061,-1.24e-01,
1062,-1.52e-01,
1063,1.32e-01,
1064,1.40e-01,
1065,-1.44e-01,
1066,-1.56e-01,
1067,1.56e-01,
1068,1.60e-01,
1069,-1.56e-01,
1070,1.48e-01,
1071,-1.84e-01,
1072,1.76e-01,
1073,-1.72e-01,
1074,2.36e-01,
1075,-1.80e-01,
1076,1.60e-01,
1077,-1.32e-01,
1078,1.48e-01,
1079,-1.36e-01,
1080,1.68e-01,
1081,-1.44e-01,
1082,-1.36e-01,
1083,1.52e-01,
1084,-1.40e-01,
1085,1.64e-01,
1086,1.64e-01,
1087,-1.56e-01,
1088,-1.60e-01,
1089,1.56e-01,
1090,1.52e-01,
1091,-1.64e-01,
1092,1.32e-01,
1093,-1.60e-01,
1094,1.64e-01,
1095,-1.56e-01,
1096,-1.52e-01,
1097,1.48e-01,
1098,-1.44e-01,
1099,1.52e-01,
1100,-1.56e-01,
1101,1.56e-01,
1102,2.20e-01,
1103,-2.36e-01,
1104,2.20e-01,
1105,-2.44e-01,
1106,-2.52e-01,
1107,2.28e-01,
1108,2.52e-01,
1109,-2.36e-01,
1110,-2.00e-01,
1111,2.36e-01,
1112,2.48e-01,
1113,-2.32e-01,
1114,2.44e-01,
1115,-2.44e-01,
1116,-2.12e-01,
1117,2.32e-01,
1118,1.56e-01,
1119,-1.12e-01,
1120,-1.36e-01,
1121,1.48e-01,
1122,1.56e-01,
1123,-1.64e-01,
1124,-1.60e-01,
1125,1.52e-01,
1126,1.48e-01,
1127,-1.64e-01,
1128,-1.68e-01,
1129,1.32e-01,
1130,-1.56e-01,
1131,1.40e-01,
1132,1.56e-01,
1133,-1.36e-01,
1134,-1.44e-01,
1135,1.56e-01,
1136,-1.40e-01,
1137,1.60e-01,
1138,-1.32e-01,
1139,1.60e-01,
1140,1.52e-01,
1141,-1.60e-01,
1142,1.32e-01,
1143,-1.56e-01,
1144,1.40e-01,
1145,-1.44e-01,
1146,-1.48e-01,
1147,1.48e-01,
1148,-1.52e-01,
1149,1.52e-01,
1150,-1.12e-01,
1151,6.00e-02,
1152,-1.40e-01,
1153,1.48e-01,
1154,2.08e-01,
1155,-2.12e-01,
1156,-2.16e-01,
1157,2.28e-01,
1158,2.16e-01,
1159,-2.04e-01,
1160,1.68e-01,
1161,-1.56e-01,
1162,-1.72e-01,
1163,1.68e-01,
1164,1.64e-01,
1165,-1.36e-01,
1166,-1.40e-01,
1167,1.64e-01,
1168,1.52e-01,
1169,-1.32e-01,
1170,-1.64e-01,
1171,1.60e-01,
1172,-1.28e-01,
1173,1.64e-01,
1174,1.56e-01,
1175,-1.32e-01,
1176,1.64e-01,
1177,-1.40e-01,
1178,-1.52e-01,
1179,1.60e-01,
1180,1.32e-01,
1181,-1.52e-01,
1182,-1.56e-01,
1183,1.56e-01,
1184,2.00e-01,
1185,-1.92e-01,
1186,2.32e-01,
1187,-2.24e-01,
1188,-2.56e-01,
1189,2.48e-01,
1190,-2.56e-01,
1191,2.32e-01,
1192,2.52e-01,
1193,-2.32e-01,
1194,2.36e-01,
1195,-2.36e-01,
1196,2.48e-01,
1197,-1.64e-01,
1198,2.56e-01,
1199,-2.24e-01,
