Laptop_1/LAPTOP_CHRGR_1_ON_CLOSE/time domain/NewFile7(1).csv

X,CH1,Start,Increment,
Sequence,Volt,-1.500000e-01,2.000000e-04
0,1.52e-01,
1,-6.40e-02,
2,1.52e-01,
3,-5.60e-02,
4,1.48e-01,
5,-5.20e-02,
6,-6.80e-02,
7,1.52e-01,
8,-6.40e-02,
9,1.64e-01,
10,-8.40e-02,
11,1.64e-01,
12,1.52e-01,
13,-5.20e-02,
14,-3.60e-02,
15,1.20e-01,
16,-4.00e-02,
17,1.48e-01,
18,-4.00e-02,
19,1.52e-01,
20,-3.20e-02,
21,1.48e-01,
22,-3.20e-02,
23,1.52e-01,
24,-3.20e-02,
25,1.48e-01,
26,-3.20e-02,
27,1.56e-01,
28,-3.60e-02,
29,1.60e-01,
30,-3.60e-02,
31,1.04e-01,
32,9.20e-02,
33,-3.60e-02,
34,-3.60e-02,
35,1.52e-01,
36,-3.20e-02,
37,1.32e-01,
38,8.40e-02,
39,-3.20e-02,
40,-3.60e-02,
41,1.48e-01,
42,-3.20e-02,
43,1.68e-01,
44,1.68e-01,
45,-3.60e-02,
46,1.72e-01,
47,-3.60e-02,
48,-4.40e-02,
49,1.56e-01,
50,1.76e-01,
51,-3.60e-02,
52,-3.60e-02,
53,1.60e-01,
54,-3.60e-02,
55,1.68e-01,
56,-3.20e-02,
57,1.52e-01,
58,-3.20e-02,
59,1.48e-01,
60,1.44e-01,
61,-3.60e-02,
62,-2.80e-02,
63,1.48e-01,
64,-2.80e-02,
65,1.36e-01,
66,1.32e-01,
67,-2.80e-02,
68,8.80e-02,
69,-3.60e-02,
70,4.80e-02,
71,-3.20e-02,
72,-3.20e-02,
73,3.20e-02,
74,1.00e-01,
75,-3.20e-02,
76,-3.20e-02,
77,8.00e-02,
78,-3.60e-02,
79,1.32e-01,
80,1.56e-01,
81,-5.20e-02,
82,-6.00e-02,
83,1.44e-01,
84,1.52e-01,
85,-6.40e-02,
86,-6.00e-02,
87,1.56e-01,
88,1.60e-01,
89,-8.40e-02,
90,1.68e-01,
91,-8.80e-02,
92,1.56e-01,
93,-7.20e-02,
94,-8.40e-02,
95,1.56e-01,
96,-4.80e-02,
97,1.44e-01,
98,-3.60e-02,
99,1.48e-01,
100,-3.60e-02,
101,1.44e-01,
102,-3.60e-02,
103,1.56e-01,
104,-3.60e-02,
105,1.48e-01,
106,-3.20e-02,
107,1.48e-01,
108,1.48e-01,
109,-3.60e-02,
110,-3.20e-02,
111,1.60e-01,
112,-3.60e-02,
113,8.80e-02,
114,-3.20e-02,
115,8.80e-02,
116,7.20e-02,
117,-3.20e-02,
118,1.64e-01,
119,-3.20e-02,
120,1.36e-01,
121,-3.20e-02,
122,1.60e-01,
123,-3.20e-02,
124,-3.60e-02,
125,1.72e-01,
126,-3.20e-02,
127,1.52e-01,
128,1.72e-01,
129,-3.60e-02,
130,-3.60e-02,
131,1.72e-01,
132,1.64e-01,
133,-3.60e-02,
134,-4.00e-02,
135,1.72e-01,
136,1.52e-01,
137,-4.00e-02,
138,-3.20e-02,
139,1.60e-01,
140,-3.20e-02,
141,1.52e-01,
142,1.52e-01,
143,-4.00e-02,
144,1.36e-01,
145,-3.60e-02,
146,1.44e-01,
147,-3.20e-02,
148,-3.20e-02,
149,1.48e-01,
150,-3.20e-02,
151,1.32e-01,
152,-3.20e-02,
153,9.60e-02,
154,1.52e-01,
155,-3.20e-02,
156,1.52e-01,
157,-3.20e-02,
158,-3.20e-02,
159,1.40e-01,
160,1.60e-01,
161,-5.20e-02,
162,1.56e-01,
163,-4.40e-02,
164,1.56e-01,
165,-5.20e-02,
166,-6.40e-02,
167,1.60e-01,
168,1.52e-01,
169,-7.20e-02,
170,-7.60e-02,
171,1.44e-01,
172,1.56e-01,
173,-7.20e-02,
174,1.60e-01,
175,-6.40e-02,
176,-8.00e-02,
177,1.68e-01,
178,1.64e-01,
179,-6.80e-02,
180,-4.00e-02,
181,1.44e-01,
182,-4.00e-02,
183,1.48e-01,
184,1.52e-01,
185,-3.60e-02,
186,1.44e-01,
187,-3.60e-02,
188,-3.60e-02,
189,1.60e-01,
190,-3.20e-02,
191,1.44e-01,
192,-3.20e-02,
193,1.48e-01,
194,-3.20e-02,
195,1.24e-01,
196,-3.20e-02,
197,8.40e-02,
198,-3.20e-02,
199,1.04e-01,
200,-3.20e-02,
201,1.64e-01,
202,-3.60e-02,
203,1.64e-01,
204,-4.00e-02,
205,1.60e-01,
206,-3.60e-02,
207,1.68e-01,
208,1.68e-01,
209,-3.60e-02,
210,1.52e-01,
211,-3.20e-02,
212,1.72e-01,
213,-3.60e-02,
214,-3.60e-02,
215,1.72e-01,
216,-3.20e-02,
217,1.44e-01,
218,1.64e-01,
219,-3.60e-02,
220,-3.60e-02,
221,1.48e-01,
222,1.60e-01,
223,-3.20e-02,
224,-3.20e-02,
225,1.44e-01,
226,-3.20e-02,
227,1.40e-01,
228,1.12e-01,
229,-3.20e-02,
230,-3.20e-02,
231,1.32e-01,
232,-3.20e-02,
233,8.00e-02,
234,-3.20e-02,
235,8.80e-02,
236,-3.20e-02,
237,1.04e-01,
238,1.32e-01,
239,-4.00e-02,
240,1.56e-01,
241,-4.00e-02,
242,-3.60e-02,
243,1.52e-01,
244,1.56e-01,
245,-4.40e-02,
246,1.48e-01,
247,-6.40e-02,
248,-6.00e-02,
249,1.56e-01,
250,1.60e-01,
251,-6.00e-02,
252,1.40e-01,
253,-8.80e-02,
254,1.60e-01,
255,-8.00e-02,
256,-8.80e-02,
257,1.68e-01,
258,1.64e-01,
259,-8.80e-02,
260,-1.04e-01,
261,1.64e-01,
262,-6.40e-02,
263,1.44e-01,
264,1.40e-01,
265,-4.00e-02,
266,-4.00e-02,
267,1.44e-01,
268,1.52e-01,
269,-4.00e-02,
270,-3.20e-02,
271,1.48e-01,
272,-3.20e-02,
273,1.44e-01,
274,1.08e-01,
275,-3.20e-02,
276,-3.20e-02,
277,8.00e-02,
278,-3.20e-02,
279,7.60e-02,
280,-3.20e-02,
281,1.52e-01,
282,1.56e-01,
283,-3.20e-02,
284,-3.20e-02,
285,1.48e-01,
286,1.56e-01,
287,-3.60e-02,
288,-3.60e-02,
289,1.60e-01,
290,1.64e-01,
291,-3.60e-02,
292,1.72e-01,
293,-3.60e-02,
294,-3.20e-02,
295,1.56e-01,
296,-2.80e-02,
297,1.48e-01,
298,1.64e-01,
299,-3.20e-02,
300,1.68e-01,
301,-3.20e-02,
302,-3.20e-02,
303,1.64e-01,
304,-3.20e-02,
305,1.64e-01,
306,-2.80e-02,
307,1.24e-01,
308,1.20e-01,
309,-2.80e-02,
310,1.36e-01,
311,-2.80e-02,
312,1.36e-01,
313,-2.80e-02,
314,-2.80e-02,
315,1.16e-01,
316,1.20e-01,
317,-2.80e-02,
318,-3.20e-02,
319,1.32e-01,
320,1.52e-01,
321,-3.60e-02,
322,1.44e-01,
323,-4.00e-02,
324,1.56e-01,
325,-4.40e-02,
326,1.56e-01,
327,-4.40e-02,
328,-6.00e-02,
329,1.56e-01,
330,-6.40e-02,
331,1.56e-01,
332,1.44e-01,
333,-6.80e-02,
334,1.56e-01,
335,-7.20e-02,
336,-6.00e-02,
337,1.40e-01,
338,1.60e-01,
339,-6.00e-02,
340,1.60e-01,
341,-6.00e-02,
342,1.20e-01,
343,-7.20e-02,
344,1.68e-01,
345,-6.40e-02,
346,-3.60e-02,
347,1.52e-01,
348,-3.20e-02,
349,1.48e-01,
350,-3.20e-02,
351,1.48e-01,
352,1.36e-01,
353,-3.20e-02,
354,-3.20e-02,
355,1.08e-01,
356,-3.20e-02,
357,1.20e-01,
358,-3.60e-02,
359,1.24e-01,
360,-3.60e-02,
361,1.48e-01,
362,1.52e-01,
363,-4.00e-02,
364,-4.00e-02,
365,1.36e-01,
366,1.52e-01,
367,-3.60e-02,
368,1.60e-01,
369,-4.00e-02,
370,1.52e-01,
371,-4.00e-02,
372,1.60e-01,
373,-4.40e-02,
374,-3.60e-02,
375,1.60e-01,
376,-3.20e-02,
377,1.68e-01,
378,-3.20e-02,
379,1.60e-01,
380,1.68e-01,
381,-3.20e-02,
382,1.24e-01,
383,-3.20e-02,
384,-3.20e-02,
385,1.56e-01,
386,-3.20e-02,
387,1.60e-01,
388,-2.80e-02,
389,1.36e-01,
390,8.00e-02,
391,-2.80e-02,
392,1.36e-01,
393,-3.20e-02,
394,1.24e-01,
395,-2.80e-02,
396,-2.80e-02,
397,1.12e-01,
398,-2.80e-02,
399,1.08e-01,
400,-3.20e-02,
401,1.56e-01,
402,-3.60e-02,
403,1.52e-01,
404,-3.60e-02,
405,1.52e-01,
406,-3.60e-02,
407,1.36e-01,
408,-3.60e-02,
409,1.44e-01,
410,-4.80e-02,
411,1.32e-01,
412,1.36e-01,
413,-3.60e-02,
414,1.44e-01,
415,-4.00e-02,
416,1.52e-01,
417,-4.40e-02,
418,-5.20e-02,
419,1.60e-01,
420,-4.80e-02,
421,1.56e-01,
422,-6.40e-02,
423,1.68e-01,
424,1.64e-01,
425,-7.20e-02,
426,-6.40e-02,
427,1.60e-01,
428,-2.80e-02,
429,8.00e-02,
430,-3.20e-02,
431,8.40e-02,
432,1.28e-01,
433,-3.20e-02,
434,-3.20e-02,
435,1.16e-01,
436,-3.60e-02,
437,1.24e-01,
438,1.44e-01,
439,-3.20e-02,
440,1.52e-01,
441,-4.00e-02,
442,1.36e-01,
443,-4.00e-02,
444,1.48e-01,
445,-4.00e-02,
446,1.40e-01,
447,-3.20e-02,
448,-3.60e-02,
449,1.60e-01,
450,-3.60e-02,
451,1.56e-01,
452,-4.00e-02,
453,1.64e-01,
454,1.64e-01,
455,-3.60e-02,
456,1.64e-01,
457,-3.20e-02,
458,1.24e-01,
459,-3.60e-02,
460,1.64e-01,
461,-3.20e-02,
462,1.72e-01,
463,-3.20e-02,
464,1.72e-01,
465,-3.20e-02,
466,-3.20e-02,
467,1.60e-01,
468,-3.20e-02,
469,7.60e-02,
470,-3.20e-02,
471,1.24e-01,
472,1.28e-01,
473,-2.80e-02,
474,8.80e-02,
475,-2.80e-02,
476,-2.80e-02,
477,9.60e-02,
478,-2.80e-02,
479,1.32e-01,
480,1.40e-01,
481,-3.20e-02,
482,-3.20e-02,
483,1.48e-01,
484,1.56e-01,
485,-3.60e-02,
486,1.56e-01,
487,-3.60e-02,
488,1.44e-01,
489,-3.60e-02,
490,1.36e-01,
491,-3.60e-02,
492,1.32e-01,
493,-3.60e-02,
494,1.48e-01,
495,-3.60e-02,
496,-3.60e-02,
497,1.36e-01,
498,-3.60e-02,
499,1.56e-01,
500,1.52e-01,
501,-4.00e-02,
502,1.32e-01,
503,-4.80e-02,
504,1.60e-01,
505,-4.80e-02,
506,-4.80e-02,
507,1.16e-01,
508,-3.60e-02,
509,6.00e-02,
510,1.60e-01,
511,-3.20e-02,
512,8.00e-02,
513,-3.20e-02,
514,-2.80e-02,
515,8.40e-02,
516,8.40e-02,
517,-3.20e-02,
518,-3.60e-02,
519,1.40e-01,
520,-3.60e-02,
521,1.52e-01,
522,1.52e-01,
523,-3.60e-02,
524,-4.40e-02,
525,1.52e-01,
526,-4.40e-02,
527,1.48e-01,
528,-4.00e-02,
529,1.52e-01,
530,-4.40e-02,
531,1.56e-01,
532,1.28e-01,
533,-3.60e-02,
534,-3.60e-02,
535,1.64e-01,
536,1.64e-01,
537,-3.60e-02,
538,-3.20e-02,
539,1.68e-01,
540,-3.20e-02,
541,1.72e-01,
542,1.68e-01,
543,-3.60e-02,
544,-2.80e-02,
545,1.64e-01,
546,-3.60e-02,
547,1.64e-01,
548,-3.60e-02,
549,6.40e-02,
550,-3.60e-02,
551,1.64e-01,
552,7.20e-02,
553,-3.60e-02,
554,-3.20e-02,
555,1.16e-01,
556,-2.80e-02,
557,1.24e-01,
558,1.40e-01,
559,-3.20e-02,
560,1.40e-01,
561,-3.20e-02,
562,-3.20e-02,
563,1.52e-01,
564,-3.60e-02,
565,1.48e-01,
566,1.48e-01,
567,-3.60e-02,
568,-3.60e-02,
569,1.48e-01,
570,-3.60e-02,
571,1.44e-01,
572,1.48e-01,
573,-3.60e-02,
574,1.48e-01,
575,-3.60e-02,
576,-3.60e-02,
577,1.48e-01,
578,-5.20e-02,
579,1.44e-01,
580,1.44e-01,
581,-3.20e-02,
582,-3.20e-02,
583,1.28e-01,
584,1.60e-01,
585,-3.20e-02,
586,-3.20e-02,
587,1.56e-01,
588,8.40e-02,
589,-3.20e-02,
590,-3.20e-02,
591,1.40e-01,
592,-3.20e-02,
593,1.12e-01,
594,-3.20e-02,
595,1.48e-01,
596,-3.20e-02,
597,1.12e-01,
598,-3.20e-02,
599,1.44e-01,
600,-4.00e-02,
601,1.40e-01,
602,1.44e-01,
603,-3.60e-02,
604,-4.00e-02,
605,1.40e-01,
606,-4.40e-02,
607,1.48e-01,
608,-4.40e-02,
609,1.48e-01,
610,-4.80e-02,
611,1.56e-01,
612,-4.80e-02,
613,1.56e-01,
614,-4.40e-02,
615,1.52e-01,
616,1.56e-01,
617,-4.40e-02,
618,-3.60e-02,
619,1.16e-01,
620,1.64e-01,
621,-3.20e-02,
622,-2.80e-02,
623,1.64e-01,
624,1.52e-01,
625,-3.20e-02,
626,-2.80e-02,
627,1.68e-01,
628,-2.80e-02,
629,1.60e-01,
630,-3.20e-02,
631,6.80e-02,
632,-2.80e-02,
633,7.20e-02,
634,-3.20e-02,
635,6.80e-02,
636,-3.20e-02,
637,8.40e-02,
638,1.48e-01,
639,-3.20e-02,
640,-2.80e-02,
641,1.44e-01,
642,-3.20e-02,
643,1.48e-01,
644,-3.60e-02,
645,1.48e-01,
646,1.48e-01,
647,-3.60e-02,
648,1.48e-01,
649,-3.60e-02,
650,-3.60e-02,
651,1.20e-01,
652,1.40e-01,
653,-3.60e-02,
654,1.44e-01,
655,-3.60e-02,
656,-3.20e-02,
657,1.40e-01,
658,-3.60e-02,
659,1.40e-01,
660,1.52e-01,
661,-3.60e-02,
662,-3.60e-02,
663,1.52e-01,
664,-3.60e-02,
665,1.56e-01,
666,-3.60e-02,
667,1.52e-01,
668,-3.60e-02,
669,8.80e-02,
670,1.52e-01,
671,-4.00e-02,
672,8.00e-02,
673,-3.60e-02,
674,1.56e-01,
675,-4.80e-02,
676,-3.60e-02,
677,1.48e-01,
678,-2.80e-02,
679,1.64e-01,
680,-3.20e-02,
681,1.40e-01,
682,1.52e-01,
683,-3.60e-02,
684,-3.60e-02,
685,1.48e-01,
686,1.48e-01,
687,-4.40e-02,
688,1.48e-01,
689,-4.40e-02,
690,1.52e-01,
691,-4.80e-02,
692,1.48e-01,
693,-3.60e-02,
694,-4.40e-02,
695,1.48e-01,
696,-4.40e-02,
697,1.48e-01,
698,1.52e-01,
699,-3.60e-02,
700,-4.00e-02,
701,1.44e-01,
702,1.28e-01,
703,-3.20e-02,
704,-2.80e-02,
705,1.48e-01,
706,1.60e-01,
707,-3.20e-02,
708,6.80e-02,
709,-3.20e-02,
710,-3.20e-02,
711,1.44e-01,
712,-3.20e-02,
713,7.60e-02,
714,-3.60e-02,
715,8.40e-02,
716,1.60e-01,
717,-5.60e-02,
718,1.68e-01,
719,-6.00e-02,
720,1.52e-01,
721,-5.20e-02,
722,-3.20e-02,
723,1.56e-01,
724,-3.60e-02,
725,1.56e-01,
726,-3.60e-02,
727,1.48e-01,
728,-3.60e-02,
729,1.44e-01,
730,-3.60e-02,
731,1.40e-01,
732,1.48e-01,
733,-4.00e-02,
734,1.48e-01,
735,-4.00e-02,
736,-3.60e-02,
737,1.48e-01,
738,-3.60e-02,
739,1.44e-01,
740,1.44e-01,
741,-3.20e-02,
742,1.52e-01,
743,-3.20e-02,
744,-3.20e-02,
745,1.60e-01,
746,-3.60e-02,
747,1.56e-01,
748,7.60e-02,
749,-3.60e-02,
750,-3.60e-02,
751,8.40e-02,
752,1.60e-01,
753,-3.60e-02,
754,-3.20e-02,
755,8.40e-02,
756,1.64e-01,
757,-3.20e-02,
758,-2.80e-02,
759,1.60e-01,
760,-2.80e-02,
761,1.76e-01,
762,1.64e-01,
763,-3.60e-02,
764,-3.60e-02,
765,1.44e-01,
766,-3.60e-02,
767,1.48e-01,
768,-4.00e-02,
769,1.44e-01,
770,1.40e-01,
771,-4.40e-02,
772,-4.40e-02,
773,1.56e-01,
774,-4.80e-02,
775,1.48e-01,
776,-3.60e-02,
777,1.48e-01,
778,-4.00e-02,
779,1.56e-01,
780,-3.60e-02,
781,1.60e-01,
782,1.56e-01,
783,-3.20e-02,
784,1.56e-01,
785,-3.20e-02,
786,1.04e-01,
787,-3.60e-02,
788,-3.20e-02,
789,1.08e-01,
790,-2.80e-02,
791,1.44e-01,
792,-3.60e-02,
793,8.00e-02,
794,-3.60e-02,
795,9.60e-02,
796,-3.20e-02,
797,1.12e-01,
798,-3.20e-02,
799,1.52e-01,
800,1.56e-01,
801,-4.80e-02,
802,1.60e-01,
803,-6.80e-02,
804,-5.20e-02,
805,1.48e-01,
806,1.48e-01,
807,-3.60e-02,
808,-3.60e-02,
809,1.40e-01,
810,-4.00e-02,
811,1.44e-01,
812,1.36e-01,
813,-3.60e-02,
814,-3.60e-02,
815,1.40e-01,
816,-3.60e-02,
817,1.44e-01,
818,-3.20e-02,
819,1.48e-01,
820,-3.20e-02,
821,1.48e-01,
822,1.44e-01,
823,-3.60e-02,
824,-3.60e-02,
825,1.56e-01,
826,-3.60e-02,
827,1.48e-01,
828,-3.20e-02,
829,8.40e-02,
830,-3.60e-02,
831,6.80e-02,
832,-3.20e-02,
833,7.60e-02,
834,-3.20e-02,
835,7.60e-02,
836,8.80e-02,
837,-3.20e-02,
838,1.40e-01,
839,-3.60e-02,
840,-3.60e-02,
841,1.60e-01,
842,-3.20e-02,
843,1.68e-01,
844,1.72e-01,
845,-3.60e-02,
846,-4.00e-02,
847,1.48e-01,
848,-4.00e-02,
849,1.48e-01,
850,1.48e-01,
851,-4.40e-02,
852,1.40e-01,
853,-4.00e-02,
854,1.32e-01,
855,-5.20e-02,
856,-5.60e-02,
857,1.48e-01,
858,-4.00e-02,
859,1.40e-01,
860,1.44e-01,
861,-4.40e-02,
862,-3.60e-02,
863,1.32e-01,
864,-2.80e-02,
865,1.44e-01,
866,1.44e-01,
867,-3.20e-02,
868,-2.80e-02,
869,1.24e-01,
870,1.56e-01,
871,-3.20e-02,
872,7.60e-02,
873,-3.20e-02,
874,-3.20e-02,
875,1.32e-01,
876,-3.20e-02,
877,7.60e-02,
878,-3.60e-02,
879,1.52e-01,
880,-3.20e-02,
881,1.60e-01,
882,-4.00e-02,
883,1.60e-01,
884,1.16e-01,
885,-6.80e-02,
886,-7.20e-02,
887,1.52e-01,
888,-4.40e-02,
889,1.52e-01,
890,1.44e-01,
891,-3.60e-02,
892,-3.60e-02,
893,1.32e-01,
894,1.40e-01,
895,-3.60e-02,
896,-3.20e-02,
897,1.44e-01,
898,-2.80e-02,
899,1.40e-01,
900,1.40e-01,
901,-3.20e-02,
902,-2.80e-02,
903,1.52e-01,
904,-2.80e-02,
905,1.48e-01,
906,1.44e-01,
907,-3.20e-02,
908,1.52e-01,
909,-3.20e-02,
910,1.44e-01,
911,-3.20e-02,
912,-3.60e-02,
913,7.60e-02,
914,1.28e-01,
915,-3.20e-02,
916,1.56e-01,
917,-3.20e-02,
918,-3.60e-02,
919,8.40e-02,
920,-3.20e-02,
921,1.68e-01,
922,-2.80e-02,
923,1.64e-01,
924,-3.60e-02,
925,1.64e-01,
926,-3.20e-02,
927,1.64e-01,
928,-2.80e-02,
929,1.68e-01,
930,1.44e-01,
931,-4.00e-02,
932,-3.60e-02,
933,1.48e-01,
934,1.44e-01,
935,-4.80e-02,
936,-5.20e-02,
937,1.28e-01,
938,1.40e-01,
939,-4.80e-02,
940,-4.40e-02,
941,1.32e-01,
942,1.32e-01,
943,-4.00e-02,
944,-3.60e-02,
945,1.48e-01,
946,1.20e-01,
947,-3.20e-02,
948,-3.20e-02,
949,9.20e-02,
950,-3.60e-02,
951,1.60e-01,
952,1.48e-01,
953,-3.60e-02,
954,-3.60e-02,
955,1.04e-01,
956,1.16e-01,
957,-3.60e-02,
958,-3.60e-02,
959,1.60e-01,
960,-3.60e-02,
961,1.64e-01,
962,-3.20e-02,
963,1.28e-01,
964,1.56e-01,
965,-5.60e-02,
966,-7.60e-02,
967,1.48e-01,
968,-9.20e-02,
969,1.60e-01,
970,-6.40e-02,
971,1.40e-01,
972,-3.60e-02,
973,1.32e-01,
974,-3.20e-02,
975,1.36e-01,
976,-3.20e-02,
977,1.40e-01,
978,1.36e-01,
979,-3.20e-02,
980,1.32e-01,
981,-3.20e-02,
982,-3.20e-02,
983,1.40e-01,
984,1.44e-01,
985,-3.20e-02,
986,-3.20e-02,
987,1.40e-01,
988,-3.20e-02,
989,1.48e-01,
990,-2.80e-02,
991,1.40e-01,
992,-3.20e-02,
993,1.00e-01,
994,-2.80e-02,
995,1.44e-01,
996,9.20e-02,
997,-3.20e-02,
998,-2.80e-02,
999,1.52e-01,
1000,1.56e-01,
1001,-3.20e-02,
1002,1.68e-01,
1003,-3.20e-02,
1004,1.68e-01,
1005,-3.20e-02,
1006,-3.20e-02,
1007,1.60e-01,
1008,-3.20e-02,
1009,1.72e-01,
1010,1.72e-01,
1011,-3.20e-02,
1012,-4.00e-02,
1013,1.36e-01,
1014,-4.40e-02,
1015,1.52e-01,
1016,-4.00e-02,
1017,1.24e-01,
1018,-4.80e-02,
1019,1.52e-01,
1020,1.48e-01,
1021,-4.40e-02,
1022,1.52e-01,
1023,-3.60e-02,
1024,1.52e-01,
1025,-4.00e-02,
1026,-3.60e-02,
1027,1.24e-01,
1028,-3.20e-02,
1029,8.40e-02,
1030,-3.60e-02,
1031,1.28e-01,
1032,1.48e-01,
1033,-3.60e-02,
1034,-3.20e-02,
1035,1.52e-01,
1036,-3.60e-02,
1037,6.00e-02,
1038,-3.60e-02,
1039,1.60e-01,
1040,-3.60e-02,
1041,1.60e-01,
1042,1.60e-01,
1043,-4.80e-02,
1044,-3.20e-02,
1045,1.56e-01,
1046,-5.60e-02,
1047,1.56e-01,
1048,-6.80e-02,
1049,1.56e-01,
1050,1.60e-01,
1051,-8.40e-02,
1052,-1.00e-01,
1053,1.52e-01,
1054,-6.40e-02,
1055,1.52e-01,
1056,-3.60e-02,
1057,1.44e-01,
1058,-3.60e-02,
1059,1.32e-01,
1060,1.28e-01,
1061,-3.20e-02,
1062,-2.80e-02,
1063,1.28e-01,
1064,-2.80e-02,
1065,1.28e-01,
1066,1.36e-01,
1067,-3.20e-02,
1068,1.28e-01,
1069,-2.80e-02,
1070,-2.80e-02,
1071,1.40e-01,
1072,-2.80e-02,
1073,7.60e-02,
1074,-2.80e-02,
1075,1.28e-01,
1076,-2.80e-02,
1077,1.12e-01,
1078,-2.80e-02,
1079,1.44e-01,
1080,-2.80e-02,
1081,1.28e-01,
1082,1.60e-01,
1083,-2.80e-02,
1084,1.56e-01,
1085,-2.80e-02,
1086,1.64e-01,
1087,-3.20e-02,
1088,-3.20e-02,
1089,1.64e-01,
1090,1.68e-01,
1091,-3.20e-02,
1092,-3.20e-02,
1093,1.64e-01,
1094,-3.20e-02,
1095,1.76e-01,
1096,-4.40e-02,
1097,1.40e-01,
1098,1.48e-01,
1099,-3.60e-02,
1100,1.48e-01,
1101,-4.40e-02,
1102,1.44e-01,
1103,-4.80e-02,
1104,-4.40e-02,
1105,1.48e-01,
1106,1.44e-01,
1107,-3.60e-02,
1108,-3.60e-02,
1109,9.20e-02,
1110,-3.20e-02,
1111,9.60e-02,
1112,-3.20e-02,
1113,1.04e-01,
1114,1.56e-01,
1115,-3.60e-02,
1116,-3.60e-02,
1117,9.20e-02,
1118,1.60e-01,
1119,-3.60e-02,
1120,1.44e-01,
1121,-3.60e-02,
1122,-3.60e-02,
1123,1.56e-01,
1124,1.60e-01,
1125,-6.40e-02,
1126,1.60e-01,
1127,-4.00e-02,
1128,1.56e-01,
1129,-6.00e-02,
1130,1.56e-01,
1131,-7.60e-02,
1132,1.60e-01,
1133,-6.00e-02,
1134,-6.80e-02,
1135,1.48e-01,
1136,1.44e-01,
1137,-7.20e-02,
1138,1.32e-01,
1139,-3.20e-02,
1140,-2.80e-02,
1141,1.36e-01,
1142,-2.80e-02,
1143,1.24e-01,
1144,1.32e-01,
1145,-2.80e-02,
1146,-2.80e-02,
1147,1.40e-01,
1148,-2.80e-02,
1149,1.20e-01,
1150,-2.80e-02,
1151,1.04e-01,
1152,1.40e-01,
1153,-3.20e-02,
1154,1.60e-01,
1155,-3.20e-02,
1156,-2.80e-02,
1157,1.28e-01,
1158,-3.20e-02,
1159,1.20e-01,
1160,1.52e-01,
1161,-2.80e-02,
1162,-2.80e-02,
1163,1.56e-01,
1164,-2.80e-02,
1165,1.68e-01,
1166,1.60e-01,
1167,-3.20e-02,
1168,-2.80e-02,
1169,1.60e-01,
1170,-3.20e-02,
1171,1.56e-01,
1172,-3.20e-02,
1173,1.72e-01,
1174,-2.80e-02,
1175,1.72e-01,
1176,-3.20e-02,
1177,1.60e-01,
1178,1.68e-01,
1179,-3.20e-02,
1180,1.44e-01,
1181,-4.40e-02,
1182,-4.00e-02,
1183,1.36e-01,
1184,-3.60e-02,
1185,1.56e-01,
1186,-3.60e-02,
1187,1.56e-01,
1188,-4.00e-02,
1189,1.48e-01,
1190,1.48e-01,
1191,-3.60e-02,
1192,-3.20e-02,
1193,7.60e-02,
1194,-3.20e-02,
1195,8.00e-02,
1196,1.40e-01,
1197,-3.60e-02,
1198,-3.20e-02,
1199,1.60e-01,
