Laptop_1/LAPTOP_CHRGR_1_ON_CLOSE/time domain/NewFile5(1).csv

X,CH1,Start,Increment,
Sequence,Volt,-1.500000e-01,2.000000e-04
0,-3.60e-02,
1,1.44e-01,
2,1.48e-01,
3,-3.60e-02,
4,1.20e-01,
5,-3.60e-02,
6,1.40e-01,
7,-3.60e-02,
8,1.32e-01,
9,-3.60e-02,
10,-3.60e-02,
11,1.56e-01,
12,1.56e-01,
13,-3.60e-02,
14,-3.60e-02,
15,1.60e-01,
16,1.24e-01,
17,-3.60e-02,
18,-4.00e-02,
19,1.64e-01,
20,1.64e-01,
21,-4.00e-02,
22,-4.00e-02,
23,1.64e-01,
24,-3.60e-02,
25,1.56e-01,
26,-6.00e-02,
27,1.68e-01,
28,1.12e-01,
29,-6.40e-02,
30,1.16e-01,
31,-4.40e-02,
32,1.16e-01,
33,-5.60e-02,
34,1.20e-01,
35,-5.60e-02,
36,-4.40e-02,
37,1.24e-01,
38,1.52e-01,
39,-4.80e-02,
40,-4.80e-02,
41,1.64e-01,
42,-4.40e-02,
43,1.52e-01,
44,-4.40e-02,
45,1.52e-01,
46,-4.40e-02,
47,1.44e-01,
48,-4.00e-02,
49,1.56e-01,
50,-3.60e-02,
51,1.60e-01,
52,-3.60e-02,
53,1.56e-01,
54,-3.20e-02,
55,1.56e-01,
56,-3.60e-02,
57,1.64e-01,
58,-3.60e-02,
59,1.20e-01,
60,-3.20e-02,
61,1.52e-01,
62,-3.60e-02,
63,1.64e-01,
64,-3.20e-02,
65,1.60e-01,
66,1.44e-01,
67,-4.40e-02,
68,-4.00e-02,
69,1.24e-01,
70,1.12e-01,
71,-4.00e-02,
72,-6.40e-02,
73,1.40e-01,
74,-4.80e-02,
75,1.16e-01,
76,1.60e-01,
77,-6.40e-02,
78,-3.60e-02,
79,4.40e-02,
80,1.44e-01,
81,-3.60e-02,
82,-3.60e-02,
83,1.48e-01,
84,-3.20e-02,
85,1.28e-01,
86,-3.20e-02,
87,1.44e-01,
88,-3.20e-02,
89,1.44e-01,
90,1.44e-01,
91,-3.20e-02,
92,1.44e-01,
93,-3.60e-02,
94,-3.60e-02,
95,1.56e-01,
96,-3.60e-02,
97,1.40e-01,
98,-3.60e-02,
99,1.56e-01,
100,1.52e-01,
101,-3.60e-02,
102,1.60e-01,
103,-3.60e-02,
104,1.68e-01,
105,-4.00e-02,
106,1.64e-01,
107,-4.40e-02,
108,-4.00e-02,
109,1.28e-01,
110,1.60e-01,
111,-4.80e-02,
112,1.00e-01,
113,-4.80e-02,
114,-4.80e-02,
115,8.00e-02,
116,-4.00e-02,
117,1.20e-01,
118,-4.40e-02,
119,1.40e-01,
120,1.44e-01,
121,-4.40e-02,
122,-4.40e-02,
123,1.60e-01,
124,-5.20e-02,
125,1.52e-01,
126,-4.80e-02,
127,1.52e-01,
128,1.56e-01,
129,-4.40e-02,
130,1.52e-01,
131,-3.60e-02,
132,1.52e-01,
133,-3.60e-02,
134,1.60e-01,
135,-3.60e-02,
136,-3.20e-02,
137,1.24e-01,
138,1.60e-01,
139,-3.60e-02,
140,1.64e-01,
141,-3.60e-02,
142,-3.60e-02,
143,1.68e-01,
144,-3.60e-02,
145,1.44e-01,
146,1.60e-01,
147,-3.20e-02,
148,-3.60e-02,
149,1.44e-01,
150,-3.60e-02,
151,8.00e-02,
152,-3.60e-02,
153,8.40e-02,
154,-5.20e-02,
155,1.48e-01,
156,1.48e-01,
157,-6.40e-02,
158,1.16e-01,
159,-6.00e-02,
160,1.60e-01,
161,-6.80e-02,
162,-3.20e-02,
163,1.40e-01,
164,-3.60e-02,
165,1.52e-01,
166,-3.60e-02,
167,1.48e-01,
168,1.28e-01,
169,-3.20e-02,
170,-3.20e-02,
171,1.48e-01,
172,1.52e-01,
173,-3.60e-02,
174,1.44e-01,
175,-3.60e-02,
176,-3.60e-02,
177,1.60e-01,
178,1.48e-01,
179,-3.60e-02,
180,-3.60e-02,
181,1.56e-01,
182,-4.00e-02,
183,1.60e-01,
184,-3.60e-02,
185,1.68e-01,
186,1.56e-01,
187,-4.00e-02,
188,1.24e-01,
189,-4.00e-02,
190,-4.00e-02,
191,6.00e-02,
192,-4.00e-02,
193,1.00e-01,
194,-6.00e-02,
195,1.04e-01,
196,-4.00e-02,
197,6.80e-02,
198,-4.40e-02,
199,1.08e-01,
200,-5.20e-02,
201,1.80e-01,
202,1.68e-01,
203,-4.40e-02,
204,1.60e-01,
205,-4.80e-02,
206,1.56e-01,
207,-4.40e-02,
208,1.48e-01,
209,-4.40e-02,
210,-3.60e-02,
211,1.48e-01,
212,1.48e-01,
213,-3.60e-02,
214,-3.60e-02,
215,1.44e-01,
216,-3.60e-02,
217,1.56e-01,
218,-3.20e-02,
219,1.44e-01,
220,1.56e-01,
221,-3.60e-02,
222,1.64e-01,
223,-3.60e-02,
224,1.40e-01,
225,-3.60e-02,
226,-3.20e-02,
227,1.56e-01,
228,-3.20e-02,
229,1.12e-01,
230,-3.20e-02,
231,1.64e-01,
232,7.20e-02,
233,-3.60e-02,
234,-3.60e-02,
235,1.48e-01,
236,-5.60e-02,
237,1.44e-01,
238,1.52e-01,
239,-6.00e-02,
240,1.56e-01,
241,-7.20e-02,
242,-6.80e-02,
243,1.40e-01,
244,-6.80e-02,
245,1.40e-01,
246,1.48e-01,
247,-3.60e-02,
248,-3.60e-02,
249,1.52e-01,
250,-3.20e-02,
251,1.48e-01,
252,-3.20e-02,
253,1.44e-01,
254,-3.20e-02,
255,1.36e-01,
256,-3.20e-02,
257,1.48e-01,
258,1.48e-01,
259,-2.80e-02,
260,-3.60e-02,
261,1.56e-01,
262,-3.60e-02,
263,1.52e-01,
264,1.52e-01,
265,-3.60e-02,
266,1.64e-01,
267,-3.60e-02,
268,-3.60e-02,
269,9.20e-02,
270,-3.60e-02,
271,3.20e-02,
272,-4.00e-02,
273,1.60e-01,
274,6.40e-02,
275,-4.00e-02,
276,1.52e-01,
277,-5.20e-02,
278,1.44e-01,
279,-6.00e-02,
280,1.72e-01,
281,-6.00e-02,
282,1.76e-01,
283,-6.40e-02,
284,-6.40e-02,
285,1.00e-01,
286,1.56e-01,
287,-4.40e-02,
288,1.60e-01,
289,-4.00e-02,
290,1.52e-01,
291,-4.40e-02,
292,1.44e-01,
293,-4.40e-02,
294,1.52e-01,
295,-3.60e-02,
296,1.40e-01,
297,-3.60e-02,
298,-3.20e-02,
299,1.52e-01,
300,-3.60e-02,
301,1.52e-01,
302,1.56e-01,
303,-3.60e-02,
304,-3.20e-02,
305,1.48e-01,
306,1.32e-01,
307,-3.60e-02,
308,-3.60e-02,
309,1.56e-01,
310,-3.60e-02,
311,8.00e-02,
312,-3.60e-02,
313,1.08e-01,
314,-3.60e-02,
315,1.36e-01,
316,1.48e-01,
317,-4.00e-02,
318,1.08e-01,
319,-6.40e-02,
320,-6.40e-02,
321,1.64e-01,
322,1.48e-01,
323,-6.00e-02,
324,1.56e-01,
325,-6.80e-02,
326,1.64e-01,
327,-5.60e-02,
328,-3.20e-02,
329,1.52e-01,
330,-3.20e-02,
331,1.48e-01,
332,-3.20e-02,
333,1.48e-01,
334,-2.80e-02,
335,1.44e-01,
336,-3.20e-02,
337,1.44e-01,
338,1.52e-01,
339,-3.20e-02,
340,-3.20e-02,
341,1.40e-01,
342,1.60e-01,
343,-4.00e-02,
344,-3.60e-02,
345,1.60e-01,
346,-3.60e-02,
347,1.64e-01,
348,-3.60e-02,
349,1.64e-01,
350,-4.00e-02,
351,7.60e-02,
352,-4.00e-02,
353,1.52e-01,
354,1.28e-01,
355,-4.00e-02,
356,-4.00e-02,
357,1.48e-01,
358,-4.00e-02,
359,9.20e-02,
360,-4.40e-02,
361,1.68e-01,
362,1.56e-01,
363,-5.20e-02,
364,-4.00e-02,
365,1.72e-01,
366,-3.60e-02,
367,1.76e-01,
368,-3.60e-02,
369,1.64e-01,
370,-3.60e-02,
371,1.60e-01,
372,-3.20e-02,
373,1.52e-01,
374,1.48e-01,
375,-4.00e-02,
376,-3.60e-02,
377,1.32e-01,
378,1.44e-01,
379,-3.60e-02,
380,-3.20e-02,
381,1.52e-01,
382,-3.20e-02,
383,1.40e-01,
384,-3.20e-02,
385,1.32e-01,
386,-3.20e-02,
387,1.52e-01,
388,-3.60e-02,
389,5.20e-02,
390,-3.60e-02,
391,3.20e-02,
392,-4.00e-02,
393,1.52e-01,
394,-3.60e-02,
395,1.56e-01,
396,4.40e-02,
397,-3.60e-02,
398,1.56e-01,
399,-4.00e-02,
400,1.48e-01,
401,-5.20e-02,
402,1.56e-01,
403,-6.40e-02,
404,-5.60e-02,
405,1.20e-01,
406,1.56e-01,
407,-7.20e-02,
408,-6.80e-02,
409,1.56e-01,
410,-7.60e-02,
411,1.56e-01,
412,-3.20e-02,
413,1.48e-01,
414,1.56e-01,
415,-3.20e-02,
416,1.44e-01,
417,-3.60e-02,
418,1.52e-01,
419,-3.60e-02,
420,-3.20e-02,
421,1.40e-01,
422,1.48e-01,
423,-3.60e-02,
424,1.16e-01,
425,-4.00e-02,
426,1.56e-01,
427,-4.00e-02,
428,1.60e-01,
429,-4.40e-02,
430,-3.60e-02,
431,1.36e-01,
432,-4.00e-02,
433,6.00e-02,
434,8.00e-02,
435,-4.00e-02,
436,1.44e-01,
437,-4.00e-02,
438,1.20e-01,
439,-4.00e-02,
440,-4.00e-02,
441,1.60e-01,
442,-3.60e-02,
443,1.72e-01,
444,-3.60e-02,
445,1.68e-01,
446,1.72e-01,
447,-4.00e-02,
448,-3.60e-02,
449,1.76e-01,
450,1.72e-01,
451,-4.00e-02,
452,1.56e-01,
453,-4.00e-02,
454,-4.00e-02,
455,1.56e-01,
456,-4.00e-02,
457,1.32e-01,
458,-3.60e-02,
459,1.48e-01,
460,1.56e-01,
461,-3.60e-02,
462,-3.60e-02,
463,1.48e-01,
464,1.36e-01,
465,-3.60e-02,
466,9.20e-02,
467,-3.60e-02,
468,-3.20e-02,
469,8.80e-02,
470,1.52e-01,
471,-3.60e-02,
472,-3.20e-02,
473,6.80e-02,
474,-3.60e-02,
475,8.80e-02,
476,1.52e-01,
477,-3.60e-02,
478,-3.60e-02,
479,1.08e-01,
480,-3.20e-02,
481,1.52e-01,
482,1.44e-01,
483,-4.80e-02,
484,-5.20e-02,
485,1.52e-01,
486,1.56e-01,
487,-7.20e-02,
488,-6.80e-02,
489,1.56e-01,
490,-6.80e-02,
491,1.60e-01,
492,-6.80e-02,
493,1.64e-01,
494,-3.60e-02,
495,1.56e-01,
496,-4.00e-02,
497,1.44e-01,
498,-4.00e-02,
499,1.36e-01,
500,1.48e-01,
501,-3.60e-02,
502,1.52e-01,
503,-3.60e-02,
504,-3.20e-02,
505,1.52e-01,
506,-3.60e-02,
507,1.64e-01,
508,-3.60e-02,
509,1.60e-01,
510,9.20e-02,
511,-4.00e-02,
512,-4.00e-02,
513,1.60e-01,
514,-4.00e-02,
515,8.40e-02,
516,4.00e-02,
517,-4.00e-02,
518,-4.00e-02,
519,1.44e-01,
520,-4.00e-02,
521,1.68e-01,
522,-3.60e-02,
523,1.72e-01,
524,-4.00e-02,
525,1.60e-01,
526,1.68e-01,
527,-4.00e-02,
528,-4.00e-02,
529,1.48e-01,
530,-4.00e-02,
531,1.64e-01,
532,-4.80e-02,
533,1.44e-01,
534,-4.40e-02,
535,1.68e-01,
536,1.56e-01,
537,-4.00e-02,
538,-3.60e-02,
539,1.60e-01,
540,-4.00e-02,
541,1.40e-01,
542,1.44e-01,
543,-3.20e-02,
544,-3.20e-02,
545,1.48e-01,
546,-3.20e-02,
547,1.48e-01,
548,1.32e-01,
549,-3.60e-02,
550,-3.20e-02,
551,8.80e-02,
552,1.44e-01,
553,-3.20e-02,
554,-3.20e-02,
555,1.40e-01,
556,1.24e-01,
557,-3.60e-02,
558,-3.60e-02,
559,1.28e-01,
560,1.48e-01,
561,-3.60e-02,
562,-3.60e-02,
563,1.44e-01,
564,1.56e-01,
565,-4.40e-02,
566,-5.60e-02,
567,1.52e-01,
568,1.56e-01,
569,-6.40e-02,
570,1.64e-01,
571,-7.20e-02,
572,1.56e-01,
573,-8.00e-02,
574,1.68e-01,
575,-8.40e-02,
576,1.52e-01,
577,-6.80e-02,
578,-3.60e-02,
579,1.52e-01,
580,1.48e-01,
581,-3.60e-02,
582,1.52e-01,
583,-3.60e-02,
584,-3.20e-02,
585,1.44e-01,
586,1.36e-01,
587,-3.60e-02,
588,1.52e-01,
589,-4.00e-02,
590,1.60e-01,
591,-4.00e-02,
592,-4.00e-02,
593,1.00e-01,
594,-4.40e-02,
595,9.20e-02,
596,5.60e-02,
597,-4.00e-02,
598,1.68e-01,
599,-3.60e-02,
600,1.64e-01,
601,-4.00e-02,
602,-3.60e-02,
603,1.64e-01,
604,1.00e-01,
605,-4.00e-02,
606,-3.60e-02,
607,1.64e-01,
608,-4.00e-02,
609,1.72e-01,
610,1.64e-01,
611,-4.00e-02,
612,1.72e-01,
613,-4.00e-02,
614,-3.60e-02,
615,1.64e-01,
616,1.64e-01,
617,-4.00e-02,
618,-3.60e-02,
619,1.64e-01,
620,-4.00e-02,
621,1.24e-01,
622,-3.20e-02,
623,1.40e-01,
624,-3.20e-02,
625,1.36e-01,
626,1.44e-01,
627,-3.60e-02,
628,-3.20e-02,
629,6.80e-02,
630,-3.60e-02,
631,9.60e-02,
632,-3.60e-02,
633,1.48e-01,
634,-3.60e-02,
635,1.28e-01,
636,-3.20e-02,
637,1.36e-01,
638,-3.60e-02,
639,1.20e-01,
640,-3.60e-02,
641,1.56e-01,
642,-3.60e-02,
643,1.44e-01,
644,-4.00e-02,
645,1.56e-01,
646,1.48e-01,
647,-5.20e-02,
648,1.32e-01,
649,-6.00e-02,
650,1.56e-01,
651,-5.60e-02,
652,-6.40e-02,
653,1.64e-01,
654,-7.20e-02,
655,1.68e-01,
656,-7.20e-02,
657,1.60e-01,
658,-6.80e-02,
659,1.64e-01,
660,-6.40e-02,
661,1.52e-01,
662,1.60e-01,
663,-4.00e-02,
664,-3.20e-02,
665,1.52e-01,
666,-3.60e-02,
667,1.24e-01,
668,1.48e-01,
669,-3.60e-02,
670,1.36e-01,
671,-3.60e-02,
672,1.36e-01,
673,-4.00e-02,
674,1.04e-01,
675,-4.00e-02,
676,-4.00e-02,
677,1.00e-01,
678,-4.00e-02,
679,1.64e-01,
680,1.68e-01,
681,-4.00e-02,
682,-3.60e-02,
683,1.68e-01,
684,-4.00e-02,
685,1.56e-01,
686,1.68e-01,
687,-4.40e-02,
688,-4.00e-02,
689,1.64e-01,
690,-4.00e-02,
691,1.72e-01,
692,-4.00e-02,
693,1.64e-01,
694,1.76e-01,
695,-6.00e-02,
696,-4.80e-02,
697,1.60e-01,
698,-6.40e-02,
699,1.76e-01,
700,-6.40e-02,
701,1.72e-01,
702,-5.60e-02,
703,1.60e-01,
704,-3.60e-02,
705,1.56e-01,
706,-3.60e-02,
707,1.44e-01,
708,-3.60e-02,
709,3.60e-02,
710,-3.60e-02,
711,1.44e-01,
712,-3.60e-02,
713,6.00e-02,
714,-3.60e-02,
715,1.56e-01,
716,-4.00e-02,
717,1.40e-01,
718,-4.00e-02,
719,1.24e-01,
720,-4.00e-02,
721,1.48e-01,
722,1.52e-01,
723,-4.80e-02,
724,1.48e-01,
725,-5.60e-02,
726,1.52e-01,
727,-6.00e-02,
728,1.60e-01,
729,-6.40e-02,
730,1.64e-01,
731,-6.80e-02,
732,-6.40e-02,
733,1.60e-01,
734,-8.00e-02,
735,1.44e-01,
736,-8.00e-02,
737,1.60e-01,
738,-8.80e-02,
739,1.60e-01,
740,1.60e-01,
741,-8.80e-02,
742,-8.80e-02,
743,1.72e-01,
744,-6.00e-02,
745,1.56e-01,
746,-3.60e-02,
747,1.60e-01,
748,1.60e-01,
749,-4.00e-02,
750,-4.00e-02,
751,1.48e-01,
752,-3.60e-02,
753,1.48e-01,
754,-3.60e-02,
755,1.52e-01,
756,-4.00e-02,
757,1.52e-01,
758,-4.00e-02,
759,1.40e-01,
760,-4.00e-02,
761,1.24e-01,
762,-4.00e-02,
763,1.68e-01,
764,-4.00e-02,
765,1.60e-01,
766,-4.40e-02,
767,1.68e-01,
768,-4.00e-02,
769,1.68e-01,
770,1.76e-01,
771,-4.40e-02,
772,-4.00e-02,
773,1.52e-01,
774,-4.40e-02,
775,1.68e-01,
776,1.64e-01,
777,-4.80e-02,
778,-5.60e-02,
779,1.60e-01,
780,1.64e-01,
781,-6.40e-02,
782,1.72e-01,
783,-7.20e-02,
784,-6.80e-02,
785,1.68e-01,
786,1.64e-01,
787,-4.40e-02,
788,-4.00e-02,
789,8.80e-02,
790,-4.00e-02,
791,3.20e-02,
792,-4.00e-02,
793,8.40e-02,
794,8.40e-02,
795,-4.00e-02,
796,8.80e-02,
797,-4.00e-02,
798,-4.00e-02,
799,1.40e-01,
800,1.56e-01,
801,-4.00e-02,
802,-4.00e-02,
803,1.48e-01,
804,-4.00e-02,
805,1.52e-01,
806,1.56e-01,
807,-6.00e-02,
808,1.56e-01,
809,-6.40e-02,
810,1.52e-01,
811,-6.40e-02,
812,1.56e-01,
813,-7.20e-02,
814,-7.20e-02,
815,1.64e-01,
816,-6.80e-02,
817,1.60e-01,
818,1.64e-01,
819,-6.40e-02,
820,-6.80e-02,
821,1.60e-01,
822,1.72e-01,
823,-8.40e-02,
824,1.52e-01,
825,-8.00e-02,
826,1.52e-01,
827,-6.00e-02,
828,-4.00e-02,
829,1.60e-01,
830,-4.00e-02,
831,1.52e-01,
832,-3.60e-02,
833,1.56e-01,
834,-4.00e-02,
835,1.12e-01,
836,3.20e-02,
837,-3.60e-02,
838,-3.60e-02,
839,1.24e-01,
840,1.48e-01,
841,-4.40e-02,
842,-4.40e-02,
843,1.60e-01,
844,1.64e-01,
845,-4.00e-02,
846,1.60e-01,
847,-4.00e-02,
848,-4.40e-02,
849,1.72e-01,
850,-4.00e-02,
851,1.36e-01,
852,1.36e-01,
853,-4.00e-02,
854,1.68e-01,
855,-4.40e-02,
856,-4.00e-02,
857,1.60e-01,
858,1.52e-01,
859,-4.00e-02,
860,1.68e-01,
861,-6.00e-02,
862,1.72e-01,
863,-6.40e-02,
864,-7.60e-02,
865,1.72e-01,
866,-7.60e-02,
867,1.72e-01,
868,-4.00e-02,
869,1.60e-01,
870,1.60e-01,
871,-4.00e-02,
872,-3.60e-02,
873,3.20e-02,
874,4.80e-02,
875,-4.00e-02,
876,1.12e-01,
877,-4.00e-02,
878,-4.00e-02,
879,1.48e-01,
880,1.40e-01,
881,-4.00e-02,
882,-3.60e-02,
883,1.52e-01,
884,-4.00e-02,
885,1.48e-01,
886,1.32e-01,
887,-4.80e-02,
888,1.52e-01,
889,-5.60e-02,
890,-5.60e-02,
891,1.48e-01,
892,1.28e-01,
893,-6.80e-02,
894,1.60e-01,
895,-7.20e-02,
896,-6.80e-02,
897,1.68e-01,
898,1.48e-01,
899,-7.20e-02,
900,1.68e-01,
901,-6.80e-02,
902,-6.40e-02,
903,1.64e-01,
904,-6.80e-02,
905,1.72e-01,
906,1.64e-01,
907,-6.80e-02,
908,1.64e-01,
909,-7.60e-02,
910,-7.20e-02,
911,1.48e-01,
912,1.36e-01,
913,-4.00e-02,
914,-3.60e-02,
915,3.20e-02,
916,-4.00e-02,
917,1.32e-01,
918,-3.60e-02,
919,1.52e-01,
920,1.52e-01,
921,-3.60e-02,
922,-4.40e-02,
923,1.60e-01,
924,-3.60e-02,
925,1.68e-01,
926,-4.00e-02,
927,1.60e-01,
928,-4.40e-02,
929,1.64e-01,
930,-4.00e-02,
931,1.72e-01,
932,1.68e-01,
933,-4.00e-02,
934,-3.60e-02,
935,1.64e-01,
936,1.68e-01,
937,-4.00e-02,
938,-4.00e-02,
939,1.56e-01,
940,-4.00e-02,
941,1.52e-01,
942,1.48e-01,
943,-6.40e-02,
944,-6.40e-02,
945,1.68e-01,
946,1.72e-01,
947,-6.40e-02,
948,-4.40e-02,
949,1.28e-01,
950,1.64e-01,
951,-6.80e-02,
952,1.16e-01,
953,-5.20e-02,
954,-4.00e-02,
955,5.60e-02,
956,-4.00e-02,
957,1.04e-01,
958,-3.60e-02,
959,1.56e-01,
960,-3.60e-02,
961,1.40e-01,
962,1.48e-01,
963,-3.60e-02,
964,-3.60e-02,
965,1.52e-01,
966,1.24e-01,
967,-3.60e-02,
968,-3.60e-02,
969,1.52e-01,
970,1.48e-01,
971,-4.40e-02,
972,1.44e-01,
973,-5.60e-02,
974,-5.20e-02,
975,1.52e-01,
976,-5.60e-02,
977,1.48e-01,
978,-5.60e-02,
979,1.60e-01,
980,1.60e-01,
981,-6.40e-02,
982,1.40e-01,
983,-5.60e-02,
984,-6.80e-02,
985,1.60e-01,
986,1.68e-01,
987,-7.20e-02,
988,-6.40e-02,
989,1.48e-01,
990,1.20e-01,
991,-5.20e-02,
992,-6.00e-02,
993,1.20e-01,
994,-4.40e-02,
995,1.36e-01,
996,-3.60e-02,
997,1.12e-01,
998,-3.60e-02,
999,1.40e-01,
1000,-4.40e-02,
1001,1.52e-01,
1002,-3.60e-02,
1003,1.48e-01,
1004,1.48e-01,
1005,-4.00e-02,
1006,-4.00e-02,
1007,1.60e-01,
1008,-4.80e-02,
1009,1.56e-01,
1010,1.64e-01,
1011,-4.40e-02,
1012,-4.00e-02,
1013,1.60e-01,
1014,1.68e-01,
1015,-3.60e-02,
1016,1.68e-01,
1017,-3.60e-02,
1018,-3.60e-02,
1019,1.60e-01,
1020,1.52e-01,
1021,-4.00e-02,
1022,1.68e-01,
1023,-4.00e-02,
1024,-4.00e-02,
1025,1.60e-01,
1026,1.60e-01,
1027,-4.40e-02,
1028,1.60e-01,
1029,-5.60e-02,
1030,9.60e-02,
1031,-4.80e-02,
1032,-4.80e-02,
1033,1.64e-01,
1034,-6.00e-02,
1035,1.72e-01,
1036,1.28e-01,
1037,-4.00e-02,
1038,-3.60e-02,
1039,1.48e-01,
1040,1.36e-01,
1041,-3.60e-02,
1042,1.52e-01,
1043,-3.60e-02,
1044,1.32e-01,
1045,-3.60e-02,
1046,1.32e-01,
1047,-3.60e-02,
1048,-3.60e-02,
1049,1.52e-01,
1050,-4.00e-02,
1051,1.40e-01,
1052,-3.60e-02,
1053,1.44e-01,
1054,1.44e-01,
1055,-4.00e-02,
1056,1.48e-01,
1057,-3.60e-02,
1058,-3.60e-02,
1059,1.52e-01,
1060,1.60e-01,
1061,-4.80e-02,
1062,-5.60e-02,
1063,1.68e-01,
1064,-6.40e-02,
1065,1.68e-01,
1066,1.32e-01,
1067,-6.00e-02,
1068,1.20e-01,
1069,-5.60e-02,
1070,1.44e-01,
1071,-6.00e-02,
1072,1.20e-01,
1073,-4.40e-02,
1074,-5.20e-02,
1075,1.64e-01,
1076,1.12e-01,
1077,-4.00e-02,
1078,-3.60e-02,
1079,1.60e-01,
1080,1.60e-01,
1081,-3.60e-02,
1082,-4.00e-02,
1083,1.56e-01,
1084,1.52e-01,
1085,-4.40e-02,
1086,-4.80e-02,
1087,1.52e-01,
1088,-4.80e-02,
1089,1.52e-01,
1090,1.36e-01,
1091,-4.80e-02,
1092,-4.40e-02,
1093,1.56e-01,
1094,1.60e-01,
1095,-4.00e-02,
1096,1.60e-01,
1097,-3.60e-02,
1098,1.52e-01,
1099,-4.00e-02,
1100,-3.60e-02,
1101,1.64e-01,
1102,1.68e-01,
1103,-4.00e-02,
1104,-3.60e-02,
1105,1.56e-01,
1106,1.16e-01,
1107,-3.60e-02,
1108,-3.60e-02,
1109,6.80e-02,
1110,-4.40e-02,
1111,1.68e-01,
1112,-5.20e-02,
1113,1.32e-01,
1114,-4.40e-02,
1115,1.68e-01,
1116,-5.20e-02,
1117,1.24e-01,
1118,-5.60e-02,
1119,1.44e-01,
1120,-3.60e-02,
1121,1.52e-01,
1122,1.44e-01,
1123,-4.00e-02,
1124,-3.60e-02,
1125,1.40e-01,
1126,-4.00e-02,
1127,1.44e-01,
1128,1.48e-01,
1129,-4.00e-02,
1130,-3.60e-02,
1131,1.36e-01,
1132,1.52e-01,
1133,-4.00e-02,
1134,1.44e-01,
1135,-3.60e-02,
1136,-3.60e-02,
1137,1.36e-01,
1138,1.56e-01,
1139,-4.00e-02,
1140,-4.00e-02,
1141,1.52e-01,
1142,-4.00e-02,
1143,1.60e-01,
1144,-5.20e-02,
1145,1.60e-01,
1146,1.60e-01,
1147,-4.80e-02,
1148,1.08e-01,
1149,-6.40e-02,
1150,-5.60e-02,
1151,1.56e-01,
1152,9.60e-02,
1153,-4.80e-02,
1154,7.60e-02,
1155,-4.00e-02,
1156,-4.80e-02,
1157,1.60e-01,
1158,1.68e-01,
1159,-6.40e-02,
1160,-4.00e-02,
1161,1.48e-01,
1162,1.72e-01,
1163,-4.00e-02,
1164,1.52e-01,
1165,-5.20e-02,
1166,-4.40e-02,
1167,1.52e-01,
1168,1.36e-01,
1169,-5.20e-02,
1170,-4.80e-02,
1171,1.52e-01,
1172,-4.40e-02,
1173,1.32e-01,
1174,-3.60e-02,
1175,1.56e-01,
1176,-4.00e-02,
1177,1.56e-01,
1178,-3.60e-02,
1179,1.64e-01,
1180,-3.60e-02,
1181,1.64e-01,
1182,-3.60e-02,
1183,1.60e-01,
1184,1.60e-01,
1185,-4.00e-02,
1186,1.60e-01,
1187,-4.00e-02,
1188,-3.60e-02,
1189,8.00e-02,
1190,8.40e-02,
1191,-4.00e-02,
1192,-4.00e-02,
1193,8.80e-02,
1194,-5.20e-02,
1195,1.56e-01,
1196,-5.60e-02,
1197,1.36e-01,
1198,-8.40e-02,
1199,1.28e-01,
