Laptop_1/LAPTOP_CHRGR_1_ON_CLOSE/time domain/NewFile4(1).csv

X,CH1,Start,Increment,
Sequence,Volt,-1.500000e-01,2.000000e-04
0,-3.20e-02,
1,1.36e-01,
2,-3.20e-02,
3,1.40e-01,
4,-3.20e-02,
5,1.44e-01,
6,1.48e-01,
7,-3.60e-02,
8,-3.20e-02,
9,1.48e-01,
10,-3.20e-02,
11,1.44e-01,
12,-4.00e-02,
13,1.56e-01,
14,-3.60e-02,
15,1.52e-01,
16,1.52e-01,
17,-3.60e-02,
18,1.56e-01,
19,-6.00e-02,
20,-5.20e-02,
21,1.56e-01,
22,1.32e-01,
23,-6.80e-02,
24,1.60e-01,
25,-7.20e-02,
26,1.48e-01,
27,-5.60e-02,
28,1.00e-01,
29,-5.60e-02,
30,-6.00e-02,
31,1.08e-01,
32,-5.20e-02,
33,1.16e-01,
34,-4.00e-02,
35,1.16e-01,
36,1.68e-01,
37,-4.40e-02,
38,-8.40e-02,
39,1.60e-01,
40,-4.80e-02,
41,1.52e-01,
42,1.52e-01,
43,-4.00e-02,
44,-4.00e-02,
45,1.44e-01,
46,-4.00e-02,
47,1.52e-01,
48,1.12e-01,
49,-4.00e-02,
50,-3.60e-02,
51,1.60e-01,
52,1.60e-01,
53,-4.00e-02,
54,-3.60e-02,
55,1.64e-01,
56,1.60e-01,
57,-4.00e-02,
58,-3.60e-02,
59,1.64e-01,
60,-4.00e-02,
61,1.68e-01,
62,-3.60e-02,
63,1.48e-01,
64,-3.60e-02,
65,1.68e-01,
66,-4.00e-02,
67,1.72e-01,
68,1.08e-01,
69,-4.40e-02,
70,6.40e-02,
71,-4.40e-02,
72,-4.80e-02,
73,1.64e-01,
74,1.08e-01,
75,-6.00e-02,
76,-5.60e-02,
77,1.12e-01,
78,1.20e-01,
79,-5.60e-02,
80,1.72e-01,
81,-6.80e-02,
82,-4.40e-02,
83,1.56e-01,
84,-3.60e-02,
85,1.56e-01,
86,1.52e-01,
87,-3.60e-02,
88,1.52e-01,
89,-3.60e-02,
90,-3.60e-02,
91,1.44e-01,
92,-4.00e-02,
93,1.48e-01,
94,-3.60e-02,
95,1.48e-01,
96,-4.00e-02,
97,1.44e-01,
98,-3.60e-02,
99,1.52e-01,
100,-3.60e-02,
101,1.48e-01,
102,1.44e-01,
103,-4.40e-02,
104,1.48e-01,
105,-5.20e-02,
106,1.52e-01,
107,-4.40e-02,
108,-3.60e-02,
109,8.80e-02,
110,1.20e-01,
111,-5.60e-02,
112,-5.20e-02,
113,8.80e-02,
114,-5.20e-02,
115,1.20e-01,
116,1.44e-01,
117,-6.00e-02,
118,-5.60e-02,
119,1.24e-01,
120,-8.00e-02,
121,1.68e-01,
122,-6.80e-02,
123,1.64e-01,
124,-4.40e-02,
125,1.60e-01,
126,1.52e-01,
127,-4.00e-02,
128,-3.60e-02,
129,1.48e-01,
130,-3.60e-02,
131,1.52e-01,
132,1.56e-01,
133,-3.60e-02,
134,1.56e-01,
135,-4.00e-02,
136,-4.40e-02,
137,1.32e-01,
138,-4.00e-02,
139,1.60e-01,
140,1.64e-01,
141,-4.00e-02,
142,1.64e-01,
143,-4.00e-02,
144,1.60e-01,
145,-4.40e-02,
146,-4.40e-02,
147,1.72e-01,
148,1.56e-01,
149,-4.40e-02,
150,-4.00e-02,
151,8.80e-02,
152,6.80e-02,
153,-4.40e-02,
154,1.72e-01,
155,-4.40e-02,
156,1.04e-01,
157,-5.60e-02,
158,1.00e-01,
159,-6.00e-02,
160,-7.20e-02,
161,1.68e-01,
162,1.72e-01,
163,-7.60e-02,
164,-5.60e-02,
165,1.56e-01,
166,-4.00e-02,
167,1.40e-01,
168,1.40e-01,
169,-3.60e-02,
170,1.48e-01,
171,-4.00e-02,
172,-3.60e-02,
173,1.56e-01,
174,-3.60e-02,
175,1.48e-01,
176,-3.60e-02,
177,1.36e-01,
178,1.52e-01,
179,-3.60e-02,
180,1.44e-01,
181,-3.60e-02,
182,1.28e-01,
183,-3.60e-02,
184,-3.60e-02,
185,1.24e-01,
186,1.52e-01,
187,-4.00e-02,
188,-3.60e-02,
189,1.52e-01,
190,-4.00e-02,
191,7.60e-02,
192,-4.40e-02,
193,1.20e-01,
194,9.20e-02,
195,-5.20e-02,
196,1.16e-01,
197,-5.60e-02,
198,-5.20e-02,
199,8.40e-02,
200,-7.20e-02,
201,1.64e-01,
202,1.56e-01,
203,-7.20e-02,
204,1.60e-01,
205,-7.20e-02,
206,-4.40e-02,
207,1.64e-01,
208,-3.60e-02,
209,1.60e-01,
210,-3.60e-02,
211,1.52e-01,
212,1.48e-01,
213,-4.00e-02,
214,-3.60e-02,
215,1.56e-01,
216,-4.00e-02,
217,1.56e-01,
218,1.52e-01,
219,-4.40e-02,
220,1.28e-01,
221,-4.00e-02,
222,-3.60e-02,
223,1.36e-01,
224,-4.00e-02,
225,1.56e-01,
226,-3.60e-02,
227,1.68e-01,
228,-3.60e-02,
229,1.72e-01,
230,8.80e-02,
231,-4.00e-02,
232,1.16e-01,
233,-3.60e-02,
234,-4.00e-02,
235,1.56e-01,
236,-4.00e-02,
237,9.60e-02,
238,-4.00e-02,
239,1.60e-01,
240,1.64e-01,
241,-5.20e-02,
242,1.64e-01,
243,-5.60e-02,
244,1.72e-01,
245,-6.80e-02,
246,-7.20e-02,
247,1.68e-01,
248,-4.80e-02,
249,1.52e-01,
250,-3.60e-02,
251,1.44e-01,
252,1.48e-01,
253,-4.00e-02,
254,1.52e-01,
255,-4.00e-02,
256,1.48e-01,
257,-4.00e-02,
258,-4.00e-02,
259,1.48e-01,
260,-3.60e-02,
261,1.40e-01,
262,1.48e-01,
263,-3.60e-02,
264,-3.60e-02,
265,1.44e-01,
266,-3.60e-02,
267,1.52e-01,
268,1.44e-01,
269,-3.60e-02,
270,1.04e-01,
271,-4.80e-02,
272,1.12e-01,
273,-5.20e-02,
274,1.04e-01,
275,-5.60e-02,
276,-4.00e-02,
277,1.04e-01,
278,-5.60e-02,
279,1.64e-01,
280,1.56e-01,
281,-7.20e-02,
282,1.72e-01,
283,-7.20e-02,
284,1.68e-01,
285,-6.80e-02,
286,1.76e-01,
287,-7.60e-02,
288,-7.60e-02,
289,1.68e-01,
290,1.52e-01,
291,-4.00e-02,
292,-4.00e-02,
293,1.56e-01,
294,1.56e-01,
295,-4.00e-02,
296,-4.40e-02,
297,1.16e-01,
298,1.56e-01,
299,-4.40e-02,
300,-4.00e-02,
301,1.56e-01,
302,1.52e-01,
303,-4.40e-02,
304,-4.40e-02,
305,1.56e-01,
306,-4.80e-02,
307,1.64e-01,
308,1.64e-01,
309,-4.00e-02,
310,-3.60e-02,
311,1.12e-01,
312,-4.00e-02,
313,1.12e-01,
314,-4.00e-02,
315,1.60e-01,
316,3.20e-02,
317,-4.00e-02,
318,-4.00e-02,
319,1.52e-01,
320,-4.00e-02,
321,1.52e-01,
322,1.72e-01,
323,-4.80e-02,
324,1.64e-01,
325,-7.60e-02,
326,1.60e-01,
327,-7.20e-02,
328,1.68e-01,
329,-8.00e-02,
330,-6.80e-02,
331,1.52e-01,
332,-4.00e-02,
333,1.44e-01,
334,-3.20e-02,
335,1.48e-01,
336,-3.20e-02,
337,1.48e-01,
338,-3.20e-02,
339,1.48e-01,
340,1.48e-01,
341,-3.20e-02,
342,-3.60e-02,
343,1.48e-01,
344,-3.60e-02,
345,1.24e-01,
346,1.44e-01,
347,-3.60e-02,
348,-3.60e-02,
349,1.48e-01,
350,-4.00e-02,
351,1.00e-01,
352,1.28e-01,
353,-4.00e-02,
354,-4.40e-02,
355,1.12e-01,
356,-4.00e-02,
357,1.44e-01,
358,1.20e-01,
359,-4.80e-02,
360,-5.20e-02,
361,1.72e-01,
362,1.68e-01,
363,-6.00e-02,
364,-6.00e-02,
365,1.64e-01,
366,1.56e-01,
367,-6.40e-02,
368,-6.80e-02,
369,1.72e-01,
370,-6.80e-02,
371,1.64e-01,
372,-5.20e-02,
373,1.64e-01,
374,-4.00e-02,
375,1.60e-01,
376,1.16e-01,
377,-4.40e-02,
378,-4.40e-02,
379,1.52e-01,
380,1.12e-01,
381,-4.00e-02,
382,-4.40e-02,
383,1.52e-01,
384,1.04e-01,
385,-4.80e-02,
386,-4.00e-02,
387,1.60e-01,
388,-4.00e-02,
389,1.52e-01,
390,1.48e-01,
391,-3.60e-02,
392,-3.20e-02,
393,9.20e-02,
394,-3.60e-02,
395,9.60e-02,
396,-4.00e-02,
397,1.36e-01,
398,-3.60e-02,
399,1.52e-01,
400,-4.00e-02,
401,1.64e-01,
402,1.60e-01,
403,-5.20e-02,
404,1.64e-01,
405,-6.40e-02,
406,1.32e-01,
407,-7.60e-02,
408,-7.20e-02,
409,1.64e-01,
410,-6.40e-02,
411,1.64e-01,
412,-7.20e-02,
413,1.44e-01,
414,-5.60e-02,
415,1.56e-01,
416,-3.60e-02,
417,1.40e-01,
418,1.48e-01,
419,-3.60e-02,
420,-3.60e-02,
421,1.40e-01,
422,1.36e-01,
423,-4.00e-02,
424,1.44e-01,
425,-4.00e-02,
426,-4.00e-02,
427,1.32e-01,
428,1.48e-01,
429,-4.00e-02,
430,-4.00e-02,
431,1.36e-01,
432,-4.00e-02,
433,9.20e-02,
434,-4.00e-02,
435,1.56e-01,
436,-4.00e-02,
437,1.12e-01,
438,-4.00e-02,
439,8.80e-02,
440,1.60e-01,
441,-4.80e-02,
442,1.64e-01,
443,-6.40e-02,
444,-6.00e-02,
445,1.68e-01,
446,-6.00e-02,
447,1.68e-01,
448,1.64e-01,
449,-6.40e-02,
450,1.76e-01,
451,-6.80e-02,
452,-6.00e-02,
453,1.64e-01,
454,1.60e-01,
455,-7.20e-02,
456,1.68e-01,
457,-4.00e-02,
458,1.60e-01,
459,-4.40e-02,
460,1.56e-01,
461,-4.40e-02,
462,1.56e-01,
463,-4.80e-02,
464,1.16e-01,
465,-4.80e-02,
466,1.60e-01,
467,-4.40e-02,
468,-4.40e-02,
469,1.48e-01,
470,-4.00e-02,
471,1.64e-01,
472,1.40e-01,
473,-4.00e-02,
474,8.00e-02,
475,-4.00e-02,
476,-4.00e-02,
477,1.04e-01,
478,-4.00e-02,
479,1.64e-01,
480,-4.00e-02,
481,1.52e-01,
482,-4.00e-02,
483,1.56e-01,
484,1.60e-01,
485,-5.60e-02,
486,-5.60e-02,
487,1.68e-01,
488,-7.20e-02,
489,1.68e-01,
490,-7.20e-02,
491,1.72e-01,
492,-8.80e-02,
493,1.64e-01,
494,-9.60e-02,
495,1.68e-01,
496,-1.00e-01,
497,1.64e-01,
498,1.48e-01,
499,-6.00e-02,
500,-3.60e-02,
501,1.36e-01,
502,-3.60e-02,
503,1.44e-01,
504,-3.60e-02,
505,1.36e-01,
506,1.40e-01,
507,-3.60e-02,
508,1.28e-01,
509,-4.00e-02,
510,-4.00e-02,
511,1.36e-01,
512,1.44e-01,
513,-4.00e-02,
514,1.24e-01,
515,-4.00e-02,
516,-4.00e-02,
517,9.20e-02,
518,-4.00e-02,
519,1.16e-01,
520,-4.00e-02,
521,1.64e-01,
522,-5.20e-02,
523,1.64e-01,
524,1.68e-01,
525,-4.40e-02,
526,1.68e-01,
527,-4.40e-02,
528,1.60e-01,
529,-4.80e-02,
530,-5.20e-02,
531,1.28e-01,
532,-4.00e-02,
533,1.68e-01,
534,-3.60e-02,
535,1.52e-01,
536,-3.60e-02,
537,1.68e-01,
538,-4.00e-02,
539,1.52e-01,
540,-3.60e-02,
541,1.48e-01,
542,-4.00e-02,
543,1.52e-01,
544,-4.80e-02,
545,1.40e-01,
546,1.56e-01,
547,-4.40e-02,
548,1.40e-01,
549,-4.00e-02,
550,-4.40e-02,
551,1.04e-01,
552,8.40e-02,
553,-3.60e-02,
554,-3.20e-02,
555,1.52e-01,
556,-3.20e-02,
557,1.52e-01,
558,-3.60e-02,
559,1.60e-01,
560,-4.00e-02,
561,1.56e-01,
562,-3.60e-02,
563,1.60e-01,
564,1.60e-01,
565,-4.00e-02,
566,1.56e-01,
567,-5.20e-02,
568,1.64e-01,
569,-6.00e-02,
570,-6.40e-02,
571,1.64e-01,
572,1.64e-01,
573,-7.20e-02,
574,1.56e-01,
575,-8.80e-02,
576,1.48e-01,
577,-1.04e-01,
578,1.44e-01,
579,-1.00e-01,
580,-7.60e-02,
581,1.52e-01,
582,-5.20e-02,
583,1.48e-01,
584,-4.00e-02,
585,1.44e-01,
586,-3.60e-02,
587,1.44e-01,
588,-4.00e-02,
589,1.24e-01,
590,-4.00e-02,
591,1.52e-01,
592,1.52e-01,
593,-4.00e-02,
594,-4.00e-02,
595,1.44e-01,
596,-3.60e-02,
597,8.80e-02,
598,-3.60e-02,
599,1.60e-01,
600,-4.00e-02,
601,1.44e-01,
602,-4.00e-02,
603,1.56e-01,
604,1.32e-01,
605,-3.60e-02,
606,-3.60e-02,
607,1.56e-01,
608,-3.60e-02,
609,1.68e-01,
610,-3.60e-02,
611,1.68e-01,
612,-3.20e-02,
613,1.64e-01,
614,1.60e-01,
615,-3.60e-02,
616,-3.60e-02,
617,1.72e-01,
618,1.72e-01,
619,-4.00e-02,
620,-5.20e-02,
621,1.72e-01,
622,1.68e-01,
623,-4.00e-02,
624,1.60e-01,
625,-4.40e-02,
626,1.16e-01,
627,-4.00e-02,
628,-3.60e-02,
629,1.24e-01,
630,-3.60e-02,
631,1.48e-01,
632,-3.60e-02,
633,1.48e-01,
634,1.12e-01,
635,-4.00e-02,
636,7.60e-02,
637,-4.00e-02,
638,-4.00e-02,
639,1.60e-01,
640,1.64e-01,
641,-4.00e-02,
642,-4.00e-02,
643,1.52e-01,
644,1.56e-01,
645,-4.00e-02,
646,-3.60e-02,
647,1.52e-01,
648,-3.60e-02,
649,1.60e-01,
650,9.60e-02,
651,-6.00e-02,
652,-6.40e-02,
653,1.60e-01,
654,1.56e-01,
655,-7.20e-02,
656,1.52e-01,
657,-7.60e-02,
658,1.64e-01,
659,-9.20e-02,
660,-9.20e-02,
661,1.68e-01,
662,-1.08e-01,
663,1.72e-01,
664,-6.00e-02,
665,1.48e-01,
666,-3.60e-02,
667,1.52e-01,
668,-4.00e-02,
669,1.44e-01,
670,-4.00e-02,
671,1.56e-01,
672,1.32e-01,
673,-3.60e-02,
674,-3.60e-02,
675,9.60e-02,
676,-3.60e-02,
677,1.12e-01,
678,-4.00e-02,
679,1.56e-01,
680,-4.00e-02,
681,1.52e-01,
682,-4.00e-02,
683,1.60e-01,
684,-3.60e-02,
685,1.28e-01,
686,-4.00e-02,
687,1.68e-01,
688,-4.00e-02,
689,1.56e-01,
690,-4.00e-02,
691,1.44e-01,
692,-4.00e-02,
693,1.48e-01,
694,-4.40e-02,
695,1.68e-01,
696,-4.00e-02,
697,1.72e-01,
698,1.64e-01,
699,-4.80e-02,
700,1.64e-01,
701,-5.60e-02,
702,-6.00e-02,
703,1.72e-01,
704,1.72e-01,
705,-6.80e-02,
706,-4.00e-02,
707,1.68e-01,
708,5.20e-02,
709,-4.00e-02,
710,-4.00e-02,
711,6.40e-02,
712,-3.60e-02,
713,4.40e-02,
714,1.00e-01,
715,-4.00e-02,
716,-3.60e-02,
717,1.00e-01,
718,-3.60e-02,
719,1.52e-01,
720,1.64e-01,
721,-4.40e-02,
722,1.56e-01,
723,-4.40e-02,
724,1.52e-01,
725,-4.00e-02,
726,-4.00e-02,
727,1.60e-01,
728,-4.00e-02,
729,1.64e-01,
730,1.60e-01,
731,-5.20e-02,
732,-6.40e-02,
733,1.60e-01,
734,1.60e-01,
735,-6.00e-02,
736,-7.20e-02,
737,1.60e-01,
738,-6.40e-02,
739,1.60e-01,
740,1.68e-01,
741,-8.40e-02,
742,1.68e-01,
743,-9.60e-02,
744,1.64e-01,
745,-1.08e-01,
746,-1.04e-01,
747,1.56e-01,
748,-4.00e-02,
749,1.52e-01,
750,8.80e-02,
751,-4.00e-02,
752,-3.60e-02,
753,1.20e-01,
754,1.04e-01,
755,-4.00e-02,
756,-3.60e-02,
757,1.24e-01,
758,-3.60e-02,
759,1.44e-01,
760,1.52e-01,
761,-4.00e-02,
762,-3.60e-02,
763,1.56e-01,
764,-3.60e-02,
765,1.44e-01,
766,-4.00e-02,
767,1.56e-01,
768,-3.60e-02,
769,1.60e-01,
770,-3.60e-02,
771,1.56e-01,
772,-3.60e-02,
773,1.60e-01,
774,-3.60e-02,
775,1.36e-01,
776,1.68e-01,
777,-4.00e-02,
778,-3.60e-02,
779,1.52e-01,
780,-4.00e-02,
781,1.60e-01,
782,-4.00e-02,
783,1.40e-01,
784,-4.00e-02,
785,1.76e-01,
786,1.48e-01,
787,-4.00e-02,
788,-4.00e-02,
789,9.20e-02,
790,-4.00e-02,
791,1.28e-01,
792,-3.20e-02,
793,1.32e-01,
794,-4.00e-02,
795,1.28e-01,
796,-3.20e-02,
797,9.20e-02,
798,-4.00e-02,
799,1.40e-01,
800,1.48e-01,
801,-4.00e-02,
802,-4.00e-02,
803,1.48e-01,
804,-4.00e-02,
805,1.52e-01,
806,-3.60e-02,
807,1.40e-01,
808,1.28e-01,
809,-3.60e-02,
810,-3.60e-02,
811,1.60e-01,
812,-3.60e-02,
813,1.56e-01,
814,1.52e-01,
815,-3.20e-02,
816,1.64e-01,
817,-6.40e-02,
818,-6.80e-02,
819,1.52e-01,
820,-7.60e-02,
821,1.60e-01,
822,1.68e-01,
823,-7.60e-02,
824,1.56e-01,
825,-8.80e-02,
826,1.36e-01,
827,-8.40e-02,
828,-4.40e-02,
829,1.56e-01,
830,1.72e-01,
831,-4.00e-02,
832,-4.00e-02,
833,1.00e-01,
834,5.20e-02,
835,-4.00e-02,
836,1.60e-01,
837,-3.60e-02,
838,1.48e-01,
839,-3.60e-02,
840,1.32e-01,
841,-3.20e-02,
842,-4.00e-02,
843,1.56e-01,
844,1.48e-01,
845,-3.60e-02,
846,-3.60e-02,
847,1.56e-01,
848,1.56e-01,
849,-3.60e-02,
850,-3.20e-02,
851,1.64e-01,
852,1.64e-01,
853,-3.60e-02,
854,1.60e-01,
855,-3.60e-02,
856,-4.00e-02,
857,1.68e-01,
858,-3.60e-02,
859,1.68e-01,
860,-3.60e-02,
861,1.64e-01,
862,-3.60e-02,
863,1.60e-01,
864,-3.60e-02,
865,1.64e-01,
866,1.72e-01,
867,-4.00e-02,
868,-3.60e-02,
869,1.32e-01,
870,-4.00e-02,
871,2.80e-02,
872,-4.00e-02,
873,4.40e-02,
874,-3.60e-02,
875,1.24e-01,
876,1.36e-01,
877,-3.60e-02,
878,-3.20e-02,
879,1.48e-01,
880,1.44e-01,
881,-3.60e-02,
882,-3.60e-02,
883,1.48e-01,
884,-3.20e-02,
885,1.56e-01,
886,-3.20e-02,
887,1.56e-01,
888,-3.60e-02,
889,1.56e-01,
890,1.64e-01,
891,-3.60e-02,
892,-3.20e-02,
893,1.64e-01,
894,1.48e-01,
895,-3.60e-02,
896,-3.60e-02,
897,1.36e-01,
898,-5.20e-02,
899,1.56e-01,
900,1.60e-01,
901,-6.40e-02,
902,-6.80e-02,
903,1.60e-01,
904,-7.20e-02,
905,1.64e-01,
906,-7.60e-02,
907,1.60e-01,
908,-4.40e-02,
909,1.24e-01,
910,-4.40e-02,
911,1.16e-01,
912,-4.00e-02,
913,1.36e-01,
914,-5.20e-02,
915,1.04e-01,
916,-3.60e-02,
917,8.40e-02,
918,-3.60e-02,
919,1.48e-01,
920,-3.60e-02,
921,1.40e-01,
922,-3.20e-02,
923,1.24e-01,
924,-3.20e-02,
925,1.36e-01,
926,1.52e-01,
927,-3.20e-02,
928,-3.20e-02,
929,1.52e-01,
930,1.52e-01,
931,-3.20e-02,
932,-3.20e-02,
933,1.52e-01,
934,1.60e-01,
935,-3.20e-02,
936,-3.20e-02,
937,1.68e-01,
938,1.56e-01,
939,-3.20e-02,
940,-3.60e-02,
941,1.68e-01,
942,-3.60e-02,
943,1.40e-01,
944,-3.60e-02,
945,1.68e-01,
946,-3.20e-02,
947,1.68e-01,
948,-3.60e-02,
949,1.12e-01,
950,-3.60e-02,
951,8.40e-02,
952,-3.60e-02,
953,1.72e-01,
954,-3.60e-02,
955,9.20e-02,
956,-3.60e-02,
957,1.12e-01,
958,-3.20e-02,
959,1.28e-01,
960,-3.60e-02,
961,1.20e-01,
962,1.48e-01,
963,-3.60e-02,
964,-3.20e-02,
965,1.48e-01,
966,-3.60e-02,
967,1.60e-01,
968,-3.20e-02,
969,1.56e-01,
970,1.52e-01,
971,-3.60e-02,
972,1.32e-01,
973,-3.60e-02,
974,-3.60e-02,
975,1.16e-01,
976,1.44e-01,
977,-3.60e-02,
978,1.56e-01,
979,-4.80e-02,
980,1.44e-01,
981,-3.60e-02,
982,-4.80e-02,
983,1.52e-01,
984,-6.40e-02,
985,1.60e-01,
986,-6.40e-02,
987,1.20e-01,
988,-4.40e-02,
989,1.32e-01,
990,1.20e-01,
991,-5.20e-02,
992,-5.60e-02,
993,1.60e-01,
994,-5.60e-02,
995,1.56e-01,
996,-4.80e-02,
997,1.52e-01,
998,-4.00e-02,
999,1.48e-01,
1000,-3.60e-02,
1001,1.44e-01,
1002,1.48e-01,
1003,-3.60e-02,
1004,-3.20e-02,
1005,1.24e-01,
1006,-3.20e-02,
1007,1.32e-01,
1008,-3.20e-02,
1009,1.48e-01,
1010,-3.20e-02,
1011,1.48e-01,
1012,1.36e-01,
1013,-3.20e-02,
1014,-3.20e-02,
1015,1.52e-01,
1016,1.52e-01,
1017,-3.20e-02,
1018,1.56e-01,
1019,-3.60e-02,
1020,1.56e-01,
1021,-3.60e-02,
1022,1.64e-01,
1023,-3.60e-02,
1024,1.68e-01,
1025,-4.00e-02,
1026,8.40e-02,
1027,-3.60e-02,
1028,8.80e-02,
1029,-3.60e-02,
1030,8.00e-02,
1031,-3.60e-02,
1032,1.36e-01,
1033,-3.60e-02,
1034,-3.60e-02,
1035,3.20e-02,
1036,-3.60e-02,
1037,2.80e-02,
1038,-4.00e-02,
1039,1.68e-01,
1040,-3.60e-02,
1041,1.60e-01,
1042,1.44e-01,
1043,-3.60e-02,
1044,-3.60e-02,
1045,1.52e-01,
1046,-3.60e-02,
1047,1.28e-01,
1048,-3.20e-02,
1049,1.44e-01,
1050,1.48e-01,
1051,-3.20e-02,
1052,-3.20e-02,
1053,1.56e-01,
1054,1.52e-01,
1055,-3.60e-02,
1056,-3.60e-02,
1057,1.52e-01,
1058,1.36e-01,
1059,-4.00e-02,
1060,-3.60e-02,
1061,1.56e-01,
1062,-3.60e-02,
1063,1.48e-01,
1064,-5.20e-02,
1065,1.44e-01,
1066,-5.20e-02,
1067,1.60e-01,
1068,-4.00e-02,
1069,1.48e-01,
1070,1.16e-01,
1071,-6.40e-02,
1072,1.12e-01,
1073,-5.20e-02,
1074,1.64e-01,
1075,-6.00e-02,
1076,-4.00e-02,
1077,1.24e-01,
1078,-6.40e-02,
1079,1.60e-01,
1080,-6.40e-02,
1081,1.64e-01,
1082,-3.60e-02,
1083,1.52e-01,
1084,1.44e-01,
1085,-3.20e-02,
1086,1.44e-01,
1087,-3.20e-02,
1088,1.32e-01,
1089,-3.20e-02,
1090,-3.20e-02,
1091,1.44e-01,
1092,-2.80e-02,
1093,1.48e-01,
1094,1.44e-01,
1095,-3.20e-02,
1096,1.32e-01,
1097,-3.60e-02,
1098,-3.20e-02,
1099,1.64e-01,
1100,-4.00e-02,
1101,1.52e-01,
1102,-3.20e-02,
1103,1.60e-01,
1104,1.60e-01,
1105,-3.60e-02,
1106,-3.20e-02,
1107,1.68e-01,
1108,1.64e-01,
1109,-3.60e-02,
1110,8.40e-02,
1111,-3.20e-02,
1112,1.28e-01,
1113,-3.60e-02,
1114,2.40e-02,
1115,-3.60e-02,
1116,-3.60e-02,
1117,8.00e-02,
1118,1.68e-01,
1119,-7.20e-02,
1120,1.76e-01,
1121,-6.80e-02,
1122,-4.40e-02,
1123,1.72e-01,
1124,1.60e-01,
1125,-3.60e-02,
1126,-3.60e-02,
1127,1.56e-01,
1128,1.52e-01,
1129,-3.60e-02,
1130,-4.00e-02,
1131,1.32e-01,
1132,-4.00e-02,
1133,1.60e-01,
1134,-3.60e-02,
1135,1.44e-01,
1136,1.56e-01,
1137,-4.00e-02,
1138,1.44e-01,
1139,-4.00e-02,
1140,-3.60e-02,
1141,1.44e-01,
1142,1.56e-01,
1143,-5.60e-02,
1144,1.24e-01,
1145,-6.00e-02,
1146,1.32e-01,
1147,-6.40e-02,
1148,-5.20e-02,
1149,1.44e-01,
1150,-6.00e-02,
1151,1.40e-01,
1152,1.08e-01,
1153,-6.40e-02,
1154,1.64e-01,
1155,-4.40e-02,
1156,-4.00e-02,
1157,1.12e-01,
1158,1.72e-01,
1159,-8.40e-02,
1160,1.68e-01,
1161,-9.20e-02,
1162,-9.60e-02,
1163,1.64e-01,
1164,-5.60e-02,
1165,1.28e-01,
1166,-3.60e-02,
1167,1.60e-01,
1168,-4.00e-02,
1169,1.56e-01,
1170,1.56e-01,
1171,-4.00e-02,
1172,1.60e-01,
1173,-3.60e-02,
1174,-3.60e-02,
1175,1.48e-01,
1176,-3.60e-02,
1177,1.64e-01,
1178,-3.60e-02,
1179,1.52e-01,
1180,-4.00e-02,
1181,1.00e-01,
1182,-4.00e-02,
1183,1.68e-01,
1184,-4.00e-02,
1185,1.68e-01,
1186,-4.00e-02,
1187,1.68e-01,
1188,-4.00e-02,
1189,1.64e-01,
1190,-4.00e-02,
1191,1.56e-01,
1192,-4.00e-02,
1193,1.32e-01,
1194,-4.00e-02,
1195,8.40e-02,
1196,-4.00e-02,
1197,2.00e-02,
1198,-4.00e-02,
1199,1.72e-01,
