Laptop_1/LAPTOP_CHRGR_1_ON_CLOSE/time domain/NewFile22.csv

X,CH1,Start,Increment,
Sequence,Volt,-1.500000e-01,2.000000e-04
0,-3.60e-02,
1,1.60e-01,
2,1.52e-01,
3,-4.00e-02,
4,1.44e-01,
5,-3.60e-02,
6,1.64e-01,
7,-3.20e-02,
8,-3.20e-02,
9,1.36e-01,
10,1.44e-01,
11,-3.60e-02,
12,-3.60e-02,
13,1.44e-01,
14,-3.60e-02,
15,1.40e-01,
16,-4.40e-02,
17,1.40e-01,
18,-4.80e-02,
19,1.16e-01,
20,-4.40e-02,
21,1.36e-01,
22,1.20e-01,
23,-4.00e-02,
24,-4.00e-02,
25,1.24e-01,
26,-3.20e-02,
27,1.32e-01,
28,9.20e-02,
29,-2.80e-02,
30,7.20e-02,
31,-2.80e-02,
32,8.00e-02,
33,-2.80e-02,
34,-2.40e-02,
35,8.80e-02,
36,1.40e-01,
37,-2.80e-02,
38,-2.80e-02,
39,1.52e-01,
40,-2.80e-02,
41,1.56e-01,
42,-3.20e-02,
43,1.56e-01,
44,-2.80e-02,
45,1.52e-01,
46,1.64e-01,
47,-2.80e-02,
48,1.44e-01,
49,-3.20e-02,
50,-2.80e-02,
51,1.40e-01,
52,-3.20e-02,
53,1.20e-01,
54,1.24e-01,
55,-2.80e-02,
56,-2.80e-02,
57,1.24e-01,
58,1.16e-01,
59,-2.80e-02,
60,1.20e-01,
61,-2.80e-02,
62,-2.80e-02,
63,1.20e-01,
64,-2.80e-02,
65,1.20e-01,
66,-2.40e-02,
67,1.32e-01,
68,-2.80e-02,
69,1.32e-01,
70,-2.40e-02,
71,1.24e-01,
72,-2.80e-02,
73,1.16e-01,
74,-3.20e-02,
75,8.40e-02,
76,-2.80e-02,
77,1.08e-01,
78,-2.80e-02,
79,6.40e-02,
80,1.36e-01,
81,-2.80e-02,
82,-3.20e-02,
83,1.44e-01,
84,-2.80e-02,
85,1.40e-01,
86,-3.20e-02,
87,1.56e-01,
88,-2.80e-02,
89,1.60e-01,
90,1.20e-01,
91,-3.60e-02,
92,1.36e-01,
93,-3.60e-02,
94,-4.00e-02,
95,1.28e-01,
96,1.28e-01,
97,-4.40e-02,
98,-4.40e-02,
99,1.36e-01,
100,-4.00e-02,
101,1.24e-01,
102,-5.20e-02,
103,1.40e-01,
104,1.20e-01,
105,-4.80e-02,
106,1.24e-01,
107,-4.00e-02,
108,-3.60e-02,
109,1.32e-01,
110,-2.80e-02,
111,1.36e-01,
112,-2.80e-02,
113,8.00e-02,
114,1.40e-01,
115,-3.20e-02,
116,-2.80e-02,
117,1.36e-01,
118,1.48e-01,
119,-2.80e-02,
120,-2.40e-02,
121,1.48e-01,
122,-2.80e-02,
123,1.48e-01,
124,1.56e-01,
125,-2.80e-02,
126,-2.80e-02,
127,1.64e-01,
128,-2.80e-02,
129,1.56e-01,
130,1.60e-01,
131,-2.80e-02,
132,-2.80e-02,
133,1.36e-01,
134,1.24e-01,
135,-2.80e-02,
136,-2.40e-02,
137,1.24e-01,
138,1.24e-01,
139,-2.80e-02,
140,-2.40e-02,
141,1.32e-01,
142,1.20e-01,
143,-2.80e-02,
144,1.24e-01,
145,-3.20e-02,
146,-3.20e-02,
147,1.12e-01,
148,-2.80e-02,
149,1.24e-01,
150,-2.80e-02,
151,1.24e-01,
152,-3.20e-02,
153,1.20e-01,
154,1.36e-01,
155,-2.80e-02,
156,-2.80e-02,
157,1.24e-01,
158,1.40e-01,
159,-2.80e-02,
160,-3.20e-02,
161,1.48e-01,
162,-2.80e-02,
163,1.52e-01,
164,-2.80e-02,
165,1.60e-01,
166,1.08e-01,
167,-3.20e-02,
168,-3.20e-02,
169,1.60e-01,
170,1.68e-01,
171,-3.20e-02,
172,-2.80e-02,
173,1.52e-01,
174,-4.00e-02,
175,1.24e-01,
176,-3.60e-02,
177,1.24e-01,
178,1.20e-01,
179,-4.40e-02,
180,1.28e-01,
181,-4.80e-02,
182,1.36e-01,
183,-4.80e-02,
184,-4.40e-02,
185,1.24e-01,
186,-4.40e-02,
187,1.16e-01,
188,-3.20e-02,
189,1.40e-01,
190,-3.20e-02,
191,1.40e-01,
192,-2.80e-02,
193,1.32e-01,
194,1.28e-01,
195,-3.20e-02,
196,-3.20e-02,
197,1.44e-01,
198,-2.80e-02,
199,1.48e-01,
200,-2.80e-02,
201,1.44e-01,
202,1.32e-01,
203,-2.80e-02,
204,-2.80e-02,
205,1.48e-01,
206,-2.80e-02,
207,1.52e-01,
208,1.52e-01,
209,-3.20e-02,
210,-3.20e-02,
211,1.56e-01,
212,-2.40e-02,
213,1.44e-01,
214,-3.20e-02,
215,1.56e-01,
216,1.32e-01,
217,-2.40e-02,
218,-2.40e-02,
219,1.32e-01,
220,1.24e-01,
221,-2.80e-02,
222,1.16e-01,
223,-2.80e-02,
224,-2.40e-02,
225,1.24e-01,
226,-2.40e-02,
227,1.24e-01,
228,1.20e-01,
229,-2.80e-02,
230,-2.80e-02,
231,1.40e-01,
232,-3.20e-02,
233,4.00e-02,
234,-2.80e-02,
235,1.00e-01,
236,-2.80e-02,
237,1.52e-01,
238,-2.80e-02,
239,1.44e-01,
240,1.36e-01,
241,-3.20e-02,
242,-2.80e-02,
243,1.52e-01,
244,-3.20e-02,
245,1.52e-01,
246,-2.80e-02,
247,1.56e-01,
248,-2.80e-02,
249,1.56e-01,
250,1.64e-01,
251,-3.20e-02,
252,-3.20e-02,
253,1.56e-01,
254,1.64e-01,
255,-2.80e-02,
256,1.56e-01,
257,-4.40e-02,
258,-4.40e-02,
259,1.32e-01,
260,-4.40e-02,
261,1.36e-01,
262,-5.20e-02,
263,1.32e-01,
264,1.44e-01,
265,-4.40e-02,
266,-4.40e-02,
267,1.40e-01,
268,-4.00e-02,
269,9.20e-02,
270,1.24e-01,
271,-3.60e-02,
272,-2.80e-02,
273,1.08e-01,
274,-3.60e-02,
275,1.44e-01,
276,-3.20e-02,
277,1.20e-01,
278,1.28e-01,
279,-2.80e-02,
280,1.52e-01,
281,-2.80e-02,
282,-2.80e-02,
283,1.56e-01,
284,1.56e-01,
285,-3.20e-02,
286,-2.80e-02,
287,1.56e-01,
288,1.48e-01,
289,-2.80e-02,
290,1.52e-01,
291,-2.80e-02,
292,-2.80e-02,
293,1.48e-01,
294,-2.80e-02,
295,1.40e-01,
296,1.40e-01,
297,-3.20e-02,
298,-2.80e-02,
299,1.52e-01,
300,1.44e-01,
301,-2.80e-02,
302,-2.80e-02,
303,1.32e-01,
304,1.32e-01,
305,-2.80e-02,
306,1.20e-01,
307,-2.80e-02,
308,-2.80e-02,
309,1.00e-01,
310,1.28e-01,
311,-2.40e-02,
312,1.24e-01,
313,-3.20e-02,
314,-2.80e-02,
315,1.28e-01,
316,-2.80e-02,
317,1.20e-01,
318,-2.80e-02,
319,1.20e-01,
320,-2.80e-02,
321,1.44e-01,
322,-2.80e-02,
323,1.52e-01,
324,-2.80e-02,
325,1.48e-01,
326,-2.80e-02,
327,1.56e-01,
328,-2.80e-02,
329,1.52e-01,
330,-2.80e-02,
331,1.60e-01,
332,-2.80e-02,
333,1.44e-01,
334,1.48e-01,
335,-2.80e-02,
336,-2.80e-02,
337,1.56e-01,
338,-2.80e-02,
339,1.68e-01,
340,1.60e-01,
341,-4.00e-02,
342,1.24e-01,
343,-4.40e-02,
344,1.28e-01,
345,-5.20e-02,
346,-4.80e-02,
347,1.28e-01,
348,-3.20e-02,
349,1.28e-01,
350,-2.80e-02,
351,1.24e-01,
352,-3.60e-02,
353,1.00e-01,
354,-3.60e-02,
355,1.44e-01,
356,-3.20e-02,
357,1.40e-01,
358,-2.80e-02,
359,1.36e-01,
360,-2.80e-02,
361,1.12e-01,
362,1.36e-01,
363,-3.20e-02,
364,-2.40e-02,
365,1.40e-01,
366,-2.80e-02,
367,1.44e-01,
368,-2.80e-02,
369,1.32e-01,
370,-2.80e-02,
371,1.44e-01,
372,1.28e-01,
373,-2.80e-02,
374,-2.80e-02,
375,1.44e-01,
376,-2.80e-02,
377,1.52e-01,
378,-2.80e-02,
379,1.52e-01,
380,-2.80e-02,
381,1.52e-01,
382,-2.80e-02,
383,1.32e-01,
384,1.24e-01,
385,-2.80e-02,
386,-2.40e-02,
387,1.24e-01,
388,1.04e-01,
389,-2.80e-02,
390,-2.80e-02,
391,1.16e-01,
392,-2.80e-02,
393,1.28e-01,
394,1.20e-01,
395,-2.80e-02,
396,-2.80e-02,
397,1.16e-01,
398,-2.80e-02,
399,8.00e-02,
400,1.44e-01,
401,-2.80e-02,
402,1.52e-01,
403,-2.80e-02,
404,-2.80e-02,
405,1.52e-01,
406,-3.20e-02,
407,1.60e-01,
408,-3.20e-02,
409,1.48e-01,
410,1.64e-01,
411,-2.80e-02,
412,-3.20e-02,
413,1.40e-01,
414,-3.60e-02,
415,1.60e-01,
416,1.72e-01,
417,-3.60e-02,
418,1.60e-01,
419,-3.60e-02,
420,-3.60e-02,
421,1.76e-01,
422,1.64e-01,
423,-3.60e-02,
424,1.52e-01,
425,-4.80e-02,
426,-4.00e-02,
427,1.12e-01,
428,-3.60e-02,
429,1.08e-01,
430,-4.00e-02,
431,1.24e-01,
432,1.12e-01,
433,-3.20e-02,
434,-3.20e-02,
435,8.00e-02,
436,1.16e-01,
437,-3.20e-02,
438,-2.80e-02,
439,1.16e-01,
440,-2.80e-02,
441,1.44e-01,
442,-2.80e-02,
443,1.44e-01,
444,-2.80e-02,
445,1.44e-01,
446,-3.60e-02,
447,1.48e-01,
448,-2.40e-02,
449,1.44e-01,
450,1.32e-01,
451,-3.20e-02,
452,-3.20e-02,
453,1.32e-01,
454,1.12e-01,
455,-2.40e-02,
456,1.40e-01,
457,-2.80e-02,
458,-2.80e-02,
459,1.48e-01,
460,-2.80e-02,
461,1.48e-01,
462,1.56e-01,
463,-2.40e-02,
464,1.40e-01,
465,-2.80e-02,
466,1.36e-01,
467,-2.40e-02,
468,-2.40e-02,
469,1.24e-01,
470,1.24e-01,
471,-2.80e-02,
472,1.12e-01,
473,-2.80e-02,
474,-2.80e-02,
475,1.12e-01,
476,1.20e-01,
477,-3.20e-02,
478,-2.80e-02,
479,1.28e-01,
480,-2.80e-02,
481,1.36e-01,
482,-2.80e-02,
483,1.32e-01,
484,-2.80e-02,
485,1.36e-01,
486,-2.40e-02,
487,1.40e-01,
488,-2.40e-02,
489,1.36e-01,
490,-2.80e-02,
491,1.36e-01,
492,1.44e-01,
493,-3.20e-02,
494,-2.80e-02,
495,1.60e-01,
496,1.48e-01,
497,-2.80e-02,
498,-3.20e-02,
499,1.60e-01,
500,-3.20e-02,
501,1.68e-01,
502,-2.80e-02,
503,1.68e-01,
504,-3.20e-02,
505,1.68e-01,
506,1.32e-01,
507,-3.20e-02,
508,1.24e-01,
509,-4.00e-02,
510,7.60e-02,
511,-4.40e-02,
512,-2.80e-02,
513,1.16e-01,
514,1.40e-01,
515,-3.20e-02,
516,1.28e-01,
517,-3.20e-02,
518,1.24e-01,
519,-3.20e-02,
520,-3.20e-02,
521,1.40e-01,
522,-2.80e-02,
523,1.44e-01,
524,1.24e-01,
525,-3.20e-02,
526,1.28e-01,
527,-2.80e-02,
528,-3.20e-02,
529,1.28e-01,
530,1.32e-01,
531,-2.80e-02,
532,1.36e-01,
533,-2.80e-02,
534,1.32e-01,
535,-2.80e-02,
536,-2.40e-02,
537,1.32e-01,
538,-2.80e-02,
539,1.44e-01,
540,1.40e-01,
541,-3.20e-02,
542,-2.80e-02,
543,1.52e-01,
544,1.52e-01,
545,-2.80e-02,
546,8.80e-02,
547,-2.80e-02,
548,-2.80e-02,
549,1.08e-01,
550,-2.40e-02,
551,1.28e-01,
552,1.12e-01,
553,-2.80e-02,
554,-2.80e-02,
555,1.24e-01,
556,1.16e-01,
557,-2.40e-02,
558,-2.80e-02,
559,1.20e-01,
560,-2.40e-02,
561,1.36e-01,
562,-2.40e-02,
563,1.28e-01,
564,1.32e-01,
565,-3.20e-02,
566,-2.80e-02,
567,1.32e-01,
568,-2.80e-02,
569,1.52e-01,
570,1.56e-01,
571,-3.20e-02,
572,1.44e-01,
573,-3.20e-02,
574,1.52e-01,
575,-3.20e-02,
576,1.60e-01,
577,-3.20e-02,
578,1.64e-01,
579,-3.20e-02,
580,-3.20e-02,
581,1.68e-01,
582,1.60e-01,
583,-3.20e-02,
584,1.64e-01,
585,-3.20e-02,
586,-3.20e-02,
587,1.36e-01,
588,-3.20e-02,
589,9.20e-02,
590,-3.20e-02,
591,1.60e-01,
592,9.20e-02,
593,-3.60e-02,
594,1.16e-01,
595,-4.00e-02,
596,-3.60e-02,
597,1.20e-01,
598,1.28e-01,
599,-2.80e-02,
600,1.40e-01,
601,-3.60e-02,
602,-3.20e-02,
603,1.40e-01,
604,-3.20e-02,
605,1.28e-01,
606,-2.80e-02,
607,1.36e-01,
608,-2.80e-02,
609,1.28e-01,
610,-3.20e-02,
611,1.48e-01,
612,1.28e-01,
613,-2.80e-02,
614,1.24e-01,
615,-2.40e-02,
616,-2.80e-02,
617,1.40e-01,
618,-2.80e-02,
619,1.40e-01,
620,1.36e-01,
621,-2.80e-02,
622,-2.80e-02,
623,1.44e-01,
624,-2.40e-02,
625,1.40e-01,
626,7.60e-02,
627,-2.80e-02,
628,-2.80e-02,
629,6.80e-02,
630,1.28e-01,
631,-2.80e-02,
632,-2.80e-02,
633,1.36e-01,
634,1.20e-01,
635,-2.80e-02,
636,1.24e-01,
637,-2.40e-02,
638,1.24e-01,
639,-2.80e-02,
640,-2.80e-02,
641,1.28e-01,
642,1.24e-01,
643,-2.80e-02,
644,-2.80e-02,
645,1.36e-01,
646,-2.80e-02,
647,1.32e-01,
648,-2.80e-02,
649,1.32e-01,
650,1.36e-01,
651,-3.20e-02,
652,-2.80e-02,
653,1.36e-01,
654,-2.80e-02,
655,1.48e-01,
656,1.44e-01,
657,-3.60e-02,
658,-3.20e-02,
659,1.44e-01,
660,1.44e-01,
661,-2.80e-02,
662,-3.20e-02,
663,1.56e-01,
664,-3.20e-02,
665,1.44e-01,
666,1.44e-01,
667,-2.80e-02,
668,7.60e-02,
669,-2.80e-02,
670,-3.20e-02,
671,1.28e-01,
672,1.32e-01,
673,-2.80e-02,
674,-3.60e-02,
675,1.32e-01,
676,-4.40e-02,
677,1.28e-01,
678,-3.20e-02,
679,1.20e-01,
680,-3.20e-02,
681,1.24e-01,
682,1.28e-01,
683,-3.60e-02,
684,1.20e-01,
685,-3.20e-02,
686,-2.80e-02,
687,1.24e-01,
688,-2.40e-02,
689,1.12e-01,
690,-2.80e-02,
691,1.24e-01,
692,-2.80e-02,
693,1.28e-01,
694,1.28e-01,
695,-3.20e-02,
696,-3.20e-02,
697,1.36e-01,
698,1.24e-01,
699,-2.80e-02,
700,-2.40e-02,
701,1.08e-01,
702,-3.20e-02,
703,1.40e-01,
704,1.28e-01,
705,-2.80e-02,
706,1.40e-01,
707,-2.80e-02,
708,1.36e-01,
709,-2.80e-02,
710,-2.40e-02,
711,1.32e-01,
712,-2.40e-02,
713,1.48e-01,
714,1.40e-01,
715,-3.20e-02,
716,1.28e-01,
717,-2.80e-02,
718,-2.80e-02,
719,1.36e-01,
720,-2.80e-02,
721,1.36e-01,
722,-2.80e-02,
723,1.36e-01,
724,-2.80e-02,
725,1.28e-01,
726,-2.80e-02,
727,1.44e-01,
728,1.20e-01,
729,-2.80e-02,
730,1.40e-01,
731,-2.80e-02,
732,1.44e-01,
733,-3.20e-02,
734,-2.80e-02,
735,1.56e-01,
736,-2.80e-02,
737,1.40e-01,
738,-3.20e-02,
739,1.52e-01,
740,-3.20e-02,
741,1.56e-01,
742,-3.20e-02,
743,1.52e-01,
744,-2.80e-02,
745,1.56e-01,
746,-3.60e-02,
747,7.60e-02,
748,9.60e-02,
749,-3.20e-02,
750,-2.80e-02,
751,1.68e-01,
752,7.20e-02,
753,-3.20e-02,
754,-3.60e-02,
755,7.20e-02,
756,1.56e-01,
757,-2.80e-02,
758,-3.20e-02,
759,1.12e-01,
760,-4.00e-02,
761,1.24e-01,
762,1.24e-01,
763,-3.20e-02,
764,-3.20e-02,
765,1.24e-01,
766,-2.80e-02,
767,1.24e-01,
768,-2.80e-02,
769,1.28e-01,
770,-2.40e-02,
771,1.24e-01,
772,1.24e-01,
773,-3.20e-02,
774,-3.20e-02,
775,1.28e-01,
776,1.32e-01,
777,-3.20e-02,
778,-2.80e-02,
779,1.24e-01,
780,-2.40e-02,
781,1.32e-01,
782,-2.80e-02,
783,1.36e-01,
784,1.28e-01,
785,-2.80e-02,
786,1.32e-01,
787,-2.40e-02,
788,-2.40e-02,
789,1.36e-01,
790,-2.40e-02,
791,1.20e-01,
792,1.36e-01,
793,-2.80e-02,
794,1.32e-01,
795,-2.80e-02,
796,-2.80e-02,
797,6.80e-02,
798,-3.20e-02,
799,1.28e-01,
800,1.40e-01,
801,-3.20e-02,
802,1.36e-01,
803,-2.80e-02,
804,1.24e-01,
805,-2.80e-02,
806,1.36e-01,
807,-2.80e-02,
808,-2.40e-02,
809,1.36e-01,
810,1.28e-01,
811,-3.20e-02,
812,1.36e-01,
813,-3.20e-02,
814,-2.80e-02,
815,1.40e-01,
816,1.36e-01,
817,-3.20e-02,
818,-3.60e-02,
819,1.48e-01,
820,1.52e-01,
821,-3.20e-02,
822,-3.60e-02,
823,1.48e-01,
824,-3.60e-02,
825,1.56e-01,
826,1.24e-01,
827,-3.60e-02,
828,-4.40e-02,
829,1.28e-01,
830,-2.80e-02,
831,1.40e-01,
832,-2.80e-02,
833,1.16e-01,
834,-2.80e-02,
835,1.56e-01,
836,1.32e-01,
837,-2.80e-02,
838,-2.80e-02,
839,1.56e-01,
840,1.56e-01,
841,-3.20e-02,
842,1.28e-01,
843,-2.80e-02,
844,-2.80e-02,
845,1.24e-01,
846,1.16e-01,
847,-2.80e-02,
848,1.16e-01,
849,-2.80e-02,
850,-2.80e-02,
851,1.24e-01,
852,1.20e-01,
853,-2.80e-02,
854,-2.80e-02,
855,1.20e-01,
856,-2.40e-02,
857,1.12e-01,
858,-2.80e-02,
859,1.16e-01,
860,-2.80e-02,
861,1.32e-01,
862,-2.40e-02,
863,1.32e-01,
864,1.28e-01,
865,-2.80e-02,
866,-2.80e-02,
867,1.32e-01,
868,-2.80e-02,
869,1.28e-01,
870,-2.80e-02,
871,1.44e-01,
872,1.12e-01,
873,-2.80e-02,
874,-2.40e-02,
875,1.24e-01,
876,1.32e-01,
877,-2.80e-02,
878,-2.80e-02,
879,1.48e-01,
880,-2.80e-02,
881,1.60e-01,
882,-3.20e-02,
883,1.56e-01,
884,1.56e-01,
885,-3.20e-02,
886,1.32e-01,
887,-2.80e-02,
888,-2.80e-02,
889,1.28e-01,
890,-3.20e-02,
891,1.44e-01,
892,1.48e-01,
893,-3.20e-02,
894,1.48e-01,
895,-3.60e-02,
896,-3.20e-02,
897,1.44e-01,
898,-3.60e-02,
899,1.40e-01,
900,1.40e-01,
901,-3.60e-02,
902,-2.80e-02,
903,1.44e-01,
904,1.40e-01,
905,-3.60e-02,
906,-3.60e-02,
907,1.52e-01,
908,-4.00e-02,
909,1.48e-01,
910,-4.00e-02,
911,8.80e-02,
912,9.20e-02,
913,-2.80e-02,
914,9.20e-02,
915,-3.20e-02,
916,1.68e-01,
917,-3.60e-02,
918,-3.60e-02,
919,1.48e-01,
920,1.60e-01,
921,-3.20e-02,
922,-2.80e-02,
923,1.68e-01,
924,1.44e-01,
925,-2.80e-02,
926,-2.80e-02,
927,1.36e-01,
928,1.28e-01,
929,-2.80e-02,
930,1.24e-01,
931,-3.20e-02,
932,-2.80e-02,
933,1.28e-01,
934,-2.40e-02,
935,1.28e-01,
936,-2.80e-02,
937,1.32e-01,
938,1.32e-01,
939,-2.80e-02,
940,1.28e-01,
941,-2.80e-02,
942,-2.80e-02,
943,1.36e-01,
944,-2.80e-02,
945,1.36e-01,
946,1.32e-01,
947,-2.40e-02,
948,-2.40e-02,
949,1.36e-01,
950,-2.80e-02,
951,1.20e-01,
952,1.44e-01,
953,-3.20e-02,
954,-2.80e-02,
955,1.52e-01,
956,-3.60e-02,
957,1.28e-01,
958,-2.80e-02,
959,1.52e-01,
960,1.60e-01,
961,-3.20e-02,
962,-3.20e-02,
963,1.60e-01,
964,1.44e-01,
965,-3.60e-02,
966,-2.80e-02,
967,1.52e-01,
968,-2.80e-02,
969,1.36e-01,
970,1.44e-01,
971,-3.20e-02,
972,-2.80e-02,
973,1.48e-01,
974,-3.20e-02,
975,1.44e-01,
976,-3.20e-02,
977,1.52e-01,
978,1.48e-01,
979,-3.60e-02,
980,1.44e-01,
981,-4.00e-02,
982,-4.00e-02,
983,1.48e-01,
984,-4.40e-02,
985,1.52e-01,
986,-3.60e-02,
987,9.20e-02,
988,1.20e-01,
989,-3.60e-02,
990,-3.60e-02,
991,1.64e-01,
992,1.60e-01,
993,-3.20e-02,
994,9.20e-02,
995,-3.20e-02,
996,-3.20e-02,
997,1.16e-01,
998,-2.80e-02,
999,1.40e-01,
1000,-3.20e-02,
1001,1.60e-01,
1002,1.68e-01,
1003,-3.20e-02,
1004,1.60e-01,
1005,-3.20e-02,
1006,1.12e-01,
1007,-3.20e-02,
1008,-3.20e-02,
1009,1.36e-01,
1010,-2.80e-02,
1011,1.24e-01,
1012,1.32e-01,
1013,-2.80e-02,
1014,-2.80e-02,
1015,1.16e-01,
1016,-2.80e-02,
1017,1.20e-01,
1018,-3.20e-02,
1019,1.32e-01,
1020,-2.80e-02,
1021,1.28e-01,
1022,1.24e-01,
1023,-2.80e-02,
1024,-2.80e-02,
1025,1.32e-01,
1026,-2.80e-02,
1027,1.32e-01,
1028,-2.80e-02,
1029,1.24e-01,
1030,-3.20e-02,
1031,1.36e-01,
1032,1.36e-01,
1033,-2.80e-02,
1034,1.40e-01,
1035,-2.80e-02,
1036,-2.80e-02,
1037,7.20e-02,
1038,-2.80e-02,
1039,1.52e-01,
1040,1.56e-01,
1041,-2.80e-02,
1042,1.56e-01,
1043,-3.20e-02,
1044,-3.20e-02,
1045,1.56e-01,
1046,-3.60e-02,
1047,1.60e-01,
1048,-3.60e-02,
1049,1.60e-01,
1050,1.56e-01,
1051,-3.60e-02,
1052,-2.80e-02,
1053,1.28e-01,
1054,-3.20e-02,
1055,1.48e-01,
1056,-3.20e-02,
1057,1.44e-01,
1058,-4.00e-02,
1059,1.40e-01,
1060,-3.60e-02,
1061,1.44e-01,
1062,-4.00e-02,
1063,1.40e-01,
1064,1.20e-01,
1065,-4.00e-02,
1066,-4.40e-02,
1067,1.32e-01,
1068,-4.00e-02,
1069,9.20e-02,
1070,-2.80e-02,
1071,1.08e-01,
1072,-3.20e-02,
1073,1.00e-01,
1074,-3.20e-02,
1075,1.36e-01,
1076,1.44e-01,
1077,-3.60e-02,
1078,-2.80e-02,
1079,1.44e-01,
1080,-3.20e-02,
1081,1.36e-01,
1082,-2.80e-02,
1083,1.64e-01,
1084,-2.80e-02,
1085,1.52e-01,
1086,1.48e-01,
1087,-2.80e-02,
1088,1.36e-01,
1089,-3.20e-02,
1090,1.64e-01,
1091,-3.20e-02,
1092,-2.80e-02,
1093,1.00e-01,
1094,-2.80e-02,
1095,1.28e-01,
1096,-2.80e-02,
1097,1.28e-01,
1098,-2.80e-02,
1099,1.24e-01,
1100,-2.40e-02,
1101,1.24e-01,
1102,-2.40e-02,
1103,1.24e-01,
1104,-2.80e-02,
1105,1.28e-01,
1106,1.04e-01,
1107,-2.40e-02,
1108,1.08e-01,
1109,-2.80e-02,
1110,-2.80e-02,
1111,1.36e-01,
1112,-2.80e-02,
1113,1.32e-01,
1114,-2.80e-02,
1115,1.36e-01,
1116,-2.80e-02,
1117,1.24e-01,
1118,1.44e-01,
1119,-2.80e-02,
1120,-2.80e-02,
1121,1.48e-01,
1122,1.52e-01,
1123,-2.80e-02,
1124,-3.20e-02,
1125,1.64e-01,
1126,1.64e-01,
1127,-3.20e-02,
1128,1.56e-01,
1129,-3.20e-02,
1130,1.56e-01,
1131,-3.60e-02,
1132,1.60e-01,
1133,-3.20e-02,
1134,1.44e-01,
1135,-2.80e-02,
1136,1.44e-01,
1137,-3.60e-02,
1138,1.36e-01,
1139,-3.60e-02,
1140,1.24e-01,
1141,-4.40e-02,
1142,1.36e-01,
1143,-4.00e-02,
1144,1.36e-01,
1145,-4.00e-02,
1146,-4.40e-02,
1147,1.24e-01,
1148,-4.80e-02,
1149,1.04e-01,
1150,-4.40e-02,
1151,1.52e-01,
1152,-4.40e-02,
1153,1.32e-01,
1154,-2.80e-02,
1155,1.40e-01,
1156,-3.20e-02,
1157,1.16e-01,
1158,-3.20e-02,
1159,1.48e-01,
1160,-3.20e-02,
1161,1.28e-01,
1162,-2.80e-02,
1163,1.44e-01,
1164,1.48e-01,
1165,-3.20e-02,
1166,-2.80e-02,
1167,1.40e-01,
1168,-2.40e-02,
1169,1.44e-01,
1170,-2.80e-02,
1171,1.52e-01,
1172,-2.40e-02,
1173,1.48e-01,
1174,-2.80e-02,
1175,1.28e-01,
1176,-2.40e-02,
1177,1.12e-01,
1178,-2.80e-02,
1179,1.20e-01,
1180,1.20e-01,
1181,-2.40e-02,
1182,-2.80e-02,
1183,1.20e-01,
1184,-2.80e-02,
1185,1.20e-01,
1186,1.20e-01,
1187,-2.40e-02,
1188,-2.40e-02,
1189,1.16e-01,
1190,-2.40e-02,
1191,1.28e-01,
1192,1.24e-01,
1193,-2.80e-02,
1194,-2.40e-02,
1195,1.28e-01,
1196,1.28e-01,
1197,-2.80e-02,
1198,1.32e-01,
1199,-2.80e-02,
