Laptop_1/LAPTOP_CHRGR_1_ON_CLOSE/time domain/NewFile10(1).csv

X,CH1,Start,Increment,
Sequence,Volt,-1.500000e-01,2.000000e-04
0,-4.00e-02,
1,1.56e-01,
2,-4.00e-02,
3,1.64e-01,
4,1.64e-01,
5,-4.40e-02,
6,-4.00e-02,
7,1.64e-01,
8,-4.40e-02,
9,1.76e-01,
10,-4.80e-02,
11,1.68e-01,
12,1.68e-01,
13,-6.40e-02,
14,-7.20e-02,
15,1.68e-01,
16,1.72e-01,
17,-7.20e-02,
18,-7.60e-02,
19,1.60e-01,
20,-3.60e-02,
21,1.56e-01,
22,1.56e-01,
23,-3.60e-02,
24,1.56e-01,
25,-3.60e-02,
26,-3.60e-02,
27,1.48e-01,
28,1.36e-01,
29,-3.60e-02,
30,-3.60e-02,
31,1.36e-01,
32,-3.60e-02,
33,1.44e-01,
34,-4.00e-02,
35,1.20e-01,
36,1.44e-01,
37,-4.00e-02,
38,1.36e-01,
39,-4.80e-02,
40,1.44e-01,
41,-5.60e-02,
42,-6.00e-02,
43,1.52e-01,
44,1.52e-01,
45,-6.00e-02,
46,-6.80e-02,
47,1.68e-01,
48,1.52e-01,
49,-6.80e-02,
50,-6.80e-02,
51,1.52e-01,
52,-7.20e-02,
53,1.52e-01,
54,-6.80e-02,
55,1.68e-01,
56,1.72e-01,
57,-7.60e-02,
58,-8.40e-02,
59,1.76e-01,
60,-5.60e-02,
61,1.52e-01,
62,-4.00e-02,
63,1.28e-01,
64,1.48e-01,
65,-3.60e-02,
66,1.60e-01,
67,-4.00e-02,
68,1.64e-01,
69,-4.00e-02,
70,1.28e-01,
71,-4.00e-02,
72,-3.60e-02,
73,1.56e-01,
74,9.60e-02,
75,-4.00e-02,
76,-4.00e-02,
77,1.12e-01,
78,-4.40e-02,
79,1.32e-01,
80,-4.40e-02,
81,1.64e-01,
82,-4.00e-02,
83,1.68e-01,
84,-3.60e-02,
85,1.72e-01,
86,-4.00e-02,
87,1.72e-01,
88,1.72e-01,
89,-4.00e-02,
90,-4.00e-02,
91,1.68e-01,
92,1.68e-01,
93,-4.40e-02,
94,-5.60e-02,
95,1.08e-01,
96,1.68e-01,
97,-6.40e-02,
98,-7.60e-02,
99,1.72e-01,
100,-8.00e-02,
101,1.68e-01,
102,-4.00e-02,
103,1.60e-01,
104,1.56e-01,
105,-4.00e-02,
106,1.56e-01,
107,-3.60e-02,
108,1.48e-01,
109,-3.60e-02,
110,-4.00e-02,
111,1.48e-01,
112,-3.60e-02,
113,8.00e-02,
114,1.28e-01,
115,-4.00e-02,
116,8.00e-02,
117,-4.00e-02,
118,-3.60e-02,
119,9.60e-02,
120,1.36e-01,
121,-5.20e-02,
122,1.48e-01,
123,-5.60e-02,
124,-6.00e-02,
125,1.52e-01,
126,1.56e-01,
127,-5.60e-02,
128,1.60e-01,
129,-6.40e-02,
130,-5.20e-02,
131,1.56e-01,
132,-6.40e-02,
133,1.68e-01,
134,-6.80e-02,
135,1.44e-01,
136,-7.60e-02,
137,1.64e-01,
138,1.60e-01,
139,-7.20e-02,
140,1.68e-01,
141,-9.20e-02,
142,-8.00e-02,
143,1.72e-01,
144,1.60e-01,
145,-4.40e-02,
146,-3.60e-02,
147,1.60e-01,
148,1.56e-01,
149,-3.60e-02,
150,-4.00e-02,
151,1.56e-01,
152,-3.60e-02,
153,1.52e-01,
154,-3.60e-02,
155,1.44e-01,
156,-3.60e-02,
157,1.28e-01,
158,-3.60e-02,
159,8.40e-02,
160,-4.00e-02,
161,1.68e-01,
162,1.56e-01,
163,-4.00e-02,
164,-4.40e-02,
165,1.60e-01,
166,1.68e-01,
167,-4.00e-02,
168,-4.00e-02,
169,1.68e-01,
170,1.64e-01,
171,-4.00e-02,
172,-3.60e-02,
173,1.68e-01,
174,1.60e-01,
175,-4.40e-02,
176,-4.80e-02,
177,1.64e-01,
178,1.20e-01,
179,-6.40e-02,
180,1.72e-01,
181,-6.00e-02,
182,1.76e-01,
183,-8.00e-02,
184,-7.20e-02,
185,1.68e-01,
186,1.48e-01,
187,-3.60e-02,
188,-3.60e-02,
189,1.36e-01,
190,1.08e-01,
191,-3.60e-02,
192,1.20e-01,
193,-3.60e-02,
194,1.52e-01,
195,-3.60e-02,
196,-3.60e-02,
197,1.40e-01,
198,-3.60e-02,
199,1.20e-01,
200,1.48e-01,
201,-3.60e-02,
202,1.44e-01,
203,-3.60e-02,
204,-4.80e-02,
205,1.44e-01,
206,-4.80e-02,
207,1.56e-01,
208,-5.60e-02,
209,1.56e-01,
210,1.48e-01,
211,-6.40e-02,
212,-6.00e-02,
213,1.60e-01,
214,1.52e-01,
215,-6.00e-02,
216,1.64e-01,
217,-6.40e-02,
218,1.64e-01,
219,-6.80e-02,
220,-7.20e-02,
221,1.64e-01,
222,1.72e-01,
223,-8.00e-02,
224,-7.20e-02,
225,1.68e-01,
226,1.72e-01,
227,-5.20e-02,
228,-4.40e-02,
229,1.48e-01,
230,1.24e-01,
231,-4.00e-02,
232,1.60e-01,
233,-3.60e-02,
234,1.40e-01,
235,-4.00e-02,
236,-4.00e-02,
237,5.20e-02,
238,1.60e-01,
239,-4.40e-02,
240,1.60e-01,
241,-4.80e-02,
242,1.68e-01,
243,-4.40e-02,
244,1.60e-01,
245,-4.40e-02,
246,1.64e-01,
247,-4.00e-02,
248,1.60e-01,
249,-4.00e-02,
250,-4.00e-02,
251,1.68e-01,
252,1.64e-01,
253,-4.00e-02,
254,-4.00e-02,
255,1.52e-01,
256,-4.00e-02,
257,1.56e-01,
258,1.68e-01,
259,-5.60e-02,
260,1.44e-01,
261,-7.20e-02,
262,-7.20e-02,
263,1.68e-01,
264,1.68e-01,
265,-8.40e-02,
266,1.68e-01,
267,-8.80e-02,
268,1.60e-01,
269,-6.40e-02,
270,-3.60e-02,
271,8.00e-02,
272,-3.60e-02,
273,8.40e-02,
274,-3.60e-02,
275,6.40e-02,
276,-3.60e-02,
277,1.24e-01,
278,1.04e-01,
279,-3.60e-02,
280,-3.60e-02,
281,1.28e-01,
282,-3.60e-02,
283,1.44e-01,
284,1.40e-01,
285,-3.60e-02,
286,1.52e-01,
287,-4.00e-02,
288,1.56e-01,
289,-4.00e-02,
290,1.52e-01,
291,-4.00e-02,
292,-5.20e-02,
293,1.60e-01,
294,-5.60e-02,
295,1.64e-01,
296,-6.40e-02,
297,1.68e-01,
298,1.68e-01,
299,-5.60e-02,
300,1.64e-01,
301,-6.80e-02,
302,1.68e-01,
303,-6.40e-02,
304,-6.40e-02,
305,1.68e-01,
306,1.52e-01,
307,-7.60e-02,
308,1.76e-01,
309,-6.40e-02,
310,1.12e-01,
311,-4.00e-02,
312,-4.00e-02,
313,9.60e-02,
314,-4.40e-02,
315,9.20e-02,
316,8.00e-02,
317,-4.80e-02,
318,-4.00e-02,
319,1.20e-01,
320,1.60e-01,
321,-5.20e-02,
322,-4.40e-02,
323,1.64e-01,
324,1.56e-01,
325,-4.40e-02,
326,-4.40e-02,
327,1.64e-01,
328,1.68e-01,
329,-4.00e-02,
330,-3.60e-02,
331,1.48e-01,
332,1.56e-01,
333,-3.60e-02,
334,-3.60e-02,
335,1.64e-01,
336,-4.00e-02,
337,1.64e-01,
338,1.64e-01,
339,-5.20e-02,
340,1.68e-01,
341,-5.60e-02,
342,1.68e-01,
343,-6.80e-02,
344,1.68e-01,
345,-7.20e-02,
346,1.72e-01,
347,-6.80e-02,
348,-4.00e-02,
349,1.64e-01,
350,-4.40e-02,
351,1.56e-01,
352,-5.60e-02,
353,1.48e-01,
354,-3.60e-02,
355,9.20e-02,
356,-3.60e-02,
357,1.36e-01,
358,-4.00e-02,
359,1.48e-01,
360,-3.60e-02,
361,1.40e-01,
362,1.36e-01,
363,-3.60e-02,
364,-3.60e-02,
365,1.48e-01,
366,1.44e-01,
367,-3.60e-02,
368,1.48e-01,
369,-4.00e-02,
370,-3.60e-02,
371,1.48e-01,
372,-4.00e-02,
373,1.56e-01,
374,-3.60e-02,
375,1.60e-01,
376,1.56e-01,
377,-4.40e-02,
378,-4.80e-02,
379,1.64e-01,
380,-6.40e-02,
381,1.68e-01,
382,1.68e-01,
383,-5.20e-02,
384,1.72e-01,
385,-5.60e-02,
386,1.72e-01,
387,-5.60e-02,
388,-5.60e-02,
389,1.16e-01,
390,1.52e-01,
391,-5.60e-02,
392,1.16e-01,
393,-5.60e-02,
394,8.00e-02,
395,-4.40e-02,
396,-4.00e-02,
397,1.44e-01,
398,-3.60e-02,
399,9.60e-02,
400,-4.80e-02,
401,1.52e-01,
402,-4.80e-02,
403,1.56e-01,
404,-5.20e-02,
405,1.48e-01,
406,-4.00e-02,
407,1.52e-01,
408,-3.60e-02,
409,1.28e-01,
410,-4.00e-02,
411,1.28e-01,
412,-3.60e-02,
413,1.64e-01,
414,1.64e-01,
415,-4.00e-02,
416,-4.00e-02,
417,1.60e-01,
418,-4.00e-02,
419,1.24e-01,
420,1.64e-01,
421,-4.00e-02,
422,1.60e-01,
423,-5.60e-02,
424,-6.00e-02,
425,1.40e-01,
426,1.60e-01,
427,-7.20e-02,
428,-4.80e-02,
429,1.48e-01,
430,1.68e-01,
431,-4.00e-02,
432,-4.00e-02,
433,1.44e-01,
434,1.08e-01,
435,-4.80e-02,
436,1.56e-01,
437,-3.60e-02,
438,-3.60e-02,
439,1.24e-01,
440,-3.60e-02,
441,1.44e-01,
442,1.40e-01,
443,-3.60e-02,
444,-3.60e-02,
445,1.44e-01,
446,1.48e-01,
447,-4.00e-02,
448,1.48e-01,
449,-4.00e-02,
450,-3.60e-02,
451,1.52e-01,
452,-3.60e-02,
453,1.52e-01,
454,1.44e-01,
455,-4.00e-02,
456,-3.60e-02,
457,1.60e-01,
458,-3.60e-02,
459,1.60e-01,
460,1.56e-01,
461,-4.00e-02,
462,1.60e-01,
463,-4.00e-02,
464,-4.00e-02,
465,1.68e-01,
466,1.64e-01,
467,-5.20e-02,
468,-4.00e-02,
469,9.60e-02,
470,-4.40e-02,
471,1.04e-01,
472,-4.80e-02,
473,1.72e-01,
474,-5.20e-02,
475,1.20e-01,
476,-3.60e-02,
477,9.20e-02,
478,1.00e-01,
479,-4.80e-02,
480,-4.40e-02,
481,1.56e-01,
482,1.48e-01,
483,-4.40e-02,
484,1.48e-01,
485,-4.40e-02,
486,1.60e-01,
487,-4.00e-02,
488,-4.40e-02,
489,1.52e-01,
490,1.64e-01,
491,-4.00e-02,
492,1.64e-01,
493,-4.00e-02,
494,1.44e-01,
495,-4.00e-02,
496,1.44e-01,
497,-4.00e-02,
498,-4.00e-02,
499,1.68e-01,
500,1.36e-01,
501,-4.40e-02,
502,1.64e-01,
503,-5.20e-02,
504,1.68e-01,
505,-6.00e-02,
506,1.64e-01,
507,-6.00e-02,
508,-5.20e-02,
509,1.44e-01,
510,-6.40e-02,
511,1.68e-01,
512,-5.20e-02,
513,1.20e-01,
514,1.68e-01,
515,-4.00e-02,
516,1.52e-01,
517,-4.40e-02,
518,-4.40e-02,
519,1.48e-01,
520,1.44e-01,
521,-4.00e-02,
522,-3.60e-02,
523,1.36e-01,
524,-3.60e-02,
525,1.52e-01,
526,1.48e-01,
527,-4.00e-02,
528,-3.60e-02,
529,1.52e-01,
530,1.48e-01,
531,-4.00e-02,
532,1.48e-01,
533,-4.00e-02,
534,-3.60e-02,
535,1.28e-01,
536,-4.00e-02,
537,1.48e-01,
538,-4.00e-02,
539,1.60e-01,
540,1.64e-01,
541,-4.00e-02,
542,-3.60e-02,
543,1.56e-01,
544,-4.00e-02,
545,1.68e-01,
546,-4.00e-02,
547,1.68e-01,
548,-4.00e-02,
549,8.40e-02,
550,1.72e-01,
551,-4.40e-02,
552,9.20e-02,
553,-4.40e-02,
554,9.60e-02,
555,-4.80e-02,
556,-5.60e-02,
557,8.40e-02,
558,1.28e-01,
559,-5.20e-02,
560,1.68e-01,
561,-4.40e-02,
562,-4.40e-02,
563,1.60e-01,
564,1.52e-01,
565,-4.40e-02,
566,-4.00e-02,
567,1.64e-01,
568,-4.80e-02,
569,1.60e-01,
570,-3.60e-02,
571,1.52e-01,
572,1.64e-01,
573,-3.60e-02,
574,1.64e-01,
575,-3.60e-02,
576,1.64e-01,
577,-4.00e-02,
578,1.64e-01,
579,-4.00e-02,
580,-3.60e-02,
581,1.60e-01,
582,-4.00e-02,
583,1.40e-01,
584,-4.00e-02,
585,1.64e-01,
586,1.40e-01,
587,-5.60e-02,
588,-5.20e-02,
589,1.08e-01,
590,-5.20e-02,
591,1.12e-01,
592,1.40e-01,
593,-4.80e-02,
594,1.16e-01,
595,-4.40e-02,
596,1.36e-01,
597,-4.40e-02,
598,1.64e-01,
599,-1.16e-01,
600,-1.12e-01,
601,1.56e-01,
602,1.48e-01,
603,-4.80e-02,
604,-3.60e-02,
605,1.44e-01,
606,1.48e-01,
607,-3.60e-02,
608,-3.60e-02,
609,1.48e-01,
610,-4.00e-02,
611,1.40e-01,
612,1.48e-01,
613,-3.60e-02,
614,1.24e-01,
615,-3.60e-02,
616,1.40e-01,
617,-3.60e-02,
618,-3.60e-02,
619,1.56e-01,
620,1.64e-01,
621,-3.60e-02,
622,-4.00e-02,
623,1.40e-01,
624,-3.60e-02,
625,1.64e-01,
626,-4.00e-02,
627,1.56e-01,
628,8.40e-02,
629,-4.00e-02,
630,-4.00e-02,
631,1.72e-01,
632,-4.00e-02,
633,8.40e-02,
634,-4.00e-02,
635,9.20e-02,
636,9.60e-02,
637,-4.80e-02,
638,1.04e-01,
639,-6.00e-02,
640,-6.40e-02,
641,1.76e-01,
642,-6.40e-02,
643,1.68e-01,
644,-4.00e-02,
645,1.40e-01,
646,-4.40e-02,
647,1.56e-01,
648,1.56e-01,
649,-4.40e-02,
650,-3.60e-02,
651,1.60e-01,
652,1.56e-01,
653,-4.00e-02,
654,-3.60e-02,
655,1.60e-01,
656,-3.60e-02,
657,1.56e-01,
658,1.60e-01,
659,-3.60e-02,
660,-3.60e-02,
661,1.64e-01,
662,1.56e-01,
663,-4.00e-02,
664,-4.00e-02,
665,1.44e-01,
666,1.28e-01,
667,-4.00e-02,
668,1.24e-01,
669,-4.40e-02,
670,1.08e-01,
671,-5.60e-02,
672,1.04e-01,
673,-5.20e-02,
674,1.12e-01,
675,-5.60e-02,
676,1.60e-01,
677,-7.20e-02,
678,1.64e-01,
679,-8.00e-02,
680,-9.20e-02,
681,1.72e-01,
682,-1.08e-01,
683,1.68e-01,
684,-1.12e-01,
685,1.52e-01,
686,-4.80e-02,
687,1.48e-01,
688,-3.60e-02,
689,1.48e-01,
690,-3.60e-02,
691,1.48e-01,
692,-3.60e-02,
693,1.48e-01,
694,-3.60e-02,
695,1.44e-01,
696,-3.60e-02,
697,1.52e-01,
698,1.52e-01,
699,-4.00e-02,
700,-3.60e-02,
701,1.60e-01,
702,-3.60e-02,
703,1.60e-01,
704,-4.00e-02,
705,1.60e-01,
706,1.60e-01,
707,-4.00e-02,
708,1.60e-01,
709,-4.00e-02,
710,3.20e-02,
711,-4.00e-02,
712,-4.00e-02,
713,1.24e-01,
714,-4.00e-02,
715,1.60e-02,
716,-4.00e-02,
717,1.60e-02,
718,-4.00e-02,
719,1.56e-01,
720,1.72e-01,
721,-4.80e-02,
722,1.52e-01,
723,-6.40e-02,
724,-6.40e-02,
725,1.72e-01,
726,-4.80e-02,
727,1.68e-01,
728,-4.00e-02,
729,1.56e-01,
730,-3.60e-02,
731,1.56e-01,
732,-4.00e-02,
733,1.60e-01,
734,-3.60e-02,
735,1.40e-01,
736,-4.00e-02,
737,1.48e-01,
738,1.60e-01,
739,-4.00e-02,
740,1.60e-01,
741,-4.00e-02,
742,-4.00e-02,
743,1.52e-01,
744,1.52e-01,
745,-4.00e-02,
746,1.52e-01,
747,-4.00e-02,
748,-4.00e-02,
749,1.48e-01,
750,1.40e-01,
751,-5.60e-02,
752,1.56e-01,
753,-5.60e-02,
754,-5.20e-02,
755,1.16e-01,
756,-5.60e-02,
757,1.08e-01,
758,-5.60e-02,
759,1.32e-01,
760,1.56e-01,
761,-9.20e-02,
762,1.68e-01,
763,-8.80e-02,
764,1.64e-01,
765,-9.60e-02,
766,1.72e-01,
767,-1.08e-01,
768,1.56e-01,
769,-7.60e-02,
770,1.52e-01,
771,-3.60e-02,
772,1.52e-01,
773,-3.60e-02,
774,-3.60e-02,
775,1.52e-01,
776,-3.60e-02,
777,1.36e-01,
778,-3.60e-02,
779,1.24e-01,
780,1.40e-01,
781,-4.00e-02,
782,-3.60e-02,
783,1.52e-01,
784,-3.60e-02,
785,1.64e-01,
786,1.48e-01,
787,-4.40e-02,
788,-4.00e-02,
789,1.52e-01,
790,-4.00e-02,
791,1.48e-01,
792,-4.00e-02,
793,7.60e-02,
794,-4.00e-02,
795,1.00e-01,
796,-4.00e-02,
797,1.04e-01,
798,-4.00e-02,
799,1.64e-01,
800,1.72e-01,
801,-4.40e-02,
802,1.76e-01,
803,-4.80e-02,
804,-5.60e-02,
805,1.68e-01,
806,1.60e-01,
807,-5.60e-02,
808,1.20e-01,
809,-7.20e-02,
810,1.60e-01,
811,-4.40e-02,
812,1.56e-01,
813,-4.00e-02,
814,-3.60e-02,
815,1.56e-01,
816,-3.20e-02,
817,1.44e-01,
818,-3.60e-02,
819,1.56e-01,
820,-3.20e-02,
821,1.52e-01,
822,-3.60e-02,
823,1.60e-01,
824,1.28e-01,
825,-3.60e-02,
826,-4.00e-02,
827,1.56e-01,
828,-3.60e-02,
829,1.60e-01,
830,1.28e-01,
831,-4.00e-02,
832,1.24e-01,
833,-4.00e-02,
834,-3.60e-02,
835,1.08e-01,
836,1.16e-01,
837,-5.60e-02,
838,1.56e-01,
839,-6.80e-02,
840,1.60e-01,
841,-7.20e-02,
842,1.64e-01,
843,-7.60e-02,
844,1.56e-01,
845,-8.40e-02,
846,-8.40e-02,
847,1.32e-01,
848,-8.80e-02,
849,1.68e-01,
850,-8.80e-02,
851,1.68e-01,
852,-5.20e-02,
853,1.48e-01,
854,-4.40e-02,
855,1.52e-01,
856,-3.60e-02,
857,1.44e-01,
858,1.24e-01,
859,-4.00e-02,
860,-3.60e-02,
861,1.60e-01,
862,-4.00e-02,
863,1.44e-01,
864,-3.60e-02,
865,1.40e-01,
866,-3.60e-02,
867,1.56e-01,
868,1.56e-01,
869,-3.60e-02,
870,-3.60e-02,
871,1.60e-01,
872,-3.60e-02,
873,8.80e-02,
874,3.60e-02,
875,-4.00e-02,
876,5.60e-02,
877,-4.40e-02,
878,-4.00e-02,
879,1.60e-01,
880,-4.00e-02,
881,1.72e-01,
882,-4.00e-02,
883,1.64e-01,
884,1.68e-01,
885,-4.40e-02,
886,1.72e-01,
887,-6.00e-02,
888,1.72e-01,
889,-7.20e-02,
890,1.56e-01,
891,-7.20e-02,
892,-6.00e-02,
893,1.56e-01,
894,-4.00e-02,
895,1.56e-01,
896,-3.60e-02,
897,1.60e-01,
898,-4.00e-02,
899,1.48e-01,
900,-3.60e-02,
901,1.56e-01,
902,1.28e-01,
903,-4.00e-02,
904,-3.60e-02,
905,1.56e-01,
906,1.44e-01,
907,-4.00e-02,
908,1.52e-01,
909,-4.00e-02,
910,-3.60e-02,
911,4.40e-02,
912,-3.60e-02,
913,8.40e-02,
914,-3.60e-02,
915,1.32e-01,
916,7.60e-02,
917,-3.20e-02,
918,-3.60e-02,
919,1.44e-01,
920,1.52e-01,
921,-4.00e-02,
922,-6.00e-02,
923,1.52e-01,
924,1.32e-01,
925,-7.60e-02,
926,1.64e-01,
927,-7.20e-02,
928,-7.60e-02,
929,1.64e-01,
930,-7.60e-02,
931,1.68e-01,
932,-8.40e-02,
933,1.68e-01,
934,-7.60e-02,
935,1.64e-01,
936,-3.60e-02,
937,1.52e-01,
938,-3.60e-02,
939,1.56e-01,
940,-3.60e-02,
941,1.48e-01,
942,-3.60e-02,
943,1.48e-01,
944,-3.60e-02,
945,1.52e-01,
946,-3.60e-02,
947,1.60e-01,
948,-4.00e-02,
949,1.60e-01,
950,-4.00e-02,
951,1.48e-01,
952,-4.00e-02,
953,1.56e-01,
954,3.60e-02,
955,-4.00e-02,
956,6.40e-02,
957,-4.00e-02,
958,-3.60e-02,
959,1.68e-01,
960,-3.60e-02,
961,1.68e-01,
962,1.72e-01,
963,-4.00e-02,
964,1.64e-01,
965,-3.60e-02,
966,1.64e-01,
967,-4.00e-02,
968,-3.60e-02,
969,1.76e-01,
970,-3.60e-02,
971,1.68e-01,
972,1.68e-01,
973,-6.40e-02,
974,-6.80e-02,
975,1.32e-01,
976,1.72e-01,
977,-3.60e-02,
978,1.52e-01,
979,-3.60e-02,
980,-3.20e-02,
981,1.52e-01,
982,-3.60e-02,
983,1.52e-01,
984,1.56e-01,
985,-4.00e-02,
986,-3.60e-02,
987,1.52e-01,
988,-3.60e-02,
989,8.40e-02,
990,-4.00e-02,
991,1.32e-01,
992,-3.60e-02,
993,1.08e-01,
994,-3.60e-02,
995,7.60e-02,
996,-3.60e-02,
997,9.60e-02,
998,-3.20e-02,
999,1.44e-01,
1000,1.48e-01,
1001,-3.20e-02,
1002,1.44e-01,
1003,-3.20e-02,
1004,1.44e-01,
1005,-5.60e-02,
1006,-7.20e-02,
1007,1.60e-01,
1008,1.60e-01,
1009,-6.40e-02,
1010,1.64e-01,
1011,-7.60e-02,
1012,-7.60e-02,
1013,1.64e-01,
1014,1.44e-01,
1015,-8.40e-02,
1016,-8.40e-02,
1017,1.72e-01,
1018,-6.40e-02,
1019,1.48e-01,
1020,-3.60e-02,
1021,1.56e-01,
1022,1.44e-01,
1023,-3.60e-02,
1024,1.60e-01,
1025,-3.60e-02,
1026,-4.00e-02,
1027,1.28e-01,
1028,-3.60e-02,
1029,1.56e-01,
1030,1.56e-01,
1031,-3.60e-02,
1032,-3.60e-02,
1033,3.60e-02,
1034,-3.60e-02,
1035,1.56e-01,
1036,-4.00e-02,
1037,1.32e-01,
1038,-4.40e-02,
1039,1.52e-01,
1040,-4.00e-02,
1041,1.68e-01,
1042,1.60e-01,
1043,-4.40e-02,
1044,1.56e-01,
1045,-4.00e-02,
1046,1.72e-01,
1047,-4.00e-02,
1048,1.72e-01,
1049,-4.00e-02,
1050,-4.00e-02,
1051,1.68e-01,
1052,-4.40e-02,
1053,1.72e-01,
1054,-5.20e-02,
1055,1.72e-01,
1056,1.64e-01,
1057,-6.80e-02,
1058,-6.80e-02,
1059,1.76e-01,
1060,-4.00e-02,
1061,1.56e-01,
1062,-3.60e-02,
1063,1.56e-01,
1064,-3.20e-02,
1065,1.24e-01,
1066,1.48e-01,
1067,-4.00e-02,
1068,1.24e-01,
1069,-3.60e-02,
1070,-3.20e-02,
1071,1.44e-01,
1072,-3.20e-02,
1073,1.12e-01,
1074,-3.20e-02,
1075,1.08e-01,
1076,8.40e-02,
1077,-2.80e-02,
1078,1.56e-01,
1079,-3.60e-02,
1080,1.56e-01,
1081,-5.60e-02,
1082,-4.40e-02,
1083,1.44e-01,
1084,1.44e-01,
1085,-3.20e-02,
1086,1.52e-01,
1087,-3.20e-02,
1088,-6.40e-02,
1089,1.44e-01,
1090,-6.80e-02,
1091,1.60e-01,
1092,-6.80e-02,
1093,1.64e-01,
1094,-7.20e-02,
1095,1.68e-01,
1096,1.60e-01,
1097,-8.00e-02,
1098,-8.40e-02,
1099,1.68e-01,
1100,-7.60e-02,
1101,1.68e-01,
1102,-4.00e-02,
1103,1.56e-01,
1104,-3.60e-02,
1105,1.28e-01,
1106,-3.60e-02,
1107,1.44e-01,
1108,1.52e-01,
1109,-3.60e-02,
1110,1.48e-01,
1111,-3.20e-02,
1112,-3.60e-02,
1113,1.56e-01,
1114,1.04e-01,
1115,-4.00e-02,
1116,-4.00e-02,
1117,8.80e-02,
1118,-3.60e-02,
1119,1.64e-01,
1120,-4.00e-02,
1121,1.64e-01,
1122,-4.40e-02,
1123,1.64e-01,
1124,-3.60e-02,
1125,1.60e-01,
1126,1.60e-01,
1127,-4.00e-02,
1128,-3.60e-02,
1129,1.64e-01,
1130,-4.00e-02,
1131,1.36e-01,
1132,-4.00e-02,
1133,1.64e-01,
1134,-4.00e-02,
1135,1.52e-01,
1136,1.68e-01,
1137,-4.00e-02,
1138,-6.00e-02,
1139,1.72e-01,
1140,-6.40e-02,
1141,1.72e-01,
1142,-6.00e-02,
1143,1.68e-01,
1144,-4.00e-02,
1145,1.52e-01,
1146,1.48e-01,
1147,-3.20e-02,
1148,-3.20e-02,
1149,1.00e-01,
1150,-3.20e-02,
1151,2.40e-02,
1152,7.60e-02,
1153,-3.60e-02,
1154,-3.60e-02,
1155,1.24e-01,
1156,1.16e-01,
1157,-3.20e-02,
1158,-3.60e-02,
1159,1.36e-01,
1160,1.52e-01,
1161,-3.60e-02,
1162,1.48e-01,
1163,-4.80e-02,
1164,1.44e-01,
1165,-3.60e-02,
1166,1.44e-01,
1167,-3.60e-02,
1168,-3.60e-02,
1169,1.56e-01,
1170,-4.00e-02,
1171,1.48e-01,
1172,1.60e-01,
1173,-5.20e-02,
1174,-6.80e-02,
1175,1.60e-01,
1176,1.40e-01,
1177,-7.60e-02,
1178,-6.80e-02,
1179,1.68e-01,
1180,1.68e-01,
1181,-7.20e-02,
1182,-6.80e-02,
1183,1.68e-01,
1184,-8.40e-02,
1185,1.56e-01,
1186,1.60e-01,
1187,-3.60e-02,
1188,1.52e-01,
1189,-4.00e-02,
1190,-3.60e-02,
1191,1.28e-01,
1192,-3.60e-02,
1193,1.24e-01,
1194,-3.60e-02,
1195,1.40e-01,
1196,-4.00e-02,
1197,1.36e-01,
1198,-3.60e-02,
1199,1.44e-01,
