Laptop_1/LAPTOP_CHRGR_1_ON_CLOSE/time domain/NewFile16.csv

X,CH1,Start,Increment,
Sequence,Volt,-1.500000e-01,2.000000e-04
0,-5.20e-02,
1,1.72e-01,
2,-5.60e-02,
3,1.68e-01,
4,1.68e-01,
5,-6.40e-02,
6,-6.40e-02,
7,1.64e-01,
8,1.68e-01,
9,-7.20e-02,
10,-4.00e-02,
11,1.68e-01,
12,1.56e-01,
13,-4.80e-02,
14,1.56e-01,
15,-4.80e-02,
16,-4.80e-02,
17,1.60e-01,
18,1.48e-01,
19,-4.80e-02,
20,1.56e-01,
21,-4.40e-02,
22,1.52e-01,
23,-4.00e-02,
24,-3.60e-02,
25,1.28e-01,
26,-3.60e-02,
27,1.52e-01,
28,-3.60e-02,
29,1.56e-01,
30,-3.60e-02,
31,1.40e-01,
32,-4.00e-02,
33,8.80e-02,
34,-4.00e-02,
35,9.20e-02,
36,1.28e-01,
37,-4.00e-02,
38,-4.00e-02,
39,7.20e-02,
40,1.64e-01,
41,-6.40e-02,
42,1.68e-01,
43,-7.60e-02,
44,-6.80e-02,
45,1.64e-01,
46,1.64e-01,
47,-8.00e-02,
48,-9.60e-02,
49,1.68e-01,
50,-1.04e-01,
51,1.72e-01,
52,-7.60e-02,
53,1.48e-01,
54,1.48e-01,
55,-3.60e-02,
56,1.36e-01,
57,-3.60e-02,
58,-3.60e-02,
59,1.20e-01,
60,-3.60e-02,
61,1.44e-01,
62,1.32e-01,
63,-3.60e-02,
64,-3.60e-02,
65,1.52e-01,
66,1.48e-01,
67,-3.60e-02,
68,-3.60e-02,
69,1.56e-01,
70,-4.00e-02,
71,1.52e-01,
72,1.56e-01,
73,-3.60e-02,
74,-3.60e-02,
75,1.24e-01,
76,1.56e-01,
77,-4.00e-02,
78,-3.60e-02,
79,1.64e-01,
80,-3.60e-02,
81,1.32e-01,
82,1.68e-01,
83,-4.00e-02,
84,1.72e-01,
85,-5.20e-02,
86,1.72e-01,
87,-5.60e-02,
88,-6.00e-02,
89,1.72e-01,
90,-6.00e-02,
91,1.68e-01,
92,-6.40e-02,
93,1.76e-01,
94,1.72e-01,
95,-4.00e-02,
96,-4.00e-02,
97,1.52e-01,
98,1.36e-01,
99,-4.40e-02,
100,1.56e-01,
101,-4.00e-02,
102,1.52e-01,
103,-4.40e-02,
104,1.56e-01,
105,-4.00e-02,
106,-3.60e-02,
107,1.60e-01,
108,-3.60e-02,
109,1.56e-01,
110,1.52e-01,
111,-3.60e-02,
112,7.60e-02,
113,-3.60e-02,
114,-4.00e-02,
115,1.52e-01,
116,-4.00e-02,
117,6.00e-02,
118,-3.60e-02,
119,1.00e-01,
120,1.36e-01,
121,-4.80e-02,
122,-6.40e-02,
123,1.60e-01,
124,-6.80e-02,
125,1.64e-01,
126,-7.20e-02,
127,1.64e-01,
128,1.68e-01,
129,-8.00e-02,
130,1.32e-01,
131,-8.80e-02,
132,1.56e-01,
133,-1.08e-01,
134,-1.08e-01,
135,1.60e-01,
136,-6.00e-02,
137,1.52e-01,
138,-3.60e-02,
139,1.40e-01,
140,-4.00e-02,
141,1.48e-01,
142,-3.60e-02,
143,1.44e-01,
144,1.44e-01,
145,-4.00e-02,
146,1.52e-01,
147,-3.60e-02,
148,-3.60e-02,
149,1.28e-01,
150,1.52e-01,
151,-3.60e-02,
152,1.56e-01,
153,-3.60e-02,
154,6.00e-02,
155,-4.00e-02,
156,-4.00e-02,
157,4.40e-02,
158,-3.60e-02,
159,9.20e-02,
160,1.64e-01,
161,-4.00e-02,
162,-3.60e-02,
163,1.52e-01,
164,-4.00e-02,
165,1.68e-01,
166,-3.60e-02,
167,1.68e-01,
168,-4.00e-02,
169,1.68e-01,
170,1.68e-01,
171,-4.80e-02,
172,1.68e-01,
173,-6.40e-02,
174,-5.60e-02,
175,1.72e-01,
176,1.76e-01,
177,-4.80e-02,
178,1.60e-01,
179,-4.00e-02,
180,1.44e-01,
181,-4.00e-02,
182,1.56e-01,
183,-4.40e-02,
184,-3.60e-02,
185,1.52e-01,
186,-3.20e-02,
187,1.24e-01,
188,-3.60e-02,
189,1.60e-01,
190,-4.00e-02,
191,4.80e-02,
192,-3.60e-02,
193,9.20e-02,
194,8.40e-02,
195,-4.00e-02,
196,-3.60e-02,
197,1.40e-01,
198,1.00e-01,
199,-4.00e-02,
200,1.60e-01,
201,-4.40e-02,
202,-5.60e-02,
203,1.64e-01,
204,-5.60e-02,
205,1.64e-01,
206,1.60e-01,
207,-7.20e-02,
208,-6.80e-02,
209,1.64e-01,
210,1.60e-01,
211,-8.00e-02,
212,1.56e-01,
213,-8.00e-02,
214,-8.40e-02,
215,1.60e-01,
216,1.64e-01,
217,-8.40e-02,
218,1.36e-01,
219,-6.00e-02,
220,-3.20e-02,
221,1.52e-01,
222,-3.60e-02,
223,1.52e-01,
224,1.52e-01,
225,-3.60e-02,
226,-3.60e-02,
227,1.28e-01,
228,-3.60e-02,
229,1.24e-01,
230,-3.20e-02,
231,1.60e-01,
232,-3.60e-02,
233,1.60e-01,
234,1.40e-01,
235,-3.60e-02,
236,-4.00e-02,
237,1.20e-01,
238,-3.60e-02,
239,1.56e-01,
240,-3.60e-02,
241,1.64e-01,
242,-4.00e-02,
243,1.64e-01,
244,-4.00e-02,
245,1.64e-01,
246,-3.60e-02,
247,1.64e-01,
248,-4.00e-02,
249,1.68e-01,
250,1.68e-01,
251,-4.00e-02,
252,1.72e-01,
253,-4.00e-02,
254,1.68e-01,
255,-4.40e-02,
256,-5.20e-02,
257,1.76e-01,
258,-6.40e-02,
259,1.76e-01,
260,-5.60e-02,
261,1.68e-01,
262,-4.00e-02,
263,1.48e-01,
264,-3.60e-02,
265,1.60e-01,
266,-3.60e-02,
267,1.56e-01,
268,1.36e-01,
269,-3.60e-02,
270,8.40e-02,
271,-4.00e-02,
272,-3.60e-02,
273,1.00e-01,
274,-3.60e-02,
275,9.20e-02,
276,-3.60e-02,
277,8.00e-02,
278,-4.00e-02,
279,1.52e-01,
280,1.60e-01,
281,-4.00e-02,
282,1.56e-01,
283,-4.00e-02,
284,-5.20e-02,
285,1.56e-01,
286,-5.60e-02,
287,1.56e-01,
288,1.60e-01,
289,-6.40e-02,
290,-6.80e-02,
291,1.60e-01,
292,1.60e-01,
293,-7.20e-02,
294,1.64e-01,
295,-7.20e-02,
296,-8.80e-02,
297,1.44e-01,
298,1.56e-01,
299,-9.60e-02,
300,-1.12e-01,
301,1.72e-01,
302,-6.80e-02,
303,1.56e-01,
304,-4.00e-02,
305,1.48e-01,
306,-3.60e-02,
307,1.48e-01,
308,1.52e-01,
309,-3.60e-02,
310,-3.60e-02,
311,1.52e-01,
312,1.56e-01,
313,-3.60e-02,
314,1.32e-01,
315,-3.60e-02,
316,-3.60e-02,
317,1.04e-01,
318,-3.60e-02,
319,1.12e-01,
320,1.56e-01,
321,-3.60e-02,
322,1.56e-01,
323,-4.00e-02,
324,1.60e-01,
325,-4.00e-02,
326,1.72e-01,
327,-4.00e-02,
328,-3.60e-02,
329,1.64e-01,
330,1.64e-01,
331,-4.00e-02,
332,-4.00e-02,
333,1.72e-01,
334,-4.40e-02,
335,1.72e-01,
336,-4.00e-02,
337,1.56e-01,
338,1.76e-01,
339,-5.60e-02,
340,1.72e-01,
341,-5.60e-02,
342,-6.00e-02,
343,1.72e-01,
344,-4.80e-02,
345,1.24e-01,
346,1.60e-01,
347,-3.60e-02,
348,1.52e-01,
349,-4.00e-02,
350,1.44e-01,
351,-4.00e-02,
352,-3.60e-02,
353,1.36e-01,
354,1.52e-01,
355,-3.60e-02,
356,-3.60e-02,
357,1.32e-01,
358,-3.60e-02,
359,1.56e-01,
360,-3.60e-02,
361,1.52e-01,
362,-3.60e-02,
363,1.56e-01,
364,1.52e-01,
365,-4.00e-02,
366,-4.40e-02,
367,1.52e-01,
368,1.48e-01,
369,-5.20e-02,
370,-6.00e-02,
371,1.56e-01,
372,-6.80e-02,
373,1.56e-01,
374,1.60e-01,
375,-7.60e-02,
376,1.60e-01,
377,-8.80e-02,
378,-8.40e-02,
379,1.60e-01,
380,1.64e-01,
381,-9.20e-02,
382,1.60e-01,
383,-1.04e-01,
384,1.64e-01,
385,-1.00e-01,
386,-6.40e-02,
387,1.28e-01,
388,-3.60e-02,
389,1.32e-01,
390,-3.60e-02,
391,1.12e-01,
392,1.16e-01,
393,-4.00e-02,
394,-3.60e-02,
395,5.20e-02,
396,1.48e-01,
397,-3.60e-02,
398,-3.60e-02,
399,1.36e-01,
400,-3.60e-02,
401,1.60e-01,
402,-3.60e-02,
403,1.60e-01,
404,-3.60e-02,
405,1.64e-01,
406,-3.60e-02,
407,1.64e-01,
408,1.64e-01,
409,-3.60e-02,
410,1.68e-01,
411,-4.00e-02,
412,1.64e-01,
413,-4.00e-02,
414,-4.00e-02,
415,1.68e-01,
416,1.72e-01,
417,-4.00e-02,
418,1.72e-01,
419,-4.40e-02,
420,1.76e-01,
421,-5.60e-02,
422,1.68e-01,
423,-6.40e-02,
424,-6.40e-02,
425,1.72e-01,
426,-6.80e-02,
427,1.52e-01,
428,1.16e-01,
429,-4.40e-02,
430,-3.60e-02,
431,1.44e-01,
432,-3.20e-02,
433,9.20e-02,
434,5.20e-02,
435,-3.60e-02,
436,-3.60e-02,
437,7.60e-02,
438,-3.60e-02,
439,1.44e-01,
440,1.48e-01,
441,-3.60e-02,
442,-3.60e-02,
443,1.48e-01,
444,-4.00e-02,
445,1.52e-01,
446,1.52e-01,
447,-4.00e-02,
448,1.52e-01,
449,-4.80e-02,
450,-6.00e-02,
451,1.52e-01,
452,1.52e-01,
453,-6.00e-02,
454,1.52e-01,
455,-6.80e-02,
456,-7.20e-02,
457,1.52e-01,
458,1.56e-01,
459,-6.80e-02,
460,-7.20e-02,
461,1.56e-01,
462,-8.40e-02,
463,1.52e-01,
464,-7.60e-02,
465,1.64e-01,
466,1.72e-01,
467,-7.20e-02,
468,-7.20e-02,
469,1.56e-01,
470,-3.60e-02,
471,1.44e-01,
472,1.52e-01,
473,-4.00e-02,
474,7.20e-02,
475,-4.00e-02,
476,-3.60e-02,
477,6.40e-02,
478,-3.60e-02,
479,1.60e-01,
480,-3.60e-02,
481,1.56e-01,
482,-3.60e-02,
483,1.64e-01,
484,1.20e-01,
485,-4.00e-02,
486,1.56e-01,
487,-4.00e-02,
488,1.68e-01,
489,-4.00e-02,
490,-3.60e-02,
491,1.64e-01,
492,-4.00e-02,
493,1.56e-01,
494,1.72e-01,
495,-4.00e-02,
496,-4.00e-02,
497,1.56e-01,
498,-4.00e-02,
499,1.64e-01,
500,-3.60e-02,
501,1.60e-01,
502,-3.60e-02,
503,1.68e-01,
504,-6.00e-02,
505,1.68e-01,
506,1.76e-01,
507,-6.40e-02,
508,-4.40e-02,
509,1.64e-01,
510,1.20e-01,
511,-4.00e-02,
512,-4.00e-02,
513,1.44e-01,
514,1.60e-01,
515,-3.60e-02,
516,-3.60e-02,
517,6.80e-02,
518,-3.60e-02,
519,1.16e-01,
520,-3.60e-02,
521,1.52e-01,
522,-3.60e-02,
523,1.52e-01,
524,-4.00e-02,
525,1.44e-01,
526,-4.00e-02,
527,1.48e-01,
528,1.52e-01,
529,-4.00e-02,
530,-4.00e-02,
531,1.56e-01,
532,1.40e-01,
533,-4.40e-02,
534,-6.00e-02,
535,1.48e-01,
536,1.56e-01,
537,-6.00e-02,
538,1.48e-01,
539,-6.00e-02,
540,1.52e-01,
541,-6.40e-02,
542,1.60e-01,
543,-5.60e-02,
544,1.28e-01,
545,-6.00e-02,
546,-6.00e-02,
547,1.68e-01,
548,1.20e-01,
549,-7.20e-02,
550,-5.60e-02,
551,1.12e-01,
552,-4.40e-02,
553,7.60e-02,
554,8.40e-02,
555,-3.20e-02,
556,1.00e-01,
557,-3.60e-02,
558,-3.20e-02,
559,1.24e-01,
560,1.52e-01,
561,-3.20e-02,
562,1.48e-01,
563,-3.20e-02,
564,1.48e-01,
565,-3.20e-02,
566,-3.60e-02,
567,1.52e-01,
568,-3.60e-02,
569,1.64e-01,
570,-3.60e-02,
571,1.64e-01,
572,-4.00e-02,
573,1.68e-01,
574,1.24e-01,
575,-4.00e-02,
576,1.72e-01,
577,-4.00e-02,
578,-3.60e-02,
579,1.44e-01,
580,-4.00e-02,
581,1.72e-01,
582,-3.60e-02,
583,1.28e-01,
584,1.72e-01,
585,-3.60e-02,
586,1.40e-01,
587,-4.00e-02,
588,-3.60e-02,
589,8.00e-02,
590,-5.20e-02,
591,1.00e-01,
592,1.24e-01,
593,-4.80e-02,
594,1.64e-01,
595,-4.00e-02,
596,-3.60e-02,
597,1.52e-01,
598,-3.20e-02,
599,1.36e-01,
600,-3.20e-02,
601,1.28e-01,
602,-3.20e-02,
603,1.44e-01,
604,-3.20e-02,
605,1.40e-01,
606,-3.20e-02,
607,1.48e-01,
608,-3.20e-02,
609,1.36e-01,
610,-2.80e-02,
611,1.48e-01,
612,-3.60e-02,
613,1.40e-01,
614,-3.20e-02,
615,1.44e-01,
616,-3.20e-02,
617,1.44e-01,
618,-3.20e-02,
619,1.48e-01,
620,-3.20e-02,
621,1.48e-01,
622,1.48e-01,
623,-3.20e-02,
624,-2.80e-02,
625,1.52e-01,
626,-5.60e-02,
627,8.80e-02,
628,1.56e-01,
629,-4.40e-02,
630,1.44e-01,
631,-5.20e-02,
632,1.44e-01,
633,-5.20e-02,
634,1.52e-01,
635,-5.20e-02,
636,6.80e-02,
637,-4.00e-02,
638,1.56e-01,
639,-3.60e-02,
640,-2.80e-02,
641,1.44e-01,
642,-3.20e-02,
643,1.44e-01,
644,-3.20e-02,
645,1.48e-01,
646,-3.60e-02,
647,1.44e-01,
648,1.52e-01,
649,-3.60e-02,
650,1.56e-01,
651,-3.60e-02,
652,-3.60e-02,
653,1.60e-01,
654,1.64e-01,
655,-3.60e-02,
656,-4.00e-02,
657,1.60e-01,
658,-3.20e-02,
659,1.56e-01,
660,1.68e-01,
661,-3.60e-02,
662,-3.60e-02,
663,1.68e-01,
664,-3.20e-02,
665,1.60e-01,
666,1.48e-01,
667,-3.20e-02,
668,3.20e-02,
669,-3.60e-02,
670,-3.60e-02,
671,4.80e-02,
672,-3.20e-02,
673,1.56e-01,
674,1.64e-01,
675,-3.60e-02,
676,-3.60e-02,
677,1.64e-01,
678,-3.20e-02,
679,1.04e-01,
680,-3.20e-02,
681,1.44e-01,
682,-2.80e-02,
683,1.32e-01,
684,1.36e-01,
685,-2.80e-02,
686,-2.80e-02,
687,1.36e-01,
688,-2.80e-02,
689,1.28e-01,
690,-3.20e-02,
691,1.40e-01,
692,-2.80e-02,
693,1.44e-01,
694,1.48e-01,
695,-2.80e-02,
696,-2.80e-02,
697,1.44e-01,
698,-3.20e-02,
699,1.36e-01,
700,1.48e-01,
701,-2.80e-02,
702,-2.80e-02,
703,1.48e-01,
704,-3.20e-02,
705,1.52e-01,
706,8.00e-02,
707,-3.20e-02,
708,8.00e-02,
709,-3.20e-02,
710,-3.20e-02,
711,1.00e-01,
712,6.80e-02,
713,-3.20e-02,
714,-3.20e-02,
715,1.04e-01,
716,-4.00e-02,
717,1.28e-01,
718,-3.60e-02,
719,1.48e-01,
720,-2.80e-02,
721,1.40e-01,
722,-3.20e-02,
723,1.40e-01,
724,-3.20e-02,
725,1.48e-01,
726,1.44e-01,
727,-3.20e-02,
728,-3.20e-02,
729,1.40e-01,
730,-3.20e-02,
731,1.44e-01,
732,-4.00e-02,
733,1.32e-01,
734,-4.40e-02,
735,1.40e-01,
736,1.52e-01,
737,-4.40e-02,
738,-4.00e-02,
739,1.60e-01,
740,1.40e-01,
741,-4.00e-02,
742,-4.00e-02,
743,1.52e-01,
744,-3.20e-02,
745,1.48e-01,
746,-3.20e-02,
747,1.64e-01,
748,-3.20e-02,
749,1.12e-01,
750,1.36e-01,
751,-3.20e-02,
752,-3.20e-02,
753,1.60e-01,
754,-3.20e-02,
755,7.20e-02,
756,1.40e-01,
757,-3.20e-02,
758,-3.20e-02,
759,1.52e-01,
760,-3.20e-02,
761,1.52e-01,
762,1.20e-01,
763,-2.80e-02,
764,1.28e-01,
765,-2.80e-02,
766,-2.40e-02,
767,1.32e-01,
768,1.32e-01,
769,-2.80e-02,
770,1.28e-01,
771,-3.60e-02,
772,-2.40e-02,
773,1.20e-01,
774,1.36e-01,
775,-2.40e-02,
776,1.36e-01,
777,-3.20e-02,
778,-2.80e-02,
779,1.44e-01,
780,1.44e-01,
781,-2.80e-02,
782,-2.80e-02,
783,1.48e-01,
784,-2.80e-02,
785,1.40e-01,
786,4.80e-02,
787,-3.20e-02,
788,-2.80e-02,
789,1.16e-01,
790,9.60e-02,
791,-3.20e-02,
792,-3.20e-02,
793,6.80e-02,
794,-2.80e-02,
795,1.52e-01,
796,9.20e-02,
797,-3.20e-02,
798,1.60e-01,
799,-3.60e-02,
800,-3.20e-02,
801,1.56e-01,
802,-3.20e-02,
803,1.56e-01,
804,-2.80e-02,
805,1.44e-01,
806,-3.20e-02,
807,1.36e-01,
808,-3.20e-02,
809,1.36e-01,
810,-4.00e-02,
811,1.40e-01,
812,1.40e-01,
813,-3.60e-02,
814,-4.00e-02,
815,1.40e-01,
816,1.36e-01,
817,-4.40e-02,
818,-4.40e-02,
819,1.52e-01,
820,-4.40e-02,
821,1.60e-01,
822,-3.60e-02,
823,1.56e-01,
824,1.56e-01,
825,-3.20e-02,
826,-3.20e-02,
827,9.20e-02,
828,8.40e-02,
829,-3.20e-02,
830,-2.80e-02,
831,1.08e-01,
832,-3.20e-02,
833,1.44e-01,
834,7.60e-02,
835,-3.20e-02,
836,1.52e-01,
837,-3.20e-02,
838,1.64e-01,
839,-3.20e-02,
840,1.56e-01,
841,-3.20e-02,
842,-3.20e-02,
843,1.52e-01,
844,1.60e-01,
845,-3.20e-02,
846,1.40e-01,
847,-3.20e-02,
848,1.32e-01,
849,-2.80e-02,
850,-2.40e-02,
851,1.28e-01,
852,1.28e-01,
853,-2.80e-02,
854,-2.40e-02,
855,1.28e-01,
856,-2.80e-02,
857,1.36e-01,
858,1.28e-01,
859,-2.80e-02,
860,1.44e-01,
861,-3.20e-02,
862,1.44e-01,
863,-3.20e-02,
864,-2.80e-02,
865,1.52e-01,
866,-2.80e-02,
867,1.20e-01,
868,-2.80e-02,
869,9.60e-02,
870,1.04e-01,
871,-3.20e-02,
872,-3.20e-02,
873,1.56e-01,
874,-3.20e-02,
875,1.08e-01,
876,-3.20e-02,
877,1.56e-01,
878,-3.20e-02,
879,1.52e-01,
880,-3.20e-02,
881,1.60e-01,
882,1.64e-01,
883,-3.60e-02,
884,1.52e-01,
885,-3.60e-02,
886,-3.20e-02,
887,1.60e-01,
888,1.32e-01,
889,-3.60e-02,
890,-3.60e-02,
891,1.36e-01,
892,1.40e-01,
893,-3.60e-02,
894,-3.20e-02,
895,1.40e-01,
896,1.48e-01,
897,-4.00e-02,
898,1.48e-01,
899,-4.40e-02,
900,1.48e-01,
901,-4.40e-02,
902,-4.40e-02,
903,1.40e-01,
904,-4.00e-02,
905,1.52e-01,
906,-3.20e-02,
907,1.40e-01,
908,-3.20e-02,
909,1.40e-01,
910,1.00e-01,
911,-3.20e-02,
912,-2.80e-02,
913,1.24e-01,
914,7.60e-02,
915,-2.80e-02,
916,8.00e-02,
917,-3.20e-02,
918,-3.20e-02,
919,1.52e-01,
920,-3.20e-02,
921,1.60e-01,
922,-2.80e-02,
923,1.56e-01,
924,1.60e-01,
925,-3.20e-02,
926,-2.80e-02,
927,1.60e-01,
928,-2.80e-02,
929,1.40e-01,
930,1.40e-01,
931,-2.80e-02,
932,1.16e-01,
933,-2.80e-02,
934,1.04e-01,
935,-2.80e-02,
936,-2.80e-02,
937,1.32e-01,
938,-2.80e-02,
939,1.40e-01,
940,1.40e-01,
941,-2.80e-02,
942,-2.80e-02,
943,1.40e-01,
944,-2.80e-02,
945,1.36e-01,
946,-2.80e-02,
947,1.24e-01,
948,-3.60e-02,
949,1.52e-01,
950,-2.80e-02,
951,1.16e-01,
952,-2.80e-02,
953,8.40e-02,
954,1.24e-01,
955,-3.20e-02,
956,-3.20e-02,
957,1.52e-01,
958,-3.60e-02,
959,1.60e-01,
960,1.32e-01,
961,-3.20e-02,
962,-3.20e-02,
963,1.56e-01,
964,-3.20e-02,
965,1.68e-01,
966,1.64e-01,
967,-3.20e-02,
968,1.68e-01,
969,-3.60e-02,
970,1.52e-01,
971,-3.20e-02,
972,1.40e-01,
973,-4.00e-02,
974,-4.00e-02,
975,1.36e-01,
976,1.44e-01,
977,-4.40e-02,
978,1.52e-01,
979,-4.40e-02,
980,-4.80e-02,
981,1.44e-01,
982,1.44e-01,
983,-4.80e-02,
984,-4.00e-02,
985,1.44e-01,
986,1.52e-01,
987,-3.20e-02,
988,-4.00e-02,
989,1.24e-01,
990,-3.60e-02,
991,7.60e-02,
992,-3.20e-02,
993,1.12e-01,
994,-2.80e-02,
995,1.44e-01,
996,1.28e-01,
997,-3.20e-02,
998,-2.40e-02,
999,1.08e-01,
1000,1.60e-01,
1001,-2.80e-02,
1002,-2.80e-02,
1003,1.56e-01,
1004,1.56e-01,
1005,-2.80e-02,
1006,-2.80e-02,
1007,1.60e-01,
1008,1.56e-01,
1009,-2.80e-02,
1010,-2.40e-02,
1011,1.36e-01,
1012,-2.80e-02,
1013,1.28e-01,
1014,1.20e-01,
1015,-2.80e-02,
1016,-2.80e-02,
1017,1.32e-01,
1018,-3.20e-02,
1019,1.40e-01,
1020,-2.80e-02,
1021,1.44e-01,
1022,-2.80e-02,
1023,1.36e-01,
1024,-2.40e-02,
1025,1.24e-01,
1026,-2.40e-02,
1027,1.08e-01,
1028,-2.80e-02,
1029,1.24e-01,
1030,1.08e-01,
1031,-2.80e-02,
1032,1.32e-01,
1033,-2.80e-02,
1034,-2.80e-02,
1035,1.16e-01,
1036,-2.80e-02,
1037,1.16e-01,
1038,-2.80e-02,
1039,1.32e-01,
1040,-2.80e-02,
1041,1.60e-01,
1042,-2.80e-02,
1043,1.60e-01,
1044,1.32e-01,
1045,-2.80e-02,
1046,1.52e-01,
1047,-2.80e-02,
1048,-2.80e-02,
1049,1.60e-01,
1050,-2.80e-02,
1051,1.72e-01,
1052,-3.20e-02,
1053,1.64e-01,
1054,-2.80e-02,
1055,1.28e-01,
1056,1.36e-01,
1057,-4.00e-02,
1058,1.48e-01,
1059,-4.40e-02,
1060,-4.40e-02,
1061,1.44e-01,
1062,-5.20e-02,
1063,1.44e-01,
1064,-4.40e-02,
1065,1.48e-01,
1066,-4.00e-02,
1067,8.80e-02,
1068,-3.60e-02,
1069,1.36e-01,
1070,1.32e-01,
1071,-3.20e-02,
1072,-2.80e-02,
1073,1.12e-01,
1074,-3.20e-02,
1075,8.00e-02,
1076,-3.20e-02,
1077,8.40e-02,
1078,-2.80e-02,
1079,1.48e-01,
1080,-2.80e-02,
1081,1.56e-01,
1082,-2.80e-02,
1083,1.56e-01,
1084,1.32e-01,
1085,-3.20e-02,
1086,1.28e-01,
1087,-3.60e-02,
1088,-3.20e-02,
1089,1.60e-01,
1090,1.52e-01,
1091,-2.80e-02,
1092,-2.80e-02,
1093,1.56e-01,
1094,1.52e-01,
1095,-3.20e-02,
1096,-3.20e-02,
1097,1.28e-01,
1098,-2.80e-02,
1099,1.32e-01,
1100,1.24e-01,
1101,-2.80e-02,
1102,-2.80e-02,
1103,1.32e-01,
1104,1.28e-01,
1105,-2.40e-02,
1106,-2.40e-02,
1107,1.08e-01,
1108,-2.40e-02,
1109,1.32e-01,
1110,1.28e-01,
1111,-3.20e-02,
1112,1.12e-01,
1113,-2.80e-02,
1114,-2.80e-02,
1115,1.24e-01,
1116,-2.80e-02,
1117,9.60e-02,
1118,-3.60e-02,
1119,1.60e-01,
1120,-3.20e-02,
1121,1.52e-01,
1122,1.60e-01,
1123,-3.20e-02,
1124,-3.20e-02,
1125,1.64e-01,
1126,-2.80e-02,
1127,1.68e-01,
1128,1.64e-01,
1129,-3.60e-02,
1130,1.60e-01,
1131,-3.60e-02,
1132,-2.80e-02,
1133,1.64e-01,
1134,1.64e-01,
1135,-3.20e-02,
1136,-2.80e-02,
1137,1.60e-01,
1138,-4.00e-02,
1139,1.36e-01,
1140,1.52e-01,
1141,-4.40e-02,
1142,1.48e-01,
1143,-4.00e-02,
1144,-4.40e-02,
1145,1.52e-01,
1146,8.80e-02,
1147,-4.40e-02,
1148,-4.00e-02,
1149,1.48e-01,
1150,-3.60e-02,
1151,1.24e-01,
1152,-2.80e-02,
1153,8.00e-02,
1154,-2.80e-02,
1155,1.44e-01,
1156,-3.60e-02,
1157,8.00e-02,
1158,-3.20e-02,
1159,1.56e-01,
1160,-2.80e-02,
1161,1.60e-01,
1162,-2.80e-02,
1163,1.60e-01,
1164,-3.20e-02,
1165,1.56e-01,
1166,-3.20e-02,
1167,1.60e-01,
1168,-3.20e-02,
1169,1.56e-01,
1170,-2.80e-02,
1171,1.28e-01,
1172,-3.20e-02,
1173,1.56e-01,
1174,1.56e-01,
1175,-4.80e-02,
1176,1.52e-01,
1177,-6.00e-02,
1178,-3.20e-02,
1179,1.52e-01,
1180,-2.80e-02,
1181,1.44e-01,
1182,1.40e-01,
1183,-3.20e-02,
1184,1.20e-01,
1185,-2.80e-02,
1186,1.16e-01,
1187,-2.80e-02,
1188,-2.80e-02,
1189,1.20e-01,
1190,-2.40e-02,
1191,1.12e-01,
1192,1.16e-01,
1193,-2.80e-02,
1194,1.20e-01,
1195,-2.80e-02,
1196,-2.80e-02,
1197,1.32e-01,
1198,-2.80e-02,
1199,1.40e-01,
