Laptop_1/LAPTOP_CHRGR_1_ON_CLOSE/time domain/NewFile7.csv

X,CH1,Start,Increment,
Sequence,Volt,-1.500000e-01,2.000000e-04
0,1.16e-01,
1,-1.04e-01,
2,-1.04e-01,
3,1.20e-01,
4,1.08e-01,
5,-1.20e-01,
6,-1.24e-01,
7,1.24e-01,
8,-1.24e-01,
9,1.12e-01,
10,1.16e-01,
11,-1.24e-01,
12,1.32e-01,
13,-1.24e-01,
14,1.28e-01,
15,-1.20e-01,
16,1.40e-01,
17,-1.20e-01,
18,1.00e-01,
19,-1.04e-01,
20,-1.08e-01,
21,1.04e-01,
22,1.36e-01,
23,-1.16e-01,
24,1.36e-01,
25,-1.04e-01,
26,1.24e-01,
27,-1.20e-01,
28,-1.16e-01,
29,9.20e-02,
30,-1.20e-01,
31,1.16e-01,
32,7.20e-02,
33,-1.08e-01,
34,5.60e-02,
35,-1.08e-01,
36,-1.12e-01,
37,6.80e-02,
38,-1.08e-01,
39,7.60e-02,
40,1.24e-01,
41,-1.32e-01,
42,1.20e-01,
43,-1.64e-01,
44,1.28e-01,
45,-1.76e-01,
46,-1.56e-01,
47,1.44e-01,
48,1.36e-01,
49,-1.72e-01,
50,-1.52e-01,
51,1.32e-01,
52,-1.48e-01,
53,1.28e-01,
54,-1.72e-01,
55,1.32e-01,
56,1.12e-01,
57,-1.08e-01,
58,1.24e-01,
59,-9.60e-02,
60,-1.04e-01,
61,1.12e-01,
62,1.24e-01,
63,-8.80e-02,
64,-1.08e-01,
65,1.24e-01,
66,-1.00e-01,
67,8.40e-02,
68,1.12e-01,
69,-1.00e-01,
70,1.24e-01,
71,-1.00e-01,
72,-1.00e-01,
73,8.00e-02,
74,1.12e-01,
75,-1.00e-01,
76,-1.08e-01,
77,6.00e-02,
78,-9.60e-02,
79,6.40e-02,
80,1.12e-01,
81,-1.12e-01,
82,1.12e-01,
83,-1.08e-01,
84,1.16e-01,
85,-1.12e-01,
86,-1.04e-01,
87,1.16e-01,
88,1.12e-01,
89,-1.12e-01,
90,-1.20e-01,
91,1.28e-01,
92,-1.16e-01,
93,1.20e-01,
94,-1.32e-01,
95,1.36e-01,
96,1.08e-01,
97,-1.20e-01,
98,-1.28e-01,
99,1.12e-01,
100,-1.16e-01,
101,1.40e-01,
102,1.12e-01,
103,-1.12e-01,
104,-1.08e-01,
105,1.36e-01,
106,-1.12e-01,
107,1.12e-01,
108,-1.20e-01,
109,1.00e-01,
110,-1.16e-01,
111,5.60e-02,
112,6.80e-02,
113,-1.08e-01,
114,5.20e-02,
115,-1.12e-01,
116,-9.60e-02,
117,1.12e-01,
118,4.40e-02,
119,-1.04e-01,
120,-1.08e-01,
121,1.20e-01,
122,9.20e-02,
123,-1.20e-01,
124,1.32e-01,
125,-1.52e-01,
126,-1.64e-01,
127,1.40e-01,
128,1.40e-01,
129,-1.64e-01,
130,1.36e-01,
131,-1.84e-01,
132,-1.60e-01,
133,1.28e-01,
134,1.16e-01,
135,-1.64e-01,
136,1.16e-01,
137,-1.68e-01,
138,1.40e-01,
139,-1.76e-01,
140,-9.60e-02,
141,1.00e-01,
142,-8.80e-02,
143,1.08e-01,
144,1.12e-01,
145,-1.08e-01,
146,1.24e-01,
147,-9.60e-02,
148,-1.08e-01,
149,1.04e-01,
150,-1.04e-01,
151,1.24e-01,
152,-1.00e-01,
153,1.20e-01,
154,1.24e-01,
155,-1.04e-01,
156,6.00e-02,
157,-1.04e-01,
158,-9.20e-02,
159,8.00e-02,
160,1.08e-01,
161,-1.12e-01,
162,1.16e-01,
163,-1.16e-01,
164,8.40e-02,
165,-1.12e-01,
166,1.20e-01,
167,-1.20e-01,
168,-1.00e-01,
169,1.16e-01,
170,1.12e-01,
171,-9.60e-02,
172,9.60e-02,
173,-9.60e-02,
174,-1.12e-01,
175,1.00e-01,
176,-1.28e-01,
177,1.32e-01,
178,-1.28e-01,
179,1.36e-01,
180,-1.16e-01,
181,9.60e-02,
182,-1.20e-01,
183,9.60e-02,
184,-1.20e-01,
185,1.40e-01,
186,-1.20e-01,
187,1.48e-01,
188,-1.16e-01,
189,1.28e-01,
190,6.80e-02,
191,-1.16e-01,
192,4.80e-02,
193,-1.08e-01,
194,-8.40e-02,
195,7.60e-02,
196,5.20e-02,
197,-1.04e-01,
198,-1.12e-01,
199,4.80e-02,
200,-1.12e-01,
201,1.16e-01,
202,8.00e-02,
203,-1.00e-01,
204,1.16e-01,
205,-1.04e-01,
206,1.20e-01,
207,-1.04e-01,
208,1.24e-01,
209,-1.72e-01,
210,1.24e-01,
211,-1.64e-01,
212,-1.72e-01,
213,1.40e-01,
214,1.24e-01,
215,-1.84e-01,
216,1.28e-01,
217,-1.76e-01,
218,1.20e-01,
219,-1.72e-01,
220,-1.84e-01,
221,1.36e-01,
222,1.08e-01,
223,-9.20e-02,
224,1.20e-01,
225,-1.04e-01,
226,-1.12e-01,
227,8.00e-02,
228,-1.08e-01,
229,1.12e-01,
230,1.00e-01,
231,-1.04e-01,
232,-1.00e-01,
233,1.16e-01,
234,-1.04e-01,
235,1.04e-01,
236,-9.20e-02,
237,7.60e-02,
238,-9.20e-02,
239,1.24e-01,
240,1.08e-01,
241,-9.20e-02,
242,-1.04e-01,
243,1.24e-01,
244,-1.12e-01,
245,1.16e-01,
246,1.12e-01,
247,-1.04e-01,
248,-1.20e-01,
249,1.16e-01,
250,1.20e-01,
251,-1.08e-01,
252,-1.04e-01,
253,1.00e-01,
254,-1.12e-01,
255,1.28e-01,
256,-1.28e-01,
257,9.60e-02,
258,1.16e-01,
259,-1.36e-01,
260,-1.32e-01,
261,1.48e-01,
262,-1.56e-01,
263,1.44e-01,
264,-1.24e-01,
265,1.40e-01,
266,-1.24e-01,
267,1.12e-01,
268,-1.08e-01,
269,1.40e-01,
270,6.80e-02,
271,-8.40e-02,
272,-1.16e-01,
273,6.80e-02,
274,6.40e-02,
275,-1.16e-01,
276,5.20e-02,
277,-1.08e-01,
278,-1.04e-01,
279,8.40e-02,
280,-1.08e-01,
281,1.20e-01,
282,-1.04e-01,
283,1.04e-01,
284,-1.08e-01,
285,1.28e-01,
286,1.00e-01,
287,-1.04e-01,
288,1.20e-01,
289,-1.40e-01,
290,-1.72e-01,
291,1.52e-01,
292,1.48e-01,
293,-1.84e-01,
294,-1.68e-01,
295,1.32e-01,
296,1.28e-01,
297,-1.88e-01,
298,1.32e-01,
299,-1.84e-01,
300,-1.80e-01,
301,1.32e-01,
302,1.32e-01,
303,-1.72e-01,
304,-1.72e-01,
305,1.32e-01,
306,-1.12e-01,
307,1.12e-01,
308,8.00e-02,
309,-1.12e-01,
310,-1.08e-01,
311,1.24e-01,
312,1.04e-01,
313,-1.16e-01,
314,9.60e-02,
315,-9.60e-02,
316,-1.08e-01,
317,1.16e-01,
318,7.60e-02,
319,-9.20e-02,
320,1.00e-01,
321,-1.04e-01,
322,-1.00e-01,
323,1.16e-01,
324,1.28e-01,
325,-1.00e-01,
326,-1.12e-01,
327,1.16e-01,
328,1.12e-01,
329,-1.16e-01,
330,-1.16e-01,
331,1.28e-01,
332,-9.60e-02,
333,1.12e-01,
334,1.28e-01,
335,-1.08e-01,
336,-1.20e-01,
337,1.04e-01,
338,1.16e-01,
339,-1.12e-01,
340,1.12e-01,
341,-1.32e-01,
342,1.20e-01,
343,-1.48e-01,
344,-1.64e-01,
345,1.52e-01,
346,-1.56e-01,
347,1.48e-01,
348,-1.20e-01,
349,1.12e-01,
350,6.80e-02,
351,-1.12e-01,
352,-1.20e-01,
353,4.40e-02,
354,8.40e-02,
355,-1.04e-01,
356,6.00e-02,
357,-1.04e-01,
358,-1.08e-01,
359,7.20e-02,
360,1.24e-01,
361,-1.16e-01,
362,1.24e-01,
363,-1.12e-01,
364,-1.12e-01,
365,1.20e-01,
366,-1.08e-01,
367,1.12e-01,
368,1.20e-01,
369,-1.04e-01,
370,1.20e-01,
371,-1.48e-01,
372,1.16e-01,
373,-1.72e-01,
374,1.48e-01,
375,-1.88e-01,
376,1.32e-01,
377,-2.00e-01,
378,-1.76e-01,
379,1.60e-01,
380,1.52e-01,
381,-1.96e-01,
382,1.28e-01,
383,-1.84e-01,
384,1.32e-01,
385,-1.84e-01,
386,-1.64e-01,
387,1.36e-01,
388,-1.52e-01,
389,1.40e-01,
390,-9.20e-02,
391,1.16e-01,
392,-1.12e-01,
393,8.80e-02,
394,-1.08e-01,
395,1.20e-01,
396,-1.00e-01,
397,6.40e-02,
398,9.60e-02,
399,-9.60e-02,
400,1.28e-01,
401,-1.08e-01,
402,-1.08e-01,
403,1.20e-01,
404,-1.08e-01,
405,1.28e-01,
406,1.20e-01,
407,-1.04e-01,
408,-1.08e-01,
409,1.28e-01,
410,-1.08e-01,
411,1.16e-01,
412,1.24e-01,
413,-1.08e-01,
414,1.20e-01,
415,-1.24e-01,
416,-1.24e-01,
417,1.08e-01,
418,-1.16e-01,
419,1.00e-01,
420,1.20e-01,
421,-1.24e-01,
422,1.24e-01,
423,-1.28e-01,
424,-1.48e-01,
425,1.24e-01,
426,1.48e-01,
427,-1.64e-01,
428,-1.72e-01,
429,1.52e-01,
430,6.00e-02,
431,-1.24e-01,
432,1.44e-01,
433,-1.16e-01,
434,4.80e-02,
435,-1.16e-01,
436,-1.08e-01,
437,1.12e-01,
438,1.08e-01,
439,-1.24e-01,
440,1.08e-01,
441,-1.20e-01,
442,-1.16e-01,
443,1.04e-01,
444,9.20e-02,
445,-1.12e-01,
446,1.32e-01,
447,-1.08e-01,
448,1.12e-01,
449,-1.04e-01,
450,-9.60e-02,
451,1.28e-01,
452,-1.32e-01,
453,1.20e-01,
454,1.16e-01,
455,-1.88e-01,
456,-1.84e-01,
457,1.32e-01,
458,-1.96e-01,
459,1.60e-01,
460,-1.88e-01,
461,1.24e-01,
462,1.52e-01,
463,-1.88e-01,
464,1.40e-01,
465,-1.88e-01,
466,1.36e-01,
467,-1.80e-01,
468,-1.76e-01,
469,1.36e-01,
470,-1.92e-01,
471,1.36e-01,
472,1.40e-01,
473,-9.20e-02,
474,-9.20e-02,
475,8.00e-02,
476,-8.00e-02,
477,6.40e-02,
478,-1.00e-01,
479,9.60e-02,
480,7.60e-02,
481,-1.16e-01,
482,-1.00e-01,
483,1.16e-01,
484,1.24e-01,
485,-1.04e-01,
486,1.20e-01,
487,-1.04e-01,
488,-1.04e-01,
489,1.24e-01,
490,-1.12e-01,
491,1.24e-01,
492,-1.12e-01,
493,1.20e-01,
494,1.16e-01,
495,-1.12e-01,
496,1.00e-01,
497,-1.24e-01,
498,1.00e-01,
499,-1.16e-01,
500,-1.24e-01,
501,1.00e-01,
502,-1.16e-01,
503,1.16e-01,
504,-1.08e-01,
505,1.24e-01,
506,1.12e-01,
507,-1.36e-01,
508,-1.60e-01,
509,1.32e-01,
510,1.44e-01,
511,-1.92e-01,
512,1.56e-01,
513,-1.60e-01,
514,-1.24e-01,
515,4.80e-02,
516,5.60e-02,
517,-1.08e-01,
518,-1.12e-01,
519,1.16e-01,
520,1.36e-01,
521,-1.20e-01,
522,1.32e-01,
523,-1.12e-01,
524,-1.12e-01,
525,1.40e-01,
526,1.36e-01,
527,-1.16e-01,
528,-1.16e-01,
529,1.00e-01,
530,1.28e-01,
531,-1.12e-01,
532,9.20e-02,
533,-1.00e-01,
534,-1.16e-01,
535,1.24e-01,
536,1.36e-01,
537,-1.68e-01,
538,-1.84e-01,
539,1.56e-01,
540,-1.88e-01,
541,1.52e-01,
542,1.44e-01,
543,-1.84e-01,
544,-1.96e-01,
545,1.52e-01,
546,-1.84e-01,
547,1.52e-01,
548,-1.96e-01,
549,1.56e-01,
550,-1.88e-01,
551,1.36e-01,
552,-1.84e-01,
553,1.40e-01,
554,-1.56e-01,
555,1.28e-01,
556,4.80e-02,
557,-9.60e-02,
558,-9.60e-02,
559,8.00e-02,
560,1.20e-01,
561,-1.12e-01,
562,1.20e-01,
563,-9.60e-02,
564,1.24e-01,
565,-1.08e-01,
566,-1.08e-01,
567,1.28e-01,
568,1.04e-01,
569,-1.08e-01,
570,-1.08e-01,
571,1.16e-01,
572,-1.04e-01,
573,1.32e-01,
574,-1.12e-01,
575,1.00e-01,
576,1.16e-01,
577,-1.08e-01,
578,-1.08e-01,
579,1.24e-01,
580,1.08e-01,
581,-1.16e-01,
582,1.28e-01,
583,-1.16e-01,
584,1.28e-01,
585,-1.28e-01,
586,-1.12e-01,
587,1.08e-01,
588,-1.12e-01,
589,8.80e-02,
590,1.36e-01,
591,-1.56e-01,
592,1.48e-01,
593,-1.72e-01,
594,1.48e-01,
595,-1.80e-01,
596,1.16e-01,
597,-1.36e-01,
598,-1.00e-01,
599,1.16e-01,
600,1.48e-01,
601,-1.20e-01,
602,-1.20e-01,
603,1.36e-01,
604,-1.16e-01,
605,1.40e-01,
606,-1.12e-01,
607,1.20e-01,
608,-1.16e-01,
609,1.28e-01,
610,1.36e-01,
611,-1.12e-01,
612,-1.08e-01,
613,1.04e-01,
614,1.04e-01,
615,-1.12e-01,
616,1.24e-01,
617,-1.16e-01,
618,-1.44e-01,
619,1.44e-01,
620,1.56e-01,
621,-1.72e-01,
622,1.52e-01,
623,-1.64e-01,
624,1.52e-01,
625,-1.84e-01,
626,1.56e-01,
627,-1.88e-01,
628,-1.84e-01,
629,1.52e-01,
630,1.52e-01,
631,-2.00e-01,
632,-1.88e-01,
633,1.52e-01,
634,1.56e-01,
635,-1.96e-01,
636,1.28e-01,
637,-1.92e-01,
638,1.36e-01,
639,-1.00e-01,
640,-1.20e-01,
641,1.28e-01,
642,-1.12e-01,
643,8.80e-02,
644,1.20e-01,
645,-1.16e-01,
646,1.32e-01,
647,-1.08e-01,
648,9.60e-02,
649,-1.00e-01,
650,8.80e-02,
651,-1.08e-01,
652,-1.04e-01,
653,1.24e-01,
654,-1.08e-01,
655,1.08e-01,
656,1.24e-01,
657,-1.16e-01,
658,1.20e-01,
659,-1.12e-01,
660,1.12e-01,
661,-1.16e-01,
662,1.20e-01,
663,-1.12e-01,
664,-1.12e-01,
665,1.20e-01,
666,-1.12e-01,
667,9.60e-02,
668,8.80e-02,
669,-1.20e-01,
670,6.40e-02,
671,-1.24e-01,
672,1.28e-01,
673,-1.48e-01,
674,1.44e-01,
675,-1.76e-01,
676,1.40e-01,
677,-1.80e-01,
678,1.44e-01,
679,-1.80e-01,
680,1.40e-01,
681,-1.24e-01,
682,-1.20e-01,
683,1.16e-01,
684,1.36e-01,
685,-1.24e-01,
686,-1.24e-01,
687,1.20e-01,
688,-1.20e-01,
689,1.40e-01,
690,1.40e-01,
691,-1.00e-01,
692,1.24e-01,
693,-1.08e-01,
694,1.24e-01,
695,-1.04e-01,
696,1.28e-01,
697,-1.08e-01,
698,9.60e-02,
699,-1.04e-01,
700,-1.28e-01,
701,1.36e-01,
702,-1.40e-01,
703,1.48e-01,
704,1.44e-01,
705,-1.52e-01,
706,-1.68e-01,
707,1.52e-01,
708,-1.76e-01,
709,1.56e-01,
710,1.44e-01,
711,-1.48e-01,
712,-1.72e-01,
713,1.60e-01,
714,1.36e-01,
715,-1.92e-01,
716,1.16e-01,
717,-1.84e-01,
718,1.44e-01,
719,-1.56e-01,
720,-1.92e-01,
721,1.40e-01,
722,1.32e-01,
723,-1.04e-01,
724,-1.04e-01,
725,1.20e-01,
726,1.28e-01,
727,-1.00e-01,
728,-1.08e-01,
729,1.00e-01,
730,-1.08e-01,
731,1.24e-01,
732,-1.20e-01,
733,1.00e-01,
734,-1.12e-01,
735,1.12e-01,
736,1.28e-01,
737,-1.00e-01,
738,-1.16e-01,
739,9.60e-02,
740,1.28e-01,
741,-1.12e-01,
742,9.60e-02,
743,-1.24e-01,
744,-1.16e-01,
745,1.20e-01,
746,-1.24e-01,
747,1.24e-01,
748,-1.08e-01,
749,1.20e-01,
750,-1.28e-01,
751,6.40e-02,
752,-1.16e-01,
753,9.20e-02,
754,-1.24e-01,
755,1.36e-01,
756,-1.44e-01,
757,1.28e-01,
758,-1.64e-01,
759,1.48e-01,
760,-1.92e-01,
761,1.24e-01,
762,1.32e-01,
763,-1.56e-01,
764,1.28e-01,
765,-1.28e-01,
766,-1.20e-01,
767,1.36e-01,
768,1.36e-01,
769,-1.24e-01,
770,-1.04e-01,
771,1.40e-01,
772,-1.20e-01,
773,1.44e-01,
774,-1.12e-01,
775,1.36e-01,
776,-1.00e-01,
777,1.32e-01,
778,-1.08e-01,
779,1.32e-01,
780,1.20e-01,
781,-1.08e-01,
782,1.28e-01,
783,-1.16e-01,
784,1.24e-01,
785,-1.28e-01,
786,-1.24e-01,
787,1.32e-01,
788,1.36e-01,
789,-1.56e-01,
790,1.20e-01,
791,-1.68e-01,
792,-1.84e-01,
793,1.56e-01,
794,1.60e-01,
795,-1.60e-01,
796,-2.00e-01,
797,1.48e-01,
798,1.60e-01,
799,-1.88e-01,
800,-1.76e-01,
801,1.52e-01,
802,1.52e-01,
803,-1.68e-01,
804,1.44e-01,
805,-1.68e-01,
806,1.24e-01,
807,-1.04e-01,
808,1.24e-01,
809,-1.20e-01,
810,1.24e-01,
811,-1.04e-01,
812,1.20e-01,
813,-1.04e-01,
814,-1.08e-01,
815,1.16e-01,
816,-1.12e-01,
817,1.16e-01,
818,-1.08e-01,
819,1.28e-01,
820,-1.16e-01,
821,1.04e-01,
822,-1.08e-01,
823,1.24e-01,
824,-1.24e-01,
825,9.60e-02,
826,1.16e-01,
827,-1.20e-01,
828,1.24e-01,
829,-1.24e-01,
830,-1.08e-01,
831,1.16e-01,
832,6.80e-02,
833,-1.24e-01,
834,8.00e-02,
835,-1.16e-01,
836,1.28e-01,
837,-1.32e-01,
838,-1.68e-01,
839,1.24e-01,
840,1.44e-01,
841,-1.84e-01,
842,1.48e-01,
843,-1.76e-01,
844,-1.52e-01,
845,1.72e-01,
846,1.36e-01,
847,-1.72e-01,
848,-1.24e-01,
849,1.24e-01,
850,-1.12e-01,
851,1.28e-01,
852,1.28e-01,
853,-1.20e-01,
854,1.32e-01,
855,-1.12e-01,
856,-1.24e-01,
857,1.44e-01,
858,-1.16e-01,
859,1.32e-01,
860,9.20e-02,
861,-1.08e-01,
862,-1.12e-01,
863,1.28e-01,
864,-1.04e-01,
865,1.28e-01,
866,1.20e-01,
867,-1.04e-01,
868,1.20e-01,
869,-1.08e-01,
870,-1.28e-01,
871,1.20e-01,
872,-1.32e-01,
873,1.20e-01,
874,-1.48e-01,
875,1.48e-01,
876,-1.68e-01,
877,1.48e-01,
878,-1.68e-01,
879,1.40e-01,
880,1.56e-01,
881,-1.48e-01,
882,1.56e-01,
883,-1.80e-01,
884,1.44e-01,
885,-1.88e-01,
886,-1.72e-01,
887,1.60e-01,
888,-1.08e-01,
889,1.44e-01,
890,-1.12e-01,
891,8.00e-02,
892,9.20e-02,
893,-1.12e-01,
894,1.24e-01,
895,-1.12e-01,
896,1.08e-01,
897,-1.16e-01,
898,-1.12e-01,
899,1.12e-01,
900,9.20e-02,
901,-1.12e-01,
902,-1.04e-01,
903,1.32e-01,
904,1.20e-01,
905,-1.12e-01,
906,1.08e-01,
907,-1.12e-01,
908,-1.12e-01,
909,1.04e-01,
910,-1.04e-01,
911,1.20e-01,
912,6.80e-02,
913,-1.12e-01,
914,-1.24e-01,
915,6.40e-02,
916,-1.20e-01,
917,1.00e-01,
918,-1.16e-01,
919,1.00e-01,
920,-1.44e-01,
921,1.36e-01,
922,-1.76e-01,
923,1.48e-01,
924,1.52e-01,
925,-1.92e-01,
926,-1.88e-01,
927,1.40e-01,
928,-1.84e-01,
929,1.68e-01,
930,-1.24e-01,
931,1.12e-01,
932,-1.12e-01,
933,1.44e-01,
934,1.36e-01,
935,-1.04e-01,
936,1.32e-01,
937,-1.24e-01,
938,1.44e-01,
939,-1.08e-01,
940,-1.04e-01,
941,1.16e-01,
942,1.28e-01,
943,-1.04e-01,
944,1.28e-01,
945,-1.08e-01,
946,-1.12e-01,
947,1.16e-01,
948,-1.08e-01,
949,1.32e-01,
950,-1.04e-01,
951,1.32e-01,
952,1.12e-01,
953,-1.16e-01,
954,-1.04e-01,
955,1.04e-01,
956,-1.32e-01,
957,8.80e-02,
958,-1.40e-01,
959,1.28e-01,
960,-1.12e-01,
961,1.28e-01,
962,1.36e-01,
963,-1.52e-01,
964,-1.68e-01,
965,1.44e-01,
966,-1.80e-01,
967,1.48e-01,
968,-1.88e-01,
969,1.52e-01,
970,-1.68e-01,
971,1.48e-01,
972,-1.12e-01,
973,1.20e-01,
974,1.32e-01,
975,-1.20e-01,
976,1.12e-01,
977,-1.16e-01,
978,-1.08e-01,
979,1.20e-01,
980,-1.12e-01,
981,1.24e-01,
982,9.60e-02,
983,-1.12e-01,
984,1.16e-01,
985,-1.08e-01,
986,8.80e-02,
987,-1.12e-01,
988,-1.16e-01,
989,1.04e-01,
990,1.00e-01,
991,-1.16e-01,
992,1.04e-01,
993,-1.12e-01,
994,6.80e-02,
995,-8.00e-02,
996,-1.20e-01,
997,7.20e-02,
998,-9.60e-02,
999,1.16e-01,
1000,1.28e-01,
1001,-1.12e-01,
1002,1.28e-01,
1003,-1.36e-01,
1004,-1.80e-01,
1005,1.40e-01,
1006,-1.88e-01,
1007,1.44e-01,
1008,-2.08e-01,
1009,1.32e-01,
1010,-1.92e-01,
1011,1.36e-01,
1012,1.48e-01,
1013,-1.52e-01,
1014,-1.12e-01,
1015,1.28e-01,
1016,1.20e-01,
1017,-1.20e-01,
1018,1.24e-01,
1019,-1.20e-01,
1020,1.28e-01,
1021,-1.24e-01,
1022,-1.32e-01,
1023,1.44e-01,
1024,-1.08e-01,
1025,1.40e-01,
1026,1.12e-01,
1027,-1.04e-01,
1028,-1.04e-01,
1029,9.60e-02,
1030,1.28e-01,
1031,-1.08e-01,
1032,-1.08e-01,
1033,1.04e-01,
1034,1.20e-01,
1035,-1.04e-01,
1036,-1.04e-01,
1037,5.60e-02,
1038,-1.04e-01,
1039,1.24e-01,
1040,-1.12e-01,
1041,1.04e-01,
1042,1.28e-01,
1043,-1.48e-01,
1044,-1.40e-01,
1045,1.32e-01,
1046,1.44e-01,
1047,-1.68e-01,
1048,1.48e-01,
1049,-1.68e-01,
1050,1.32e-01,
1051,-1.72e-01,
1052,-1.92e-01,
1053,1.32e-01,
1054,1.24e-01,
1055,-1.36e-01,
1056,1.28e-01,
1057,-1.16e-01,
1058,-1.08e-01,
1059,8.80e-02,
1060,-1.16e-01,
1061,1.24e-01,
1062,1.20e-01,
1063,-1.08e-01,
1064,1.08e-01,
1065,-1.12e-01,
1066,-1.20e-01,
1067,1.00e-01,
1068,1.24e-01,
1069,-1.12e-01,
1070,1.24e-01,
1071,-1.08e-01,
1072,-1.16e-01,
1073,1.24e-01,
1074,6.80e-02,
1075,-1.16e-01,
1076,5.60e-02,
1077,-1.12e-01,
1078,1.04e-01,
1079,-1.00e-01,
1080,1.08e-01,
1081,-1.00e-01,
1082,1.24e-01,
1083,-1.12e-01,
1084,-1.40e-01,
1085,1.36e-01,
1086,1.32e-01,
1087,-1.72e-01,
1088,1.52e-01,
1089,-2.04e-01,
1090,1.56e-01,
1091,-1.96e-01,
1092,-2.04e-01,
1093,1.44e-01,
1094,-1.56e-01,
1095,1.44e-01,
1096,-1.96e-01,
1097,1.24e-01,
1098,-1.20e-01,
1099,1.40e-01,
1100,1.40e-01,
1101,-1.20e-01,
1102,1.36e-01,
1103,-1.04e-01,
1104,-1.08e-01,
1105,1.08e-01,
1106,1.40e-01,
1107,-1.16e-01,
1108,1.28e-01,
1109,-1.12e-01,
1110,-1.12e-01,
1111,1.12e-01,
1112,1.00e-01,
1113,-1.12e-01,
1114,8.40e-02,
1115,-1.08e-01,
1116,-1.04e-01,
1117,5.60e-02,
1118,-1.12e-01,
1119,1.32e-01,
1120,-1.12e-01,
1121,1.16e-01,
1122,1.32e-01,
1123,-1.04e-01,
1124,-1.12e-01,
1125,1.28e-01,
1126,-1.12e-01,
1127,1.24e-01,
1128,-1.20e-01,
1129,1.24e-01,
1130,-1.52e-01,
1131,1.24e-01,
1132,-1.64e-01,
1133,1.40e-01,
1134,1.36e-01,
1135,-1.80e-01,
1136,-1.88e-01,
1137,1.36e-01,
1138,1.36e-01,
1139,-1.12e-01,
1140,-1.20e-01,
1141,1.24e-01,
1142,-1.20e-01,
1143,1.24e-01,
1144,1.04e-01,
1145,-1.20e-01,
1146,-1.24e-01,
1147,1.08e-01,
1148,-1.12e-01,
1149,1.16e-01,
1150,-1.16e-01,
1151,1.16e-01,
1152,8.00e-02,
1153,-1.04e-01,
1154,-1.08e-01,
1155,5.20e-02,
1156,8.80e-02,
1157,-1.12e-01,
1158,-1.20e-01,
1159,1.08e-01,
1160,8.80e-02,
1161,-1.08e-01,
1162,1.16e-01,
1163,-1.08e-01,
1164,-1.04e-01,
1165,1.24e-01,
1166,1.12e-01,
1167,-1.44e-01,
1168,1.28e-01,
1169,-1.68e-01,
1170,1.56e-01,
1171,-1.84e-01,
1172,1.60e-01,
1173,-1.88e-01,
1174,1.48e-01,
1175,-2.00e-01,
1176,1.40e-01,
1177,-2.00e-01,
1178,-1.92e-01,
1179,1.56e-01,
1180,1.56e-01,
1181,-1.84e-01,
1182,-1.08e-01,
1183,1.28e-01,
1184,1.08e-01,
1185,-1.20e-01,
1186,-1.12e-01,
1187,1.40e-01,
1188,-1.32e-01,
1189,1.40e-01,
1190,-1.24e-01,
1191,1.20e-01,
1192,1.36e-01,
1193,-1.12e-01,
1194,-1.12e-01,
1195,1.08e-01,
1196,5.20e-02,
1197,-1.16e-01,
1198,-1.16e-01,
1199,1.28e-01,
