Laptop_1/LAPTOP_CHRGR_1_ON_CLOSE/time domain/NewFile5.csv

X,CH1,Start,Increment,
Sequence,Volt,-1.500000e-01,2.000000e-04
0,-5.20e-02,
1,7.60e-02,
2,-5.60e-02,
3,5.60e-02,
4,7.60e-02,
5,-5.60e-02,
6,-6.00e-02,
7,7.20e-02,
8,8.00e-02,
9,-6.00e-02,
10,-6.80e-02,
11,8.00e-02,
12,6.00e-02,
13,-4.80e-02,
14,6.40e-02,
15,-6.40e-02,
16,7.60e-02,
17,-6.40e-02,
18,-6.00e-02,
19,8.80e-02,
20,-6.80e-02,
21,8.40e-02,
22,8.40e-02,
23,-6.40e-02,
24,-5.60e-02,
25,6.00e-02,
26,3.20e-02,
27,-5.60e-02,
28,-6.40e-02,
29,6.80e-02,
30,3.20e-02,
31,-4.40e-02,
32,2.40e-02,
33,-6.00e-02,
34,4.00e-02,
35,-5.20e-02,
36,-5.60e-02,
37,3.60e-02,
38,2.00e-02,
39,-5.20e-02,
40,6.40e-02,
41,-5.60e-02,
42,8.00e-02,
43,-5.20e-02,
44,-5.20e-02,
45,7.20e-02,
46,8.00e-02,
47,-5.20e-02,
48,7.60e-02,
49,-5.20e-02,
50,6.80e-02,
51,-4.80e-02,
52,-4.80e-02,
53,6.40e-02,
54,6.80e-02,
55,-5.60e-02,
56,7.20e-02,
57,-4.00e-02,
58,-6.00e-02,
59,7.60e-02,
60,-5.20e-02,
61,7.20e-02,
62,-5.60e-02,
63,7.20e-02,
64,-4.80e-02,
65,6.00e-02,
66,2.00e-02,
67,-4.40e-02,
68,2.40e-02,
69,-6.00e-02,
70,2.80e-02,
71,-6.40e-02,
72,-4.40e-02,
73,2.40e-02,
74,-5.20e-02,
75,2.40e-02,
76,-6.00e-02,
77,2.00e-02,
78,2.80e-02,
79,-5.60e-02,
80,-6.00e-02,
81,7.20e-02,
82,6.00e-02,
83,-5.20e-02,
84,-5.20e-02,
85,7.20e-02,
86,-5.20e-02,
87,7.60e-02,
88,6.80e-02,
89,-5.60e-02,
90,-5.20e-02,
91,6.40e-02,
92,6.40e-02,
93,-6.00e-02,
94,7.60e-02,
95,-6.80e-02,
96,9.20e-02,
97,-6.00e-02,
98,-5.60e-02,
99,6.80e-02,
100,7.20e-02,
101,-6.00e-02,
102,8.40e-02,
103,-6.40e-02,
104,-6.80e-02,
105,4.00e-02,
106,2.40e-02,
107,-6.00e-02,
108,-5.20e-02,
109,3.20e-02,
110,7.20e-02,
111,-6.00e-02,
112,-6.00e-02,
113,7.20e-02,
114,-6.00e-02,
115,2.40e-02,
116,-5.60e-02,
117,2.40e-02,
118,2.80e-02,
119,-5.20e-02,
120,7.60e-02,
121,-5.20e-02,
122,-5.60e-02,
123,7.60e-02,
124,-5.60e-02,
125,6.80e-02,
126,-4.80e-02,
127,6.80e-02,
128,8.00e-02,
129,-4.80e-02,
130,8.00e-02,
131,-5.20e-02,
132,7.20e-02,
133,-5.20e-02,
134,-5.20e-02,
135,7.60e-02,
136,7.20e-02,
137,-4.80e-02,
138,-5.20e-02,
139,6.80e-02,
140,-5.20e-02,
141,8.00e-02,
142,7.60e-02,
143,-6.40e-02,
144,5.60e-02,
145,-6.40e-02,
146,3.60e-02,
147,-5.20e-02,
148,-4.40e-02,
149,6.80e-02,
150,5.60e-02,
151,-6.40e-02,
152,-4.40e-02,
153,6.00e-02,
154,7.20e-02,
155,-6.80e-02,
156,-6.80e-02,
157,5.60e-02,
158,-8.40e-02,
159,1.00e-01,
160,-8.00e-02,
161,1.20e-01,
162,1.20e-01,
163,-7.60e-02,
164,8.80e-02,
165,-8.00e-02,
166,-8.80e-02,
167,1.20e-01,
168,8.40e-02,
169,-8.80e-02,
170,-9.20e-02,
171,1.16e-01,
172,-9.20e-02,
173,1.24e-01,
174,1.24e-01,
175,-8.80e-02,
176,1.20e-01,
177,-1.36e-01,
178,1.28e-01,
179,-1.12e-01,
180,1.44e-01,
181,-1.12e-01,
182,-1.12e-01,
183,1.04e-01,
184,1.40e-01,
185,-1.04e-01,
186,8.40e-02,
187,-8.40e-02,
188,7.60e-02,
189,-8.40e-02,
190,1.28e-01,
191,-8.00e-02,
192,1.20e-01,
193,-8.40e-02,
194,-8.80e-02,
195,5.20e-02,
196,-7.20e-02,
197,4.80e-02,
198,6.80e-02,
199,-1.00e-01,
200,1.24e-01,
201,-1.04e-01,
202,-1.04e-01,
203,9.20e-02,
204,1.24e-01,
205,-7.60e-02,
206,1.24e-01,
207,-1.16e-01,
208,-1.68e-01,
209,1.20e-01,
210,-1.40e-01,
211,1.64e-01,
212,-1.88e-01,
213,1.60e-01,
214,1.48e-01,
215,-2.00e-01,
216,-1.80e-01,
217,1.48e-01,
218,-1.84e-01,
219,1.56e-01,
220,-1.92e-01,
221,1.44e-01,
222,1.52e-01,
223,-1.80e-01,
224,1.24e-01,
225,-1.12e-01,
226,-1.16e-01,
227,1.20e-01,
228,1.20e-01,
229,-1.20e-01,
230,1.28e-01,
231,-1.16e-01,
232,-1.16e-01,
233,1.20e-01,
234,1.16e-01,
235,-9.20e-02,
236,-6.40e-02,
237,5.20e-02,
238,8.00e-02,
239,-1.04e-01,
240,1.12e-01,
241,-1.08e-01,
242,1.24e-01,
243,-1.00e-01,
244,1.24e-01,
245,-1.04e-01,
246,1.24e-01,
247,-1.12e-01,
248,-1.00e-01,
249,1.08e-01,
250,-9.20e-02,
251,1.20e-01,
252,1.08e-01,
253,-9.60e-02,
254,-1.04e-01,
255,1.32e-01,
256,1.20e-01,
257,-8.80e-02,
258,1.32e-01,
259,-1.12e-01,
260,1.32e-01,
261,-1.60e-01,
262,1.44e-01,
263,-1.48e-01,
264,1.36e-01,
265,-1.12e-01,
266,1.36e-01,
267,-1.16e-01,
268,-8.40e-02,
269,7.20e-02,
270,-8.80e-02,
271,1.12e-01,
272,-8.40e-02,
273,7.20e-02,
274,7.60e-02,
275,-8.80e-02,
276,6.00e-02,
277,-8.80e-02,
278,8.80e-02,
279,-8.00e-02,
280,1.08e-01,
281,-1.12e-01,
282,1.32e-01,
283,-1.12e-01,
284,1.32e-01,
285,-1.08e-01,
286,-1.12e-01,
287,1.08e-01,
288,-1.12e-01,
289,1.28e-01,
290,1.32e-01,
291,-1.44e-01,
292,1.64e-01,
293,-1.68e-01,
294,1.68e-01,
295,-1.84e-01,
296,1.64e-01,
297,-1.76e-01,
298,1.56e-01,
299,-1.96e-01,
300,-1.88e-01,
301,1.60e-01,
302,1.60e-01,
303,-1.92e-01,
304,-1.96e-01,
305,1.60e-01,
306,1.72e-01,
307,-1.96e-01,
308,1.04e-01,
309,-1.12e-01,
310,1.24e-01,
311,-1.00e-01,
312,-1.12e-01,
313,1.20e-01,
314,-1.16e-01,
315,1.04e-01,
316,6.80e-02,
317,-5.60e-02,
318,-8.00e-02,
319,8.80e-02,
320,-1.12e-01,
321,1.32e-01,
322,-1.08e-01,
323,1.20e-01,
324,-1.04e-01,
325,1.12e-01,
326,-1.08e-01,
327,1.24e-01,
328,-8.80e-02,
329,1.24e-01,
330,-1.16e-01,
331,1.24e-01,
332,-1.12e-01,
333,1.12e-01,
334,1.28e-01,
335,-1.04e-01,
336,1.28e-01,
337,-1.12e-01,
338,1.16e-01,
339,-1.04e-01,
340,1.12e-01,
341,-1.12e-01,
342,1.24e-01,
343,-1.56e-01,
344,1.44e-01,
345,-1.60e-01,
346,1.72e-01,
347,-1.40e-01,
348,-8.40e-02,
349,6.00e-02,
350,-9.20e-02,
351,1.04e-01,
352,8.40e-02,
353,-1.00e-01,
354,6.80e-02,
355,-9.20e-02,
356,-9.20e-02,
357,6.00e-02,
358,7.60e-02,
359,-1.08e-01,
360,1.08e-01,
361,-1.16e-01,
362,-1.08e-01,
363,1.28e-01,
364,-1.08e-01,
365,1.36e-01,
366,1.24e-01,
367,-1.04e-01,
368,-1.08e-01,
369,1.16e-01,
370,-1.08e-01,
371,1.24e-01,
372,-1.32e-01,
373,1.28e-01,
374,-1.76e-01,
375,1.60e-01,
376,1.64e-01,
377,-1.92e-01,
378,1.76e-01,
379,-2.00e-01,
380,-1.96e-01,
381,1.72e-01,
382,-1.68e-01,
383,1.64e-01,
384,-1.76e-01,
385,1.64e-01,
386,1.64e-01,
387,-1.96e-01,
388,1.68e-01,
389,-1.72e-01,
390,1.40e-01,
391,-1.16e-01,
392,1.00e-01,
393,-6.40e-02,
394,-6.40e-02,
395,7.60e-02,
396,5.20e-02,
397,-9.20e-02,
398,-1.08e-01,
399,1.28e-01,
400,-1.16e-01,
401,8.40e-02,
402,-1.04e-01,
403,1.04e-01,
404,1.28e-01,
405,-1.16e-01,
406,1.20e-01,
407,-9.60e-02,
408,-1.00e-01,
409,1.20e-01,
410,-1.08e-01,
411,1.32e-01,
412,-9.20e-02,
413,1.28e-01,
414,7.60e-02,
415,-1.04e-01,
416,-1.04e-01,
417,1.12e-01,
418,1.08e-01,
419,-9.60e-02,
420,-1.16e-01,
421,1.24e-01,
422,1.08e-01,
423,-1.00e-01,
424,1.28e-01,
425,-1.08e-01,
426,1.44e-01,
427,-1.56e-01,
428,-1.76e-01,
429,1.52e-01,
430,1.48e-01,
431,-9.60e-02,
432,-8.40e-02,
433,6.80e-02,
434,-1.00e-01,
435,7.20e-02,
436,1.32e-01,
437,-9.60e-02,
438,-1.24e-01,
439,9.20e-02,
440,1.28e-01,
441,-1.16e-01,
442,1.16e-01,
443,-9.20e-02,
444,1.12e-01,
445,-1.16e-01,
446,1.04e-01,
447,-1.08e-01,
448,-1.08e-01,
449,1.36e-01,
450,-1.00e-01,
451,1.32e-01,
452,1.32e-01,
453,-1.08e-01,
454,-1.36e-01,
455,1.40e-01,
456,1.44e-01,
457,-1.68e-01,
458,1.64e-01,
459,-1.88e-01,
460,1.68e-01,
461,-1.96e-01,
462,-2.00e-01,
463,1.56e-01,
464,1.76e-01,
465,-2.00e-01,
466,1.56e-01,
467,-2.00e-01,
468,-1.88e-01,
469,1.60e-01,
470,-2.00e-01,
471,1.64e-01,
472,-2.04e-01,
473,1.72e-01,
474,8.40e-02,
475,-6.00e-02,
476,7.20e-02,
477,-6.80e-02,
478,7.20e-02,
479,-9.60e-02,
480,1.20e-01,
481,-1.08e-01,
482,-9.20e-02,
483,9.60e-02,
484,1.32e-01,
485,-1.08e-01,
486,1.20e-01,
487,-1.16e-01,
488,1.20e-01,
489,-1.20e-01,
490,-1.04e-01,
491,1.20e-01,
492,-1.04e-01,
493,1.28e-01,
494,-1.04e-01,
495,1.20e-01,
496,-1.04e-01,
497,1.04e-01,
498,1.24e-01,
499,-1.08e-01,
500,1.32e-01,
501,-1.08e-01,
502,-8.80e-02,
503,1.32e-01,
504,-1.08e-01,
505,1.24e-01,
506,-1.16e-01,
507,1.28e-01,
508,-1.60e-01,
509,1.12e-01,
510,-1.32e-01,
511,1.44e-01,
512,1.72e-01,
513,-1.80e-01,
514,7.60e-02,
515,-1.08e-01,
516,5.60e-02,
517,-1.00e-01,
518,-1.00e-01,
519,1.20e-01,
520,1.36e-01,
521,-1.08e-01,
522,-1.16e-01,
523,1.24e-01,
524,1.40e-01,
525,-1.12e-01,
526,1.16e-01,
527,-1.16e-01,
528,-1.12e-01,
529,1.24e-01,
530,1.36e-01,
531,-1.12e-01,
532,-1.12e-01,
533,1.28e-01,
534,-1.04e-01,
535,1.04e-01,
536,-1.16e-01,
537,1.32e-01,
538,1.28e-01,
539,-1.52e-01,
540,-1.76e-01,
541,1.64e-01,
542,-2.08e-01,
543,1.76e-01,
544,1.76e-01,
545,-2.08e-01,
546,-2.04e-01,
547,1.76e-01,
548,-2.08e-01,
549,1.56e-01,
550,1.68e-01,
551,-1.68e-01,
552,1.64e-01,
553,-1.84e-01,
554,-1.88e-01,
555,1.68e-01,
556,-1.80e-01,
557,1.56e-01,
558,1.04e-01,
559,-1.12e-01,
560,-1.16e-01,
561,1.16e-01,
562,-1.12e-01,
563,1.28e-01,
564,1.28e-01,
565,-1.04e-01,
566,-1.24e-01,
567,1.28e-01,
568,1.04e-01,
569,-1.08e-01,
570,-1.08e-01,
571,1.32e-01,
572,1.20e-01,
573,-1.08e-01,
574,1.28e-01,
575,-1.04e-01,
576,1.16e-01,
577,-1.12e-01,
578,1.12e-01,
579,-1.16e-01,
580,1.04e-01,
581,-1.08e-01,
582,-1.20e-01,
583,1.12e-01,
584,-1.08e-01,
585,1.28e-01,
586,1.20e-01,
587,-1.04e-01,
588,-1.00e-01,
589,6.80e-02,
590,-1.32e-01,
591,1.36e-01,
592,-1.44e-01,
593,1.32e-01,
594,1.64e-01,
595,-1.40e-01,
596,-1.88e-01,
597,1.72e-01,
598,-1.04e-01,
599,1.44e-01,
600,-1.04e-01,
601,1.44e-01,
602,-1.24e-01,
603,1.40e-01,
604,-1.24e-01,
605,1.24e-01,
606,1.32e-01,
607,-1.16e-01,
608,1.36e-01,
609,-1.08e-01,
610,1.24e-01,
611,-1.12e-01,
612,-1.16e-01,
613,1.16e-01,
614,-1.20e-01,
615,1.04e-01,
616,-9.20e-02,
617,1.08e-01,
618,1.20e-01,
619,-9.20e-02,
620,1.24e-01,
621,-1.64e-01,
622,-1.68e-01,
623,1.68e-01,
624,-2.00e-01,
625,1.72e-01,
626,1.72e-01,
627,-1.84e-01,
628,-2.04e-01,
629,1.72e-01,
630,-1.84e-01,
631,1.60e-01,
632,1.72e-01,
633,-1.92e-01,
634,1.60e-01,
635,-1.96e-01,
636,1.72e-01,
637,-2.00e-01,
638,-1.72e-01,
639,1.68e-01,
640,-1.12e-01,
641,1.32e-01,
642,-1.08e-01,
643,1.32e-01,
644,1.24e-01,
645,-9.20e-02,
646,-1.20e-01,
647,1.20e-01,
648,-1.28e-01,
649,1.16e-01,
650,-1.08e-01,
651,1.20e-01,
652,1.32e-01,
653,-1.12e-01,
654,-1.12e-01,
655,1.28e-01,
656,1.16e-01,
657,-1.12e-01,
658,-1.04e-01,
659,1.20e-01,
660,-1.08e-01,
661,1.08e-01,
662,1.28e-01,
663,-1.12e-01,
664,1.12e-01,
665,-1.16e-01,
666,1.28e-01,
667,-1.08e-01,
668,6.40e-02,
669,-8.00e-02,
670,-9.20e-02,
671,6.40e-02,
672,8.00e-02,
673,-1.00e-01,
674,-1.28e-01,
675,1.48e-01,
676,1.40e-01,
677,-1.84e-01,
678,-1.64e-01,
679,1.56e-01,
680,-1.64e-01,
681,1.52e-01,
682,-1.00e-01,
683,1.16e-01,
684,-1.24e-01,
685,1.32e-01,
686,1.40e-01,
687,-1.16e-01,
688,8.00e-02,
689,-1.04e-01,
690,9.20e-02,
691,-1.24e-01,
692,-9.20e-02,
693,1.16e-01,
694,-1.08e-01,
695,1.40e-01,
696,1.08e-01,
697,-1.16e-01,
698,1.16e-01,
699,-1.08e-01,
700,-1.08e-01,
701,1.32e-01,
702,-1.12e-01,
703,1.36e-01,
704,-1.76e-01,
705,1.60e-01,
706,-1.80e-01,
707,1.76e-01,
708,1.56e-01,
709,-1.84e-01,
710,1.72e-01,
711,-1.68e-01,
712,1.56e-01,
713,-2.08e-01,
714,1.76e-01,
715,-1.92e-01,
716,1.56e-01,
717,-2.04e-01,
718,-1.64e-01,
719,1.64e-01,
720,-1.88e-01,
721,1.64e-01,
722,-2.04e-01,
723,1.60e-01,
724,1.24e-01,
725,-1.12e-01,
726,-1.00e-01,
727,1.16e-01,
728,1.32e-01,
729,-1.20e-01,
730,-1.12e-01,
731,1.28e-01,
732,1.16e-01,
733,-1.20e-01,
734,-1.12e-01,
735,1.28e-01,
736,1.20e-01,
737,-8.80e-02,
738,1.20e-01,
739,-1.12e-01,
740,-1.12e-01,
741,1.28e-01,
742,1.04e-01,
743,-1.08e-01,
744,-1.12e-01,
745,1.24e-01,
746,-1.12e-01,
747,1.28e-01,
748,-9.20e-02,
749,7.20e-02,
750,-9.60e-02,
751,6.80e-02,
752,-8.80e-02,
753,6.80e-02,
754,-8.80e-02,
755,6.40e-02,
756,1.24e-01,
757,-1.20e-01,
758,1.44e-01,
759,-1.68e-01,
760,-1.96e-01,
761,1.68e-01,
762,1.44e-01,
763,-1.88e-01,
764,-1.92e-01,
765,1.44e-01,
766,1.24e-01,
767,-1.20e-01,
768,1.24e-01,
769,-1.00e-01,
770,1.44e-01,
771,-8.00e-02,
772,1.44e-01,
773,-1.24e-01,
774,1.44e-01,
775,-9.60e-02,
776,1.12e-01,
777,-9.20e-02,
778,1.08e-01,
779,-1.12e-01,
780,-1.04e-01,
781,1.20e-01,
782,1.28e-01,
783,-9.60e-02,
784,1.32e-01,
785,-1.08e-01,
786,-1.52e-01,
787,1.48e-01,
788,-1.68e-01,
789,1.60e-01,
790,1.48e-01,
791,-1.84e-01,
792,-1.80e-01,
793,1.60e-01,
794,1.64e-01,
795,-2.00e-01,
796,1.52e-01,
797,-1.80e-01,
798,1.72e-01,
799,-2.00e-01,
800,1.64e-01,
801,-2.00e-01,
802,1.60e-01,
803,-1.96e-01,
804,-1.80e-01,
805,1.68e-01,
806,-1.60e-01,
807,1.28e-01,
808,1.24e-01,
809,-8.40e-02,
810,1.24e-01,
811,-1.20e-01,
812,-1.16e-01,
813,1.24e-01,
814,1.28e-01,
815,-1.04e-01,
816,9.60e-02,
817,-1.12e-01,
818,1.12e-01,
819,-1.04e-01,
820,1.28e-01,
821,-1.08e-01,
822,-9.60e-02,
823,1.28e-01,
824,1.28e-01,
825,-1.08e-01,
826,1.00e-01,
827,-1.08e-01,
828,-9.60e-02,
829,1.28e-01,
830,-9.60e-02,
831,8.40e-02,
832,6.40e-02,
833,-8.80e-02,
834,-8.40e-02,
835,6.80e-02,
836,-8.80e-02,
837,6.40e-02,
838,9.60e-02,
839,-1.28e-01,
840,-1.60e-01,
841,1.48e-01,
842,1.52e-01,
843,-1.84e-01,
844,-2.00e-01,
845,1.76e-01,
846,1.64e-01,
847,-1.88e-01,
848,-1.20e-01,
849,1.36e-01,
850,1.24e-01,
851,-1.16e-01,
852,1.44e-01,
853,-8.40e-02,
854,1.44e-01,
855,-1.00e-01,
856,1.16e-01,
857,-1.20e-01,
858,-1.04e-01,
859,1.40e-01,
860,1.40e-01,
861,-1.20e-01,
862,-1.08e-01,
863,1.24e-01,
864,-1.00e-01,
865,1.28e-01,
866,-1.08e-01,
867,1.20e-01,
868,-1.36e-01,
869,1.36e-01,
870,-1.44e-01,
871,1.48e-01,
872,1.56e-01,
873,-1.64e-01,
874,1.72e-01,
875,-1.76e-01,
876,1.40e-01,
877,-1.16e-01,
878,1.72e-01,
879,-1.88e-01,
880,1.72e-01,
881,-2.04e-01,
882,1.64e-01,
883,-2.00e-01,
884,-2.04e-01,
885,1.76e-01,
886,1.64e-01,
887,-2.00e-01,
888,1.68e-01,
889,-2.08e-01,
890,1.28e-01,
891,-1.24e-01,
892,1.28e-01,
893,-1.20e-01,
894,-7.60e-02,
895,1.12e-01,
896,1.08e-01,
897,-1.12e-01,
898,1.32e-01,
899,-1.04e-01,
900,-1.20e-01,
901,1.24e-01,
902,1.04e-01,
903,-1.08e-01,
904,-1.12e-01,
905,1.24e-01,
906,-1.16e-01,
907,1.00e-01,
908,-1.12e-01,
909,1.16e-01,
910,-9.60e-02,
911,1.24e-01,
912,6.00e-02,
913,-9.20e-02,
914,7.20e-02,
915,-8.40e-02,
916,-8.40e-02,
917,7.20e-02,
918,1.20e-01,
919,-1.08e-01,
920,1.32e-01,
921,-1.04e-01,
922,1.52e-01,
923,-1.76e-01,
924,1.64e-01,
925,-1.64e-01,
926,1.44e-01,
927,-1.96e-01,
928,1.60e-01,
929,-1.88e-01,
930,1.80e-01,
931,-1.56e-01,
932,-1.04e-01,
933,1.32e-01,
934,1.40e-01,
935,-1.24e-01,
936,1.24e-01,
937,-1.20e-01,
938,1.32e-01,
939,-9.60e-02,
940,-1.24e-01,
941,1.36e-01,
942,1.36e-01,
943,-1.16e-01,
944,-1.16e-01,
945,1.28e-01,
946,1.04e-01,
947,-9.60e-02,
948,-1.00e-01,
949,1.28e-01,
950,1.04e-01,
951,-1.08e-01,
952,-9.20e-02,
953,1.24e-01,
954,-1.24e-01,
955,1.16e-01,
956,-1.48e-01,
957,1.36e-01,
958,-1.40e-01,
959,1.48e-01,
960,-1.80e-01,
961,1.60e-01,
962,-1.84e-01,
963,1.68e-01,
964,-1.88e-01,
965,1.68e-01,
966,-1.92e-01,
967,1.72e-01,
968,-1.88e-01,
969,1.64e-01,
970,1.72e-01,
971,-1.96e-01,
972,1.28e-01,
973,-1.80e-01,
974,1.28e-01,
975,-1.12e-01,
976,8.80e-02,
977,-1.16e-01,
978,-8.40e-02,
979,1.24e-01,
980,1.24e-01,
981,-9.20e-02,
982,-8.80e-02,
983,1.24e-01,
984,1.20e-01,
985,-1.04e-01,
986,1.20e-01,
987,-1.16e-01,
988,1.28e-01,
989,-1.08e-01,
990,1.08e-01,
991,-9.60e-02,
992,-1.12e-01,
993,1.04e-01,
994,-9.20e-02,
995,8.00e-02,
996,7.60e-02,
997,-8.80e-02,
998,-1.12e-01,
999,1.28e-01,
1000,-1.08e-01,
1001,1.20e-01,
1002,-1.08e-01,
1003,1.32e-01,
1004,-1.40e-01,
1005,1.56e-01,
1006,-1.88e-01,
1007,1.68e-01,
1008,1.56e-01,
1009,-1.76e-01,
1010,-2.00e-01,
1011,1.60e-01,
1012,-2.04e-01,
1013,1.68e-01,
1014,-1.88e-01,
1015,1.40e-01,
1016,1.20e-01,
1017,-1.20e-01,
1018,-1.20e-01,
1019,1.20e-01,
1020,-1.24e-01,
1021,1.36e-01,
1022,-1.20e-01,
1023,1.36e-01,
1024,-1.24e-01,
1025,1.32e-01,
1026,1.28e-01,
1027,-1.08e-01,
1028,-1.08e-01,
1029,1.32e-01,
1030,1.04e-01,
1031,-8.80e-02,
1032,-7.20e-02,
1033,5.20e-02,
1034,-7.20e-02,
1035,6.40e-02,
1036,9.60e-02,
1037,-7.60e-02,
1038,-1.24e-01,
1039,1.28e-01,
1040,1.28e-01,
1041,-1.40e-01,
1042,1.44e-01,
1043,-1.60e-01,
1044,-1.68e-01,
1045,1.40e-01,
1046,1.68e-01,
1047,-1.76e-01,
1048,1.72e-01,
1049,-1.80e-01,
1050,1.72e-01,
1051,-1.80e-01,
1052,-1.92e-01,
1053,1.64e-01,
1054,1.68e-01,
1055,-1.84e-01,
1056,1.36e-01,
1057,-1.24e-01,
1058,1.00e-01,
1059,-1.20e-01,
1060,-9.20e-02,
1061,1.28e-01,
1062,1.20e-01,
1063,-1.04e-01,
1064,1.08e-01,
1065,-1.20e-01,
1066,1.24e-01,
1067,-1.24e-01,
1068,-9.60e-02,
1069,1.28e-01,
1070,1.32e-01,
1071,-1.08e-01,
1072,1.28e-01,
1073,-1.12e-01,
1074,6.40e-02,
1075,-7.60e-02,
1076,-8.00e-02,
1077,6.80e-02,
1078,1.24e-01,
1079,-1.08e-01,
1080,1.28e-01,
1081,-1.12e-01,
1082,-9.60e-02,
1083,1.04e-01,
1084,-1.16e-01,
1085,1.20e-01,
1086,1.28e-01,
1087,-1.28e-01,
1088,-1.60e-01,
1089,1.44e-01,
1090,-1.72e-01,
1091,1.48e-01,
1092,1.64e-01,
1093,-2.04e-01,
1094,-2.00e-01,
1095,1.64e-01,
1096,-1.88e-01,
1097,1.56e-01,
1098,-1.56e-01,
1099,1.28e-01,
1100,1.24e-01,
1101,-1.16e-01,
1102,1.44e-01,
1103,-1.00e-01,
1104,1.32e-01,
1105,-1.24e-01,
1106,-9.60e-02,
1107,1.32e-01,
1108,-1.12e-01,
1109,1.32e-01,
1110,-1.04e-01,
1111,1.32e-01,
1112,4.00e-02,
1113,-6.80e-02,
1114,-7.20e-02,
1115,4.40e-02,
1116,-7.20e-02,
1117,5.60e-02,
1118,1.20e-01,
1119,-1.12e-01,
1120,-9.60e-02,
1121,1.24e-01,
1122,1.08e-01,
1123,-1.00e-01,
1124,-1.12e-01,
1125,1.32e-01,
1126,-1.24e-01,
1127,1.28e-01,
1128,-1.52e-01,
1129,1.12e-01,
1130,1.52e-01,
1131,-1.80e-01,
1132,1.68e-01,
1133,-1.76e-01,
1134,1.60e-01,
1135,-1.88e-01,
1136,1.52e-01,
1137,-1.76e-01,
1138,1.52e-01,
1139,-2.08e-01,
1140,1.12e-01,
1141,-1.12e-01,
1142,-1.04e-01,
1143,9.60e-02,
1144,-1.08e-01,
1145,1.12e-01,
1146,-1.08e-01,
1147,1.24e-01,
1148,1.16e-01,
1149,-1.16e-01,
1150,1.12e-01,
1151,-1.08e-01,
1152,-8.00e-02,
1153,1.04e-01,
1154,-8.00e-02,
1155,8.40e-02,
1156,6.80e-02,
1157,-8.80e-02,
1158,1.20e-01,
1159,-1.08e-01,
1160,1.12e-01,
1161,-1.04e-01,
1162,1.28e-01,
1163,-1.12e-01,
1164,1.20e-01,
1165,-1.08e-01,
1166,1.20e-01,
1167,-1.12e-01,
1168,1.28e-01,
1169,-1.20e-01,
1170,1.52e-01,
1171,-1.68e-01,
1172,1.64e-01,
1173,-1.68e-01,
1174,-1.88e-01,
1175,1.64e-01,
1176,-2.04e-01,
1177,1.64e-01,
1178,1.60e-01,
1179,-1.68e-01,
1180,1.68e-01,
1181,-1.92e-01,
1182,-9.60e-02,
1183,1.32e-01,
1184,9.20e-02,
1185,-1.16e-01,
1186,1.28e-01,
1187,-1.24e-01,
1188,-1.16e-01,
1189,1.40e-01,
1190,-1.12e-01,
1191,1.32e-01,
1192,-1.04e-01,
1193,1.40e-01,
1194,7.20e-02,
1195,-6.80e-02,
1196,1.28e-01,
1197,-5.20e-02,
1198,-8.80e-02,
1199,1.36e-01,
