Laptop_1/LAPTOP_CHRGR_1_ON_CLOSE/time domain/NewFile34.csv

X,CH1,Start,Increment,
Sequence,Volt,-1.500000e-01,2.000000e-04
0,-2.80e-02,
1,1.52e-01,
2,1.56e-01,
3,-2.80e-02,
4,-2.80e-02,
5,1.24e-01,
6,-3.20e-02,
7,1.52e-01,
8,-2.80e-02,
9,1.52e-01,
10,1.56e-01,
11,-2.80e-02,
12,-2.40e-02,
13,1.64e-01,
14,1.52e-01,
15,-2.80e-02,
16,1.32e-01,
17,-2.80e-02,
18,-3.20e-02,
19,1.28e-01,
20,1.16e-01,
21,-3.20e-02,
22,1.24e-01,
23,-4.00e-02,
24,-3.60e-02,
25,1.20e-01,
26,-3.20e-02,
27,1.36e-01,
28,1.28e-01,
29,-3.20e-02,
30,1.24e-01,
31,-2.40e-02,
32,1.36e-01,
33,-3.20e-02,
34,1.36e-01,
35,-4.00e-02,
36,1.36e-01,
37,-3.60e-02,
38,-3.20e-02,
39,1.24e-01,
40,-3.60e-02,
41,1.40e-01,
42,-2.80e-02,
43,1.48e-01,
44,1.40e-01,
45,-2.80e-02,
46,-3.20e-02,
47,1.48e-01,
48,-2.40e-02,
49,1.44e-01,
50,-2.80e-02,
51,1.48e-01,
52,-2.80e-02,
53,1.52e-01,
54,-2.80e-02,
55,1.44e-01,
56,-2.80e-02,
57,1.28e-01,
58,-2.80e-02,
59,1.16e-01,
60,-2.80e-02,
61,1.12e-01,
62,1.12e-01,
63,-2.80e-02,
64,-2.40e-02,
65,1.16e-01,
66,1.24e-01,
67,-2.80e-02,
68,-3.20e-02,
69,1.16e-01,
70,-2.40e-02,
71,1.24e-01,
72,1.20e-01,
73,-2.40e-02,
74,-2.40e-02,
75,1.20e-01,
76,-2.40e-02,
77,1.20e-01,
78,-2.80e-02,
79,1.24e-01,
80,1.24e-01,
81,-2.80e-02,
82,1.20e-01,
83,-2.80e-02,
84,-2.80e-02,
85,1.40e-01,
86,1.40e-01,
87,-2.80e-02,
88,-2.40e-02,
89,1.44e-01,
90,1.36e-01,
91,-2.40e-02,
92,-2.80e-02,
93,1.24e-01,
94,-2.40e-02,
95,1.52e-01,
96,-2.40e-02,
97,1.44e-01,
98,-3.20e-02,
99,1.20e-01,
100,-3.20e-02,
101,1.20e-01,
102,-4.00e-02,
103,1.16e-01,
104,1.20e-01,
105,-4.00e-02,
106,1.12e-01,
107,-3.20e-02,
108,-2.40e-02,
109,1.28e-01,
110,1.16e-01,
111,-4.40e-02,
112,1.24e-01,
113,-4.00e-02,
114,1.28e-01,
115,-3.60e-02,
116,1.32e-01,
117,-2.80e-02,
118,1.32e-01,
119,-3.60e-02,
120,-3.60e-02,
121,1.32e-01,
122,-4.00e-02,
123,1.36e-01,
124,1.28e-01,
125,-2.80e-02,
126,-2.40e-02,
127,1.32e-01,
128,-2.40e-02,
129,1.36e-01,
130,-2.80e-02,
131,1.40e-01,
132,1.36e-01,
133,-3.20e-02,
134,1.40e-01,
135,-2.80e-02,
136,1.32e-01,
137,-3.20e-02,
138,-2.80e-02,
139,1.16e-01,
140,-2.40e-02,
141,1.16e-01,
142,-3.20e-02,
143,1.16e-01,
144,-2.80e-02,
145,1.12e-01,
146,-2.40e-02,
147,1.12e-01,
148,-2.40e-02,
149,1.28e-01,
150,1.24e-01,
151,-2.80e-02,
152,-2.80e-02,
153,1.20e-01,
154,-2.80e-02,
155,9.20e-02,
156,-2.40e-02,
157,1.00e-01,
158,1.20e-01,
159,-2.40e-02,
160,-3.60e-02,
161,1.28e-01,
162,1.36e-01,
163,-2.80e-02,
164,-2.40e-02,
165,1.36e-01,
166,1.32e-01,
167,-2.80e-02,
168,-2.80e-02,
169,1.36e-01,
170,-2.40e-02,
171,1.48e-01,
172,-2.80e-02,
173,1.40e-01,
174,1.48e-01,
175,-2.80e-02,
176,-2.40e-02,
177,1.36e-01,
178,-2.80e-02,
179,1.56e-01,
180,1.32e-01,
181,-2.80e-02,
182,1.24e-01,
183,-3.60e-02,
184,-3.60e-02,
185,1.20e-01,
186,1.12e-01,
187,-4.00e-02,
188,-4.00e-02,
189,1.20e-01,
190,-4.00e-02,
191,1.20e-01,
192,-4.40e-02,
193,1.20e-01,
194,1.24e-01,
195,-4.00e-02,
196,-3.20e-02,
197,1.24e-01,
198,-4.00e-02,
199,1.20e-01,
200,1.24e-01,
201,-3.60e-02,
202,-3.20e-02,
203,1.20e-01,
204,-3.60e-02,
205,1.24e-01,
206,1.28e-01,
207,-3.20e-02,
208,-2.80e-02,
209,1.24e-01,
210,-2.40e-02,
211,1.24e-01,
212,-2.40e-02,
213,1.36e-01,
214,-2.80e-02,
215,1.32e-01,
216,-2.40e-02,
217,1.32e-01,
218,-2.40e-02,
219,1.36e-01,
220,1.32e-01,
221,-3.20e-02,
222,1.28e-01,
223,-2.80e-02,
224,-2.40e-02,
225,1.08e-01,
226,-2.40e-02,
227,1.08e-01,
228,1.12e-01,
229,-2.80e-02,
230,1.16e-01,
231,-2.40e-02,
232,1.20e-01,
233,-2.40e-02,
234,-2.40e-02,
235,8.80e-02,
236,1.20e-01,
237,-2.80e-02,
238,1.24e-01,
239,-2.80e-02,
240,-2.80e-02,
241,1.24e-01,
242,-2.80e-02,
243,1.28e-01,
244,1.24e-01,
245,-2.40e-02,
246,-2.40e-02,
247,1.32e-01,
248,-2.40e-02,
249,1.36e-01,
250,1.36e-01,
251,-2.80e-02,
252,-2.40e-02,
253,1.40e-01,
254,-2.40e-02,
255,1.44e-01,
256,-2.80e-02,
257,1.32e-01,
258,-3.20e-02,
259,1.44e-01,
260,-2.40e-02,
261,1.48e-01,
262,-2.40e-02,
263,1.08e-01,
264,1.28e-01,
265,-4.00e-02,
266,-3.60e-02,
267,1.28e-01,
268,-2.40e-02,
269,1.28e-01,
270,-2.80e-02,
271,1.24e-01,
272,-3.20e-02,
273,9.20e-02,
274,-2.80e-02,
275,1.20e-01,
276,-4.00e-02,
277,1.28e-01,
278,1.20e-01,
279,-4.00e-02,
280,1.20e-01,
281,-4.00e-02,
282,-3.20e-02,
283,1.24e-01,
284,-2.80e-02,
285,1.32e-01,
286,-2.40e-02,
287,1.32e-01,
288,-2.80e-02,
289,1.40e-01,
290,-2.40e-02,
291,1.24e-01,
292,-2.80e-02,
293,1.32e-01,
294,-2.80e-02,
295,1.20e-01,
296,-2.40e-02,
297,1.32e-01,
298,-2.40e-02,
299,1.32e-01,
300,-2.40e-02,
301,1.40e-01,
302,-2.40e-02,
303,1.36e-01,
304,1.20e-01,
305,-2.80e-02,
306,-2.40e-02,
307,1.20e-01,
308,-2.40e-02,
309,1.08e-01,
310,-2.80e-02,
311,1.12e-01,
312,-2.40e-02,
313,1.16e-01,
314,-2.80e-02,
315,1.20e-01,
316,-2.40e-02,
317,1.04e-01,
318,1.16e-01,
319,-2.80e-02,
320,-2.40e-02,
321,1.08e-01,
322,1.20e-01,
323,-2.80e-02,
324,1.08e-01,
325,-2.80e-02,
326,-2.00e-02,
327,1.20e-01,
328,-2.80e-02,
329,1.24e-01,
330,-2.40e-02,
331,1.24e-01,
332,-2.40e-02,
333,1.40e-01,
334,-2.40e-02,
335,1.36e-01,
336,1.40e-01,
337,-2.80e-02,
338,-2.80e-02,
339,1.40e-01,
340,1.48e-01,
341,-2.80e-02,
342,-2.80e-02,
343,1.12e-01,
344,-2.80e-02,
345,1.48e-01,
346,1.36e-01,
347,-3.60e-02,
348,1.24e-01,
349,-4.00e-02,
350,1.16e-01,
351,-2.80e-02,
352,1.24e-01,
353,-4.00e-02,
354,1.24e-01,
355,-2.80e-02,
356,1.20e-01,
357,-4.80e-02,
358,-2.80e-02,
359,1.12e-01,
360,-3.20e-02,
361,1.24e-01,
362,-3.20e-02,
363,1.24e-01,
364,-3.60e-02,
365,1.12e-01,
366,-3.60e-02,
367,1.24e-01,
368,-2.80e-02,
369,1.28e-01,
370,-2.40e-02,
371,1.24e-01,
372,-2.80e-02,
373,1.28e-01,
374,-2.80e-02,
375,1.28e-01,
376,-2.40e-02,
377,1.08e-01,
378,1.24e-01,
379,-2.80e-02,
380,-2.80e-02,
381,1.32e-01,
382,1.28e-01,
383,-2.80e-02,
384,-2.80e-02,
385,1.28e-01,
386,-2.40e-02,
387,1.32e-01,
388,1.28e-01,
389,-2.80e-02,
390,-2.40e-02,
391,1.20e-01,
392,-2.80e-02,
393,1.20e-01,
394,-2.40e-02,
395,1.12e-01,
396,-2.80e-02,
397,1.16e-01,
398,-2.40e-02,
399,1.20e-01,
400,-2.40e-02,
401,1.20e-01,
402,-2.40e-02,
403,1.16e-01,
404,-2.80e-02,
405,1.24e-01,
406,-2.80e-02,
407,1.20e-01,
408,1.16e-01,
409,-2.80e-02,
410,-2.40e-02,
411,1.24e-01,
412,-2.80e-02,
413,1.32e-01,
414,1.36e-01,
415,-2.80e-02,
416,-2.80e-02,
417,1.28e-01,
418,1.48e-01,
419,-3.20e-02,
420,1.48e-01,
421,-2.80e-02,
422,1.24e-01,
423,-3.20e-02,
424,-3.20e-02,
425,1.48e-01,
426,-2.80e-02,
427,1.40e-01,
428,-2.40e-02,
429,1.28e-01,
430,1.00e-01,
431,-4.00e-02,
432,-3.60e-02,
433,1.16e-01,
434,-2.40e-02,
435,1.00e-01,
436,1.20e-01,
437,-3.20e-02,
438,1.20e-01,
439,-4.00e-02,
440,1.24e-01,
441,-4.00e-02,
442,-3.60e-02,
443,1.20e-01,
444,-3.60e-02,
445,1.28e-01,
446,1.16e-01,
447,-3.20e-02,
448,-3.20e-02,
449,1.32e-01,
450,-2.40e-02,
451,1.24e-01,
452,1.16e-01,
453,-2.80e-02,
454,1.20e-01,
455,-2.40e-02,
456,-2.40e-02,
457,1.24e-01,
458,-2.80e-02,
459,1.32e-01,
460,1.28e-01,
461,-2.40e-02,
462,-2.40e-02,
463,1.16e-01,
464,-2.80e-02,
465,1.24e-01,
466,-2.40e-02,
467,1.28e-01,
468,-2.80e-02,
469,1.32e-01,
470,1.44e-01,
471,-3.20e-02,
472,-2.80e-02,
473,1.20e-01,
474,-2.40e-02,
475,1.16e-01,
476,-2.40e-02,
477,8.00e-02,
478,-2.40e-02,
479,1.20e-01,
480,1.24e-01,
481,-2.80e-02,
482,-2.80e-02,
483,1.16e-01,
484,1.12e-01,
485,-2.80e-02,
486,-2.40e-02,
487,1.24e-01,
488,-2.40e-02,
489,1.20e-01,
490,-2.40e-02,
491,1.24e-01,
492,-2.80e-02,
493,1.24e-01,
494,-2.80e-02,
495,1.24e-01,
496,-2.80e-02,
497,1.36e-01,
498,-3.20e-02,
499,1.24e-01,
500,-2.40e-02,
501,1.36e-01,
502,-2.80e-02,
503,1.40e-01,
504,1.44e-01,
505,-2.40e-02,
506,-2.80e-02,
507,1.52e-01,
508,1.44e-01,
509,-3.20e-02,
510,-2.40e-02,
511,1.32e-01,
512,-2.80e-02,
513,1.20e-01,
514,-3.60e-02,
515,1.20e-01,
516,-4.80e-02,
517,1.20e-01,
518,-4.80e-02,
519,1.00e-01,
520,1.20e-01,
521,-4.00e-02,
522,1.20e-01,
523,-4.00e-02,
524,-3.20e-02,
525,1.24e-01,
526,-2.80e-02,
527,1.32e-01,
528,-2.80e-02,
529,1.20e-01,
530,-2.80e-02,
531,1.16e-01,
532,-2.80e-02,
533,1.16e-01,
534,1.16e-01,
535,-2.80e-02,
536,-3.20e-02,
537,1.16e-01,
538,-2.80e-02,
539,1.20e-01,
540,-2.80e-02,
541,1.24e-01,
542,1.24e-01,
543,-2.80e-02,
544,-2.80e-02,
545,1.24e-01,
546,-2.40e-02,
547,1.20e-01,
548,-2.40e-02,
549,1.36e-01,
550,-2.80e-02,
551,6.80e-02,
552,1.40e-01,
553,-2.80e-02,
554,-2.80e-02,
555,1.20e-01,
556,1.16e-01,
557,-2.80e-02,
558,-2.40e-02,
559,1.24e-01,
560,-2.80e-02,
561,1.16e-01,
562,-2.80e-02,
563,1.20e-01,
564,-2.40e-02,
565,1.12e-01,
566,-2.80e-02,
567,1.12e-01,
568,-2.80e-02,
569,1.16e-01,
570,-2.80e-02,
571,1.28e-01,
572,1.20e-01,
573,-3.20e-02,
574,-2.80e-02,
575,1.20e-01,
576,1.24e-01,
577,-3.20e-02,
578,1.32e-01,
579,-2.80e-02,
580,-3.20e-02,
581,1.00e-01,
582,-2.80e-02,
583,1.44e-01,
584,-3.20e-02,
585,1.36e-01,
586,-3.20e-02,
587,1.48e-01,
588,-2.80e-02,
589,1.40e-01,
590,1.44e-01,
591,-2.80e-02,
592,-2.80e-02,
593,1.24e-01,
594,9.60e-02,
595,-3.60e-02,
596,7.60e-02,
597,-2.80e-02,
598,-4.00e-02,
599,1.28e-01,
600,1.20e-01,
601,-4.40e-02,
602,1.20e-01,
603,-3.60e-02,
604,-3.20e-02,
605,1.24e-01,
606,-2.80e-02,
607,1.24e-01,
608,1.24e-01,
609,-2.80e-02,
610,1.24e-01,
611,-2.80e-02,
612,-2.40e-02,
613,1.20e-01,
614,-2.80e-02,
615,1.24e-01,
616,1.24e-01,
617,-2.80e-02,
618,1.16e-01,
619,-2.40e-02,
620,1.20e-01,
621,-2.80e-02,
622,-2.80e-02,
623,1.20e-01,
624,1.20e-01,
625,-2.80e-02,
626,-2.40e-02,
627,1.08e-01,
628,1.32e-01,
629,-2.40e-02,
630,-2.40e-02,
631,1.20e-01,
632,-2.40e-02,
633,1.36e-01,
634,-2.80e-02,
635,1.40e-01,
636,-2.80e-02,
637,1.36e-01,
638,1.44e-01,
639,-2.80e-02,
640,1.24e-01,
641,-2.80e-02,
642,-2.80e-02,
643,1.12e-01,
644,-2.80e-02,
645,1.20e-01,
646,-2.80e-02,
647,1.16e-01,
648,1.20e-01,
649,-3.20e-02,
650,-2.80e-02,
651,1.24e-01,
652,-2.80e-02,
653,1.28e-01,
654,-2.40e-02,
655,1.32e-01,
656,-2.80e-02,
657,1.20e-01,
658,-2.80e-02,
659,1.36e-01,
660,1.32e-01,
661,-3.20e-02,
662,-2.80e-02,
663,1.16e-01,
664,-3.20e-02,
665,1.32e-01,
666,-3.20e-02,
667,1.20e-01,
668,1.36e-01,
669,-2.80e-02,
670,-3.60e-02,
671,1.24e-01,
672,-2.80e-02,
673,1.48e-01,
674,-3.20e-02,
675,1.20e-01,
676,-3.20e-02,
677,1.52e-01,
678,-2.80e-02,
679,1.44e-01,
680,1.44e-01,
681,-3.60e-02,
682,-3.60e-02,
683,1.20e-01,
684,-3.20e-02,
685,1.08e-01,
686,1.20e-01,
687,-2.80e-02,
688,-3.60e-02,
689,1.24e-01,
690,-2.80e-02,
691,1.24e-01,
692,1.12e-01,
693,-2.80e-02,
694,1.12e-01,
695,-2.80e-02,
696,-2.40e-02,
697,1.12e-01,
698,-2.40e-02,
699,1.20e-01,
700,1.12e-01,
701,-2.80e-02,
702,1.16e-01,
703,-2.80e-02,
704,-2.80e-02,
705,1.20e-01,
706,-2.40e-02,
707,9.60e-02,
708,-2.80e-02,
709,1.24e-01,
710,-2.40e-02,
711,1.24e-01,
712,1.44e-01,
713,-2.80e-02,
714,-2.40e-02,
715,1.44e-01,
716,-2.40e-02,
717,1.36e-01,
718,1.08e-01,
719,-2.80e-02,
720,1.48e-01,
721,-2.80e-02,
722,1.28e-01,
723,-2.40e-02,
724,-2.80e-02,
725,1.20e-01,
726,-2.40e-02,
727,1.12e-01,
728,-2.80e-02,
729,1.20e-01,
730,-2.40e-02,
731,1.24e-01,
732,-2.80e-02,
733,1.20e-01,
734,-2.40e-02,
735,1.20e-01,
736,-2.80e-02,
737,1.24e-01,
738,1.32e-01,
739,-2.80e-02,
740,1.20e-01,
741,-3.20e-02,
742,1.28e-01,
743,-3.20e-02,
744,1.32e-01,
745,-3.20e-02,
746,-2.80e-02,
747,1.36e-01,
748,-2.40e-02,
749,1.36e-01,
750,-3.60e-02,
751,1.40e-01,
752,-2.80e-02,
753,1.12e-01,
754,1.40e-01,
755,-2.80e-02,
756,7.20e-02,
757,-2.80e-02,
758,-2.80e-02,
759,1.36e-01,
760,1.52e-01,
761,-2.80e-02,
762,-2.40e-02,
763,1.52e-01,
764,-2.80e-02,
765,1.28e-01,
766,-3.20e-02,
767,1.20e-01,
768,-3.20e-02,
769,1.20e-01,
770,-2.80e-02,
771,1.24e-01,
772,1.16e-01,
773,-2.80e-02,
774,-2.80e-02,
775,1.20e-01,
776,1.12e-01,
777,-2.80e-02,
778,1.12e-01,
779,-3.20e-02,
780,-2.80e-02,
781,1.16e-01,
782,-2.40e-02,
783,1.16e-01,
784,1.08e-01,
785,-2.80e-02,
786,1.24e-01,
787,-2.80e-02,
788,1.16e-01,
789,-2.80e-02,
790,-2.80e-02,
791,1.32e-01,
792,-2.40e-02,
793,1.04e-01,
794,-2.80e-02,
795,1.36e-01,
796,-2.40e-02,
797,1.24e-01,
798,-2.80e-02,
799,1.36e-01,
800,1.40e-01,
801,-2.40e-02,
802,-2.80e-02,
803,1.28e-01,
804,1.28e-01,
805,-2.80e-02,
806,1.16e-01,
807,-2.80e-02,
808,-2.40e-02,
809,1.24e-01,
810,-2.40e-02,
811,1.24e-01,
812,-3.20e-02,
813,1.08e-01,
814,-2.80e-02,
815,1.24e-01,
816,1.20e-01,
817,-2.80e-02,
818,1.20e-01,
819,-3.20e-02,
820,1.20e-01,
821,-3.20e-02,
822,-3.60e-02,
823,1.28e-01,
824,1.24e-01,
825,-3.20e-02,
826,1.28e-01,
827,-2.80e-02,
828,-3.60e-02,
829,1.32e-01,
830,-4.40e-02,
831,1.20e-01,
832,-3.20e-02,
833,1.40e-01,
834,-4.00e-02,
835,1.48e-01,
836,-3.20e-02,
837,1.48e-01,
838,-3.20e-02,
839,1.44e-01,
840,-2.40e-02,
841,1.52e-01,
842,-2.40e-02,
843,1.48e-01,
844,-2.40e-02,
845,1.48e-01,
846,1.48e-01,
847,-3.20e-02,
848,-3.20e-02,
849,1.24e-01,
850,-2.80e-02,
851,1.24e-01,
852,-2.80e-02,
853,1.20e-01,
854,1.20e-01,
855,-2.80e-02,
856,-2.40e-02,
857,1.12e-01,
858,-2.40e-02,
859,1.08e-01,
860,1.16e-01,
861,-2.80e-02,
862,1.20e-01,
863,-3.20e-02,
864,-2.80e-02,
865,1.16e-01,
866,1.08e-01,
867,-2.80e-02,
868,1.20e-01,
869,-2.40e-02,
870,-2.40e-02,
871,1.28e-01,
872,-2.40e-02,
873,1.28e-01,
874,-2.40e-02,
875,1.24e-01,
876,-2.40e-02,
877,1.36e-01,
878,-2.40e-02,
879,1.32e-01,
880,-2.80e-02,
881,1.24e-01,
882,-2.80e-02,
883,1.32e-01,
884,-2.80e-02,
885,1.32e-01,
886,-2.80e-02,
887,1.40e-01,
888,1.20e-01,
889,-3.20e-02,
890,-2.40e-02,
891,1.12e-01,
892,-2.40e-02,
893,1.16e-01,
894,1.16e-01,
895,-2.80e-02,
896,1.12e-01,
897,-2.80e-02,
898,-2.80e-02,
899,1.20e-01,
900,-3.60e-02,
901,1.24e-01,
902,-2.80e-02,
903,1.24e-01,
904,-3.60e-02,
905,1.24e-01,
906,9.60e-02,
907,-3.20e-02,
908,1.24e-01,
909,-4.40e-02,
910,-2.80e-02,
911,1.24e-01,
912,1.36e-01,
913,-3.20e-02,
914,-2.80e-02,
915,1.40e-01,
916,1.04e-01,
917,-2.40e-02,
918,1.40e-01,
919,-3.60e-02,
920,1.48e-01,
921,-3.20e-02,
922,-3.20e-02,
923,1.44e-01,
924,-2.80e-02,
925,1.48e-01,
926,1.44e-01,
927,-3.20e-02,
928,1.44e-01,
929,-2.40e-02,
930,-2.40e-02,
931,1.44e-01,
932,-2.40e-02,
933,1.16e-01,
934,-2.40e-02,
935,1.24e-01,
936,1.16e-01,
937,-2.80e-02,
938,1.20e-01,
939,-2.80e-02,
940,1.16e-01,
941,-2.80e-02,
942,-2.80e-02,
943,1.20e-01,
944,1.12e-01,
945,-2.40e-02,
946,-2.40e-02,
947,1.08e-01,
948,1.16e-01,
949,-2.40e-02,
950,-2.40e-02,
951,1.16e-01,
952,-2.80e-02,
953,1.32e-01,
954,1.20e-01,
955,-2.80e-02,
956,-2.40e-02,
957,1.32e-01,
958,1.28e-01,
959,-2.80e-02,
960,1.44e-01,
961,-2.80e-02,
962,1.32e-01,
963,-2.40e-02,
964,-2.80e-02,
965,1.28e-01,
966,-2.80e-02,
967,1.32e-01,
968,1.24e-01,
969,-2.80e-02,
970,1.36e-01,
971,-2.80e-02,
972,-2.40e-02,
973,1.20e-01,
974,1.20e-01,
975,-3.20e-02,
976,1.20e-01,
977,-3.20e-02,
978,-2.80e-02,
979,1.16e-01,
980,-3.60e-02,
981,1.24e-01,
982,-3.20e-02,
983,1.20e-01,
984,-4.00e-02,
985,1.20e-01,
986,-3.60e-02,
987,1.12e-01,
988,-3.60e-02,
989,1.32e-01,
990,-3.20e-02,
991,1.32e-01,
992,-3.60e-02,
993,1.32e-01,
994,1.36e-01,
995,-3.20e-02,
996,-3.60e-02,
997,1.32e-01,
998,1.28e-01,
999,-3.60e-02,
1000,1.44e-01,
1001,-3.60e-02,
1002,-3.20e-02,
1003,1.36e-01,
1004,-2.80e-02,
1005,1.40e-01,
1006,1.40e-01,
1007,-2.80e-02,
1008,1.48e-01,
1009,-2.80e-02,
1010,-2.80e-02,
1011,1.40e-01,
1012,-3.20e-02,
1013,1.52e-01,
1014,-2.40e-02,
1015,1.32e-01,
1016,-2.40e-02,
1017,1.20e-01,
1018,1.20e-01,
1019,-2.80e-02,
1020,1.16e-01,
1021,-3.20e-02,
1022,1.16e-01,
1023,-2.80e-02,
1024,-2.80e-02,
1025,1.08e-01,
1026,-2.80e-02,
1027,1.16e-01,
1028,-2.40e-02,
1029,1.12e-01,
1030,-2.80e-02,
1031,1.16e-01,
1032,-2.40e-02,
1033,1.28e-01,
1034,-2.40e-02,
1035,1.24e-01,
1036,1.24e-01,
1037,-2.80e-02,
1038,-2.80e-02,
1039,1.36e-01,
1040,-2.80e-02,
1041,1.40e-01,
1042,-2.80e-02,
1043,1.40e-01,
1044,-2.40e-02,
1045,1.20e-01,
1046,-2.40e-02,
1047,1.24e-01,
1048,1.36e-01,
1049,-2.80e-02,
1050,-2.80e-02,
1051,1.36e-01,
1052,-2.80e-02,
1053,1.40e-01,
1054,1.36e-01,
1055,-3.20e-02,
1056,1.24e-01,
1057,-2.80e-02,
1058,-2.80e-02,
1059,1.20e-01,
1060,-4.00e-02,
1061,1.24e-01,
1062,-4.00e-02,
1063,1.20e-01,
1064,-3.60e-02,
1065,1.24e-01,
1066,-3.20e-02,
1067,1.28e-01,
1068,1.28e-01,
1069,-4.40e-02,
1070,1.24e-01,
1071,-2.80e-02,
1072,1.16e-01,
1073,-2.80e-02,
1074,1.32e-01,
1075,-4.00e-02,
1076,1.24e-01,
1077,-2.80e-02,
1078,-2.80e-02,
1079,1.28e-01,
1080,1.32e-01,
1081,-3.20e-02,
1082,-3.20e-02,
1083,1.28e-01,
1084,1.44e-01,
1085,-3.20e-02,
1086,-2.80e-02,
1087,1.40e-01,
1088,1.48e-01,
1089,-3.20e-02,
1090,1.44e-01,
1091,-3.20e-02,
1092,-2.80e-02,
1093,1.36e-01,
1094,1.36e-01,
1095,-2.80e-02,
1096,-2.40e-02,
1097,1.08e-01,
1098,1.20e-01,
1099,-2.80e-02,
1100,-2.80e-02,
1101,1.20e-01,
1102,-2.40e-02,
1103,1.12e-01,
1104,-2.40e-02,
1105,1.12e-01,
1106,1.12e-01,
1107,-2.40e-02,
1108,-2.40e-02,
1109,1.12e-01,
1110,1.12e-01,
1111,-2.80e-02,
1112,1.20e-01,
1113,-2.80e-02,
1114,-2.40e-02,
1115,1.20e-01,
1116,1.04e-01,
1117,-2.40e-02,
1118,1.24e-01,
1119,-2.80e-02,
1120,-2.40e-02,
1121,1.28e-01,
1122,-2.40e-02,
1123,1.24e-01,
1124,1.28e-01,
1125,-2.80e-02,
1126,-2.40e-02,
1127,1.36e-01,
1128,-2.80e-02,
1129,1.36e-01,
1130,-2.80e-02,
1131,1.44e-01,
1132,1.40e-01,
1133,-3.20e-02,
1134,1.36e-01,
1135,-2.40e-02,
1136,1.28e-01,
1137,-2.40e-02,
1138,-2.80e-02,
1139,1.32e-01,
1140,1.24e-01,
1141,-3.20e-02,
1142,1.16e-01,
1143,-3.60e-02,
1144,-2.80e-02,
1145,1.20e-01,
1146,1.16e-01,
1147,-4.00e-02,
1148,1.24e-01,
1149,-4.40e-02,
1150,1.20e-01,
1151,-2.80e-02,
1152,1.32e-01,
1153,-5.20e-02,
1154,-2.80e-02,
1155,1.32e-01,
1156,1.28e-01,
1157,-2.80e-02,
1158,-4.00e-02,
1159,1.24e-01,
1160,1.32e-01,
1161,-3.60e-02,
1162,-4.00e-02,
1163,1.28e-01,
1164,-3.60e-02,
1165,1.28e-01,
1166,-2.40e-02,
1167,1.52e-01,
1168,-2.80e-02,
1169,1.36e-01,
1170,-2.40e-02,
1171,1.40e-01,
1172,-2.80e-02,
1173,1.48e-01,
1174,-2.40e-02,
1175,1.44e-01,
1176,-3.20e-02,
1177,1.40e-01,
1178,-2.40e-02,
1179,1.48e-01,
1180,-2.80e-02,
1181,1.32e-01,
1182,-2.40e-02,
1183,1.12e-01,
1184,-2.40e-02,
1185,1.16e-01,
1186,1.12e-01,
1187,-2.80e-02,
1188,1.16e-01,
1189,-2.80e-02,
1190,-2.80e-02,
1191,1.08e-01,
1192,-2.40e-02,
1193,1.16e-01,
1194,-2.40e-02,
1195,1.24e-01,
1196,-2.40e-02,
1197,1.16e-01,
1198,-2.40e-02,
1199,1.04e-01,
