Laptop_1/LAPTOP_CHRGR_1_ON_CLOSE/time domain/NewFile10.csv

X,CH1,Start,Increment,
Sequence,Volt,-1.500000e-01,2.000000e-04
0,-2.04e-01,
1,1.68e-01,
2,1.56e-01,
3,-2.16e-01,
4,-2.16e-01,
5,1.72e-01,
6,1.72e-01,
7,-2.08e-01,
8,-2.08e-01,
9,1.72e-01,
10,1.48e-01,
11,-2.20e-01,
12,-2.08e-01,
13,1.52e-01,
14,1.32e-01,
15,-2.08e-01,
16,1.48e-01,
17,-2.04e-01,
18,-1.84e-01,
19,1.40e-01,
20,1.52e-01,
21,-2.08e-01,
22,-2.16e-01,
23,1.48e-01,
24,-2.04e-01,
25,1.48e-01,
26,-2.24e-01,
27,1.20e-01,
28,1.48e-01,
29,-2.12e-01,
30,-2.08e-01,
31,1.52e-01,
32,1.52e-01,
33,-2.00e-01,
34,1.40e-01,
35,-1.96e-01,
36,1.40e-01,
37,-1.88e-01,
38,-2.16e-01,
39,1.76e-01,
40,1.92e-01,
41,-2.48e-01,
42,1.80e-01,
43,-2.52e-01,
44,1.80e-01,
45,-2.36e-01,
46,1.68e-01,
47,-2.72e-01,
48,-2.52e-01,
49,1.84e-01,
50,-2.24e-01,
51,1.80e-01,
52,-2.04e-01,
53,1.68e-01,
54,1.68e-01,
55,-1.60e-01,
56,-1.84e-01,
57,1.68e-01,
58,-1.72e-01,
59,1.80e-01,
60,1.48e-01,
61,-1.68e-01,
62,-1.72e-01,
63,1.52e-01,
64,-1.68e-01,
65,1.36e-01,
66,-2.00e-01,
67,1.60e-01,
68,1.48e-01,
69,-2.20e-01,
70,1.48e-01,
71,-2.04e-01,
72,1.52e-01,
73,-2.00e-01,
74,-1.84e-01,
75,1.48e-01,
76,1.48e-01,
77,-2.20e-01,
78,-2.00e-01,
79,1.44e-01,
80,1.48e-01,
81,-2.16e-01,
82,1.52e-01,
83,-1.96e-01,
84,1.40e-01,
85,-2.00e-01,
86,1.56e-01,
87,-1.96e-01,
88,-2.08e-01,
89,1.56e-01,
90,1.72e-01,
91,-2.28e-01,
92,1.60e-01,
93,-2.04e-01,
94,1.48e-01,
95,-2.24e-01,
96,1.48e-01,
97,-2.08e-01,
98,-2.08e-01,
99,1.36e-01,
100,-1.72e-01,
101,1.36e-01,
102,1.60e-01,
103,-2.12e-01,
104,-2.04e-01,
105,1.48e-01,
106,1.40e-01,
107,-1.68e-01,
108,1.28e-01,
109,-2.04e-01,
110,1.40e-01,
111,-1.64e-01,
112,1.48e-01,
113,-2.16e-01,
114,-1.72e-01,
115,1.28e-01,
116,1.40e-01,
117,-1.56e-01,
118,-2.00e-01,
119,1.40e-01,
120,-2.04e-01,
121,1.80e-01,
122,1.84e-01,
123,-2.48e-01,
124,-2.64e-01,
125,1.88e-01,
126,-2.36e-01,
127,1.96e-01,
128,1.76e-01,
129,-2.68e-01,
130,-2.48e-01,
131,1.72e-01,
132,1.84e-01,
133,-2.56e-01,
134,1.64e-01,
135,-2.60e-01,
136,1.64e-01,
137,-1.88e-01,
138,-1.92e-01,
139,1.64e-01,
140,-1.92e-01,
141,1.64e-01,
142,1.64e-01,
143,-1.96e-01,
144,-2.08e-01,
145,1.72e-01,
146,1.20e-01,
147,-2.00e-01,
148,-2.08e-01,
149,1.52e-01,
150,1.40e-01,
151,-1.92e-01,
152,1.28e-01,
153,-2.12e-01,
154,1.44e-01,
155,-1.96e-01,
156,-2.04e-01,
157,1.44e-01,
158,-2.08e-01,
159,1.52e-01,
160,1.36e-01,
161,-2.16e-01,
162,1.40e-01,
163,-2.16e-01,
164,1.44e-01,
165,-2.16e-01,
166,-2.04e-01,
167,1.24e-01,
168,1.60e-01,
169,-2.24e-01,
170,1.48e-01,
171,-2.08e-01,
172,1.68e-01,
173,-2.12e-01,
174,1.52e-01,
175,-2.12e-01,
176,1.68e-01,
177,-1.64e-01,
178,1.48e-01,
179,-1.76e-01,
180,-2.16e-01,
181,1.48e-01,
182,1.60e-01,
183,-1.76e-01,
184,-2.00e-01,
185,1.52e-01,
186,1.56e-01,
187,-1.60e-01,
188,-1.88e-01,
189,1.28e-01,
190,-2.00e-01,
191,1.40e-01,
192,1.28e-01,
193,-1.60e-01,
194,1.44e-01,
195,-2.12e-01,
196,1.44e-01,
197,-2.12e-01,
198,1.32e-01,
199,-2.04e-01,
200,1.48e-01,
201,-2.04e-01,
202,1.56e-01,
203,-1.88e-01,
204,-2.20e-01,
205,1.88e-01,
206,1.84e-01,
207,-2.24e-01,
208,-2.60e-01,
209,2.00e-01,
210,1.84e-01,
211,-2.84e-01,
212,1.76e-01,
213,-2.32e-01,
214,-2.40e-01,
215,1.72e-01,
216,2.00e-01,
217,-2.48e-01,
218,-1.80e-01,
219,1.64e-01,
220,1.72e-01,
221,-1.80e-01,
222,1.72e-01,
223,-1.84e-01,
224,1.72e-01,
225,-1.88e-01,
226,1.80e-01,
227,-2.00e-01,
228,-2.08e-01,
229,1.76e-01,
230,-2.16e-01,
231,1.40e-01,
232,-1.88e-01,
233,1.40e-01,
234,-1.88e-01,
235,1.52e-01,
236,-2.00e-01,
237,1.48e-01,
238,1.48e-01,
239,-1.76e-01,
240,1.44e-01,
241,-2.00e-01,
242,-2.12e-01,
243,1.44e-01,
244,1.44e-01,
245,-2.08e-01,
246,-2.16e-01,
247,1.32e-01,
248,-1.72e-01,
249,1.48e-01,
250,1.44e-01,
251,-2.20e-01,
252,-2.20e-01,
253,1.36e-01,
254,-2.04e-01,
255,1.60e-01,
256,1.44e-01,
257,-2.40e-01,
258,-2.52e-01,
259,1.64e-01,
260,1.72e-01,
261,-2.12e-01,
262,1.40e-01,
263,-1.72e-01,
264,-2.12e-01,
265,1.40e-01,
266,-2.00e-01,
267,1.56e-01,
268,1.48e-01,
269,-2.12e-01,
270,-1.92e-01,
271,1.28e-01,
272,1.40e-01,
273,-2.00e-01,
274,-2.00e-01,
275,1.32e-01,
276,1.48e-01,
277,-1.96e-01,
278,1.52e-01,
279,-2.00e-01,
280,1.48e-01,
281,-1.84e-01,
282,-1.88e-01,
283,1.52e-01,
284,1.76e-01,
285,-2.00e-01,
286,1.96e-01,
287,-2.32e-01,
288,1.84e-01,
289,-2.76e-01,
290,-2.68e-01,
291,1.80e-01,
292,2.08e-01,
293,-2.96e-01,
294,-2.84e-01,
295,1.56e-01,
296,1.68e-01,
297,-2.28e-01,
298,-2.52e-01,
299,1.96e-01,
300,-2.64e-01,
301,2.08e-01,
302,1.60e-01,
303,-1.88e-01,
304,1.76e-01,
305,-1.84e-01,
306,1.72e-01,
307,-1.92e-01,
308,-2.12e-01,
309,1.76e-01,
310,-1.96e-01,
311,1.52e-01,
312,1.76e-01,
313,-1.88e-01,
314,-2.04e-01,
315,1.48e-01,
316,-1.64e-01,
317,1.52e-01,
318,1.24e-01,
319,-2.20e-01,
320,1.32e-01,
321,-2.12e-01,
322,-2.08e-01,
323,1.32e-01,
324,1.44e-01,
325,-2.24e-01,
326,-2.20e-01,
327,1.36e-01,
328,-2.12e-01,
329,1.48e-01,
330,1.44e-01,
331,-2.00e-01,
332,-2.32e-01,
333,1.48e-01,
334,-2.04e-01,
335,1.44e-01,
336,-2.12e-01,
337,1.12e-01,
338,1.56e-01,
339,-2.24e-01,
340,1.64e-01,
341,-2.44e-01,
342,-2.20e-01,
343,1.60e-01,
344,-1.56e-01,
345,1.36e-01,
346,1.48e-01,
347,-1.60e-01,
348,1.28e-01,
349,-2.04e-01,
350,1.40e-01,
351,-1.80e-01,
352,-1.96e-01,
353,1.52e-01,
354,-1.80e-01,
355,1.36e-01,
356,-1.72e-01,
357,1.36e-01,
358,-1.52e-01,
359,1.48e-01,
360,1.48e-01,
361,-1.76e-01,
362,1.28e-01,
363,-2.00e-01,
364,-2.00e-01,
365,1.40e-01,
366,-1.96e-01,
367,1.48e-01,
368,1.48e-01,
369,-2.32e-01,
370,2.04e-01,
371,-2.60e-01,
372,1.84e-01,
373,-2.76e-01,
374,2.08e-01,
375,-2.80e-01,
376,1.88e-01,
377,-2.80e-01,
378,-2.80e-01,
379,1.80e-01,
380,1.72e-01,
381,-2.64e-01,
382,-2.44e-01,
383,2.00e-01,
384,-2.32e-01,
385,1.76e-01,
386,-1.84e-01,
387,1.72e-01,
388,1.68e-01,
389,-2.16e-01,
390,-2.12e-01,
391,1.64e-01,
392,-1.96e-01,
393,1.36e-01,
394,1.64e-01,
395,-2.28e-01,
396,-2.12e-01,
397,1.68e-01,
398,-1.64e-01,
399,1.44e-01,
400,1.56e-01,
401,-1.76e-01,
402,1.56e-01,
403,-1.76e-01,
404,1.48e-01,
405,-1.68e-01,
406,1.44e-01,
407,-2.16e-01,
408,1.60e-01,
409,-2.32e-01,
410,1.52e-01,
411,-2.20e-01,
412,1.36e-01,
413,-2.20e-01,
414,1.48e-01,
415,-2.08e-01,
416,-2.12e-01,
417,1.36e-01,
418,-1.96e-01,
419,1.36e-01,
420,1.60e-01,
421,-2.00e-01,
422,-2.24e-01,
423,1.80e-01,
424,1.72e-01,
425,-2.52e-01,
426,1.68e-01,
427,-2.16e-01,
428,-2.16e-01,
429,1.48e-01,
430,1.40e-01,
431,-2.12e-01,
432,1.56e-01,
433,-2.04e-01,
434,-2.00e-01,
435,1.56e-01,
436,1.48e-01,
437,-2.04e-01,
438,-1.68e-01,
439,1.56e-01,
440,-2.04e-01,
441,1.60e-01,
442,-2.00e-01,
443,1.32e-01,
444,1.40e-01,
445,-1.84e-01,
446,1.44e-01,
447,-1.88e-01,
448,1.48e-01,
449,-1.88e-01,
450,-1.92e-01,
451,1.60e-01,
452,-2.60e-01,
453,2.08e-01,
454,-2.60e-01,
455,1.76e-01,
456,2.04e-01,
457,-2.84e-01,
458,2.16e-01,
459,-2.60e-01,
460,-2.76e-01,
461,1.72e-01,
462,1.72e-01,
463,-2.76e-01,
464,1.80e-01,
465,-2.56e-01,
466,-2.56e-01,
467,1.96e-01,
468,1.84e-01,
469,-2.16e-01,
470,-2.00e-01,
471,1.76e-01,
472,-2.20e-01,
473,1.76e-01,
474,-2.20e-01,
475,1.04e-01,
476,-2.04e-01,
477,1.76e-01,
478,-1.72e-01,
479,1.64e-01,
480,1.44e-01,
481,-2.28e-01,
482,-2.20e-01,
483,1.36e-01,
484,-2.28e-01,
485,1.48e-01,
486,1.40e-01,
487,-2.12e-01,
488,-1.76e-01,
489,1.40e-01,
490,-2.36e-01,
491,1.44e-01,
492,1.52e-01,
493,-2.20e-01,
494,1.44e-01,
495,-2.04e-01,
496,1.52e-01,
497,-2.12e-01,
498,1.36e-01,
499,-2.20e-01,
500,1.44e-01,
501,-2.16e-01,
502,-2.16e-01,
503,1.40e-01,
504,1.64e-01,
505,-2.00e-01,
506,1.72e-01,
507,-2.40e-01,
508,1.68e-01,
509,-2.20e-01,
510,-2.04e-01,
511,1.44e-01,
512,1.32e-01,
513,-2.16e-01,
514,1.52e-01,
515,-1.72e-01,
516,-1.76e-01,
517,1.44e-01,
518,1.44e-01,
519,-2.00e-01,
520,1.52e-01,
521,-1.76e-01,
522,1.28e-01,
523,-2.04e-01,
524,-1.92e-01,
525,1.60e-01,
526,-1.92e-01,
527,1.52e-01,
528,-1.88e-01,
529,1.40e-01,
530,1.44e-01,
531,-1.92e-01,
532,1.48e-01,
533,-2.00e-01,
534,2.00e-01,
535,-2.00e-01,
536,1.84e-01,
537,-2.80e-01,
538,1.92e-01,
539,-2.76e-01,
540,-2.72e-01,
541,2.00e-01,
542,1.80e-01,
543,-2.40e-01,
544,1.96e-01,
545,-2.92e-01,
546,1.84e-01,
547,-2.68e-01,
548,-2.40e-01,
549,2.00e-01,
550,-2.52e-01,
551,2.12e-01,
552,-2.16e-01,
553,1.68e-01,
554,-2.16e-01,
555,1.68e-01,
556,1.56e-01,
557,-2.00e-01,
558,-1.96e-01,
559,1.56e-01,
560,-1.88e-01,
561,1.64e-01,
562,1.56e-01,
563,-2.36e-01,
564,1.52e-01,
565,-2.12e-01,
566,1.60e-01,
567,-2.12e-01,
568,1.48e-01,
569,-1.92e-01,
570,-1.68e-01,
571,1.44e-01,
572,-2.28e-01,
573,1.44e-01,
574,-2.32e-01,
575,1.52e-01,
576,1.40e-01,
577,-2.00e-01,
578,-2.28e-01,
579,1.32e-01,
580,-2.20e-01,
581,1.52e-01,
582,-2.24e-01,
583,1.36e-01,
584,-2.20e-01,
585,1.40e-01,
586,1.68e-01,
587,-2.12e-01,
588,1.72e-01,
589,-2.32e-01,
590,-2.60e-01,
591,1.72e-01,
592,-2.16e-01,
593,1.72e-01,
594,1.36e-01,
595,-2.20e-01,
596,-2.08e-01,
597,1.48e-01,
598,1.56e-01,
599,-2.04e-01,
600,-2.08e-01,
601,1.60e-01,
602,1.56e-01,
603,-2.00e-01,
604,1.48e-01,
605,-1.96e-01,
606,1.32e-01,
607,-2.00e-01,
608,-1.96e-01,
609,1.48e-01,
610,1.44e-01,
611,-1.72e-01,
612,-1.80e-01,
613,1.56e-01,
614,1.48e-01,
615,-1.88e-01,
616,-2.28e-01,
617,1.92e-01,
618,1.96e-01,
619,-2.64e-01,
620,-2.68e-01,
621,1.76e-01,
622,2.04e-01,
623,-2.72e-01,
624,-2.68e-01,
625,1.92e-01,
626,1.96e-01,
627,-2.60e-01,
628,1.76e-01,
629,-2.80e-01,
630,1.96e-01,
631,-2.56e-01,
632,-2.56e-01,
633,2.08e-01,
634,1.76e-01,
635,-2.24e-01,
636,1.76e-01,
637,-1.84e-01,
638,-2.24e-01,
639,1.76e-01,
640,1.80e-01,
641,-2.08e-01,
642,-1.48e-01,
643,1.72e-01,
644,1.68e-01,
645,-1.80e-01,
646,-2.28e-01,
647,1.48e-01,
648,1.60e-01,
649,-2.44e-01,
650,-1.92e-01,
651,1.48e-01,
652,1.52e-01,
653,-2.24e-01,
654,-2.40e-01,
655,1.40e-01,
656,1.52e-01,
657,-2.28e-01,
658,1.44e-01,
659,-2.36e-01,
660,1.04e-01,
661,-2.36e-01,
662,-2.08e-01,
663,1.56e-01,
664,1.48e-01,
665,-1.96e-01,
666,1.52e-01,
667,-2.00e-01,
668,-2.00e-01,
669,1.60e-01,
670,-2.16e-01,
671,1.72e-01,
672,1.64e-01,
673,-2.44e-01,
674,1.76e-01,
675,-2.80e-01,
676,1.68e-01,
677,-1.76e-01,
678,1.36e-01,
679,-2.08e-01,
680,1.40e-01,
681,-2.16e-01,
682,1.44e-01,
683,-1.96e-01,
684,-1.56e-01,
685,1.52e-01,
686,1.24e-01,
687,-1.80e-01,
688,-2.04e-01,
689,1.24e-01,
690,-1.96e-01,
691,1.52e-01,
692,-1.40e-01,
693,1.48e-01,
694,1.52e-01,
695,-1.40e-01,
696,1.52e-01,
697,-1.92e-01,
698,-2.04e-01,
699,1.88e-01,
700,-2.48e-01,
701,1.84e-01,
702,2.00e-01,
703,-2.52e-01,
704,2.08e-01,
705,-2.12e-01,
706,2.00e-01,
707,-2.60e-01,
708,1.76e-01,
709,-2.80e-01,
710,-2.76e-01,
711,1.96e-01,
712,1.80e-01,
713,-2.68e-01,
714,1.96e-01,
715,-2.64e-01,
716,-2.12e-01,
717,1.84e-01,
718,-1.84e-01,
719,1.80e-01,
720,-2.24e-01,
721,1.76e-01,
722,1.60e-01,
723,-1.84e-01,
724,-1.88e-01,
725,1.80e-01,
726,-1.76e-01,
727,1.64e-01,
728,1.80e-01,
729,-2.16e-01,
730,1.12e-01,
731,-2.00e-01,
732,1.28e-01,
733,-2.04e-01,
734,1.44e-01,
735,-2.44e-01,
736,1.56e-01,
737,-2.36e-01,
738,-2.20e-01,
739,1.40e-01,
740,1.52e-01,
741,-2.04e-01,
742,1.40e-01,
743,-2.32e-01,
744,-2.20e-01,
745,1.56e-01,
746,1.48e-01,
747,-1.76e-01,
748,1.40e-01,
749,-1.92e-01,
750,1.44e-01,
751,-1.92e-01,
752,1.64e-01,
753,-2.20e-01,
754,1.80e-01,
755,-2.44e-01,
756,1.84e-01,
757,-2.56e-01,
758,1.76e-01,
759,-2.52e-01,
760,1.72e-01,
761,-1.80e-01,
762,1.60e-01,
763,-1.52e-01,
764,-2.08e-01,
765,1.52e-01,
766,-1.60e-01,
767,1.48e-01,
768,-1.92e-01,
769,1.36e-01,
770,-1.88e-01,
771,1.48e-01,
772,-1.68e-01,
773,1.44e-01,
774,1.44e-01,
775,-1.84e-01,
776,-1.52e-01,
777,1.52e-01,
778,1.56e-01,
779,-1.72e-01,
780,1.72e-01,
781,-2.24e-01,
782,-2.00e-01,
783,1.96e-01,
784,-2.24e-01,
785,1.96e-01,
786,1.64e-01,
787,-2.60e-01,
788,2.04e-01,
789,-2.60e-01,
790,-2.56e-01,
791,2.04e-01,
792,-2.04e-01,
793,1.92e-01,
794,1.80e-01,
795,-2.48e-01,
796,-2.64e-01,
797,1.96e-01,
798,-2.60e-01,
799,1.88e-01,
800,2.08e-01,
801,-2.44e-01,
802,1.72e-01,
803,-1.88e-01,
804,1.80e-01,
805,-2.24e-01,
806,-2.16e-01,
807,1.80e-01,
808,1.80e-01,
809,-1.84e-01,
810,1.72e-01,
811,-1.80e-01,
812,1.64e-01,
813,-1.64e-01,
814,1.40e-01,
815,-1.88e-01,
816,-1.76e-01,
817,1.36e-01,
818,1.56e-01,
819,-2.40e-01,
820,1.52e-01,
821,-2.08e-01,
822,1.56e-01,
823,-1.88e-01,
824,1.44e-01,
825,-2.32e-01,
826,-2.24e-01,
827,1.52e-01,
828,-2.28e-01,
829,1.44e-01,
830,1.44e-01,
831,-1.88e-01,
832,-2.08e-01,
833,1.44e-01,
834,-2.12e-01,
835,1.60e-01,
836,1.76e-01,
837,-2.40e-01,
838,1.80e-01,
839,-2.56e-01,
840,1.84e-01,
841,-2.16e-01,
842,-2.60e-01,
843,1.76e-01,
844,-1.96e-01,
845,1.52e-01,
846,-2.04e-01,
847,1.52e-01,
848,1.64e-01,
849,-2.04e-01,
850,1.48e-01,
851,-1.64e-01,
852,1.48e-01,
853,-1.80e-01,
854,-1.88e-01,
855,1.56e-01,
856,1.36e-01,
857,-1.80e-01,
858,1.44e-01,
859,-1.56e-01,
860,1.40e-01,
861,-1.76e-01,
862,-1.88e-01,
863,1.68e-01,
864,-1.80e-01,
865,1.80e-01,
866,-1.96e-01,
867,1.84e-01,
868,-2.00e-01,
869,1.80e-01,
870,1.96e-01,
871,-2.36e-01,
872,1.92e-01,
873,-2.60e-01,
874,2.00e-01,
875,-2.64e-01,
876,-2.64e-01,
877,1.72e-01,
878,1.88e-01,
879,-2.60e-01,
880,-2.48e-01,
881,1.76e-01,
882,-2.64e-01,
883,1.84e-01,
884,-2.16e-01,
885,1.60e-01,
886,1.72e-01,
887,-1.92e-01,
888,-2.28e-01,
889,1.68e-01,
890,-2.32e-01,
891,1.68e-01,
892,1.80e-01,
893,-1.72e-01,
894,-2.16e-01,
895,1.60e-01,
896,-2.20e-01,
897,1.56e-01,
898,-2.32e-01,
899,1.64e-01,
900,-2.40e-01,
901,1.56e-01,
902,-2.44e-01,
903,1.56e-01,
904,-2.44e-01,
905,1.40e-01,
906,-1.84e-01,
907,1.52e-01,
908,1.44e-01,
909,-2.28e-01,
910,1.44e-01,
911,-2.12e-01,
912,1.60e-01,
913,-2.04e-01,
914,1.48e-01,
915,-2.08e-01,
916,1.36e-01,
917,-2.04e-01,
918,-2.28e-01,
919,1.48e-01,
920,1.84e-01,
921,-2.52e-01,
922,-2.60e-01,
923,1.92e-01,
924,-2.80e-01,
925,1.88e-01,
926,1.36e-01,
927,-1.80e-01,
928,-1.88e-01,
929,1.52e-01,
930,1.52e-01,
931,-2.04e-01,
932,-1.68e-01,
933,1.36e-01,
934,1.52e-01,
935,-1.96e-01,
936,1.52e-01,
937,-1.92e-01,
938,-1.52e-01,
939,1.48e-01,
940,-1.84e-01,
941,1.36e-01,
942,-1.52e-01,
943,1.36e-01,
944,-1.64e-01,
945,1.44e-01,
946,-1.84e-01,
947,1.48e-01,
948,1.60e-01,
949,-1.68e-01,
950,-1.92e-01,
951,1.84e-01,
952,1.72e-01,
953,-2.04e-01,
954,1.76e-01,
955,-2.40e-01,
956,1.64e-01,
957,-2.08e-01,
958,1.96e-01,
959,-2.56e-01,
960,-2.08e-01,
961,1.92e-01,
962,-2.56e-01,
963,1.76e-01,
964,-2.28e-01,
965,1.84e-01,
966,2.00e-01,
967,-2.12e-01,
968,1.76e-01,
969,-1.96e-01,
970,1.76e-01,
971,-1.84e-01,
972,-2.32e-01,
973,1.52e-01,
974,-2.20e-01,
975,1.76e-01,
976,-2.20e-01,
977,1.76e-01,
978,1.24e-01,
979,-2.24e-01,
980,-2.24e-01,
981,1.44e-01,
982,-2.20e-01,
983,1.48e-01,
984,1.52e-01,
985,-2.52e-01,
986,-1.88e-01,
987,1.36e-01,
988,-2.32e-01,
989,1.56e-01,
990,1.56e-01,
991,-1.96e-01,
992,-1.76e-01,
993,1.48e-01,
994,-2.16e-01,
995,1.44e-01,
996,1.40e-01,
997,-2.00e-01,
998,-2.04e-01,
999,1.44e-01,
1000,-2.12e-01,
1001,1.68e-01,
1002,-2.12e-01,
1003,1.72e-01,
1004,-2.24e-01,
1005,1.92e-01,
1006,1.92e-01,
1007,-2.28e-01,
1008,2.00e-01,
1009,-2.56e-01,
1010,1.68e-01,
1011,-1.52e-01,
1012,1.56e-01,
1013,-1.88e-01,
1014,1.24e-01,
1015,-1.84e-01,
1016,1.60e-01,
1017,-1.92e-01,
1018,-1.72e-01,
1019,1.44e-01,
1020,1.40e-01,
1021,-1.64e-01,
1022,1.44e-01,
1023,-1.76e-01,
1024,1.56e-01,
1025,-1.72e-01,
1026,-1.68e-01,
1027,1.48e-01,
1028,1.56e-01,
1029,-1.52e-01,
1030,1.40e-01,
1031,-1.84e-01,
1032,-1.96e-01,
1033,1.44e-01,
1034,1.52e-01,
1035,-1.96e-01,
1036,-2.04e-01,
1037,1.52e-01,
1038,-2.16e-01,
1039,1.52e-01,
1040,1.56e-01,
1041,-2.24e-01,
1042,-2.08e-01,
1043,1.60e-01,
1044,1.84e-01,
1045,-2.40e-01,
1046,1.68e-01,
1047,-2.40e-01,
1048,1.88e-01,
1049,-2.52e-01,
1050,1.76e-01,
1051,-2.16e-01,
1052,-2.36e-01,
1053,1.80e-01,
1054,1.72e-01,
1055,-2.28e-01,
1056,-2.36e-01,
1057,1.60e-01,
1058,1.72e-01,
1059,-2.00e-01,
1060,-2.12e-01,
1061,1.76e-01,
1062,1.64e-01,
1063,-2.36e-01,
1064,1.44e-01,
1065,-2.28e-01,
1066,-2.44e-01,
1067,1.36e-01,
1068,-2.24e-01,
1069,1.56e-01,
1070,1.52e-01,
1071,-2.24e-01,
1072,-2.20e-01,
1073,1.56e-01,
1074,1.52e-01,
1075,-2.28e-01,
1076,-2.16e-01,
1077,1.44e-01,
1078,1.32e-01,
1079,-1.92e-01,
1080,1.40e-01,
1081,-2.08e-01,
1082,-2.04e-01,
1083,1.80e-01,
1084,1.76e-01,
1085,-2.60e-01,
1086,2.00e-01,
1087,-2.00e-01,
1088,2.00e-01,
1089,-2.64e-01,
1090,1.80e-01,
1091,-3.00e-01,
1092,-2.64e-01,
1093,1.72e-01,
1094,1.60e-01,
1095,-1.72e-01,
1096,-1.80e-01,
1097,1.36e-01,
1098,1.56e-01,
1099,-1.84e-01,
1100,-1.72e-01,
1101,1.44e-01,
1102,-1.76e-01,
1103,1.48e-01,
1104,-1.56e-01,
1105,1.56e-01,
1106,-1.76e-01,
1107,1.36e-01,
1108,1.48e-01,
1109,-1.48e-01,
1110,1.44e-01,
1111,-1.40e-01,
1112,1.40e-01,
1113,-1.92e-01,
1114,-1.96e-01,
1115,1.48e-01,
1116,-1.88e-01,
1117,1.48e-01,
1118,1.44e-01,
1119,-1.56e-01,
1120,1.40e-01,
1121,-2.08e-01,
1122,-1.96e-01,
1123,1.60e-01,
1124,-1.96e-01,
1125,1.72e-01,
1126,-1.84e-01,
1127,1.76e-01,
1128,1.88e-01,
1129,-2.32e-01,
1130,-2.40e-01,
1131,1.80e-01,
1132,-2.28e-01,
1133,1.92e-01,
1134,-2.52e-01,
1135,1.56e-01,
1136,1.68e-01,
1137,-2.44e-01,
1138,-2.00e-01,
1139,1.76e-01,
1140,1.68e-01,
1141,-2.24e-01,
1142,1.68e-01,
1143,-2.16e-01,
1144,1.64e-01,
1145,-2.24e-01,
1146,1.24e-01,
1147,-2.32e-01,
1148,-2.20e-01,
1149,1.60e-01,
1150,-2.40e-01,
1151,1.48e-01,
1152,-2.48e-01,
1153,1.44e-01,
1154,1.56e-01,
1155,-2.12e-01,
1156,-2.32e-01,
1157,1.12e-01,
1158,-2.20e-01,
1159,1.52e-01,
1160,1.44e-01,
1161,-2.16e-01,
1162,-2.04e-01,
1163,1.56e-01,
1164,-1.84e-01,
1165,1.92e-01,
1166,1.96e-01,
1167,-2.40e-01,
1168,1.92e-01,
1169,-2.68e-01,
1170,-2.64e-01,
1171,1.72e-01,
1172,-2.64e-01,
1173,1.88e-01,
1174,-2.92e-01,
1175,2.00e-01,
1176,1.84e-01,
1177,-1.64e-01,
1178,1.44e-01,
1179,-1.80e-01,
1180,-1.64e-01,
1181,1.44e-01,
1182,1.52e-01,
1183,-1.68e-01,
1184,1.40e-01,
1185,-1.76e-01,
1186,-1.72e-01,
1187,1.44e-01,
1188,1.44e-01,
1189,-1.84e-01,
1190,1.40e-01,
1191,-1.76e-01,
1192,-1.36e-01,
1193,1.52e-01,
1194,1.32e-01,
1195,-1.68e-01,
1196,1.44e-01,
1197,-1.72e-01,
1198,-1.96e-01,
1199,1.40e-01,
