Laptop_1/LAPTOP_CHRGR_1_ON_CLOSE/time domain/NewFile3(1).csv

X,CH1,Start,Increment,
Sequence,Volt,-1.500000e-01,2.000000e-04
0,-1.92e-01,
1,1.72e-01,
2,-1.72e-01,
3,1.68e-01,
4,-1.28e-01,
5,1.32e-01,
6,1.40e-01,
7,-1.12e-01,
8,1.28e-01,
9,-1.16e-01,
10,-1.24e-01,
11,1.40e-01,
12,-1.24e-01,
13,1.36e-01,
14,-1.04e-01,
15,1.32e-01,
16,1.32e-01,
17,-1.16e-01,
18,-1.20e-01,
19,1.16e-01,
20,9.60e-02,
21,-1.04e-01,
22,-1.04e-01,
23,9.20e-02,
24,1.20e-01,
25,-1.12e-01,
26,-1.08e-01,
27,1.24e-01,
28,1.16e-01,
29,-1.08e-01,
30,1.12e-01,
31,-8.00e-02,
32,6.00e-02,
33,-1.12e-01,
34,1.40e-01,
35,-1.48e-01,
36,1.00e-01,
37,-1.52e-01,
38,-1.36e-01,
39,1.60e-01,
40,-1.84e-01,
41,1.56e-01,
42,1.56e-01,
43,-1.80e-01,
44,1.48e-01,
45,-1.88e-01,
46,1.24e-01,
47,-1.28e-01,
48,-1.20e-01,
49,1.20e-01,
50,-1.20e-01,
51,1.28e-01,
52,-9.60e-02,
53,1.08e-01,
54,1.24e-01,
55,-1.20e-01,
56,1.24e-01,
57,-1.08e-01,
58,1.04e-01,
59,-1.04e-01,
60,1.28e-01,
61,-1.12e-01,
62,-1.08e-01,
63,1.24e-01,
64,-1.04e-01,
65,1.24e-01,
66,-9.60e-02,
67,1.28e-01,
68,-1.04e-01,
69,1.16e-01,
70,1.04e-01,
71,-1.04e-01,
72,1.08e-01,
73,-1.16e-01,
74,1.32e-01,
75,-1.20e-01,
76,1.52e-01,
77,-1.44e-01,
78,1.08e-01,
79,-1.52e-01,
80,1.60e-01,
81,-1.80e-01,
82,-1.84e-01,
83,1.36e-01,
84,-1.68e-01,
85,1.68e-01,
86,-9.60e-02,
87,1.44e-01,
88,-1.32e-01,
89,1.36e-01,
90,-8.80e-02,
91,1.36e-01,
92,-1.24e-01,
93,1.36e-01,
94,-1.20e-01,
95,1.20e-01,
96,1.20e-01,
97,-1.24e-01,
98,-1.24e-01,
99,1.16e-01,
100,-1.12e-01,
101,1.32e-01,
102,-1.16e-01,
103,1.28e-01,
104,-1.04e-01,
105,1.24e-01,
106,-1.08e-01,
107,1.08e-01,
108,1.20e-01,
109,-1.08e-01,
110,1.00e-01,
111,-1.08e-01,
112,6.40e-02,
113,-9.60e-02,
114,-8.40e-02,
115,7.60e-02,
116,1.32e-01,
117,-1.12e-01,
118,1.52e-01,
119,-1.84e-01,
120,-1.68e-01,
121,1.72e-01,
122,-1.92e-01,
123,1.64e-01,
124,1.72e-01,
125,-1.84e-01,
126,1.56e-01,
127,-2.00e-01,
128,-2.00e-01,
129,1.60e-01,
130,-1.16e-01,
131,1.20e-01,
132,-1.20e-01,
133,1.04e-01,
134,1.32e-01,
135,-1.12e-01,
136,-1.08e-01,
137,1.08e-01,
138,1.00e-01,
139,-1.24e-01,
140,-1.00e-01,
141,1.20e-01,
142,-1.00e-01,
143,9.60e-02,
144,-1.12e-01,
145,1.24e-01,
146,1.24e-01,
147,-1.08e-01,
148,-8.00e-02,
149,1.28e-01,
150,-1.12e-01,
151,7.60e-02,
152,1.08e-01,
153,-6.80e-02,
154,1.00e-01,
155,-8.40e-02,
156,9.60e-02,
157,-9.20e-02,
158,1.24e-01,
159,-1.16e-01,
160,-1.40e-01,
161,1.36e-01,
162,1.40e-01,
163,-1.60e-01,
164,1.44e-01,
165,-1.76e-01,
166,-1.72e-01,
167,1.20e-01,
168,1.60e-01,
169,-1.72e-01,
170,1.28e-01,
171,-1.20e-01,
172,-1.24e-01,
173,1.28e-01,
174,-1.20e-01,
175,1.36e-01,
176,-1.24e-01,
177,1.36e-01,
178,1.28e-01,
179,-1.16e-01,
180,-9.20e-02,
181,1.28e-01,
182,1.12e-01,
183,-1.12e-01,
184,-8.00e-02,
185,1.20e-01,
186,1.16e-01,
187,-1.16e-01,
188,1.24e-01,
189,-1.00e-01,
190,-6.80e-02,
191,1.20e-01,
192,1.28e-01,
193,-6.00e-02,
194,-4.80e-02,
195,6.00e-02,
196,6.80e-02,
197,-7.20e-02,
198,9.60e-02,
199,-1.24e-01,
200,1.32e-01,
201,-1.40e-01,
202,1.24e-01,
203,-1.64e-01,
204,1.56e-01,
205,-1.80e-01,
206,-1.76e-01,
207,1.52e-01,
208,1.48e-01,
209,-1.60e-01,
210,1.44e-01,
211,-1.68e-01,
212,1.40e-01,
213,-1.04e-01,
214,1.12e-01,
215,-1.00e-01,
216,1.20e-01,
217,-1.00e-01,
218,-8.00e-02,
219,8.00e-02,
220,-1.00e-01,
221,8.40e-02,
222,-6.40e-02,
223,1.24e-01,
224,1.08e-01,
225,-9.20e-02,
226,1.16e-01,
227,-8.40e-02,
228,1.16e-01,
229,-8.40e-02,
230,1.08e-01,
231,-8.00e-02,
232,8.00e-02,
233,-5.60e-02,
234,-6.00e-02,
235,6.80e-02,
236,-6.00e-02,
237,4.40e-02,
238,5.60e-02,
239,-7.20e-02,
240,-6.40e-02,
241,1.04e-01,
242,9.20e-02,
243,-6.80e-02,
244,-6.40e-02,
245,9.20e-02,
246,-6.00e-02,
247,8.80e-02,
248,-4.80e-02,
249,7.60e-02,
250,-4.40e-02,
251,6.80e-02,
252,7.60e-02,
253,-4.40e-02,
254,7.20e-02,
255,-6.00e-02,
256,-5.20e-02,
257,7.60e-02,
258,7.20e-02,
259,-4.80e-02,
260,-4.80e-02,
261,7.20e-02,
262,-5.20e-02,
263,8.80e-02,
264,8.80e-02,
265,-6.00e-02,
266,-5.60e-02,
267,4.40e-02,
268,5.20e-02,
269,-5.60e-02,
270,-5.20e-02,
271,4.40e-02,
272,5.20e-02,
273,-5.20e-02,
274,2.40e-02,
275,-4.40e-02,
276,3.60e-02,
277,-4.40e-02,
278,-4.40e-02,
279,4.00e-02,
280,-4.80e-02,
281,7.60e-02,
282,6.80e-02,
283,-4.80e-02,
284,8.00e-02,
285,-6.80e-02,
286,9.60e-02,
287,-7.20e-02,
288,1.00e-01,
289,-8.40e-02,
290,9.60e-02,
291,-7.20e-02,
292,-5.20e-02,
293,6.80e-02,
294,-4.00e-02,
295,5.60e-02,
296,-4.00e-02,
297,6.00e-02,
298,5.60e-02,
299,-4.40e-02,
300,-4.00e-02,
301,8.00e-02,
302,8.80e-02,
303,-6.40e-02,
304,9.60e-02,
305,-6.80e-02,
306,5.20e-02,
307,-5.20e-02,
308,-5.20e-02,
309,4.00e-02,
310,3.60e-02,
311,-4.40e-02,
312,3.20e-02,
313,-4.80e-02,
314,2.00e-02,
315,-3.60e-02,
316,2.40e-02,
317,-3.20e-02,
318,4.00e-02,
319,-3.60e-02,
320,-4.40e-02,
321,6.40e-02,
322,6.00e-02,
323,-4.80e-02,
324,7.60e-02,
325,-4.40e-02,
326,-4.40e-02,
327,7.60e-02,
328,-4.40e-02,
329,8.40e-02,
330,7.20e-02,
331,-5.20e-02,
332,7.60e-02,
333,-5.60e-02,
334,-6.00e-02,
335,9.20e-02,
336,1.04e-01,
337,-7.20e-02,
338,-6.00e-02,
339,1.04e-01,
340,-7.20e-02,
341,1.12e-01,
342,-6.40e-02,
343,9.20e-02,
344,7.20e-02,
345,-7.60e-02,
346,7.60e-02,
347,-6.80e-02,
348,9.20e-02,
349,-6.80e-02,
350,6.80e-02,
351,-7.20e-02,
352,6.80e-02,
353,-7.20e-02,
354,6.80e-02,
355,-6.40e-02,
356,2.80e-02,
357,-5.60e-02,
358,-5.20e-02,
359,8.80e-02,
360,7.20e-02,
361,-5.20e-02,
362,-4.40e-02,
363,5.20e-02,
364,-4.80e-02,
365,5.20e-02,
366,7.60e-02,
367,-5.20e-02,
368,-8.00e-02,
369,9.20e-02,
370,-7.20e-02,
371,9.20e-02,
372,-8.00e-02,
373,8.80e-02,
374,9.20e-02,
375,-6.40e-02,
376,8.40e-02,
377,-6.00e-02,
378,7.20e-02,
379,-4.40e-02,
380,-4.80e-02,
381,5.60e-02,
382,-5.60e-02,
383,7.60e-02,
384,8.80e-02,
385,-5.20e-02,
386,-4.80e-02,
387,7.20e-02,
388,-4.80e-02,
389,7.60e-02,
390,7.20e-02,
391,-4.80e-02,
392,-5.20e-02,
393,3.60e-02,
394,-4.40e-02,
395,6.80e-02,
396,6.40e-02,
397,-6.00e-02,
398,-5.20e-02,
399,7.60e-02,
400,-5.60e-02,
401,9.20e-02,
402,-6.40e-02,
403,8.40e-02,
404,-6.80e-02,
405,1.12e-01,
406,1.12e-01,
407,-6.80e-02,
408,-6.80e-02,
409,1.04e-01,
410,-7.20e-02,
411,1.04e-01,
412,-6.80e-02,
413,1.00e-01,
414,-5.60e-02,
415,8.80e-02,
416,8.80e-02,
417,-7.20e-02,
418,-8.00e-02,
419,9.20e-02,
420,1.16e-01,
421,-8.40e-02,
422,1.12e-01,
423,-6.40e-02,
424,-7.60e-02,
425,6.80e-02,
426,-5.20e-02,
427,1.20e-01,
428,9.60e-02,
429,-6.40e-02,
430,6.00e-02,
431,-6.40e-02,
432,5.60e-02,
433,-6.00e-02,
434,4.80e-02,
435,-6.40e-02,
436,6.80e-02,
437,-6.00e-02,
438,-6.80e-02,
439,6.80e-02,
440,-6.40e-02,
441,1.00e-01,
442,-6.00e-02,
443,1.00e-01,
444,-5.60e-02,
445,9.20e-02,
446,-4.80e-02,
447,9.60e-02,
448,8.80e-02,
449,-6.00e-02,
450,9.60e-02,
451,-6.80e-02,
452,8.80e-02,
453,-6.40e-02,
454,-5.60e-02,
455,8.80e-02,
456,-4.80e-02,
457,8.40e-02,
458,-4.40e-02,
459,7.60e-02,
460,8.00e-02,
461,-6.80e-02,
462,7.60e-02,
463,-5.60e-02,
464,-4.80e-02,
465,8.80e-02,
466,-4.80e-02,
467,7.60e-02,
468,4.00e-02,
469,-4.40e-02,
470,-5.20e-02,
471,6.80e-02,
472,-4.80e-02,
473,4.00e-02,
474,-4.80e-02,
475,5.20e-02,
476,3.60e-02,
477,-4.40e-02,
478,-4.80e-02,
479,7.60e-02,
480,-4.40e-02,
481,7.60e-02,
482,7.60e-02,
483,-4.00e-02,
484,-4.80e-02,
485,6.40e-02,
486,6.80e-02,
487,-3.60e-02,
488,-3.20e-02,
489,4.00e-02,
490,5.60e-02,
491,-3.60e-02,
492,5.60e-02,
493,-4.00e-02,
494,-3.60e-02,
495,6.00e-02,
496,6.00e-02,
497,-4.40e-02,
498,7.20e-02,
499,-5.20e-02,
500,8.40e-02,
501,-7.20e-02,
502,7.20e-02,
503,-4.80e-02,
504,-5.20e-02,
505,6.00e-02,
506,4.80e-02,
507,-5.60e-02,
508,-5.60e-02,
509,6.00e-02,
510,4.40e-02,
511,-6.40e-02,
512,4.00e-02,
513,-6.00e-02,
514,-4.80e-02,
515,5.60e-02,
516,3.60e-02,
517,-6.00e-02,
518,-5.60e-02,
519,7.20e-02,
520,-6.40e-02,
521,1.00e-01,
522,1.00e-01,
523,-6.00e-02,
524,-5.60e-02,
525,8.40e-02,
526,-6.80e-02,
527,1.04e-01,
528,1.04e-01,
529,-6.40e-02,
530,9.60e-02,
531,-7.60e-02,
532,-8.40e-02,
533,1.00e-01,
534,9.60e-02,
535,-8.80e-02,
536,-8.00e-02,
537,1.00e-01,
538,9.20e-02,
539,-7.20e-02,
540,9.60e-02,
541,-7.20e-02,
542,8.80e-02,
543,-7.20e-02,
544,8.00e-02,
545,-7.60e-02,
546,-5.20e-02,
547,7.20e-02,
548,3.20e-02,
549,-5.20e-02,
550,5.60e-02,
551,-6.00e-02,
552,-5.20e-02,
553,8.80e-02,
554,-5.20e-02,
555,4.40e-02,
556,3.60e-02,
557,-4.80e-02,
558,-5.60e-02,
559,9.20e-02,
560,-5.20e-02,
561,9.20e-02,
562,8.40e-02,
563,-4.40e-02,
564,8.40e-02,
565,-5.20e-02,
566,8.80e-02,
567,-5.60e-02,
568,-6.00e-02,
569,9.20e-02,
570,7.60e-02,
571,-6.00e-02,
572,8.80e-02,
573,-5.60e-02,
574,-5.20e-02,
575,1.00e-01,
576,1.00e-01,
577,-6.00e-02,
578,-6.80e-02,
579,9.60e-02,
580,1.00e-01,
581,-5.60e-02,
582,-5.60e-02,
583,1.00e-01,
584,-6.40e-02,
585,9.20e-02,
586,8.80e-02,
587,-8.00e-02,
588,4.40e-02,
589,-7.20e-02,
590,-6.80e-02,
591,4.80e-02,
592,-6.40e-02,
593,6.80e-02,
594,8.00e-02,
595,-7.60e-02,
596,-6.80e-02,
597,7.60e-02,
598,-7.60e-02,
599,1.08e-01,
600,-6.00e-02,
601,1.04e-01,
602,-8.40e-02,
603,1.00e-01,
604,-7.20e-02,
605,8.00e-02,
606,-7.20e-02,
607,1.20e-01,
608,1.12e-01,
609,-6.80e-02,
610,-7.60e-02,
611,1.04e-01,
612,9.20e-02,
613,-8.40e-02,
614,1.12e-01,
615,-1.04e-01,
616,1.08e-01,
617,-1.08e-01,
618,9.60e-02,
619,-1.08e-01,
620,1.08e-01,
621,-1.04e-01,
622,-9.60e-02,
623,1.12e-01,
624,1.16e-01,
625,-1.04e-01,
626,-6.80e-02,
627,8.40e-02,
628,-5.60e-02,
629,1.00e-01,
630,7.20e-02,
631,-5.60e-02,
632,-5.20e-02,
633,7.20e-02,
634,6.80e-02,
635,-4.80e-02,
636,-5.60e-02,
637,8.00e-02,
638,-4.40e-02,
639,1.00e-01,
640,-6.80e-02,
641,1.04e-01,
642,-5.60e-02,
643,1.08e-01,
644,1.08e-01,
645,-6.40e-02,
646,8.40e-02,
647,-6.40e-02,
648,1.12e-01,
649,-6.40e-02,
650,1.04e-01,
651,-6.00e-02,
652,1.04e-01,
653,-6.00e-02,
654,1.00e-01,
655,-5.20e-02,
656,6.80e-02,
657,-5.60e-02,
658,9.60e-02,
659,-5.60e-02,
660,-6.80e-02,
661,8.80e-02,
662,6.80e-02,
663,-6.40e-02,
664,-4.40e-02,
665,6.40e-02,
666,-6.00e-02,
667,8.40e-02,
668,-7.20e-02,
669,9.60e-02,
670,-7.60e-02,
671,4.40e-02,
672,-7.20e-02,
673,1.16e-01,
674,-6.40e-02,
675,7.60e-02,
676,5.20e-02,
677,-7.20e-02,
678,-8.00e-02,
679,9.20e-02,
680,1.20e-01,
681,-7.20e-02,
682,-7.20e-02,
683,1.08e-01,
684,9.20e-02,
685,-7.60e-02,
686,-8.00e-02,
687,1.04e-01,
688,1.12e-01,
689,-7.20e-02,
690,-6.80e-02,
691,1.00e-01,
692,9.20e-02,
693,-6.80e-02,
694,1.12e-01,
695,-7.20e-02,
696,1.00e-01,
697,-8.00e-02,
698,-9.20e-02,
699,1.04e-01,
700,-9.20e-02,
701,9.60e-02,
702,-8.00e-02,
703,1.00e-01,
704,-9.20e-02,
705,9.60e-02,
706,-6.00e-02,
707,8.80e-02,
708,9.20e-02,
709,-5.60e-02,
710,-4.40e-02,
711,8.40e-02,
712,5.20e-02,
713,-4.80e-02,
714,-4.80e-02,
715,6.40e-02,
716,-4.80e-02,
717,7.60e-02,
718,-5.20e-02,
719,8.40e-02,
720,-5.60e-02,
721,8.40e-02,
722,7.60e-02,
723,-5.20e-02,
724,-4.80e-02,
725,8.00e-02,
726,-4.80e-02,
727,9.20e-02,
728,8.80e-02,
729,-5.60e-02,
730,8.40e-02,
731,-4.40e-02,
732,-4.80e-02,
733,7.60e-02,
734,-4.40e-02,
735,9.20e-02,
736,7.60e-02,
737,-6.00e-02,
738,-4.80e-02,
739,8.00e-02,
740,-4.00e-02,
741,6.00e-02,
742,-4.80e-02,
743,6.00e-02,
744,1.60e-02,
745,-5.60e-02,
746,-5.20e-02,
747,6.80e-02,
748,-5.20e-02,
749,8.80e-02,
750,9.60e-02,
751,-6.00e-02,
752,-6.00e-02,
753,1.08e-01,
754,4.40e-02,
755,-6.80e-02,
756,-6.40e-02,
757,4.00e-02,
758,-6.00e-02,
759,8.00e-02,
760,1.08e-01,
761,-6.40e-02,
762,-6.40e-02,
763,9.20e-02,
764,-6.40e-02,
765,1.04e-01,
766,6.80e-02,
767,-5.60e-02,
768,7.20e-02,
769,-4.80e-02,
770,8.00e-02,
771,-5.20e-02,
772,-6.00e-02,
773,1.00e-01,
774,-6.00e-02,
775,1.00e-01,
776,-6.00e-02,
777,7.20e-02,
778,7.60e-02,
779,-4.80e-02,
780,8.00e-02,
781,-4.80e-02,
782,-8.00e-02,
783,8.80e-02,
784,7.60e-02,
785,-4.80e-02,
786,-4.80e-02,
787,6.40e-02,
788,-6.00e-02,
789,7.20e-02,
790,-8.40e-02,
791,7.20e-02,
792,5.60e-02,
793,-1.04e-01,
794,-1.16e-01,
795,1.00e-01,
796,6.00e-02,
797,-4.80e-02,
798,-6.40e-02,
799,7.60e-02,
800,7.20e-02,
801,-4.80e-02,
802,-5.20e-02,
803,9.60e-02,
804,9.60e-02,
805,-6.40e-02,
806,-6.80e-02,
807,1.00e-01,
808,8.80e-02,
809,-4.80e-02,
810,-4.80e-02,
811,8.00e-02,
812,-4.80e-02,
813,9.20e-02,
814,-5.60e-02,
815,8.40e-02,
816,9.60e-02,
817,-6.80e-02,
818,8.80e-02,
819,-5.20e-02,
820,9.60e-02,
821,-6.40e-02,
822,8.80e-02,
823,-5.60e-02,
824,-6.40e-02,
825,6.40e-02,
826,9.60e-02,
827,-6.40e-02,
828,-6.00e-02,
829,8.00e-02,
830,1.00e-01,
831,-6.40e-02,
832,-6.00e-02,
833,8.00e-02,
834,-6.80e-02,
835,9.60e-02,
836,7.20e-02,
837,-7.20e-02,
838,-5.20e-02,
839,7.20e-02,
840,-6.00e-02,
841,7.60e-02,
842,-6.00e-02,
843,8.40e-02,
844,7.60e-02,
845,-6.00e-02,
846,-6.80e-02,
847,9.20e-02,
848,7.60e-02,
849,-6.40e-02,
850,-6.80e-02,
851,8.40e-02,
852,7.60e-02,
853,-7.60e-02,
854,1.12e-01,
855,-6.40e-02,
856,1.00e-01,
857,-6.00e-02,
858,-6.40e-02,
859,9.20e-02,
860,9.60e-02,
861,-7.60e-02,
862,-8.00e-02,
863,1.00e-01,
864,8.80e-02,
865,-6.00e-02,
866,-5.20e-02,
867,8.00e-02,
868,8.40e-02,
869,-4.80e-02,
870,-5.60e-02,
871,7.20e-02,
872,7.60e-02,
873,-4.00e-02,
874,5.20e-02,
875,-3.60e-02,
876,4.40e-02,
877,-3.20e-02,
878,-2.40e-02,
879,4.80e-02,
880,-5.20e-02,
881,8.40e-02,
882,-5.20e-02,
883,8.80e-02,
884,-4.80e-02,
885,9.20e-02,
886,-6.00e-02,
887,8.80e-02,
888,8.40e-02,
889,-6.00e-02,
890,-4.40e-02,
891,8.00e-02,
892,-2.80e-02,
893,5.60e-02,
894,4.40e-02,
895,-3.20e-02,
896,-3.60e-02,
897,5.60e-02,
898,-4.40e-02,
899,6.80e-02,
900,-5.20e-02,
901,8.40e-02,
902,7.20e-02,
903,-6.40e-02,
904,5.20e-02,
905,-6.00e-02,
906,-6.40e-02,
907,6.40e-02,
908,7.60e-02,
909,-5.60e-02,
910,-5.20e-02,
911,5.60e-02,
912,-6.40e-02,
913,8.00e-02,
914,6.80e-02,
915,-6.80e-02,
916,-5.20e-02,
917,9.60e-02,
918,-7.60e-02,
919,1.16e-01,
920,1.08e-01,
921,-7.20e-02,
922,-6.80e-02,
923,9.60e-02,
924,-5.60e-02,
925,8.80e-02,
926,-5.60e-02,
927,8.40e-02,
928,-6.00e-02,
929,8.40e-02,
930,-5.60e-02,
931,1.00e-01,
932,-6.40e-02,
933,8.80e-02,
934,-6.40e-02,
935,9.60e-02,
936,9.60e-02,
937,-5.60e-02,
938,-5.20e-02,
939,1.00e-01,
940,-5.60e-02,
941,9.60e-02,
942,1.00e-01,
943,-8.00e-02,
944,9.20e-02,
945,-8.40e-02,
946,-8.80e-02,
947,9.60e-02,
948,-7.60e-02,
949,9.20e-02,
950,-6.00e-02,
951,9.60e-02,
952,7.20e-02,
953,-8.00e-02,
954,8.40e-02,
955,-7.60e-02,
956,-5.20e-02,
957,3.20e-02,
958,-4.00e-02,
959,7.20e-02,
960,-5.60e-02,
961,7.60e-02,
962,1.00e-01,
963,-7.20e-02,
964,1.00e-01,
965,-6.00e-02,
966,-5.60e-02,
967,1.00e-01,
968,1.04e-01,
969,-7.20e-02,
970,-4.80e-02,
971,1.00e-01,
972,-6.40e-02,
973,8.40e-02,
974,-4.80e-02,
975,8.80e-02,
976,-4.40e-02,
977,6.80e-02,
978,-5.20e-02,
979,8.40e-02,
980,-4.80e-02,
981,8.40e-02,
982,7.20e-02,
983,-5.20e-02,
984,4.80e-02,
985,-6.00e-02,
986,-7.20e-02,
987,5.60e-02,
988,6.80e-02,
989,-6.80e-02,
990,4.80e-02,
991,-5.20e-02,
992,-5.20e-02,
993,3.20e-02,
994,-4.40e-02,
995,6.00e-02,
996,4.00e-02,
997,-5.60e-02,
998,-6.00e-02,
999,9.20e-02,
1000,-5.60e-02,
1001,8.80e-02,
1002,6.40e-02,
1003,-6.00e-02,
1004,-6.80e-02,
1005,8.80e-02,
1006,-6.00e-02,
1007,1.08e-01,
1008,-9.60e-02,
1009,1.24e-01,
1010,-6.80e-02,
1011,1.00e-01,
1012,-5.20e-02,
1013,8.00e-02,
1014,6.80e-02,
1015,-6.80e-02,
1016,5.20e-02,
1017,-5.20e-02,
1018,-5.60e-02,
1019,7.20e-02,
1020,8.00e-02,
1021,-5.60e-02,
1022,-6.00e-02,
1023,8.40e-02,
1024,-5.60e-02,
1025,6.80e-02,
1026,7.20e-02,
1027,-4.40e-02,
1028,-5.20e-02,
1029,5.60e-02,
1030,-6.00e-02,
1031,8.80e-02,
1032,9.20e-02,
1033,-5.20e-02,
1034,8.80e-02,
1035,-5.60e-02,
1036,1.00e-01,
1037,-7.20e-02,
1038,-6.00e-02,
1039,7.20e-02,
1040,-5.20e-02,
1041,9.20e-02,
1042,8.80e-02,
1043,-7.20e-02,
1044,-6.80e-02,
1045,9.60e-02,
1046,1.12e-01,
1047,-6.80e-02,
1048,-8.40e-02,
1049,1.04e-01,
1050,-6.40e-02,
1051,8.40e-02,
1052,5.60e-02,
1053,-3.60e-02,
1054,7.20e-02,
1055,-5.20e-02,
1056,-4.40e-02,
1057,8.40e-02,
1058,9.20e-02,
1059,-5.60e-02,
1060,9.20e-02,
1061,-5.60e-02,
1062,-4.40e-02,
1063,8.80e-02,
1064,4.80e-02,
1065,-4.00e-02,
1066,2.40e-02,
1067,-3.60e-02,
1068,-4.40e-02,
1069,6.40e-02,
1070,5.20e-02,
1071,-3.60e-02,
1072,6.00e-02,
1073,-4.80e-02,
1074,6.00e-02,
1075,-5.20e-02,
1076,-6.00e-02,
1077,5.20e-02,
1078,-6.80e-02,
1079,7.20e-02,
1080,-6.00e-02,
1081,8.00e-02,
1082,-5.20e-02,
1083,8.80e-02,
1084,-7.60e-02,
1085,1.16e-01,
1086,1.08e-01,
1087,-7.60e-02,
1088,8.80e-02,
1089,-7.20e-02,
1090,1.20e-01,
1091,-6.80e-02,
1092,1.16e-01,
1093,-9.60e-02,
1094,1.12e-01,
1095,-9.60e-02,
1096,1.08e-01,
1097,-9.20e-02,
1098,8.00e-02,
1099,-7.60e-02,
1100,1.08e-01,
1101,-6.80e-02,
1102,-6.00e-02,
1103,1.04e-01,
1104,-6.80e-02,
1105,8.00e-02,
1106,7.60e-02,
1107,-6.00e-02,
1108,-5.20e-02,
1109,8.00e-02,
1110,-5.20e-02,
1111,9.20e-02,
1112,-5.20e-02,
1113,8.40e-02,
1114,-5.60e-02,
1115,9.60e-02,
1116,7.20e-02,
1117,-6.40e-02,
1118,1.00e-01,
1119,-8.40e-02,
1120,-7.20e-02,
1121,9.20e-02,
1122,9.20e-02,
1123,-8.00e-02,
1124,9.60e-02,
1125,-6.80e-02,
1126,8.40e-02,
1127,-8.00e-02,
1128,-6.80e-02,
1129,1.08e-01,
1130,-8.40e-02,
1131,1.08e-01,
1132,1.12e-01,
1133,-9.20e-02,
1134,-9.20e-02,
1135,1.04e-01,
1136,-5.60e-02,
1137,1.04e-01,
1138,-8.00e-02,
1139,1.12e-01,
1140,-7.60e-02,
1141,1.00e-01,
1142,-7.20e-02,
1143,9.20e-02,
1144,9.60e-02,
1145,-6.40e-02,
1146,-6.00e-02,
1147,5.60e-02,
1148,-5.20e-02,
1149,5.60e-02,
1150,-6.00e-02,
1151,7.60e-02,
1152,-5.60e-02,
1153,4.80e-02,
1154,5.60e-02,
1155,-6.00e-02,
1156,3.60e-02,
1157,-4.80e-02,
1158,-4.80e-02,
1159,7.60e-02,
1160,7.60e-02,
1161,-5.20e-02,
1162,-5.20e-02,
1163,7.60e-02,
1164,-5.20e-02,
1165,7.20e-02,
1166,8.40e-02,
1167,-6.00e-02,
1168,1.04e-01,
1169,-6.00e-02,
1170,-7.20e-02,
1171,1.00e-01,
1172,-6.80e-02,
1173,1.04e-01,
1174,-6.40e-02,
1175,1.16e-01,
1176,1.08e-01,
1177,-6.80e-02,
1178,-6.80e-02,
1179,9.60e-02,
1180,7.60e-02,
1181,-6.80e-02,
1182,9.20e-02,
1183,-6.40e-02,
1184,5.60e-02,
1185,-6.40e-02,
1186,2.80e-02,
1187,-6.00e-02,
1188,4.00e-02,
1189,-4.80e-02,
1190,-4.00e-02,
1191,7.20e-02,
1192,-4.80e-02,
1193,4.40e-02,
1194,-4.80e-02,
1195,6.40e-02,
1196,-4.80e-02,
1197,7.60e-02,
1198,-4.80e-02,
1199,7.60e-02,
