Laptop_1/LAPTOP_CHRGR_1_ON_CLOSE/time domain/NewFile3.csv

X,CH1,Start,Increment,
Sequence,Volt,-1.500000e-01,2.000000e-04
0,-4.00e-02,
1,1.72e-01,
2,1.52e-01,
3,-4.00e-02,
4,-4.00e-02,
5,1.68e-01,
6,1.76e-01,
7,-4.40e-02,
8,-4.00e-02,
9,1.64e-01,
10,-4.00e-02,
11,1.72e-01,
12,-4.00e-02,
13,1.76e-01,
14,1.72e-01,
15,-5.20e-02,
16,-5.20e-02,
17,1.64e-01,
18,1.68e-01,
19,-6.40e-02,
20,-6.40e-02,
21,1.76e-01,
22,1.56e-01,
23,-4.00e-02,
24,1.60e-01,
25,-4.00e-02,
26,-3.60e-02,
27,1.56e-01,
28,1.44e-01,
29,-3.60e-02,
30,-3.20e-02,
31,1.24e-01,
32,-3.20e-02,
33,1.24e-01,
34,-3.20e-02,
35,1.12e-01,
36,-3.60e-02,
37,1.48e-01,
38,1.60e-01,
39,-3.60e-02,
40,1.44e-01,
41,-3.60e-02,
42,-3.20e-02,
43,1.52e-01,
44,1.52e-01,
45,-3.20e-02,
46,-3.20e-02,
47,1.48e-01,
48,1.32e-01,
49,-3.60e-02,
50,-3.20e-02,
51,1.48e-01,
52,1.32e-01,
53,-3.60e-02,
54,-3.60e-02,
55,1.56e-01,
56,-5.60e-02,
57,1.56e-01,
58,1.56e-01,
59,-5.20e-02,
60,1.56e-01,
61,-6.40e-02,
62,-6.80e-02,
63,1.40e-01,
64,-3.20e-02,
65,1.60e-01,
66,1.64e-01,
67,-3.60e-02,
68,-3.20e-02,
69,3.20e-02,
70,-3.60e-02,
71,8.80e-02,
72,-3.20e-02,
73,8.40e-02,
74,-3.20e-02,
75,1.32e-01,
76,1.32e-01,
77,-3.60e-02,
78,-3.20e-02,
79,9.20e-02,
80,-4.00e-02,
81,1.68e-01,
82,1.44e-01,
83,-4.40e-02,
84,-4.80e-02,
85,1.24e-01,
86,-4.00e-02,
87,1.76e-01,
88,-4.40e-02,
89,1.68e-01,
90,1.72e-01,
91,-4.00e-02,
92,-3.60e-02,
93,1.52e-01,
94,-3.60e-02,
95,1.76e-01,
96,-4.00e-02,
97,1.52e-01,
98,-4.80e-02,
99,1.72e-01,
100,-5.60e-02,
101,1.64e-01,
102,1.72e-01,
103,-6.00e-02,
104,1.76e-01,
105,-5.20e-02,
106,-4.00e-02,
107,1.52e-01,
108,-3.60e-02,
109,1.20e-01,
110,-3.60e-02,
111,9.20e-02,
112,-3.60e-02,
113,1.48e-01,
114,-3.20e-02,
115,1.36e-01,
116,-3.20e-02,
117,1.28e-01,
118,-3.20e-02,
119,1.24e-01,
120,1.48e-01,
121,-3.60e-02,
122,-3.20e-02,
123,1.56e-01,
124,1.52e-01,
125,-3.60e-02,
126,-3.20e-02,
127,1.28e-01,
128,-3.60e-02,
129,1.56e-01,
130,-4.40e-02,
131,1.56e-01,
132,-4.40e-02,
133,1.44e-01,
134,-3.60e-02,
135,1.56e-01,
136,-3.60e-02,
137,1.56e-01,
138,-3.20e-02,
139,1.16e-01,
140,-5.20e-02,
141,1.68e-01,
142,1.72e-01,
143,-7.60e-02,
144,-6.40e-02,
145,1.68e-01,
146,-3.60e-02,
147,1.56e-01,
148,-3.20e-02,
149,1.32e-01,
150,-3.20e-02,
151,1.48e-01,
152,-3.20e-02,
153,1.04e-01,
154,8.80e-02,
155,-3.60e-02,
156,7.20e-02,
157,-3.20e-02,
158,-3.60e-02,
159,1.52e-01,
160,-4.00e-02,
161,1.60e-01,
162,-4.40e-02,
163,1.64e-01,
164,1.72e-01,
165,-4.40e-02,
166,-4.00e-02,
167,1.68e-01,
168,-4.00e-02,
169,1.72e-01,
170,-4.00e-02,
171,1.60e-01,
172,-4.00e-02,
173,1.72e-01,
174,-4.00e-02,
175,1.64e-01,
176,1.72e-01,
177,-4.00e-02,
178,-3.60e-02,
179,1.60e-01,
180,-5.60e-02,
181,1.64e-01,
182,1.64e-01,
183,-6.40e-02,
184,-6.00e-02,
185,1.64e-01,
186,-6.40e-02,
187,1.72e-01,
188,-4.00e-02,
189,1.48e-01,
190,-3.60e-02,
191,1.08e-01,
192,-3.60e-02,
193,8.80e-02,
194,-3.20e-02,
195,1.24e-01,
196,-3.60e-02,
197,1.44e-01,
198,-3.20e-02,
199,1.40e-01,
200,1.40e-01,
201,-3.20e-02,
202,-3.60e-02,
203,1.52e-01,
204,1.44e-01,
205,-3.60e-02,
206,-3.60e-02,
207,1.24e-01,
208,-3.20e-02,
209,1.48e-01,
210,-2.80e-02,
211,1.44e-01,
212,-3.20e-02,
213,1.52e-01,
214,-3.20e-02,
215,1.52e-01,
216,-3.60e-02,
217,1.36e-01,
218,1.48e-01,
219,-4.40e-02,
220,-5.60e-02,
221,1.72e-01,
222,1.68e-01,
223,-6.40e-02,
224,1.52e-01,
225,-6.80e-02,
226,-6.40e-02,
227,1.76e-01,
228,-6.40e-02,
229,1.64e-01,
230,1.32e-01,
231,-3.60e-02,
232,-3.20e-02,
233,8.40e-02,
234,-3.20e-02,
235,7.60e-02,
236,-3.60e-02,
237,9.20e-02,
238,-3.60e-02,
239,1.48e-01,
240,-4.00e-02,
241,1.28e-01,
242,1.56e-01,
243,-4.80e-02,
244,1.60e-01,
245,-4.80e-02,
246,-4.00e-02,
247,1.68e-01,
248,-4.00e-02,
249,1.64e-01,
250,-3.60e-02,
251,1.72e-01,
252,1.64e-01,
253,-4.00e-02,
254,-4.00e-02,
255,1.56e-01,
256,-3.60e-02,
257,1.72e-01,
258,-4.00e-02,
259,1.68e-01,
260,1.68e-01,
261,-4.00e-02,
262,1.68e-01,
263,-4.00e-02,
264,-5.60e-02,
265,1.64e-01,
266,1.72e-01,
267,-6.00e-02,
268,1.04e-01,
269,-6.40e-02,
270,-3.60e-02,
271,1.00e-01,
272,-3.60e-02,
273,1.56e-01,
274,-3.20e-02,
275,1.20e-01,
276,-3.20e-02,
277,1.12e-01,
278,-2.80e-02,
279,1.04e-01,
280,-2.80e-02,
281,1.40e-01,
282,-2.80e-02,
283,1.36e-01,
284,-2.80e-02,
285,1.32e-01,
286,1.44e-01,
287,-3.20e-02,
288,-3.20e-02,
289,1.48e-01,
290,-2.80e-02,
291,1.48e-01,
292,-2.80e-02,
293,1.40e-01,
294,-3.20e-02,
295,1.56e-01,
296,-3.20e-02,
297,1.52e-01,
298,-3.20e-02,
299,1.60e-01,
300,-3.60e-02,
301,1.60e-01,
302,1.64e-01,
303,-6.80e-02,
304,-6.00e-02,
305,1.64e-01,
306,1.64e-01,
307,-5.60e-02,
308,-3.60e-02,
309,1.64e-01,
310,-3.60e-02,
311,7.20e-02,
312,-4.00e-02,
313,6.40e-02,
314,-3.20e-02,
315,8.00e-02,
316,-3.20e-02,
317,1.00e-01,
318,1.44e-01,
319,-4.00e-02,
320,1.56e-01,
321,-4.00e-02,
322,-4.00e-02,
323,1.52e-01,
324,1.28e-01,
325,-4.80e-02,
326,-4.40e-02,
327,1.60e-01,
328,-4.80e-02,
329,1.56e-01,
330,1.56e-01,
331,-3.60e-02,
332,-3.60e-02,
333,1.60e-01,
334,-3.60e-02,
335,1.56e-01,
336,1.32e-01,
337,-4.00e-02,
338,-4.00e-02,
339,1.64e-01,
340,-4.00e-02,
341,1.68e-01,
342,1.72e-01,
343,-4.80e-02,
344,-4.00e-02,
345,1.64e-01,
346,-3.60e-02,
347,1.52e-01,
348,-3.60e-02,
349,1.56e-01,
350,8.00e-02,
351,-6.00e-02,
352,-4.40e-02,
353,1.68e-01,
354,-5.60e-02,
355,1.56e-01,
356,-3.20e-02,
357,7.60e-02,
358,-3.20e-02,
359,1.20e-01,
360,-3.20e-02,
361,1.52e-01,
362,-3.20e-02,
363,1.48e-01,
364,1.36e-01,
365,-2.80e-02,
366,-3.20e-02,
367,1.40e-01,
368,-2.80e-02,
369,1.44e-01,
370,1.32e-01,
371,-3.20e-02,
372,-2.80e-02,
373,1.52e-01,
374,1.52e-01,
375,-3.20e-02,
376,-3.20e-02,
377,1.52e-01,
378,1.60e-01,
379,-3.20e-02,
380,1.56e-01,
381,-3.60e-02,
382,-3.60e-02,
383,1.28e-01,
384,1.60e-01,
385,-5.20e-02,
386,-4.80e-02,
387,1.32e-01,
388,-3.60e-02,
389,8.40e-02,
390,-3.60e-02,
391,1.60e-01,
392,-3.60e-02,
393,6.40e-02,
394,1.48e-01,
395,-4.00e-02,
396,-3.60e-02,
397,8.00e-02,
398,1.60e-01,
399,-3.20e-02,
400,1.44e-01,
401,-4.40e-02,
402,1.32e-01,
403,-4.40e-02,
404,1.48e-01,
405,-4.80e-02,
406,1.44e-01,
407,-4.80e-02,
408,-4.80e-02,
409,1.56e-01,
410,-4.40e-02,
411,1.56e-01,
412,-4.00e-02,
413,1.52e-01,
414,-3.60e-02,
415,1.64e-01,
416,-3.60e-02,
417,1.28e-01,
418,1.60e-01,
419,-4.00e-02,
420,1.68e-01,
421,-4.00e-02,
422,1.52e-01,
423,-4.00e-02,
424,1.64e-01,
425,-4.00e-02,
426,-3.20e-02,
427,1.68e-01,
428,8.00e-02,
429,-3.60e-02,
430,1.12e-01,
431,-3.60e-02,
432,1.60e-01,
433,-5.20e-02,
434,-4.80e-02,
435,1.56e-01,
436,-3.60e-02,
437,1.20e-01,
438,-3.60e-02,
439,1.44e-01,
440,1.48e-01,
441,-3.60e-02,
442,-2.80e-02,
443,1.52e-01,
444,-3.20e-02,
445,1.44e-01,
446,-3.20e-02,
447,1.28e-01,
448,-2.80e-02,
449,1.32e-01,
450,-3.20e-02,
451,1.40e-01,
452,1.32e-01,
453,-2.80e-02,
454,1.40e-01,
455,-3.20e-02,
456,1.52e-01,
457,-3.20e-02,
458,1.48e-01,
459,-3.20e-02,
460,-3.20e-02,
461,1.60e-01,
462,1.60e-01,
463,-3.60e-02,
464,1.56e-01,
465,-5.20e-02,
466,-4.80e-02,
467,1.60e-01,
468,-4.00e-02,
469,6.00e-02,
470,-4.00e-02,
471,1.20e-01,
472,-4.00e-02,
473,6.40e-02,
474,1.16e-01,
475,-5.20e-02,
476,9.20e-02,
477,-4.80e-02,
478,-5.60e-02,
479,1.64e-01,
480,-4.00e-02,
481,1.68e-01,
482,-3.60e-02,
483,1.60e-01,
484,1.60e-01,
485,-4.40e-02,
486,1.52e-01,
487,-5.60e-02,
488,-4.80e-02,
489,1.64e-01,
490,1.52e-01,
491,-4.80e-02,
492,-4.40e-02,
493,1.44e-01,
494,-4.40e-02,
495,1.48e-01,
496,1.64e-01,
497,-4.00e-02,
498,1.68e-01,
499,-4.00e-02,
500,1.56e-01,
501,-4.00e-02,
502,1.64e-01,
503,-4.00e-02,
504,1.68e-01,
505,-4.00e-02,
506,-5.20e-02,
507,1.72e-01,
508,1.20e-01,
509,-5.60e-02,
510,1.56e-01,
511,-5.60e-02,
512,1.16e-01,
513,-4.40e-02,
514,-4.40e-02,
515,1.64e-01,
516,-4.00e-02,
517,1.20e-01,
518,1.56e-01,
519,-7.20e-02,
520,-8.40e-02,
521,1.64e-01,
522,1.48e-01,
523,-4.00e-02,
524,-3.60e-02,
525,1.48e-01,
526,1.40e-01,
527,-4.00e-02,
528,1.40e-01,
529,-4.00e-02,
530,1.36e-01,
531,-4.00e-02,
532,1.36e-01,
533,-3.60e-02,
534,-3.60e-02,
535,1.48e-01,
536,-3.60e-02,
537,1.52e-01,
538,-4.00e-02,
539,1.44e-01,
540,1.56e-01,
541,-4.00e-02,
542,1.56e-01,
543,-4.00e-02,
544,-4.00e-02,
545,1.68e-01,
546,-4.00e-02,
547,1.60e-01,
548,1.12e-01,
549,-4.00e-02,
550,-4.00e-02,
551,1.28e-01,
552,1.20e-01,
553,-4.40e-02,
554,-4.00e-02,
555,1.72e-01,
556,1.12e-01,
557,-5.60e-02,
558,-7.20e-02,
559,1.64e-01,
560,-6.80e-02,
561,1.80e-01,
562,-5.60e-02,
563,1.48e-01,
564,1.68e-01,
565,-4.40e-02,
566,1.52e-01,
567,-4.40e-02,
568,-4.40e-02,
569,1.56e-01,
570,1.60e-01,
571,-5.20e-02,
572,1.48e-01,
573,-4.80e-02,
574,1.52e-01,
575,-4.00e-02,
576,-3.60e-02,
577,1.60e-01,
578,-3.60e-02,
579,1.44e-01,
580,-3.60e-02,
581,1.44e-01,
582,-3.60e-02,
583,1.56e-01,
584,1.68e-01,
585,-4.00e-02,
586,1.64e-01,
587,-4.00e-02,
588,1.16e-01,
589,-4.00e-02,
590,7.60e-02,
591,-4.00e-02,
592,-4.80e-02,
593,1.12e-01,
594,1.20e-01,
595,-6.00e-02,
596,-5.20e-02,
597,1.24e-01,
598,-6.00e-02,
599,1.60e-01,
600,1.64e-01,
601,-6.80e-02,
602,1.64e-01,
603,-8.00e-02,
604,1.60e-01,
605,-6.00e-02,
606,1.44e-01,
607,-3.60e-02,
608,1.28e-01,
609,-3.60e-02,
610,1.48e-01,
611,-3.60e-02,
612,-3.20e-02,
613,1.44e-01,
614,-3.60e-02,
615,1.48e-01,
616,-3.60e-02,
617,1.48e-01,
618,-3.60e-02,
619,1.56e-01,
620,1.56e-01,
621,-3.60e-02,
622,-3.60e-02,
623,1.60e-01,
624,-4.00e-02,
625,1.60e-01,
626,-4.00e-02,
627,1.60e-01,
628,1.60e-01,
629,-4.00e-02,
630,-4.00e-02,
631,8.00e-02,
632,8.80e-02,
633,-4.40e-02,
634,1.32e-01,
635,-4.40e-02,
636,-4.40e-02,
637,9.60e-02,
638,-5.60e-02,
639,1.16e-01,
640,-6.40e-02,
641,1.76e-01,
642,1.76e-01,
643,-6.40e-02,
644,-5.60e-02,
645,1.68e-01,
646,-4.40e-02,
647,1.52e-01,
648,-4.00e-02,
649,1.64e-01,
650,-4.80e-02,
651,1.52e-01,
652,1.56e-01,
653,-4.80e-02,
654,1.52e-01,
655,-4.40e-02,
656,-4.40e-02,
657,1.60e-01,
658,1.52e-01,
659,-3.60e-02,
660,-3.60e-02,
661,1.20e-01,
662,-3.60e-02,
663,1.56e-01,
664,-3.20e-02,
665,1.48e-01,
666,1.60e-01,
667,-4.00e-02,
668,-3.60e-02,
669,1.60e-01,
670,1.20e-01,
671,-4.00e-02,
672,1.48e-01,
673,-4.40e-02,
674,-5.20e-02,
675,9.20e-02,
676,-4.00e-02,
677,1.44e-01,
678,-5.60e-02,
679,1.08e-01,
680,1.68e-01,
681,-6.00e-02,
682,-7.20e-02,
683,1.64e-01,
684,1.64e-01,
685,-1.00e-01,
686,-1.00e-01,
687,1.64e-01,
688,-6.00e-02,
689,1.44e-01,
690,1.40e-01,
691,-3.20e-02,
692,-3.20e-02,
693,1.44e-01,
694,-3.20e-02,
695,1.44e-01,
696,-3.60e-02,
697,1.48e-01,
698,1.48e-01,
699,-3.20e-02,
700,-3.20e-02,
701,1.48e-01,
702,1.64e-01,
703,-3.60e-02,
704,1.60e-01,
705,-3.60e-02,
706,-3.60e-02,
707,1.60e-01,
708,-3.60e-02,
709,1.68e-01,
710,-4.40e-02,
711,8.40e-02,
712,8.80e-02,
713,-4.00e-02,
714,-4.00e-02,
715,1.60e-01,
716,-4.00e-02,
717,1.28e-01,
718,-4.00e-02,
719,1.36e-01,
720,-4.00e-02,
721,1.64e-01,
722,1.60e-01,
723,-4.40e-02,
724,-4.80e-02,
725,1.76e-01,
726,-4.40e-02,
727,1.56e-01,
728,-4.40e-02,
729,1.64e-01,
730,-4.40e-02,
731,1.52e-01,
732,-4.00e-02,
733,1.56e-01,
734,1.60e-01,
735,-4.80e-02,
736,1.56e-01,
737,-4.00e-02,
738,-3.60e-02,
739,1.28e-01,
740,1.48e-01,
741,-3.60e-02,
742,-3.60e-02,
743,1.56e-01,
744,-3.20e-02,
745,1.48e-01,
746,-3.20e-02,
747,1.52e-01,
748,-3.60e-02,
749,1.60e-01,
750,-4.00e-02,
751,1.60e-01,
752,1.40e-01,
753,-3.60e-02,
754,-4.00e-02,
755,1.24e-01,
756,1.00e-01,
757,-5.20e-02,
758,1.04e-01,
759,-4.80e-02,
760,1.56e-01,
761,-6.00e-02,
762,1.60e-01,
763,-7.20e-02,
764,1.24e-01,
765,-8.00e-02,
766,1.64e-01,
767,-7.60e-02,
768,-9.20e-02,
769,1.68e-01,
770,-8.40e-02,
771,1.60e-01,
772,1.48e-01,
773,-4.00e-02,
774,-3.60e-02,
775,1.44e-01,
776,-3.20e-02,
777,1.52e-01,
778,1.48e-01,
779,-3.20e-02,
780,1.48e-01,
781,-3.20e-02,
782,1.28e-01,
783,-3.60e-02,
784,1.60e-01,
785,-4.00e-02,
786,-4.00e-02,
787,1.60e-01,
788,1.32e-01,
789,-4.00e-02,
790,1.60e-01,
791,-4.00e-02,
792,-4.00e-02,
793,1.40e-01,
794,-4.00e-02,
795,6.00e-02,
796,-4.00e-02,
797,6.40e-02,
798,-4.40e-02,
799,1.28e-01,
800,-4.40e-02,
801,1.72e-01,
802,-4.40e-02,
803,1.68e-01,
804,1.76e-01,
805,-5.20e-02,
806,1.68e-01,
807,-6.00e-02,
808,1.72e-01,
809,-6.00e-02,
810,1.72e-01,
811,-6.00e-02,
812,-6.00e-02,
813,1.60e-01,
814,1.68e-01,
815,-4.00e-02,
816,-4.00e-02,
817,1.64e-01,
818,1.52e-01,
819,-3.60e-02,
820,-3.60e-02,
821,1.24e-01,
822,-4.00e-02,
823,1.44e-01,
824,1.44e-01,
825,-3.60e-02,
826,-3.20e-02,
827,1.48e-01,
828,-3.20e-02,
829,1.52e-01,
830,8.80e-02,
831,-4.00e-02,
832,-3.60e-02,
833,8.00e-02,
834,8.40e-02,
835,-4.00e-02,
836,8.40e-02,
837,-4.00e-02,
838,1.32e-01,
839,-4.80e-02,
840,1.56e-01,
841,-6.00e-02,
842,-6.40e-02,
843,1.52e-01,
844,-6.40e-02,
845,1.64e-01,
846,-6.40e-02,
847,1.52e-01,
848,-7.60e-02,
849,1.64e-01,
850,1.56e-01,
851,-8.40e-02,
852,-1.00e-01,
853,1.40e-01,
854,-6.40e-02,
855,1.56e-01,
856,-3.60e-02,
857,1.52e-01,
858,-3.60e-02,
859,1.28e-01,
860,-4.00e-02,
861,1.60e-01,
862,-3.60e-02,
863,1.48e-01,
864,-3.60e-02,
865,1.52e-01,
866,1.60e-01,
867,-4.00e-02,
868,1.48e-01,
869,-4.00e-02,
870,1.60e-01,
871,-4.00e-02,
872,-4.00e-02,
873,1.56e-01,
874,-4.40e-02,
875,9.60e-02,
876,-4.00e-02,
877,1.04e-01,
878,-4.00e-02,
879,1.20e-01,
880,-4.40e-02,
881,1.76e-01,
882,1.64e-01,
883,-4.40e-02,
884,1.68e-01,
885,-4.40e-02,
886,-4.00e-02,
887,1.56e-01,
888,1.80e-01,
889,-4.80e-02,
890,1.76e-01,
891,-5.60e-02,
892,1.32e-01,
893,-6.00e-02,
894,-6.80e-02,
895,1.72e-01,
896,-4.00e-02,
897,1.60e-01,
898,1.60e-01,
899,-4.00e-02,
900,-3.60e-02,
901,1.52e-01,
902,1.48e-01,
903,-3.20e-02,
904,-3.20e-02,
905,1.52e-01,
906,-3.60e-02,
907,1.52e-01,
908,1.48e-01,
909,-3.60e-02,
910,-3.60e-02,
911,1.48e-01,
912,8.80e-02,
913,-3.60e-02,
914,-3.60e-02,
915,5.20e-02,
916,-3.60e-02,
917,1.56e-01,
918,-4.00e-02,
919,1.56e-01,
920,1.60e-01,
921,-4.40e-02,
922,1.64e-01,
923,-6.00e-02,
924,1.56e-01,
925,-6.00e-02,
926,1.56e-01,
927,-6.80e-02,
928,-7.20e-02,
929,1.40e-01,
930,1.56e-01,
931,-7.60e-02,
932,-6.40e-02,
933,1.48e-01,
934,1.64e-01,
935,-7.20e-02,
936,1.60e-01,
937,-6.80e-02,
938,-6.00e-02,
939,1.48e-01,
940,-3.20e-02,
941,1.44e-01,
942,-3.20e-02,
943,1.44e-01,
944,-3.60e-02,
945,1.56e-01,
946,-3.60e-02,
947,1.52e-01,
948,-4.00e-02,
949,1.60e-01,
950,-3.60e-02,
951,1.16e-01,
952,-4.00e-02,
953,9.20e-02,
954,-4.00e-02,
955,8.00e-02,
956,-4.00e-02,
957,1.48e-01,
958,-4.00e-02,
959,1.68e-01,
960,-4.00e-02,
961,1.56e-01,
962,-4.00e-02,
963,1.72e-01,
964,1.60e-01,
965,-4.00e-02,
966,1.40e-01,
967,-4.00e-02,
968,-4.00e-02,
969,1.52e-01,
970,1.76e-01,
971,-4.00e-02,
972,-4.00e-02,
973,1.72e-01,
974,-3.60e-02,
975,1.68e-01,
976,-4.00e-02,
977,1.68e-01,
978,-4.00e-02,
979,1.68e-01,
980,1.64e-01,
981,-3.20e-02,
982,-3.60e-02,
983,1.48e-01,
984,1.52e-01,
985,-3.60e-02,
986,-3.20e-02,
987,1.52e-01,
988,1.04e-01,
989,-3.20e-02,
990,-3.20e-02,
991,1.36e-01,
992,-3.20e-02,
993,1.52e-01,
994,-3.60e-02,
995,2.80e-02,
996,-3.60e-02,
997,7.20e-02,
998,-3.20e-02,
999,1.64e-01,
1000,-3.60e-02,
1001,1.56e-01,
1002,-4.00e-02,
1003,1.60e-01,
1004,-4.80e-02,
1005,1.40e-01,
1006,-6.40e-02,
1007,1.60e-01,
1008,-6.40e-02,
1009,1.52e-01,
1010,-7.20e-02,
1011,1.60e-01,
1012,-7.20e-02,
1013,1.60e-01,
1014,-6.80e-02,
1015,1.60e-01,
1016,1.60e-01,
1017,-7.60e-02,
1018,1.60e-01,
1019,-8.80e-02,
1020,-7.20e-02,
1021,1.64e-01,
1022,-3.60e-02,
1023,1.52e-01,
1024,1.52e-01,
1025,-4.00e-02,
1026,-4.00e-02,
1027,1.52e-01,
1028,-3.60e-02,
1029,1.60e-01,
1030,-4.40e-02,
1031,1.52e-01,
1032,-4.00e-02,
1033,1.60e-01,
1034,1.52e-01,
1035,-4.00e-02,
1036,1.52e-01,
1037,-4.00e-02,
1038,-4.00e-02,
1039,1.64e-01,
1040,-4.00e-02,
1041,1.68e-01,
1042,-4.00e-02,
1043,1.60e-01,
1044,-4.00e-02,
1045,1.52e-01,
1046,1.64e-01,
1047,-4.00e-02,
1048,-4.00e-02,
1049,1.72e-01,
1050,-4.00e-02,
1051,1.60e-01,
1052,-4.00e-02,
1053,1.56e-01,
1054,-4.00e-02,
1055,1.76e-01,
1056,-4.00e-02,
1057,1.76e-01,
1058,-3.60e-02,
1059,1.72e-01,
1060,-4.40e-02,
1061,1.72e-01,
1062,-4.00e-02,
1063,1.68e-01,
1064,-3.20e-02,
1065,1.60e-01,
1066,1.56e-01,
1067,-3.20e-02,
1068,-3.20e-02,
1069,8.00e-02,
1070,-3.60e-02,
1071,1.48e-01,
1072,1.32e-01,
1073,-3.20e-02,
1074,-3.20e-02,
1075,1.08e-01,
1076,1.48e-01,
1077,-3.60e-02,
1078,-3.20e-02,
1079,1.48e-01,
1080,-3.20e-02,
1081,1.60e-01,
1082,1.44e-01,
1083,-3.60e-02,
1084,-3.60e-02,
1085,1.48e-01,
1086,-3.60e-02,
1087,1.52e-01,
1088,1.56e-01,
1089,-6.00e-02,
1090,1.52e-01,
1091,-7.20e-02,
1092,1.56e-01,
1093,-7.60e-02,
1094,-7.20e-02,
1095,1.56e-01,
1096,-6.40e-02,
1097,1.60e-01,
1098,-6.40e-02,
1099,1.56e-01,
1100,-6.80e-02,
1101,1.60e-01,
1102,-8.40e-02,
1103,1.72e-01,
1104,1.72e-01,
1105,-6.00e-02,
1106,1.56e-01,
1107,-4.40e-02,
1108,1.56e-01,
1109,-4.00e-02,
1110,-3.60e-02,
1111,1.60e-01,
1112,-3.60e-02,
1113,1.52e-01,
1114,-3.60e-02,
1115,1.48e-01,
1116,-4.00e-02,
1117,1.60e-01,
1118,-4.40e-02,
1119,1.52e-01,
1120,1.64e-01,
1121,-4.00e-02,
1122,-4.00e-02,
1123,1.60e-01,
1124,-3.60e-02,
1125,1.64e-01,
1126,1.64e-01,
1127,-4.00e-02,
1128,-4.00e-02,
1129,1.64e-01,
1130,-4.00e-02,
1131,1.72e-01,
1132,-3.60e-02,
1133,1.76e-01,
1134,-3.60e-02,
1135,1.76e-01,
1136,-3.60e-02,
1137,1.76e-01,
1138,-3.60e-02,
1139,1.72e-01,
1140,-3.60e-02,
1141,1.64e-01,
1142,1.60e-01,
1143,-4.00e-02,
1144,-4.80e-02,
1145,1.68e-01,
1146,-4.00e-02,
1147,1.64e-01,
1148,1.40e-01,
1149,-3.20e-02,
1150,-3.60e-02,
1151,1.44e-01,
1152,-3.20e-02,
1153,1.44e-01,
1154,-3.60e-02,
1155,1.28e-01,
1156,8.80e-02,
1157,-3.60e-02,
1158,-4.00e-02,
1159,1.60e-01,
1160,1.60e-01,
1161,-4.00e-02,
1162,1.56e-01,
1163,-4.00e-02,
1164,-4.00e-02,
1165,1.60e-01,
1166,1.52e-01,
1167,-5.60e-02,
1168,1.56e-01,
1169,-6.40e-02,
1170,-6.00e-02,
1171,1.56e-01,
1172,-6.00e-02,
1173,1.56e-01,
1174,-7.20e-02,
1175,1.64e-01,
1176,1.56e-01,
1177,-7.20e-02,
1178,-7.60e-02,
1179,1.60e-01,
1180,1.64e-01,
1181,-7.20e-02,
1182,-8.00e-02,
1183,1.64e-01,
1184,-8.00e-02,
1185,1.76e-01,
1186,-8.40e-02,
1187,1.60e-01,
1188,-4.00e-02,
1189,1.56e-01,
1190,1.64e-01,
1191,-4.00e-02,
1192,-4.00e-02,
1193,1.20e-01,
1194,-3.60e-02,
1195,1.20e-01,
1196,-3.60e-02,
1197,1.56e-01,
1198,-3.60e-02,
1199,1.64e-01,
