Laptop_1/LAPTOP_CHRGR_1_ON_CLOSE/time domain/NewFile1.csv

X,CH1,Start,Increment,
Sequence,Volt,-6.000000e-02,5.000000e-05
0,7.00e-02,
1,-5.40e-02,
2,6.00e-02,
3,-4.80e-02,
4,7.40e-02,
5,-7.60e-02,
6,-6.80e-02,
7,6.00e-02,
8,4.40e-02,
9,-6.60e-02,
10,4.00e-02,
11,-5.40e-02,
12,7.80e-02,
13,-6.00e-02,
14,-5.60e-02,
15,4.80e-02,
16,-8.00e-02,
17,5.00e-02,
18,-4.40e-02,
19,7.20e-02,
20,6.40e-02,
21,-8.20e-02,
22,-6.40e-02,
23,5.40e-02,
24,-6.80e-02,
25,5.60e-02,
26,5.60e-02,
27,-6.60e-02,
28,5.40e-02,
29,-5.00e-02,
30,4.20e-02,
31,-5.80e-02,
32,5.00e-02,
33,-5.40e-02,
34,7.40e-02,
35,-7.40e-02,
36,7.40e-02,
37,-5.00e-02,
38,5.60e-02,
39,-4.20e-02,
40,-5.60e-02,
41,5.80e-02,
42,-6.00e-02,
43,6.60e-02,
44,8.00e-02,
45,-4.60e-02,
46,6.80e-02,
47,-8.40e-02,
48,8.60e-02,
49,-4.40e-02,
50,8.40e-02,
51,-6.60e-02,
52,7.20e-02,
53,-7.40e-02,
54,-8.00e-02,
55,6.20e-02,
56,9.60e-02,
57,-5.60e-02,
58,8.00e-02,
59,-7.80e-02,
60,6.00e-02,
61,-6.60e-02,
62,-7.60e-02,
63,8.20e-02,
64,-8.60e-02,
65,7.80e-02,
66,7.80e-02,
67,-5.60e-02,
68,-7.00e-02,
69,3.60e-02,
70,4.40e-02,
71,-6.60e-02,
72,6.80e-02,
73,-5.80e-02,
74,6.00e-02,
75,-8.00e-02,
76,6.20e-02,
77,-6.80e-02,
78,8.60e-02,
79,-6.80e-02,
80,-6.20e-02,
81,7.00e-02,
82,4.80e-02,
83,-5.40e-02,
84,5.20e-02,
85,-4.80e-02,
86,-4.40e-02,
87,6.60e-02,
88,4.80e-02,
89,-4.20e-02,
90,-4.80e-02,
91,4.40e-02,
92,7.40e-02,
93,-6.40e-02,
94,-4.60e-02,
95,4.80e-02,
96,-4.60e-02,
97,4.80e-02,
98,4.60e-02,
99,-4.00e-02,
100,5.00e-02,
101,-4.60e-02,
102,-4.80e-02,
103,6.60e-02,
104,5.00e-02,
105,-4.60e-02,
106,-5.20e-02,
107,4.20e-02,
108,-5.20e-02,
109,5.20e-02,
110,4.20e-02,
111,-5.20e-02,
112,5.60e-02,
113,-4.00e-02,
114,4.00e-02,
115,-3.80e-02,
116,-5.80e-02,
117,4.20e-02,
118,5.00e-02,
119,-4.60e-02,
120,4.80e-02,
121,-3.60e-02,
122,5.60e-02,
123,-9.00e-02,
124,-6.80e-02,
125,4.20e-02,
126,5.20e-02,
127,-5.40e-02,
128,-6.40e-02,
129,4.20e-02,
130,-3.60e-02,
131,5.60e-02,
132,-3.80e-02,
133,6.00e-02,
134,-4.20e-02,
135,4.60e-02,
136,4.20e-02,
137,-5.60e-02,
138,-6.00e-02,
139,4.60e-02,
140,5.60e-02,
141,-3.60e-02,
142,3.80e-02,
143,-3.60e-02,
144,4.80e-02,
145,-6.00e-02,
146,6.20e-02,
147,-4.20e-02,
148,-5.00e-02,
149,5.80e-02,
150,6.20e-02,
151,-9.40e-02,
152,-4.20e-02,
153,5.40e-02,
154,-7.00e-02,
155,6.60e-02,
156,7.80e-02,
157,-5.00e-02,
158,-4.60e-02,
159,5.80e-02,
160,6.60e-02,
161,-5.80e-02,
162,5.80e-02,
163,-6.20e-02,
164,5.40e-02,
165,-5.40e-02,
166,6.00e-02,
167,-4.80e-02,
168,-6.40e-02,
169,7.20e-02,
170,-5.00e-02,
171,6.00e-02,
172,6.80e-02,
173,-5.00e-02,
174,-5.40e-02,
175,7.40e-02,
176,5.60e-02,
177,-5.00e-02,
178,-4.80e-02,
179,4.40e-02,
180,-7.20e-02,
181,8.20e-02,
182,-6.60e-02,
183,4.00e-02,
184,7.00e-02,
185,-5.80e-02,
186,-5.60e-02,
187,5.80e-02,
188,-6.20e-02,
189,6.00e-02,
190,-5.40e-02,
191,4.20e-02,
192,-5.20e-02,
193,6.00e-02,
194,-6.60e-02,
195,4.60e-02,
196,6.20e-02,
197,-4.00e-02,
198,6.20e-02,
199,-4.40e-02,
200,-6.00e-02,
201,5.00e-02,
202,6.00e-02,
203,-6.60e-02,
204,6.80e-02,
205,-4.60e-02,
206,-5.40e-02,
207,6.60e-02,
208,9.40e-02,
209,-1.00e-01,
210,9.40e-02,
211,-5.40e-02,
212,7.20e-02,
213,-6.00e-02,
214,7.60e-02,
215,-8.60e-02,
216,6.00e-02,
217,-7.80e-02,
218,7.20e-02,
219,-6.60e-02,
220,-5.00e-02,
221,7.60e-02,
222,6.40e-02,
223,-7.00e-02,
224,5.80e-02,
225,-7.00e-02,
226,7.60e-02,
227,-8.20e-02,
228,8.40e-02,
229,-8.00e-02,
230,-4.80e-02,
231,4.60e-02,
232,7.20e-02,
233,-5.80e-02,
234,-8.20e-02,
235,8.40e-02,
236,-8.40e-02,
237,8.40e-02,
238,8.00e-02,
239,-5.60e-02,
240,-6.20e-02,
241,7.00e-02,
242,5.40e-02,
243,-7.40e-02,
244,-6.60e-02,
245,7.60e-02,
246,6.40e-02,
247,-6.60e-02,
248,-5.80e-02,
249,5.00e-02,
250,5.60e-02,
251,-4.60e-02,
252,4.60e-02,
253,-6.20e-02,
254,-4.60e-02,
255,4.80e-02,
256,5.00e-02,
257,-3.80e-02,
258,-4.20e-02,
259,5.80e-02,
260,4.00e-02,
261,-5.40e-02,
262,5.60e-02,
263,-5.20e-02,
264,5.40e-02,
265,-4.20e-02,
266,8.80e-02,
267,-3.80e-02,
268,-3.60e-02,
269,3.80e-02,
270,-5.60e-02,
271,5.60e-02,
272,4.00e-02,
273,-4.20e-02,
274,6.40e-02,
275,-4.80e-02,
276,4.20e-02,
277,-5.40e-02,
278,6.20e-02,
279,-5.20e-02,
280,-3.40e-02,
281,6.80e-02,
282,-3.80e-02,
283,5.60e-02,
284,5.40e-02,
285,-3.80e-02,
286,-5.80e-02,
287,4.60e-02,
288,-4.20e-02,
289,5.40e-02,
290,-4.60e-02,
291,5.40e-02,
292,5.20e-02,
293,-4.40e-02,
294,-3.80e-02,
295,5.80e-02,
296,-5.80e-02,
297,7.20e-02,
298,-3.80e-02,
299,4.60e-02,
300,-4.20e-02,
301,5.60e-02,
302,4.20e-02,
303,-4.20e-02,
304,-3.60e-02,
305,6.20e-02,
306,5.40e-02,
307,-4.00e-02,
308,-5.80e-02,
309,4.20e-02,
310,4.60e-02,
311,-5.60e-02,
312,4.60e-02,
313,-5.80e-02,
314,-5.00e-02,
315,5.20e-02,
316,-4.80e-02,
317,6.00e-02,
318,5.40e-02,
319,-5.00e-02,
320,6.20e-02,
321,-7.20e-02,
322,-5.80e-02,
323,4.80e-02,
324,-8.80e-02,
325,5.80e-02,
326,-3.80e-02,
327,5.60e-02,
328,7.40e-02,
329,-6.60e-02,
330,-6.00e-02,
331,6.60e-02,
332,-5.60e-02,
333,5.40e-02,
334,-6.20e-02,
335,7.20e-02,
336,5.60e-02,
337,-7.00e-02,
338,7.40e-02,
339,-4.60e-02,
340,4.40e-02,
341,-7.00e-02,
342,6.40e-02,
343,-4.20e-02,
344,-3.80e-02,
345,5.40e-02,
346,-5.60e-02,
347,6.00e-02,
348,6.00e-02,
349,-7.40e-02,
350,-6.00e-02,
351,5.60e-02,
352,-4.40e-02,
353,5.60e-02,
354,-1.38e-01,
355,8.00e-02,
356,-5.00e-02,
357,5.00e-02,
358,-6.40e-02,
359,4.60e-02,
360,6.60e-02,
361,-5.60e-02,
362,-6.40e-02,
363,6.60e-02,
364,4.20e-02,
365,-6.20e-02,
366,7.20e-02,
367,-6.40e-02,
368,6.60e-02,
369,-6.60e-02,
370,5.80e-02,
371,-5.80e-02,
372,5.40e-02,
373,-6.00e-02,
374,-5.80e-02,
375,6.40e-02,
376,8.00e-02,
377,-7.00e-02,
378,7.20e-02,
379,-6.60e-02,
380,-6.20e-02,
381,7.60e-02,
382,1.16e-01,
383,-7.60e-02,
384,-5.00e-02,
385,5.60e-02,
386,-6.60e-02,
387,7.60e-02,
388,7.60e-02,
389,-7.40e-02,
390,6.60e-02,
391,-7.20e-02,
392,-6.00e-02,
393,5.60e-02,
394,-7.20e-02,
395,9.60e-02,
396,-6.60e-02,
397,7.40e-02,
398,6.40e-02,
399,-6.60e-02,
400,-8.00e-02,
401,8.00e-02,
402,8.60e-02,
403,-7.80e-02,
404,-5.60e-02,
405,8.60e-02,
406,4.60e-02,
407,-8.40e-02,
408,-7.60e-02,
409,7.20e-02,
410,8.20e-02,
411,-4.80e-02,
412,9.00e-02,
413,-7.20e-02,
414,5.80e-02,
415,-4.60e-02,
416,-3.40e-02,
417,6.00e-02,
418,6.80e-02,
419,-4.40e-02,
420,7.20e-02,
421,-4.80e-02,
422,5.40e-02,
423,-4.20e-02,
424,-4.40e-02,
425,6.00e-02,
426,-4.20e-02,
427,6.60e-02,
428,-5.00e-02,
429,4.20e-02,
430,-5.20e-02,
431,4.20e-02,
432,5.40e-02,
433,-5.20e-02,
434,-5.00e-02,
435,5.40e-02,
436,-4.20e-02,
437,5.60e-02,
438,-6.00e-02,
439,4.80e-02,
440,-6.20e-02,
441,8.80e-02,
442,-4.20e-02,
443,4.80e-02,
444,-7.40e-02,
445,5.20e-02,
446,-4.80e-02,
447,4.40e-02,
448,5.20e-02,
449,-4.80e-02,
450,-3.60e-02,
451,4.00e-02,
452,-3.80e-02,
453,4.80e-02,
454,-4.00e-02,
455,5.80e-02,
456,-5.20e-02,
457,3.80e-02,
458,-4.40e-02,
459,5.40e-02,
460,4.80e-02,
461,-5.00e-02,
462,-4.20e-02,
463,5.40e-02,
464,-3.60e-02,
465,5.20e-02,
466,-6.00e-02,
467,4.20e-02,
468,4.20e-02,
469,-5.60e-02,
470,7.60e-02,
471,-7.60e-02,
472,-3.60e-02,
473,5.00e-02,
474,4.80e-02,
475,-4.40e-02,
476,4.20e-02,
477,-4.20e-02,
478,4.20e-02,
479,-4.60e-02,
480,-3.60e-02,
481,4.40e-02,
482,-5.40e-02,
483,6.60e-02,
484,-6.20e-02,
485,6.00e-02,
486,5.20e-02,
487,-6.00e-02,
488,-4.40e-02,
489,6.20e-02,
490,-5.80e-02,
491,4.40e-02,
492,-5.60e-02,
493,4.00e-02,
494,-5.20e-02,
495,5.80e-02,
496,-4.40e-02,
497,5.20e-02,
498,-7.60e-02,
499,1.06e-01,
500,-6.40e-02,
501,6.80e-02,
502,5.20e-02,
503,-5.80e-02,
504,4.20e-02,
505,-5.60e-02,
506,-3.80e-02,
507,6.20e-02,
508,-5.20e-02,
509,4.80e-02,
510,5.00e-02,
511,-6.40e-02,
512,-5.80e-02,
513,5.40e-02,
514,-6.20e-02,
515,4.40e-02,
516,5.20e-02,
517,-5.00e-02,
518,5.60e-02,
519,-4.80e-02,
520,5.60e-02,
521,-7.20e-02,
522,-4.00e-02,
523,5.00e-02,
524,6.80e-02,
525,-4.00e-02,
526,-6.40e-02,
527,7.60e-02,
528,-6.20e-02,
529,8.20e-02,
530,6.60e-02,
531,-7.40e-02,
532,-6.20e-02,
533,4.80e-02,
534,-4.40e-02,
535,6.00e-02,
536,-3.40e-02,
537,5.60e-02,
538,6.20e-02,
539,-5.40e-02,
540,-4.20e-02,
541,5.20e-02,
542,6.60e-02,
543,-4.60e-02,
544,-7.40e-02,
545,7.00e-02,
546,8.60e-02,
547,-6.40e-02,
548,8.00e-02,
549,-5.40e-02,
550,-6.80e-02,
551,6.60e-02,
552,-5.20e-02,
553,7.60e-02,
554,-7.20e-02,
555,7.60e-02,
556,7.00e-02,
557,-5.00e-02,
558,-8.40e-02,
559,1.06e-01,
560,-6.00e-02,
561,8.40e-02,
562,6.40e-02,
563,-5.20e-02,
564,6.00e-02,
565,-6.60e-02,
566,-6.20e-02,
567,8.20e-02,
568,-6.20e-02,
569,6.20e-02,
570,-8.00e-02,
571,5.40e-02,
572,-4.60e-02,
573,8.20e-02,
574,-3.80e-02,
575,8.40e-02,
576,-8.20e-02,
577,7.80e-02,
578,7.00e-02,
579,-6.80e-02,
580,-7.00e-02,
581,6.20e-02,
582,-6.40e-02,
583,4.60e-02,
584,-5.40e-02,
585,5.80e-02,
586,-9.00e-02,
587,7.80e-02,
588,5.20e-02,
589,-5.00e-02,
590,6.00e-02,
591,-4.20e-02,
592,6.00e-02,
593,-4.40e-02,
594,-4.00e-02,
595,5.60e-02,
596,-5.00e-02,
597,4.60e-02,
598,4.60e-02,
599,-3.60e-02,
600,5.00e-02,
601,-4.80e-02,
602,5.60e-02,
603,-3.40e-02,
604,-3.80e-02,
605,5.00e-02,
606,-6.00e-02,
607,4.00e-02,
608,-4.40e-02,
609,4.80e-02,
610,4.00e-02,
611,-5.40e-02,
612,-5.80e-02,
613,6.40e-02,
614,-6.00e-02,
615,8.60e-02,
616,6.00e-02,
617,-3.80e-02,
618,6.40e-02,
619,-3.60e-02,
620,-6.20e-02,
621,4.40e-02,
622,-4.60e-02,
623,4.20e-02,
624,-5.40e-02,
625,5.40e-02,
626,-4.60e-02,
627,5.40e-02,
628,4.60e-02,
629,-4.40e-02,
630,-5.00e-02,
631,4.20e-02,
632,-5.80e-02,
633,4.60e-02,
634,-3.80e-02,
635,4.20e-02,
636,5.00e-02,
637,-4.20e-02,
638,5.20e-02,
639,-4.80e-02,
640,-4.60e-02,
641,4.40e-02,
642,-4.80e-02,
643,6.00e-02,
644,-1.10e-01,
645,8.40e-02,
646,-4.60e-02,
647,5.20e-02,
648,5.80e-02,
649,-4.80e-02,
650,-5.00e-02,
651,5.40e-02,
652,6.20e-02,
653,-5.80e-02,
654,6.20e-02,
655,-5.40e-02,
656,-6.20e-02,
657,5.40e-02,
658,6.00e-02,
659,-6.20e-02,
660,6.40e-02,
661,-6.20e-02,
662,4.60e-02,
663,-6.80e-02,
664,-6.80e-02,
665,5.00e-02,
666,7.20e-02,
667,-5.20e-02,
668,6.20e-02,
669,-6.00e-02,
670,7.60e-02,
671,-5.40e-02,
672,-5.80e-02,
673,5.80e-02,
674,-7.40e-02,
675,7.60e-02,
676,-4.00e-02,
677,7.20e-02,
678,-4.20e-02,
679,4.40e-02,
680,-7.00e-02,
681,6.20e-02,
682,4.60e-02,
683,-5.60e-02,
684,-5.80e-02,
685,6.20e-02,
686,-6.20e-02,
687,6.80e-02,
688,4.20e-02,
689,-6.00e-02,
690,5.60e-02,
691,-5.00e-02,
692,5.80e-02,
693,-6.00e-02,
694,-3.60e-02,
695,7.20e-02,
696,-4.20e-02,
697,5.40e-02,
698,-5.00e-02,
699,5.40e-02,
700,5.20e-02,
701,-6.80e-02,
702,7.60e-02,
703,-5.20e-02,
704,4.80e-02,
705,-6.00e-02,
706,-5.80e-02,
707,6.40e-02,
708,4.60e-02,
709,-5.80e-02,
710,9.00e-02,
711,-8.00e-02,
712,6.20e-02,
713,-6.60e-02,
714,-3.80e-02,
715,8.60e-02,
716,7.20e-02,
717,-5.20e-02,
718,5.80e-02,
719,-7.40e-02,
720,-7.80e-02,
721,7.40e-02,
722,-5.80e-02,
723,7.00e-02,
724,7.40e-02,
725,-6.20e-02,
726,-8.20e-02,
727,5.20e-02,
728,7.20e-02,
729,-6.20e-02,
730,6.00e-02,
731,-9.20e-02,
732,5.40e-02,
733,-5.20e-02,
734,-8.00e-02,
735,6.40e-02,
736,-8.80e-02,
737,6.20e-02,
738,-7.00e-02,
739,7.60e-02,
740,6.20e-02,
741,-7.20e-02,
742,8.60e-02,
743,-7.20e-02,
744,4.20e-02,
745,-6.80e-02,
746,-8.40e-02,
747,5.80e-02,
748,6.20e-02,
749,-6.00e-02,
750,7.20e-02,
751,-4.20e-02,
752,-3.40e-02,
753,7.40e-02,
754,-3.60e-02,
755,7.40e-02,
756,5.60e-02,
757,-6.40e-02,
758,5.00e-02,
759,-4.20e-02,
760,-5.60e-02,
761,5.00e-02,
762,-4.20e-02,
763,4.80e-02,
764,-5.20e-02,
765,4.00e-02,
766,6.20e-02,
767,-3.60e-02,
768,-4.60e-02,
769,6.40e-02,
770,5.20e-02,
771,-3.60e-02,
772,5.20e-02,
773,-4.00e-02,
774,-3.80e-02,
775,5.60e-02,
776,-3.60e-02,
777,4.80e-02,
778,4.60e-02,
779,-4.80e-02,
780,-5.40e-02,
781,5.20e-02,
782,6.60e-02,
783,-4.40e-02,
784,4.20e-02,
785,-5.60e-02,
786,4.40e-02,
787,-3.80e-02,
788,-5.20e-02,
789,4.60e-02,
790,-4.60e-02,
791,7.20e-02,
792,5.20e-02,
793,-4.00e-02,
794,-5.40e-02,
795,6.00e-02,
796,4.60e-02,
797,-5.60e-02,
798,-4.80e-02,
799,4.20e-02,
800,-3.60e-02,
801,6.60e-02,
802,5.80e-02,
803,-3.40e-02,
804,-5.80e-02,
805,6.20e-02,
806,-3.80e-02,
807,5.80e-02,
808,-3.60e-02,
809,4.20e-02,
810,6.20e-02,
811,-4.80e-02,
812,5.20e-02,
813,-5.40e-02,
814,6.60e-02,
815,-6.80e-02,
816,-4.00e-02,
817,6.60e-02,
818,6.60e-02,
819,-7.20e-02,
820,-5.40e-02,
821,6.80e-02,
822,7.40e-02,
823,-4.40e-02,
824,-3.60e-02,
825,4.80e-02,
826,4.00e-02,
827,-7.20e-02,
828,7.20e-02,
829,-4.60e-02,
830,6.40e-02,
831,-4.40e-02,
832,-5.40e-02,
833,6.00e-02,
834,-5.40e-02,
835,7.80e-02,
836,-5.80e-02,
837,5.20e-02,
838,-4.40e-02,
839,6.60e-02,
840,-7.00e-02,
841,7.20e-02,
842,-5.80e-02,
843,7.60e-02,
844,4.40e-02,
845,-4.80e-02,
846,6.80e-02,
847,-5.00e-02,
848,8.00e-02,
849,-7.60e-02,
850,6.40e-02,
851,-5.40e-02,
852,-6.60e-02,
853,7.40e-02,
854,4.60e-02,
855,-4.20e-02,
856,-4.20e-02,
857,4.60e-02,
858,-5.40e-02,
859,5.60e-02,
860,7.40e-02,
861,-5.00e-02,
862,-7.80e-02,
863,4.80e-02,
864,6.60e-02,
865,-5.20e-02,
866,-6.80e-02,
867,5.20e-02,
868,4.80e-02,
869,-6.40e-02,
870,-4.20e-02,
871,5.80e-02,
872,-6.40e-02,
873,4.60e-02,
874,6.20e-02,
875,-6.80e-02,
876,9.80e-02,
877,-7.00e-02,
878,-4.80e-02,
879,6.40e-02,
880,-7.60e-02,
881,8.20e-02,
882,8.40e-02,
883,-8.60e-02,
884,7.60e-02,
885,-7.60e-02,
886,6.60e-02,
887,-6.80e-02,
888,-6.60e-02,
889,6.20e-02,
890,-6.40e-02,
891,6.40e-02,
892,8.00e-02,
893,-6.80e-02,
894,5.40e-02,
895,-8.60e-02,
896,-8.40e-02,
897,5.60e-02,
898,7.80e-02,
899,-6.20e-02,
900,-5.80e-02,
901,7.60e-02,
902,7.40e-02,
903,-5.40e-02,
904,-4.20e-02,
905,9.00e-02,
906,-7.20e-02,
907,7.40e-02,
908,-7.40e-02,
909,5.80e-02,
910,-5.20e-02,
911,8.80e-02,
912,7.00e-02,
913,-6.40e-02,
914,6.60e-02,
915,-5.20e-02,
916,-4.80e-02,
917,5.40e-02,
918,-4.40e-02,
919,6.00e-02,
920,-6.60e-02,
921,4.80e-02,
922,-5.40e-02,
923,5.40e-02,
924,6.60e-02,
925,-6.20e-02,
926,-3.60e-02,
927,5.40e-02,
928,5.20e-02,
929,-5.60e-02,
930,-5.20e-02,
931,5.60e-02,
932,5.60e-02,
933,-4.80e-02,
934,-5.20e-02,
935,5.60e-02,
936,6.40e-02,
937,-5.00e-02,
938,4.80e-02,
939,-4.00e-02,
940,-3.60e-02,
941,4.80e-02,
942,-5.00e-02,
943,6.00e-02,
944,-5.00e-02,
945,4.80e-02,
946,-6.80e-02,
947,5.60e-02,
948,-4.40e-02,
949,4.60e-02,
950,7.20e-02,
951,-4.40e-02,
952,-3.40e-02,
953,5.40e-02,
954,3.60e-02,
955,-5.00e-02,
956,-5.40e-02,
957,3.80e-02,
958,5.80e-02,
959,-4.40e-02,
960,6.00e-02,
961,-4.00e-02,
962,5.00e-02,
963,-6.00e-02,
964,6.80e-02,
965,-5.20e-02,
966,-5.60e-02,
967,5.80e-02,
968,4.20e-02,
969,-5.60e-02,
970,-5.00e-02,
971,4.20e-02,
972,-4.80e-02,
973,5.60e-02,
974,-4.20e-02,
975,4.20e-02,
976,-4.00e-02,
977,5.40e-02,
978,-5.80e-02,
979,4.40e-02,
980,5.00e-02,
981,-5.00e-02,
982,5.80e-02,
983,-4.20e-02,
984,6.00e-02,
985,-4.80e-02,
986,7.00e-02,
987,-4.60e-02,
988,5.80e-02,
989,-5.20e-02,
990,-4.60e-02,
991,5.80e-02,
992,6.80e-02,
993,-6.00e-02,
994,-6.40e-02,
995,4.80e-02,
996,-5.80e-02,
997,7.20e-02,
998,5.80e-02,
999,-5.20e-02,
1000,-4.80e-02,
1001,5.40e-02,
1002,-5.20e-02,
1003,6.20e-02,
1004,-6.20e-02,
1005,5.40e-02,
1006,6.80e-02,
1007,-5.40e-02,
1008,6.40e-02,
1009,-6.80e-02,
1010,-5.40e-02,
1011,5.20e-02,
1012,6.80e-02,
1013,-6.00e-02,
1014,6.20e-02,
1015,-6.20e-02,
1016,-4.60e-02,
1017,5.40e-02,
1018,6.80e-02,
1019,-5.60e-02,
1020,-6.00e-02,
1021,7.00e-02,
1022,-7.00e-02,
1023,6.40e-02,
1024,-5.20e-02,
1025,6.20e-02,
1026,-5.60e-02,
1027,6.40e-02,
1028,-7.00e-02,
1029,4.60e-02,
1030,5.80e-02,
1031,-5.20e-02,
1032,-7.80e-02,
1033,7.60e-02,
1034,7.00e-02,
1035,-5.20e-02,
1036,-4.00e-02,
1037,6.40e-02,
1038,-5.40e-02,
1039,5.60e-02,
1040,-5.40e-02,
1041,4.60e-02,
1042,-6.20e-02,
1043,6.20e-02,
1044,-7.80e-02,
1045,7.00e-02,
1046,5.80e-02,
1047,-7.40e-02,
1048,-7.00e-02,
1049,6.40e-02,
1050,7.40e-02,
1051,-6.80e-02,
1052,-7.40e-02,
1053,5.80e-02,
1054,-4.80e-02,
1055,7.40e-02,
1056,5.40e-02,
1057,-7.60e-02,
1058,-8.60e-02,
1059,7.80e-02,
1060,8.00e-02,
1061,-6.80e-02,
1062,5.40e-02,
1063,-7.20e-02,
1064,5.40e-02,
1065,-6.80e-02,
1066,6.60e-02,
1067,-7.00e-02,
1068,-7.00e-02,
1069,5.60e-02,
1070,-7.80e-02,
1071,6.80e-02,
1072,5.60e-02,
1073,-7.80e-02,
1074,8.40e-02,
1075,-7.40e-02,
1076,8.60e-02,
1077,-8.20e-02,
1078,-5.40e-02,
1079,4.80e-02,
1080,7.40e-02,
1081,-7.40e-02,
1082,6.80e-02,
1083,-4.00e-02,
1084,6.40e-02,
1085,-4.60e-02,
1086,-5.40e-02,
1087,7.00e-02,
1088,-4.00e-02,
1089,6.00e-02,
1090,5.60e-02,
1091,-5.60e-02,
1092,4.60e-02,
1093,-4.80e-02,
1094,5.00e-02,
1095,-4.40e-02,
1096,-4.80e-02,
1097,4.20e-02,
1098,-4.60e-02,
1099,4.00e-02,
1100,-4.60e-02,
1101,6.80e-02,
1102,-4.00e-02,
1103,6.40e-02,
1104,-4.80e-02,
1105,5.40e-02,
1106,-4.00e-02,
1107,5.60e-02,
1108,7.20e-02,
1109,-5.40e-02,
1110,4.00e-02,
1111,-4.60e-02,
1112,4.20e-02,
1113,-5.60e-02,
1114,4.20e-02,
1115,-4.60e-02,
1116,-4.00e-02,
1117,5.20e-02,
1118,5.40e-02,
1119,-3.80e-02,
1120,-3.80e-02,
1121,6.20e-02,
1122,-6.80e-02,
1123,4.20e-02,
1124,4.40e-02,
1125,-5.00e-02,
1126,-3.20e-02,
1127,3.80e-02,
1128,-4.60e-02,
1129,5.40e-02,
1130,-6.00e-02,
1131,4.80e-02,
1132,4.80e-02,
1133,-4.40e-02,
1134,-4.60e-02,
1135,5.20e-02,
1136,6.80e-02,
1137,-3.80e-02,
1138,-7.20e-02,
1139,8.60e-02,
1140,-4.20e-02,
1141,4.20e-02,
1142,-5.40e-02,
1143,5.80e-02,
1144,4.80e-02,
1145,-5.60e-02,
1146,6.00e-02,
1147,-5.80e-02,
1148,-3.60e-02,
1149,4.80e-02,
1150,-3.60e-02,
1151,4.20e-02,
1152,-5.60e-02,
1153,6.40e-02,
1154,6.20e-02,
1155,-6.20e-02,
1156,-7.00e-02,
1157,5.00e-02,
1158,-6.00e-02,
1159,7.00e-02,
1160,-4.20e-02,
1161,4.40e-02,
1162,5.00e-02,
1163,-5.20e-02,
1164,-5.40e-02,
1165,5.60e-02,
1166,9.00e-02,
1167,-9.40e-02,
1168,-5.60e-02,
1169,5.80e-02,
1170,6.80e-02,
1171,-5.80e-02,
1172,-4.40e-02,
1173,5.80e-02,
1174,-4.20e-02,
1175,4.60e-02,
1176,-5.60e-02,
1177,6.00e-02,
1178,-6.60e-02,
1179,6.00e-02,
1180,6.00e-02,
1181,-5.40e-02,
1182,-5.00e-02,
1183,6.60e-02,
1184,-7.20e-02,
1185,3.80e-02,
1186,6.20e-02,
1187,-5.80e-02,
1188,-5.20e-02,
1189,7.80e-02,
1190,-6.00e-02,
1191,5.80e-02,
1192,5.40e-02,
1193,-6.20e-02,
1194,6.60e-02,
1195,-4.20e-02,
1196,-1.24e-01,
1197,1.34e-01,
1198,-5.80e-02,
1199,4.80e-02,
