Laptop_1/LAPTOP_CHRGR_1_ON_CLOSE/time domain/NewFile4.csv

X,CH1,Start,Increment,
Sequence,Volt,-1.500000e-01,2.000000e-04
0,1.24e-01,
1,-9.20e-02,
2,1.04e-01,
3,-1.12e-01,
4,-8.40e-02,
5,1.20e-01,
6,-1.12e-01,
7,1.24e-01,
8,1.20e-01,
9,-1.12e-01,
10,-1.08e-01,
11,1.20e-01,
12,-1.08e-01,
13,1.20e-01,
14,-1.00e-01,
15,1.16e-01,
16,-1.00e-01,
17,1.24e-01,
18,8.00e-02,
19,-1.00e-01,
20,1.32e-01,
21,-1.16e-01,
22,1.32e-01,
23,-1.64e-01,
24,-1.56e-01,
25,1.44e-01,
26,1.12e-01,
27,-1.08e-01,
28,-8.00e-02,
29,1.00e-01,
30,-7.60e-02,
31,7.20e-02,
32,-7.20e-02,
33,8.00e-02,
34,8.40e-02,
35,-6.40e-02,
36,-8.40e-02,
37,5.20e-02,
38,-1.04e-01,
39,6.00e-02,
40,-1.12e-01,
41,1.20e-01,
42,-1.04e-01,
43,1.20e-01,
44,1.28e-01,
45,-1.00e-01,
46,-1.04e-01,
47,1.20e-01,
48,1.20e-01,
49,-1.08e-01,
50,1.24e-01,
51,-1.36e-01,
52,-1.72e-01,
53,1.44e-01,
54,1.64e-01,
55,-1.92e-01,
56,-2.00e-01,
57,1.44e-01,
58,1.60e-01,
59,-1.76e-01,
60,-2.04e-01,
61,1.44e-01,
62,1.52e-01,
63,-1.92e-01,
64,1.44e-01,
65,-1.84e-01,
66,1.44e-01,
67,-1.80e-01,
68,1.28e-01,
69,-1.48e-01,
70,-1.00e-01,
71,1.36e-01,
72,-1.16e-01,
73,1.36e-01,
74,-8.80e-02,
75,5.20e-02,
76,-9.60e-02,
77,5.60e-02,
78,1.12e-01,
79,-9.20e-02,
80,-1.16e-01,
81,1.24e-01,
82,1.32e-01,
83,-1.08e-01,
84,-9.60e-02,
85,1.24e-01,
86,1.24e-01,
87,-1.08e-01,
88,-1.04e-01,
89,1.20e-01,
90,1.16e-01,
91,-1.04e-01,
92,-1.04e-01,
93,8.80e-02,
94,-1.00e-01,
95,1.08e-01,
96,-1.00e-01,
97,1.04e-01,
98,1.16e-01,
99,-1.08e-01,
100,-1.08e-01,
101,1.20e-01,
102,1.12e-01,
103,-1.04e-01,
104,1.32e-01,
105,-1.36e-01,
106,1.56e-01,
107,-1.68e-01,
108,1.52e-01,
109,-1.16e-01,
110,6.00e-02,
111,-8.00e-02,
112,7.20e-02,
113,-7.20e-02,
114,-7.60e-02,
115,7.60e-02,
116,1.00e-01,
117,-6.80e-02,
118,-8.80e-02,
119,8.40e-02,
120,1.04e-01,
121,-1.20e-01,
122,-1.08e-01,
123,1.20e-01,
124,-1.12e-01,
125,1.24e-01,
126,-1.00e-01,
127,1.16e-01,
128,-1.04e-01,
129,1.16e-01,
130,-1.08e-01,
131,1.20e-01,
132,1.12e-01,
133,-1.08e-01,
134,-1.60e-01,
135,1.48e-01,
136,1.60e-01,
137,-1.76e-01,
138,-1.88e-01,
139,1.56e-01,
140,1.68e-01,
141,-1.68e-01,
142,1.64e-01,
143,-1.96e-01,
144,1.52e-01,
145,-1.96e-01,
146,-1.96e-01,
147,1.40e-01,
148,-1.96e-01,
149,1.52e-01,
150,1.24e-01,
151,-9.60e-02,
152,-1.00e-01,
153,1.20e-01,
154,-8.80e-02,
155,5.20e-02,
156,-8.40e-02,
157,4.00e-02,
158,-8.80e-02,
159,6.00e-02,
160,1.32e-01,
161,-9.20e-02,
162,-1.04e-01,
163,1.36e-01,
164,-1.08e-01,
165,1.16e-01,
166,1.08e-01,
167,-1.04e-01,
168,-1.08e-01,
169,1.24e-01,
170,-1.00e-01,
171,1.20e-01,
172,1.24e-01,
173,-1.04e-01,
174,-1.00e-01,
175,1.12e-01,
176,1.24e-01,
177,-1.08e-01,
178,-1.08e-01,
179,1.20e-01,
180,-1.08e-01,
181,1.20e-01,
182,1.20e-01,
183,-1.08e-01,
184,-8.40e-02,
185,1.20e-01,
186,-1.44e-01,
187,1.36e-01,
188,-1.68e-01,
189,1.32e-01,
190,1.56e-01,
191,-1.84e-01,
192,1.48e-01,
193,-1.12e-01,
194,-7.60e-02,
195,5.60e-02,
196,-8.80e-02,
197,6.40e-02,
198,-8.80e-02,
199,1.12e-01,
200,1.00e-01,
201,-1.08e-01,
202,-1.12e-01,
203,1.20e-01,
204,1.24e-01,
205,-1.04e-01,
206,-1.12e-01,
207,1.28e-01,
208,1.08e-01,
209,-1.04e-01,
210,-1.00e-01,
211,1.20e-01,
212,1.00e-01,
213,-1.12e-01,
214,1.24e-01,
215,-1.16e-01,
216,1.44e-01,
217,-1.68e-01,
218,-1.68e-01,
219,1.36e-01,
220,-1.88e-01,
221,1.60e-01,
222,1.56e-01,
223,-1.96e-01,
224,1.56e-01,
225,-1.84e-01,
226,1.52e-01,
227,-2.04e-01,
228,-1.96e-01,
229,1.60e-01,
230,1.48e-01,
231,-1.92e-01,
232,-1.92e-01,
233,1.60e-01,
234,1.64e-01,
235,-1.24e-01,
236,6.80e-02,
237,-7.20e-02,
238,7.20e-02,
239,-1.12e-01,
240,-1.16e-01,
241,1.28e-01,
242,-1.16e-01,
243,1.36e-01,
244,-1.12e-01,
245,1.32e-01,
246,1.32e-01,
247,-1.12e-01,
248,1.20e-01,
249,-9.20e-02,
250,9.60e-02,
251,-1.08e-01,
252,1.24e-01,
253,-1.12e-01,
254,-1.04e-01,
255,1.16e-01,
256,1.20e-01,
257,-1.04e-01,
258,1.20e-01,
259,-1.08e-01,
260,-1.04e-01,
261,1.24e-01,
262,1.16e-01,
263,-1.00e-01,
264,-1.00e-01,
265,1.16e-01,
266,-9.20e-02,
267,1.08e-01,
268,1.24e-01,
269,-1.12e-01,
270,-1.44e-01,
271,1.44e-01,
272,1.44e-01,
273,-1.80e-01,
274,1.36e-01,
275,-1.80e-01,
276,-8.80e-02,
277,6.00e-02,
278,-9.20e-02,
279,1.04e-01,
280,-1.08e-01,
281,1.28e-01,
282,-1.08e-01,
283,1.04e-01,
284,-1.12e-01,
285,1.12e-01,
286,-1.20e-01,
287,1.20e-01,
288,1.16e-01,
289,-1.16e-01,
290,1.00e-01,
291,-1.08e-01,
292,1.08e-01,
293,-1.08e-01,
294,-1.08e-01,
295,1.20e-01,
296,1.16e-01,
297,-1.00e-01,
298,-1.32e-01,
299,1.32e-01,
300,1.60e-01,
301,-1.84e-01,
302,-1.92e-01,
303,1.56e-01,
304,1.56e-01,
305,-1.96e-01,
306,-1.56e-01,
307,1.64e-01,
308,1.44e-01,
309,-1.96e-01,
310,-1.92e-01,
311,1.72e-01,
312,1.52e-01,
313,-1.88e-01,
314,1.48e-01,
315,-1.84e-01,
316,1.56e-01,
317,-1.72e-01,
318,-9.60e-02,
319,1.32e-01,
320,-8.40e-02,
321,1.32e-01,
322,1.40e-01,
323,-1.08e-01,
324,1.32e-01,
325,-1.16e-01,
326,-1.12e-01,
327,1.40e-01,
328,1.28e-01,
329,-1.08e-01,
330,-9.60e-02,
331,1.24e-01,
332,-9.60e-02,
333,1.12e-01,
334,1.24e-01,
335,-1.08e-01,
336,1.04e-01,
337,-1.04e-01,
338,1.16e-01,
339,-1.12e-01,
340,1.08e-01,
341,-1.04e-01,
342,1.20e-01,
343,-1.08e-01,
344,1.20e-01,
345,-1.16e-01,
346,1.08e-01,
347,-1.00e-01,
348,-1.04e-01,
349,1.12e-01,
350,7.60e-02,
351,-9.60e-02,
352,-8.40e-02,
353,1.12e-01,
354,-1.68e-01,
355,1.52e-01,
356,1.60e-01,
357,-1.76e-01,
358,-1.60e-01,
359,1.44e-01,
360,-1.12e-01,
361,1.28e-01,
362,1.08e-01,
363,-8.40e-02,
364,1.28e-01,
365,-1.16e-01,
366,1.00e-01,
367,-1.12e-01,
368,-1.16e-01,
369,1.20e-01,
370,1.20e-01,
371,-1.12e-01,
372,1.08e-01,
373,-1.08e-01,
374,-1.08e-01,
375,1.24e-01,
376,-1.00e-01,
377,1.08e-01,
378,-1.12e-01,
379,1.28e-01,
380,1.24e-01,
381,-1.16e-01,
382,-1.52e-01,
383,1.48e-01,
384,-1.72e-01,
385,1.64e-01,
386,1.60e-01,
387,-1.64e-01,
388,-1.88e-01,
389,1.64e-01,
390,-1.84e-01,
391,1.56e-01,
392,1.64e-01,
393,-1.88e-01,
394,-1.92e-01,
395,1.40e-01,
396,-1.96e-01,
397,1.48e-01,
398,-1.80e-01,
399,1.44e-01,
400,1.60e-01,
401,-1.84e-01,
402,-1.16e-01,
403,1.16e-01,
404,1.28e-01,
405,-1.08e-01,
406,1.20e-01,
407,-1.08e-01,
408,1.36e-01,
409,-1.16e-01,
410,-1.04e-01,
411,1.32e-01,
412,-1.00e-01,
413,1.12e-01,
414,1.24e-01,
415,-9.60e-02,
416,-1.08e-01,
417,1.20e-01,
418,1.20e-01,
419,-9.60e-02,
420,9.60e-02,
421,-1.00e-01,
422,1.12e-01,
423,-1.08e-01,
424,-1.08e-01,
425,9.60e-02,
426,-1.00e-01,
427,1.04e-01,
428,1.24e-01,
429,-8.80e-02,
430,-9.60e-02,
431,6.80e-02,
432,-1.00e-01,
433,7.60e-02,
434,1.20e-01,
435,-1.44e-01,
436,1.48e-01,
437,-1.80e-01,
438,1.60e-01,
439,-1.60e-01,
440,-1.76e-01,
441,1.52e-01,
442,-1.84e-01,
443,1.48e-01,
444,1.20e-01,
445,-1.08e-01,
446,1.12e-01,
447,-1.20e-01,
448,1.00e-01,
449,-1.04e-01,
450,1.08e-01,
451,-8.80e-02,
452,-1.12e-01,
453,1.28e-01,
454,-8.40e-02,
455,1.20e-01,
456,9.60e-02,
457,-1.04e-01,
458,-1.12e-01,
459,1.12e-01,
460,-1.04e-01,
461,1.00e-01,
462,1.40e-01,
463,-1.28e-01,
464,1.44e-01,
465,-1.52e-01,
466,-1.48e-01,
467,1.48e-01,
468,-1.56e-01,
469,1.56e-01,
470,1.36e-01,
471,-1.76e-01,
472,-1.96e-01,
473,1.48e-01,
474,-1.80e-01,
475,1.56e-01,
476,1.56e-01,
477,-1.88e-01,
478,1.68e-01,
479,-1.84e-01,
480,-1.84e-01,
481,1.52e-01,
482,1.48e-01,
483,-1.80e-01,
484,1.24e-01,
485,-1.20e-01,
486,1.36e-01,
487,-1.24e-01,
488,-1.08e-01,
489,1.36e-01,
490,-9.20e-02,
491,1.08e-01,
492,-1.12e-01,
493,8.80e-02,
494,1.20e-01,
495,-1.16e-01,
496,-1.16e-01,
497,1.32e-01,
498,-1.12e-01,
499,1.08e-01,
500,-1.12e-01,
501,1.12e-01,
502,1.32e-01,
503,-9.60e-02,
504,-9.20e-02,
505,1.04e-01,
506,1.20e-01,
507,-1.04e-01,
508,-1.08e-01,
509,1.16e-01,
510,1.12e-01,
511,-1.00e-01,
512,8.40e-02,
513,-9.60e-02,
514,1.20e-01,
515,-7.20e-02,
516,-9.20e-02,
517,1.24e-01,
518,1.44e-01,
519,-1.72e-01,
520,-1.56e-01,
521,1.60e-01,
522,1.56e-01,
523,-1.76e-01,
524,-1.76e-01,
525,1.56e-01,
526,1.36e-01,
527,-1.08e-01,
528,-1.16e-01,
529,1.24e-01,
530,1.24e-01,
531,-1.16e-01,
532,1.00e-01,
533,-1.08e-01,
534,-1.04e-01,
535,1.12e-01,
536,1.16e-01,
537,-9.20e-02,
538,-9.60e-02,
539,1.24e-01,
540,1.24e-01,
541,-1.08e-01,
542,1.28e-01,
543,-1.04e-01,
544,1.12e-01,
545,-9.60e-02,
546,-1.04e-01,
547,1.16e-01,
548,1.24e-01,
549,-1.24e-01,
550,1.36e-01,
551,-1.32e-01,
552,1.48e-01,
553,-1.60e-01,
554,-1.76e-01,
555,1.32e-01,
556,-1.56e-01,
557,1.24e-01,
558,-1.84e-01,
559,1.60e-01,
560,1.48e-01,
561,-1.88e-01,
562,-1.80e-01,
563,1.56e-01,
564,-1.72e-01,
565,1.52e-01,
566,-1.56e-01,
567,1.64e-01,
568,-1.16e-01,
569,1.32e-01,
570,1.24e-01,
571,-8.40e-02,
572,-1.12e-01,
573,8.00e-02,
574,1.32e-01,
575,-1.12e-01,
576,-9.60e-02,
577,1.32e-01,
578,1.28e-01,
579,-1.20e-01,
580,1.16e-01,
581,-1.00e-01,
582,1.20e-01,
583,-1.08e-01,
584,-1.08e-01,
585,1.16e-01,
586,-1.08e-01,
587,1.24e-01,
588,1.20e-01,
589,-1.00e-01,
590,1.24e-01,
591,-1.00e-01,
592,-1.08e-01,
593,5.60e-02,
594,6.80e-02,
595,-9.60e-02,
596,6.40e-02,
597,-8.80e-02,
598,-1.16e-01,
599,1.20e-01,
600,1.40e-01,
601,-1.40e-01,
602,1.44e-01,
603,-1.68e-01,
604,-1.76e-01,
605,1.60e-01,
606,-1.92e-01,
607,1.52e-01,
608,1.52e-01,
609,-1.68e-01,
610,1.20e-01,
611,-1.04e-01,
612,-1.00e-01,
613,1.24e-01,
614,1.16e-01,
615,-1.04e-01,
616,1.12e-01,
617,-1.08e-01,
618,-1.16e-01,
619,1.28e-01,
620,1.12e-01,
621,-9.20e-02,
622,1.28e-01,
623,-8.80e-02,
624,-9.20e-02,
625,1.24e-01,
626,9.20e-02,
627,-1.08e-01,
628,-1.00e-01,
629,1.28e-01,
630,1.00e-01,
631,-9.20e-02,
632,-1.04e-01,
633,1.24e-01,
634,1.12e-01,
635,-1.16e-01,
636,-1.12e-01,
637,1.48e-01,
638,1.48e-01,
639,-1.60e-01,
640,-1.64e-01,
641,1.48e-01,
642,1.44e-01,
643,-1.60e-01,
644,-1.84e-01,
645,1.24e-01,
646,-1.84e-01,
647,1.48e-01,
648,1.52e-01,
649,-1.60e-01,
650,1.44e-01,
651,-1.44e-01,
652,1.24e-01,
653,-1.12e-01,
654,-9.20e-02,
655,1.00e-01,
656,1.24e-01,
657,-1.16e-01,
658,1.16e-01,
659,-1.16e-01,
660,-1.08e-01,
661,1.32e-01,
662,1.12e-01,
663,-1.16e-01,
664,-1.08e-01,
665,1.20e-01,
666,1.32e-01,
667,-1.12e-01,
668,-1.08e-01,
669,1.04e-01,
670,-9.60e-02,
671,1.20e-01,
672,-8.40e-02,
673,8.80e-02,
674,6.00e-02,
675,-9.60e-02,
676,6.40e-02,
677,-8.80e-02,
678,-1.08e-01,
679,1.08e-01,
680,1.04e-01,
681,-1.08e-01,
682,1.12e-01,
683,-1.44e-01,
684,1.36e-01,
685,-1.56e-01,
686,1.44e-01,
687,-1.80e-01,
688,-1.80e-01,
689,1.48e-01,
690,-1.60e-01,
691,1.52e-01,
692,1.52e-01,
693,-1.88e-01,
694,-1.04e-01,
695,1.12e-01,
696,-9.60e-02,
697,1.16e-01,
698,-8.80e-02,
699,1.28e-01,
700,1.12e-01,
701,-9.60e-02,
702,1.08e-01,
703,-1.08e-01,
704,1.20e-01,
705,-1.16e-01,
706,1.16e-01,
707,-9.60e-02,
708,-1.00e-01,
709,1.28e-01,
710,-9.20e-02,
711,1.20e-01,
712,6.40e-02,
713,-7.60e-02,
714,-8.00e-02,
715,1.00e-01,
716,8.80e-02,
717,-8.80e-02,
718,-1.00e-01,
719,1.12e-01,
720,-1.16e-01,
721,1.16e-01,
722,1.12e-01,
723,-1.52e-01,
724,1.44e-01,
725,-1.60e-01,
726,1.48e-01,
727,-1.76e-01,
728,-1.76e-01,
729,1.56e-01,
730,-1.80e-01,
731,1.44e-01,
732,1.56e-01,
733,-1.80e-01,
734,1.40e-01,
735,-1.08e-01,
736,1.16e-01,
737,-1.08e-01,
738,-1.12e-01,
739,1.16e-01,
740,-1.00e-01,
741,1.32e-01,
742,-1.12e-01,
743,1.28e-01,
744,-8.40e-02,
745,1.32e-01,
746,1.28e-01,
747,-1.12e-01,
748,-9.20e-02,
749,1.36e-01,
750,1.24e-01,
751,-9.60e-02,
752,1.08e-01,
753,-9.60e-02,
754,6.00e-02,
755,-9.60e-02,
756,-8.40e-02,
757,6.40e-02,
758,-1.04e-01,
759,8.80e-02,
760,-9.60e-02,
761,1.20e-01,
762,-1.08e-01,
763,1.12e-01,
764,-1.00e-01,
765,1.44e-01,
766,1.52e-01,
767,-1.80e-01,
768,-1.64e-01,
769,1.56e-01,
770,1.60e-01,
771,-1.88e-01,
772,-1.80e-01,
773,1.52e-01,
774,-1.80e-01,
775,1.60e-01,
776,-1.60e-01,
777,1.24e-01,
778,-1.08e-01,
779,1.28e-01,
780,-1.12e-01,
781,1.04e-01,
782,1.28e-01,
783,-1.16e-01,
784,1.20e-01,
785,-1.04e-01,
786,-9.60e-02,
787,1.04e-01,
788,1.20e-01,
789,-1.04e-01,
790,1.00e-01,
791,-1.04e-01,
792,6.40e-02,
793,-6.00e-02,
794,-7.60e-02,
795,4.00e-02,
796,5.20e-02,
797,-7.20e-02,
798,-8.40e-02,
799,1.00e-01,
800,1.20e-01,
801,-1.08e-01,
802,1.04e-01,
803,-9.60e-02,
804,-1.40e-01,
805,1.20e-01,
806,-1.20e-01,
807,1.24e-01,
808,-1.40e-01,
809,1.44e-01,
810,-1.52e-01,
811,1.40e-01,
812,1.52e-01,
813,-1.64e-01,
814,-1.80e-01,
815,1.48e-01,
816,1.52e-01,
817,-1.48e-01,
818,-1.16e-01,
819,1.20e-01,
820,1.20e-01,
821,-1.04e-01,
822,1.12e-01,
823,-1.04e-01,
824,-1.12e-01,
825,1.12e-01,
826,-1.12e-01,
827,1.36e-01,
828,-1.16e-01,
829,1.16e-01,
830,1.24e-01,
831,-1.04e-01,
832,-6.40e-02,
833,6.80e-02,
834,-8.00e-02,
835,6.80e-02,
836,-9.20e-02,
837,1.20e-01,
838,1.16e-01,
839,-8.80e-02,
840,-1.08e-01,
841,1.16e-01,
842,1.24e-01,
843,-1.08e-01,
844,1.20e-01,
845,-9.60e-02,
846,1.20e-01,
847,-1.36e-01,
848,1.48e-01,
849,-1.56e-01,
850,-1.72e-01,
851,1.48e-01,
852,1.60e-01,
853,-1.96e-01,
854,1.52e-01,
855,-1.84e-01,
856,-1.72e-01,
857,1.56e-01,
858,-1.60e-01,
859,1.40e-01,
860,-1.00e-01,
861,1.16e-01,
862,1.24e-01,
863,-1.16e-01,
864,1.12e-01,
865,-1.12e-01,
866,1.08e-01,
867,-1.00e-01,
868,-1.16e-01,
869,1.20e-01,
870,1.00e-01,
871,-1.08e-01,
872,-9.20e-02,
873,1.28e-01,
874,5.60e-02,
875,-7.20e-02,
876,1.04e-01,
877,-7.60e-02,
878,1.16e-01,
879,-1.00e-01,
880,1.12e-01,
881,-1.08e-01,
882,1.24e-01,
883,-8.80e-02,
884,-1.00e-01,
885,1.20e-01,
886,8.80e-02,
887,-8.40e-02,
888,-9.60e-02,
889,1.04e-01,
890,1.24e-01,
891,-1.04e-01,
892,-1.24e-01,
893,1.36e-01,
894,-1.48e-01,
895,1.44e-01,
896,1.24e-01,
897,-1.72e-01,
898,1.48e-01,
899,-1.60e-01,
900,-1.44e-01,
901,1.40e-01,
902,-1.24e-01,
903,1.16e-01,
904,-1.08e-01,
905,1.24e-01,
906,1.32e-01,
907,-1.08e-01,
908,1.12e-01,
909,-9.20e-02,
910,-9.60e-02,
911,1.12e-01,
912,7.20e-02,
913,-8.40e-02,
914,6.80e-02,
915,-8.40e-02,
916,-6.40e-02,
917,8.40e-02,
918,1.24e-01,
919,-1.08e-01,
920,-1.04e-01,
921,1.20e-01,
922,1.20e-01,
923,-1.00e-01,
924,1.20e-01,
925,-1.04e-01,
926,1.24e-01,
927,-1.00e-01,
928,1.20e-01,
929,-1.28e-01,
930,-1.60e-01,
931,1.44e-01,
932,1.60e-01,
933,-1.52e-01,
934,-1.84e-01,
935,1.64e-01,
936,-1.60e-01,
937,1.64e-01,
938,1.48e-01,
939,-1.80e-01,
940,1.48e-01,
941,-1.96e-01,
942,-1.76e-01,
943,1.56e-01,
944,1.20e-01,
945,-1.12e-01,
946,1.04e-01,
947,-1.12e-01,
948,1.12e-01,
949,-1.08e-01,
950,1.04e-01,
951,-1.08e-01,
952,1.00e-01,
953,-6.00e-02,
954,-6.00e-02,
955,5.60e-02,
956,5.60e-02,
957,-6.00e-02,
958,-8.40e-02,
959,1.12e-01,
960,1.16e-01,
961,-1.04e-01,
962,-1.08e-01,
963,1.20e-01,
964,1.12e-01,
965,-1.00e-01,
966,1.00e-01,
967,-1.04e-01,
968,1.24e-01,
969,-9.20e-02,
970,1.24e-01,
971,-1.04e-01,
972,1.04e-01,
973,-1.08e-01,
974,1.20e-01,
975,-1.20e-01,
976,1.16e-01,
977,-1.20e-01,
978,-1.40e-01,
979,1.24e-01,
980,-1.52e-01,
981,1.48e-01,
982,-1.60e-01,
983,1.28e-01,
984,-9.20e-02,
985,1.40e-01,
986,1.20e-01,
987,-1.08e-01,
988,-1.00e-01,
989,9.20e-02,
990,-8.40e-02,
991,8.80e-02,
992,-9.20e-02,
993,8.40e-02,
994,1.24e-01,
995,-8.40e-02,
996,6.80e-02,
997,-1.00e-01,
998,-9.60e-02,
999,1.12e-01,
1000,-9.60e-02,
1001,1.12e-01,
1002,1.20e-01,
1003,-1.04e-01,
1004,1.12e-01,
1005,-1.12e-01,
1006,-9.20e-02,
1007,1.16e-01,
1008,-1.08e-01,
1009,1.12e-01,
1010,1.28e-01,
1011,-1.20e-01,
1012,1.44e-01,
1013,-1.48e-01,
1014,1.52e-01,
1015,-1.80e-01,
1016,-1.72e-01,
1017,1.52e-01,
1018,-1.32e-01,
1019,1.52e-01,
1020,-1.84e-01,
1021,1.44e-01,
1022,1.48e-01,
1023,-1.44e-01,
1024,1.44e-01,
1025,-1.80e-01,
1026,-1.80e-01,
1027,1.56e-01,
1028,-9.20e-02,
1029,1.24e-01,
1030,1.04e-01,
1031,-1.04e-01,
1032,5.60e-02,
1033,-6.80e-02,
1034,6.00e-02,
1035,-6.80e-02,
1036,7.20e-02,
1037,-6.80e-02,
1038,1.04e-01,
1039,-1.04e-01,
1040,1.20e-01,
1041,-1.08e-01,
1042,1.24e-01,
1043,-1.12e-01,
1044,1.24e-01,
1045,-1.04e-01,
1046,-1.04e-01,
1047,1.20e-01,
1048,-1.08e-01,
1049,1.12e-01,
1050,1.20e-01,
1051,-8.80e-02,
1052,1.16e-01,
1053,-1.00e-01,
1054,1.24e-01,
1055,-9.60e-02,
1056,-1.00e-01,
1057,1.20e-01,
1058,1.24e-01,
1059,-9.20e-02,
1060,1.16e-01,
1061,-1.24e-01,
1062,-1.20e-01,
1063,1.32e-01,
1064,-1.44e-01,
1065,1.36e-01,
1066,1.44e-01,
1067,-1.48e-01,
1068,-1.04e-01,
1069,8.00e-02,
1070,7.20e-02,
1071,-1.04e-01,
1072,-1.00e-01,
1073,1.16e-01,
1074,-9.60e-02,
1075,8.80e-02,
1076,-9.60e-02,
1077,8.00e-02,
1078,-9.60e-02,
1079,1.24e-01,
1080,-1.04e-01,
1081,1.04e-01,
1082,-1.12e-01,
1083,1.20e-01,
1084,1.24e-01,
1085,-1.08e-01,
1086,-1.08e-01,
1087,1.20e-01,
1088,1.20e-01,
1089,-9.60e-02,
1090,1.08e-01,
1091,-9.60e-02,
1092,-1.08e-01,
1093,1.08e-01,
1094,1.40e-01,
1095,-1.44e-01,
1096,1.40e-01,
1097,-1.64e-01,
1098,1.52e-01,
1099,-1.88e-01,
1100,1.56e-01,
1101,-1.96e-01,
1102,-1.92e-01,
1103,1.52e-01,
1104,-1.76e-01,
1105,1.40e-01,
1106,1.44e-01,
1107,-1.80e-01,
1108,1.56e-01,
1109,-1.72e-01,
1110,1.44e-01,
1111,-1.28e-01,
1112,-6.00e-02,
1113,4.40e-02,
1114,8.40e-02,
1115,-7.60e-02,
1116,1.20e-01,
1117,-6.40e-02,
1118,-8.40e-02,
1119,8.00e-02,
1120,-1.16e-01,
1121,1.24e-01,
1122,-9.20e-02,
1123,1.08e-01,
1124,1.04e-01,
1125,-1.08e-01,
1126,1.08e-01,
1127,-8.00e-02,
1128,-1.04e-01,
1129,1.20e-01,
1130,1.00e-01,
1131,-1.00e-01,
1132,1.08e-01,
1133,-8.40e-02,
1134,1.04e-01,
1135,-1.00e-01,
1136,1.20e-01,
1137,-1.00e-01,
1138,1.16e-01,
1139,-9.60e-02,
1140,1.28e-01,
1141,-1.16e-01,
1142,1.04e-01,
1143,-1.00e-01,
1144,-1.08e-01,
1145,1.12e-01,
1146,-9.60e-02,
1147,1.00e-01,
1148,1.24e-01,
1149,-1.24e-01,
1150,1.48e-01,
1151,-9.20e-02,
1152,6.80e-02,
1153,-8.80e-02,
1154,1.12e-01,
1155,-1.08e-01,
1156,1.28e-01,
1157,-9.20e-02,
1158,1.08e-01,
1159,-1.04e-01,
1160,-9.20e-02,
1161,1.36e-01,
1162,-1.00e-01,
1163,1.28e-01,
1164,1.32e-01,
1165,-1.08e-01,
1166,1.04e-01,
1167,-1.04e-01,
1168,-1.04e-01,
1169,1.12e-01,
1170,1.08e-01,
1171,-9.20e-02,
1172,1.16e-01,
1173,-1.00e-01,
1174,-1.04e-01,
1175,1.08e-01,
1176,-1.40e-01,
1177,1.12e-01,
1178,1.44e-01,
1179,-1.56e-01,
1180,-1.68e-01,
1181,1.68e-01,
1182,1.52e-01,
1183,-1.76e-01,
1184,-1.84e-01,
1185,1.44e-01,
1186,-1.96e-01,
1187,1.44e-01,
1188,1.44e-01,
1189,-1.80e-01,
1190,1.52e-01,
1191,-1.48e-01,
1192,1.60e-01,
1193,-1.16e-01,
1194,-1.16e-01,
1195,8.40e-02,
1196,-6.00e-02,
1197,6.80e-02,
1198,-1.04e-01,
1199,1.12e-01,
