Laptop_1/LAPTOP_CHRGR_1_ON_CLOSE/time domain/NewFile6(1).csv

X,CH1,Start,Increment,
Sequence,Volt,-1.500000e-01,2.000000e-04
0,-1.48e-01,
1,1.32e-01,
2,-1.72e-01,
3,1.48e-01,
4,-1.76e-01,
5,1.08e-01,
6,1.36e-01,
7,-1.04e-01,
8,1.24e-01,
9,-1.12e-01,
10,1.16e-01,
11,-1.08e-01,
12,1.08e-01,
13,-1.16e-01,
14,-1.04e-01,
15,1.20e-01,
16,1.20e-01,
17,-1.08e-01,
18,1.20e-01,
19,-1.04e-01,
20,1.20e-01,
21,-1.04e-01,
22,1.00e-01,
23,-1.00e-01,
24,1.28e-01,
25,-1.08e-01,
26,1.12e-01,
27,-1.12e-01,
28,-1.12e-01,
29,1.28e-01,
30,1.08e-01,
31,-1.00e-01,
32,1.12e-01,
33,-1.12e-01,
34,-1.44e-01,
35,1.44e-01,
36,-1.84e-01,
37,1.52e-01,
38,1.64e-01,
39,-1.96e-01,
40,-2.08e-01,
41,1.68e-01,
42,1.48e-01,
43,-2.04e-01,
44,-1.68e-01,
45,1.36e-01,
46,1.48e-01,
47,-2.04e-01,
48,-1.40e-01,
49,1.40e-01,
50,1.20e-01,
51,-9.60e-02,
52,1.32e-01,
53,-1.04e-01,
54,-1.12e-01,
55,1.28e-01,
56,-1.16e-01,
57,1.28e-01,
58,-1.20e-01,
59,1.32e-01,
60,-1.12e-01,
61,1.28e-01,
62,1.04e-01,
63,-1.08e-01,
64,-1.20e-01,
65,1.08e-01,
66,1.28e-01,
67,-1.12e-01,
68,-1.12e-01,
69,9.20e-02,
70,-1.08e-01,
71,1.20e-01,
72,-1.08e-01,
73,1.08e-01,
74,1.04e-01,
75,-1.04e-01,
76,-1.12e-01,
77,6.40e-02,
78,1.00e-01,
79,-1.16e-01,
80,1.20e-01,
81,-1.12e-01,
82,1.28e-01,
83,-1.40e-01,
84,-1.44e-01,
85,1.44e-01,
86,1.48e-01,
87,-1.84e-01,
88,-1.16e-01,
89,1.16e-01,
90,1.16e-01,
91,-1.16e-01,
92,-1.20e-01,
93,1.16e-01,
94,1.20e-01,
95,-9.60e-02,
96,-1.16e-01,
97,1.28e-01,
98,-1.20e-01,
99,1.12e-01,
100,-1.16e-01,
101,1.16e-01,
102,-1.08e-01,
103,1.32e-01,
104,-1.00e-01,
105,1.24e-01,
106,1.32e-01,
107,-1.08e-01,
108,1.28e-01,
109,-1.16e-01,
110,1.20e-01,
111,-1.08e-01,
112,-1.04e-01,
113,6.00e-02,
114,-1.36e-01,
115,1.00e-01,
116,-1.76e-01,
117,1.40e-01,
118,1.16e-01,
119,-1.84e-01,
120,1.56e-01,
121,-1.88e-01,
122,1.64e-01,
123,-1.80e-01,
124,-1.80e-01,
125,1.60e-01,
126,1.52e-01,
127,-2.00e-01,
128,1.52e-01,
129,-1.72e-01,
130,-1.96e-01,
131,1.48e-01,
132,1.32e-01,
133,-1.12e-01,
134,1.40e-01,
135,-1.04e-01,
136,-1.16e-01,
137,1.48e-01,
138,1.44e-01,
139,-1.08e-01,
140,-1.20e-01,
141,1.32e-01,
142,-1.20e-01,
143,1.40e-01,
144,-1.20e-01,
145,1.20e-01,
146,-1.08e-01,
147,1.28e-01,
148,9.60e-02,
149,-1.12e-01,
150,1.12e-01,
151,-1.12e-01,
152,-1.16e-01,
153,1.20e-01,
154,-1.04e-01,
155,1.12e-01,
156,-1.08e-01,
157,7.20e-02,
158,7.60e-02,
159,-1.20e-01,
160,-1.20e-01,
161,1.08e-01,
162,-1.16e-01,
163,1.20e-01,
164,1.04e-01,
165,-1.12e-01,
166,1.24e-01,
167,-1.20e-01,
168,1.24e-01,
169,-1.52e-01,
170,1.44e-01,
171,-1.72e-01,
172,-9.60e-02,
173,1.24e-01,
174,-1.00e-01,
175,1.24e-01,
176,-1.20e-01,
177,1.28e-01,
178,1.12e-01,
179,-1.16e-01,
180,1.24e-01,
181,-1.16e-01,
182,1.16e-01,
183,-1.24e-01,
184,-1.12e-01,
185,1.24e-01,
186,1.24e-01,
187,-1.16e-01,
188,-1.00e-01,
189,1.04e-01,
190,-9.60e-02,
191,1.16e-01,
192,5.60e-02,
193,-1.08e-01,
194,6.40e-02,
195,-9.60e-02,
196,-1.04e-01,
197,1.16e-01,
198,-1.36e-01,
199,1.44e-01,
200,1.36e-01,
201,-1.76e-01,
202,1.48e-01,
203,-2.08e-01,
204,1.64e-01,
205,-2.04e-01,
206,-1.80e-01,
207,1.52e-01,
208,-2.12e-01,
209,1.52e-01,
210,-2.04e-01,
211,1.48e-01,
212,1.52e-01,
213,-1.88e-01,
214,-1.44e-01,
215,1.28e-01,
216,1.20e-01,
217,-1.24e-01,
218,1.16e-01,
219,-1.08e-01,
220,-1.12e-01,
221,1.40e-01,
222,1.40e-01,
223,-1.16e-01,
224,-9.60e-02,
225,1.40e-01,
226,1.32e-01,
227,-1.24e-01,
228,1.28e-01,
229,-1.16e-01,
230,1.04e-01,
231,-1.12e-01,
232,-1.16e-01,
233,1.08e-01,
234,-1.16e-01,
235,1.28e-01,
236,-1.16e-01,
237,1.12e-01,
238,-1.08e-01,
239,1.00e-01,
240,1.20e-01,
241,-1.16e-01,
242,-1.24e-01,
243,1.20e-01,
244,-1.08e-01,
245,1.16e-01,
246,1.28e-01,
247,-1.24e-01,
248,9.60e-02,
249,-1.24e-01,
250,1.32e-01,
251,-1.32e-01,
252,1.44e-01,
253,-1.56e-01,
254,1.28e-01,
255,-1.88e-01,
256,9.20e-02,
257,-1.16e-01,
258,1.20e-01,
259,-1.04e-01,
260,-1.20e-01,
261,1.08e-01,
262,1.20e-01,
263,-1.16e-01,
264,1.08e-01,
265,-1.08e-01,
266,-1.00e-01,
267,1.24e-01,
268,-1.08e-01,
269,1.20e-01,
270,-1.04e-01,
271,9.60e-02,
272,7.60e-02,
273,-9.60e-02,
274,5.60e-02,
275,-1.08e-01,
276,-8.40e-02,
277,4.80e-02,
278,-1.00e-01,
279,1.00e-01,
280,1.24e-01,
281,-1.48e-01,
282,1.48e-01,
283,-1.80e-01,
284,1.60e-01,
285,-2.04e-01,
286,1.60e-01,
287,-2.00e-01,
288,1.64e-01,
289,-1.92e-01,
290,-2.00e-01,
291,1.44e-01,
292,1.36e-01,
293,-2.00e-01,
294,-1.76e-01,
295,1.60e-01,
296,1.76e-01,
297,-1.88e-01,
298,-1.08e-01,
299,1.32e-01,
300,1.28e-01,
301,-8.40e-02,
302,1.36e-01,
303,-1.28e-01,
304,1.00e-01,
305,-1.12e-01,
306,-1.16e-01,
307,1.40e-01,
308,1.12e-01,
309,-1.12e-01,
310,1.24e-01,
311,-1.16e-01,
312,-1.20e-01,
313,1.24e-01,
314,1.36e-01,
315,-1.20e-01,
316,1.04e-01,
317,-1.12e-01,
318,-1.16e-01,
319,1.24e-01,
320,1.24e-01,
321,-1.12e-01,
322,1.32e-01,
323,-1.12e-01,
324,-1.00e-01,
325,1.08e-01,
326,1.24e-01,
327,-1.24e-01,
328,1.00e-01,
329,-1.24e-01,
330,1.32e-01,
331,-1.20e-01,
332,-1.20e-01,
333,1.28e-01,
334,1.28e-01,
335,-1.64e-01,
336,1.56e-01,
337,-1.84e-01,
338,-1.84e-01,
339,1.32e-01,
340,1.32e-01,
341,-1.00e-01,
342,1.12e-01,
343,-1.16e-01,
344,-1.00e-01,
345,1.32e-01,
346,-1.12e-01,
347,9.60e-02,
348,-1.16e-01,
349,1.28e-01,
350,-1.00e-01,
351,1.28e-01,
352,-8.00e-02,
353,6.00e-02,
354,5.20e-02,
355,-1.04e-01,
356,5.60e-02,
357,-9.20e-02,
358,-1.08e-01,
359,1.12e-01,
360,8.40e-02,
361,-1.08e-01,
362,1.24e-01,
363,-1.48e-01,
364,-1.84e-01,
365,1.56e-01,
366,1.68e-01,
367,-2.00e-01,
368,1.60e-01,
369,-1.92e-01,
370,-2.04e-01,
371,1.52e-01,
372,-2.08e-01,
373,1.48e-01,
374,-1.76e-01,
375,1.48e-01,
376,-1.96e-01,
377,1.48e-01,
378,-1.84e-01,
379,1.56e-01,
380,1.68e-01,
381,-1.96e-01,
382,-1.08e-01,
383,1.16e-01,
384,-1.20e-01,
385,1.40e-01,
386,1.28e-01,
387,-1.24e-01,
388,1.40e-01,
389,-9.60e-02,
390,-8.80e-02,
391,1.32e-01,
392,-1.16e-01,
393,1.32e-01,
394,1.28e-01,
395,-1.20e-01,
396,1.28e-01,
397,-1.12e-01,
398,-1.08e-01,
399,1.04e-01,
400,-1.16e-01,
401,1.24e-01,
402,1.32e-01,
403,-1.16e-01,
404,-1.16e-01,
405,1.28e-01,
406,-1.20e-01,
407,1.04e-01,
408,1.24e-01,
409,-1.24e-01,
410,1.20e-01,
411,-1.20e-01,
412,-1.08e-01,
413,1.20e-01,
414,-1.28e-01,
415,1.20e-01,
416,1.24e-01,
417,-1.28e-01,
418,-1.76e-01,
419,1.28e-01,
420,1.52e-01,
421,-2.00e-01,
422,-1.04e-01,
423,1.28e-01,
424,-1.04e-01,
425,1.04e-01,
426,-1.12e-01,
427,1.16e-01,
428,-1.20e-01,
429,1.24e-01,
430,1.24e-01,
431,-1.12e-01,
432,-1.16e-01,
433,1.08e-01,
434,-1.00e-01,
435,8.80e-02,
436,-8.80e-02,
437,5.60e-02,
438,-1.08e-01,
439,1.04e-01,
440,1.12e-01,
441,-1.12e-01,
442,-1.16e-01,
443,1.04e-01,
444,1.32e-01,
445,-1.12e-01,
446,1.16e-01,
447,-1.60e-01,
448,1.52e-01,
449,-1.88e-01,
450,-1.92e-01,
451,1.52e-01,
452,-2.04e-01,
453,1.56e-01,
454,1.60e-01,
455,-2.12e-01,
456,-2.12e-01,
457,1.60e-01,
458,1.48e-01,
459,-2.00e-01,
460,-1.88e-01,
461,1.48e-01,
462,1.64e-01,
463,-1.96e-01,
464,-1.12e-01,
465,1.36e-01,
466,-1.16e-01,
467,1.40e-01,
468,1.44e-01,
469,-1.12e-01,
470,-1.28e-01,
471,1.48e-01,
472,-1.20e-01,
473,1.36e-01,
474,-1.24e-01,
475,1.12e-01,
476,1.36e-01,
477,-1.24e-01,
478,1.24e-01,
479,-1.24e-01,
480,1.24e-01,
481,-1.12e-01,
482,1.28e-01,
483,-1.04e-01,
484,1.16e-01,
485,-1.20e-01,
486,1.24e-01,
487,-1.24e-01,
488,-1.16e-01,
489,1.24e-01,
490,-1.12e-01,
491,1.16e-01,
492,-1.32e-01,
493,1.24e-01,
494,1.00e-01,
495,-1.20e-01,
496,-1.12e-01,
497,1.28e-01,
498,-1.20e-01,
499,1.32e-01,
500,1.40e-01,
501,-1.76e-01,
502,1.56e-01,
503,-1.68e-01,
504,1.44e-01,
505,-1.64e-01,
506,-1.00e-01,
507,1.20e-01,
508,-1.12e-01,
509,1.28e-01,
510,6.40e-02,
511,-1.08e-01,
512,6.00e-02,
513,-8.80e-02,
514,1.08e-01,
515,-1.08e-01,
516,-8.80e-02,
517,1.16e-01,
518,-9.20e-02,
519,1.04e-01,
520,1.32e-01,
521,-9.60e-02,
522,1.24e-01,
523,-9.60e-02,
524,1.28e-01,
525,-1.12e-01,
526,1.24e-01,
527,-1.08e-01,
528,1.40e-01,
529,-1.68e-01,
530,1.48e-01,
531,-1.96e-01,
532,-2.20e-01,
533,1.60e-01,
534,-2.04e-01,
535,1.64e-01,
536,-2.20e-01,
537,1.72e-01,
538,1.68e-01,
539,-1.92e-01,
540,-1.88e-01,
541,1.48e-01,
542,1.52e-01,
543,-1.96e-01,
544,-1.96e-01,
545,1.56e-01,
546,-1.64e-01,
547,1.56e-01,
548,-1.20e-01,
549,1.28e-01,
550,-1.24e-01,
551,1.48e-01,
552,-1.24e-01,
553,1.36e-01,
554,1.20e-01,
555,-1.24e-01,
556,1.36e-01,
557,-1.28e-01,
558,1.24e-01,
559,-1.24e-01,
560,-1.28e-01,
561,1.08e-01,
562,1.32e-01,
563,-1.28e-01,
564,1.28e-01,
565,-1.12e-01,
566,-1.16e-01,
567,1.04e-01,
568,-1.20e-01,
569,1.36e-01,
570,-1.28e-01,
571,1.28e-01,
572,1.04e-01,
573,-1.20e-01,
574,-1.16e-01,
575,1.24e-01,
576,-1.32e-01,
577,1.32e-01,
578,-1.24e-01,
579,1.28e-01,
580,-1.08e-01,
581,1.24e-01,
582,1.36e-01,
583,-1.60e-01,
584,-1.52e-01,
585,1.40e-01,
586,-2.00e-01,
587,1.52e-01,
588,1.52e-01,
589,-2.00e-01,
590,1.36e-01,
591,-1.04e-01,
592,-9.20e-02,
593,7.20e-02,
594,1.24e-01,
595,-8.80e-02,
596,-1.04e-01,
597,5.20e-02,
598,-1.00e-01,
599,1.00e-01,
600,1.12e-01,
601,-1.16e-01,
602,-1.04e-01,
603,1.24e-01,
604,1.16e-01,
605,-1.04e-01,
606,1.08e-01,
607,-1.12e-01,
608,-1.12e-01,
609,1.08e-01,
610,1.16e-01,
611,-1.48e-01,
612,1.44e-01,
613,-1.92e-01,
614,-1.96e-01,
615,1.64e-01,
616,1.56e-01,
617,-2.04e-01,
618,-1.76e-01,
619,1.60e-01,
620,-2.08e-01,
621,1.64e-01,
622,-2.16e-01,
623,1.56e-01,
624,1.44e-01,
625,-1.96e-01,
626,1.56e-01,
627,-2.00e-01,
628,1.52e-01,
629,-1.96e-01,
630,1.44e-01,
631,-1.24e-01,
632,-1.24e-01,
633,1.32e-01,
634,1.28e-01,
635,-1.28e-01,
636,1.48e-01,
637,-1.16e-01,
638,-1.16e-01,
639,1.40e-01,
640,1.44e-01,
641,-1.20e-01,
642,-1.24e-01,
643,1.20e-01,
644,1.28e-01,
645,-1.24e-01,
646,1.08e-01,
647,-1.20e-01,
648,1.28e-01,
649,-1.28e-01,
650,-1.24e-01,
651,1.20e-01,
652,1.12e-01,
653,-1.36e-01,
654,-1.28e-01,
655,1.20e-01,
656,-1.20e-01,
657,1.12e-01,
658,1.16e-01,
659,-1.16e-01,
660,-1.32e-01,
661,1.24e-01,
662,1.28e-01,
663,-1.12e-01,
664,-1.28e-01,
665,1.44e-01,
666,-1.48e-01,
667,1.44e-01,
668,-1.84e-01,
669,1.64e-01,
670,1.36e-01,
671,-2.00e-01,
672,-9.60e-02,
673,8.40e-02,
674,-1.04e-01,
675,6.40e-02,
676,6.00e-02,
677,-9.20e-02,
678,1.24e-01,
679,-9.20e-02,
680,1.08e-01,
681,-1.12e-01,
682,-1.16e-01,
683,1.28e-01,
684,-1.08e-01,
685,1.04e-01,
686,1.08e-01,
687,-1.08e-01,
688,-1.00e-01,
689,1.32e-01,
690,1.28e-01,
691,-1.12e-01,
692,1.28e-01,
693,-1.24e-01,
694,-1.84e-01,
695,1.24e-01,
696,1.56e-01,
697,-1.64e-01,
698,-1.76e-01,
699,1.60e-01,
700,-2.08e-01,
701,1.36e-01,
702,-2.08e-01,
703,1.60e-01,
704,1.56e-01,
705,-2.04e-01,
706,-1.88e-01,
707,1.52e-01,
708,-2.04e-01,
709,1.48e-01,
710,-2.04e-01,
711,1.60e-01,
712,-1.80e-01,
713,1.56e-01,
714,1.08e-01,
715,-1.20e-01,
716,-1.32e-01,
717,8.00e-02,
718,1.12e-01,
719,-1.16e-01,
720,1.52e-01,
721,-1.24e-01,
722,1.48e-01,
723,-1.24e-01,
724,-1.24e-01,
725,1.40e-01,
726,1.28e-01,
727,-1.28e-01,
728,-1.24e-01,
729,1.24e-01,
730,-1.36e-01,
731,1.04e-01,
732,-1.24e-01,
733,1.32e-01,
734,1.04e-01,
735,-1.24e-01,
736,-1.36e-01,
737,1.24e-01,
738,1.12e-01,
739,-1.36e-01,
740,1.24e-01,
741,-1.32e-01,
742,1.28e-01,
743,-1.12e-01,
744,1.20e-01,
745,-1.20e-01,
746,1.16e-01,
747,-1.36e-01,
748,1.20e-01,
749,-1.80e-01,
750,1.40e-01,
751,-1.92e-01,
752,1.56e-01,
753,-2.04e-01,
754,-2.00e-01,
755,1.60e-01,
756,-1.00e-01,
757,1.24e-01,
758,1.08e-01,
759,-1.04e-01,
760,1.20e-01,
761,-1.00e-01,
762,1.28e-01,
763,-1.12e-01,
764,1.20e-01,
765,-1.12e-01,
766,1.24e-01,
767,-1.08e-01,
768,1.16e-01,
769,-1.16e-01,
770,1.28e-01,
771,-9.60e-02,
772,-1.08e-01,
773,1.32e-01,
774,1.32e-01,
775,-1.56e-01,
776,1.36e-01,
777,-1.40e-01,
778,-1.64e-01,
779,1.44e-01,
780,-1.60e-01,
781,1.60e-01,
782,-1.72e-01,
783,1.48e-01,
784,1.44e-01,
785,-1.96e-01,
786,1.56e-01,
787,-1.88e-01,
788,1.64e-01,
789,-1.88e-01,
790,-2.04e-01,
791,1.56e-01,
792,-2.08e-01,
793,1.60e-01,
794,-1.92e-01,
795,1.56e-01,
796,1.48e-01,
797,-1.84e-01,
798,-1.24e-01,
799,1.32e-01,
800,-1.32e-01,
801,1.48e-01,
802,1.16e-01,
803,-1.12e-01,
804,1.44e-01,
805,-1.32e-01,
806,-1.24e-01,
807,1.32e-01,
808,1.52e-01,
809,-1.32e-01,
810,-1.24e-01,
811,1.40e-01,
812,-1.28e-01,
813,1.08e-01,
814,1.36e-01,
815,-1.36e-01,
816,-1.20e-01,
817,1.04e-01,
818,1.16e-01,
819,-1.28e-01,
820,-1.36e-01,
821,1.04e-01,
822,-1.08e-01,
823,9.20e-02,
824,1.20e-01,
825,-1.08e-01,
826,-1.08e-01,
827,1.28e-01,
828,-1.12e-01,
829,1.32e-01,
830,1.24e-01,
831,-1.80e-01,
832,-1.76e-01,
833,1.52e-01,
834,1.64e-01,
835,-1.72e-01,
836,1.60e-01,
837,-2.08e-01,
838,-1.88e-01,
839,1.32e-01,
840,1.44e-01,
841,-1.16e-01,
842,8.40e-02,
843,-1.20e-01,
844,1.24e-01,
845,-1.16e-01,
846,1.28e-01,
847,-1.12e-01,
848,1.12e-01,
849,-1.08e-01,
850,1.20e-01,
851,-8.40e-02,
852,-9.20e-02,
853,1.32e-01,
854,-1.20e-01,
855,1.24e-01,
856,-1.08e-01,
857,1.20e-01,
858,1.28e-01,
859,-1.12e-01,
860,1.28e-01,
861,-1.36e-01,
862,1.28e-01,
863,-1.24e-01,
864,1.36e-01,
865,-1.56e-01,
866,-1.72e-01,
867,1.40e-01,
868,-1.32e-01,
869,1.60e-01,
870,-1.76e-01,
871,1.40e-01,
872,1.48e-01,
873,-2.00e-01,
874,1.16e-01,
875,-2.00e-01,
876,-1.92e-01,
877,1.60e-01,
878,1.44e-01,
879,-1.96e-01,
880,-1.48e-01,
881,1.12e-01,
882,1.40e-01,
883,-1.32e-01,
884,-1.28e-01,
885,1.32e-01,
886,1.36e-01,
887,-1.24e-01,
888,-1.24e-01,
889,1.36e-01,
890,1.40e-01,
891,-1.28e-01,
892,1.36e-01,
893,-1.28e-01,
894,9.20e-02,
895,-1.20e-01,
896,-1.24e-01,
897,1.32e-01,
898,-1.32e-01,
899,1.28e-01,
900,1.28e-01,
901,-1.24e-01,
902,-1.28e-01,
903,1.16e-01,
904,1.28e-01,
905,-1.28e-01,
906,-1.24e-01,
907,1.24e-01,
908,-1.12e-01,
909,1.28e-01,
910,-1.24e-01,
911,1.36e-01,
912,1.32e-01,
913,-1.40e-01,
914,1.40e-01,
915,-1.88e-01,
916,-1.28e-01,
917,1.44e-01,
918,1.56e-01,
919,-1.92e-01,
920,1.60e-01,
921,-1.84e-01,
922,-1.84e-01,
923,1.36e-01,
924,-1.20e-01,
925,1.04e-01,
926,-1.12e-01,
927,1.12e-01,
928,-1.20e-01,
929,1.24e-01,
930,-1.16e-01,
931,1.08e-01,
932,1.24e-01,
933,-1.16e-01,
934,-9.60e-02,
935,1.12e-01,
936,1.36e-01,
937,-1.08e-01,
938,1.20e-01,
939,-1.12e-01,
940,-1.16e-01,
941,1.12e-01,
942,1.28e-01,
943,-1.12e-01,
944,-1.04e-01,
945,1.24e-01,
946,1.28e-01,
947,-1.32e-01,
948,-1.36e-01,
949,1.36e-01,
950,-1.32e-01,
951,1.24e-01,
952,1.44e-01,
953,-1.72e-01,
954,1.44e-01,
955,-1.84e-01,
956,-1.80e-01,
957,1.28e-01,
958,-2.04e-01,
959,1.36e-01,
960,1.64e-01,
961,-2.00e-01,
962,-1.84e-01,
963,1.60e-01,
964,1.32e-01,
965,-1.44e-01,
966,1.28e-01,
967,-1.20e-01,
968,1.28e-01,
969,-1.12e-01,
970,-1.28e-01,
971,1.40e-01,
972,1.28e-01,
973,-1.12e-01,
974,-1.24e-01,
975,1.40e-01,
976,-1.28e-01,
977,1.28e-01,
978,1.28e-01,
979,-1.28e-01,
980,-1.28e-01,
981,1.28e-01,
982,1.36e-01,
983,-1.20e-01,
984,1.08e-01,
985,-1.24e-01,
986,-1.24e-01,
987,1.08e-01,
988,-1.16e-01,
989,1.12e-01,
990,-1.16e-01,
991,1.20e-01,
992,1.28e-01,
993,-1.24e-01,
994,-1.32e-01,
995,1.40e-01,
996,1.28e-01,
997,-1.96e-01,
998,-1.96e-01,
999,1.40e-01,
1000,1.56e-01,
1001,-2.04e-01,
1002,1.60e-01,
1003,-2.08e-01,
1004,-1.88e-01,
1005,1.60e-01,
1006,-1.24e-01,
1007,1.24e-01,
1008,1.16e-01,
1009,-1.24e-01,
1010,1.04e-01,
1011,-1.12e-01,
1012,1.16e-01,
1013,-1.16e-01,
1014,-1.08e-01,
1015,1.08e-01,
1016,-1.20e-01,
1017,1.32e-01,
1018,1.20e-01,
1019,-1.20e-01,
1020,1.12e-01,
1021,-1.04e-01,
1022,-1.04e-01,
1023,1.04e-01,
1024,-1.08e-01,
1025,1.28e-01,
1026,1.24e-01,
1027,-1.08e-01,
1028,-1.00e-01,
1029,1.28e-01,
1030,1.28e-01,
1031,-1.08e-01,
1032,-1.04e-01,
1033,1.12e-01,
1034,1.28e-01,
1035,-1.40e-01,
1036,-1.40e-01,
1037,1.40e-01,
1038,1.32e-01,
1039,-1.64e-01,
1040,-1.72e-01,
1041,1.52e-01,
1042,1.56e-01,
1043,-1.80e-01,
1044,1.48e-01,
1045,-2.00e-01,
1046,-1.96e-01,
1047,1.32e-01,
1048,1.40e-01,
1049,-1.36e-01,
1050,1.28e-01,
1051,-1.28e-01,
1052,1.48e-01,
1053,-1.24e-01,
1054,1.44e-01,
1055,-1.28e-01,
1056,-1.16e-01,
1057,1.32e-01,
1058,-1.24e-01,
1059,1.40e-01,
1060,1.36e-01,
1061,-1.24e-01,
1062,1.00e-01,
1063,-1.32e-01,
1064,1.32e-01,
1065,-1.32e-01,
1066,1.28e-01,
1067,-1.24e-01,
1068,1.24e-01,
1069,-1.28e-01,
1070,-1.12e-01,
1071,1.28e-01,
1072,1.16e-01,
1073,-1.24e-01,
1074,6.80e-02,
1075,-1.04e-01,
1076,1.24e-01,
1077,-1.24e-01,
1078,-1.60e-01,
1079,1.52e-01,
1080,1.60e-01,
1081,-1.80e-01,
1082,1.48e-01,
1083,-2.12e-01,
1084,1.64e-01,
1085,-2.00e-01,
1086,1.52e-01,
1087,-1.96e-01,
1088,1.52e-01,
1089,-2.04e-01,
1090,1.36e-01,
1091,-1.08e-01,
1092,1.28e-01,
1093,-1.20e-01,
1094,-1.20e-01,
1095,1.04e-01,
1096,-1.16e-01,
1097,1.04e-01,
1098,-1.20e-01,
1099,1.24e-01,
1100,-1.12e-01,
1101,1.08e-01,
1102,-1.12e-01,
1103,1.24e-01,
1104,1.12e-01,
1105,-1.04e-01,
1106,-1.00e-01,
1107,1.28e-01,
1108,-1.00e-01,
1109,1.20e-01,
1110,1.12e-01,
1111,-1.00e-01,
1112,1.20e-01,
1113,-9.20e-02,
1114,-1.12e-01,
1115,6.80e-02,
1116,7.60e-02,
1117,-1.16e-01,
1118,1.40e-01,
1119,-1.16e-01,
1120,1.32e-01,
1121,-1.48e-01,
1122,-1.56e-01,
1123,1.32e-01,
1124,-1.64e-01,
1125,1.52e-01,
1126,-1.76e-01,
1127,1.60e-01,
1128,-1.88e-01,
1129,1.56e-01,
1130,1.44e-01,
1131,-1.32e-01,
1132,-1.28e-01,
1133,1.44e-01,
1134,1.32e-01,
1135,-1.28e-01,
1136,-1.20e-01,
1137,1.36e-01,
1138,-1.28e-01,
1139,1.40e-01,
1140,1.32e-01,
1141,-1.24e-01,
1142,1.44e-01,
1143,-1.20e-01,
1144,-1.24e-01,
1145,1.32e-01,
1146,1.12e-01,
1147,-1.24e-01,
1148,1.00e-01,
1149,-1.20e-01,
1150,-1.20e-01,
1151,1.12e-01,
1152,1.28e-01,
1153,-1.08e-01,
1154,-1.16e-01,
1155,1.16e-01,
1156,1.04e-01,
1157,-1.12e-01,
1158,1.32e-01,
1159,-1.40e-01,
1160,-1.48e-01,
1161,1.16e-01,
1162,-1.76e-01,
1163,1.64e-01,
1164,-2.08e-01,
1165,1.56e-01,
1166,1.60e-01,
1167,-1.64e-01,
1168,1.56e-01,
1169,-2.00e-01,
1170,1.64e-01,
1171,-2.08e-01,
1172,1.64e-01,
1173,-1.08e-01,
1174,-1.04e-01,
1175,1.20e-01,
1176,1.24e-01,
1177,-9.60e-02,
1178,-1.04e-01,
1179,1.24e-01,
1180,1.20e-01,
1181,-1.12e-01,
1182,1.32e-01,
1183,-1.12e-01,
1184,-1.08e-01,
1185,1.20e-01,
1186,-1.12e-01,
1187,1.20e-01,
1188,-1.00e-01,
1189,9.20e-02,
1190,-1.04e-01,
1191,1.28e-01,
1192,1.16e-01,
1193,-1.12e-01,
1194,-1.04e-01,
1195,6.40e-02,
1196,-1.08e-01,
1197,1.20e-01,
1198,8.00e-02,
1199,-1.08e-01,
