Laptop_1/LAPTOP_CHRGR_1_ON_CLOSE/time domain/NewFile15(1).csv

X,CH1,Start,Increment,
Sequence,Volt,-1.500000e-01,2.000000e-04
0,-7.60e-02,
1,1.68e-01,
2,-8.00e-02,
3,1.64e-01,
4,-7.60e-02,
5,1.64e-01,
6,-5.20e-02,
7,1.56e-01,
8,-3.60e-02,
9,1.52e-01,
10,-3.20e-02,
11,1.60e-01,
12,-3.60e-02,
13,1.52e-01,
14,-3.60e-02,
15,1.60e-01,
16,-3.60e-02,
17,1.60e-01,
18,1.56e-01,
19,-3.60e-02,
20,1.64e-01,
21,-3.60e-02,
22,-3.60e-02,
23,1.60e-01,
24,-3.60e-02,
25,1.64e-01,
26,1.68e-01,
27,-4.00e-02,
28,-4.00e-02,
29,1.68e-01,
30,9.60e-02,
31,-4.00e-02,
32,-4.00e-02,
33,1.64e-01,
34,-4.00e-02,
35,8.40e-02,
36,1.16e-01,
37,-4.00e-02,
38,-4.00e-02,
39,8.40e-02,
40,-6.00e-02,
41,1.76e-01,
42,1.68e-01,
43,-6.00e-02,
44,-7.60e-02,
45,1.72e-01,
46,-7.60e-02,
47,1.68e-01,
48,-5.60e-02,
49,1.68e-01,
50,-3.60e-02,
51,1.56e-01,
52,-3.60e-02,
53,1.52e-01,
54,1.56e-01,
55,-3.60e-02,
56,-3.60e-02,
57,1.24e-01,
58,-3.60e-02,
59,1.52e-01,
60,-3.60e-02,
61,1.48e-01,
62,1.52e-01,
63,-3.60e-02,
64,-3.60e-02,
65,1.48e-01,
66,-4.40e-02,
67,1.44e-01,
68,-5.60e-02,
69,1.44e-01,
70,-3.60e-02,
71,1.00e-01,
72,1.04e-01,
73,-4.80e-02,
74,-4.80e-02,
75,1.52e-01,
76,-4.80e-02,
77,9.20e-02,
78,-4.40e-02,
79,1.12e-01,
80,1.68e-01,
81,-6.80e-02,
82,-6.80e-02,
83,1.64e-01,
84,-7.20e-02,
85,1.68e-01,
86,1.48e-01,
87,-8.40e-02,
88,-8.80e-02,
89,1.68e-01,
90,-3.60e-02,
91,1.52e-01,
92,1.60e-01,
93,-4.00e-02,
94,1.52e-01,
95,-3.60e-02,
96,-4.00e-02,
97,1.52e-01,
98,-3.60e-02,
99,1.56e-01,
100,1.48e-01,
101,-4.00e-02,
102,1.64e-01,
103,-4.00e-02,
104,-4.00e-02,
105,1.60e-01,
106,-4.40e-02,
107,1.64e-01,
108,-4.00e-02,
109,1.68e-01,
110,-4.00e-02,
111,1.16e-01,
112,-4.00e-02,
113,4.40e-02,
114,-4.00e-02,
115,1.28e-01,
116,1.20e-01,
117,-4.00e-02,
118,-4.00e-02,
119,8.40e-02,
120,1.68e-01,
121,-6.00e-02,
122,1.68e-01,
123,-6.00e-02,
124,1.68e-01,
125,-6.00e-02,
126,1.64e-01,
127,-7.20e-02,
128,1.72e-01,
129,-7.20e-02,
130,-7.60e-02,
131,1.64e-01,
132,1.52e-01,
133,-4.00e-02,
134,1.44e-01,
135,-4.00e-02,
136,-3.60e-02,
137,1.52e-01,
138,-3.60e-02,
139,1.48e-01,
140,-3.60e-02,
141,1.52e-01,
142,-3.20e-02,
143,1.48e-01,
144,-3.60e-02,
145,1.48e-01,
146,-3.20e-02,
147,1.52e-01,
148,-4.80e-02,
149,1.40e-01,
150,-4.40e-02,
151,1.28e-01,
152,-3.60e-02,
153,9.20e-02,
154,8.80e-02,
155,-4.80e-02,
156,8.80e-02,
157,-4.40e-02,
158,-4.80e-02,
159,1.60e-01,
160,1.68e-01,
161,-6.40e-02,
162,-5.60e-02,
163,1.64e-01,
164,1.64e-01,
165,-6.40e-02,
166,1.68e-01,
167,-7.20e-02,
168,1.64e-01,
169,-6.80e-02,
170,1.64e-01,
171,-7.20e-02,
172,-7.20e-02,
173,1.56e-01,
174,-3.20e-02,
175,1.44e-01,
176,-3.20e-02,
177,1.44e-01,
178,1.60e-01,
179,-3.20e-02,
180,1.52e-01,
181,-3.60e-02,
182,-4.00e-02,
183,1.56e-01,
184,-4.40e-02,
185,1.52e-01,
186,1.64e-01,
187,-4.40e-02,
188,-4.80e-02,
189,1.64e-01,
190,1.56e-01,
191,-4.00e-02,
192,-4.00e-02,
193,4.00e-02,
194,6.00e-02,
195,-4.00e-02,
196,-4.00e-02,
197,1.00e-01,
198,-4.00e-02,
199,1.48e-01,
200,1.64e-01,
201,-4.00e-02,
202,1.68e-01,
203,-4.80e-02,
204,1.52e-01,
205,-5.60e-02,
206,-5.60e-02,
207,1.68e-01,
208,1.68e-01,
209,-6.80e-02,
210,-8.00e-02,
211,1.68e-01,
212,1.68e-01,
213,-9.20e-02,
214,-6.00e-02,
215,1.68e-01,
216,-4.00e-02,
217,1.48e-01,
218,1.56e-01,
219,-4.00e-02,
220,-3.60e-02,
221,1.48e-01,
222,-3.20e-02,
223,1.48e-01,
224,-3.60e-02,
225,1.52e-01,
226,-3.60e-02,
227,1.44e-01,
228,1.40e-01,
229,-3.60e-02,
230,-3.60e-02,
231,1.44e-01,
232,-3.60e-02,
233,7.60e-02,
234,-3.60e-02,
235,1.48e-01,
236,8.40e-02,
237,-4.00e-02,
238,-4.00e-02,
239,1.56e-01,
240,1.60e-01,
241,-5.60e-02,
242,-6.00e-02,
243,1.36e-01,
244,-6.00e-02,
245,1.52e-01,
246,-6.40e-02,
247,1.68e-01,
248,-6.40e-02,
249,1.68e-01,
250,1.68e-01,
251,-7.20e-02,
252,1.72e-01,
253,-6.40e-02,
254,-6.80e-02,
255,1.68e-01,
256,-4.40e-02,
257,1.64e-01,
258,1.56e-01,
259,-3.60e-02,
260,1.52e-01,
261,-4.00e-02,
262,-3.60e-02,
263,1.52e-01,
264,1.56e-01,
265,-4.40e-02,
266,-4.40e-02,
267,1.60e-01,
268,-4.40e-02,
269,1.64e-01,
270,-4.80e-02,
271,1.52e-01,
272,-4.00e-02,
273,9.20e-02,
274,1.64e-01,
275,-4.00e-02,
276,1.04e-01,
277,-4.00e-02,
278,-4.00e-02,
279,8.00e-02,
280,1.72e-01,
281,-4.00e-02,
282,-4.00e-02,
283,1.64e-01,
284,1.68e-01,
285,-4.80e-02,
286,-4.80e-02,
287,1.64e-01,
288,-4.80e-02,
289,1.68e-01,
290,-6.40e-02,
291,1.60e-01,
292,-6.40e-02,
293,1.68e-01,
294,1.64e-01,
295,-8.40e-02,
296,-8.80e-02,
297,1.68e-01,
298,-6.00e-02,
299,1.52e-01,
300,-3.60e-02,
301,1.44e-01,
302,1.44e-01,
303,-3.60e-02,
304,1.48e-01,
305,-3.60e-02,
306,1.48e-01,
307,-3.60e-02,
308,-4.00e-02,
309,1.32e-01,
310,1.36e-01,
311,-4.00e-02,
312,-3.60e-02,
313,1.04e-01,
314,-4.00e-02,
315,1.36e-01,
316,-4.00e-02,
317,1.24e-01,
318,-3.60e-02,
319,1.36e-01,
320,-4.00e-02,
321,1.52e-01,
322,1.56e-01,
323,-4.00e-02,
324,1.60e-01,
325,-5.60e-02,
326,1.28e-01,
327,-5.60e-02,
328,1.68e-01,
329,-6.00e-02,
330,1.72e-01,
331,-6.40e-02,
332,1.64e-01,
333,-6.40e-02,
334,1.64e-01,
335,-6.80e-02,
336,1.72e-01,
337,-6.40e-02,
338,-6.40e-02,
339,1.52e-01,
340,-4.00e-02,
341,1.64e-01,
342,1.60e-01,
343,-4.00e-02,
344,1.60e-01,
345,-4.40e-02,
346,-4.00e-02,
347,1.60e-01,
348,1.60e-01,
349,-4.00e-02,
350,1.56e-01,
351,-4.80e-02,
352,-4.40e-02,
353,1.56e-01,
354,-4.00e-02,
355,3.60e-02,
356,-4.00e-02,
357,6.00e-02,
358,-3.60e-02,
359,1.32e-01,
360,1.64e-01,
361,-4.00e-02,
362,-3.60e-02,
363,1.60e-01,
364,-3.60e-02,
365,1.64e-01,
366,-4.00e-02,
367,1.64e-01,
368,1.60e-01,
369,-4.80e-02,
370,1.68e-01,
371,-6.40e-02,
372,-7.20e-02,
373,1.64e-01,
374,1.68e-01,
375,-6.80e-02,
376,-6.80e-02,
377,1.64e-01,
378,1.60e-01,
379,-8.80e-02,
380,1.60e-01,
381,-9.60e-02,
382,1.48e-01,
383,-4.80e-02,
384,1.48e-01,
385,-3.60e-02,
386,1.40e-01,
387,-3.60e-02,
388,-3.60e-02,
389,1.40e-01,
390,1.40e-01,
391,-3.60e-02,
392,1.16e-01,
393,-3.60e-02,
394,-3.60e-02,
395,9.60e-02,
396,6.40e-02,
397,-3.60e-02,
398,-4.00e-02,
399,1.20e-01,
400,1.28e-01,
401,-4.00e-02,
402,-3.60e-02,
403,1.56e-01,
404,-4.00e-02,
405,1.64e-01,
406,-3.60e-02,
407,1.64e-01,
408,-4.00e-02,
409,1.36e-01,
410,-4.80e-02,
411,1.64e-01,
412,-4.80e-02,
413,1.64e-01,
414,-4.80e-02,
415,1.76e-01,
416,1.68e-01,
417,-6.40e-02,
418,-6.00e-02,
419,1.76e-01,
420,-6.40e-02,
421,1.64e-01,
422,-6.40e-02,
423,1.60e-01,
424,1.64e-01,
425,-3.60e-02,
426,1.64e-01,
427,-4.40e-02,
428,1.36e-01,
429,-4.00e-02,
430,1.60e-01,
431,-3.60e-02,
432,-3.60e-02,
433,6.80e-02,
434,4.80e-02,
435,-4.00e-02,
436,-3.60e-02,
437,1.36e-01,
438,-3.60e-02,
439,1.32e-01,
440,-3.60e-02,
441,1.64e-01,
442,-4.00e-02,
443,1.60e-01,
444,-3.60e-02,
445,1.68e-01,
446,-3.60e-02,
447,1.64e-01,
448,-3.60e-02,
449,1.64e-01,
450,1.64e-01,
451,-4.40e-02,
452,1.60e-01,
453,-6.00e-02,
454,1.60e-01,
455,-7.20e-02,
456,-7.60e-02,
457,1.60e-01,
458,1.52e-01,
459,-8.00e-02,
460,-9.20e-02,
461,1.56e-01,
462,-1.00e-01,
463,1.64e-01,
464,1.60e-01,
465,-6.80e-02,
466,1.36e-01,
467,-4.00e-02,
468,1.40e-01,
469,-4.00e-02,
470,1.04e-01,
471,-3.20e-02,
472,-3.60e-02,
473,9.20e-02,
474,-3.20e-02,
475,1.40e-01,
476,-3.60e-02,
477,1.48e-01,
478,1.36e-01,
479,-4.00e-02,
480,-3.60e-02,
481,1.32e-01,
482,1.60e-01,
483,-3.60e-02,
484,1.56e-01,
485,-4.00e-02,
486,1.24e-01,
487,-4.00e-02,
488,-3.60e-02,
489,1.60e-01,
490,1.56e-01,
491,-4.00e-02,
492,1.68e-01,
493,-4.00e-02,
494,-4.00e-02,
495,1.60e-01,
496,1.48e-01,
497,-5.20e-02,
498,-5.20e-02,
499,1.40e-01,
500,1.64e-01,
501,-5.20e-02,
502,-5.60e-02,
503,1.68e-01,
504,1.76e-01,
505,-6.00e-02,
506,-6.40e-02,
507,1.68e-01,
508,-3.60e-02,
509,1.36e-01,
510,-3.60e-02,
511,8.80e-02,
512,1.04e-01,
513,-4.40e-02,
514,1.00e-01,
515,-3.60e-02,
516,-3.60e-02,
517,1.60e-01,
518,-3.60e-02,
519,1.04e-01,
520,-4.00e-02,
521,1.32e-01,
522,-3.60e-02,
523,1.52e-01,
524,-4.00e-02,
525,1.60e-01,
526,-4.00e-02,
527,1.48e-01,
528,-3.60e-02,
529,1.44e-01,
530,1.36e-01,
531,-3.60e-02,
532,-4.80e-02,
533,1.52e-01,
534,1.60e-01,
535,-6.40e-02,
536,1.32e-01,
537,-5.60e-02,
538,-6.40e-02,
539,1.60e-01,
540,1.64e-01,
541,-7.60e-02,
542,-8.40e-02,
543,1.56e-01,
544,-1.00e-01,
545,1.64e-01,
546,1.68e-01,
547,-9.60e-02,
548,-6.80e-02,
549,1.12e-01,
550,-3.60e-02,
551,1.20e-01,
552,-3.60e-02,
553,1.32e-01,
554,-3.60e-02,
555,1.32e-01,
556,-3.60e-02,
557,1.52e-01,
558,-3.60e-02,
559,1.28e-01,
560,-3.60e-02,
561,1.60e-01,
562,-3.60e-02,
563,1.52e-01,
564,-3.60e-02,
565,1.60e-01,
566,-3.60e-02,
567,1.56e-01,
568,-3.60e-02,
569,1.56e-01,
570,-4.40e-02,
571,1.64e-01,
572,1.60e-01,
573,-3.60e-02,
574,-4.00e-02,
575,1.68e-01,
576,1.68e-01,
577,-3.60e-02,
578,1.64e-01,
579,-3.60e-02,
580,1.72e-01,
581,-4.00e-02,
582,1.64e-01,
583,-5.20e-02,
584,1.56e-01,
585,-5.60e-02,
586,1.68e-01,
587,-6.00e-02,
588,-6.00e-02,
589,1.52e-01,
590,-4.00e-02,
591,1.60e-01,
592,6.00e-02,
593,-4.00e-02,
594,-3.60e-02,
595,1.00e-01,
596,-3.60e-02,
597,4.00e-02,
598,-3.60e-02,
599,1.52e-01,
600,-3.60e-02,
601,1.60e-01,
602,1.44e-01,
603,-3.60e-02,
604,1.60e-01,
605,-3.60e-02,
606,-4.00e-02,
607,1.56e-01,
608,-4.00e-02,
609,1.52e-01,
610,-3.60e-02,
611,1.36e-01,
612,-3.60e-02,
613,1.56e-01,
614,-4.80e-02,
615,1.56e-01,
616,1.64e-01,
617,-6.40e-02,
618,1.60e-01,
619,-5.20e-02,
620,-6.40e-02,
621,1.60e-01,
622,-6.00e-02,
623,1.64e-01,
624,1.64e-01,
625,-7.60e-02,
626,1.60e-01,
627,-9.20e-02,
628,1.52e-01,
629,-8.40e-02,
630,-4.00e-02,
631,1.64e-01,
632,1.12e-01,
633,-5.60e-02,
634,-3.60e-02,
635,1.44e-01,
636,1.48e-01,
637,-4.40e-02,
638,-3.60e-02,
639,1.48e-01,
640,1.28e-01,
641,-4.00e-02,
642,1.52e-01,
643,-3.60e-02,
644,-3.60e-02,
645,1.60e-01,
646,-4.40e-02,
647,1.60e-01,
648,-3.60e-02,
649,1.44e-01,
650,-4.00e-02,
651,1.60e-01,
652,1.60e-01,
653,-4.00e-02,
654,1.64e-01,
655,-4.00e-02,
656,-3.60e-02,
657,1.68e-01,
658,1.64e-01,
659,-4.00e-02,
660,1.72e-01,
661,-4.00e-02,
662,-3.60e-02,
663,1.72e-01,
664,1.64e-01,
665,-4.00e-02,
666,-4.00e-02,
667,1.64e-01,
668,9.20e-02,
669,-5.20e-02,
670,1.76e-01,
671,-4.40e-02,
672,-4.40e-02,
673,1.64e-01,
674,-3.60e-02,
675,1.60e-01,
676,-3.60e-02,
677,5.60e-02,
678,-3.60e-02,
679,1.56e-01,
680,-3.60e-02,
681,1.36e-01,
682,-3.60e-02,
683,1.56e-01,
684,-3.60e-02,
685,1.60e-01,
686,-3.60e-02,
687,1.44e-01,
688,1.32e-01,
689,-3.60e-02,
690,-4.00e-02,
691,1.56e-01,
692,1.60e-01,
693,-3.60e-02,
694,-3.60e-02,
695,1.60e-01,
696,-3.60e-02,
697,1.60e-01,
698,-3.20e-02,
699,1.52e-01,
700,-5.20e-02,
701,1.48e-01,
702,1.52e-01,
703,-6.40e-02,
704,1.52e-01,
705,-6.80e-02,
706,-5.60e-02,
707,1.48e-01,
708,-4.00e-02,
709,1.44e-01,
710,-4.00e-02,
711,1.48e-01,
712,1.52e-01,
713,-4.40e-02,
714,1.44e-01,
715,-5.20e-02,
716,-4.00e-02,
717,8.40e-02,
718,-4.00e-02,
719,1.28e-01,
720,-3.60e-02,
721,1.48e-01,
722,1.36e-01,
723,-3.20e-02,
724,1.48e-01,
725,-3.20e-02,
726,1.20e-01,
727,-3.60e-02,
728,-3.20e-02,
729,1.56e-01,
730,-3.60e-02,
731,1.48e-01,
732,1.56e-01,
733,-3.60e-02,
734,-3.20e-02,
735,1.40e-01,
736,-3.60e-02,
737,1.64e-01,
738,1.60e-01,
739,-3.60e-02,
740,1.64e-01,
741,-4.00e-02,
742,1.64e-01,
743,-4.00e-02,
744,-3.60e-02,
745,1.72e-01,
746,1.28e-01,
747,-4.00e-02,
748,1.00e-01,
749,-4.00e-02,
750,8.80e-02,
751,-4.00e-02,
752,-5.20e-02,
753,1.08e-01,
754,-4.00e-02,
755,7.20e-02,
756,-3.60e-02,
757,7.60e-02,
758,-4.00e-02,
759,1.48e-01,
760,-3.60e-02,
761,1.48e-01,
762,-3.60e-02,
763,1.60e-01,
764,1.48e-01,
765,-4.00e-02,
766,-3.60e-02,
767,1.48e-01,
768,-3.60e-02,
769,1.56e-01,
770,-3.60e-02,
771,1.48e-01,
772,-3.60e-02,
773,1.60e-01,
774,1.56e-01,
775,-3.60e-02,
776,-3.60e-02,
777,1.60e-01,
778,-3.60e-02,
779,1.60e-01,
780,1.48e-01,
781,-4.80e-02,
782,1.56e-01,
783,-5.60e-02,
784,1.56e-01,
785,-7.20e-02,
786,1.56e-01,
787,-6.40e-02,
788,-4.00e-02,
789,1.12e-01,
790,-5.20e-02,
791,1.20e-01,
792,-4.80e-02,
793,1.56e-01,
794,1.40e-01,
795,-4.40e-02,
796,1.40e-01,
797,-4.40e-02,
798,1.12e-01,
799,-4.80e-02,
800,1.52e-01,
801,-3.20e-02,
802,1.52e-01,
803,-3.20e-02,
804,-3.20e-02,
805,1.20e-01,
806,-3.20e-02,
807,1.44e-01,
808,-3.60e-02,
809,1.52e-01,
810,-3.60e-02,
811,1.48e-01,
812,-3.20e-02,
813,1.52e-01,
814,1.60e-01,
815,-3.60e-02,
816,1.60e-01,
817,-3.60e-02,
818,-3.60e-02,
819,1.56e-01,
820,1.64e-01,
821,-3.60e-02,
822,-3.60e-02,
823,1.64e-01,
824,1.64e-01,
825,-4.00e-02,
826,-3.60e-02,
827,1.28e-01,
828,7.60e-02,
829,-4.00e-02,
830,-3.60e-02,
831,8.80e-02,
832,-3.60e-02,
833,9.20e-02,
834,-3.60e-02,
835,1.56e-01,
836,-3.60e-02,
837,8.80e-02,
838,-3.60e-02,
839,1.68e-01,
840,-3.60e-02,
841,1.64e-01,
842,1.56e-01,
843,-3.60e-02,
844,-2.80e-02,
845,1.56e-01,
846,1.40e-01,
847,-3.20e-02,
848,-2.80e-02,
849,1.40e-01,
850,-2.80e-02,
851,1.44e-01,
852,-3.20e-02,
853,1.44e-01,
854,-3.20e-02,
855,1.48e-01,
856,-3.20e-02,
857,1.48e-01,
858,-3.60e-02,
859,1.32e-01,
860,-3.20e-02,
861,1.28e-01,
862,-3.20e-02,
863,1.48e-01,
864,1.52e-01,
865,-5.60e-02,
866,-3.60e-02,
867,1.20e-01,
868,1.32e-01,
869,-4.80e-02,
870,-5.20e-02,
871,1.04e-01,
872,1.04e-01,
873,-4.40e-02,
874,1.12e-01,
875,-6.00e-02,
876,-4.80e-02,
877,1.40e-01,
878,1.52e-01,
879,-6.80e-02,
880,-6.40e-02,
881,1.16e-01,
882,1.52e-01,
883,-3.60e-02,
884,1.44e-01,
885,-3.20e-02,
886,1.56e-01,
887,-3.20e-02,
888,1.56e-01,
889,-3.60e-02,
890,-3.20e-02,
891,1.52e-01,
892,1.40e-01,
893,-3.60e-02,
894,-3.60e-02,
895,1.60e-01,
896,-3.20e-02,
897,1.56e-01,
898,9.60e-02,
899,-3.60e-02,
900,1.44e-01,
901,-3.60e-02,
902,1.28e-01,
903,-3.60e-02,
904,1.68e-01,
905,-4.00e-02,
906,-3.60e-02,
907,1.56e-01,
908,-4.00e-02,
909,1.00e-01,
910,-3.60e-02,
911,7.60e-02,
912,-3.60e-02,
913,7.60e-02,
914,1.56e-01,
915,-3.60e-02,
916,-3.60e-02,
917,8.40e-02,
918,-3.20e-02,
919,1.56e-01,
920,-3.60e-02,
921,1.68e-01,
922,1.68e-01,
923,-4.00e-02,
924,-3.20e-02,
925,1.52e-01,
926,-3.20e-02,
927,1.52e-01,
928,1.48e-01,
929,-3.60e-02,
930,-3.60e-02,
931,1.56e-01,
932,-3.20e-02,
933,1.52e-01,
934,1.44e-01,
935,-3.20e-02,
936,-3.20e-02,
937,1.52e-01,
938,-3.20e-02,
939,1.48e-01,
940,-2.80e-02,
941,1.44e-01,
942,1.52e-01,
943,-3.20e-02,
944,-3.20e-02,
945,1.24e-01,
946,1.04e-01,
947,-3.20e-02,
948,-4.40e-02,
949,1.00e-01,
950,-6.00e-02,
951,1.12e-01,
952,1.16e-01,
953,-5.20e-02,
954,1.04e-01,
955,-4.80e-02,
956,1.64e-01,
957,-5.60e-02,
958,1.40e-01,
959,-6.40e-02,
960,-6.40e-02,
961,1.56e-01,
962,-7.20e-02,
963,1.64e-01,
964,-7.20e-02,
965,1.72e-01,
966,-3.60e-02,
967,1.36e-01,
968,1.56e-01,
969,-3.60e-02,
970,-3.20e-02,
971,1.48e-01,
972,-3.20e-02,
973,1.52e-01,
974,-3.20e-02,
975,1.44e-01,
976,1.56e-01,
977,-3.20e-02,
978,1.56e-01,
979,-3.20e-02,
980,-3.20e-02,
981,1.56e-01,
982,-3.20e-02,
983,1.52e-01,
984,1.52e-01,
985,-3.60e-02,
986,-3.20e-02,
987,1.16e-01,
988,1.44e-01,
989,-3.60e-02,
990,1.20e-01,
991,-3.60e-02,
992,1.68e-01,
993,-4.40e-02,
994,-3.20e-02,
995,7.60e-02,
996,-3.20e-02,
997,1.56e-01,
998,-3.60e-02,
999,1.52e-01,
1000,1.72e-01,
1001,-4.00e-02,
1002,-3.60e-02,
1003,1.64e-01,
1004,-3.60e-02,
1005,1.64e-01,
1006,-3.60e-02,
1007,1.60e-01,
1008,-3.20e-02,
1009,1.56e-01,
1010,-3.20e-02,
1011,1.44e-01,
1012,-3.20e-02,
1013,1.40e-01,
1014,1.40e-01,
1015,-3.20e-02,
1016,-2.80e-02,
1017,1.36e-01,
1018,-3.20e-02,
1019,1.44e-01,
1020,-2.80e-02,
1021,1.48e-01,
1022,-3.20e-02,
1023,1.48e-01,
1024,-3.20e-02,
1025,1.52e-01,
1026,1.32e-01,
1027,-3.60e-02,
1028,-3.20e-02,
1029,1.28e-01,
1030,-3.60e-02,
1031,1.04e-01,
1032,1.44e-01,
1033,-3.60e-02,
1034,1.32e-01,
1035,-4.00e-02,
1036,1.56e-01,
1037,-5.20e-02,
1038,-7.20e-02,
1039,1.64e-01,
1040,-6.80e-02,
1041,1.56e-01,
1042,1.68e-01,
1043,-8.00e-02,
1044,1.68e-01,
1045,-8.40e-02,
1046,-8.40e-02,
1047,1.72e-01,
1048,-5.60e-02,
1049,1.68e-01,
1050,-4.00e-02,
1051,1.44e-01,
1052,-3.60e-02,
1053,1.48e-01,
1054,-3.60e-02,
1055,1.56e-01,
1056,1.52e-01,
1057,-3.60e-02,
1058,-3.60e-02,
1059,1.64e-01,
1060,1.64e-01,
1061,-3.60e-02,
1062,-3.60e-02,
1063,1.24e-01,
1064,-3.60e-02,
1065,1.64e-01,
1066,1.60e-01,
1067,-4.00e-02,
1068,-4.00e-02,
1069,1.68e-01,
1070,1.60e-01,
1071,-4.00e-02,
1072,1.12e-01,
1073,-4.00e-02,
1074,-4.00e-02,
1075,1.48e-01,
1076,-4.00e-02,
1077,8.00e-02,
1078,-4.00e-02,
1079,1.64e-01,
1080,1.68e-01,
1081,-4.00e-02,
1082,1.68e-01,
1083,-4.00e-02,
1084,-3.60e-02,
1085,1.56e-01,
1086,1.72e-01,
1087,-5.20e-02,
1088,-4.80e-02,
1089,1.64e-01,
1090,-3.60e-02,
1091,1.48e-01,
1092,-3.60e-02,
1093,1.60e-01,
1094,-3.60e-02,
1095,1.48e-01,
1096,-3.60e-02,
1097,1.48e-01,
1098,-3.20e-02,
1099,1.24e-01,
1100,-3.60e-02,
1101,1.52e-01,
1102,1.48e-01,
1103,-3.60e-02,
1104,-3.60e-02,
1105,1.48e-01,
1106,1.32e-01,
1107,-3.60e-02,
1108,-3.20e-02,
1109,1.44e-01,
1110,1.16e-01,
1111,-3.20e-02,
1112,-3.20e-02,
1113,6.40e-02,
1114,-3.60e-02,
1115,1.04e-01,
1116,-5.20e-02,
1117,1.04e-01,
1118,-4.80e-02,
1119,1.56e-01,
1120,-6.40e-02,
1121,1.56e-01,
1122,1.60e-01,
1123,-6.40e-02,
1124,-6.40e-02,
1125,1.60e-01,
1126,1.68e-01,
1127,-7.60e-02,
1128,-7.60e-02,
1129,1.68e-01,
1130,-6.80e-02,
1131,1.68e-01,
1132,-4.00e-02,
1133,1.44e-01,
1134,-3.60e-02,
1135,1.44e-01,
1136,-3.60e-02,
1137,1.52e-01,
1138,-3.60e-02,
1139,1.40e-01,
1140,1.44e-01,
1141,-3.60e-02,
1142,-3.20e-02,
1143,1.56e-01,
1144,1.40e-01,
1145,-3.60e-02,
1146,-3.60e-02,
1147,1.48e-01,
1148,1.52e-01,
1149,-3.60e-02,
1150,1.28e-01,
1151,-4.00e-02,
1152,-3.20e-02,
1153,9.60e-02,
1154,1.36e-01,
1155,-4.00e-02,
1156,-3.20e-02,
1157,8.40e-02,
1158,-3.20e-02,
1159,1.64e-01,
1160,1.64e-01,
1161,-3.20e-02,
1162,1.68e-01,
1163,-3.20e-02,
1164,-2.80e-02,
1165,1.56e-01,
1166,1.68e-01,
1167,-3.20e-02,
1168,-3.20e-02,
1169,1.68e-01,
1170,1.68e-01,
1171,-3.20e-02,
1172,-3.60e-02,
1173,1.52e-01,
1174,-2.80e-02,
1175,1.48e-01,
1176,1.40e-01,
1177,-2.80e-02,
1178,-2.80e-02,
1179,1.44e-01,
1180,-3.20e-02,
1181,1.44e-01,
1182,-3.20e-02,
1183,1.32e-01,
1184,-2.80e-02,
1185,1.36e-01,
1186,8.00e-02,
1187,-3.20e-02,
1188,-3.60e-02,
1189,6.00e-02,
1190,-3.60e-02,
1191,3.20e-02,
1192,-3.60e-02,
1193,1.24e-01,
1194,-4.40e-02,
1195,1.44e-01,
1196,1.56e-01,
1197,-5.60e-02,
1198,1.48e-01,
1199,-4.40e-02,
