Laptop_1/LAPTOP_CHRGR_1_ON_CLOSE/time domain/NewFile25.csv

X,CH1,Start,Increment,
Sequence,Volt,-1.500000e-01,2.000000e-04
0,-2.80e-02,
1,1.44e-01,
2,-2.40e-02,
3,1.36e-01,
4,-2.40e-02,
5,1.32e-01,
6,1.36e-01,
7,-2.80e-02,
8,1.44e-01,
9,-2.80e-02,
10,1.36e-01,
11,-2.80e-02,
12,-2.80e-02,
13,1.40e-01,
14,-2.40e-02,
15,1.20e-01,
16,1.20e-01,
17,-2.80e-02,
18,1.28e-01,
19,-2.80e-02,
20,1.24e-01,
21,-2.80e-02,
22,1.28e-01,
23,-3.20e-02,
24,-2.80e-02,
25,1.24e-01,
26,1.20e-01,
27,-2.80e-02,
28,-2.80e-02,
29,1.24e-01,
30,1.32e-01,
31,-2.80e-02,
32,-3.20e-02,
33,1.12e-01,
34,1.20e-01,
35,-3.60e-02,
36,-2.40e-02,
37,1.32e-01,
38,1.24e-01,
39,-3.20e-02,
40,-4.40e-02,
41,1.40e-01,
42,-4.00e-02,
43,1.48e-01,
44,-3.60e-02,
45,1.44e-01,
46,1.36e-01,
47,-3.20e-02,
48,1.40e-01,
49,-3.20e-02,
50,-2.40e-02,
51,1.56e-01,
52,-2.80e-02,
53,1.40e-01,
54,1.64e-01,
55,-3.20e-02,
56,-3.20e-02,
57,1.48e-01,
58,-2.80e-02,
59,1.36e-01,
60,-3.20e-02,
61,1.40e-01,
62,-2.80e-02,
63,1.44e-01,
64,-2.80e-02,
65,1.20e-01,
66,1.32e-01,
67,-2.80e-02,
68,-2.80e-02,
69,1.16e-01,
70,1.04e-01,
71,-2.80e-02,
72,-2.80e-02,
73,8.40e-02,
74,-2.80e-02,
75,1.08e-01,
76,1.16e-01,
77,-3.20e-02,
78,-2.80e-02,
79,1.20e-01,
80,1.44e-01,
81,-3.20e-02,
82,-3.20e-02,
83,1.40e-01,
84,-2.80e-02,
85,1.44e-01,
86,-3.20e-02,
87,1.28e-01,
88,1.48e-01,
89,-2.40e-02,
90,1.40e-01,
91,-2.80e-02,
92,-2.80e-02,
93,1.52e-01,
94,-2.40e-02,
95,1.24e-01,
96,1.52e-01,
97,-3.20e-02,
98,1.36e-01,
99,-2.80e-02,
100,1.24e-01,
101,-2.80e-02,
102,-2.80e-02,
103,1.28e-01,
104,-2.40e-02,
105,1.20e-01,
106,1.04e-01,
107,-3.20e-02,
108,1.08e-01,
109,-3.20e-02,
110,-3.60e-02,
111,1.00e-01,
112,-2.40e-02,
113,1.24e-01,
114,1.20e-01,
115,-3.20e-02,
116,-3.20e-02,
117,1.40e-01,
118,-2.40e-02,
119,1.32e-01,
120,1.36e-01,
121,-3.60e-02,
122,-4.00e-02,
123,1.44e-01,
124,1.48e-01,
125,-4.40e-02,
126,-3.60e-02,
127,1.52e-01,
128,1.44e-01,
129,-3.20e-02,
130,-2.40e-02,
131,1.40e-01,
132,-2.80e-02,
133,1.60e-01,
134,1.64e-01,
135,-2.80e-02,
136,-2.80e-02,
137,1.60e-01,
138,-2.80e-02,
139,1.64e-01,
140,-2.80e-02,
141,1.56e-01,
142,1.28e-01,
143,-2.80e-02,
144,1.36e-01,
145,-2.80e-02,
146,1.20e-01,
147,-2.40e-02,
148,-2.40e-02,
149,1.20e-01,
150,1.24e-01,
151,-2.40e-02,
152,1.24e-01,
153,-2.40e-02,
154,1.28e-01,
155,-2.80e-02,
156,-2.80e-02,
157,7.60e-02,
158,-2.40e-02,
159,1.32e-01,
160,1.20e-01,
161,-2.80e-02,
162,1.24e-01,
163,-2.80e-02,
164,1.28e-01,
165,-2.40e-02,
166,-2.80e-02,
167,1.24e-01,
168,1.24e-01,
169,-2.80e-02,
170,-2.80e-02,
171,1.28e-01,
172,1.28e-01,
173,-2.40e-02,
174,-2.40e-02,
175,1.36e-01,
176,-2.40e-02,
177,1.40e-01,
178,-2.80e-02,
179,1.16e-01,
180,-2.40e-02,
181,1.44e-01,
182,1.28e-01,
183,-2.80e-02,
184,1.16e-01,
185,-3.20e-02,
186,-2.40e-02,
187,1.24e-01,
188,-3.60e-02,
189,1.28e-01,
190,-2.80e-02,
191,1.32e-01,
192,-3.20e-02,
193,1.24e-01,
194,-3.60e-02,
195,1.12e-01,
196,1.16e-01,
197,-2.40e-02,
198,-2.40e-02,
199,1.00e-01,
200,-4.80e-02,
201,1.32e-01,
202,-4.40e-02,
203,1.44e-01,
204,1.48e-01,
205,-4.40e-02,
206,1.40e-01,
207,-3.20e-02,
208,1.44e-01,
209,-3.60e-02,
210,-2.80e-02,
211,1.48e-01,
212,1.24e-01,
213,-2.80e-02,
214,-2.80e-02,
215,1.52e-01,
216,1.68e-01,
217,-3.20e-02,
218,1.60e-01,
219,-3.20e-02,
220,1.56e-01,
221,-3.20e-02,
222,-3.20e-02,
223,1.52e-01,
224,-2.40e-02,
225,1.44e-01,
226,1.36e-01,
227,-2.80e-02,
228,-2.40e-02,
229,1.24e-01,
230,1.16e-01,
231,-2.40e-02,
232,-2.80e-02,
233,1.24e-01,
234,-2.40e-02,
235,1.20e-01,
236,1.28e-01,
237,-2.80e-02,
238,-2.40e-02,
239,1.28e-01,
240,-2.40e-02,
241,1.24e-01,
242,-2.40e-02,
243,1.32e-01,
244,-2.40e-02,
245,1.24e-01,
246,-2.40e-02,
247,1.36e-01,
248,1.24e-01,
249,-2.80e-02,
250,-2.40e-02,
251,1.48e-01,
252,-3.20e-02,
253,1.36e-01,
254,-2.80e-02,
255,1.36e-01,
256,-2.80e-02,
257,1.36e-01,
258,-2.40e-02,
259,1.48e-01,
260,-2.80e-02,
261,1.44e-01,
262,-3.20e-02,
263,1.48e-01,
264,-2.40e-02,
265,1.44e-01,
266,-3.20e-02,
267,1.16e-01,
268,7.60e-02,
269,-3.20e-02,
270,1.12e-01,
271,-4.00e-02,
272,1.24e-01,
273,-3.60e-02,
274,1.20e-01,
275,-3.20e-02,
276,-4.00e-02,
277,1.24e-01,
278,1.04e-01,
279,-3.60e-02,
280,1.36e-01,
281,-4.40e-02,
282,1.24e-01,
283,-4.40e-02,
284,1.28e-01,
285,-4.40e-02,
286,1.48e-01,
287,-4.40e-02,
288,-3.60e-02,
289,1.40e-01,
290,-2.80e-02,
291,1.52e-01,
292,1.52e-01,
293,-3.20e-02,
294,-2.80e-02,
295,1.56e-01,
296,1.56e-01,
297,-3.20e-02,
298,1.24e-01,
299,-3.60e-02,
300,-3.20e-02,
301,1.56e-01,
302,-3.20e-02,
303,1.56e-01,
304,1.60e-01,
305,-3.60e-02,
306,-3.60e-02,
307,1.56e-01,
308,-2.40e-02,
309,1.24e-01,
310,-2.40e-02,
311,1.00e-01,
312,-2.80e-02,
313,1.28e-01,
314,-2.80e-02,
315,1.16e-01,
316,-2.80e-02,
317,1.20e-01,
318,-2.40e-02,
319,1.32e-01,
320,-2.80e-02,
321,1.20e-01,
322,-2.80e-02,
323,1.20e-01,
324,-2.40e-02,
325,1.20e-01,
326,1.20e-01,
327,-2.80e-02,
328,-2.40e-02,
329,1.28e-01,
330,1.20e-01,
331,-2.40e-02,
332,-2.80e-02,
333,1.36e-01,
334,-2.40e-02,
335,1.36e-01,
336,1.48e-01,
337,-2.80e-02,
338,1.48e-01,
339,-2.80e-02,
340,1.52e-01,
341,-2.80e-02,
342,-2.80e-02,
343,1.56e-01,
344,1.48e-01,
345,-2.80e-02,
346,1.28e-01,
347,-2.80e-02,
348,1.28e-01,
349,-2.80e-02,
350,1.40e-01,
351,-3.60e-02,
352,1.16e-01,
353,-3.60e-02,
354,-3.20e-02,
355,1.12e-01,
356,1.32e-01,
357,-3.60e-02,
358,-2.80e-02,
359,1.32e-01,
360,1.24e-01,
361,-4.80e-02,
362,1.36e-01,
363,-4.40e-02,
364,1.20e-01,
365,-4.40e-02,
366,-3.20e-02,
367,1.40e-01,
368,-4.00e-02,
369,1.52e-01,
370,-3.20e-02,
371,1.40e-01,
372,-2.80e-02,
373,1.44e-01,
374,-2.80e-02,
375,1.56e-01,
376,1.56e-01,
377,-3.20e-02,
378,1.64e-01,
379,-3.20e-02,
380,1.56e-01,
381,-2.80e-02,
382,-2.80e-02,
383,1.64e-01,
384,-2.80e-02,
385,1.64e-01,
386,-2.80e-02,
387,1.52e-01,
388,1.28e-01,
389,-3.20e-02,
390,-2.80e-02,
391,8.00e-02,
392,-2.40e-02,
393,1.32e-01,
394,-2.80e-02,
395,9.60e-02,
396,1.16e-01,
397,-2.80e-02,
398,-2.80e-02,
399,1.28e-01,
400,1.12e-01,
401,-2.80e-02,
402,-2.40e-02,
403,1.12e-01,
404,1.20e-01,
405,-3.20e-02,
406,-2.40e-02,
407,1.20e-01,
408,-2.80e-02,
409,1.28e-01,
410,1.24e-01,
411,-2.80e-02,
412,-2.40e-02,
413,1.36e-01,
414,1.44e-01,
415,-2.80e-02,
416,-2.80e-02,
417,1.36e-01,
418,-2.80e-02,
419,1.16e-01,
420,-2.40e-02,
421,1.28e-01,
422,-2.80e-02,
423,1.44e-01,
424,-2.40e-02,
425,1.44e-01,
426,-2.80e-02,
427,1.24e-01,
428,1.48e-01,
429,-2.80e-02,
430,-2.40e-02,
431,1.16e-01,
432,-2.80e-02,
433,1.24e-01,
434,-3.20e-02,
435,1.28e-01,
436,1.00e-01,
437,-3.60e-02,
438,-4.00e-02,
439,1.28e-01,
440,-4.80e-02,
441,1.36e-01,
442,-5.20e-02,
443,1.28e-01,
444,1.36e-01,
445,-4.80e-02,
446,1.20e-01,
447,-4.40e-02,
448,-4.80e-02,
449,1.40e-01,
450,-3.20e-02,
451,1.40e-01,
452,-3.20e-02,
453,1.48e-01,
454,-2.80e-02,
455,1.56e-01,
456,1.52e-01,
457,-2.80e-02,
458,-3.20e-02,
459,1.44e-01,
460,-2.80e-02,
461,1.52e-01,
462,-2.80e-02,
463,1.56e-01,
464,-2.80e-02,
465,1.60e-01,
466,-2.80e-02,
467,1.60e-01,
468,-2.80e-02,
469,1.12e-01,
470,-2.80e-02,
471,1.08e-01,
472,-3.20e-02,
473,1.16e-01,
474,-2.80e-02,
475,1.24e-01,
476,-2.80e-02,
477,8.00e-02,
478,-2.40e-02,
479,1.16e-01,
480,-2.40e-02,
481,1.16e-01,
482,-2.80e-02,
483,1.16e-01,
484,-2.40e-02,
485,1.12e-01,
486,-2.80e-02,
487,1.08e-01,
488,1.20e-01,
489,-2.80e-02,
490,-2.80e-02,
491,1.20e-01,
492,-2.40e-02,
493,1.16e-01,
494,1.16e-01,
495,-2.80e-02,
496,-2.40e-02,
497,1.20e-01,
498,1.36e-01,
499,-2.80e-02,
500,-2.40e-02,
501,1.32e-01,
502,-2.40e-02,
503,1.36e-01,
504,-2.40e-02,
505,1.40e-01,
506,8.80e-02,
507,-2.40e-02,
508,-2.40e-02,
509,1.44e-01,
510,-2.40e-02,
511,1.24e-01,
512,1.44e-01,
513,-2.40e-02,
514,-2.40e-02,
515,1.44e-01,
516,-2.80e-02,
517,1.28e-01,
518,1.36e-01,
519,-4.40e-02,
520,-4.80e-02,
521,1.36e-01,
522,-4.80e-02,
523,1.32e-01,
524,-4.40e-02,
525,1.28e-01,
526,-4.40e-02,
527,1.28e-01,
528,1.24e-01,
529,-4.00e-02,
530,-3.20e-02,
531,1.40e-01,
532,-3.20e-02,
533,1.52e-01,
534,1.40e-01,
535,-3.20e-02,
536,-3.20e-02,
537,1.60e-01,
538,-2.80e-02,
539,1.56e-01,
540,-2.80e-02,
541,1.60e-01,
542,-2.80e-02,
543,1.52e-01,
544,-3.20e-02,
545,1.52e-01,
546,-2.80e-02,
547,1.52e-01,
548,-2.80e-02,
549,1.56e-01,
550,6.80e-02,
551,-3.20e-02,
552,8.00e-02,
553,-2.80e-02,
554,1.24e-01,
555,-3.20e-02,
556,-3.20e-02,
557,7.20e-02,
558,-2.80e-02,
559,1.24e-01,
560,1.28e-01,
561,-2.80e-02,
562,1.24e-01,
563,-3.20e-02,
564,-3.20e-02,
565,1.24e-01,
566,-2.40e-02,
567,1.00e-01,
568,1.16e-01,
569,-2.40e-02,
570,1.20e-01,
571,-2.40e-02,
572,-2.80e-02,
573,1.16e-01,
574,1.16e-01,
575,-2.80e-02,
576,1.20e-01,
577,-2.40e-02,
578,1.32e-01,
579,-2.80e-02,
580,-2.40e-02,
581,1.20e-01,
582,-2.80e-02,
583,1.28e-01,
584,-2.40e-02,
585,1.32e-01,
586,-2.80e-02,
587,1.36e-01,
588,-2.40e-02,
589,1.32e-01,
590,1.20e-01,
591,-2.80e-02,
592,1.28e-01,
593,-2.80e-02,
594,1.20e-01,
595,-2.40e-02,
596,-2.40e-02,
597,1.28e-01,
598,1.36e-01,
599,-3.60e-02,
600,-4.40e-02,
601,1.40e-01,
602,-4.80e-02,
603,1.36e-01,
604,-4.80e-02,
605,1.40e-01,
606,-4.80e-02,
607,1.32e-01,
608,-4.80e-02,
609,1.40e-01,
610,1.44e-01,
611,-4.00e-02,
612,1.52e-01,
613,-3.20e-02,
614,-3.20e-02,
615,1.52e-01,
616,-2.80e-02,
617,1.48e-01,
618,-2.80e-02,
619,1.52e-01,
620,-2.80e-02,
621,1.52e-01,
622,-2.80e-02,
623,1.48e-01,
624,-2.80e-02,
625,1.56e-01,
626,-2.80e-02,
627,1.24e-01,
628,-2.80e-02,
629,1.56e-01,
630,-2.80e-02,
631,9.60e-02,
632,-2.80e-02,
633,1.56e-01,
634,-2.80e-02,
635,6.80e-02,
636,-2.80e-02,
637,1.44e-01,
638,-2.80e-02,
639,1.48e-01,
640,-2.40e-02,
641,1.36e-01,
642,1.16e-01,
643,-3.20e-02,
644,1.08e-01,
645,-2.40e-02,
646,-2.40e-02,
647,1.12e-01,
648,-2.40e-02,
649,1.16e-01,
650,1.24e-01,
651,-2.40e-02,
652,-2.80e-02,
653,1.20e-01,
654,1.28e-01,
655,-2.40e-02,
656,-2.40e-02,
657,1.32e-01,
658,1.40e-01,
659,-2.80e-02,
660,-3.20e-02,
661,1.28e-01,
662,-2.40e-02,
663,1.24e-01,
664,-2.40e-02,
665,1.32e-01,
666,-2.40e-02,
667,1.24e-01,
668,-2.40e-02,
669,1.40e-01,
670,-2.40e-02,
671,1.40e-01,
672,6.80e-02,
673,-2.40e-02,
674,-2.40e-02,
675,1.28e-01,
676,-2.80e-02,
677,1.40e-01,
678,-2.80e-02,
679,1.48e-01,
680,-2.80e-02,
681,1.56e-01,
682,-4.40e-02,
683,1.36e-01,
684,-4.80e-02,
685,1.32e-01,
686,-4.80e-02,
687,1.36e-01,
688,-4.40e-02,
689,1.44e-01,
690,1.24e-01,
691,-4.40e-02,
692,-4.00e-02,
693,1.32e-01,
694,-3.60e-02,
695,1.40e-01,
696,-4.00e-02,
697,1.40e-01,
698,-2.80e-02,
699,1.40e-01,
700,-2.40e-02,
701,1.44e-01,
702,1.40e-01,
703,-3.20e-02,
704,-2.80e-02,
705,1.40e-01,
706,-2.80e-02,
707,1.40e-01,
708,1.20e-01,
709,-2.80e-02,
710,1.32e-01,
711,-2.40e-02,
712,1.52e-01,
713,-2.80e-02,
714,-2.80e-02,
715,1.44e-01,
716,-2.40e-02,
717,1.40e-01,
718,-2.40e-02,
719,1.52e-01,
720,-3.20e-02,
721,1.40e-01,
722,1.36e-01,
723,-2.80e-02,
724,1.20e-01,
725,-2.80e-02,
726,-2.40e-02,
727,1.20e-01,
728,-2.80e-02,
729,1.12e-01,
730,-2.80e-02,
731,1.16e-01,
732,1.04e-01,
733,-2.40e-02,
734,-2.80e-02,
735,1.16e-01,
736,-2.40e-02,
737,1.16e-01,
738,1.16e-01,
739,-2.80e-02,
740,1.24e-01,
741,-2.80e-02,
742,1.20e-01,
743,-3.20e-02,
744,-2.40e-02,
745,1.20e-01,
746,-2.40e-02,
747,1.28e-01,
748,-2.40e-02,
749,1.36e-01,
750,-2.40e-02,
751,1.28e-01,
752,1.40e-01,
753,-2.40e-02,
754,1.40e-01,
755,-2.80e-02,
756,-2.80e-02,
757,1.04e-01,
758,-2.80e-02,
759,1.44e-01,
760,-2.80e-02,
761,1.48e-01,
762,-3.60e-02,
763,1.56e-01,
764,-2.80e-02,
765,1.52e-01,
766,-4.40e-02,
767,1.20e-01,
768,-4.00e-02,
769,1.40e-01,
770,-4.00e-02,
771,1.40e-01,
772,1.24e-01,
773,-3.60e-02,
774,-3.20e-02,
775,1.36e-01,
776,-3.20e-02,
777,1.40e-01,
778,-3.20e-02,
779,1.32e-01,
780,-2.80e-02,
781,1.36e-01,
782,-2.40e-02,
783,1.44e-01,
784,1.44e-01,
785,-2.80e-02,
786,1.24e-01,
787,-2.80e-02,
788,-2.80e-02,
789,1.40e-01,
790,1.28e-01,
791,-2.80e-02,
792,-2.80e-02,
793,1.32e-01,
794,-2.40e-02,
795,1.32e-01,
796,1.32e-01,
797,-2.40e-02,
798,-2.80e-02,
799,1.36e-01,
800,-2.40e-02,
801,1.36e-01,
802,-2.40e-02,
803,1.40e-01,
804,1.44e-01,
805,-2.80e-02,
806,1.24e-01,
807,-2.80e-02,
808,1.12e-01,
809,-2.40e-02,
810,1.16e-01,
811,-2.80e-02,
812,-2.40e-02,
813,1.12e-01,
814,1.12e-01,
815,-2.80e-02,
816,-2.80e-02,
817,1.16e-01,
818,-2.40e-02,
819,1.24e-01,
820,1.20e-01,
821,-2.80e-02,
822,-2.40e-02,
823,1.28e-01,
824,-2.40e-02,
825,1.24e-01,
826,-2.40e-02,
827,1.20e-01,
828,-2.40e-02,
829,1.28e-01,
830,1.28e-01,
831,-2.80e-02,
832,1.20e-01,
833,-3.20e-02,
834,-2.40e-02,
835,1.32e-01,
836,-2.40e-02,
837,1.16e-01,
838,1.44e-01,
839,-4.00e-02,
840,-3.20e-02,
841,1.44e-01,
842,1.56e-01,
843,-3.60e-02,
844,-3.20e-02,
845,1.44e-01,
846,-3.20e-02,
847,1.56e-01,
848,1.56e-01,
849,-3.20e-02,
850,-4.40e-02,
851,1.48e-01,
852,-4.00e-02,
853,1.28e-01,
854,-3.60e-02,
855,1.36e-01,
856,1.40e-01,
857,-3.60e-02,
858,-2.40e-02,
859,1.32e-01,
860,-2.80e-02,
861,1.16e-01,
862,-2.80e-02,
863,1.32e-01,
864,-2.80e-02,
865,1.36e-01,
866,-2.80e-02,
867,1.40e-01,
868,-2.80e-02,
869,1.16e-01,
870,-2.40e-02,
871,1.24e-01,
872,-2.40e-02,
873,1.28e-01,
874,-2.40e-02,
875,1.28e-01,
876,-2.40e-02,
877,1.28e-01,
878,1.32e-01,
879,-2.80e-02,
880,-2.80e-02,
881,1.32e-01,
882,1.32e-01,
883,-2.80e-02,
884,-2.80e-02,
885,1.40e-01,
886,1.40e-01,
887,-2.80e-02,
888,-2.80e-02,
889,1.48e-01,
890,1.36e-01,
891,-2.80e-02,
892,1.20e-01,
893,-2.40e-02,
894,-2.40e-02,
895,1.16e-01,
896,1.16e-01,
897,-2.80e-02,
898,-2.80e-02,
899,1.12e-01,
900,1.16e-01,
901,-2.40e-02,
902,-2.40e-02,
903,1.20e-01,
904,1.16e-01,
905,-2.80e-02,
906,-2.40e-02,
907,1.24e-01,
908,1.32e-01,
909,-3.20e-02,
910,1.28e-01,
911,-2.80e-02,
912,-2.40e-02,
913,1.24e-01,
914,-2.80e-02,
915,1.08e-01,
916,-3.20e-02,
917,1.20e-01,
918,-3.20e-02,
919,1.48e-01,
920,-3.60e-02,
921,1.44e-01,
922,1.56e-01,
923,-3.60e-02,
924,-4.00e-02,
925,1.52e-01,
926,-3.20e-02,
927,1.56e-01,
928,-2.80e-02,
929,1.60e-01,
930,-2.80e-02,
931,1.64e-01,
932,1.60e-01,
933,-3.60e-02,
934,1.40e-01,
935,-3.60e-02,
936,-3.60e-02,
937,1.44e-01,
938,1.44e-01,
939,-2.80e-02,
940,1.36e-01,
941,-3.20e-02,
942,1.28e-01,
943,-2.80e-02,
944,-2.80e-02,
945,1.32e-01,
946,-2.40e-02,
947,1.32e-01,
948,-2.80e-02,
949,1.36e-01,
950,-2.80e-02,
951,1.28e-01,
952,1.24e-01,
953,-2.80e-02,
954,1.16e-01,
955,-2.80e-02,
956,1.28e-01,
957,-2.80e-02,
958,-2.40e-02,
959,1.32e-01,
960,-2.80e-02,
961,1.36e-01,
962,-2.80e-02,
963,1.44e-01,
964,-2.40e-02,
965,1.44e-01,
966,1.52e-01,
967,-3.20e-02,
968,-2.80e-02,
969,1.40e-01,
970,1.44e-01,
971,-2.80e-02,
972,1.44e-01,
973,-2.40e-02,
974,-2.80e-02,
975,1.20e-01,
976,1.20e-01,
977,-2.80e-02,
978,-2.40e-02,
979,1.20e-01,
980,1.16e-01,
981,-3.20e-02,
982,-2.80e-02,
983,1.24e-01,
984,-3.20e-02,
985,1.20e-01,
986,-2.80e-02,
987,1.28e-01,
988,-2.40e-02,
989,1.20e-01,
990,-3.20e-02,
991,1.24e-01,
992,-2.80e-02,
993,1.24e-01,
994,7.20e-02,
995,-3.20e-02,
996,1.36e-01,
997,-2.80e-02,
998,1.36e-01,
999,-3.60e-02,
1000,-4.00e-02,
1001,1.44e-01,
1002,1.44e-01,
1003,-4.00e-02,
1004,-4.00e-02,
1005,1.44e-01,
1006,-3.60e-02,
1007,1.52e-01,
1008,-3.20e-02,
1009,1.56e-01,
1010,-2.80e-02,
1011,1.36e-01,
1012,-3.20e-02,
1013,1.72e-01,
1014,-2.80e-02,
1015,1.72e-01,
1016,1.52e-01,
1017,-3.60e-02,
1018,1.56e-01,
1019,-3.20e-02,
1020,-2.80e-02,
1021,1.36e-01,
1022,-3.20e-02,
1023,1.40e-01,
1024,1.28e-01,
1025,-2.80e-02,
1026,-2.80e-02,
1027,1.24e-01,
1028,-2.80e-02,
1029,1.24e-01,
1030,1.20e-01,
1031,-2.80e-02,
1032,-2.80e-02,
1033,1.24e-01,
1034,-2.40e-02,
1035,1.24e-01,
1036,1.20e-01,
1037,-2.80e-02,
1038,-2.80e-02,
1039,1.28e-01,
1040,-2.80e-02,
1041,1.32e-01,
1042,-2.80e-02,
1043,1.40e-01,
1044,1.44e-01,
1045,-2.80e-02,
1046,1.40e-01,
1047,-2.80e-02,
1048,-2.80e-02,
1049,1.16e-01,
1050,-2.80e-02,
1051,1.52e-01,
1052,-2.80e-02,
1053,1.52e-01,
1054,1.56e-01,
1055,-2.80e-02,
1056,-4.00e-02,
1057,1.48e-01,
1058,1.28e-01,
1059,-2.80e-02,
1060,-2.40e-02,
1061,1.28e-01,
1062,1.24e-01,
1063,-2.40e-02,
1064,1.24e-01,
1065,-2.80e-02,
1066,-2.40e-02,
1067,1.24e-01,
1068,-2.80e-02,
1069,1.00e-01,
1070,1.24e-01,
1071,-2.80e-02,
1072,1.36e-01,
1073,-3.20e-02,
1074,-2.80e-02,
1075,1.20e-01,
1076,1.28e-01,
1077,-3.20e-02,
1078,1.44e-01,
1079,-3.60e-02,
1080,-3.60e-02,
1081,1.36e-01,
1082,-4.40e-02,
1083,1.52e-01,
1084,-3.60e-02,
1085,1.40e-01,
1086,1.16e-01,
1087,-4.00e-02,
1088,1.48e-01,
1089,-3.20e-02,
1090,1.52e-01,
1091,-3.20e-02,
1092,1.52e-01,
1093,-2.80e-02,
1094,-2.80e-02,
1095,1.56e-01,
1096,-2.40e-02,
1097,1.56e-01,
1098,1.48e-01,
1099,-2.80e-02,
1100,-3.20e-02,
1101,1.40e-01,
1102,-2.80e-02,
1103,1.24e-01,
1104,-2.80e-02,
1105,1.28e-01,
1106,1.20e-01,
1107,-2.80e-02,
1108,1.08e-01,
1109,-2.80e-02,
1110,-2.40e-02,
1111,1.28e-01,
1112,-2.40e-02,
1113,1.24e-01,
1114,1.24e-01,
1115,-2.40e-02,
1116,-2.80e-02,
1117,1.32e-01,
1118,1.20e-01,
1119,-2.80e-02,
1120,-2.80e-02,
1121,1.28e-01,
1122,-2.80e-02,
1123,1.28e-01,
1124,-3.20e-02,
1125,1.36e-01,
1126,-2.80e-02,
1127,1.40e-01,
1128,-2.80e-02,
1129,1.40e-01,
1130,1.40e-01,
1131,-3.20e-02,
1132,1.48e-01,
1133,-2.80e-02,
1134,-2.40e-02,
1135,1.48e-01,
1136,-2.40e-02,
1137,1.44e-01,
1138,-2.40e-02,
1139,1.48e-01,
1140,-2.40e-02,
1141,1.20e-01,
1142,-2.80e-02,
1143,1.24e-01,
1144,1.16e-01,
1145,-2.80e-02,
1146,-2.80e-02,
1147,1.24e-01,
1148,8.80e-02,
1149,-2.80e-02,
1150,-2.40e-02,
1151,1.12e-01,
1152,-3.60e-02,
1153,1.24e-01,
1154,1.04e-01,
1155,-3.60e-02,
1156,8.40e-02,
1157,-3.60e-02,
1158,1.40e-01,
1159,-4.00e-02,
1160,1.36e-01,
1161,-3.60e-02,
1162,-3.60e-02,
1163,1.28e-01,
1164,-3.60e-02,
1165,1.40e-01,
1166,-4.00e-02,
1167,1.40e-01,
1168,1.48e-01,
1169,-3.20e-02,
1170,-2.80e-02,
1171,1.48e-01,
1172,-2.40e-02,
1173,1.52e-01,
1174,1.52e-01,
1175,-3.20e-02,
1176,1.44e-01,
1177,-2.80e-02,
1178,1.56e-01,
1179,-2.80e-02,
1180,-2.80e-02,
1181,1.56e-01,
1182,-3.20e-02,
1183,1.24e-01,
1184,-2.80e-02,
1185,1.24e-01,
1186,-2.80e-02,
1187,1.32e-01,
1188,-2.40e-02,
1189,1.36e-01,
1190,-2.80e-02,
1191,8.40e-02,
1192,-2.40e-02,
1193,1.24e-01,
1194,-2.80e-02,
1195,1.12e-01,
1196,-2.80e-02,
1197,1.24e-01,
1198,-2.40e-02,
1199,1.28e-01,
