Laptop_1/LAPTOP_CHRGR_1_ON_CLOSE/time domain/NewFile27.csv

X,CH1,Start,Increment,
Sequence,Volt,-1.500000e-01,2.000000e-04
0,-2.40e-02,
1,1.20e-01,
2,1.20e-01,
3,-2.80e-02,
4,1.24e-01,
5,-2.80e-02,
6,1.16e-01,
7,-2.80e-02,
8,1.16e-01,
9,-2.80e-02,
10,-2.80e-02,
11,1.24e-01,
12,1.24e-01,
13,-2.80e-02,
14,-2.80e-02,
15,1.24e-01,
16,-2.40e-02,
17,1.28e-01,
18,-2.80e-02,
19,1.36e-01,
20,-2.80e-02,
21,1.44e-01,
22,1.40e-01,
23,-2.80e-02,
24,-2.40e-02,
25,1.52e-01,
26,1.12e-01,
27,-2.80e-02,
28,-2.80e-02,
29,1.08e-01,
30,1.36e-01,
31,-2.80e-02,
32,-2.80e-02,
33,1.60e-01,
34,-2.80e-02,
35,9.60e-02,
36,-2.80e-02,
37,7.20e-02,
38,-2.80e-02,
39,7.20e-02,
40,1.44e-01,
41,-3.60e-02,
42,-4.00e-02,
43,1.32e-01,
44,-4.00e-02,
45,1.24e-01,
46,-4.80e-02,
47,1.28e-01,
48,-4.80e-02,
49,1.24e-01,
50,-4.40e-02,
51,1.28e-01,
52,1.32e-01,
53,-4.80e-02,
54,-4.00e-02,
55,1.36e-01,
56,1.36e-01,
57,-4.00e-02,
58,-4.00e-02,
59,1.40e-01,
60,1.40e-01,
61,-2.80e-02,
62,-3.20e-02,
63,1.40e-01,
64,-2.80e-02,
65,1.40e-01,
66,-2.80e-02,
67,1.40e-01,
68,-2.80e-02,
69,1.48e-01,
70,-2.80e-02,
71,1.20e-01,
72,1.36e-01,
73,-2.40e-02,
74,1.36e-01,
75,-2.80e-02,
76,-2.40e-02,
77,1.40e-01,
78,1.28e-01,
79,-2.80e-02,
80,1.40e-01,
81,-3.20e-02,
82,1.20e-01,
83,-2.80e-02,
84,1.12e-01,
85,-2.80e-02,
86,-2.40e-02,
87,1.16e-01,
88,-2.40e-02,
89,1.08e-01,
90,-2.40e-02,
91,1.16e-01,
92,1.16e-01,
93,-2.40e-02,
94,-2.80e-02,
95,1.16e-01,
96,-2.80e-02,
97,1.20e-01,
98,-2.80e-02,
99,1.24e-01,
100,1.28e-01,
101,-2.40e-02,
102,1.36e-01,
103,-2.80e-02,
104,-2.80e-02,
105,1.36e-01,
106,-2.40e-02,
107,1.40e-01,
108,1.48e-01,
109,-2.80e-02,
110,-2.80e-02,
111,8.40e-02,
112,-2.80e-02,
113,1.52e-01,
114,-2.80e-02,
115,8.00e-02,
116,-2.80e-02,
117,8.00e-02,
118,-2.80e-02,
119,8.80e-02,
120,-2.80e-02,
121,1.48e-01,
122,1.64e-01,
123,-3.20e-02,
124,-4.00e-02,
125,1.36e-01,
126,-4.40e-02,
127,1.24e-01,
128,-5.20e-02,
129,1.28e-01,
130,-4.40e-02,
131,1.28e-01,
132,-5.20e-02,
133,1.16e-01,
134,-3.60e-02,
135,1.32e-01,
136,-3.60e-02,
137,1.32e-01,
138,-3.20e-02,
139,1.40e-01,
140,-2.80e-02,
141,1.28e-01,
142,-4.00e-02,
143,1.28e-01,
144,-3.20e-02,
145,1.36e-01,
146,-2.40e-02,
147,1.24e-01,
148,-2.40e-02,
149,1.36e-01,
150,-2.40e-02,
151,1.40e-01,
152,1.36e-01,
153,-2.80e-02,
154,1.32e-01,
155,-2.80e-02,
156,-2.80e-02,
157,1.36e-01,
158,1.36e-01,
159,-2.80e-02,
160,-2.80e-02,
161,1.40e-01,
162,-2.80e-02,
163,1.24e-01,
164,1.40e-01,
165,-2.80e-02,
166,1.24e-01,
167,-2.80e-02,
168,-2.40e-02,
169,1.12e-01,
170,1.20e-01,
171,-2.80e-02,
172,-2.80e-02,
173,1.12e-01,
174,-2.40e-02,
175,1.20e-01,
176,-2.80e-02,
177,1.16e-01,
178,-2.80e-02,
179,1.20e-01,
180,-2.80e-02,
181,1.28e-01,
182,-2.40e-02,
183,1.28e-01,
184,-2.80e-02,
185,1.28e-01,
186,1.24e-01,
187,-2.40e-02,
188,-2.40e-02,
189,1.20e-01,
190,1.36e-01,
191,-2.40e-02,
192,1.36e-01,
193,-2.80e-02,
194,-2.80e-02,
195,1.52e-01,
196,1.00e-01,
197,-2.80e-02,
198,-2.80e-02,
199,1.44e-01,
200,-2.80e-02,
201,1.52e-01,
202,-2.80e-02,
203,1.52e-01,
204,-2.40e-02,
205,1.56e-01,
206,1.56e-01,
207,-4.00e-02,
208,1.28e-01,
209,-4.00e-02,
210,-5.20e-02,
211,1.36e-01,
212,1.36e-01,
213,-4.40e-02,
214,-4.80e-02,
215,1.20e-01,
216,-4.40e-02,
217,1.32e-01,
218,-4.40e-02,
219,1.32e-01,
220,-3.20e-02,
221,1.28e-01,
222,-2.80e-02,
223,1.28e-01,
224,1.36e-01,
225,-3.20e-02,
226,-2.40e-02,
227,1.24e-01,
228,-2.80e-02,
229,1.28e-01,
230,1.36e-01,
231,-2.80e-02,
232,1.40e-01,
233,-2.40e-02,
234,-2.80e-02,
235,1.40e-01,
236,-2.40e-02,
237,1.40e-01,
238,-2.40e-02,
239,1.40e-01,
240,-2.80e-02,
241,1.44e-01,
242,1.40e-01,
243,-2.80e-02,
244,-2.40e-02,
245,1.56e-01,
246,1.44e-01,
247,-3.20e-02,
248,-2.40e-02,
249,1.16e-01,
250,-2.40e-02,
251,1.20e-01,
252,1.08e-01,
253,-2.40e-02,
254,-2.40e-02,
255,1.20e-01,
256,1.12e-01,
257,-2.80e-02,
258,-2.80e-02,
259,1.20e-01,
260,1.16e-01,
261,-3.20e-02,
262,-2.40e-02,
263,1.28e-01,
264,1.28e-01,
265,-2.40e-02,
266,-2.40e-02,
267,1.24e-01,
268,1.28e-01,
269,-2.80e-02,
270,-2.80e-02,
271,1.32e-01,
272,1.24e-01,
273,-2.40e-02,
274,-2.80e-02,
275,1.40e-01,
276,-2.80e-02,
277,1.48e-01,
278,-2.80e-02,
279,1.44e-01,
280,-2.80e-02,
281,1.56e-01,
282,1.60e-01,
283,-3.60e-02,
284,-2.80e-02,
285,1.40e-01,
286,1.52e-01,
287,-3.20e-02,
288,-2.80e-02,
289,1.60e-01,
290,-4.40e-02,
291,1.36e-01,
292,1.32e-01,
293,-4.40e-02,
294,-4.80e-02,
295,1.40e-01,
296,-3.60e-02,
297,1.36e-01,
298,-4.00e-02,
299,1.28e-01,
300,1.36e-01,
301,-3.60e-02,
302,-2.80e-02,
303,1.40e-01,
304,1.24e-01,
305,-3.20e-02,
306,-2.80e-02,
307,1.20e-01,
308,1.32e-01,
309,-2.40e-02,
310,-2.80e-02,
311,6.00e-02,
312,1.32e-01,
313,-2.80e-02,
314,-2.80e-02,
315,1.28e-01,
316,-2.80e-02,
317,1.28e-01,
318,1.36e-01,
319,-2.80e-02,
320,1.40e-01,
321,-3.20e-02,
322,-2.80e-02,
323,1.40e-01,
324,-2.80e-02,
325,1.44e-01,
326,-2.80e-02,
327,1.52e-01,
328,-3.20e-02,
329,1.40e-01,
330,-2.80e-02,
331,1.40e-01,
332,1.32e-01,
333,-2.40e-02,
334,-2.80e-02,
335,1.20e-01,
336,1.20e-01,
337,-2.40e-02,
338,-3.20e-02,
339,1.20e-01,
340,-2.40e-02,
341,1.16e-01,
342,1.24e-01,
343,-2.80e-02,
344,1.20e-01,
345,-2.80e-02,
346,-2.40e-02,
347,1.20e-01,
348,1.32e-01,
349,-2.80e-02,
350,1.24e-01,
351,-2.80e-02,
352,-2.40e-02,
353,1.28e-01,
354,-2.40e-02,
355,8.00e-02,
356,-2.80e-02,
357,1.32e-01,
358,1.20e-01,
359,-2.80e-02,
360,-2.40e-02,
361,1.20e-01,
362,1.44e-01,
363,-2.80e-02,
364,-3.20e-02,
365,1.56e-01,
366,-3.20e-02,
367,1.56e-01,
368,1.52e-01,
369,-2.80e-02,
370,-3.20e-02,
371,1.60e-01,
372,1.60e-01,
373,-2.80e-02,
374,1.20e-01,
375,-4.40e-02,
376,1.28e-01,
377,-4.00e-02,
378,1.28e-01,
379,-4.00e-02,
380,1.24e-01,
381,-3.20e-02,
382,1.24e-01,
383,-3.60e-02,
384,-3.60e-02,
385,1.24e-01,
386,-2.80e-02,
387,1.20e-01,
388,-2.80e-02,
389,1.20e-01,
390,-2.40e-02,
391,1.20e-01,
392,-2.40e-02,
393,1.12e-01,
394,-2.80e-02,
395,1.28e-01,
396,8.80e-02,
397,-2.80e-02,
398,-2.40e-02,
399,1.36e-01,
400,-2.40e-02,
401,1.28e-01,
402,1.32e-01,
403,-2.80e-02,
404,-2.80e-02,
405,1.28e-01,
406,-2.40e-02,
407,1.40e-01,
408,-2.80e-02,
409,1.32e-01,
410,-3.20e-02,
411,1.40e-01,
412,1.44e-01,
413,-3.20e-02,
414,-3.20e-02,
415,1.28e-01,
416,-2.40e-02,
417,1.24e-01,
418,-2.40e-02,
419,1.16e-01,
420,1.24e-01,
421,-2.40e-02,
422,-2.40e-02,
423,1.16e-01,
424,-2.40e-02,
425,1.20e-01,
426,1.16e-01,
427,-2.80e-02,
428,-2.40e-02,
429,9.60e-02,
430,-2.40e-02,
431,1.28e-01,
432,-2.40e-02,
433,1.28e-01,
434,1.16e-01,
435,-2.80e-02,
436,1.28e-01,
437,-2.80e-02,
438,1.32e-01,
439,-3.20e-02,
440,1.40e-01,
441,-3.20e-02,
442,1.48e-01,
443,-3.20e-02,
444,-3.20e-02,
445,1.52e-01,
446,1.44e-01,
447,-2.80e-02,
448,1.44e-01,
449,-3.20e-02,
450,-3.20e-02,
451,1.56e-01,
452,1.48e-01,
453,-3.20e-02,
454,-2.80e-02,
455,1.56e-01,
456,1.32e-01,
457,-4.40e-02,
458,1.28e-01,
459,-3.60e-02,
460,1.24e-01,
461,-4.00e-02,
462,-3.60e-02,
463,1.24e-01,
464,1.28e-01,
465,-2.80e-02,
466,-2.40e-02,
467,1.20e-01,
468,-2.80e-02,
469,1.28e-01,
470,1.16e-01,
471,-2.40e-02,
472,-2.40e-02,
473,1.12e-01,
474,-2.40e-02,
475,1.36e-01,
476,1.24e-01,
477,-2.40e-02,
478,-2.40e-02,
479,1.16e-01,
480,-2.40e-02,
481,1.20e-01,
482,1.28e-01,
483,-2.80e-02,
484,1.24e-01,
485,-2.80e-02,
486,-2.40e-02,
487,1.20e-01,
488,1.36e-01,
489,-2.80e-02,
490,-3.20e-02,
491,1.44e-01,
492,1.44e-01,
493,-2.80e-02,
494,-2.80e-02,
495,1.48e-01,
496,1.52e-01,
497,-2.80e-02,
498,-2.80e-02,
499,1.36e-01,
500,-2.80e-02,
501,1.16e-01,
502,1.20e-01,
503,-2.80e-02,
504,-2.80e-02,
505,1.24e-01,
506,-2.40e-02,
507,1.16e-01,
508,-3.20e-02,
509,1.04e-01,
510,-3.20e-02,
511,1.20e-01,
512,-2.80e-02,
513,1.32e-01,
514,-2.80e-02,
515,1.28e-01,
516,1.08e-01,
517,-2.80e-02,
518,-2.40e-02,
519,1.24e-01,
520,1.32e-01,
521,-2.80e-02,
522,1.44e-01,
523,-2.80e-02,
524,1.28e-01,
525,-3.60e-02,
526,-3.60e-02,
527,1.44e-01,
528,1.44e-01,
529,-3.20e-02,
530,-3.60e-02,
531,1.48e-01,
532,1.68e-01,
533,-4.00e-02,
534,-3.20e-02,
535,1.04e-01,
536,1.60e-01,
537,-3.20e-02,
538,-2.80e-02,
539,1.32e-01,
540,1.36e-01,
541,-3.60e-02,
542,1.24e-01,
543,-3.60e-02,
544,-3.60e-02,
545,1.20e-01,
546,1.12e-01,
547,-3.20e-02,
548,1.20e-01,
549,-2.80e-02,
550,-2.40e-02,
551,1.08e-01,
552,-2.40e-02,
553,8.40e-02,
554,-2.80e-02,
555,1.24e-01,
556,9.20e-02,
557,-2.80e-02,
558,1.20e-01,
559,-2.40e-02,
560,1.20e-01,
561,-3.20e-02,
562,-2.40e-02,
563,1.24e-01,
564,-2.80e-02,
565,1.32e-01,
566,-2.40e-02,
567,1.32e-01,
568,1.32e-01,
569,-3.20e-02,
570,1.32e-01,
571,-2.80e-02,
572,-2.40e-02,
573,1.36e-01,
574,-2.40e-02,
575,1.28e-01,
576,1.40e-01,
577,-2.80e-02,
578,-2.80e-02,
579,1.60e-01,
580,-2.80e-02,
581,1.56e-01,
582,1.28e-01,
583,-2.80e-02,
584,1.20e-01,
585,-2.80e-02,
586,1.16e-01,
587,-2.80e-02,
588,-2.80e-02,
589,1.24e-01,
590,1.16e-01,
591,-2.80e-02,
592,1.20e-01,
593,-3.20e-02,
594,1.16e-01,
595,-3.20e-02,
596,-3.20e-02,
597,1.16e-01,
598,1.24e-01,
599,-3.20e-02,
600,1.24e-01,
601,-2.80e-02,
602,1.32e-01,
603,-3.60e-02,
604,1.36e-01,
605,-3.60e-02,
606,-4.00e-02,
607,1.40e-01,
608,-4.00e-02,
609,1.44e-01,
610,-3.60e-02,
611,1.44e-01,
612,-3.60e-02,
613,1.48e-01,
614,1.52e-01,
615,-3.60e-02,
616,1.64e-01,
617,-3.20e-02,
618,-3.20e-02,
619,1.56e-01,
620,1.56e-01,
621,-2.80e-02,
622,1.48e-01,
623,-3.20e-02,
624,-2.80e-02,
625,1.24e-01,
626,-3.20e-02,
627,1.16e-01,
628,1.24e-01,
629,-2.80e-02,
630,1.12e-01,
631,-2.80e-02,
632,7.60e-02,
633,-2.80e-02,
634,-2.80e-02,
635,1.00e-01,
636,-2.80e-02,
637,1.20e-01,
638,1.24e-01,
639,-2.80e-02,
640,1.24e-01,
641,-2.80e-02,
642,-2.80e-02,
643,1.28e-01,
644,-3.20e-02,
645,1.32e-01,
646,1.32e-01,
647,-2.80e-02,
648,-2.80e-02,
649,1.40e-01,
650,1.48e-01,
651,-2.80e-02,
652,1.44e-01,
653,-2.80e-02,
654,-2.40e-02,
655,1.40e-01,
656,-2.80e-02,
657,1.44e-01,
658,-2.80e-02,
659,1.40e-01,
660,1.40e-01,
661,-2.80e-02,
662,-2.80e-02,
663,1.48e-01,
664,-2.80e-02,
665,1.44e-01,
666,-2.40e-02,
667,1.20e-01,
668,-2.40e-02,
669,1.20e-01,
670,4.80e-02,
671,-2.80e-02,
672,-2.80e-02,
673,1.00e-01,
674,1.16e-01,
675,-2.80e-02,
676,-2.80e-02,
677,1.20e-01,
678,1.28e-01,
679,-3.60e-02,
680,1.24e-01,
681,-3.20e-02,
682,-3.60e-02,
683,1.36e-01,
684,1.24e-01,
685,-3.60e-02,
686,-3.60e-02,
687,1.24e-01,
688,-3.60e-02,
689,1.36e-01,
690,-4.40e-02,
691,1.40e-01,
692,1.48e-01,
693,-3.60e-02,
694,-3.60e-02,
695,1.44e-01,
696,1.48e-01,
697,-3.20e-02,
698,1.56e-01,
699,-2.80e-02,
700,-2.80e-02,
701,1.48e-01,
702,-3.20e-02,
703,1.64e-01,
704,1.60e-01,
705,-2.80e-02,
706,8.80e-02,
707,-3.20e-02,
708,1.08e-01,
709,-2.80e-02,
710,-2.80e-02,
711,1.24e-01,
712,-2.80e-02,
713,1.24e-01,
714,-2.40e-02,
715,1.24e-01,
716,-2.80e-02,
717,1.28e-01,
718,8.80e-02,
719,-2.80e-02,
720,1.20e-01,
721,-2.40e-02,
722,-2.80e-02,
723,1.28e-01,
724,1.28e-01,
725,-3.20e-02,
726,1.24e-01,
727,-2.80e-02,
728,-2.40e-02,
729,1.24e-01,
730,-2.80e-02,
731,1.40e-01,
732,-2.40e-02,
733,1.40e-01,
734,-2.80e-02,
735,1.32e-01,
736,1.32e-01,
737,-2.40e-02,
738,1.32e-01,
739,-2.80e-02,
740,-2.80e-02,
741,1.48e-01,
742,-2.80e-02,
743,1.36e-01,
744,-2.40e-02,
745,1.60e-01,
746,1.40e-01,
747,-3.20e-02,
748,1.28e-01,
749,-2.80e-02,
750,-2.80e-02,
751,1.16e-01,
752,-2.40e-02,
753,1.20e-01,
754,-2.80e-02,
755,1.20e-01,
756,-2.80e-02,
757,1.12e-01,
758,1.12e-01,
759,-2.80e-02,
760,-3.60e-02,
761,1.20e-01,
762,1.24e-01,
763,-3.20e-02,
764,1.32e-01,
765,-4.00e-02,
766,1.28e-01,
767,-4.40e-02,
768,-4.00e-02,
769,1.28e-01,
770,-3.60e-02,
771,1.28e-01,
772,-4.40e-02,
773,1.36e-01,
774,-4.40e-02,
775,1.28e-01,
776,-3.60e-02,
777,1.44e-01,
778,-2.80e-02,
779,1.44e-01,
780,1.44e-01,
781,-2.80e-02,
782,1.52e-01,
783,-2.80e-02,
784,-2.80e-02,
785,1.60e-01,
786,-3.20e-02,
787,1.40e-01,
788,1.20e-01,
789,-2.40e-02,
790,-2.80e-02,
791,7.20e-02,
792,-2.40e-02,
793,8.00e-02,
794,-2.40e-02,
795,1.00e-01,
796,1.12e-01,
797,-2.80e-02,
798,-2.80e-02,
799,1.12e-01,
800,-2.40e-02,
801,1.20e-01,
802,-3.20e-02,
803,1.24e-01,
804,1.20e-01,
805,-2.40e-02,
806,-2.40e-02,
807,1.20e-01,
808,-2.80e-02,
809,1.24e-01,
810,-3.20e-02,
811,1.24e-01,
812,-2.80e-02,
813,1.28e-01,
814,-2.40e-02,
815,1.20e-01,
816,1.28e-01,
817,-2.80e-02,
818,-2.40e-02,
819,1.40e-01,
820,1.40e-01,
821,-2.80e-02,
822,-2.40e-02,
823,1.48e-01,
824,1.32e-01,
825,-2.40e-02,
826,-2.80e-02,
827,1.44e-01,
828,-2.80e-02,
829,1.00e-01,
830,1.16e-01,
831,-2.80e-02,
832,-2.40e-02,
833,1.16e-01,
834,1.16e-01,
835,-3.20e-02,
836,-3.20e-02,
837,1.16e-01,
838,1.20e-01,
839,-3.60e-02,
840,1.16e-01,
841,-4.00e-02,
842,-3.60e-02,
843,1.20e-01,
844,-3.60e-02,
845,1.28e-01,
846,-4.00e-02,
847,1.32e-01,
848,1.36e-01,
849,-4.40e-02,
850,-4.00e-02,
851,1.32e-01,
852,1.32e-01,
853,-4.40e-02,
854,-4.00e-02,
855,1.36e-01,
856,-3.60e-02,
857,1.36e-01,
858,1.48e-01,
859,-3.60e-02,
860,1.44e-01,
861,-2.80e-02,
862,1.48e-01,
863,-2.80e-02,
864,-2.80e-02,
865,1.52e-01,
866,1.32e-01,
867,-2.80e-02,
868,1.44e-01,
869,-2.80e-02,
870,-2.80e-02,
871,8.80e-02,
872,1.44e-01,
873,-2.80e-02,
874,-2.80e-02,
875,1.32e-01,
876,1.16e-01,
877,-2.80e-02,
878,1.20e-01,
879,-2.80e-02,
880,1.24e-01,
881,-2.80e-02,
882,-2.80e-02,
883,1.28e-01,
884,-2.80e-02,
885,1.28e-01,
886,-2.80e-02,
887,1.20e-01,
888,-2.80e-02,
889,1.24e-01,
890,1.32e-01,
891,-3.20e-02,
892,-2.80e-02,
893,1.40e-01,
894,1.40e-01,
895,-2.80e-02,
896,-2.80e-02,
897,1.44e-01,
898,-2.80e-02,
899,1.32e-01,
900,1.40e-01,
901,-2.80e-02,
902,-2.80e-02,
903,1.48e-01,
904,1.48e-01,
905,-2.80e-02,
906,-2.80e-02,
907,1.36e-01,
908,-2.40e-02,
909,1.08e-01,
910,-3.20e-02,
911,1.20e-01,
912,-2.80e-02,
913,1.12e-01,
914,-2.80e-02,
915,1.08e-01,
916,-2.80e-02,
917,1.16e-01,
918,-2.80e-02,
919,1.16e-01,
920,-3.20e-02,
921,1.16e-01,
922,-3.20e-02,
923,1.16e-01,
924,1.04e-01,
925,-2.80e-02,
926,-4.00e-02,
927,1.24e-01,
928,1.24e-01,
929,-4.40e-02,
930,-3.60e-02,
931,1.08e-01,
932,-4.00e-02,
933,1.24e-01,
934,1.24e-01,
935,-4.40e-02,
936,1.32e-01,
937,-3.60e-02,
938,1.36e-01,
939,-3.60e-02,
940,1.32e-01,
941,-3.60e-02,
942,-2.80e-02,
943,1.52e-01,
944,-2.80e-02,
945,1.52e-01,
946,1.44e-01,
947,-3.20e-02,
948,-2.80e-02,
949,8.80e-02,
950,1.08e-01,
951,-3.20e-02,
952,7.20e-02,
953,-3.60e-02,
954,-3.20e-02,
955,1.52e-01,
956,-2.80e-02,
957,9.60e-02,
958,-2.80e-02,
959,1.28e-01,
960,-2.80e-02,
961,1.36e-01,
962,-3.20e-02,
963,1.28e-01,
964,-2.80e-02,
965,1.20e-01,
966,1.20e-01,
967,-3.20e-02,
968,1.24e-01,
969,-2.80e-02,
970,-2.80e-02,
971,1.32e-01,
972,-2.80e-02,
973,1.40e-01,
974,1.24e-01,
975,-2.80e-02,
976,-2.80e-02,
977,1.36e-01,
978,-2.80e-02,
979,1.32e-01,
980,1.44e-01,
981,-3.20e-02,
982,1.32e-01,
983,-2.80e-02,
984,1.32e-01,
985,-2.80e-02,
986,-2.80e-02,
987,1.36e-01,
988,-2.40e-02,
989,1.36e-01,
990,-2.80e-02,
991,1.36e-01,
992,1.40e-01,
993,-2.80e-02,
994,-2.40e-02,
995,8.80e-02,
996,-2.80e-02,
997,1.40e-01,
998,1.24e-01,
999,-2.80e-02,
1000,-2.80e-02,
1001,1.24e-01,
1002,-3.60e-02,
1003,1.20e-01,
1004,1.24e-01,
1005,-4.40e-02,
1006,1.20e-01,
1007,-4.00e-02,
1008,-4.80e-02,
1009,1.24e-01,
1010,1.24e-01,
1011,-5.20e-02,
1012,-4.40e-02,
1013,1.28e-01,
1014,-4.80e-02,
1015,1.20e-01,
1016,-3.60e-02,
1017,1.20e-01,
1018,-4.00e-02,
1019,1.32e-01,
1020,-3.20e-02,
1021,8.80e-02,
1022,1.44e-01,
1023,-3.20e-02,
1024,-2.40e-02,
1025,1.44e-01,
1026,-2.80e-02,
1027,1.16e-01,
1028,7.20e-02,
1029,-3.20e-02,
1030,7.60e-02,
1031,-3.20e-02,
1032,1.24e-01,
1033,-3.20e-02,
1034,9.60e-02,
1035,-3.20e-02,
1036,6.80e-02,
1037,-4.00e-02,
1038,-4.00e-02,
1039,1.40e-01,
1040,1.36e-01,
1041,-3.20e-02,
1042,-2.80e-02,
1043,1.40e-01,
1044,1.32e-01,
1045,-2.80e-02,
1046,-2.80e-02,
1047,1.32e-01,
1048,1.20e-01,
1049,-2.80e-02,
1050,-3.20e-02,
1051,1.36e-01,
1052,-2.80e-02,
1053,1.36e-01,
1054,-3.20e-02,
1055,1.44e-01,
1056,-2.80e-02,
1057,1.24e-01,
1058,-3.20e-02,
1059,1.48e-01,
1060,-2.80e-02,
1061,1.44e-01,
1062,-2.80e-02,
1063,1.48e-01,
1064,1.40e-01,
1065,-3.20e-02,
1066,1.16e-01,
1067,-2.80e-02,
1068,-2.80e-02,
1069,1.52e-01,
1070,-2.80e-02,
1071,1.28e-01,
1072,1.48e-01,
1073,-2.80e-02,
1074,-2.80e-02,
1075,1.44e-01,
1076,-2.80e-02,
1077,1.40e-01,
1078,-2.80e-02,
1079,1.52e-01,
1080,-2.80e-02,
1081,1.48e-01,
1082,1.36e-01,
1083,-2.80e-02,
1084,-3.20e-02,
1085,1.32e-01,
1086,1.24e-01,
1087,-4.00e-02,
1088,1.32e-01,
1089,-4.80e-02,
1090,1.32e-01,
1091,-4.80e-02,
1092,-4.80e-02,
1093,1.28e-01,
1094,-4.40e-02,
1095,1.40e-01,
1096,-4.40e-02,
1097,1.32e-01,
1098,-3.60e-02,
1099,1.40e-01,
1100,-3.60e-02,
1101,1.36e-01,
1102,1.44e-01,
1103,-3.20e-02,
1104,1.44e-01,
1105,-3.20e-02,
1106,1.48e-01,
1107,-2.80e-02,
1108,-3.20e-02,
1109,1.48e-01,
1110,6.80e-02,
1111,-3.20e-02,
1112,7.20e-02,
1113,-3.20e-02,
1114,1.00e-01,
1115,-3.20e-02,
1116,1.12e-01,
1117,-3.20e-02,
1118,-3.20e-02,
1119,1.48e-01,
1120,-3.20e-02,
1121,1.56e-01,
1122,1.52e-01,
1123,-3.20e-02,
1124,-3.20e-02,
1125,1.36e-01,
1126,-2.80e-02,
1127,1.20e-01,
1128,-2.80e-02,
1129,1.32e-01,
1130,1.28e-01,
1131,-2.80e-02,
1132,-3.20e-02,
1133,1.32e-01,
1134,-2.80e-02,
1135,1.40e-01,
1136,-2.40e-02,
1137,1.28e-01,
1138,-2.80e-02,
1139,1.32e-01,
1140,1.24e-01,
1141,-3.20e-02,
1142,1.28e-01,
1143,-2.80e-02,
1144,-2.40e-02,
1145,1.24e-01,
1146,1.36e-01,
1147,-2.80e-02,
1148,-2.80e-02,
1149,1.28e-01,
1150,-2.40e-02,
1151,1.28e-01,
1152,1.12e-01,
1153,-2.40e-02,
1154,-2.80e-02,
1155,1.40e-01,
1156,-2.40e-02,
1157,7.60e-02,
1158,-2.80e-02,
1159,1.48e-01,
1160,-3.20e-02,
1161,1.64e-01,
1162,1.40e-01,
1163,-3.20e-02,
1164,-2.80e-02,
1165,1.40e-01,
1166,-3.60e-02,
1167,1.32e-01,
1168,1.20e-01,
1169,-4.80e-02,
1170,1.24e-01,
1171,-4.40e-02,
1172,-5.20e-02,
1173,1.20e-01,
1174,-4.40e-02,
1175,1.32e-01,
1176,1.28e-01,
1177,-4.80e-02,
1178,-3.60e-02,
1179,1.36e-01,
1180,1.28e-01,
1181,-3.20e-02,
1182,-2.80e-02,
1183,1.20e-01,
1184,-3.60e-02,
1185,1.44e-01,
1186,-2.80e-02,
1187,1.40e-01,
1188,-2.80e-02,
1189,9.20e-02,
1190,1.12e-01,
1191,-3.20e-02,
1192,-3.20e-02,
1193,1.60e-01,
1194,-3.60e-02,
1195,7.20e-02,
1196,1.32e-01,
1197,-3.60e-02,
1198,-3.20e-02,
1199,1.44e-01,
