Laptop_1/LAPTOP_CHRGR_1_ON_CLOSE/time domain/NewFile8(1).csv

X,CH1,Start,Increment,
Sequence,Volt,-1.500000e-01,2.000000e-04
0,-9.60e-02,
1,1.56e-01,
2,1.40e-01,
3,-3.20e-02,
4,-3.60e-02,
5,1.48e-01,
6,1.48e-01,
7,-3.60e-02,
8,-3.60e-02,
9,1.36e-01,
10,-3.20e-02,
11,1.36e-01,
12,-3.60e-02,
13,1.44e-01,
14,-3.60e-02,
15,1.32e-01,
16,-4.00e-02,
17,1.64e-01,
18,1.56e-01,
19,-4.00e-02,
20,1.32e-01,
21,-3.60e-02,
22,1.68e-01,
23,-4.00e-02,
24,1.64e-01,
25,-4.00e-02,
26,-3.60e-02,
27,1.72e-01,
28,-4.00e-02,
29,6.80e-02,
30,-4.00e-02,
31,1.52e-01,
32,-4.40e-02,
33,1.04e-01,
34,-4.00e-02,
35,5.60e-02,
36,9.60e-02,
37,-5.20e-02,
38,-6.40e-02,
39,1.64e-01,
40,1.64e-01,
41,-5.60e-02,
42,-5.20e-02,
43,1.68e-01,
44,-3.60e-02,
45,1.48e-01,
46,-3.60e-02,
47,1.56e-01,
48,-3.60e-02,
49,1.52e-01,
50,-3.20e-02,
51,1.56e-01,
52,-3.60e-02,
53,1.52e-01,
54,1.52e-01,
55,-3.20e-02,
56,-3.20e-02,
57,1.52e-01,
58,1.56e-01,
59,-3.20e-02,
60,-3.20e-02,
61,1.40e-01,
62,1.52e-01,
63,-3.60e-02,
64,-3.20e-02,
65,1.52e-01,
66,-3.20e-02,
67,1.52e-01,
68,1.44e-01,
69,-4.80e-02,
70,-3.60e-02,
71,1.16e-01,
72,-4.80e-02,
73,1.28e-01,
74,-5.60e-02,
75,1.44e-01,
76,1.60e-01,
77,-6.40e-02,
78,1.68e-01,
79,-7.20e-02,
80,1.64e-01,
81,-8.00e-02,
82,1.60e-01,
83,-7.60e-02,
84,-6.40e-02,
85,1.52e-01,
86,1.52e-01,
87,-4.00e-02,
88,-3.60e-02,
89,1.48e-01,
90,-3.60e-02,
91,1.40e-01,
92,1.56e-01,
93,-3.60e-02,
94,1.56e-01,
95,-4.00e-02,
96,1.64e-01,
97,-4.00e-02,
98,-4.00e-02,
99,1.60e-01,
100,-3.60e-02,
101,1.60e-01,
102,-3.60e-02,
103,1.68e-01,
104,1.64e-01,
105,-4.00e-02,
106,1.52e-01,
107,-4.00e-02,
108,1.64e-01,
109,-4.00e-02,
110,-4.00e-02,
111,1.20e-01,
112,-4.00e-02,
113,1.48e-01,
114,-4.00e-02,
115,8.80e-02,
116,-4.00e-02,
117,1.20e-01,
118,-4.00e-02,
119,6.00e-02,
120,-4.00e-02,
121,1.64e-01,
122,1.68e-01,
123,-5.20e-02,
124,1.72e-01,
125,-6.00e-02,
126,-3.60e-02,
127,1.64e-01,
128,-3.60e-02,
129,1.40e-01,
130,-3.60e-02,
131,1.24e-01,
132,-3.20e-02,
133,1.48e-01,
134,1.52e-01,
135,-3.60e-02,
136,1.52e-01,
137,-3.60e-02,
138,-3.20e-02,
139,1.56e-01,
140,1.52e-01,
141,-3.60e-02,
142,1.56e-01,
143,-3.60e-02,
144,-3.20e-02,
145,1.32e-01,
146,-3.60e-02,
147,1.52e-01,
148,-3.60e-02,
149,1.20e-01,
150,1.52e-01,
151,-3.60e-02,
152,8.40e-02,
153,-5.20e-02,
154,1.60e-01,
155,-4.40e-02,
156,8.00e-02,
157,-4.80e-02,
158,-6.00e-02,
159,1.04e-01,
160,1.64e-01,
161,-7.20e-02,
162,-7.20e-02,
163,1.60e-01,
164,-8.00e-02,
165,1.68e-01,
166,-6.40e-02,
167,1.60e-01,
168,1.56e-01,
169,-4.40e-02,
170,1.20e-01,
171,-4.00e-02,
172,-3.60e-02,
173,1.52e-01,
174,-3.60e-02,
175,1.56e-01,
176,-3.60e-02,
177,1.56e-01,
178,1.56e-01,
179,-3.60e-02,
180,-3.60e-02,
181,1.24e-01,
182,-3.20e-02,
183,1.56e-01,
184,-3.60e-02,
185,1.20e-01,
186,1.52e-01,
187,-3.60e-02,
188,-3.60e-02,
189,1.64e-01,
190,1.56e-01,
191,-3.60e-02,
192,-3.60e-02,
193,1.56e-01,
194,-4.00e-02,
195,1.12e-01,
196,-3.60e-02,
197,1.16e-01,
198,-4.00e-02,
199,1.44e-01,
200,-3.60e-02,
201,1.72e-01,
202,-3.60e-02,
203,1.64e-01,
204,-3.60e-02,
205,1.72e-01,
206,-3.60e-02,
207,1.64e-01,
208,-3.60e-02,
209,1.64e-01,
210,-3.60e-02,
211,1.56e-01,
212,-3.20e-02,
213,1.32e-01,
214,-3.20e-02,
215,1.48e-01,
216,1.40e-01,
217,-3.60e-02,
218,-3.60e-02,
219,1.36e-01,
220,1.56e-01,
221,-3.60e-02,
222,1.60e-01,
223,-3.60e-02,
224,1.56e-01,
225,-3.60e-02,
226,-3.60e-02,
227,1.52e-01,
228,1.48e-01,
229,-3.60e-02,
230,-3.60e-02,
231,7.60e-02,
232,-3.60e-02,
233,1.36e-01,
234,-3.60e-02,
235,1.40e-01,
236,1.48e-01,
237,-4.40e-02,
238,-5.20e-02,
239,1.00e-01,
240,-6.80e-02,
241,1.28e-01,
242,-7.20e-02,
243,1.48e-01,
244,1.60e-01,
245,-8.40e-02,
246,1.56e-01,
247,-7.20e-02,
248,1.72e-01,
249,-7.60e-02,
250,-8.00e-02,
251,1.64e-01,
252,-3.60e-02,
253,1.60e-01,
254,1.64e-01,
255,-3.60e-02,
256,-3.20e-02,
257,1.52e-01,
258,-3.60e-02,
259,1.28e-01,
260,1.52e-01,
261,-3.60e-02,
262,-3.20e-02,
263,1.60e-01,
264,1.48e-01,
265,-3.60e-02,
266,-3.60e-02,
267,1.60e-01,
268,1.64e-01,
269,-4.00e-02,
270,-3.60e-02,
271,1.64e-01,
272,-3.60e-02,
273,7.60e-02,
274,-3.60e-02,
275,4.00e-02,
276,9.20e-02,
277,-3.60e-02,
278,-3.60e-02,
279,1.00e-01,
280,-3.20e-02,
281,1.60e-01,
282,1.72e-01,
283,-3.60e-02,
284,-3.60e-02,
285,1.68e-01,
286,-3.60e-02,
287,1.60e-01,
288,-3.20e-02,
289,1.72e-01,
290,-3.60e-02,
291,1.60e-01,
292,-3.20e-02,
293,1.48e-01,
294,-3.20e-02,
295,1.56e-01,
296,1.56e-01,
297,-3.20e-02,
298,-3.60e-02,
299,1.44e-01,
300,-3.20e-02,
301,1.52e-01,
302,-3.60e-02,
303,1.52e-01,
304,-3.60e-02,
305,1.44e-01,
306,1.56e-01,
307,-3.60e-02,
308,-3.20e-02,
309,9.60e-02,
310,1.20e-01,
311,-3.60e-02,
312,8.80e-02,
313,-3.60e-02,
314,1.52e-01,
315,-3.20e-02,
316,-3.60e-02,
317,6.80e-02,
318,-4.40e-02,
319,1.52e-01,
320,1.56e-01,
321,-6.00e-02,
322,-6.80e-02,
323,1.68e-01,
324,-6.80e-02,
325,1.64e-01,
326,1.44e-01,
327,-6.80e-02,
328,-6.40e-02,
329,1.56e-01,
330,-6.40e-02,
331,1.60e-01,
332,-8.00e-02,
333,1.60e-01,
334,-6.00e-02,
335,1.56e-01,
336,1.56e-01,
337,-3.60e-02,
338,-3.60e-02,
339,1.60e-01,
340,1.56e-01,
341,-4.00e-02,
342,1.52e-01,
343,-3.60e-02,
344,-3.60e-02,
345,1.60e-01,
346,-3.20e-02,
347,1.48e-01,
348,1.52e-01,
349,-3.60e-02,
350,-3.60e-02,
351,1.48e-01,
352,9.20e-02,
353,-3.60e-02,
354,1.40e-01,
355,-3.60e-02,
356,8.00e-02,
357,-4.00e-02,
358,-3.60e-02,
359,1.16e-01,
360,-3.20e-02,
361,1.68e-01,
362,-3.60e-02,
363,1.64e-01,
364,-3.60e-02,
365,1.68e-01,
366,1.64e-01,
367,-3.20e-02,
368,-3.60e-02,
369,1.28e-01,
370,-3.20e-02,
371,1.64e-01,
372,1.64e-01,
373,-3.60e-02,
374,1.52e-01,
375,-3.60e-02,
376,-3.20e-02,
377,1.52e-01,
378,-3.20e-02,
379,1.52e-01,
380,-3.20e-02,
381,1.40e-01,
382,-3.20e-02,
383,1.36e-01,
384,-3.60e-02,
385,1.52e-01,
386,-3.20e-02,
387,1.52e-01,
388,1.44e-01,
389,-4.00e-02,
390,-3.60e-02,
391,1.24e-01,
392,-3.60e-02,
393,8.40e-02,
394,1.28e-01,
395,-3.20e-02,
396,-3.20e-02,
397,8.40e-02,
398,-3.20e-02,
399,1.40e-01,
400,-3.20e-02,
401,1.52e-01,
402,-4.80e-02,
403,1.52e-01,
404,1.48e-01,
405,-4.80e-02,
406,1.52e-01,
407,-6.00e-02,
408,-6.40e-02,
409,1.64e-01,
410,1.52e-01,
411,-7.60e-02,
412,1.48e-01,
413,-7.60e-02,
414,-6.00e-02,
415,1.72e-01,
416,-7.60e-02,
417,1.60e-01,
418,-5.20e-02,
419,1.60e-01,
420,-3.60e-02,
421,1.60e-01,
422,-4.00e-02,
423,1.40e-01,
424,1.52e-01,
425,-3.60e-02,
426,1.52e-01,
427,-3.60e-02,
428,-3.60e-02,
429,1.60e-01,
430,-3.60e-02,
431,1.56e-01,
432,1.52e-01,
433,-4.00e-02,
434,-4.00e-02,
435,1.04e-01,
436,-3.20e-02,
437,1.08e-01,
438,-3.60e-02,
439,1.36e-01,
440,1.64e-01,
441,-3.60e-02,
442,1.64e-01,
443,-3.60e-02,
444,-3.20e-02,
445,1.68e-01,
446,-4.40e-02,
447,1.64e-01,
448,1.52e-01,
449,-3.60e-02,
450,-3.60e-02,
451,1.68e-01,
452,-3.60e-02,
453,1.60e-01,
454,-3.20e-02,
455,1.68e-01,
456,1.68e-01,
457,-3.60e-02,
458,-3.20e-02,
459,1.64e-01,
460,1.56e-01,
461,-3.60e-02,
462,1.44e-01,
463,-3.20e-02,
464,1.40e-01,
465,-3.20e-02,
466,1.28e-01,
467,-3.20e-02,
468,-3.20e-02,
469,1.12e-01,
470,8.80e-02,
471,-3.20e-02,
472,1.16e-01,
473,-3.60e-02,
474,-3.60e-02,
475,1.48e-01,
476,8.00e-02,
477,-3.60e-02,
478,1.44e-01,
479,-3.20e-02,
480,1.40e-01,
481,-3.20e-02,
482,1.44e-01,
483,-3.60e-02,
484,-6.40e-02,
485,1.56e-01,
486,-6.40e-02,
487,1.52e-01,
488,1.64e-01,
489,-6.00e-02,
490,-6.00e-02,
491,1.64e-01,
492,-6.40e-02,
493,1.60e-01,
494,-6.80e-02,
495,1.40e-01,
496,1.56e-01,
497,-6.80e-02,
498,1.64e-01,
499,-6.40e-02,
500,-6.40e-02,
501,1.64e-01,
502,1.56e-01,
503,-3.60e-02,
504,-3.60e-02,
505,1.48e-01,
506,-3.20e-02,
507,1.44e-01,
508,1.48e-01,
509,-3.60e-02,
510,1.32e-01,
511,-3.60e-02,
512,-3.60e-02,
513,9.60e-02,
514,1.16e-01,
515,-4.40e-02,
516,-4.00e-02,
517,8.80e-02,
518,1.52e-01,
519,-4.40e-02,
520,1.52e-01,
521,-4.40e-02,
522,1.52e-01,
523,-4.00e-02,
524,1.48e-01,
525,-3.60e-02,
526,-3.20e-02,
527,1.68e-01,
528,-3.20e-02,
529,1.64e-01,
530,1.68e-01,
531,-3.20e-02,
532,1.68e-01,
533,-3.60e-02,
534,-3.60e-02,
535,1.68e-01,
536,1.68e-01,
537,-3.60e-02,
538,-3.60e-02,
539,1.64e-01,
540,1.68e-01,
541,-4.00e-02,
542,-3.20e-02,
543,1.60e-01,
544,-3.20e-02,
545,1.44e-01,
546,1.36e-01,
547,-3.20e-02,
548,-3.20e-02,
549,1.32e-01,
550,1.36e-01,
551,-3.20e-02,
552,9.20e-02,
553,-3.60e-02,
554,-3.60e-02,
555,9.20e-02,
556,-3.60e-02,
557,1.48e-01,
558,-3.20e-02,
559,1.48e-01,
560,-3.60e-02,
561,1.28e-01,
562,-3.60e-02,
563,1.52e-01,
564,1.56e-01,
565,-5.60e-02,
566,-5.20e-02,
567,1.56e-01,
568,1.56e-01,
569,-6.00e-02,
570,1.56e-01,
571,-6.00e-02,
572,-6.80e-02,
573,1.64e-01,
574,-4.40e-02,
575,1.52e-01,
576,1.68e-01,
577,-4.80e-02,
578,-6.00e-02,
579,1.56e-01,
580,-6.00e-02,
581,1.64e-01,
582,1.68e-01,
583,-6.00e-02,
584,-4.00e-02,
585,1.52e-01,
586,1.60e-01,
587,-3.60e-02,
588,-3.20e-02,
589,1.44e-01,
590,-3.20e-02,
591,9.20e-02,
592,1.12e-01,
593,-3.60e-02,
594,8.40e-02,
595,-4.00e-02,
596,-3.20e-02,
597,1.40e-01,
598,1.48e-01,
599,-4.40e-02,
600,1.56e-01,
601,-3.60e-02,
602,-4.00e-02,
603,1.52e-01,
604,-4.40e-02,
605,1.52e-01,
606,-3.20e-02,
607,1.64e-01,
608,-3.20e-02,
609,1.64e-01,
610,-3.60e-02,
611,1.64e-01,
612,1.64e-01,
613,-3.20e-02,
614,-3.20e-02,
615,1.56e-01,
616,1.68e-01,
617,-3.60e-02,
618,1.68e-01,
619,-3.60e-02,
620,1.68e-01,
621,-3.60e-02,
622,1.08e-01,
623,-4.40e-02,
624,-4.80e-02,
625,1.56e-01,
626,-3.20e-02,
627,1.56e-01,
628,-3.20e-02,
629,8.00e-02,
630,1.24e-01,
631,-3.20e-02,
632,-3.20e-02,
633,1.32e-01,
634,1.08e-01,
635,-3.60e-02,
636,-3.20e-02,
637,1.44e-01,
638,-3.60e-02,
639,1.20e-01,
640,1.48e-01,
641,-3.60e-02,
642,-3.60e-02,
643,1.44e-01,
644,-3.60e-02,
645,1.52e-01,
646,-4.40e-02,
647,1.56e-01,
648,1.60e-01,
649,-4.40e-02,
650,1.32e-01,
651,-4.80e-02,
652,1.56e-01,
653,-5.60e-02,
654,-5.60e-02,
655,1.60e-01,
656,-5.60e-02,
657,1.56e-01,
658,-6.00e-02,
659,1.44e-01,
660,1.64e-01,
661,-6.00e-02,
662,1.68e-01,
663,-6.40e-02,
664,1.60e-01,
665,-6.40e-02,
666,-7.20e-02,
667,1.64e-01,
668,-3.20e-02,
669,1.56e-01,
670,1.16e-01,
671,-3.20e-02,
672,1.44e-01,
673,-3.20e-02,
674,1.24e-01,
675,-3.20e-02,
676,-3.60e-02,
677,8.80e-02,
678,9.60e-02,
679,-5.20e-02,
680,1.52e-01,
681,-5.20e-02,
682,-4.40e-02,
683,1.48e-01,
684,1.44e-01,
685,-3.60e-02,
686,-3.60e-02,
687,1.56e-01,
688,-3.20e-02,
689,1.56e-01,
690,1.28e-01,
691,-3.60e-02,
692,-3.20e-02,
693,1.68e-01,
694,1.52e-01,
695,-3.20e-02,
696,-3.60e-02,
697,1.64e-01,
698,-3.60e-02,
699,1.68e-01,
700,-3.20e-02,
701,1.64e-01,
702,1.52e-01,
703,-3.60e-02,
704,1.60e-01,
705,-3.60e-02,
706,1.64e-01,
707,-3.60e-02,
708,1.16e-01,
709,-4.40e-02,
710,8.40e-02,
711,-3.60e-02,
712,-3.20e-02,
713,1.32e-01,
714,-2.80e-02,
715,1.32e-01,
716,-3.20e-02,
717,1.36e-01,
718,-3.60e-02,
719,1.36e-01,
720,-3.60e-02,
721,1.44e-01,
722,-3.60e-02,
723,1.48e-01,
724,-3.60e-02,
725,1.40e-01,
726,1.48e-01,
727,-3.60e-02,
728,-3.60e-02,
729,1.40e-01,
730,-3.60e-02,
731,1.60e-01,
732,-3.60e-02,
733,1.56e-01,
734,1.60e-01,
735,-4.00e-02,
736,-4.40e-02,
737,1.56e-01,
738,1.64e-01,
739,-5.20e-02,
740,1.64e-01,
741,-5.60e-02,
742,1.68e-01,
743,-4.00e-02,
744,-4.00e-02,
745,1.60e-01,
746,1.32e-01,
747,-3.60e-02,
748,-3.60e-02,
749,1.72e-01,
750,-4.00e-02,
751,5.60e-02,
752,-3.20e-02,
753,1.56e-01,
754,-4.00e-02,
755,9.20e-02,
756,1.20e-01,
757,-3.20e-02,
758,-3.60e-02,
759,1.52e-01,
760,-4.80e-02,
761,1.52e-01,
762,1.48e-01,
763,-4.40e-02,
764,-5.20e-02,
765,1.52e-01,
766,-4.00e-02,
767,1.48e-01,
768,-3.20e-02,
769,1.56e-01,
770,-2.80e-02,
771,1.60e-01,
772,-3.20e-02,
773,1.36e-01,
774,-3.20e-02,
775,1.60e-01,
776,-3.20e-02,
777,1.64e-01,
778,1.40e-01,
779,-3.60e-02,
780,-3.60e-02,
781,1.64e-01,
782,1.64e-01,
783,-3.60e-02,
784,1.56e-01,
785,-3.60e-02,
786,1.52e-01,
787,-3.60e-02,
788,-4.00e-02,
789,1.00e-01,
790,1.00e-01,
791,-5.60e-02,
792,1.52e-01,
793,-3.60e-02,
794,-3.20e-02,
795,1.04e-01,
796,-3.20e-02,
797,9.20e-02,
798,-3.20e-02,
799,1.24e-01,
800,1.36e-01,
801,-3.60e-02,
802,-3.60e-02,
803,1.44e-01,
804,-4.00e-02,
805,1.44e-01,
806,1.44e-01,
807,-3.60e-02,
808,-3.60e-02,
809,1.44e-01,
810,-3.60e-02,
811,1.52e-01,
812,-3.60e-02,
813,1.60e-01,
814,1.52e-01,
815,-3.60e-02,
816,-3.60e-02,
817,1.60e-01,
818,1.52e-01,
819,-3.60e-02,
820,-3.20e-02,
821,1.64e-01,
822,-3.60e-02,
823,1.64e-01,
824,-3.20e-02,
825,1.64e-01,
826,1.32e-01,
827,-3.60e-02,
828,2.80e-02,
829,-3.60e-02,
830,-3.60e-02,
831,6.80e-02,
832,1.32e-01,
833,-4.00e-02,
834,-3.60e-02,
835,1.28e-01,
836,1.32e-01,
837,-3.60e-02,
838,-3.60e-02,
839,1.32e-01,
840,1.48e-01,
841,-4.80e-02,
842,1.44e-01,
843,-4.40e-02,
844,-4.40e-02,
845,1.44e-01,
846,-4.80e-02,
847,1.48e-01,
848,-3.20e-02,
849,1.52e-01,
850,1.48e-01,
851,-4.00e-02,
852,-3.20e-02,
853,1.32e-01,
854,1.60e-01,
855,-3.60e-02,
856,-3.20e-02,
857,1.56e-01,
858,-3.20e-02,
859,1.60e-01,
860,-3.20e-02,
861,1.64e-01,
862,-3.20e-02,
863,1.16e-01,
864,-3.20e-02,
865,1.56e-01,
866,8.00e-02,
867,-3.20e-02,
868,-3.60e-02,
869,1.24e-01,
870,1.04e-01,
871,-3.60e-02,
872,-4.00e-02,
873,1.44e-01,
874,-4.80e-02,
875,1.48e-01,
876,1.44e-01,
877,-5.60e-02,
878,-3.20e-02,
879,1.24e-01,
880,1.44e-01,
881,-3.60e-02,
882,1.44e-01,
883,-3.20e-02,
884,-3.60e-02,
885,1.24e-01,
886,1.40e-01,
887,-4.00e-02,
888,-3.60e-02,
889,1.44e-01,
890,1.56e-01,
891,-3.60e-02,
892,1.24e-01,
893,-4.00e-02,
894,-4.00e-02,
895,1.48e-01,
896,1.60e-01,
897,-3.60e-02,
898,1.60e-01,
899,-4.00e-02,
900,-3.60e-02,
901,1.64e-01,
902,1.48e-01,
903,-4.00e-02,
904,1.64e-01,
905,-3.60e-02,
906,1.56e-01,
907,-3.60e-02,
908,1.68e-01,
909,-4.00e-02,
910,-4.00e-02,
911,1.36e-01,
912,-4.00e-02,
913,1.12e-01,
914,1.68e-01,
915,-5.20e-02,
916,7.20e-02,
917,-4.40e-02,
918,1.44e-01,
919,-4.40e-02,
920,1.56e-01,
921,-4.80e-02,
922,1.52e-01,
923,-4.80e-02,
924,1.56e-01,
925,-3.60e-02,
926,-4.40e-02,
927,1.48e-01,
928,1.44e-01,
929,-4.40e-02,
930,1.52e-01,
931,-3.60e-02,
932,1.48e-01,
933,-3.60e-02,
934,-3.60e-02,
935,1.56e-01,
936,1.64e-01,
937,-3.60e-02,
938,1.56e-01,
939,-3.20e-02,
940,-3.20e-02,
941,1.60e-01,
942,-3.20e-02,
943,1.60e-01,
944,-3.20e-02,
945,1.52e-01,
946,1.56e-01,
947,-3.20e-02,
948,-3.20e-02,
949,1.20e-01,
950,-3.20e-02,
951,1.00e-01,
952,1.36e-01,
953,-3.20e-02,
954,1.24e-01,
955,-4.40e-02,
956,1.00e-01,
957,-4.80e-02,
958,-4.80e-02,
959,1.48e-01,
960,-3.20e-02,
961,1.44e-01,
962,-3.20e-02,
963,1.36e-01,
964,1.40e-01,
965,-4.80e-02,
966,-4.00e-02,
967,1.44e-01,
968,-4.00e-02,
969,1.44e-01,
970,1.12e-01,
971,-4.00e-02,
972,-3.60e-02,
973,1.32e-01,
974,1.44e-01,
975,-4.00e-02,
976,-3.60e-02,
977,1.56e-01,
978,-3.60e-02,
979,1.64e-01,
980,-3.60e-02,
981,1.56e-01,
982,-3.20e-02,
983,1.64e-01,
984,-3.60e-02,
985,1.64e-01,
986,1.60e-01,
987,-3.20e-02,
988,-3.60e-02,
989,1.24e-01,
990,-3.60e-02,
991,1.68e-01,
992,-4.00e-02,
993,1.16e-01,
994,-3.60e-02,
995,6.40e-02,
996,-3.20e-02,
997,1.00e-01,
998,1.72e-01,
999,-3.60e-02,
1000,1.60e-01,
1001,-4.40e-02,
1002,1.56e-01,
1003,-4.40e-02,
1004,-4.40e-02,
1005,1.56e-01,
1006,1.28e-01,
1007,-4.80e-02,
1008,-4.40e-02,
1009,1.44e-01,
1010,1.60e-01,
1011,-4.00e-02,
1012,-3.60e-02,
1013,1.44e-01,
1014,1.40e-01,
1015,-3.20e-02,
1016,-2.80e-02,
1017,1.28e-01,
1018,-2.80e-02,
1019,1.44e-01,
1020,1.44e-01,
1021,-3.20e-02,
1022,1.44e-01,
1023,-2.80e-02,
1024,1.52e-01,
1025,-3.20e-02,
1026,1.44e-01,
1027,-3.20e-02,
1028,-2.80e-02,
1029,1.04e-01,
1030,-2.80e-02,
1031,1.04e-01,
1032,1.60e-01,
1033,-3.20e-02,
1034,-3.20e-02,
1035,6.40e-02,
1036,1.44e-01,
1037,-3.60e-02,
1038,1.48e-01,
1039,-6.00e-02,
1040,1.52e-01,
1041,-6.80e-02,
1042,-6.00e-02,
1043,1.44e-01,
1044,1.40e-01,
1045,-3.20e-02,
1046,1.32e-01,
1047,-3.20e-02,
1048,1.24e-01,
1049,-2.80e-02,
1050,1.48e-01,
1051,-3.60e-02,
1052,-3.60e-02,
1053,1.20e-01,
1054,-4.00e-02,
1055,1.44e-01,
1056,-3.60e-02,
1057,1.60e-01,
1058,-3.60e-02,
1059,1.64e-01,
1060,-3.20e-02,
1061,1.56e-01,
1062,-3.60e-02,
1063,1.64e-01,
1064,-3.60e-02,
1065,1.68e-01,
1066,-3.20e-02,
1067,1.64e-01,
1068,-3.60e-02,
1069,1.68e-01,
1070,-4.00e-02,
1071,3.60e-02,
1072,-4.00e-02,
1073,1.32e-01,
1074,1.76e-01,
1075,-4.80e-02,
1076,7.60e-02,
1077,-4.80e-02,
1078,-4.40e-02,
1079,1.68e-01,
1080,1.72e-01,
1081,-4.00e-02,
1082,1.68e-01,
1083,-4.80e-02,
1084,-4.40e-02,
1085,1.64e-01,
1086,-4.40e-02,
1087,1.64e-01,
1088,-4.40e-02,
1089,1.56e-01,
1090,-4.40e-02,
1091,1.56e-01,
1092,-4.00e-02,
1093,1.48e-01,
1094,-3.60e-02,
1095,1.52e-01,
1096,-3.60e-02,
1097,1.56e-01,
1098,-3.20e-02,
1099,1.56e-01,
1100,1.64e-01,
1101,-3.60e-02,
1102,-3.60e-02,
1103,1.36e-01,
1104,1.60e-01,
1105,-3.60e-02,
1106,-3.60e-02,
1107,1.56e-01,
1108,-3.60e-02,
1109,1.20e-01,
1110,-3.60e-02,
1111,1.60e-01,
1112,1.04e-01,
1113,-5.60e-02,
1114,-4.00e-02,
1115,1.24e-01,
1116,1.60e-01,
1117,-4.40e-02,
1118,1.56e-01,
1119,-8.00e-02,
1120,1.68e-01,
1121,-9.20e-02,
1122,1.60e-01,
1123,-1.00e-01,
1124,-1.00e-01,
1125,1.60e-01,
1126,-7.20e-02,
1127,1.48e-01,
1128,1.48e-01,
1129,-4.00e-02,
1130,1.44e-01,
1131,-4.00e-02,
1132,-3.60e-02,
1133,1.48e-01,
1134,1.52e-01,
1135,-3.60e-02,
1136,-3.60e-02,
1137,1.52e-01,
1138,1.48e-01,
1139,-3.60e-02,
1140,1.52e-01,
1141,-4.00e-02,
1142,-4.00e-02,
1143,1.52e-01,
1144,-4.00e-02,
1145,1.60e-01,
1146,-3.60e-02,
1147,1.52e-01,
1148,1.60e-01,
1149,-4.00e-02,
1150,-3.60e-02,
1151,1.48e-01,
1152,8.00e-02,
1153,-3.60e-02,
1154,-3.60e-02,
1155,3.60e-02,
1156,8.00e-02,
1157,-4.00e-02,
1158,-3.60e-02,
1159,1.56e-01,
1160,-4.00e-02,
1161,1.76e-01,
1162,-3.60e-02,
1163,1.68e-01,
1164,-4.00e-02,
1165,1.72e-01,
1166,1.64e-01,
1167,-4.40e-02,
1168,1.64e-01,
1169,-4.40e-02,
1170,1.40e-01,
1171,-4.00e-02,
1172,-4.00e-02,
1173,1.60e-01,
1174,-3.60e-02,
1175,1.48e-01,
1176,1.32e-01,
1177,-3.60e-02,
1178,-3.20e-02,
1179,1.64e-01,
1180,-3.60e-02,
1181,1.56e-01,
1182,1.48e-01,
1183,-3.20e-02,
1184,1.48e-01,
1185,-3.20e-02,
1186,1.52e-01,
1187,-3.20e-02,
1188,9.20e-02,
1189,-3.60e-02,
1190,8.00e-02,
1191,-4.00e-02,
1192,-3.60e-02,
1193,1.52e-01,
1194,-3.60e-02,
1195,8.00e-02,
1196,1.48e-01,
1197,-4.40e-02,
1198,1.52e-01,
1199,-6.40e-02,
