Motor_Data/MOTOR_2_ON/MOTOR2_ON_Probe2/time domain (distant ch1 close ch2)/NewFile30.csv

X,CH1,CH2,Start,Increment,
Sequence,Volt,Volt,-3.000000e-02,5.000000e-05
0,-4.40e-02,1.40e-02,
1,3.20e-02,-6.00e-03,
2,2.80e-02,-4.00e-03,
3,-3.20e-02,1.00e-02,
4,3.20e-02,1.00e-02,
5,-4.00e-02,-1.20e-02,
6,-4.40e-02,-1.40e-02,
7,2.80e-02,8.00e-03,
8,-4.00e-02,1.40e-02,
9,3.60e-02,-1.00e-02,
10,-4.00e-02,-8.00e-03,
11,3.60e-02,1.00e-02,
12,3.60e-02,-8.00e-03,
13,-4.00e-02,1.20e-02,
14,4.00e-02,-4.00e-03,
15,-4.80e-02,1.20e-02,
16,-4.40e-02,-4.00e-03,
17,3.60e-02,1.20e-02,
18,3.20e-02,-4.00e-03,
19,-4.40e-02,2.00e-02,
20,4.00e-02,-6.00e-03,
21,-4.80e-02,3.40e-02,
22,-1.48e-01,-2.18e-01,
23,2.64e-01,1.46e-01,
24,3.20e-02,3.00e-02,
25,-4.80e-02,-6.00e-03,
26,2.40e-02,2.00e-02,
27,-4.80e-02,-2.20e-02,
28,8.00e-03,2.60e-02,
29,-4.40e-02,-8.00e-03,
30,-4.40e-02,-6.00e-03,
31,1.20e-02,1.60e-02,
32,1.20e-02,-4.00e-03,
33,-2.00e-02,1.40e-02,
34,1.20e-02,-1.00e-02,
35,-3.60e-02,2.00e-02,
36,1.20e-02,1.20e-02,
37,-4.40e-02,-1.60e-02,
38,-4.40e-02,-1.40e-02,
39,4.80e-02,1.40e-02,
40,-4.40e-02,1.20e-02,
41,3.60e-02,-1.40e-02,
42,4.00e-02,-1.00e-02,
43,-4.80e-02,2.00e-02,
44,3.60e-02,1.60e-02,
45,-4.80e-02,-1.00e-02,
46,-4.80e-02,1.40e-02,
47,3.20e-02,-1.00e-02,
48,-4.40e-02,1.60e-02,
49,4.00e-02,-1.00e-02,
50,4.72e-01,-2.54e-01,
51,-5.24e-01,2.56e-01,
52,2.64e-01,-2.38e-01,
53,-2.76e-01,2.56e-01,
54,-4.80e-02,1.40e-02,
55,3.20e-02,-8.00e-03,
56,-4.80e-02,-1.40e-02,
57,3.20e-02,8.00e-03,
58,2.80e-02,8.00e-03,
59,-4.80e-02,-1.60e-02,
60,-5.20e-02,1.20e-02,
61,2.80e-02,-1.40e-02,
62,-4.40e-02,1.60e-02,
63,3.60e-02,-1.20e-02,
64,3.60e-02,1.60e-02,
65,-4.40e-02,-8.00e-03,
66,-3.20e-02,-4.00e-03,
67,4.80e-02,1.20e-02,
68,8.00e-03,-4.00e-03,
69,-2.00e-02,1.00e-02,
70,-2.00e-02,1.60e-02,
71,2.80e-02,-3.00e-02,
72,2.80e-02,-1.20e-02,
73,-2.40e-02,2.60e-02,
74,8.00e-03,-4.00e-03,
75,-3.60e-02,3.20e-02,
76,3.20e-02,-6.00e-03,
77,-4.40e-02,2.60e-02,
78,3.60e-02,-2.20e-02,
79,-4.00e-02,1.80e-02,
80,1.08e-01,-2.54e-01,
81,-3.08e-01,2.56e-01,
82,2.40e-02,1.20e-02,
83,-3.60e-02,-4.00e-03,
84,2.80e-02,8.00e-03,
85,-3.60e-02,-6.00e-03,
86,3.20e-02,-1.20e-02,
87,-3.20e-02,8.00e-03,
88,5.20e-02,-4.00e-03,
89,-2.40e-02,1.00e-02,
90,3.20e-02,8.00e-03,
91,-3.20e-02,-1.00e-02,
92,4.00e-02,1.00e-02,
93,-4.40e-02,-1.00e-02,
94,-4.40e-02,1.40e-02,
95,3.60e-02,-6.00e-03,
96,-5.20e-02,-8.00e-03,
97,3.60e-02,1.60e-02,
98,3.60e-02,1.40e-02,
99,-4.00e-02,-4.00e-03,
100,-4.00e-02,3.00e-02,
101,3.60e-02,-2.60e-02,
102,3.20e-02,2.80e-02,
103,-4.40e-02,-2.00e-02,
104,3.60e-02,-4.00e-03,
105,-4.40e-02,1.80e-02,
106,-4.40e-02,1.40e-02,
107,3.20e-02,-8.00e-03,
108,1.04e-01,2.56e-01,
109,-1.24e-01,-2.54e-01,
110,1.60e-02,-1.00e-02,
111,-3.60e-02,2.60e-02,
112,8.00e-03,1.20e-02,
113,-4.00e-02,-4.00e-03,
114,8.00e-03,-4.00e-03,
115,-3.60e-02,1.60e-02,
116,8.00e-03,1.80e-02,
117,-4.00e-02,-1.20e-02,
118,-4.80e-02,1.00e-02,
119,4.40e-02,-1.20e-02,
120,-4.40e-02,1.40e-02,
121,3.60e-02,-8.00e-03,
122,3.20e-02,1.60e-02,
123,-3.60e-02,-2.40e-02,
124,-4.00e-02,-2.20e-02,
125,3.60e-02,2.20e-02,
126,-2.40e-02,-4.00e-03,
127,4.40e-02,1.00e-02,
128,-2.80e-02,3.40e-02,
129,3.60e-02,-6.00e-03,
130,-2.40e-02,2.20e-02,
131,4.40e-02,-1.20e-02,
132,2.80e-02,8.00e-03,
133,-2.40e-02,-2.20e-02,
134,3.20e-02,-4.00e-03,
135,-3.20e-02,8.00e-03,
136,3.60e-02,-8.00e-03,
137,-4.40e-02,1.00e-02,
138,-1.92e-01,-9.80e-02,
139,2.80e-01,9.00e-02,
140,5.20e-02,1.60e-02,
141,-2.80e-02,-6.00e-03,
142,4.40e-02,1.00e-02,
143,-2.80e-02,-4.00e-03,
144,2.00e-02,-4.00e-03,
145,-2.00e-02,1.20e-02,
146,1.20e-02,2.00e-02,
147,-3.20e-02,-8.00e-03,
148,1.20e-02,2.00e-02,
149,-4.40e-02,-1.20e-02,
150,3.60e-02,1.60e-02,
151,-3.60e-02,-1.00e-02,
152,-4.00e-02,-2.80e-02,
153,4.00e-02,2.80e-02,
154,3.60e-02,2.00e-02,
155,-3.20e-02,-2.20e-02,
156,1.20e-02,1.80e-02,
157,-3.60e-02,-4.00e-03,
158,-2.80e-02,1.20e-02,
159,1.20e-02,-6.00e-03,
160,-2.40e-02,1.80e-02,
161,3.20e-02,-6.00e-03,
162,3.20e-02,-1.00e-02,
163,-3.20e-02,2.20e-02,
164,-5.20e-02,-8.00e-03,
165,3.20e-02,2.40e-02,
166,4.72e-01,-2.54e-01,
167,-4.32e-01,2.26e-01,
168,-4.00e-02,8.00e-03,
169,3.60e-02,-1.40e-02,
170,-3.60e-02,8.00e-03,
171,5.20e-02,-8.00e-03,
172,2.80e-02,1.00e-02,
173,-3.60e-02,-1.00e-02,
174,-4.00e-02,-8.00e-03,
175,3.60e-02,1.40e-02,
176,-4.40e-02,1.40e-02,
177,3.60e-02,-4.00e-03,
178,4.00e-02,8.00e-03,
179,-3.20e-02,-4.00e-03,
180,4.40e-02,-4.00e-03,
181,-2.40e-02,2.80e-02,
182,4.40e-02,2.60e-02,
183,-3.60e-02,-4.00e-03,
184,3.20e-02,-2.60e-02,
185,-4.00e-02,2.40e-02,
186,-2.80e-02,2.00e-02,
187,2.80e-02,-8.00e-03,
188,1.60e-02,1.20e-02,
189,-3.20e-02,-8.00e-03,
190,-2.80e-02,1.20e-02,
191,1.20e-02,-1.40e-02,
192,2.40e-02,-8.00e-03,
193,-2.00e-02,1.60e-02,
194,-3.20e-02,1.00e-02,
195,1.60e-02,-6.00e-03,
196,3.40e-01,2.56e-01,
197,-3.20e-02,-1.20e-01,
198,1.20e-02,-4.00e-03,
199,-3.60e-02,1.40e-02,
200,-2.80e-02,1.80e-02,
201,3.20e-02,-4.00e-03,
202,4.00e-02,1.20e-02,
203,-3.20e-02,-6.00e-03,
204,3.20e-02,1.80e-02,
205,-5.60e-02,-6.00e-03,
206,4.40e-02,1.20e-02,
207,-4.80e-02,-1.40e-02,
208,4.00e-02,-4.00e-03,
209,-4.00e-02,1.00e-02,
210,2.80e-02,8.00e-03,
211,-2.80e-02,-6.00e-03,
212,2.80e-02,-1.00e-02,
213,-4.00e-02,8.00e-03,
214,3.20e-02,8.00e-03,
215,-4.40e-02,-1.20e-02,
216,2.80e-02,1.40e-02,
217,-4.00e-02,-1.20e-02,
218,-4.00e-02,8.00e-03,
219,2.40e-02,-1.40e-02,
220,-2.40e-02,-8.00e-03,
221,3.20e-02,1.80e-02,
222,5.20e-02,-4.00e-03,
223,-3.20e-02,1.20e-02,
224,4.48e-01,2.56e-01,
225,-4.00e-01,-2.54e-01,
226,8.40e-02,1.86e-01,
227,-5.20e-02,-1.38e-01,
228,-1.20e-02,-3.00e-02,
229,3.60e-02,1.80e-02,
230,1.20e-02,-6.00e-03,
231,-2.40e-02,3.20e-02,
232,-2.40e-02,-4.00e-03,
233,1.20e-02,2.20e-02,
234,3.20e-02,-6.00e-03,
235,-3.20e-02,2.00e-02,
236,1.20e-02,-2.00e-02,
237,-4.80e-02,1.80e-02,
238,-1.20e-02,2.60e-02,
239,3.60e-02,-1.40e-02,
240,-4.80e-02,-1.20e-02,
241,3.60e-02,1.40e-02,
242,-4.00e-02,1.40e-02,
243,4.00e-02,-1.00e-02,
244,-4.80e-02,1.80e-02,
245,4.40e-02,-1.60e-02,
246,4.40e-02,1.20e-02,
247,-4.80e-02,-1.40e-02,
248,-4.40e-02,8.00e-03,
249,4.40e-02,-1.40e-02,
250,-2.80e-02,8.00e-03,
251,3.60e-02,-1.00e-02,
252,3.20e-02,8.00e-03,
253,-3.20e-02,-4.00e-03,
254,-1.40e-01,1.94e-01,
255,4.72e-01,-2.12e-01,
256,-3.20e-02,-4.00e-03,
257,3.20e-02,3.00e-02,
258,-4.00e-02,2.40e-02,
259,4.00e-02,-8.00e-03,
260,-4.80e-02,-2.40e-02,
261,4.00e-02,2.60e-02,
262,-4.00e-02,-6.00e-03,
263,3.20e-02,1.80e-02,
264,3.20e-02,-6.00e-03,
265,-4.00e-02,1.60e-02,
266,1.20e-02,2.40e-02,
267,-3.60e-02,-1.40e-02,
268,1.20e-02,1.00e-02,
269,-4.40e-02,-1.20e-02,
270,-1.20e-02,1.00e-02,
271,3.20e-02,-1.20e-02,
272,-1.20e-02,-1.20e-02,
273,3.20e-02,2.00e-02,
274,-4.80e-02,1.20e-02,
275,1.20e-02,-1.00e-02,
276,-5.20e-02,1.00e-02,
277,1.20e-02,-1.00e-02,
278,8.00e-03,-8.00e-03,
279,-3.60e-02,1.20e-02,
280,-2.16e-01,2.56e-01,
281,2.92e-01,-2.54e-01,
282,3.60e-02,-6.00e-03,
283,-4.40e-02,3.40e-02,
284,4.00e-02,-1.00e-02,
285,-4.80e-02,1.40e-02,
286,-4.40e-02,3.20e-02,
287,4.00e-02,-6.00e-03,
288,3.60e-02,8.00e-03,
289,-4.00e-02,-2.20e-02,
290,-3.20e-02,8.00e-03,
291,2.80e-02,-4.00e-03,
292,2.80e-02,8.00e-03,
293,-3.20e-02,-6.00e-03,
294,3.20e-02,1.00e-02,
295,-4.80e-02,-1.40e-02,
296,-4.40e-02,-1.40e-02,
297,4.00e-02,1.00e-02,
298,5.20e-02,-4.00e-03,
299,-4.40e-02,1.40e-02,
300,-4.40e-02,-1.00e-02,
301,4.00e-02,1.20e-02,
302,-4.40e-02,-1.00e-02,
303,3.20e-02,1.40e-02,
304,3.60e-02,2.00e-02,
305,-4.40e-02,-1.00e-02,
306,1.20e-02,-8.00e-03,
307,-4.80e-02,1.40e-02,
308,-3.20e-02,2.40e-02,
309,3.20e-02,-2.60e-02,
310,-1.00e-01,2.56e-01,
311,1.96e-01,-2.54e-01,
312,8.00e-03,-2.40e-02,
313,-4.40e-02,3.20e-02,
314,-4.00e-02,1.60e-02,
315,2.80e-02,-6.00e-03,
316,1.20e-02,-8.00e-03,
317,-4.40e-02,1.80e-02,
318,8.00e-03,-1.00e-02,
319,-4.80e-02,2.80e-02,
320,2.80e-02,-1.20e-02,
321,-3.60e-02,1.40e-02,
322,2.00e-02,1.00e-02,
323,-2.80e-02,-1.00e-02,
324,-4.80e-02,8.00e-03,
325,3.20e-02,-1.20e-02,
326,5.60e-02,-1.00e-02,
327,-4.80e-02,1.00e-02,
328,-4.40e-02,-2.00e-03,
329,4.40e-02,1.40e-02,
330,-4.40e-02,1.60e-02,
331,4.00e-02,-4.00e-03,
332,-4.40e-02,-4.00e-03,
333,4.00e-02,1.80e-02,
334,4.40e-02,2.00e-02,
335,-4.80e-02,-6.00e-03,
336,-4.40e-02,-8.00e-03,
337,3.60e-02,1.20e-02,
338,4.72e-01,2.56e-01,
339,-5.44e-01,-2.54e-01,
340,4.00e-02,2.00e-02,
341,-2.40e-02,-2.20e-02,
342,2.40e-02,-6.00e-03,
343,-3.20e-02,2.60e-02,
344,-3.20e-02,-4.00e-03,
345,2.00e-02,1.60e-02,
346,1.20e-02,1.60e-02,
347,-2.80e-02,-4.00e-03,
348,2.00e-02,1.80e-02,
349,-3.20e-02,-1.20e-02,
350,1.20e-02,-1.60e-02,
351,-4.00e-02,1.20e-02,
352,-4.40e-02,-1.20e-02,
353,3.60e-02,1.40e-02,
354,1.20e-02,-1.00e-02,
355,-4.40e-02,1.20e-02,
356,8.00e-03,-6.00e-03,
357,-4.00e-02,2.20e-02,
358,8.00e-03,-8.00e-03,
359,-4.00e-02,1.40e-02,
360,3.60e-02,1.40e-02,
361,-4.00e-02,-2.40e-02,
362,3.60e-02,3.20e-02,
363,-4.00e-02,-2.60e-02,
364,4.00e-02,8.00e-03,
365,-4.80e-02,-8.00e-03,
366,3.20e-02,-1.00e-02,
367,-4.40e-02,8.00e-03,
368,-3.00e-01,-2.54e-01,
369,2.16e-01,1.00e-02,
370,3.20e-02,8.00e-03,
371,-4.40e-02,-1.20e-02,
372,3.20e-02,-1.40e-02,
373,-4.80e-02,1.00e-02,
374,2.80e-02,8.00e-03,
375,-4.40e-02,-1.20e-02,
376,2.40e-02,8.00e-03,
377,-2.80e-02,-6.00e-03,
378,4.80e-02,8.00e-03,
379,-4.00e-02,-1.00e-02,
380,4.80e-02,8.00e-03,
381,-4.80e-02,-1.00e-02,
382,4.00e-02,1.20e-02,
383,-4.00e-02,-8.00e-03,
384,1.20e-02,-3.00e-02,
385,-3.60e-02,1.40e-02,
386,3.20e-02,-1.60e-02,
387,-3.20e-02,1.80e-02,
388,-3.20e-02,-4.00e-03,
389,1.20e-02,3.40e-02,
390,-3.20e-02,-4.00e-03,
391,1.20e-02,2.60e-02,
392,3.60e-02,1.60e-02,
393,-3.20e-02,-2.00e-02,
394,1.20e-02,-1.00e-02,
395,-4.40e-02,2.20e-02,
396,4.72e-01,-2.54e-01,
397,-4.64e-01,2.56e-01,
398,-4.68e-01,-2.54e-01,
399,1.28e-01,2.56e-01,
400,2.80e-02,-1.60e-02,
401,-4.00e-02,1.60e-02,
402,4.80e-02,1.40e-02,
403,-4.40e-02,-8.00e-03,
404,4.40e-02,1.20e-02,
405,-4.40e-02,-1.00e-02,
406,-4.00e-02,-6.00e-03,
407,3.60e-02,1.20e-02,
408,3.60e-02,8.00e-03,
409,-4.00e-02,-8.00e-03,
410,3.60e-02,-4.00e-03,
411,-2.80e-02,1.00e-02,
412,3.20e-02,1.00e-02,
413,-3.60e-02,-4.00e-03,
414,4.80e-02,2.60e-02,
415,-4.00e-02,-6.00e-03,
416,4.00e-02,8.00e-03,
417,-3.60e-02,-1.00e-02,
418,-3.60e-02,-8.00e-03,
419,4.00e-02,1.60e-02,
420,-2.00e-02,-4.00e-03,
421,2.80e-02,1.20e-02,
422,-3.20e-02,-8.00e-03,
423,3.60e-02,2.20e-02,
424,3.20e-02,-1.00e-02,
425,-3.60e-02,2.40e-02,
426,2.40e-01,1.56e-01,
427,-1.12e-01,-2.54e-01,
428,8.00e-03,-6.00e-03,
429,-3.20e-02,1.20e-02,
430,8.00e-03,-6.00e-03,
431,-3.20e-02,1.80e-02,
432,1.20e-02,-4.00e-03,
433,-2.80e-02,1.20e-02,
434,8.00e-03,1.00e-02,
435,-4.00e-02,-1.00e-02,
436,-4.00e-02,1.20e-02,
437,4.00e-02,-2.40e-02,
438,3.60e-02,-2.80e-02,
439,-4.40e-02,1.80e-02,
440,4.40e-02,-4.00e-03,
441,-2.80e-02,3.20e-02,
442,3.20e-02,-4.00e-03,
443,-2.40e-02,1.60e-02,
444,4.00e-02,2.20e-02,
445,-2.40e-02,-6.00e-03,
446,2.40e-02,-2.40e-02,
447,-3.60e-02,8.00e-03,
448,2.40e-02,-4.00e-03,
449,-2.80e-02,8.00e-03,
450,-2.00e-02,1.40e-02,
451,2.80e-02,-4.00e-03,
452,3.20e-02,8.00e-03,
453,-4.00e-02,-1.20e-02,
454,1.04e-01,1.28e-01,
455,-1.08e-01,-1.62e-01,
456,4.40e-02,-6.00e-03,
457,-3.20e-02,1.00e-02,
458,-2.40e-02,8.00e-03,
459,2.80e-02,-4.00e-03,
460,-4.00e-02,-1.00e-02,
461,3.60e-02,1.80e-02,
462,3.60e-02,2.00e-02,
463,-4.00e-02,-1.00e-02,
464,8.00e-03,1.40e-02,
465,-4.80e-02,-1.00e-02,
466,-3.60e-02,-2.80e-02,
467,4.40e-02,3.00e-02,
468,-2.80e-02,-2.00e-02,
469,1.20e-02,3.20e-02,
470,1.20e-02,-1.40e-02,
471,-4.80e-02,1.60e-02,
472,-4.80e-02,1.40e-02,
473,1.20e-02,-1.00e-02,
474,-5.20e-02,-1.40e-02,
475,1.20e-02,1.80e-02,
476,1.20e-02,2.40e-02,
477,-3.60e-02,-1.40e-02,
478,-3.20e-02,1.20e-02,
479,2.40e-02,-1.60e-02,
480,2.40e-02,1.00e-02,
481,-3.60e-02,-1.00e-02,
482,-3.20e-02,1.60e-02,
483,4.00e-02,-8.00e-03,
484,3.28e-01,-1.62e-01,
485,-2.16e-01,8.00e-03,
486,3.20e-02,-4.00e-03,
487,-2.80e-02,1.20e-02,
488,3.20e-02,-6.00e-03,
489,-2.40e-02,1.00e-02,
490,3.20e-02,-6.00e-03,
491,-4.00e-02,1.20e-02,
492,3.60e-02,8.00e-03,
493,-4.80e-02,-8.00e-03,
494,3.60e-02,-6.00e-03,
495,-4.00e-02,1.40e-02,
496,4.00e-02,8.00e-03,
497,-2.80e-02,-6.00e-03,
498,3.20e-02,-1.20e-02,
499,-3.60e-02,2.60e-02,
500,2.40e-02,2.20e-02,
501,-3.20e-02,-8.00e-03,
502,2.80e-02,1.40e-02,
503,-3.20e-02,-8.00e-03,
504,3.20e-02,1.40e-02,
505,-3.60e-02,-1.00e-02,
506,8.00e-03,-1.00e-02,
507,-3.20e-02,1.60e-02,
508,1.20e-02,1.00e-02,
509,-3.20e-02,-6.00e-03,
510,-2.00e-02,2.56e-01,
511,4.72e-01,-2.54e-01,
512,1.72e-01,-1.14e-01,
513,-4.80e-02,2.56e-01,
514,-4.80e-02,2.00e-02,
515,1.20e-02,-1.00e-02,
516,1.20e-02,-6.00e-03,
517,-4.00e-02,1.00e-02,
518,-4.80e-02,1.60e-02,
519,4.00e-02,-2.60e-02,
520,3.60e-02,-1.40e-02,
521,-4.40e-02,3.20e-02,
522,-4.40e-02,-2.00e-02,
523,4.00e-02,2.20e-02,
524,2.40e-02,1.40e-02,
525,-4.00e-02,-1.20e-02,
526,3.20e-02,8.00e-03,
527,-5.20e-02,-1.20e-02,
528,-5.20e-02,8.00e-03,
529,3.20e-02,-1.40e-02,
530,-4.40e-02,1.00e-02,
531,3.60e-02,-1.40e-02,
532,-4.40e-02,1.00e-02,
533,3.20e-02,-1.00e-02,
534,4.00e-02,8.00e-03,
535,-4.80e-02,-1.20e-02,
536,5.20e-02,8.00e-03,
537,-4.80e-02,-1.20e-02,
538,-3.60e-02,1.00e-02,
539,3.20e-02,-8.00e-03,
540,-3.20e-02,1.40e-02,
541,2.80e-02,-6.00e-03,
542,-4.44e-01,-2.54e-01,
543,4.68e-01,2.32e-01,
544,1.20e-02,-8.00e-03,
545,-4.00e-02,3.60e-02,
546,1.20e-02,2.00e-02,
547,-3.60e-02,-6.00e-03,
548,1.20e-02,3.20e-02,
549,-4.80e-02,-8.00e-03,
550,8.00e-03,-1.60e-02,
551,-4.00e-02,2.00e-02,
552,-3.60e-02,2.80e-02,
553,1.20e-02,-4.00e-03,
554,8.00e-03,1.60e-02,
555,-2.80e-02,-1.00e-02,
556,-3.60e-02,1.80e-02,
557,3.60e-02,-1.40e-02,
558,4.00e-02,2.20e-02,
559,-4.80e-02,-1.60e-02,
560,5.20e-02,1.00e-02,
561,-4.80e-02,-1.60e-02,
562,-4.80e-02,1.20e-02,
563,4.00e-02,-1.40e-02,
564,-4.80e-02,-1.40e-02,
565,4.00e-02,1.20e-02,
566,3.60e-02,8.00e-03,
567,-3.20e-02,-8.00e-03,
568,4.40e-02,-8.00e-03,
569,-2.00e-02,8.00e-03,
570,4.72e-01,-2.54e-01,
571,-5.48e-01,2.56e-01,
572,-2.36e-01,-4.00e-02,
573,3.60e-01,2.56e-01,
574,-5.20e-02,1.00e-02,
575,4.40e-02,-1.40e-02,
576,2.80e-02,8.00e-03,
577,-4.40e-02,-1.20e-02,
578,2.80e-02,-1.20e-02,
579,-4.80e-02,1.60e-02,
580,3.20e-02,2.40e-02,
581,-4.80e-02,-1.40e-02,
582,-4.80e-02,1.00e-02,
583,3.60e-02,-1.40e-02,
584,-4.00e-02,1.00e-02,
585,4.00e-02,-1.00e-02,
586,-1.60e-02,-1.00e-02,
587,3.60e-02,1.60e-02,
588,8.00e-03,-6.00e-03,
589,-4.00e-02,1.40e-02,
590,1.20e-02,-4.00e-03,
591,-3.60e-02,1.00e-02,
592,-2.40e-02,1.20e-02,
593,4.00e-02,-8.00e-03,
594,3.60e-02,-2.60e-02,
595,-2.00e-02,1.60e-02,
596,8.00e-03,-8.00e-03,
597,-4.80e-02,3.20e-02,
598,3.60e-02,2.00e-02,
599,-2.92e-01,-2.54e-01,
600,1.72e-01,1.20e-01,
601,-6.40e-02,-8.00e-03,
602,3.60e-02,1.40e-02,
603,-4.40e-02,-1.00e-02,
604,-4.00e-02,-1.00e-02,
605,2.80e-02,8.00e-03,
606,-4.00e-02,-8.00e-03,
607,2.80e-02,1.20e-02,
608,3.20e-02,8.00e-03,
609,-2.80e-02,-1.00e-02,
610,3.20e-02,8.00e-03,
611,-3.20e-02,-6.00e-03,
612,5.20e-02,8.00e-03,
613,-4.80e-02,-1.40e-02,
614,-4.80e-02,-1.40e-02,
615,4.00e-02,1.00e-02,
616,-4.80e-02,-4.00e-03,
617,3.20e-02,1.40e-02,
618,-4.40e-02,1.80e-02,
619,3.60e-02,-8.00e-03,
620,3.20e-02,-1.00e-02,
621,-4.80e-02,1.40e-02,
622,-4.80e-02,2.20e-02,
623,4.00e-02,-2.60e-02,
624,3.60e-02,3.00e-02,
625,-4.40e-02,-2.20e-02,
626,3.60e-02,-2.32e-01,
627,-8.40e-02,2.54e-01,
628,8.00e-03,1.60e-02,
629,-4.40e-02,-6.00e-03,
630,3.20e-02,1.40e-02,
631,-4.40e-02,-1.00e-02,
632,8.00e-03,-4.00e-03,
633,-4.00e-02,2.20e-02,
634,-3.20e-02,-1.20e-02,
635,1.20e-02,1.80e-02,
636,8.00e-03,1.20e-02,
637,-4.00e-02,-1.20e-02,
638,-4.40e-02,-1.00e-02,
639,2.40e-02,2.00e-02,
640,-4.40e-02,1.60e-02,
641,4.80e-02,-1.00e-02,
642,4.80e-02,-8.00e-03,
643,-3.60e-02,1.20e-02,
644,-3.60e-02,1.40e-02,
645,3.20e-02,-4.00e-03,
646,-3.60e-02,-4.00e-03,
647,4.00e-02,2.20e-02,
648,-4.00e-02,-6.00e-03,
649,3.60e-02,3.00e-02,
650,3.60e-02,8.00e-03,
651,-4.00e-02,-6.00e-03,
652,-4.40e-02,8.00e-03,
653,4.40e-02,-6.00e-03,
654,4.00e-02,8.00e-03,
655,-4.80e-02,-2.40e-02,
656,3.52e-01,-9.00e-02,
657,-3.72e-01,1.70e-01,
658,3.20e-02,-4.00e-03,
659,-3.60e-02,1.20e-02,
660,-4.00e-02,1.80e-02,
661,3.20e-02,-8.00e-03,
662,3.20e-02,-8.00e-03,
663,-4.00e-02,1.80e-02,
664,2.00e-02,-6.00e-03,
665,-2.40e-02,1.20e-02,
666,8.00e-03,1.20e-02,
667,-2.80e-02,-1.00e-02,
668,2.80e-02,1.00e-02,
669,-4.00e-02,-1.40e-02,
670,-1.20e-02,-1.20e-02,
671,4.40e-02,2.00e-02,
672,1.20e-02,1.20e-02,
673,-5.20e-02,-8.00e-03,
674,-4.00e-02,1.60e-02,
675,1.20e-02,-2.40e-02,
676,-4.40e-02,3.20e-02,
677,4.00e-02,-2.80e-02,
678,-4.80e-02,3.00e-02,
679,4.00e-02,-2.20e-02,
680,3.60e-02,-6.00e-03,
681,-5.20e-02,1.60e-02,
682,3.20e-02,1.60e-02,
683,-4.40e-02,-8.00e-03,
684,4.72e-01,-2.54e-01,
685,-3.56e-01,8.40e-02,
686,2.80e-02,8.00e-03,
687,-3.60e-02,-1.00e-02,
688,2.40e-02,1.00e-02,
689,-3.20e-02,-6.00e-03,
690,-2.40e-02,8.00e-03,
691,2.00e-02,-6.00e-03,
692,4.40e-02,8.00e-03,
693,-3.60e-02,-1.00e-02,
694,4.40e-02,8.00e-03,
695,-4.40e-02,-1.00e-02,
696,-4.40e-02,-8.00e-03,
697,4.00e-02,1.20e-02,
698,-3.20e-02,-2.80e-02,
699,4.00e-02,1.80e-02,
700,-4.00e-02,-1.60e-02,
701,4.00e-02,2.00e-02,
702,-2.80e-02,-4.00e-03,
703,4.40e-02,3.20e-02,
704,1.20e-02,-6.00e-03,
705,-2.40e-02,3.00e-02,
706,-2.80e-02,1.80e-02,
707,1.20e-02,-2.20e-02,
708,8.00e-03,-2.20e-02,
709,-3.20e-02,2.40e-02,
710,8.00e-03,1.20e-02,
711,-3.60e-02,-8.00e-03,
712,3.20e-02,1.20e-02,
713,-3.60e-02,-8.00e-03,
714,8.00e-03,2.56e-01,
715,-1.84e-01,-1.20e-02,
716,8.00e-03,-4.00e-03,
717,-2.80e-02,1.60e-02,
718,-2.40e-02,-2.00e-03,
719,2.40e-02,1.00e-02,
720,-2.00e-02,8.00e-03,
721,2.80e-02,-4.00e-03,
722,-3.20e-02,1.80e-02,
723,3.20e-02,-6.00e-03,
724,4.00e-02,-1.00e-02,
725,-4.40e-02,1.20e-02,
726,3.60e-02,-4.00e-03,
727,-4.40e-02,1.60e-02,
728,4.00e-02,-4.00e-03,
729,-5.20e-02,1.80e-02,
730,4.00e-02,-4.00e-03,
731,-2.80e-02,1.00e-02,
732,-4.00e-02,-4.00e-03,
733,4.40e-02,1.60e-02,
734,3.20e-02,8.00e-03,
735,-3.20e-02,-8.00e-03,
736,2.80e-02,8.00e-03,
737,-2.40e-02,-8.00e-03,
738,2.40e-02,-1.00e-02,
739,-3.60e-02,1.20e-02,
740,-4.00e-02,1.20e-02,
741,2.80e-02,-8.00e-03,
742,4.72e-01,-2.54e-01,
743,-5.48e-01,2.56e-01,
744,2.56e-01,2.56e-01,
745,-2.48e-01,-2.54e-01,
746,1.20e-02,-1.00e-02,
747,-2.80e-02,1.00e-02,
748,-2.80e-02,-4.00e-03,
749,3.20e-02,1.40e-02,
750,-3.20e-02,1.20e-02,
751,3.20e-02,-2.40e-02,
752,-1.60e-02,-2.80e-02,
753,3.60e-02,2.00e-02,
754,1.20e-02,-4.00e-03,
755,-2.80e-02,3.60e-02,
756,8.00e-03,-8.00e-03,
757,-3.60e-02,3.20e-02,
758,4.00e-02,2.00e-02,
759,-4.80e-02,-1.20e-02,
760,-4.80e-02,-2.00e-02,
761,3.20e-02,1.60e-02,
762,-4.80e-02,2.00e-02,
763,3.20e-02,-1.40e-02,
764,-4.00e-02,1.60e-02,
765,3.60e-02,-1.40e-02,
766,-3.20e-02,-1.00e-02,
767,3.20e-02,1.60e-02,
768,-2.80e-02,-6.00e-03,
769,5.20e-02,1.20e-02,
770,4.40e-02,8.00e-03,
771,-3.20e-02,-8.00e-03,
772,-3.36e-01,-8.00e-03,
773,3.56e-01,2.56e-01,
774,-2.80e-02,8.00e-03,
775,3.20e-02,-1.00e-02,
776,-2.80e-02,8.00e-03,
777,2.80e-02,-6.00e-03,
778,3.60e-02,1.40e-02,
779,-2.40e-02,-8.00e-03,
780,3.60e-02,-2.80e-02,
781,-4.80e-02,2.80e-02,
782,3.20e-02,-1.80e-02,
783,-4.40e-02,3.40e-02,
784,4.00e-02,-1.80e-02,
785,-4.40e-02,1.60e-02,
786,8.00e-03,1.40e-02,
787,-3.20e-02,-8.00e-03,
788,8.00e-03,1.40e-02,
789,-3.60e-02,-1.20e-02,
790,-3.60e-02,2.40e-02,
791,1.20e-02,-1.20e-02,
792,-4.00e-02,-1.40e-02,
793,2.40e-02,1.00e-02,
794,1.20e-02,-1.20e-02,
795,-4.00e-02,1.20e-02,
796,1.20e-02,1.80e-02,
797,-2.40e-02,-6.00e-03,
798,-4.00e-02,-4.00e-03,
799,4.40e-02,1.20e-02,
800,1.04e-01,-2.20e-01,
801,-1.24e-01,2.56e-01,
802,-4.40e-02,1.40e-02,
803,3.60e-02,-8.00e-03,
804,-4.40e-02,-4.00e-03,
805,3.60e-02,1.60e-02,
806,4.00e-02,8.00e-03,
807,-5.20e-02,-8.00e-03,
808,4.00e-02,8.00e-03,
809,-4.40e-02,-8.00e-03,
810,3.60e-02,-6.00e-03,
811,-2.80e-02,1.20e-02,
812,-3.60e-02,8.00e-03,
813,2.80e-02,-2.20e-02,
814,-4.00e-02,1.00e-02,
815,3.60e-02,-8.00e-03,
816,4.80e-02,8.00e-03,
817,-5.20e-02,-1.00e-02,
818,-4.40e-02,-1.00e-02,
819,4.40e-02,1.40e-02,
820,4.40e-02,1.80e-02,
821,-4.80e-02,-1.60e-02,
822,5.60e-02,1.20e-02,
823,-5.20e-02,-1.20e-02,
824,3.20e-02,1.20e-02,
825,-4.00e-02,-1.40e-02,
826,1.20e-02,-8.00e-03,
827,-2.80e-02,1.40e-02,
828,1.20e-02,1.80e-02,
829,-2.40e-02,-4.00e-03,
830,2.36e-01,-1.72e-01,
831,-4.40e-02,2.56e-01,
832,1.20e-02,3.20e-02,
833,-4.00e-02,-2.60e-02,
