Motor_Data/MOTOR_2_ON/MOTOR2_ON_Probe2/time domain (distant ch1 close ch2)/NewFile19 (1).csv

X,CH1,CH2,Start,Increment,
Sequence,Volt,Volt,-3.000000e-02,5.000000e-05
0,5.60e-02,-1.00e-02,
1,-5.20e-02,1.00e-02,
2,-4.80e-02,-1.20e-02,
3,4.00e-02,8.00e-03,
4,-4.40e-02,-4.00e-03,
5,4.00e-02,1.60e-02,
6,-4.40e-02,2.00e-02,
7,4.40e-02,-4.00e-03,
8,-2.80e-02,-6.00e-03,
9,4.00e-02,1.00e-02,
10,4.40e-02,1.40e-02,
11,-2.40e-02,-4.00e-03,
12,-2.40e-02,8.00e-03,
13,4.80e-02,-2.00e-02,
14,4.40e-02,8.00e-03,
15,-4.00e-02,-4.00e-03,
16,3.20e-02,8.00e-03,
17,-3.60e-02,-6.00e-03,
18,3.20e-02,8.00e-03,
19,-4.00e-02,-1.00e-02,
20,-3.20e-01,-9.00e-02,
21,4.60e-01,2.56e-01,
22,-2.40e-02,-4.00e-03,
23,4.80e-02,1.60e-02,
24,4.80e-02,-6.00e-03,
25,-2.40e-02,1.00e-02,
26,8.00e-03,1.00e-02,
27,-2.40e-02,-4.00e-03,
28,1.20e-02,1.20e-02,
29,-3.60e-02,-6.00e-03,
30,-5.60e-02,1.80e-02,
31,1.20e-02,-1.20e-02,
32,8.00e-03,-8.00e-03,
33,-5.20e-02,1.40e-02,
34,8.00e-03,2.80e-02,
35,-4.40e-02,-3.00e-02,
36,4.40e-02,2.80e-02,
37,-3.20e-02,-2.20e-02,
38,8.00e-03,3.20e-02,
39,-3.20e-02,-1.00e-02,
40,2.80e-02,1.60e-02,
41,-3.20e-02,-4.00e-03,
42,3.20e-02,-8.00e-03,
43,-3.60e-02,1.60e-02,
44,3.20e-02,2.20e-02,
45,-3.20e-02,-1.40e-02,
46,3.20e-02,8.00e-03,
47,-4.80e-02,-1.00e-02,
48,3.92e-01,2.56e-01,
49,-2.44e-01,-2.54e-01,
50,-5.20e-02,-1.40e-02,
51,3.60e-02,8.00e-03,
52,5.20e-02,-1.20e-02,
53,-4.00e-02,8.00e-03,
54,4.80e-02,8.00e-03,
55,-4.00e-02,-1.00e-02,
56,-5.20e-02,-1.20e-02,
57,4.40e-02,8.00e-03,
58,4.00e-02,-4.00e-03,
59,-4.40e-02,1.80e-02,
60,3.60e-02,3.20e-02,
61,-2.00e-02,-4.00e-03,
62,-2.80e-02,-4.00e-03,
63,4.00e-02,3.40e-02,
64,-3.60e-02,1.80e-02,
65,4.00e-02,-1.00e-02,
66,-4.80e-02,1.80e-02,
67,3.20e-02,-2.00e-02,
68,-1.20e-02,2.80e-02,
69,3.60e-02,-1.40e-02,
70,-4.00e-02,1.40e-02,
71,3.20e-02,-1.20e-02,
72,8.00e-03,1.80e-02,
73,-3.20e-02,-1.40e-02,
74,8.00e-03,-8.00e-03,
75,-2.40e-02,2.00e-02,
76,8.00e-03,-4.00e-03,
77,-2.40e-02,1.20e-02,
78,7.60e-02,-2.38e-01,
79,-3.28e-01,2.56e-01,
80,-3.20e-02,1.00e-02,
81,3.60e-02,-1.00e-02,
82,-2.80e-02,1.80e-02,
83,4.00e-02,-6.00e-03,
84,4.00e-02,-1.00e-02,
85,-3.60e-02,1.40e-02,
86,-4.80e-02,-8.00e-03,
87,4.00e-02,1.40e-02,
88,-5.20e-02,1.80e-02,
89,4.00e-02,-6.00e-03,
90,-4.40e-02,-4.00e-03,
91,4.00e-02,1.00e-02,
92,3.20e-02,1.60e-02,
93,-2.40e-02,-4.00e-03,
94,-3.60e-02,8.00e-03,
95,2.80e-02,-1.20e-02,
96,3.20e-02,-1.20e-02,
97,-4.80e-02,8.00e-03,
98,3.20e-02,-1.20e-02,
99,-4.40e-02,1.20e-02,
100,-3.20e-02,-1.00e-02,
101,2.40e-02,1.00e-02,
102,2.40e-02,-6.00e-03,
103,-2.80e-02,1.40e-02,
104,5.20e-02,1.60e-02,
105,-3.60e-02,-8.00e-03,
106,-1.76e-01,-2.54e-01,
107,1.72e-01,2.56e-01,
108,-4.80e-02,-1.20e-02,
109,1.20e-02,1.40e-02,
110,8.00e-03,-2.80e-02,
111,-4.80e-02,1.60e-02,
112,8.00e-03,-8.00e-03,
113,-5.20e-02,3.40e-02,
114,8.00e-03,-6.00e-03,
115,-5.20e-02,2.80e-02,
116,8.00e-03,1.60e-02,
117,-3.60e-02,-1.00e-02,
118,8.00e-03,1.40e-02,
119,-4.00e-02,-8.00e-03,
120,-4.80e-02,2.40e-02,
121,4.00e-02,-1.00e-02,
122,-5.20e-02,1.20e-02,
123,4.40e-02,-8.00e-03,
124,3.60e-02,1.40e-02,
125,-6.00e-02,-1.20e-02,
126,-5.20e-02,-1.20e-02,
127,4.40e-02,1.00e-02,
128,-4.80e-02,1.00e-02,
129,5.20e-02,-1.40e-02,
130,-4.40e-02,-1.40e-02,
131,4.40e-02,1.00e-02,
132,-3.60e-02,8.00e-03,
133,3.60e-02,-6.00e-03,
134,4.00e-02,-6.00e-03,
135,-2.80e-02,1.60e-02,
136,-2.08e-01,2.10e-01,
137,2.60e-01,-1.00e-02,
138,3.60e-02,-6.00e-03,
139,-3.60e-02,3.20e-02,
140,4.40e-02,-2.00e-02,
141,-3.60e-02,1.80e-02,
142,4.40e-02,3.40e-02,
143,-4.00e-02,-1.80e-02,
144,4.00e-02,1.80e-02,
145,-5.60e-02,-8.00e-03,
146,1.20e-02,1.40e-02,
147,-4.40e-02,-6.00e-03,
148,1.20e-02,2.60e-02,
149,-2.80e-02,-1.40e-02,
150,-4.80e-02,1.80e-02,
151,1.20e-02,-1.40e-02,
152,3.60e-02,1.00e-02,
153,-1.60e-02,-1.20e-02,
154,4.40e-02,-8.00e-03,
155,-2.40e-02,2.20e-02,
156,8.00e-03,2.00e-02,
157,-4.80e-02,-8.00e-03,
158,-4.80e-02,1.00e-02,
159,4.80e-02,-1.00e-02,
160,-5.20e-02,-1.00e-02,
161,4.00e-02,1.40e-02,
162,-4.40e-02,-3.00e-02,
163,3.60e-02,2.20e-02,
164,-2.52e-01,2.34e-01,
165,2.80e-01,-2.54e-01,
166,4.00e-02,8.00e-03,
167,-4.40e-02,-6.00e-03,
168,4.00e-02,8.00e-03,
169,-5.20e-02,-1.00e-02,
170,4.40e-02,1.00e-02,
171,-4.80e-02,-1.80e-02,
172,3.60e-02,-6.00e-03,
173,-4.40e-02,8.00e-03,
174,2.80e-02,-4.00e-03,
175,-2.40e-02,1.20e-02,
176,4.00e-02,8.00e-03,
177,-4.40e-02,-1.40e-02,
178,-4.80e-02,-1.40e-02,
179,4.80e-02,1.20e-02,
180,-4.40e-02,-1.20e-02,
181,6.00e-02,1.40e-02,
182,4.00e-02,-1.20e-02,
183,-5.60e-02,1.40e-02,
184,-4.80e-02,-1.40e-02,
185,3.20e-02,1.40e-02,
186,4.40e-02,-1.00e-02,
187,-2.40e-02,1.80e-02,
188,-5.20e-02,-1.00e-02,
189,4.00e-02,1.60e-02,
190,4.00e-02,-2.20e-02,
191,-4.00e-02,3.20e-02,
192,-2.40e-02,-2.40e-02,
193,4.40e-02,2.00e-02,
194,-3.36e-01,-1.02e-01,
195,2.40e-02,2.56e-01,
196,-5.20e-02,1.40e-02,
197,3.60e-02,-8.00e-03,
198,8.00e-03,1.40e-02,
199,-5.20e-02,-1.00e-02,
200,3.20e-02,2.20e-02,
201,-4.80e-02,-1.40e-02,
202,3.20e-02,2.20e-02,
203,-4.00e-02,-6.00e-03,
204,2.00e-02,8.00e-03,
205,-2.80e-02,-8.00e-03,
206,-4.80e-02,-1.40e-02,
207,2.80e-02,1.20e-02,
208,5.60e-02,-1.00e-02,
209,-4.80e-02,8.00e-03,
210,4.80e-02,8.00e-03,
211,-4.40e-02,-6.00e-03,
212,-4.40e-02,-6.00e-03,
213,3.60e-02,8.00e-03,
214,-4.00e-02,-4.00e-03,
215,3.60e-02,1.60e-02,
216,-4.40e-02,1.60e-02,
217,3.60e-02,-4.00e-03,
218,-5.60e-02,-6.00e-03,
219,4.00e-02,2.40e-02,
220,-5.20e-02,2.80e-02,
221,4.80e-02,-1.00e-02,
222,4.24e-01,-2.54e-01,
223,-2.88e-01,2.56e-01,
224,-5.20e-02,2.60e-02,
225,4.00e-02,-8.00e-03,
226,2.00e-02,1.40e-02,
227,-3.20e-02,-6.00e-03,
228,8.00e-03,1.60e-02,
229,-3.20e-02,-1.40e-02,
230,8.00e-03,-1.60e-02,
231,-3.60e-02,2.00e-02,
232,-4.80e-02,1.20e-02,
233,1.20e-02,-1.40e-02,
234,4.80e-02,1.20e-02,
235,-2.00e-02,-1.20e-02,
236,8.00e-03,-8.00e-03,
237,-4.80e-02,1.20e-02,
238,-4.00e-02,-4.00e-03,
239,1.20e-02,1.80e-02,
240,4.00e-02,1.20e-02,
241,-2.80e-02,-4.00e-03,
242,3.60e-02,-1.60e-02,
243,-3.20e-02,3.00e-02,
244,4.80e-02,-2.60e-02,
245,-4.40e-02,2.00e-02,
246,4.00e-02,8.00e-03,
247,-4.40e-02,-4.00e-03,
248,3.60e-02,-4.00e-03,
249,-4.80e-02,8.00e-03,
250,3.60e-02,-8.00e-03,
251,-5.20e-02,8.00e-03,
252,-1.76e-01,-1.64e-01,
253,4.72e-01,1.00e-02,
254,3.60e-02,8.00e-03,
255,-4.00e-02,-4.00e-03,
256,3.20e-02,-8.00e-03,
257,-4.40e-02,8.00e-03,
258,-2.80e-02,8.00e-03,
259,2.80e-02,-6.00e-03,
260,5.60e-02,1.80e-02,
261,-4.40e-02,-1.00e-02,
262,5.60e-02,-1.00e-02,
263,-5.20e-02,1.20e-02,
264,-4.80e-02,-6.00e-03,
265,4.40e-02,1.40e-02,
266,3.60e-02,-2.80e-02,
267,-4.00e-02,1.40e-02,
268,4.40e-02,-1.80e-02,
269,-2.40e-02,2.00e-02,
270,-2.40e-02,3.20e-02,
271,1.20e-02,-4.00e-03,
272,-2.40e-02,-4.00e-03,
273,1.20e-02,3.00e-02,
274,-3.20e-02,1.80e-02,
275,1.20e-02,-2.00e-02,
276,8.00e-03,-6.00e-03,
277,-4.40e-02,2.60e-02,
278,3.60e-02,1.60e-02,
279,-4.80e-02,-1.00e-02,
280,2.20e-01,-2.54e-01,
281,-2.28e-01,1.68e-01,
282,2.80e-02,1.40e-02,
283,-2.00e-02,-1.00e-02,
284,-2.40e-02,8.00e-03,
285,5.20e-02,-6.00e-03,
286,4.40e-02,8.00e-03,
287,-2.40e-02,-4.00e-03,
288,3.20e-02,8.00e-03,
289,-4.00e-02,-1.40e-02,
290,-4.80e-02,8.00e-03,
291,4.40e-02,-1.40e-02,
292,4.00e-02,-8.00e-03,
293,-4.80e-02,1.40e-02,
294,-2.80e-02,1.40e-02,
295,2.80e-02,-4.00e-03,
296,-4.00e-02,-4.00e-03,
297,4.80e-02,2.00e-02,
298,4.00e-02,1.00e-02,
299,-4.00e-02,-1.00e-02,
300,-4.40e-02,1.60e-02,
301,2.80e-02,-1.00e-02,
302,3.20e-02,1.40e-02,
303,-3.60e-02,-1.00e-02,
304,3.20e-02,2.20e-02,
305,-2.40e-02,-1.00e-02,
306,1.20e-02,2.20e-02,
307,-4.00e-02,-8.00e-03,
308,-2.20e-01,-1.62e-01,
309,3.12e-01,2.24e-01,
310,4.00e-02,-1.20e-02,
311,-3.60e-02,1.20e-02,
312,8.00e-03,1.80e-02,
313,-4.00e-02,-4.00e-03,
314,8.00e-03,1.00e-02,
315,-3.60e-02,-8.00e-03,
316,8.00e-03,1.20e-02,
317,-2.40e-02,-4.00e-03,
318,8.00e-03,1.60e-02,
319,-4.80e-02,-2.60e-02,
320,4.00e-02,-2.40e-02,
321,-4.80e-02,1.60e-02,
322,4.40e-02,3.40e-02,
323,-4.00e-02,-4.00e-03,
324,-2.40e-02,-4.00e-03,
325,4.00e-02,1.20e-02,
326,4.40e-02,8.00e-03,
327,-3.20e-02,-2.20e-02,
328,2.80e-02,8.00e-03,
329,-4.00e-02,-8.00e-03,
330,-4.40e-02,8.00e-03,
331,3.20e-02,-8.00e-03,
332,3.20e-02,8.00e-03,
333,-3.60e-02,-8.00e-03,
334,3.60e-02,8.00e-03,
335,-3.20e-02,-6.00e-03,
336,-2.00e-02,8.00e-03,
337,6.00e-02,-6.00e-03,
338,1.80e-01,-2.54e-01,
339,-1.92e-01,1.12e-01,
340,-3.60e-02,-1.00e-02,
341,3.60e-02,8.00e-03,
342,-3.60e-02,2.00e-02,
343,4.00e-02,-6.00e-03,
344,4.00e-02,1.80e-02,
345,-3.60e-02,-8.00e-03,
346,4.00e-02,-6.00e-03,
347,-5.60e-02,2.40e-02,
348,4.00e-02,-2.80e-02,
349,-5.20e-02,2.80e-02,
350,-3.60e-02,-2.00e-02,
351,1.20e-02,3.40e-02,
352,8.00e-03,1.60e-02,
353,-3.60e-02,-8.00e-03,
354,-4.00e-02,1.40e-02,
355,1.20e-02,-1.00e-02,
356,8.00e-03,-1.20e-02,
357,-5.20e-02,2.20e-02,
358,-5.20e-02,2.40e-02,
359,1.60e-02,-1.60e-02,
360,2.40e-02,-1.20e-02,
361,-4.40e-02,1.20e-02,
362,2.00e-02,-1.20e-02,
363,-4.00e-02,1.40e-02,
364,4.40e-02,-6.00e-03,
365,-4.00e-02,8.00e-03,
366,5.20e-02,-8.00e-03,
367,-2.52e-01,1.00e-02,
368,4.56e-01,1.54e-01,
369,-1.32e-01,-8.00e-03,
370,-2.80e-02,-6.00e-03,
371,3.60e-02,1.20e-02,
372,-4.00e-02,1.80e-02,
373,3.60e-02,-6.00e-03,
374,4.40e-02,1.00e-02,
375,-4.80e-02,-8.00e-03,
376,4.00e-02,8.00e-03,
377,-5.20e-02,-8.00e-03,
378,4.40e-02,8.00e-03,
379,-4.00e-02,-2.00e-02,
380,4.00e-02,-6.00e-03,
381,-3.60e-02,2.40e-02,
382,-4.00e-02,2.00e-02,
383,2.80e-02,-1.40e-02,
384,-3.60e-02,1.60e-02,
385,4.00e-02,-1.20e-02,
386,4.40e-02,-1.40e-02,
387,-1.60e-02,1.80e-02,
388,-4.80e-02,1.80e-02,
389,1.20e-02,-1.60e-02,
390,-4.80e-02,1.00e-02,
391,4.00e-02,-1.20e-02,
392,3.20e-02,1.00e-02,
393,-3.20e-02,-1.20e-02,
394,-3.20e-02,-4.00e-03,
395,1.20e-02,2.00e-02,
396,7.20e-02,-2.54e-01,
397,-4.08e-01,2.56e-01,
398,-4.80e-02,-6.00e-03,
399,1.20e-02,2.20e-02,
400,-4.80e-02,-2.80e-02,
401,4.00e-02,3.20e-02,
402,4.40e-02,-1.80e-02,
403,-5.20e-02,3.00e-02,
404,3.60e-02,-4.00e-03,
405,-4.40e-02,1.60e-02,
406,3.20e-02,8.00e-03,
407,-3.20e-02,-8.00e-03,
408,3.20e-02,-1.20e-02,
409,-4.80e-02,8.00e-03,
410,-5.60e-02,8.00e-03,
411,4.00e-02,-1.40e-02,
412,-4.80e-02,8.00e-03,
413,4.40e-02,-1.00e-02,
414,4.00e-02,-1.20e-02,
415,-4.00e-02,8.00e-03,
416,-4.40e-02,8.00e-03,
417,5.20e-02,-8.00e-03,
418,6.00e-02,-8.00e-03,
419,-4.80e-02,1.00e-02,
420,-5.20e-02,-1.00e-02,
421,3.60e-02,1.20e-02,
422,-4.80e-02,1.60e-02,
423,3.20e-02,-1.60e-02,
424,3.60e-02,-3.00e-02,
425,-4.00e-02,1.80e-02,
426,4.40e-01,-2.54e-01,
427,-1.16e-01,4.60e-02,
428,4.00e-02,-1.00e-02,
429,-5.60e-02,2.80e-02,
430,-5.20e-02,1.60e-02,
431,1.20e-02,-2.40e-02,
432,-4.40e-02,-1.00e-02,
433,1.60e-02,2.40e-02,
434,8.00e-03,-2.00e-03,
435,-3.20e-02,2.20e-02,
436,1.60e-02,1.40e-02,
437,-2.80e-02,-6.00e-03,
438,1.20e-02,-1.00e-02,
439,-3.20e-02,1.60e-02,
440,5.20e-02,2.00e-02,
441,-4.80e-02,-1.40e-02,
442,6.40e-02,-1.20e-02,
443,-4.80e-02,1.00e-02,
444,4.00e-02,-1.00e-02,
445,-5.20e-02,1.00e-02,
446,-4.80e-02,-4.00e-03,
447,4.40e-02,1.60e-02,
448,4.40e-02,-2.00e-03,
449,-4.80e-02,2.00e-02,
450,4.00e-02,1.00e-02,
451,-4.40e-02,-1.20e-02,
452,1.60e-01,-2.54e-01,
453,-1.36e-01,2.50e-01,
454,4.40e-02,-6.00e-03,
455,-4.80e-02,3.40e-02,
456,3.60e-02,2.20e-02,
457,-5.20e-02,-6.00e-03,
458,-4.80e-02,1.40e-02,
459,3.20e-02,-6.00e-03,
460,3.60e-02,1.60e-02,
461,-4.40e-02,-6.00e-03,
462,4.40e-02,2.80e-02,
463,-3.20e-02,-1.00e-02,
464,3.60e-02,1.20e-02,
465,-2.00e-02,-1.60e-02,
466,3.20e-02,1.00e-02,
467,-1.60e-02,-1.20e-02,
468,-1.20e-02,1.80e-02,
469,4.40e-02,-8.00e-03,
470,6.00e-02,-4.00e-03,
471,-1.20e-02,1.40e-02,
472,4.00e-02,-4.00e-03,
473,-1.60e-02,1.60e-02,
474,3.60e-02,1.20e-02,
475,-1.60e-02,-1.00e-02,
476,4.00e-02,-2.60e-02,
477,-1.60e-02,1.80e-02,
478,-2.00e-02,3.20e-02,
479,4.80e-02,-4.00e-03,
480,4.40e-02,-8.00e-03,
481,-5.20e-02,3.00e-02,
482,3.28e-01,1.62e-01,
483,-2.20e-01,-2.60e-02,
484,4.00e-02,2.40e-02,
485,-4.40e-02,-4.00e-03,
486,3.20e-02,2.40e-02,
487,-4.80e-02,-4.00e-03,
488,2.80e-02,1.60e-02,
489,-4.40e-02,-4.00e-03,
490,-3.60e-02,1.80e-02,
491,3.20e-02,-4.00e-03,
492,6.00e-02,1.80e-02,
493,-2.00e-02,-4.00e-03,
494,4.80e-02,1.00e-02,
495,-3.20e-02,-4.00e-03,
496,4.80e-02,1.00e-02,
497,-4.80e-02,-2.00e-03,
498,4.40e-02,1.80e-02,
499,-5.20e-02,-4.00e-03,
500,-4.80e-02,2.00e-02,
501,3.60e-02,-1.00e-02,
502,4.40e-02,-6.00e-03,
503,-4.00e-02,1.40e-02,
504,-3.60e-02,3.40e-02,
505,4.40e-02,-3.00e-02,
506,4.40e-02,3.00e-02,
507,-1.60e-02,-2.20e-02,
508,-2.80e-02,2.20e-02,
509,3.60e-02,-6.00e-03,
510,3.20e-02,1.40e-02,
511,-2.00e-02,-8.00e-03,
512,1.64e-01,2.56e-01,
513,-2.40e-02,-2.54e-01,
514,-2.40e-02,2.00e-02,
515,3.60e-02,-1.20e-02,
516,3.20e-02,1.40e-02,
517,-2.40e-02,-8.00e-03,
518,2.80e-02,1.00e-02,
519,-2.00e-02,-1.00e-02,
520,3.60e-02,1.80e-02,
521,-3.60e-02,-1.00e-02,
522,5.60e-02,1.00e-02,
523,-5.20e-02,-1.40e-02,
524,-4.80e-02,1.00e-02,
525,4.80e-02,-8.00e-03,
526,-4.00e-02,-4.00e-03,
527,4.40e-02,1.40e-02,
528,3.60e-02,-4.00e-03,
529,-4.00e-02,1.60e-02,
530,-3.20e-02,-4.00e-03,
531,4.00e-02,3.40e-02,
532,4.40e-02,1.80e-02,
533,-2.40e-02,-4.00e-03,
534,4.80e-02,1.80e-02,
535,-2.40e-02,-1.60e-02,
536,4.00e-02,-1.60e-02,
537,-3.60e-02,2.00e-02,
538,-4.40e-02,8.00e-03,
539,3.20e-02,-1.00e-02,
540,-2.60e-01,2.56e-01,
541,1.76e-01,-2.54e-01,
542,3.20e-02,1.40e-02,
543,-3.20e-02,-1.00e-02,
544,2.80e-02,2.00e-02,
545,-3.20e-02,-4.00e-03,
546,1.20e-02,-6.00e-03,
547,-2.80e-02,1.00e-02,
548,1.60e-02,8.00e-03,
549,-2.40e-02,-4.00e-03,
550,2.00e-02,1.00e-02,
551,-4.00e-02,-8.00e-03,
552,4.40e-02,1.80e-02,
553,-4.40e-02,-8.00e-03,
554,-4.40e-02,-6.00e-03,
555,1.60e-02,1.40e-02,
556,-4.00e-02,3.00e-02,
557,4.00e-02,-2.40e-02,
558,4.40e-02,2.60e-02,
559,-2.00e-02,-2.60e-02,
560,-3.20e-02,2.80e-02,
561,4.00e-02,-8.00e-03,
562,3.20e-02,1.20e-02,
563,-3.20e-02,-6.00e-03,
564,3.60e-02,-8.00e-03,
565,-3.20e-02,1.60e-02,
566,3.60e-02,1.00e-02,
567,-4.40e-02,-1.20e-02,
568,3.20e-02,1.00e-02,
569,-4.80e-02,-1.00e-02,
570,-3.68e-01,2.56e-01,
571,2.96e-01,-2.54e-01,
572,-4.80e-02,1.00e-02,
573,4.00e-02,-1.20e-02,
574,5.20e-02,-1.20e-02,
575,-4.40e-02,1.00e-02,
576,4.00e-02,1.00e-02,
577,-4.40e-02,-6.00e-03,
578,3.60e-02,-6.00e-03,
579,-4.80e-02,1.20e-02,
580,4.40e-02,-2.60e-02,
581,-4.40e-02,1.80e-02,
582,-3.60e-02,-4.00e-03,
583,4.00e-02,3.60e-02,
584,3.60e-02,-4.00e-03,
585,-3.20e-02,3.20e-02,
586,3.60e-02,1.80e-02,
587,-4.40e-02,-1.20e-02,
588,-4.40e-02,1.80e-02,
589,3.60e-02,-2.00e-02,
590,3.20e-02,2.40e-02,
591,-2.00e-02,-8.00e-03,
592,2.80e-02,-6.00e-03,
593,-3.20e-02,1.40e-02,
594,1.20e-02,1.40e-02,
595,-3.20e-02,-8.00e-03,
596,-2.40e-02,1.80e-02,
597,2.00e-02,-4.00e-03,
598,1.40e-01,-2.54e-01,
599,-1.68e-01,6.20e-02,
600,2.32e-01,-2.54e-01,
601,-7.60e-02,4.20e-02,
602,3.20e-02,-4.00e-03,
603,-4.00e-02,1.20e-02,
604,4.00e-02,8.00e-03,
605,-3.20e-02,-8.00e-03,
606,4.00e-02,1.00e-02,
607,-4.80e-02,-1.20e-02,
608,3.60e-02,-1.00e-02,
609,-5.20e-02,3.00e-02,
610,-4.40e-02,2.00e-02,
611,4.40e-02,-4.00e-03,
612,3.20e-02,8.00e-03,
613,-3.60e-02,-4.00e-03,
614,2.80e-02,1.40e-02,
615,-2.40e-02,-1.20e-02,
616,2.80e-02,8.00e-03,
617,-4.00e-02,-1.20e-02,
618,3.20e-02,8.00e-03,
619,-4.40e-02,-1.20e-02,
620,3.20e-02,-1.20e-02,
621,-4.40e-02,1.40e-02,
622,2.00e-02,1.20e-02,
623,-3.20e-02,-1.00e-02,
624,2.40e-02,-6.00e-03,
625,-3.20e-02,1.60e-02,
626,1.20e-02,-2.06e-01,
627,-1.72e-01,2.56e-01,
628,-5.20e-02,1.20e-02,
629,1.20e-02,-1.00e-02,
630,8.00e-03,-6.00e-03,
631,-3.60e-02,1.40e-02,
632,-3.60e-02,-2.40e-02,
633,4.00e-02,1.80e-02,
634,8.00e-03,-8.00e-03,
635,-4.80e-02,3.40e-02,
636,-4.80e-02,-4.00e-03,
637,2.00e-02,2.80e-02,
638,-2.80e-02,1.60e-02,
639,4.00e-02,-6.00e-03,
640,4.00e-02,1.60e-02,
641,-3.60e-02,-2.00e-02,
642,-5.60e-02,-1.00e-02,
643,4.00e-02,2.00e-02,
644,-6.00e-02,8.00e-03,
645,4.40e-02,-1.20e-02,
646,4.00e-02,8.00e-03,
647,-5.60e-02,-1.40e-02,
648,-5.60e-02,-1.40e-02,
649,4.00e-02,1.00e-02,
650,-4.40e-02,-1.00e-02,
651,5.60e-02,1.00e-02,
652,3.20e-02,-1.20e-02,
653,-3.60e-02,8.00e-03,
654,3.60e-02,-6.00e-03,
655,-4.00e-02,8.00e-03,
656,3.20e-01,1.80e-02,
657,-2.72e-01,-1.00e-01,
658,4.00e-02,1.20e-02,
659,-4.40e-02,-4.00e-03,
660,4.00e-02,-2.20e-02,
661,-2.80e-02,3.20e-02,
662,-5.20e-02,-2.20e-02,
663,4.40e-02,1.80e-02,
664,8.00e-03,3.40e-02,
665,-5.20e-02,-1.60e-02,
666,-5.20e-02,-6.00e-03,
667,1.20e-02,1.40e-02,
668,8.00e-03,-4.00e-03,
669,-4.00e-02,1.80e-02,
670,8.00e-03,2.40e-02,
671,-3.60e-02,-1.20e-02,
672,2.00e-02,1.40e-02,
673,-4.40e-02,-1.20e-02,
674,-1.60e-02,8.00e-03,
675,3.60e-02,-1.00e-02,
676,4.00e-02,1.00e-02,
677,-2.00e-02,-1.00e-02,
678,1.20e-02,1.60e-02,
679,-4.80e-02,-1.00e-02,
680,5.60e-02,-1.00e-02,
681,-5.20e-02,1.00e-02,
682,3.60e-02,-1.20e-02,
683,-4.80e-02,1.60e-02,
684,-3.12e-01,-4.00e-03,
685,3.52e-01,2.56e-01,
686,4.00e-02,1.60e-02,
687,-4.80e-02,-4.00e-03,
688,4.00e-02,-6.00e-03,
689,-5.20e-02,3.00e-02,
690,-4.80e-02,-8.00e-03,
691,4.40e-02,2.80e-02,
692,4.80e-02,8.00e-03,
693,-4.80e-02,-2.00e-02,
694,-4.00e-02,-4.00e-03,
695,3.20e-02,8.00e-03,
696,2.80e-02,-4.00e-03,
697,-3.20e-02,8.00e-03,
698,-4.00e-02,8.00e-03,
699,4.00e-02,-1.40e-02,
700,-6.00e-02,-1.40e-02,
701,4.00e-02,1.80e-02,
702,4.80e-02,1.20e-02,
703,-5.20e-02,-1.40e-02,
704,-4.80e-02,-1.20e-02,
705,4.40e-02,1.60e-02,
706,4.00e-02,-1.20e-02,
707,-4.00e-02,1.40e-02,
708,4.00e-02,2.20e-02,
709,-5.20e-02,-1.00e-02,
710,8.00e-03,-1.20e-02,
711,-5.60e-02,1.40e-02,
712,-4.00e-02,-2.60e-02,
713,3.20e-02,3.40e-02,
714,4.40e-02,-1.34e-01,
715,-3.56e-01,1.58e-01,
716,-5.20e-02,3.40e-02,
717,3.60e-02,-2.00e-02,
718,8.00e-03,1.60e-02,
719,-5.20e-02,-1.00e-02,
720,-4.80e-02,1.40e-02,
721,4.00e-02,-8.00e-03,
722,3.60e-02,2.20e-02,
723,-4.80e-02,-1.00e-02,
724,3.20e-02,-6.00e-03,
725,-4.40e-02,1.00e-02,
726,2.40e-02,1.00e-02,
727,-4.00e-02,-1.20e-02,
728,-4.80e-02,-1.40e-02,
729,4.40e-02,8.00e-03,
730,-5.20e-02,-1.20e-02,
731,6.00e-02,1.00e-02,
732,4.80e-02,-1.00e-02,
733,-4.80e-02,8.00e-03,
734,4.00e-02,-4.00e-03,
735,-4.00e-02,1.40e-02,
736,3.60e-02,1.60e-02,
737,-4.40e-02,-4.00e-03,
738,4.00e-02,1.60e-02,
739,-4.80e-02,-6.00e-03,
740,3.60e-02,3.00e-02,
741,-4.80e-02,-6.00e-03,
742,-2.04e-01,2.56e-01,
743,2.28e-01,-2.54e-01,
744,7.60e-02,-2.54e-01,
745,-2.68e-01,2.56e-01,
746,-3.20e-02,-4.00e-03,
747,1.60e-02,2.60e-02,
748,1.20e-02,1.20e-02,
749,-2.80e-02,-4.00e-03,
750,1.20e-02,1.40e-02,
751,-2.80e-02,-1.00e-02,
752,-3.20e-02,-8.00e-03,
753,3.60e-02,1.60e-02,
754,1.20e-02,1.60e-02,
755,-4.80e-02,-1.00e-02,
756,-5.60e-02,-1.40e-02,
757,3.60e-02,1.20e-02,
758,3.20e-02,-6.00e-03,
759,-4.00e-02,1.20e-02,
760,3.60e-02,-2.00e-03,
761,-4.40e-02,2.00e-02,
762,4.00e-02,-2.00e-03,
763,-3.60e-02,1.20e-02,
764,4.40e-02,1.20e-02,
765,-4.00e-02,-4.00e-03,
766,-4.40e-02,1.60e-02,
767,4.40e-02,-1.20e-02,
768,4.00e-02,8.00e-03,
769,-5.20e-02,-4.00e-03,
770,3.60e-02,1.00e-02,
771,-5.20e-02,-8.00e-03,
772,-2.60e-01,8.00e-03,
773,2.48e-01,-2.54e-01,
774,-2.40e-02,8.00e-03,
775,4.00e-02,-1.20e-02,
776,3.20e-02,-8.00e-03,
777,-4.40e-02,1.20e-02,
778,2.80e-02,-6.00e-03,
779,-4.40e-02,1.20e-02,
780,2.40e-02,-8.00e-03,
781,-3.20e-02,1.60e-02,
782,6.00e-02,1.80e-02,
783,-4.80e-02,-1.40e-02,
784,5.20e-02,8.00e-03,
785,-4.80e-02,-1.20e-02,
786,4.40e-02,-6.00e-03,
787,-2.00e-02,1.20e-02,
788,-4.00e-02,-2.60e-02,
789,1.60e-02,1.60e-02,
790,4.40e-02,-1.60e-02,
791,-1.60e-02,1.80e-02,
792,-3.20e-02,3.40e-02,
793,1.20e-02,-4.00e-03,
794,2.80e-02,-6.00e-03,
795,-4.00e-02,3.00e-02,
796,8.00e-03,1.80e-02,
797,-4.00e-02,-1.40e-02,
798,-4.00e-02,-8.00e-03,
799,1.20e-02,2.60e-02,
800,1.68e-01,2.56e-01,
801,-2.00e-01,-2.54e-01,
802,3.20e-02,1.80e-02,
803,-2.80e-02,-1.00e-02,
804,3.20e-02,-1.20e-02,
805,-2.80e-02,8.00e-03,
806,-2.00e-02,-4.00e-03,
807,6.00e-02,1.40e-02,
808,4.00e-02,1.00e-02,
809,-2.80e-02,-8.00e-03,
810,3.60e-02,8.00e-03,
811,-4.80e-02,-1.20e-02,
812,-5.20e-02,-1.20e-02,
813,4.00e-02,8.00e-03,
814,4.00e-02,-8.00e-03,
815,-4.40e-02,1.40e-02,
816,3.60e-02,-4.00e-03,
817,-3.20e-02,3.00e-02,
818,-4.40e-02,2.20e-02,
819,4.00e-02,-6.00e-03,
820,4.40e-02,-2.20e-02,
821,-4.00e-02,2.60e-02,
822,4.00e-02,1.60e-02,
823,-4.40e-02,-1.00e-02,
824,2.40e-02,1.20e-02,
825,-3.20e-02,-8.00e-03,
826,8.00e-03,2.20e-02,
827,-4.00e-02,-1.20e-02,
828,-4.80e-02,2.60e-02,
829,2.00e-02,-1.20e-02,
830,1.60e-01,-1.94e-01,
831,-2.80e-01,1.98e-01,
832,1.20e-02,1.20e-02,
833,-3.60e-02,-8.00e-03,
