Motor_Data/MOTOR_2_ON/MOTOR2_ON_Probe2/time domain (distant ch1 close ch2)/NewFile31.csv

X,CH1,CH2,Start,Increment,
Sequence,Volt,Volt,-3.000000e-02,5.000000e-05
0,5.20e-02,-2.00e-03,
1,-2.00e-02,1.00e-02,
2,2.80e-02,-6.00e-03,
3,-2.80e-02,1.00e-02,
4,3.20e-02,1.40e-02,
5,-4.00e-02,-1.00e-02,
6,-4.80e-02,1.80e-02,
7,3.60e-02,-1.20e-02,
8,3.60e-02,1.40e-02,
9,-4.40e-02,-6.00e-03,
10,-4.00e-02,-6.00e-03,
11,3.60e-02,1.60e-02,
12,-4.00e-02,-4.00e-03,
13,4.80e-02,2.00e-02,
14,-2.40e-02,-4.00e-03,
15,3.60e-02,3.40e-02,
16,-3.60e-02,1.80e-02,
17,2.80e-02,-4.00e-03,
18,3.20e-02,-4.00e-03,
19,-3.20e-02,1.60e-02,
20,3.20e-02,-8.00e-03,
21,-4.00e-02,2.60e-02,
22,-2.96e-01,-2.54e-01,
23,2.72e-01,2.56e-01,
24,2.00e-02,1.40e-02,
25,-2.40e-02,-1.20e-02,
26,2.40e-02,-4.00e-03,
27,-2.80e-02,2.00e-02,
28,-2.40e-02,1.20e-02,
29,6.00e-02,-6.00e-03,
30,4.40e-02,1.00e-02,
31,-2.00e-02,-8.00e-03,
32,-2.00e-02,-1.00e-02,
33,3.60e-02,1.40e-02,
34,-2.00e-02,-3.00e-02,
35,4.00e-02,1.60e-02,
36,3.60e-02,-4.00e-03,
37,-2.00e-02,3.20e-02,
38,4.40e-02,-4.00e-03,
39,-2.80e-02,2.20e-02,
40,-2.80e-02,2.80e-02,
41,3.60e-02,-4.00e-03,
42,4.00e-02,1.80e-02,
43,-3.60e-02,-2.40e-02,
44,-3.60e-02,-8.00e-03,
45,2.80e-02,2.60e-02,
46,-2.80e-02,-4.00e-03,
47,2.40e-02,1.20e-02,
48,2.40e-02,-4.00e-03,
49,-2.80e-02,1.20e-02,
50,2.80e-02,-4.00e-03,
51,-3.60e-02,1.60e-02,
52,-2.28e-01,-2.54e-01,
53,1.32e-01,1.20e-02,
54,2.80e-02,-4.00e-03,
55,-2.80e-02,1.00e-02,
56,-3.20e-02,-4.00e-03,
57,2.80e-02,1.00e-02,
58,-2.40e-02,-4.00e-03,
59,4.00e-02,1.80e-02,
60,3.60e-02,-4.00e-03,
61,-3.60e-02,1.40e-02,
62,3.60e-02,1.80e-02,
63,-5.20e-02,-2.40e-02,
64,-4.40e-02,3.20e-02,
65,4.40e-02,-2.40e-02,
66,-2.40e-02,3.40e-02,
67,2.00e-02,-2.20e-02,
68,-4.00e-02,1.40e-02,
69,1.60e-02,-6.00e-03,
70,-4.00e-02,1.40e-02,
71,2.00e-02,-1.20e-02,
72,-4.00e-02,-1.20e-02,
73,2.00e-02,2.60e-02,
74,2.00e-02,2.20e-02,
75,-4.00e-02,-1.20e-02,
76,-3.60e-02,1.00e-02,
77,1.60e-02,-1.20e-02,
78,-2.00e-02,-6.00e-03,
79,2.00e-02,2.00e-02,
80,-2.68e-01,2.56e-01,
81,3.40e-01,-2.10e-01,
82,4.80e-02,1.00e-02,
83,-4.80e-02,-1.20e-02,
84,3.20e-02,-6.00e-03,
85,-3.20e-02,1.00e-02,
86,4.00e-02,-4.00e-03,
87,-4.40e-02,2.20e-02,
88,-4.40e-02,1.60e-02,
89,4.00e-02,-6.00e-03,
90,4.40e-02,1.00e-02,
91,-4.40e-02,-4.00e-03,
92,-1.60e-02,3.20e-02,
93,3.20e-02,-4.00e-03,
94,4.00e-02,8.00e-03,
95,-3.60e-02,-2.20e-02,
96,-5.20e-02,1.00e-02,
97,3.20e-02,-1.60e-02,
98,-5.60e-02,8.00e-03,
99,3.60e-02,-1.20e-02,
100,3.60e-02,1.80e-02,
101,-5.20e-02,-1.40e-02,
102,-5.20e-02,1.60e-02,
103,4.00e-02,-1.40e-02,
104,4.00e-02,1.40e-02,
105,-4.40e-02,-1.40e-02,
106,-3.20e-02,1.00e-02,
107,1.60e-02,-1.20e-02,
108,1.60e-02,-4.00e-03,
109,-2.80e-02,1.40e-02,
110,-3.60e-02,-2.22e-01,
111,2.44e-01,1.24e-01,
112,-3.20e-02,1.80e-02,
113,1.60e-02,-1.00e-02,
114,-2.40e-02,1.20e-02,
115,1.60e-02,-1.40e-02,
116,-2.00e-02,3.00e-02,
117,3.60e-02,-3.00e-02,
118,2.00e-02,2.60e-02,
119,-4.80e-02,-2.40e-02,
120,4.40e-02,-8.00e-03,
121,-4.40e-02,1.80e-02,
122,2.80e-02,-6.00e-03,
123,-4.00e-02,1.40e-02,
124,2.80e-02,8.00e-03,
125,-2.80e-02,-8.00e-03,
126,3.20e-02,8.00e-03,
127,-4.40e-02,-1.40e-02,
128,-4.80e-02,1.00e-02,
129,3.20e-02,-1.60e-02,
130,2.80e-02,8.00e-03,
131,-4.80e-02,-1.20e-02,
132,-4.80e-02,8.00e-03,
133,3.20e-02,-1.40e-02,
134,4.80e-02,1.00e-02,
135,-4.40e-02,-1.40e-02,
136,3.20e-02,8.00e-03,
137,-3.20e-02,-6.00e-03,
138,-5.28e-01,-2.54e-01,
139,4.72e-01,1.60e-02,
140,4.72e-01,-2.54e-01,
141,-3.16e-01,2.56e-01,
142,4.00e-02,3.60e-02,
143,-6.80e-02,-1.00e-02,
144,3.20e-02,-6.00e-03,
145,-4.00e-02,3.00e-02,
146,3.60e-02,-1.80e-02,
147,-3.60e-02,2.00e-02,
148,-4.00e-02,-2.40e-02,
149,2.80e-02,2.80e-02,
150,-1.60e-02,2.20e-02,
151,4.00e-02,-1.00e-02,
152,-1.60e-02,1.20e-02,
153,4.00e-02,-1.00e-02,
154,-1.60e-02,-1.60e-02,
155,3.60e-02,2.00e-02,
156,1.20e-02,1.60e-02,
157,-4.00e-02,-1.00e-02,
158,-4.00e-02,1.20e-02,
159,3.20e-02,-1.20e-02,
160,4.40e-02,-1.00e-02,
161,-4.80e-02,1.20e-02,
162,-4.80e-02,-8.00e-03,
163,4.00e-02,1.80e-02,
164,-4.40e-02,1.80e-02,
165,4.00e-02,-8.00e-03,
166,3.60e-02,-4.00e-03,
167,-2.40e-02,1.40e-02,
168,-2.88e-01,2.40e-02,
169,1.20e-01,-2.16e-01,
170,4.00e-02,8.00e-03,
171,-4.40e-02,-2.60e-02,
172,4.00e-02,8.00e-03,
173,-4.40e-02,-1.80e-02,
174,-5.20e-02,1.00e-02,
175,3.20e-02,-6.00e-03,
176,2.80e-02,8.00e-03,
177,-4.00e-02,-4.00e-03,
178,2.80e-02,8.00e-03,
179,-3.20e-02,-1.20e-02,
180,2.40e-02,1.40e-02,
181,-4.40e-02,-1.40e-02,
182,-4.80e-02,-1.20e-02,
183,3.60e-02,1.40e-02,
184,3.20e-02,2.00e-02,
185,-4.80e-02,-1.20e-02,
186,8.00e-03,-6.00e-03,
187,-4.40e-02,1.20e-02,
188,4.40e-02,-8.00e-03,
189,-2.00e-02,1.20e-02,
190,-4.40e-02,1.20e-02,
191,3.20e-02,-1.80e-02,
192,-1.60e-02,-2.80e-02,
193,4.40e-02,2.00e-02,
194,-4.40e-02,-6.00e-03,
195,1.20e-02,3.20e-02,
196,-1.40e-01,2.56e-01,
197,2.00e-02,-2.54e-01,
198,1.20e-02,2.60e-02,
199,-5.20e-02,-6.00e-03,
200,-4.00e-02,-2.40e-02,
201,3.20e-02,2.20e-02,
202,2.80e-02,2.20e-02,
203,-3.60e-02,-4.00e-03,
204,-2.00e-02,1.40e-02,
205,2.80e-02,-4.00e-03,
206,2.80e-02,8.00e-03,
207,-3.60e-02,-1.20e-02,
208,5.20e-02,8.00e-03,
209,-4.40e-02,-1.60e-02,
210,4.80e-02,1.20e-02,
211,-4.80e-02,-1.40e-02,
212,-4.40e-02,-4.00e-03,
213,2.80e-02,1.40e-02,
214,3.20e-02,1.60e-02,
215,-5.20e-02,-1.20e-02,
216,3.60e-02,8.00e-03,
217,-4.80e-02,-1.00e-02,
218,3.60e-02,-4.00e-03,
219,-4.00e-02,1.60e-02,
220,3.20e-02,3.00e-02,
221,-4.80e-02,-2.40e-02,
222,4.00e-02,-1.80e-02,
223,-4.40e-02,3.20e-02,
224,4.00e-02,-1.80e-02,
225,-3.60e-02,2.00e-02,
226,-1.56e-01,2.56e-01,
227,2.00e-02,-1.78e-01,
228,8.00e-03,-1.20e-02,
229,-4.80e-02,2.00e-02,
230,-5.20e-02,2.40e-02,
231,1.20e-02,-1.20e-02,
232,2.80e-02,-6.00e-03,
233,-1.60e-02,1.20e-02,
234,1.60e-02,-8.00e-03,
235,-2.80e-02,1.00e-02,
236,1.20e-02,1.60e-02,
237,-4.80e-02,-1.20e-02,
238,8.00e-03,8.00e-03,
239,-4.80e-02,-1.00e-02,
240,4.00e-02,1.00e-02,
241,-4.80e-02,-6.00e-03,
242,2.80e-02,-6.00e-03,
243,-3.20e-02,1.40e-02,
244,3.60e-02,-2.80e-02,
245,-4.00e-02,1.80e-02,
246,4.00e-02,2.00e-02,
247,-3.60e-02,-4.00e-03,
248,3.60e-02,-4.00e-03,
249,-3.60e-02,1.60e-02,
250,3.60e-02,3.00e-02,
251,-4.00e-02,-6.00e-03,
252,3.60e-02,8.00e-03,
253,-4.80e-02,-1.80e-02,
254,1.36e-01,-2.54e-01,
255,-1.84e-01,1.20e-02,
256,-2.40e-02,-6.00e-03,
257,2.40e-02,1.20e-02,
258,2.80e-02,8.00e-03,
259,-2.80e-02,-1.20e-02,
260,-2.40e-02,-1.20e-02,
261,4.00e-02,2.00e-02,
262,4.40e-02,1.00e-02,
263,-3.20e-02,-1.20e-02,
264,-4.80e-02,-1.00e-02,
265,4.00e-02,1.20e-02,
266,3.60e-02,-8.00e-03,
267,-4.40e-02,1.20e-02,
268,8.00e-03,2.00e-02,
269,-4.00e-02,-4.00e-03,
270,1.20e-02,1.20e-02,
271,-3.20e-02,-6.00e-03,
272,-3.20e-02,3.00e-02,
273,3.20e-02,-2.80e-02,
274,4.40e-02,-8.00e-03,
275,-2.40e-02,2.80e-02,
276,8.00e-03,-2.60e-02,
277,-3.60e-02,3.00e-02,
278,1.20e-02,-4.00e-03,
279,-4.40e-02,1.40e-02,
280,-4.40e-02,-6.00e-03,
281,3.60e-02,1.60e-02,
282,-1.92e-01,2.40e-02,
283,1.80e-01,-2.54e-01,
284,2.80e-02,-8.00e-03,
285,-4.00e-02,8.00e-03,
286,-3.60e-02,1.00e-02,
287,2.40e-02,-6.00e-03,
288,-3.60e-02,-8.00e-03,
289,2.80e-02,8.00e-03,
290,-3.20e-02,-4.00e-03,
291,5.20e-02,8.00e-03,
292,4.00e-02,8.00e-03,
293,-4.00e-02,-8.00e-03,
294,3.20e-02,-1.20e-02,
295,-4.40e-02,1.20e-02,
296,-5.20e-02,-4.00e-03,
297,4.00e-02,2.00e-02,
298,3.60e-02,-6.00e-03,
299,-4.00e-02,8.00e-03,
300,-2.00e-02,-4.00e-03,
301,3.60e-02,1.80e-02,
302,4.00e-02,-4.00e-03,
303,-2.40e-02,3.40e-02,
304,1.60e-02,1.80e-02,
305,-2.00e-02,-2.00e-02,
306,-4.00e-02,2.60e-02,
307,1.60e-02,-4.00e-03,
308,-2.80e-02,1.40e-02,
309,3.20e-02,-6.00e-03,
310,1.20e-02,-2.20e-02,
311,-4.40e-02,1.60e-02,
312,-4.44e-01,2.56e-01,
313,3.32e-01,-2.54e-01,
314,-6.00e-02,1.20e-02,
315,1.20e-02,-8.00e-03,
316,1.20e-02,1.20e-02,
317,-4.00e-02,-1.00e-02,
318,3.60e-02,1.20e-02,
319,-4.00e-02,-1.20e-02,
320,-4.40e-02,-8.00e-03,
321,3.60e-02,2.00e-02,
322,-2.00e-02,-4.00e-03,
323,4.00e-02,1.20e-02,
324,3.60e-02,2.60e-02,
325,-3.60e-02,-2.80e-02,
326,4.00e-02,1.80e-02,
327,-4.40e-02,-1.00e-02,
328,-4.40e-02,8.00e-03,
329,3.60e-02,-1.40e-02,
330,2.80e-02,-1.00e-02,
331,-4.80e-02,8.00e-03,
332,2.80e-02,8.00e-03,
333,-4.00e-02,-1.20e-02,
334,3.20e-02,8.00e-03,
335,-3.60e-02,-1.00e-02,
336,2.80e-02,-1.00e-02,
337,-2.40e-02,8.00e-03,
338,-3.60e-02,1.60e-02,
339,2.00e-02,-1.00e-02,
340,-1.32e-01,-5.20e-02,
341,2.24e-01,1.00e-01,
342,4.00e-02,1.40e-02,
343,-4.40e-02,-1.40e-02,
344,4.80e-02,-4.00e-03,
345,-2.40e-02,1.20e-02,
346,1.20e-02,-4.00e-03,
347,-2.40e-02,1.60e-02,
348,1.60e-02,-2.80e-02,
349,-4.40e-02,2.00e-02,
350,-4.80e-02,-1.00e-02,
351,1.20e-02,2.60e-02,
352,1.20e-02,-4.00e-03,
353,-4.40e-02,2.60e-02,
354,-2.00e-02,2.40e-02,
355,3.60e-02,-4.00e-03,
356,8.00e-03,1.80e-02,
357,-2.80e-02,-2.40e-02,
358,-3.20e-02,-1.20e-02,
359,2.40e-02,2.40e-02,
360,2.80e-02,1.20e-02,
361,-3.20e-02,-6.00e-03,
362,3.20e-02,1.40e-02,
363,-3.20e-02,-6.00e-03,
364,3.20e-02,8.00e-03,
365,-2.80e-02,-1.20e-02,
366,-2.40e-02,1.00e-02,
367,6.00e-02,-6.00e-03,
368,1.84e-01,2.56e-01,
369,-1.92e-01,-2.54e-01,
370,-4.00e-02,1.00e-02,
371,4.00e-02,-6.00e-03,
372,-3.20e-02,-4.00e-03,
373,4.40e-02,8.00e-03,
374,4.40e-02,8.00e-03,
375,-3.20e-02,-6.00e-03,
376,-4.40e-02,-6.00e-03,
377,3.60e-02,1.60e-02,
378,-4.40e-02,3.20e-02,
379,4.40e-02,-4.00e-03,
380,4.00e-02,3.40e-02,
381,-2.80e-02,-2.20e-02,
382,4.00e-02,1.40e-02,
383,-4.00e-02,-1.20e-02,
384,2.40e-02,1.40e-02,
385,-5.20e-02,-1.00e-02,
386,8.00e-03,2.60e-02,
387,-5.20e-02,-1.40e-02,
388,-4.40e-02,2.20e-02,
389,2.80e-02,-1.20e-02,
390,-2.00e-02,1.00e-02,
391,3.20e-02,-1.20e-02,
392,1.20e-02,-1.00e-02,
393,-4.80e-02,2.00e-02,
394,8.00e-03,1.80e-02,
395,-3.60e-02,-1.00e-02,
396,1.20e-02,-4.00e-03,
397,-3.20e-02,1.20e-02,
398,3.64e-01,2.56e-01,
399,-8.80e-02,-1.56e-01,
400,3.60e-02,-2.80e-02,
401,-3.60e-02,1.80e-02,
402,-4.00e-02,-2.40e-02,
403,3.60e-02,1.80e-02,
404,4.00e-02,8.00e-03,
405,-4.80e-02,-8.00e-03,
406,-4.40e-02,-8.00e-03,
407,3.60e-02,3.40e-02,
408,-4.40e-02,1.00e-02,
409,4.00e-02,-1.80e-02,
410,3.20e-02,-1.80e-02,
411,-3.20e-02,8.00e-03,
412,2.40e-02,8.00e-03,
413,-2.80e-02,-1.00e-02,
414,2.80e-02,-1.40e-02,
415,-4.40e-02,1.00e-02,
416,2.80e-02,-1.60e-02,
417,-4.40e-02,8.00e-03,
418,4.40e-02,-1.60e-02,
419,-4.40e-02,1.00e-02,
420,4.40e-02,-1.20e-02,
421,-4.40e-02,1.20e-02,
422,3.20e-02,1.40e-02,
423,-3.20e-02,-1.40e-02,
424,-3.20e-02,-4.00e-03,
425,3.20e-02,2.00e-02,
426,2.68e-01,2.56e-01,
427,-3.08e-01,-2.54e-01,
428,-4.80e-02,1.40e-02,
429,1.20e-02,-1.40e-02,
430,-4.40e-02,-3.00e-02,
431,3.60e-02,2.80e-02,
432,2.80e-02,-2.60e-02,
433,-4.40e-02,2.80e-02,
434,-4.40e-02,-1.20e-02,
435,1.20e-02,1.60e-02,
436,-3.20e-02,1.40e-02,
437,1.20e-02,-4.00e-03,
438,2.80e-02,-1.20e-02,
439,-4.40e-02,2.00e-02,
440,3.20e-02,2.40e-02,
441,-4.80e-02,-1.20e-02,
442,-4.80e-02,1.20e-02,
443,4.00e-02,-1.20e-02,
444,-4.40e-02,1.00e-02,
445,4.00e-02,-1.20e-02,
446,-4.00e-02,1.00e-02,
447,4.40e-02,-6.00e-03,
448,4.80e-02,-6.00e-03,
449,-4.00e-02,1.00e-02,
450,-4.40e-02,8.00e-03,
451,4.00e-02,-6.00e-03,
452,2.80e-02,1.60e-02,
453,-4.40e-02,-6.00e-03,
454,-3.60e-02,1.80e-02,
455,3.60e-02,-6.00e-03,
456,-2.56e-01,-2.54e-01,
457,1.52e-01,1.00e-02,
458,3.20e-02,2.80e-02,
459,-4.80e-02,-1.00e-02,
460,-4.80e-02,1.80e-02,
461,4.00e-02,-1.00e-02,
462,-4.80e-02,-2.40e-02,
463,3.20e-02,2.80e-02,
464,-4.00e-02,2.20e-02,
465,3.20e-02,-6.00e-03,
466,1.20e-02,-6.00e-03,
467,-2.40e-02,1.20e-02,
468,1.20e-02,-1.00e-02,
469,-2.80e-02,2.00e-02,
470,3.60e-02,1.60e-02,
471,-4.00e-02,-1.20e-02,
472,-4.00e-02,1.20e-02,
473,4.00e-02,-1.20e-02,
474,-2.40e-02,-8.00e-03,
475,4.00e-02,1.40e-02,
476,4.00e-02,1.80e-02,
477,-4.00e-02,-1.00e-02,
478,-4.40e-02,1.80e-02,
479,4.00e-02,-6.00e-03,
480,3.60e-02,-8.00e-03,
481,-4.80e-02,1.20e-02,
482,4.00e-02,-2.40e-02,
483,-4.40e-02,3.40e-02,
484,-5.48e-01,2.56e-01,
485,4.72e-01,-2.54e-01,
486,-1.28e-01,-1.70e-01,
487,9.20e-02,2.02e-01,
488,-5.20e-02,1.00e-02,
489,2.80e-02,-1.20e-02,
490,2.80e-02,1.00e-02,
491,-5.20e-02,-1.20e-02,
492,3.20e-02,-1.20e-02,
493,-5.20e-02,8.00e-03,
494,-4.40e-02,-1.20e-02,
495,3.20e-02,1.40e-02,
496,-4.40e-02,8.00e-03,
497,3.60e-02,-1.00e-02,
498,-4.00e-02,-6.00e-03,
499,3.60e-02,1.80e-02,
500,5.60e-02,1.20e-02,
501,-3.60e-02,-4.00e-03,
502,-3.20e-02,-4.00e-03,
503,3.20e-02,1.40e-02,
504,4.00e-02,1.40e-02,
505,-4.40e-02,-1.20e-02,
506,-4.80e-02,-3.00e-02,
507,1.20e-02,1.80e-02,
508,8.00e-03,-6.00e-03,
509,-4.80e-02,3.00e-02,
510,8.00e-03,-6.00e-03,
511,-5.60e-02,2.60e-02,
512,4.00e-02,3.00e-02,
513,-3.60e-02,-6.00e-03,
514,4.72e-01,2.56e-01,
515,-2.80e-02,-2.54e-01,
516,8.00e-03,2.40e-02,
517,-4.00e-02,-8.00e-03,
518,-4.00e-02,-6.00e-03,
519,3.20e-02,1.80e-02,
520,2.80e-02,1.60e-02,
521,-3.60e-02,-8.00e-03,
522,4.80e-02,1.80e-02,
523,-2.80e-02,-6.00e-03,
524,6.00e-02,1.20e-02,
525,-3.20e-02,-1.00e-02,
526,3.20e-02,8.00e-03,
527,-4.80e-02,-1.40e-02,
528,-4.40e-02,8.00e-03,
529,3.60e-02,-1.20e-02,
530,-4.40e-02,8.00e-03,
531,4.40e-02,-8.00e-03,
532,-4.80e-02,-1.20e-02,
533,4.00e-02,1.40e-02,
534,-4.80e-02,-4.00e-03,
535,3.20e-02,3.20e-02,
536,4.00e-02,1.60e-02,
537,-4.80e-02,-1.00e-02,
538,4.00e-02,-6.00e-03,
539,-4.80e-02,1.60e-02,
540,-4.40e-02,1.60e-02,
541,3.20e-02,-8.00e-03,
542,1.84e-01,2.56e-01,
543,-2.48e-01,-2.54e-01,
544,-4.00e-02,2.20e-02,
545,1.20e-02,-1.40e-02,
546,1.60e-02,-8.00e-03,
547,-4.40e-02,1.20e-02,
548,-3.20e-02,1.20e-02,
549,1.20e-02,-6.00e-03,
550,1.60e-02,2.00e-02,
551,-4.00e-02,-1.00e-02,
552,1.20e-02,1.20e-02,
553,-4.40e-02,-1.00e-02,
554,-4.80e-02,1.00e-02,
555,1.20e-02,-1.00e-02,
556,-3.60e-02,1.20e-02,
557,1.20e-02,-6.00e-03,
558,-4.40e-02,-2.60e-02,
559,4.00e-02,1.80e-02,
560,-3.60e-02,-4.00e-03,
561,3.60e-02,3.60e-02,
562,3.60e-02,-4.00e-03,
563,-2.80e-02,1.40e-02,
564,-2.00e-02,3.00e-02,
565,4.00e-02,-4.00e-03,
566,3.60e-02,8.00e-03,
567,-3.20e-02,-2.20e-02,
568,3.60e-02,1.00e-02,
569,-4.40e-02,-1.00e-02,
570,2.00e-01,7.60e-02,
571,-1.48e-01,-2.54e-01,
572,3.60e-02,8.00e-03,
573,-2.80e-02,-4.00e-03,
574,-3.60e-02,-1.00e-02,
575,4.00e-02,1.00e-02,
576,5.20e-02,8.00e-03,
577,-2.80e-02,-6.00e-03,
578,2.80e-02,-4.00e-03,
579,-2.40e-02,1.00e-02,
580,2.80e-02,1.00e-02,
581,-3.60e-02,-8.00e-03,
582,-4.00e-02,1.60e-02,
583,3.60e-02,-8.00e-03,
584,8.00e-03,-6.00e-03,
585,-4.80e-02,1.40e-02,
586,-4.00e-02,3.00e-02,
587,2.40e-02,-2.80e-02,
588,4.40e-02,2.80e-02,
589,-1.60e-02,-1.20e-02,
590,-2.80e-02,-2.20e-02,
591,1.20e-02,3.40e-02,
592,-3.20e-02,-4.00e-03,
593,1.20e-02,1.40e-02,
594,-2.40e-02,-4.00e-03,
595,1.20e-02,1.60e-02,
596,-4.40e-02,-1.20e-02,
597,1.20e-02,2.60e-02,
598,2.80e-02,-1.00e-02,
599,-4.28e-01,2.56e-01,
600,4.44e-01,-1.74e-01,
601,-1.64e-01,6.40e-02,
602,2.40e-02,-6.00e-03,
603,-2.40e-02,1.80e-02,
604,-3.60e-02,8.00e-03,
605,4.80e-02,-8.00e-03,
606,4.40e-02,8.00e-03,
607,-4.40e-02,-1.20e-02,
608,-4.80e-02,-4.00e-03,
609,4.00e-02,1.60e-02,
610,-4.40e-02,-4.00e-03,
611,3.20e-02,2.00e-02,
612,3.60e-02,8.00e-03,
613,-2.80e-02,-4.00e-03,
614,4.80e-02,1.00e-02,
615,-2.40e-02,-4.00e-03,
616,3.60e-02,2.60e-02,
617,-4.00e-02,-8.00e-03,
618,4.40e-02,-2.20e-02,
619,-4.40e-02,1.40e-02,
620,-4.40e-02,2.20e-02,
621,3.20e-02,-1.20e-02,
622,2.40e-02,1.40e-02,
623,-3.60e-02,-8.00e-03,
624,2.80e-02,-6.00e-03,
625,-2.40e-02,1.80e-02,
626,8.00e-03,-8.00e-03,
627,-3.20e-02,2.00e-02,
628,8.00e-03,-2.54e-01,
629,-2.40e-01,2.56e-01,
630,1.20e-02,1.00e-02,
631,-2.40e-02,-8.00e-03,
632,-2.00e-02,-4.00e-03,
633,1.20e-02,1.00e-02,
634,-2.80e-02,1.60e-02,
635,1.20e-02,-6.00e-03,
636,1.20e-02,1.40e-02,
637,-4.00e-02,-1.00e-02,
638,3.60e-02,2.00e-02,
639,-5.20e-02,-2.80e-02,
640,4.40e-02,3.00e-02,
641,-4.80e-02,-2.60e-02,
642,3.60e-02,3.20e-02,
643,-4.00e-02,-2.00e-02,
644,-4.00e-02,1.60e-02,
645,3.60e-02,-6.00e-03,
646,3.20e-02,8.00e-03,
647,-3.60e-02,-1.00e-02,
648,2.80e-02,8.00e-03,
649,-4.00e-02,-1.20e-02,
650,2.80e-02,8.00e-03,
651,-3.20e-02,-1.00e-02,
652,-2.80e-02,1.20e-02,
653,2.00e-02,-1.00e-02,
654,2.40e-02,8.00e-03,
655,-3.20e-02,-8.00e-03,
656,1.36e-01,-2.40e-02,
657,-1.84e-01,2.56e-01,
658,4.72e-01,2.56e-01,
659,-3.52e-01,-2.54e-01,
660,-6.00e-02,-1.60e-02,
661,4.00e-02,1.20e-02,
662,-3.20e-02,-3.00e-02,
663,3.60e-02,1.60e-02,
664,-1.60e-02,-1.40e-02,
665,4.00e-02,2.40e-02,
666,8.00e-03,-4.00e-03,
667,-3.20e-02,3.40e-02,
668,2.00e-02,3.00e-02,
669,-3.20e-02,-6.00e-03,
670,8.00e-03,1.60e-02,
671,-4.40e-02,-2.00e-02,
672,3.60e-02,-1.60e-02,
673,-4.00e-02,2.60e-02,
674,4.00e-02,1.20e-02,
675,-2.00e-02,-1.00e-02,
676,3.60e-02,1.40e-02,
677,-1.60e-02,-1.20e-02,
678,-4.80e-02,-1.40e-02,
679,3.60e-02,2.00e-02,
680,4.80e-02,1.20e-02,
681,-3.60e-02,-1.00e-02,
682,4.00e-02,8.00e-03,
683,-2.80e-02,-6.00e-03,
684,2.40e-02,8.00e-03,
685,-2.40e-02,-4.00e-03,
686,-2.56e-01,2.56e-01,
687,3.40e-01,-2.60e-02,
688,-3.20e-02,-8.00e-03,
689,4.00e-02,8.00e-03,
690,3.60e-02,-4.00e-03,
691,-3.20e-02,1.20e-02,
692,4.00e-02,1.40e-02,
693,-4.40e-02,-8.00e-03,
694,4.00e-02,-6.00e-03,
695,-4.80e-02,1.00e-02,
696,4.00e-02,-8.00e-03,
697,-4.40e-02,1.40e-02,
698,-2.40e-02,-6.00e-03,
699,2.80e-02,1.20e-02,
700,2.80e-02,2.60e-02,
701,-4.40e-02,-1.20e-02,
702,2.80e-02,2.20e-02,
703,-4.80e-02,-1.60e-02,
704,-1.20e-02,-1.40e-02,
705,2.80e-02,1.20e-02,
706,-1.60e-02,-1.20e-02,
707,2.80e-02,1.40e-02,
708,2.80e-02,1.60e-02,
709,-4.80e-02,-1.20e-02,
710,1.20e-02,1.00e-02,
711,-4.00e-02,-1.00e-02,
712,-2.80e-02,-6.00e-03,
713,1.20e-02,1.40e-02,
714,-1.80e-01,2.56e-01,
715,1.32e-01,-2.54e-01,
716,4.00e-02,-2.60e-02,
717,-4.40e-02,2.00e-02,
718,4.00e-02,3.60e-02,
719,-5.20e-02,-8.00e-03,
720,3.60e-02,-8.00e-03,
721,-5.20e-02,3.20e-02,
722,4.40e-02,2.20e-02,
723,-4.40e-02,-1.20e-02,
724,2.40e-02,-2.00e-02,
725,-3.20e-02,8.00e-03,
726,2.40e-02,8.00e-03,
727,-3.60e-02,-1.00e-02,
728,-4.40e-02,-1.40e-02,
729,4.00e-02,8.00e-03,
730,-4.80e-02,8.00e-03,
731,3.60e-02,-1.40e-02,
732,-4.00e-02,-1.20e-02,
733,3.60e-02,1.20e-02,
734,5.20e-02,1.20e-02,
735,-4.80e-02,-4.00e-03,
736,-4.40e-02,1.40e-02,
737,4.00e-02,-4.00e-03,
738,4.00e-02,1.80e-02,
739,-4.80e-02,-1.60e-02,
740,4.00e-02,1.80e-02,
741,-3.60e-02,-1.20e-02,
742,-2.00e-02,1.40e-02,
743,3.20e-02,-4.00e-03,
744,4.48e-01,-2.12e-01,
745,-1.84e-01,2.56e-01,
746,3.20e-02,-2.00e-02,
747,-4.40e-02,3.20e-02,
748,8.00e-03,-1.40e-02,
749,-4.40e-02,1.60e-02,
750,2.80e-02,1.40e-02,
751,-5.20e-02,-1.00e-02,
752,8.00e-03,2.00e-02,
753,-4.40e-02,-6.00e-03,
754,1.20e-02,-1.00e-02,
755,-3.20e-02,2.20e-02,
756,1.60e-02,1.20e-02,
757,-4.40e-02,-1.20e-02,
758,-4.80e-02,1.00e-02,
759,3.60e-02,-1.20e-02,
760,-4.00e-02,1.60e-02,
761,4.00e-02,-1.20e-02,
762,5.60e-02,-1.00e-02,
763,-4.40e-02,1.00e-02,
764,-5.20e-02,-4.00e-03,
765,4.40e-02,1.20e-02,
766,-4.80e-02,-4.00e-03,
767,4.00e-02,1.20e-02,
768,3.60e-02,1.60e-02,
769,-5.20e-02,-8.00e-03,
770,4.00e-02,-8.00e-03,
771,-4.80e-02,1.00e-02,
772,1.28e-01,7.00e-02,
773,-3.08e-01,-1.70e-01,
774,-4.80e-02,8.00e-03,
775,3.60e-02,-6.00e-03,
776,3.20e-02,8.00e-03,
777,-4.80e-02,-2.60e-02,
778,3.20e-02,1.40e-02,
779,-4.00e-02,-6.00e-03,
780,2.80e-02,-6.00e-03,
781,-2.80e-02,1.20e-02,
782,3.20e-02,1.40e-02,
783,-4.00e-02,-1.20e-02,
784,-4.40e-02,1.80e-02,
785,4.00e-02,-1.20e-02,
786,8.00e-03,-1.00e-02,
787,-4.80e-02,1.20e-02,
788,3.20e-02,1.40e-02,
789,-4.80e-02,-8.00e-03,
790,8.00e-03,1.40e-02,
791,-3.60e-02,-6.00e-03,
792,1.20e-02,-4.00e-03,
793,-3.20e-02,2.00e-02,
794,8.00e-03,-4.00e-03,
795,-4.40e-02,1.20e-02,
796,3.20e-02,3.40e-02,
797,-5.20e-02,-2.60e-02,
798,3.20e-02,-1.60e-02,
799,-4.40e-02,3.00e-02,
800,-3.60e-02,-1.80e-02,
801,4.40e-02,1.60e-02,
802,-3.24e-01,-1.68e-01,
803,4.36e-01,2.56e-01,
804,3.60e-02,8.00e-03,
805,-4.00e-02,-6.00e-03,
806,-4.40e-02,8.00e-03,
807,3.20e-02,-1.40e-02,
808,2.80e-02,1.20e-02,
809,-4.00e-02,-8.00e-03,
810,2.00e-02,-4.00e-03,
811,-3.60e-02,1.00e-02,
812,2.80e-02,-1.00e-02,
813,-3.60e-02,8.00e-03,
814,4.80e-02,8.00e-03,
815,-4.00e-02,-1.20e-02,
816,-4.40e-02,8.00e-03,
817,3.20e-02,-6.00e-03,
818,-4.00e-02,1.60e-02,
819,3.20e-02,-1.00e-02,
820,-4.40e-02,-3.00e-02,
821,3.60e-02,2.00e-02,
822,4.00e-02,-4.00e-03,
823,-4.40e-02,3.20e-02,
824,-3.60e-02,-4.00e-03,
825,3.60e-02,2.00e-02,
826,8.00e-03,3.00e-02,
827,-4.00e-02,-6.00e-03,
828,8.00e-03,-1.60e-02,
829,-4.40e-02,1.80e-02,
830,2.48e-01,2.56e-01,
831,-3.36e-01,-2.54e-01,
832,-2.08e-01,2.56e-01,
833,3.08e-01,-2.36e-01,
