Motor_Data/MOTOR_2_ON/MOTOR2_ON_Probe2/time domain (distant ch1 close ch2)/NewFile6 (1).csv

X,CH1,CH2,Start,Increment,
Sequence,Volt,Volt,-3.000000e-02,5.000000e-05
0,2.80e-02,-4.00e-03,
1,-2.00e-02,1.60e-02,
2,2.80e-02,8.00e-03,
3,-2.00e-02,-6.00e-03,
4,-1.60e-02,1.00e-02,
5,3.60e-02,-8.00e-03,
6,4.80e-02,8.00e-03,
7,-2.40e-02,-1.00e-02,
8,3.20e-02,8.00e-03,
9,-4.00e-02,-1.60e-02,
10,2.80e-02,-1.20e-02,
11,-4.00e-02,8.00e-03,
12,3.20e-02,-1.00e-02,
13,-4.00e-02,1.00e-02,
14,-3.20e-02,-6.00e-03,
15,3.60e-02,8.00e-03,
16,-2.80e-02,-4.00e-03,
17,3.20e-02,2.80e-02,
18,-4.00e-02,-2.00e-03,
19,3.20e-02,1.60e-02,
20,-3.60e-02,2.80e-02,
21,4.00e-02,-1.20e-02,
22,2.40e-02,1.40e-02,
23,-3.60e-02,-8.00e-03,
24,8.00e-03,1.40e-02,
25,-3.60e-02,-1.00e-02,
26,8.00e-03,-1.20e-02,
27,-3.60e-02,2.20e-02,
28,-1.52e-01,-2.06e-01,
29,7.20e-02,2.56e-01,
30,8.00e-03,1.20e-02,
31,-2.80e-02,-1.00e-02,
32,8.00e-03,-1.00e-02,
33,-3.20e-02,2.00e-02,
34,-3.20e-02,1.40e-02,
35,1.20e-02,-1.00e-02,
36,8.00e-03,1.00e-02,
37,-2.40e-02,-1.00e-02,
38,8.00e-03,-1.20e-02,
39,-4.40e-02,1.40e-02,
40,3.20e-02,-2.00e-02,
41,-3.60e-02,2.00e-02,
42,-3.20e-02,-4.00e-03,
43,3.20e-02,3.60e-02,
44,3.60e-02,1.80e-02,
45,-3.20e-02,-6.00e-03,
46,-2.00e-02,8.00e-03,
47,3.60e-02,-1.60e-02,
48,3.60e-02,8.00e-03,
49,-2.80e-02,-2.40e-02,
50,-2.00e-02,-4.00e-03,
51,2.40e-02,1.00e-02,
52,2.40e-02,-4.00e-03,
53,-1.60e-02,8.00e-03,
54,2.00e-02,1.40e-02,
55,-2.40e-02,-1.20e-02,
56,2.80e-02,8.00e-03,
57,-3.20e-02,-8.00e-03,
58,3.44e-01,2.56e-01,
59,-3.12e-01,-2.54e-01,
60,3.20e-02,-1.00e-02,
61,-3.60e-02,1.20e-02,
62,2.80e-02,1.20e-02,
63,-3.60e-02,-1.20e-02,
64,3.20e-02,-1.20e-02,
65,-3.60e-02,2.40e-02,
66,8.00e-03,1.40e-02,
67,-4.00e-02,-8.00e-03,
68,-3.60e-02,-2.00e-02,
69,2.80e-02,2.40e-02,
70,2.80e-02,1.60e-02,
71,-2.00e-02,-2.20e-02,
72,1.20e-02,3.40e-02,
73,-2.40e-02,-2.00e-02,
74,8.00e-03,1.60e-02,
75,-3.20e-02,-1.00e-02,
76,8.00e-03,-1.00e-02,
77,-3.60e-02,1.40e-02,
78,-3.60e-02,-1.20e-02,
79,2.00e-02,2.60e-02,
80,-2.40e-02,1.60e-02,
81,2.40e-02,-1.20e-02,
82,2.00e-02,-6.00e-03,
83,-1.60e-02,1.20e-02,
84,2.00e-02,1.00e-02,
85,-2.80e-02,-4.00e-03,
86,-3.20e-02,-8.00e-03,
87,4.00e-02,8.00e-03,
88,4.72e-01,-6.00e-03,
89,-1.64e-01,2.56e-01,
90,2.80e-02,1.00e-02,
91,-4.40e-02,-1.00e-02,
92,2.80e-02,8.00e-03,
93,-3.60e-02,-2.40e-02,
94,3.20e-02,-8.00e-03,
95,-3.60e-02,2.80e-02,
96,3.60e-02,3.00e-02,
97,-4.40e-02,-1.00e-02,
98,-3.60e-02,8.00e-03,
99,3.20e-02,-8.00e-03,
100,2.80e-02,1.80e-02,
101,-2.80e-02,-2.40e-02,
102,2.00e-02,-4.00e-03,
103,-2.80e-02,2.60e-02,
104,-2.40e-02,1.40e-02,
105,2.40e-02,-1.00e-02,
106,-2.40e-02,-1.20e-02,
107,2.80e-02,1.80e-02,
108,-3.60e-02,-1.60e-02,
109,3.20e-02,2.40e-02,
110,5.20e-02,1.80e-02,
111,-1.60e-02,-1.20e-02,
112,3.60e-02,1.20e-02,
113,-1.60e-02,-1.60e-02,
114,2.80e-02,1.20e-02,
115,-1.60e-02,-1.00e-02,
116,2.80e-02,-7.80e-02,
117,-3.60e-02,1.04e-01,
118,5.60e-02,-1.40e-01,
119,-4.00e-02,2.60e-02,
120,-4.00e-02,-2.00e-02,
121,3.20e-02,2.80e-02,
122,-4.00e-02,-2.60e-02,
123,4.00e-02,1.60e-02,
124,3.20e-02,3.20e-02,
125,-4.00e-02,-1.00e-02,
126,3.60e-02,1.60e-02,
127,-3.60e-02,-6.00e-03,
128,2.80e-02,-6.00e-03,
129,-2.00e-02,1.80e-02,
130,2.80e-02,-1.20e-02,
131,-2.80e-02,2.00e-02,
132,2.00e-02,2.20e-02,
133,-3.20e-02,-1.40e-02,
134,2.00e-02,1.40e-02,
135,-4.00e-02,-1.20e-02,
136,-3.60e-02,1.40e-02,
137,3.20e-02,-4.00e-03,
138,-3.60e-02,1.80e-02,
139,3.60e-02,-1.20e-02,
140,4.40e-02,1.40e-02,
141,-3.60e-02,-1.00e-02,
142,-4.00e-02,-1.20e-02,
143,2.80e-02,1.40e-02,
144,-3.60e-02,-2.40e-02,
145,2.80e-02,1.60e-02,
146,3.20e-02,-1.60e-02,
147,-2.00e-02,2.00e-02,
148,-3.60e-02,1.24e-01,
149,8.40e-02,-1.46e-01,
150,2.80e-02,-6.00e-03,
151,-2.00e-02,2.20e-02,
152,3.20e-02,1.80e-02,
153,-2.00e-02,-2.00e-02,
154,2.80e-02,-8.00e-03,
155,-1.20e-02,2.60e-02,
156,2.80e-02,1.60e-02,
157,-1.60e-02,-6.00e-03,
158,2.80e-02,-4.00e-03,
159,-1.60e-02,1.80e-02,
160,2.80e-02,-1.20e-02,
161,-2.40e-02,1.80e-02,
162,4.40e-02,1.80e-02,
163,-2.80e-02,-8.00e-03,
164,3.60e-02,1.00e-02,
165,-3.60e-02,-1.00e-02,
166,3.20e-02,-4.00e-03,
167,-4.00e-02,1.20e-02,
168,-4.00e-02,-4.00e-03,
169,3.20e-02,2.00e-02,
170,3.20e-02,2.20e-02,
171,-4.00e-02,-4.00e-03,
172,3.60e-02,-4.00e-03,
173,-3.60e-02,2.60e-02,
174,3.20e-02,2.00e-02,
175,-4.00e-02,-6.00e-03,
176,2.80e-02,-2.40e-02,
177,-3.60e-02,2.80e-02,
178,1.00e-01,-6.60e-02,
179,-1.12e-01,2.56e-01,
180,2.40e-02,-4.00e-03,
181,-3.60e-02,1.40e-02,
182,2.40e-02,-6.00e-03,
183,-3.60e-02,2.20e-02,
184,2.80e-02,2.80e-02,
185,-3.60e-02,-8.00e-03,
186,-2.80e-02,-8.00e-03,
187,1.60e-02,1.40e-02,
188,8.00e-03,-1.20e-02,
189,-3.20e-02,1.20e-02,
190,8.00e-03,2.20e-02,
191,-4.00e-02,-1.20e-02,
192,8.00e-03,1.60e-02,
193,-3.60e-02,-8.00e-03,
194,8.00e-03,1.20e-02,
195,-3.60e-02,-6.00e-03,
196,-2.40e-02,-1.80e-02,
197,1.20e-02,1.40e-02,
198,3.20e-02,-2.20e-02,
199,-2.00e-02,2.20e-02,
200,3.60e-02,3.60e-02,
201,-3.60e-02,-4.00e-03,
202,2.80e-02,2.80e-02,
203,-3.20e-02,-4.00e-03,
204,3.20e-02,2.20e-02,
205,-3.60e-02,-2.40e-02,
206,3.20e-02,1.00e-02,
207,-4.00e-02,-1.20e-02,
208,1.24e-01,1.34e-01,
209,-1.52e-01,-1.20e-02,
210,2.80e-02,1.20e-02,
211,-2.80e-02,-6.00e-03,
212,-2.80e-02,8.00e-03,
213,2.80e-02,-1.00e-02,
214,-2.40e-02,-6.00e-03,
215,3.60e-02,1.40e-02,
216,4.40e-02,8.00e-03,
217,-2.00e-02,-6.00e-03,
218,-2.40e-02,8.00e-03,
219,2.00e-02,-1.00e-02,
220,2.80e-02,2.00e-02,
221,-4.00e-02,-1.40e-02,
222,3.20e-02,2.00e-02,
223,-4.00e-02,-1.00e-02,
224,3.20e-02,-8.00e-03,
225,-3.60e-02,2.20e-02,
226,-4.00e-02,-2.40e-02,
227,4.00e-02,2.80e-02,
228,8.00e-03,-2.20e-02,
229,-3.60e-02,3.20e-02,
230,8.00e-03,1.60e-02,
231,-3.60e-02,-4.00e-03,
232,8.00e-03,1.40e-02,
233,-3.20e-02,-4.00e-03,
234,8.00e-03,1.80e-02,
235,-3.60e-02,-1.00e-02,
236,-3.20e-02,2.00e-02,
237,1.60e-02,-1.00e-02,
238,-2.52e-01,-2.54e-01,
239,2.84e-01,2.56e-01,
240,-3.60e-02,1.00e-02,
241,2.40e-02,-1.40e-02,
242,-2.80e-02,-1.20e-02,
243,2.80e-02,2.00e-02,
244,4.80e-02,1.40e-02,
245,-3.60e-02,-1.20e-02,
246,2.80e-02,8.00e-03,
247,-4.00e-02,-1.40e-02,
248,-3.60e-02,-6.00e-03,
249,3.20e-02,1.40e-02,
250,-3.20e-02,2.20e-02,
251,2.80e-02,-4.00e-03,
252,3.20e-02,-4.00e-03,
253,-2.00e-02,2.60e-02,
254,3.20e-02,2.00e-02,
255,-2.40e-02,-6.00e-03,
256,2.80e-02,8.00e-03,
257,-2.00e-02,-2.60e-02,
258,2.80e-02,-1.20e-02,
259,-3.60e-02,1.00e-02,
260,2.00e-02,2.60e-02,
261,-2.00e-02,-6.00e-03,
262,-2.40e-02,-6.00e-03,
263,2.40e-02,1.40e-02,
264,-2.80e-02,1.60e-02,
265,2.40e-02,-8.00e-03,
266,-2.80e-02,2.00e-02,
267,1.60e-02,-8.00e-03,
268,-2.40e-02,-1.22e-01,
269,4.32e-01,2.56e-01,
270,2.80e-02,8.00e-03,
271,-2.40e-02,-1.00e-02,
272,8.00e-03,-4.00e-03,
273,-2.80e-02,1.80e-02,
274,8.00e-03,2.20e-02,
275,-2.80e-02,-8.00e-03,
276,8.00e-03,-8.00e-03,
277,-3.60e-02,1.40e-02,
278,-4.00e-02,-2.00e-02,
279,4.40e-02,1.60e-02,
280,3.20e-02,1.80e-02,
281,-4.00e-02,-2.40e-02,
282,-2.80e-02,2.20e-02,
283,3.20e-02,-4.00e-03,
284,2.40e-02,1.60e-02,
285,-2.40e-02,-1.00e-02,
286,2.40e-02,8.00e-03,
287,-3.20e-02,-1.20e-02,
288,2.80e-02,8.00e-03,
289,-4.00e-02,-1.40e-02,
290,2.40e-02,-1.60e-02,
291,-4.00e-02,1.20e-02,
292,1.60e-02,-1.40e-02,
293,-3.20e-02,8.00e-03,
294,2.40e-02,8.00e-03,
295,-2.40e-02,-1.20e-02,
296,-2.80e-02,-6.00e-03,
297,4.00e-02,8.00e-03,
298,-5.60e-02,6.40e-02,
299,6.00e-02,-9.80e-02,
300,-4.00e-02,-1.20e-02,
301,2.80e-02,1.60e-02,
302,3.60e-02,-2.40e-02,
303,-4.40e-02,2.40e-02,
304,8.00e-03,-8.00e-03,
305,-3.60e-02,3.40e-02,
306,-4.00e-02,-6.00e-03,
307,3.20e-02,2.80e-02,
308,8.00e-03,2.00e-02,
309,-2.40e-02,-2.00e-02,
310,8.00e-03,1.60e-02,
311,-3.20e-02,-1.80e-02,
312,-2.40e-02,2.80e-02,
313,2.00e-02,-8.00e-03,
314,-1.20e-02,1.20e-02,
315,2.80e-02,-1.20e-02,
316,2.80e-02,-1.40e-02,
317,-1.60e-02,1.60e-02,
318,2.40e-02,2.20e-02,
319,-4.00e-02,-1.60e-02,
320,4.40e-02,1.20e-02,
321,-4.00e-02,-1.40e-02,
322,-2.80e-02,1.20e-02,
323,2.40e-02,-1.20e-02,
324,2.40e-02,1.20e-02,
325,-3.20e-02,-6.00e-03,
326,-2.00e-02,-4.00e-03,
327,3.60e-02,8.00e-03,
328,-6.00e-02,5.20e-02,
329,6.80e-02,-4.60e-02,
330,-3.60e-02,-4.00e-03,
331,3.60e-02,2.80e-02,
332,-4.00e-02,1.80e-02,
333,3.20e-02,-1.00e-02,
334,3.20e-02,-1.00e-02,
335,-3.60e-02,1.00e-02,
336,2.40e-02,-1.00e-02,
337,-4.00e-02,8.00e-03,
338,-3.60e-02,-6.00e-03,
339,2.80e-02,8.00e-03,
340,2.80e-02,-8.00e-03,
341,-2.00e-02,2.20e-02,
342,2.40e-02,1.40e-02,
343,-2.80e-02,-1.20e-02,
344,8.00e-03,1.00e-02,
345,-3.60e-02,-1.20e-02,
346,8.00e-03,1.80e-02,
347,-4.00e-02,-1.40e-02,
348,-4.00e-02,1.80e-02,
349,1.20e-02,-1.00e-02,
350,8.00e-03,1.00e-02,
351,-4.00e-02,-1.20e-02,
352,-4.00e-02,1.40e-02,
353,2.80e-02,-8.00e-03,
354,-3.60e-02,1.20e-02,
355,3.20e-02,-2.20e-02,
356,-3.60e-02,-1.00e-02,
357,1.60e-02,3.60e-02,
358,-1.08e-01,-2.54e-01,
359,1.04e-01,2.56e-01,
360,4.00e-02,1.60e-02,
361,-3.20e-02,-1.00e-02,
362,3.20e-02,1.60e-02,
363,-3.60e-02,-2.00e-02,
364,2.40e-02,-8.00e-03,
365,-3.20e-02,1.00e-02,
366,2.40e-02,-4.00e-03,
367,-2.00e-02,1.00e-02,
368,-2.40e-02,1.40e-02,
369,2.40e-02,-1.40e-02,
370,2.80e-02,8.00e-03,
371,-3.60e-02,-1.20e-02,
372,4.40e-02,-1.40e-02,
373,-4.40e-02,1.00e-02,
374,2.80e-02,8.00e-03,
375,-4.00e-02,-1.20e-02,
376,-4.00e-02,-1.20e-02,
377,3.20e-02,8.00e-03,
378,3.20e-02,-1.00e-02,
379,-4.00e-02,8.00e-03,
380,3.60e-02,1.40e-02,
381,-4.00e-02,-6.00e-03,
382,-4.00e-02,-2.40e-02,
383,3.60e-02,2.40e-02,
384,2.80e-02,1.60e-02,
385,-3.60e-02,-2.20e-02,
386,8.00e-03,3.80e-02,
387,-3.60e-02,-1.40e-02,
388,-2.80e-02,1.72e-01,
389,3.64e-01,-2.54e-01,
390,8.00e-03,1.40e-02,
391,-3.60e-02,-8.00e-03,
392,8.00e-03,2.60e-02,
393,-3.60e-02,-1.20e-02,
394,2.00e-02,1.80e-02,
395,-3.60e-02,-6.00e-03,
396,-3.60e-02,1.20e-02,
397,1.20e-02,-8.00e-03,
398,-2.00e-02,-8.00e-03,
399,1.20e-02,2.00e-02,
400,4.40e-02,1.80e-02,
401,-4.00e-02,-1.20e-02,
402,4.80e-02,1.20e-02,
403,-4.00e-02,-1.40e-02,
404,-4.40e-02,-1.00e-02,
405,3.20e-02,1.40e-02,
406,-4.00e-02,-4.00e-03,
407,3.20e-02,1.80e-02,
408,-4.00e-02,2.20e-02,
409,3.20e-02,-4.00e-03,
410,3.60e-02,-4.00e-03,
411,-3.60e-02,2.20e-02,
412,-2.80e-02,-4.00e-03,
413,3.20e-02,2.00e-02,
414,2.80e-02,8.00e-03,
415,-3.20e-02,-2.40e-02,
416,2.80e-02,8.00e-03,
417,-4.00e-02,-1.20e-02,
418,-2.48e-01,2.56e-01,
419,2.80e-01,-2.36e-01,
420,-2.40e-02,-1.00e-02,
421,2.80e-02,1.80e-02,
422,-1.60e-02,-8.00e-03,
423,2.80e-02,1.80e-02,
424,-2.00e-02,1.40e-02,
425,1.20e-02,-6.00e-03,
426,-2.40e-02,1.00e-02,
427,2.40e-02,-1.40e-02,
428,-2.00e-02,1.20e-02,
429,2.80e-02,-1.40e-02,
430,8.00e-03,-1.20e-02,
431,-3.60e-02,2.40e-02,
432,8.00e-03,1.60e-02,
433,-3.60e-02,-1.00e-02,
434,-3.60e-02,-2.00e-02,
435,2.80e-02,2.60e-02,
436,-1.20e-02,-2.20e-02,
437,2.80e-02,1.60e-02,
438,8.00e-03,3.20e-02,
439,-3.60e-02,-4.00e-03,
440,3.20e-02,1.60e-02,
441,-2.40e-02,-6.00e-03,
442,2.80e-02,1.40e-02,
443,-3.20e-02,-6.00e-03,
444,2.40e-02,1.60e-02,
445,-3.60e-02,-1.20e-02,
446,2.80e-02,-1.00e-02,
447,-3.20e-02,1.00e-02,
448,-2.40e-02,1.20e-02,
449,1.12e-01,-8.00e-03,
450,-3.92e-01,1.06e-01,
451,2.00e-02,-2.60e-02,
452,4.40e-02,8.00e-03,
453,-3.20e-02,-6.00e-03,
454,4.40e-02,8.00e-03,
455,-2.40e-02,-6.00e-03,
456,2.40e-02,1.20e-02,
457,-3.60e-02,-1.20e-02,
458,-3.60e-02,-1.00e-02,
459,2.80e-02,1.60e-02,
460,3.60e-02,-1.40e-02,
461,-4.00e-02,2.20e-02,
462,-3.20e-02,3.40e-02,
463,3.60e-02,-4.00e-03,
464,-2.00e-02,-4.00e-03,
465,2.80e-02,2.40e-02,
466,-2.40e-02,1.60e-02,
467,8.00e-03,-2.00e-02,
468,-3.60e-02,2.40e-02,
469,1.20e-02,-6.00e-03,
470,-2.40e-02,1.60e-02,
471,1.60e-02,-6.00e-03,
472,-2.80e-02,-1.00e-02,
473,8.00e-03,1.80e-02,
474,-2.40e-02,1.60e-02,
475,1.60e-02,-1.20e-02,
476,8.00e-03,1.80e-02,
477,-2.00e-02,-4.00e-03,
478,6.40e-02,-9.80e-02,
479,-4.40e-02,1.40e-01,
480,-4.00e-02,1.20e-02,
481,2.40e-02,-1.40e-02,
482,-3.20e-02,-1.20e-02,
483,3.20e-02,2.20e-02,
484,3.60e-02,8.00e-03,
485,-3.20e-02,-1.00e-02,
486,3.20e-02,1.20e-02,
487,-4.40e-02,-6.00e-03,
488,-4.00e-02,-4.00e-03,
489,3.20e-02,2.00e-02,
490,3.20e-02,8.00e-03,
491,-3.20e-02,-1.00e-02,
492,3.60e-02,8.00e-03,
493,-2.80e-02,-8.00e-03,
494,1.60e-02,8.00e-03,
495,-3.60e-02,-1.40e-02,
496,-3.60e-02,8.00e-03,
497,2.40e-02,-1.20e-02,
498,2.80e-02,-1.40e-02,
499,-4.00e-02,8.00e-03,
500,2.00e-02,-1.60e-02,
501,-3.60e-02,1.40e-02,
502,-2.80e-02,-1.20e-02,
503,1.60e-02,1.40e-02,
504,8.00e-03,1.80e-02,
505,-2.40e-02,-1.00e-02,
506,8.00e-03,-4.00e-03,
507,-2.80e-02,1.20e-02,
508,7.60e-02,-7.80e-02,
509,-4.00e-02,6.40e-02,
510,-4.00e-02,-2.00e-02,
511,8.00e-03,1.60e-02,
512,2.80e-02,2.20e-02,
513,-3.20e-02,-1.00e-02,
514,8.00e-03,3.60e-02,
515,-3.20e-02,-8.00e-03,
516,-3.60e-02,2.80e-02,
517,3.60e-02,-8.00e-03,
518,1.20e-02,2.00e-02,
519,-3.60e-02,-1.20e-02,
520,2.80e-02,-4.00e-03,
521,-3.20e-02,2.40e-02,
522,2.00e-02,2.20e-02,
523,-2.40e-02,-4.00e-03,
524,2.40e-02,1.60e-02,
525,-2.80e-02,-1.20e-02,
526,2.80e-02,8.00e-03,
527,-3.60e-02,-1.60e-02,
528,-3.60e-02,-1.80e-02,
529,4.40e-02,1.20e-02,
530,4.00e-02,-1.60e-02,
531,-3.60e-02,8.00e-03,
532,2.80e-02,8.00e-03,
533,-4.00e-02,-1.60e-02,
534,-3.60e-02,-1.40e-02,
535,2.80e-02,8.00e-03,
536,3.20e-02,-8.00e-03,
537,-2.40e-02,1.20e-02,
538,2.00e-01,-1.62e-01,
539,-1.24e-01,2.00e-02,
540,2.80e-02,-2.40e-02,
541,-4.40e-02,2.60e-02,
542,3.20e-02,-2.40e-02,
543,-4.40e-02,3.00e-02,
544,8.00e-03,1.80e-02,
545,-4.40e-02,-1.00e-02,
546,-4.00e-02,1.40e-02,
547,8.00e-03,-8.00e-03,
548,8.00e-03,1.80e-02,
549,-2.80e-02,-8.00e-03,
550,1.20e-02,2.20e-02,
551,-3.20e-02,-1.40e-02,
552,-3.20e-02,-1.20e-02,
553,2.40e-02,1.20e-02,
554,-3.60e-02,1.20e-02,
555,2.40e-02,-1.20e-02,
556,2.80e-02,-1.00e-02,
557,-3.20e-02,2.00e-02,
558,8.00e-03,1.20e-02,
559,-3.60e-02,-1.00e-02,
560,-3.20e-02,-1.00e-02,
561,2.80e-02,1.20e-02,
562,2.80e-02,1.40e-02,
563,-4.00e-02,-1.40e-02,
564,-4.00e-02,2.20e-02,
565,2.80e-02,-4.00e-03,
566,3.20e-02,-1.00e-02,
567,-3.60e-02,1.00e-02,
568,-2.48e-01,-2.54e-01,
569,1.80e-01,1.80e-02,
570,2.80e-02,8.00e-03,
571,-3.20e-02,-2.40e-02,
572,-3.60e-02,8.00e-03,
573,2.80e-02,-1.00e-02,
574,2.40e-02,8.00e-03,
575,-3.60e-02,-1.00e-02,
576,2.00e-02,-8.00e-03,
577,-3.20e-02,8.00e-03,
578,2.80e-02,-1.20e-02,
579,-2.40e-02,8.00e-03,
580,4.00e-02,1.80e-02,
581,-2.40e-02,-8.00e-03,
582,5.20e-02,-1.20e-02,
583,-3.60e-02,1.40e-02,
584,3.20e-02,-1.20e-02,
585,-1.60e-02,1.20e-02,
586,3.20e-02,-1.00e-02,
587,-3.20e-02,1.60e-02,
588,8.00e-03,2.40e-02,
589,-4.00e-02,-1.00e-02,
590,-4.00e-02,-8.00e-03,
591,1.20e-02,1.20e-02,
592,-3.20e-02,2.60e-02,
593,2.80e-02,-2.00e-02,
594,2.80e-02,3.40e-02,
595,-4.40e-02,-2.20e-02,
596,-3.60e-02,2.20e-02,
597,8.00e-03,-8.00e-03,
598,8.80e-02,-1.64e-01,
599,-2.52e-01,2.56e-01,
600,2.24e-01,-2.54e-01,
601,-2.24e-01,2.28e-01,
602,-2.80e-02,2.20e-02,
603,2.40e-02,-1.20e-02,
604,2.40e-02,-8.00e-03,
605,-2.00e-02,1.00e-02,
606,1.20e-02,8.00e-03,
607,-3.20e-02,-1.40e-02,
608,-3.60e-02,8.00e-03,
609,2.00e-02,-1.00e-02,
610,4.40e-02,-1.00e-02,
611,-4.00e-02,8.00e-03,
612,3.60e-02,-6.00e-03,
613,-3.60e-02,1.00e-02,
614,2.80e-02,1.40e-02,
615,-3.20e-02,-6.00e-03,
616,-2.40e-02,-6.00e-03,
617,2.80e-02,2.00e-02,
618,-2.80e-02,-4.00e-03,
619,3.60e-02,1.00e-02,
620,-2.80e-02,2.60e-02,
621,3.20e-02,-6.00e-03,
622,-3.20e-02,1.80e-02,
623,3.60e-02,-1.60e-02,
624,8.00e-03,1.80e-02,
625,-3.60e-02,-1.60e-02,
626,-4.00e-02,2.40e-02,
627,1.20e-02,-1.00e-02,
628,-3.20e-02,-1.20e-02,
629,1.20e-02,1.40e-02,
630,-2.04e-01,-2.54e-01,
631,1.60e-02,2.56e-01,
632,-1.60e-02,2.00e-02,
633,1.20e-02,-4.00e-03,
634,-2.00e-02,1.40e-02,
635,1.20e-02,-4.00e-03,
636,1.20e-02,-8.00e-03,
637,-2.00e-02,1.40e-02,
638,8.00e-03,1.40e-02,
639,-3.60e-02,-1.40e-02,
640,3.20e-02,2.00e-02,
641,-3.60e-02,-1.40e-02,
642,3.60e-02,-8.00e-03,
643,-4.00e-02,1.60e-02,
644,2.80e-02,-1.00e-02,
645,-3.60e-02,2.20e-02,
646,-4.00e-02,-4.00e-03,
647,3.20e-02,1.60e-02,
648,-3.60e-02,1.20e-02,
649,3.20e-02,-6.00e-03,
650,2.00e-02,1.20e-02,
651,-2.00e-02,-6.00e-03,
652,2.40e-02,-1.40e-02,
653,-2.80e-02,8.00e-03,
654,2.40e-02,8.00e-03,
655,-2.40e-02,-1.20e-02,
656,2.40e-02,-6.00e-03,
657,-2.80e-02,1.40e-02,
658,-8.80e-02,-1.12e-01,
659,9.20e-02,8.00e-02,
660,2.00e-02,-1.20e-02,
661,-2.00e-02,1.80e-02,
662,-2.80e-02,1.60e-02,
663,4.00e-02,-1.20e-02,
664,8.00e-03,1.00e-02,
665,-2.80e-02,-1.00e-02,
666,8.00e-03,-8.00e-03,
667,-3.60e-02,1.20e-02,
668,-3.20e-02,-2.40e-02,
669,2.80e-02,1.80e-02,
670,8.00e-03,-8.00e-03,
671,-3.60e-02,3.40e-02,
672,-2.40e-02,-4.00e-03,
673,2.40e-02,2.20e-02,
674,8.00e-03,1.80e-02,
675,-2.40e-02,-1.00e-02,
676,8.00e-03,-2.40e-02,
677,-4.00e-02,1.60e-02,
678,-2.80e-02,2.20e-02,
679,1.20e-02,-6.00e-03,
680,2.00e-02,-6.00e-03,
681,-2.40e-02,1.20e-02,
682,2.80e-02,1.60e-02,
683,-2.40e-02,-1.40e-02,
684,2.40e-02,8.00e-03,
685,-2.00e-02,-8.00e-03,
686,4.40e-02,-6.00e-03,
687,-2.00e-02,1.40e-02,
688,-1.24e-01,-1.00e-02,
689,1.40e-01,9.00e-02,
690,-3.60e-02,-1.00e-02,
691,2.80e-02,8.00e-03,
692,-2.40e-02,-6.00e-03,
693,3.20e-02,8.00e-03,
694,3.20e-02,-4.00e-03,
695,-2.40e-02,1.00e-02,
696,-3.20e-02,-4.00e-03,
697,3.20e-02,2.60e-02,
698,-4.40e-02,1.40e-02,
699,3.60e-02,-1.80e-02,
700,3.60e-02,3.40e-02,
701,-3.20e-02,-2.00e-02,
702,2.80e-02,1.60e-02,
703,-3.20e-02,-4.00e-03,
704,8.00e-03,1.60e-02,
705,-2.40e-02,-8.00e-03,
706,-3.20e-02,-1.00e-02,
707,1.60e-02,2.80e-02,
708,-3.60e-02,2.00e-02,
709,2.40e-02,-1.40e-02,
710,-3.20e-02,-1.20e-02,
711,1.20e-02,1.20e-02,
712,-3.60e-02,-1.40e-02,
713,1.20e-02,1.80e-02,
714,8.00e-03,2.00e-02,
715,-2.80e-02,-1.00e-02,
716,8.00e-03,1.20e-02,
717,-2.40e-02,-8.00e-03,
718,1.52e-01,2.02e-01,
719,-6.80e-02,-2.20e-01,
720,3.60e-02,1.60e-02,
721,-4.00e-02,-2.60e-02,
722,3.60e-02,2.60e-02,
723,-4.40e-02,-1.20e-02,
724,4.00e-02,-8.00e-03,
725,-4.40e-02,2.40e-02,
726,2.80e-02,-4.00e-03,
727,-3.60e-02,2.20e-02,
728,2.80e-02,8.00e-03,
729,-2.40e-02,-2.40e-02,
730,-3.20e-02,8.00e-03,
731,2.40e-02,-4.00e-03,
732,2.40e-02,-1.40e-02,
733,-3.20e-02,8.00e-03,
734,2.40e-02,-1.40e-02,
735,-3.60e-02,1.00e-02,
736,-3.60e-02,8.00e-03,
737,2.80e-02,-1.60e-02,
738,-4.00e-02,8.00e-03,
739,4.00e-02,-1.80e-02,
740,3.20e-02,-1.20e-02,
741,-3.60e-02,1.20e-02,
742,2.80e-02,1.40e-02,
743,-4.00e-02,-1.40e-02,
744,-3.20e-02,-1.20e-02,
745,1.20e-02,2.20e-02,
746,8.00e-03,1.80e-02,
747,-2.80e-02,-1.00e-02,
748,-1.60e-02,-1.80e-02,
749,2.40e-02,2.80e-02,
750,-1.64e-01,2.56e-01,
751,4.00e-02,-2.54e-01,
752,8.00e-03,3.00e-02,
753,-4.40e-02,-2.20e-02,
754,-4.00e-02,2.00e-02,
755,2.40e-02,-1.00e-02,
756,8.00e-03,-1.00e-02,
757,-4.00e-02,1.40e-02,
758,-3.60e-02,1.60e-02,
759,1.20e-02,-1.40e-02,
760,2.40e-02,2.40e-02,
761,-2.40e-02,-6.00e-03,
762,2.00e-02,1.40e-02,
763,-2.40e-02,-1.20e-02,
764,-3.60e-02,8.00e-03,
765,2.00e-02,-1.40e-02,
766,-4.00e-02,-1.40e-02,
767,3.60e-02,1.00e-02,
768,5.20e-02,-1.00e-02,
769,-3.60e-02,8.00e-03,
770,-3.60e-02,-1.20e-02,
771,3.20e-02,1.20e-02,
772,3.20e-02,-4.00e-03,
773,-3.60e-02,2.00e-02,
774,-4.00e-02,2.00e-02,
775,2.80e-02,-6.00e-03,
776,3.60e-02,-1.00e-02,
777,-3.60e-02,1.60e-02,
778,1.00e-01,-6.00e-02,
779,-7.20e-02,5.60e-02,
780,3.32e-01,-2.54e-01,
781,-4.00e-01,2.56e-01,
782,-2.80e-02,-6.00e-03,
783,2.00e-02,2.60e-02,
784,8.00e-03,1.80e-02,
785,-2.00e-02,-4.00e-03,
786,-2.40e-02,1.60e-02,
787,1.20e-02,-6.00e-03,
788,-2.40e-02,-1.00e-02,
789,2.40e-02,1.60e-02,
790,-4.00e-02,1.80e-02,
791,1.20e-02,-1.20e-02,
792,-3.60e-02,-1.00e-02,
793,3.20e-02,1.20e-02,
794,2.40e-02,-1.00e-02,
795,-2.40e-02,1.40e-02,
796,8.00e-03,-8.00e-03,
797,-4.00e-02,1.80e-02,
798,8.00e-03,2.00e-02,
799,-4.00e-02,-8.00e-03,
800,3.20e-02,-8.00e-03,
801,-4.00e-02,2.20e-02,
802,-3.60e-02,-2.40e-02,
803,3.60e-02,2.20e-02,
804,3.20e-02,2.20e-02,
805,-4.00e-02,-2.00e-02,
806,4.00e-02,-1.00e-02,
807,-4.40e-02,8.00e-03,
808,2.80e-02,-8.00e-03,
809,-3.20e-02,8.00e-03,
810,1.40e-01,-2.54e-01,
811,-1.84e-01,3.40e-02,
812,2.40e-02,1.00e-02,
813,-3.20e-02,-8.00e-03,
814,-2.80e-02,-6.00e-03,
815,2.40e-02,1.40e-02,
816,2.00e-02,-6.00e-03,
817,-2.00e-02,8.00e-03,
818,3.20e-02,8.00e-03,
819,-2.80e-02,-1.00e-02,
820,4.00e-02,-1.40e-02,
821,-4.00e-02,1.20e-02,
822,2.80e-02,1.40e-02,
823,-4.40e-02,-1.00e-02,
824,2.80e-02,-1.80e-02,
825,-4.00e-02,1.60e-02,
826,-1.20e-02,-2.20e-02,
827,3.20e-02,2.20e-02,
828,8.00e-03,3.40e-02,
829,-2.40e-02,-4.00e-03,
830,-1.60e-02,-4.00e-03,
831,2.80e-02,2.60e-02,
832,8.00e-03,2.00e-02,
833,-2.00e-02,-2.40e-02,
