Motor_Data/MOTOR_3_ON/time domain/NewFile22.csv

X,CH1,CH2,Start,Increment,
Sequence,Volt,Volt,-3.000000e-02,5.000000e-05
0,1.20e-02,1.20e-02,
1,-1.60e-02,-8.00e-03,
2,1.20e-02,1.20e-02,
3,-1.60e-02,-8.00e-03,
4,-1.20e-02,1.20e-02,
5,1.20e-02,-8.00e-03,
6,-1.20e-02,-8.00e-03,
7,1.20e-02,1.40e-02,
8,-1.60e-02,1.40e-02,
9,1.20e-02,-8.00e-03,
10,-1.20e-02,-8.00e-03,
11,1.20e-02,1.40e-02,
12,1.20e-02,1.20e-02,
13,-1.60e-02,-8.00e-03,
14,1.20e-02,1.20e-02,
15,-1.20e-02,-8.00e-03,
16,1.20e-02,1.20e-02,
17,-1.60e-02,-8.00e-03,
18,-1.20e-02,-8.00e-03,
19,1.20e-02,1.40e-02,
20,-1.20e-02,-8.00e-03,
21,1.20e-02,1.20e-02,
22,-2.40e-01,2.56e-01,
23,1.80e-01,-2.00e-01,
24,4.72e-01,-2.54e-01,
25,-5.44e-01,2.56e-01,
26,1.20e-02,-8.00e-03,
27,-1.60e-02,1.20e-02,
28,-1.60e-02,-8.00e-03,
29,1.20e-02,1.20e-02,
30,-1.60e-02,-8.00e-03,
31,1.20e-02,1.20e-02,
32,1.20e-02,1.20e-02,
33,-1.60e-02,-8.00e-03,
34,-1.60e-02,1.20e-02,
35,1.20e-02,-8.00e-03,
36,-1.60e-02,1.20e-02,
37,1.20e-02,-8.00e-03,
38,1.20e-02,1.20e-02,
39,-1.60e-02,-8.00e-03,
40,1.20e-02,-8.00e-03,
41,-1.60e-02,1.20e-02,
42,2.96e-01,2.56e-01,
43,-2.68e-01,-2.54e-01,
44,1.20e-02,-8.00e-03,
45,-1.60e-02,1.20e-02,
46,1.20e-02,1.40e-02,
47,-1.60e-02,-8.00e-03,
48,1.20e-02,-8.00e-03,
49,-1.60e-02,1.20e-02,
50,1.20e-02,-8.00e-03,
51,-1.60e-02,1.40e-02,
52,1.20e-02,-8.00e-03,
53,-1.60e-02,1.40e-02,
54,-1.20e-02,1.40e-02,
55,1.20e-02,-8.00e-03,
56,-1.60e-02,-6.00e-03,
57,1.20e-02,1.40e-02,
58,1.20e-02,1.40e-02,
59,-1.60e-02,-1.00e-02,
60,-1.20e-02,-8.00e-03,
61,1.20e-02,1.40e-02,
62,-1.20e-02,-8.00e-03,
63,1.20e-02,1.40e-02,
64,1.20e-02,1.40e-02,
65,-1.60e-02,-8.00e-03,
66,1.20e-02,1.20e-02,
67,-1.60e-02,-8.00e-03,
68,1.20e-02,1.20e-02,
69,-1.60e-02,-8.00e-03,
70,4.72e-01,-2.54e-01,
71,-3.84e-01,2.56e-01,
72,-2.72e-01,2.56e-01,
73,4.72e-01,-2.54e-01,
74,-1.60e-02,1.40e-02,
75,1.20e-02,-1.00e-02,
76,-1.20e-02,-8.00e-03,
77,1.20e-02,1.40e-02,
78,1.20e-02,-8.00e-03,
79,-1.60e-02,1.40e-02,
80,1.20e-02,1.40e-02,
81,-1.60e-02,-8.00e-03,
82,-1.20e-02,-6.00e-03,
83,1.20e-02,1.40e-02,
84,1.20e-02,1.40e-02,
85,-1.60e-02,-8.00e-03,
86,-1.60e-02,-8.00e-03,
87,1.60e-02,1.20e-02,
88,1.20e-02,1.40e-02,
89,-1.60e-02,-8.00e-03,
90,-2.60e-01,2.56e-01,
91,3.64e-01,-1.88e-01,
92,1.20e-02,-8.00e-03,
93,-1.60e-02,1.40e-02,
94,-1.60e-02,-8.00e-03,
95,1.20e-02,1.40e-02,
96,1.20e-02,1.40e-02,
97,-1.60e-02,-8.00e-03,
98,1.20e-02,-8.00e-03,
99,-1.60e-02,1.40e-02,
100,1.20e-02,1.40e-02,
101,-1.60e-02,-8.00e-03,
102,-1.20e-02,-8.00e-03,
103,1.60e-02,1.40e-02,
104,1.20e-02,1.20e-02,
105,-1.60e-02,-8.00e-03,
106,1.20e-02,1.20e-02,
107,-1.60e-02,-8.00e-03,
108,1.20e-02,-8.00e-03,
109,-1.60e-02,1.20e-02,
110,1.20e-02,1.20e-02,
111,-1.60e-02,-8.00e-03,
112,-1.60e-02,-8.00e-03,
113,1.20e-02,1.40e-02,
114,1.20e-02,-6.00e-03,
115,-1.20e-02,1.20e-02,
116,1.20e-02,1.40e-02,
117,-1.60e-02,-8.00e-03,
118,-5.48e-01,2.56e-01,
119,4.72e-01,-2.54e-01,
120,-1.20e-02,-8.00e-03,
121,1.20e-02,1.40e-02,
122,1.20e-02,1.20e-02,
123,-1.60e-02,-8.00e-03,
124,-1.20e-02,-8.00e-03,
125,1.20e-02,1.40e-02,
126,-1.20e-02,1.20e-02,
127,1.20e-02,-8.00e-03,
128,-1.20e-02,1.40e-02,
129,1.20e-02,-8.00e-03,
130,1.20e-02,1.40e-02,
131,-1.60e-02,-8.00e-03,
132,1.20e-02,-8.00e-03,
133,-1.60e-02,1.40e-02,
134,1.20e-02,1.40e-02,
135,-1.60e-02,-8.00e-03,
136,1.20e-02,1.20e-02,
137,-1.60e-02,-8.00e-03,
138,1.20e-02,-8.00e-03,
139,-1.60e-02,1.40e-02,
140,-2.40e-01,-2.54e-01,
141,2.16e-01,2.56e-01,
142,1.20e-02,-8.00e-03,
143,-1.60e-02,1.20e-02,
144,1.60e-02,-8.00e-03,
145,-1.60e-02,1.40e-02,
146,1.20e-02,1.40e-02,
147,-1.60e-02,-8.00e-03,
148,1.20e-02,1.40e-02,
149,-1.60e-02,-8.00e-03,
150,1.20e-02,-8.00e-03,
151,-1.60e-02,1.40e-02,
152,1.20e-02,1.40e-02,
153,-1.60e-02,-6.00e-03,
154,1.20e-02,1.40e-02,
155,-1.60e-02,-8.00e-03,
156,-1.20e-02,1.40e-02,
157,1.20e-02,-8.00e-03,
158,1.20e-02,1.20e-02,
159,-1.60e-02,-8.00e-03,
160,1.20e-02,1.40e-02,
161,-1.60e-02,-8.00e-03,
162,1.20e-02,-6.00e-03,
163,-1.60e-02,1.40e-02,
164,1.20e-02,-8.00e-03,
165,-1.60e-02,1.40e-02,
166,-3.00e-01,-2.54e-01,
167,3.84e-01,1.24e-01,
168,4.72e-01,2.56e-01,
169,-5.48e-01,-2.54e-01,
170,-1.20e-02,1.20e-02,
171,1.20e-02,-8.00e-03,
172,1.20e-02,1.20e-02,
173,-1.60e-02,-8.00e-03,
174,-1.20e-02,1.20e-02,
175,1.20e-02,-8.00e-03,
176,1.20e-02,1.40e-02,
177,-1.60e-02,-8.00e-03,
178,1.20e-02,1.20e-02,
179,-1.60e-02,-8.00e-03,
180,-1.60e-02,-8.00e-03,
181,1.20e-02,1.40e-02,
182,1.20e-02,1.40e-02,
183,-1.60e-02,-8.00e-03,
184,1.20e-02,-6.00e-03,
185,-1.60e-02,1.40e-02,
186,1.92e-01,1.28e-01,
187,-1.76e-01,-2.20e-01,
188,1.20e-02,1.20e-02,
189,-1.60e-02,-8.00e-03,
190,1.20e-02,1.20e-02,
191,-1.60e-02,-8.00e-03,
192,-1.20e-02,1.40e-02,
193,1.20e-02,-8.00e-03,
194,1.20e-02,-8.00e-03,
195,-1.20e-02,1.40e-02,
196,1.20e-02,1.20e-02,
197,-1.60e-02,-6.00e-03,
198,-1.20e-02,-8.00e-03,
199,1.20e-02,1.40e-02,
200,1.20e-02,1.20e-02,
201,-1.60e-02,-6.00e-03,
202,1.20e-02,1.20e-02,
203,-1.60e-02,-1.00e-02,
204,1.20e-02,1.40e-02,
205,-1.60e-02,-8.00e-03,
206,-1.20e-02,1.20e-02,
207,1.20e-02,-8.00e-03,
208,-1.60e-02,1.40e-02,
209,1.20e-02,-8.00e-03,
210,1.20e-02,1.20e-02,
211,-1.60e-02,-8.00e-03,
212,1.20e-02,1.20e-02,
213,-1.60e-02,-8.00e-03,
214,2.56e-01,2.56e-01,
215,-4.00e-01,-1.96e-01,
216,4.72e-01,2.56e-01,
217,-5.48e-01,-2.54e-01,
218,-1.20e-02,1.20e-02,
219,1.20e-02,-8.00e-03,
220,1.20e-02,-8.00e-03,
221,-1.60e-02,1.40e-02,
222,1.20e-02,1.20e-02,
223,-1.60e-02,-1.00e-02,
224,1.20e-02,-8.00e-03,
225,-1.60e-02,1.20e-02,
226,-1.20e-02,-8.00e-03,
227,1.20e-02,1.40e-02,
228,1.20e-02,-8.00e-03,
229,-1.60e-02,1.40e-02,
230,-1.60e-02,-8.00e-03,
231,1.20e-02,1.40e-02,
232,1.20e-02,-8.00e-03,
233,-1.60e-02,1.40e-02,
234,1.20e-02,-8.00e-03,
235,-1.60e-02,1.40e-02,
236,-3.20e-02,-2.54e-01,
237,2.84e-01,2.56e-01,
238,1.20e-02,-8.00e-03,
239,-1.60e-02,1.40e-02,
240,1.20e-02,1.40e-02,
241,-1.60e-02,-8.00e-03,
242,-1.20e-02,1.20e-02,
243,1.20e-02,-8.00e-03,
244,-1.20e-02,1.20e-02,
245,1.20e-02,-8.00e-03,
246,1.20e-02,1.20e-02,
247,-1.60e-02,-8.00e-03,
248,1.20e-02,1.40e-02,
249,-1.60e-02,-8.00e-03,
250,1.20e-02,1.40e-02,
251,-1.20e-02,-8.00e-03,
252,1.20e-02,-8.00e-03,
253,-1.60e-02,1.40e-02,
254,1.20e-02,-8.00e-03,
255,-1.60e-02,1.40e-02,
256,1.20e-02,1.20e-02,
257,-1.60e-02,-8.00e-03,
258,1.20e-02,-8.00e-03,
259,-1.60e-02,1.40e-02,
260,1.20e-02,-8.00e-03,
261,-1.60e-02,1.40e-02,
262,-5.48e-01,-2.54e-01,
263,4.72e-01,2.56e-01,
264,1.20e-02,1.20e-02,
265,-1.60e-02,-8.00e-03,
266,-1.20e-02,-8.00e-03,
267,1.20e-02,1.40e-02,
268,1.20e-02,-8.00e-03,
269,-1.60e-02,1.40e-02,
270,-1.20e-02,1.20e-02,
271,1.20e-02,-8.00e-03,
272,1.20e-02,-8.00e-03,
273,-1.60e-02,1.40e-02,
274,1.20e-02,-8.00e-03,
275,-1.60e-02,1.40e-02,
276,1.20e-02,-8.00e-03,
277,-1.60e-02,1.20e-02,
278,1.20e-02,-8.00e-03,
279,-1.60e-02,1.40e-02,
280,1.20e-02,-8.00e-03,
281,-1.60e-02,1.40e-02,
282,-1.20e-02,1.40e-02,
283,1.20e-02,-8.00e-03,
284,1.76e-01,2.56e-01,
285,-1.88e-01,-2.54e-01,
286,1.20e-02,-6.00e-03,
287,-1.60e-02,1.40e-02,
288,-1.20e-02,1.40e-02,
289,1.20e-02,-8.00e-03,
290,1.20e-02,1.40e-02,
291,-1.60e-02,-8.00e-03,
292,-1.20e-02,1.40e-02,
293,1.20e-02,-8.00e-03,
294,-1.60e-02,1.20e-02,
295,1.20e-02,-8.00e-03,
296,1.20e-02,-8.00e-03,
297,-1.60e-02,1.40e-02,
298,-1.60e-02,-8.00e-03,
299,1.20e-02,1.40e-02,
300,1.20e-02,1.40e-02,
301,-1.60e-02,-8.00e-03,
302,1.20e-02,-8.00e-03,
303,-1.60e-02,1.40e-02,
304,-1.20e-02,-8.00e-03,
305,1.20e-02,1.40e-02,
306,-1.20e-02,1.40e-02,
307,1.20e-02,-8.00e-03,
308,1.20e-02,-6.00e-03,
309,-1.60e-02,1.40e-02,
310,4.00e-02,-9.40e-02,
311,-6.40e-02,2.34e-01,
312,-5.48e-01,-2.54e-01,
313,4.72e-01,2.56e-01,
314,1.20e-02,1.20e-02,
315,-1.60e-02,-8.00e-03,
316,1.20e-02,-8.00e-03,
317,-1.60e-02,1.40e-02,
318,1.20e-02,-8.00e-03,
319,-1.60e-02,1.40e-02,
320,1.20e-02,1.40e-02,
321,-1.60e-02,-8.00e-03,
322,1.20e-02,-8.00e-03,
323,-1.60e-02,1.20e-02,
324,1.20e-02,1.20e-02,
325,-1.60e-02,-8.00e-03,
326,-1.60e-02,-8.00e-03,
327,1.20e-02,1.40e-02,
328,1.20e-02,-8.00e-03,
329,-1.60e-02,1.40e-02,
330,2.60e-01,-1.68e-01,
331,-2.52e-01,2.04e-01,
332,-1.20e-02,1.20e-02,
333,1.20e-02,-8.00e-03,
334,1.20e-02,-8.00e-03,
335,-1.60e-02,1.20e-02,
336,-1.20e-02,1.20e-02,
337,1.20e-02,-8.00e-03,
338,-1.20e-02,1.20e-02,
339,1.20e-02,-8.00e-03,
340,-1.20e-02,1.20e-02,
341,1.20e-02,-8.00e-03,
342,1.20e-02,1.20e-02,
343,-1.60e-02,-8.00e-03,
344,1.20e-02,1.20e-02,
345,-1.60e-02,-8.00e-03,
346,-1.20e-02,1.20e-02,
347,1.20e-02,-8.00e-03,
348,1.20e-02,1.20e-02,
349,-1.20e-02,-8.00e-03,
350,1.20e-02,-8.00e-03,
351,-1.60e-02,1.40e-02,
352,-1.20e-02,-8.00e-03,
353,1.20e-02,1.40e-02,
354,-1.20e-02,-1.00e-02,
355,1.20e-02,1.40e-02,
356,1.20e-02,1.20e-02,
357,-1.60e-02,-8.00e-03,
358,4.72e-01,-2.54e-01,
359,-5.12e-01,2.56e-01,
360,3.64e-01,2.56e-01,
361,-3.88e-01,-2.54e-01,
362,1.20e-02,1.20e-02,
363,-1.60e-02,-8.00e-03,
364,1.20e-02,1.20e-02,
365,-1.20e-02,-8.00e-03,
366,-1.20e-02,-6.00e-03,
367,1.20e-02,1.40e-02,
368,-1.20e-02,-8.00e-03,
369,1.20e-02,1.20e-02,
370,-1.20e-02,-8.00e-03,
371,1.20e-02,1.40e-02,
372,1.20e-02,1.20e-02,
373,-1.20e-02,-8.00e-03,
374,1.20e-02,-8.00e-03,
375,-1.60e-02,1.40e-02,
376,1.20e-02,1.20e-02,
377,-1.60e-02,-8.00e-03,
378,1.20e-02,1.20e-02,
379,-1.60e-02,-8.00e-03,
380,2.96e-01,-2.54e-01,
381,-2.40e-01,2.32e-01,
382,1.20e-02,1.20e-02,
383,-1.60e-02,-8.00e-03,
384,1.20e-02,1.20e-02,
385,-1.60e-02,-8.00e-03,
386,1.20e-02,1.20e-02,
387,-1.60e-02,-8.00e-03,
388,1.20e-02,-8.00e-03,
389,-1.60e-02,1.40e-02,
390,1.20e-02,-8.00e-03,
391,-1.60e-02,1.40e-02,
392,-1.60e-02,-8.00e-03,
393,1.20e-02,1.20e-02,
394,-1.20e-02,1.20e-02,
395,1.20e-02,-8.00e-03,
396,-1.20e-02,-8.00e-03,
397,1.20e-02,1.20e-02,
398,1.20e-02,-8.00e-03,
399,-1.60e-02,1.20e-02,
400,1.20e-02,1.20e-02,
401,-1.60e-02,-8.00e-03,
402,1.20e-02,-8.00e-03,
403,-1.60e-02,1.40e-02,
404,1.20e-02,1.20e-02,
405,-1.60e-02,-1.00e-02,
406,-5.48e-01,-2.54e-01,
407,4.72e-01,2.56e-01,
408,1.20e-02,-8.00e-03,
409,-1.60e-02,1.20e-02,
410,1.20e-02,1.20e-02,
411,-1.60e-02,-8.00e-03,
412,1.20e-02,1.20e-02,
413,-1.20e-02,-1.00e-02,
414,1.20e-02,1.20e-02,
415,-1.60e-02,-8.00e-03,
416,1.20e-02,-1.00e-02,
417,-1.60e-02,1.20e-02,
418,-1.20e-02,1.20e-02,
419,1.20e-02,-8.00e-03,
420,1.20e-02,1.40e-02,
421,-1.60e-02,-8.00e-03,
422,1.20e-02,-8.00e-03,
423,-1.60e-02,1.20e-02,
424,1.20e-02,-8.00e-03,
425,-1.60e-02,1.40e-02,
426,-1.20e-02,-8.00e-03,
427,1.20e-02,1.40e-02,
428,-4.80e-02,-2.54e-01,
429,2.84e-01,2.56e-01,
430,1.20e-02,1.20e-02,
431,-1.60e-02,-8.00e-03,
432,-1.20e-02,-8.00e-03,
433,1.20e-02,1.40e-02,
434,1.20e-02,1.40e-02,
435,-1.60e-02,-8.00e-03,
436,-1.20e-02,-8.00e-03,
437,1.20e-02,1.40e-02,
438,-1.20e-02,-8.00e-03,
439,1.20e-02,1.40e-02,
440,1.20e-02,-8.00e-03,
441,-1.60e-02,1.40e-02,
442,-1.60e-02,-8.00e-03,
443,1.20e-02,1.20e-02,
444,1.60e-02,-8.00e-03,
445,-1.60e-02,1.40e-02,
446,-1.20e-02,1.20e-02,
447,1.20e-02,-8.00e-03,
448,1.20e-02,-8.00e-03,
449,-2.00e-02,1.40e-02,
450,1.20e-02,1.40e-02,
451,-1.60e-02,-8.00e-03,
452,1.20e-02,-8.00e-03,
453,-1.60e-02,1.20e-02,
454,-4.40e-02,-3.20e-02,
455,1.00e-01,5.80e-02,
456,-5.48e-01,-2.54e-01,
457,4.72e-01,2.56e-01,
458,5.60e-02,9.00e-02,
459,-6.40e-02,-8.00e-03,
460,1.20e-02,1.20e-02,
461,-1.60e-02,-8.00e-03,
462,1.20e-02,-8.00e-03,
463,-1.60e-02,1.20e-02,
464,-1.60e-02,-8.00e-03,
465,1.20e-02,1.20e-02,
466,1.20e-02,-8.00e-03,
467,-1.60e-02,1.20e-02,
468,1.20e-02,1.20e-02,
469,-1.60e-02,-8.00e-03,
470,-1.20e-02,1.20e-02,
471,1.20e-02,-8.00e-03,
472,1.20e-02,1.40e-02,
473,-1.20e-02,-8.00e-03,
474,-4.80e-02,-1.76e-01,
475,2.04e-01,1.06e-01,
476,-1.60e-02,1.20e-02,
477,1.20e-02,-1.00e-02,
478,1.20e-02,1.20e-02,
479,-1.60e-02,-8.00e-03,
480,1.20e-02,1.20e-02,
481,-1.60e-02,-8.00e-03,
482,-1.20e-02,-8.00e-03,
483,1.20e-02,1.40e-02,
484,-1.60e-02,-1.00e-02,
485,1.20e-02,1.20e-02,
486,1.20e-02,-8.00e-03,
487,-1.60e-02,1.20e-02,
488,-1.20e-02,1.20e-02,
489,1.20e-02,-8.00e-03,
490,-1.20e-02,-1.00e-02,
491,1.20e-02,1.40e-02,
492,1.20e-02,1.20e-02,
493,-1.60e-02,-1.00e-02,
494,1.20e-02,-8.00e-03,
495,-1.60e-02,1.20e-02,
496,1.20e-02,-8.00e-03,
497,-1.20e-02,1.20e-02,
498,1.20e-02,1.20e-02,
499,-1.60e-02,-8.00e-03,
500,-1.20e-02,1.20e-02,
501,1.20e-02,-8.00e-03,
502,-3.36e-01,2.56e-01,
503,2.40e-01,-1.94e-01,
504,-4.64e-01,-2.54e-01,
505,2.80e-01,2.56e-01,
506,6.80e-02,4.60e-02,
507,-2.40e-02,-8.00e-03,
508,-1.20e-02,1.20e-02,
509,1.20e-02,-8.00e-03,
510,-1.20e-02,1.20e-02,
511,1.20e-02,-8.00e-03,
512,1.20e-02,1.20e-02,
513,-1.60e-02,-8.00e-03,
514,-1.20e-02,1.20e-02,
515,1.20e-02,-8.00e-03,
516,-1.20e-02,1.20e-02,
517,1.20e-02,-8.00e-03,
518,1.20e-02,-8.00e-03,
519,-1.60e-02,1.20e-02,
520,1.20e-02,1.20e-02,
521,-1.20e-02,-8.00e-03,
522,1.20e-02,1.20e-02,
523,-1.60e-02,-8.00e-03,
524,-2.52e-01,2.56e-01,
525,3.00e-01,-2.28e-01,
526,1.20e-02,-8.00e-03,
527,-1.60e-02,1.20e-02,
528,1.20e-02,1.20e-02,
529,-1.60e-02,-8.00e-03,
530,1.20e-02,1.20e-02,
531,-1.60e-02,-8.00e-03,
532,1.20e-02,-8.00e-03,
533,-1.60e-02,1.40e-02,
534,-1.20e-02,1.20e-02,
535,1.20e-02,-8.00e-03,
536,1.20e-02,-8.00e-03,
537,-1.60e-02,1.40e-02,
538,1.20e-02,-1.00e-02,
539,-1.60e-02,1.40e-02,
540,1.20e-02,-8.00e-03,
541,-1.60e-02,1.40e-02,
542,1.20e-02,1.20e-02,
543,-1.60e-02,-8.00e-03,
544,1.20e-02,1.40e-02,
545,-1.60e-02,-8.00e-03,
546,-1.20e-02,-8.00e-03,
547,1.20e-02,1.40e-02,
548,1.20e-02,1.20e-02,
549,-1.60e-02,-8.00e-03,
550,4.72e-01,-2.54e-01,
551,-5.48e-01,2.56e-01,
552,1.20e-02,1.20e-02,
553,-1.60e-02,-8.00e-03,
554,1.20e-02,1.40e-02,
555,-1.60e-02,-8.00e-03,
556,1.20e-02,-8.00e-03,
557,-1.60e-02,1.40e-02,
558,1.20e-02,1.20e-02,
559,-1.60e-02,-8.00e-03,
560,1.20e-02,1.40e-02,
561,-1.60e-02,-8.00e-03,
562,1.20e-02,-8.00e-03,
563,-1.60e-02,1.40e-02,
564,1.20e-02,-6.00e-03,
565,-1.60e-02,1.40e-02,
566,1.20e-02,-8.00e-03,
567,-1.60e-02,1.40e-02,
568,1.20e-02,1.40e-02,
569,-1.60e-02,-8.00e-03,
570,1.20e-02,1.20e-02,
571,-1.60e-02,-8.00e-03,
572,1.88e-01,2.56e-01,
573,-2.20e-01,-8.80e-02,
574,1.20e-02,-6.00e-03,
575,-1.60e-02,1.40e-02,
576,1.20e-02,1.40e-02,
577,-1.60e-02,-8.00e-03,
578,1.20e-02,-8.00e-03,
579,-1.60e-02,1.40e-02,
580,-1.20e-02,1.20e-02,
581,1.20e-02,-8.00e-03,
582,1.20e-02,-8.00e-03,
583,-1.60e-02,1.40e-02,
584,1.20e-02,-8.00e-03,
585,-1.60e-02,1.40e-02,
586,1.20e-02,-6.00e-03,
587,-1.60e-02,1.40e-02,
588,-1.20e-02,-8.00e-03,
589,1.20e-02,1.40e-02,
590,1.20e-02,1.20e-02,
591,-1.60e-02,-8.00e-03,
592,1.20e-02,-8.00e-03,
593,-1.60e-02,1.40e-02,
594,1.20e-02,-8.00e-03,
595,-1.60e-02,1.40e-02,
596,1.20e-02,1.20e-02,
597,-1.60e-02,-8.00e-03,
598,1.16e-01,6.20e-02,
599,-2.72e-01,-1.50e-01,
600,4.72e-01,2.56e-01,
601,-5.48e-01,-2.54e-01,
602,1.84e-01,1.78e-01,
603,-3.12e-01,-2.50e-01,
604,-1.20e-02,1.20e-02,
605,1.20e-02,-8.00e-03,
606,1.20e-02,1.20e-02,
607,-1.60e-02,-8.00e-03,
608,-1.60e-02,-8.00e-03,
609,1.20e-02,1.40e-02,
610,1.20e-02,-8.00e-03,
611,-1.60e-02,1.20e-02,
612,1.20e-02,-8.00e-03,
613,-1.60e-02,1.20e-02,
614,1.20e-02,1.40e-02,
615,-1.60e-02,-8.00e-03,
616,1.20e-02,-6.00e-03,
617,-1.60e-02,1.40e-02,
618,2.52e-01,-2.02e-01,
619,-2.36e-01,2.56e-01,
620,1.20e-02,-8.00e-03,
621,-1.20e-02,1.40e-02,
622,-1.60e-02,1.20e-02,
623,1.20e-02,-8.00e-03,
624,1.20e-02,1.20e-02,
625,-1.60e-02,-8.00e-03,
626,1.20e-02,1.40e-02,
627,-1.60e-02,-8.00e-03,
628,1.20e-02,1.40e-02,
629,-1.60e-02,-8.00e-03,
630,-1.20e-02,-8.00e-03,
631,1.20e-02,1.40e-02,
632,1.20e-02,1.20e-02,
633,-1.60e-02,-8.00e-03,
634,1.20e-02,-8.00e-03,
635,-1.60e-02,1.40e-02,
636,1.20e-02,-8.00e-03,
637,-1.60e-02,1.40e-02,
638,1.20e-02,-8.00e-03,
639,-1.20e-02,1.40e-02,
640,-1.60e-02,1.20e-02,
641,1.60e-02,-8.00e-03,
642,-1.20e-02,1.40e-02,
643,1.20e-02,-8.00e-03,
644,1.20e-02,1.40e-02,
645,-1.60e-02,-8.00e-03,
646,-2.80e-02,-6.40e-02,
647,2.00e-02,8.00e-02,
648,4.72e-01,2.56e-01,
649,-5.48e-01,-2.54e-01,
650,4.64e-01,2.56e-01,
651,-4.00e-01,-2.54e-01,
652,1.20e-02,-8.00e-03,
653,-1.20e-02,1.40e-02,
654,1.20e-02,-8.00e-03,
655,-1.60e-02,1.20e-02,
656,1.20e-02,1.20e-02,
657,-1.60e-02,-1.00e-02,
658,1.20e-02,1.20e-02,
659,-1.60e-02,-8.00e-03,
660,-1.60e-02,1.20e-02,
661,1.20e-02,-8.00e-03,
662,-1.20e-02,-8.00e-03,
663,1.20e-02,1.20e-02,
664,-1.20e-02,1.20e-02,
665,1.20e-02,-8.00e-03,
666,-1.20e-02,-8.00e-03,
667,1.20e-02,1.40e-02,
668,2.20e-01,2.56e-01,
669,-2.56e-01,-2.54e-01,
670,1.20e-02,1.20e-02,
671,-1.60e-02,-8.00e-03,
672,-1.20e-02,-8.00e-03,
673,1.20e-02,1.40e-02,
674,-1.20e-02,1.20e-02,
675,1.20e-02,-1.00e-02,
676,-1.20e-02,1.20e-02,
677,1.20e-02,-8.00e-03,
678,1.20e-02,-8.00e-03,
679,-1.60e-02,1.20e-02,
680,1.20e-02,-8.00e-03,
681,-1.20e-02,1.40e-02,
682,-1.20e-02,-8.00e-03,
683,1.20e-02,1.40e-02,
684,1.20e-02,-8.00e-03,
685,-1.60e-02,1.40e-02,
686,1.20e-02,1.20e-02,
687,-1.60e-02,-8.00e-03,
688,1.20e-02,1.40e-02,
689,-1.60e-02,-8.00e-03,
690,1.20e-02,1.20e-02,
691,-1.60e-02,-8.00e-03,
692,-1.20e-02,1.20e-02,
693,1.20e-02,-8.00e-03,
694,1.20e-02,1.40e-02,
695,-1.60e-02,-1.00e-02,
696,-5.48e-01,2.56e-01,
697,4.12e-01,-2.54e-01,
698,1.20e-02,1.20e-02,
699,-1.20e-02,-8.00e-03,
700,-1.20e-02,-8.00e-03,
701,1.20e-02,1.20e-02,
702,1.20e-02,1.20e-02,
703,-1.60e-02,-8.00e-03,
704,-1.20e-02,-8.00e-03,
705,1.20e-02,1.20e-02,
706,1.20e-02,-8.00e-03,
707,-1.60e-02,1.20e-02,
708,1.20e-02,-1.00e-02,
709,-1.60e-02,1.40e-02,
710,1.20e-02,1.20e-02,
711,-1.60e-02,-8.00e-03,
712,-1.20e-02,1.20e-02,
713,1.20e-02,-8.00e-03,
714,1.20e-02,1.20e-02,
715,-1.60e-02,-8.00e-03,
716,1.20e-02,-8.00e-03,
717,-2.40e-02,4.00e-02,
718,2.60e-01,-2.54e-01,
719,-1.84e-01,2.48e-01,
720,1.20e-02,1.40e-02,
721,-1.20e-02,-8.00e-03,
722,-1.20e-02,-8.00e-03,
723,1.20e-02,1.20e-02,
724,-1.60e-02,-8.00e-03,
725,1.20e-02,1.40e-02,
726,-1.60e-02,1.40e-02,
727,1.20e-02,-8.00e-03,
728,-1.20e-02,-8.00e-03,
729,1.20e-02,1.40e-02,
730,1.20e-02,-8.00e-03,
731,-1.60e-02,1.40e-02,
732,1.20e-02,1.20e-02,
733,-1.60e-02,-8.00e-03,
734,-1.60e-02,-8.00e-03,
735,1.60e-02,1.40e-02,
736,-1.60e-02,1.20e-02,
737,1.60e-02,-8.00e-03,
738,1.20e-02,1.20e-02,
739,-1.60e-02,-8.00e-03,
740,1.20e-02,1.20e-02,
741,-1.60e-02,-8.00e-03,
742,-1.20e-02,-6.00e-03,
743,1.20e-02,1.40e-02,
744,-3.48e-01,-1.94e-01,
745,1.56e-01,2.18e-01,
746,-4.16e-01,-2.54e-01,
747,4.72e-01,2.56e-01,
748,1.20e-02,-8.00e-03,
749,-1.60e-02,1.20e-02,
750,-1.60e-02,1.20e-02,
751,1.20e-02,-8.00e-03,
752,1.20e-02,-8.00e-03,
753,-1.60e-02,1.20e-02,
754,1.20e-02,1.20e-02,
755,-1.60e-02,-8.00e-03,
756,1.20e-02,-8.00e-03,
757,-1.60e-02,1.20e-02,
758,-1.20e-02,-8.00e-03,
759,1.20e-02,1.40e-02,
760,1.20e-02,-8.00e-03,
761,-1.60e-02,1.20e-02,
762,-1.20e-02,1.40e-02,
763,1.20e-02,-8.00e-03,
764,-1.76e-01,-1.34e-01,
765,2.36e-01,2.14e-01,
766,1.20e-02,-8.00e-03,
767,-1.60e-02,1.40e-02,
768,-1.20e-02,1.20e-02,
769,1.20e-02,-8.00e-03,
770,1.20e-02,-8.00e-03,
771,-1.60e-02,1.40e-02,
772,1.20e-02,-8.00e-03,
773,-1.20e-02,1.40e-02,
774,1.20e-02,1.20e-02,
775,-1.60e-02,-8.00e-03,
776,1.20e-02,-6.00e-03,
777,-1.60e-02,1.40e-02,
778,1.20e-02,1.20e-02,
779,-1.60e-02,-8.00e-03,
780,1.20e-02,1.20e-02,
781,-1.60e-02,-8.00e-03,
782,-1.20e-02,1.20e-02,
783,1.20e-02,-6.00e-03,
784,1.20e-02,1.20e-02,
785,-1.60e-02,-8.00e-03,
786,1.20e-02,1.20e-02,
787,-1.60e-02,-8.00e-03,
788,1.20e-02,1.20e-02,
789,-1.60e-02,-8.00e-03,
790,1.20e-02,1.20e-02,
791,-1.60e-02,-8.00e-03,
792,-3.20e-01,2.56e-01,
793,3.16e-01,-2.54e-01,
794,-5.48e-01,-2.54e-01,
795,3.28e-01,2.56e-01,
796,-1.60e-02,-8.00e-03,
797,1.20e-02,1.20e-02,
798,-1.20e-02,-8.00e-03,
799,1.20e-02,1.40e-02,
800,1.20e-02,1.20e-02,
801,-1.60e-02,-8.00e-03,
802,1.20e-02,1.40e-02,
803,-1.60e-02,-8.00e-03,
804,1.20e-02,1.40e-02,
805,-1.60e-02,-8.00e-03,
806,1.20e-02,-8.00e-03,
807,-1.60e-02,1.40e-02,
808,-1.60e-02,1.20e-02,
809,1.20e-02,-8.00e-03,
810,-1.60e-02,1.20e-02,
811,1.20e-02,-8.00e-03,
812,1.92e-01,-2.40e-01,
813,-1.72e-01,2.56e-01,
814,1.20e-02,1.20e-02,
815,-1.60e-02,-8.00e-03,
816,1.20e-02,1.20e-02,
817,-1.60e-02,-8.00e-03,
818,1.20e-02,1.40e-02,
819,-1.60e-02,-8.00e-03,
820,1.20e-02,-8.00e-03,
821,-1.60e-02,1.40e-02,
822,1.20e-02,-8.00e-03,
823,-1.60e-02,1.40e-02,
824,1.20e-02,1.20e-02,
825,-1.60e-02,-8.00e-03,
826,1.20e-02,-8.00e-03,
827,-1.60e-02,1.40e-02,
828,1.20e-02,-8.00e-03,
829,-1.60e-02,1.40e-02,
830,-1.20e-02,-8.00e-03,
831,1.20e-02,1.40e-02,
832,-1.60e-02,1.20e-02,
833,1.20e-02,-8.00e-03,
