Motor_Data/MOTOR_3_ON/time domain/NewFile16(1).csv

X,CH1,CH2,Start,Increment,
Sequence,Volt,Volt,-3.000000e-02,5.000000e-05
0,1.20e-02,-1.00e-02,
1,-1.60e-02,1.60e-02,
2,1.20e-02,-8.00e-03,
3,-1.60e-02,1.40e-02,
4,1.20e-02,-1.00e-02,
5,-1.60e-02,1.40e-02,
6,1.20e-02,-8.00e-03,
7,-1.60e-02,1.40e-02,
8,1.20e-02,1.40e-02,
9,-1.60e-02,-1.00e-02,
10,1.20e-02,1.40e-02,
11,-1.60e-02,-1.00e-02,
12,-1.60e-02,1.20e-02,
13,1.60e-02,-1.00e-02,
14,1.20e-02,1.40e-02,
15,-1.60e-02,-1.00e-02,
16,-1.60e-02,-8.00e-03,
17,1.20e-02,1.40e-02,
18,1.20e-02,1.40e-02,
19,-1.60e-02,-1.00e-02,
20,1.20e-02,1.40e-02,
21,-1.60e-02,-1.00e-02,
22,1.20e-02,1.40e-02,
23,-1.60e-02,-1.00e-02,
24,3.76e-01,2.56e-01,
25,-5.48e-01,-2.28e-01,
26,-1.60e-02,1.40e-02,
27,1.60e-02,-1.00e-02,
28,1.20e-02,-8.00e-03,
29,-1.60e-02,1.40e-02,
30,-1.60e-02,-8.00e-03,
31,1.20e-02,1.40e-02,
32,-1.60e-02,-8.00e-03,
33,1.60e-02,1.40e-02,
34,-1.60e-02,1.40e-02,
35,1.20e-02,-8.00e-03,
36,1.20e-02,1.40e-02,
37,-1.60e-02,-8.00e-03,
38,1.20e-02,1.40e-02,
39,-1.60e-02,-8.00e-03,
40,1.20e-02,-1.00e-02,
41,-1.60e-02,1.40e-02,
42,1.20e-02,1.40e-02,
43,-1.60e-02,-8.00e-03,
44,1.20e-02,-1.00e-02,
45,-1.60e-02,1.40e-02,
46,-2.96e-01,2.56e-01,
47,4.08e-01,-2.54e-01,
48,1.20e-02,1.40e-02,
49,-1.60e-02,-8.00e-03,
50,1.20e-02,1.40e-02,
51,-1.60e-02,-1.00e-02,
52,-1.60e-02,-8.00e-03,
53,1.20e-02,1.40e-02,
54,1.20e-02,1.40e-02,
55,-1.60e-02,-8.00e-03,
56,1.20e-02,1.40e-02,
57,-1.60e-02,-1.00e-02,
58,-1.60e-02,-8.00e-03,
59,1.20e-02,1.40e-02,
60,1.20e-02,1.40e-02,
61,-1.60e-02,-1.00e-02,
62,1.20e-02,-8.00e-03,
63,-1.60e-02,1.40e-02,
64,1.20e-02,1.40e-02,
65,-1.60e-02,-8.00e-03,
66,1.20e-02,1.40e-02,
67,-1.60e-02,-8.00e-03,
68,-1.60e-02,-8.00e-03,
69,1.20e-02,1.60e-02,
70,1.20e-02,1.40e-02,
71,-1.60e-02,-1.00e-02,
72,-2.40e-02,-3.40e-02,
73,3.20e-02,1.06e-01,
74,4.72e-01,-2.54e-01,
75,-5.48e-01,2.56e-01,
76,1.60e-02,1.40e-02,
77,-1.60e-02,-8.00e-03,
78,-1.60e-02,-8.00e-03,
79,1.60e-02,1.40e-02,
80,1.20e-02,-8.00e-03,
81,-1.60e-02,1.60e-02,
82,1.20e-02,1.40e-02,
83,-1.60e-02,-1.00e-02,
84,-1.60e-02,-1.00e-02,
85,1.20e-02,1.40e-02,
86,1.20e-02,-8.00e-03,
87,-1.60e-02,1.40e-02,
88,-1.60e-02,1.40e-02,
89,1.20e-02,-8.00e-03,
90,-1.60e-02,1.40e-02,
91,1.20e-02,-8.00e-03,
92,1.64e-01,-1.70e-01,
93,-2.24e-01,1.20e-01,
94,1.20e-02,-8.00e-03,
95,-1.60e-02,1.40e-02,
96,-1.60e-02,-8.00e-03,
97,1.60e-02,1.40e-02,
98,-1.60e-02,1.40e-02,
99,1.60e-02,-8.00e-03,
100,-1.60e-02,-8.00e-03,
101,1.20e-02,1.40e-02,
102,1.20e-02,1.40e-02,
103,-1.60e-02,-1.00e-02,
104,1.20e-02,1.40e-02,
105,-1.60e-02,-8.00e-03,
106,-1.60e-02,1.60e-02,
107,1.20e-02,-1.00e-02,
108,1.60e-02,1.40e-02,
109,-1.60e-02,-1.00e-02,
110,1.20e-02,-8.00e-03,
111,-1.60e-02,1.40e-02,
112,1.20e-02,-1.00e-02,
113,-1.60e-02,1.60e-02,
114,1.20e-02,1.40e-02,
115,-1.60e-02,-1.00e-02,
116,1.20e-02,-8.00e-03,
117,-1.60e-02,1.40e-02,
118,1.20e-02,1.40e-02,
119,-1.60e-02,-1.00e-02,
120,-1.00e-01,9.40e-02,
121,9.60e-02,-3.60e-02,
122,4.72e-01,-2.54e-01,
123,-5.48e-01,2.50e-01,
124,1.20e-02,-8.00e-03,
125,-1.60e-02,1.40e-02,
126,1.20e-02,1.40e-02,
127,-1.60e-02,-1.00e-02,
128,1.20e-02,-8.00e-03,
129,-1.60e-02,1.40e-02,
130,1.20e-02,-8.00e-03,
131,-1.60e-02,1.60e-02,
132,-1.60e-02,-8.00e-03,
133,1.20e-02,1.40e-02,
134,-1.60e-02,-8.00e-03,
135,1.20e-02,1.60e-02,
136,1.20e-02,1.40e-02,
137,-1.60e-02,-1.00e-02,
138,-1.60e-02,-1.00e-02,
139,1.60e-02,1.40e-02,
140,2.68e-01,2.48e-01,
141,-2.36e-01,-2.46e-01,
142,-3.04e-01,1.52e-01,
143,1.68e-01,-1.06e-01,
144,1.20e-02,1.40e-02,
145,-1.60e-02,-8.00e-03,
146,-1.60e-02,-8.00e-03,
147,1.60e-02,1.60e-02,
148,1.20e-02,-1.00e-02,
149,-1.60e-02,1.40e-02,
150,1.20e-02,1.40e-02,
151,-1.60e-02,-1.00e-02,
152,1.20e-02,1.40e-02,
153,-1.60e-02,-1.00e-02,
154,1.20e-02,-8.00e-03,
155,-1.60e-02,1.40e-02,
156,1.20e-02,1.40e-02,
157,-1.60e-02,-8.00e-03,
158,1.20e-02,-1.00e-02,
159,-1.60e-02,1.40e-02,
160,1.20e-02,-8.00e-03,
161,-1.60e-02,1.40e-02,
162,1.20e-02,1.40e-02,
163,-1.60e-02,-8.00e-03,
164,1.20e-02,-8.00e-03,
165,-1.60e-02,1.40e-02,
166,1.20e-02,-1.00e-02,
167,-1.60e-02,1.40e-02,
168,3.48e-01,2.56e-01,
169,-4.64e-01,-2.26e-01,
170,1.20e-02,-1.00e-02,
171,-1.60e-02,1.60e-02,
172,-1.60e-02,1.40e-02,
173,1.60e-02,-1.00e-02,
174,1.20e-02,-8.00e-03,
175,-1.60e-02,1.60e-02,
176,1.20e-02,1.40e-02,
177,-1.60e-02,-1.00e-02,
178,1.20e-02,1.40e-02,
179,-1.60e-02,-1.00e-02,
180,1.20e-02,-8.00e-03,
181,-1.60e-02,1.40e-02,
182,-1.60e-02,-8.00e-03,
183,1.60e-02,1.40e-02,
184,1.20e-02,1.40e-02,
185,-1.60e-02,-1.00e-02,
186,1.20e-02,-8.00e-03,
187,-1.60e-02,1.40e-02,
188,-1.60e-02,-8.00e-03,
189,1.20e-02,1.40e-02,
190,4.72e-01,-2.54e-01,
191,-3.60e-01,2.56e-01,
192,-1.60e-02,-8.00e-03,
193,1.20e-02,1.40e-02,
194,1.20e-02,1.40e-02,
195,-1.60e-02,-1.00e-02,
196,1.20e-02,1.40e-02,
197,-1.60e-02,-8.00e-03,
198,1.20e-02,-1.00e-02,
199,-1.60e-02,1.40e-02,
200,1.20e-02,1.40e-02,
201,-1.60e-02,-1.00e-02,
202,1.20e-02,1.40e-02,
203,-1.60e-02,-1.00e-02,
204,1.20e-02,1.40e-02,
205,-1.60e-02,-1.20e-02,
206,1.20e-02,1.40e-02,
207,-1.60e-02,-8.00e-03,
208,-1.60e-02,1.40e-02,
209,1.20e-02,-1.00e-02,
210,1.20e-02,-8.00e-03,
211,-1.60e-02,1.40e-02,
212,-1.60e-02,1.40e-02,
213,1.20e-02,-1.00e-02,
214,-1.60e-02,-8.00e-03,
215,1.60e-02,1.40e-02,
216,-6.40e-02,5.20e-02,
217,3.20e-02,-1.00e-02,
218,-5.48e-01,2.56e-01,
219,3.76e-01,-2.54e-01,
220,1.20e-02,1.40e-02,
221,-1.60e-02,-1.00e-02,
222,1.20e-02,1.40e-02,
223,-1.60e-02,-8.00e-03,
224,-1.60e-02,1.40e-02,
225,1.60e-02,-8.00e-03,
226,1.20e-02,-8.00e-03,
227,-1.60e-02,1.40e-02,
228,1.60e-02,1.40e-02,
229,-1.60e-02,-1.00e-02,
230,1.20e-02,1.40e-02,
231,-1.60e-02,-1.00e-02,
232,-1.60e-02,-8.00e-03,
233,1.60e-02,1.60e-02,
234,-1.60e-02,1.40e-02,
235,1.60e-02,-1.00e-02,
236,-5.20e-02,1.94e-01,
237,3.04e-01,-1.94e-01,
238,1.20e-02,1.40e-02,
239,-1.60e-02,-8.00e-03,
240,1.20e-02,-8.00e-03,
241,-1.60e-02,1.40e-02,
242,-1.60e-02,-8.00e-03,
243,1.20e-02,1.40e-02,
244,1.20e-02,-8.00e-03,
245,-1.60e-02,1.60e-02,
246,1.20e-02,-8.00e-03,
247,-1.60e-02,1.60e-02,
248,-1.60e-02,1.40e-02,
249,1.20e-02,-1.00e-02,
250,1.20e-02,-8.00e-03,
251,-1.60e-02,1.40e-02,
252,1.20e-02,-8.00e-03,
253,-1.60e-02,1.40e-02,
254,1.20e-02,-8.00e-03,
255,-1.60e-02,1.60e-02,
256,1.20e-02,1.40e-02,
257,-1.60e-02,-8.00e-03,
258,1.20e-02,-8.00e-03,
259,-1.60e-02,1.40e-02,
260,1.20e-02,1.40e-02,
261,-1.60e-02,-1.00e-02,
262,1.20e-02,-8.00e-03,
263,-1.60e-02,1.40e-02,
264,-3.60e-02,3.40e-02,
265,2.40e-02,-4.80e-02,
266,4.72e-01,2.56e-01,
267,-4.84e-01,-2.54e-01,
268,1.20e-02,-1.00e-02,
269,-1.60e-02,1.60e-02,
270,1.20e-02,1.40e-02,
271,-1.60e-02,-8.00e-03,
272,1.20e-02,-1.00e-02,
273,-1.60e-02,1.40e-02,
274,1.20e-02,1.40e-02,
275,-1.60e-02,-8.00e-03,
276,-1.60e-02,1.40e-02,
277,1.20e-02,-8.00e-03,
278,1.20e-02,-8.00e-03,
279,-1.60e-02,1.80e-02,
280,1.20e-02,-1.00e-02,
281,-1.60e-02,1.60e-02,
282,1.20e-02,-1.00e-02,
283,-1.60e-02,1.60e-02,
284,2.84e-01,-2.54e-01,
285,-3.08e-01,2.56e-01,
286,-1.60e-02,1.40e-02,
287,1.60e-02,-8.00e-03,
288,1.20e-02,-8.00e-03,
289,-1.60e-02,1.40e-02,
290,1.20e-02,1.40e-02,
291,-1.60e-02,-1.00e-02,
292,1.20e-02,1.40e-02,
293,-1.60e-02,-1.00e-02,
294,1.20e-02,1.40e-02,
295,-1.60e-02,-8.00e-03,
296,-1.60e-02,-8.00e-03,
297,1.60e-02,1.60e-02,
298,1.20e-02,1.40e-02,
299,-1.60e-02,-8.00e-03,
300,1.20e-02,1.40e-02,
301,-1.60e-02,-8.00e-03,
302,1.20e-02,1.40e-02,
303,-1.60e-02,-8.00e-03,
304,1.20e-02,-8.00e-03,
305,-1.60e-02,1.60e-02,
306,-1.60e-02,1.40e-02,
307,1.20e-02,-1.00e-02,
308,1.20e-02,1.40e-02,
309,-1.60e-02,-1.00e-02,
310,1.20e-02,1.40e-02,
311,-1.60e-02,-8.00e-03,
312,1.36e-01,2.56e-01,
313,-5.48e-01,-2.54e-01,
314,1.20e-02,1.60e-02,
315,-1.60e-02,-1.00e-02,
316,1.20e-02,1.40e-02,
317,-1.60e-02,-1.00e-02,
318,-1.60e-02,1.40e-02,
319,1.60e-02,-8.00e-03,
320,1.20e-02,-8.00e-03,
321,-1.60e-02,1.40e-02,
322,1.20e-02,1.40e-02,
323,-1.60e-02,-1.00e-02,
324,1.20e-02,1.40e-02,
325,-1.60e-02,-1.00e-02,
326,1.20e-02,1.40e-02,
327,-1.60e-02,-1.00e-02,
328,1.20e-02,-8.00e-03,
329,-1.60e-02,1.40e-02,
330,-1.60e-02,1.40e-02,
331,1.60e-02,-1.00e-02,
332,1.20e-02,-8.00e-03,
333,-1.60e-02,1.40e-02,
334,4.72e-01,-2.54e-01,
335,-4.16e-01,2.56e-01,
336,-1.60e-02,-8.00e-03,
337,1.20e-02,1.60e-02,
338,1.20e-02,-8.00e-03,
339,-1.60e-02,1.40e-02,
340,1.20e-02,1.60e-02,
341,-1.60e-02,-8.00e-03,
342,1.60e-02,1.40e-02,
343,-1.60e-02,-8.00e-03,
344,1.20e-02,1.40e-02,
345,-1.60e-02,-8.00e-03,
346,1.20e-02,-8.00e-03,
347,-1.60e-02,1.40e-02,
348,1.20e-02,1.60e-02,
349,-1.60e-02,-8.00e-03,
350,-1.60e-02,1.40e-02,
351,1.60e-02,-8.00e-03,
352,1.20e-02,-6.00e-03,
353,-1.60e-02,1.60e-02,
354,1.20e-02,1.40e-02,
355,-1.60e-02,-1.00e-02,
356,1.20e-02,1.60e-02,
357,-1.60e-02,-8.00e-03,
358,1.20e-02,-8.00e-03,
359,-1.60e-02,1.60e-02,
360,-8.40e-02,5.60e-02,
361,8.00e-02,-1.94e-01,
362,4.72e-01,-2.54e-01,
363,-5.48e-01,2.56e-01,
364,1.20e-02,1.40e-02,
365,-1.60e-02,-8.00e-03,
366,1.20e-02,1.40e-02,
367,-1.60e-02,-1.00e-02,
368,1.20e-02,-8.00e-03,
369,-1.60e-02,1.60e-02,
370,1.20e-02,-8.00e-03,
371,-1.60e-02,1.40e-02,
372,1.20e-02,-8.00e-03,
373,-1.60e-02,1.40e-02,
374,1.20e-02,-1.00e-02,
375,-1.60e-02,1.40e-02,
376,1.20e-02,-1.00e-02,
377,-1.60e-02,1.40e-02,
378,1.20e-02,-8.00e-03,
379,-1.60e-02,1.40e-02,
380,-3.80e-01,2.14e-01,
381,3.56e-01,-2.00e-01,
382,1.20e-02,-8.00e-03,
383,-1.60e-02,1.40e-02,
384,1.20e-02,-8.00e-03,
385,-1.60e-02,1.40e-02,
386,-1.60e-02,-8.00e-03,
387,1.20e-02,1.40e-02,
388,-1.60e-02,-8.00e-03,
389,1.60e-02,1.40e-02,
390,1.20e-02,-8.00e-03,
391,-1.60e-02,1.40e-02,
392,1.20e-02,1.40e-02,
393,-1.60e-02,-1.00e-02,
394,1.20e-02,1.40e-02,
395,-1.60e-02,-1.00e-02,
396,-1.60e-02,1.40e-02,
397,1.20e-02,-1.00e-02,
398,1.20e-02,-8.00e-03,
399,-1.60e-02,1.60e-02,
400,1.20e-02,-8.00e-03,
401,-1.60e-02,1.60e-02,
402,1.20e-02,1.40e-02,
403,-1.60e-02,-8.00e-03,
404,-1.60e-02,1.60e-02,
405,1.60e-02,-8.00e-03,
406,1.20e-02,1.40e-02,
407,-1.60e-02,-8.00e-03,
408,-9.60e-02,-6.00e-02,
409,9.20e-02,1.40e-01,
410,4.72e-01,-2.54e-01,
411,-5.44e-01,2.56e-01,
412,1.20e-02,1.40e-02,
413,-1.60e-02,-8.00e-03,
414,1.20e-02,-8.00e-03,
415,-1.60e-02,1.40e-02,
416,1.20e-02,-8.00e-03,
417,-1.60e-02,1.60e-02,
418,1.20e-02,1.40e-02,
419,-1.60e-02,-1.00e-02,
420,1.20e-02,-8.00e-03,
421,-1.60e-02,1.60e-02,
422,-1.60e-02,-8.00e-03,
423,1.60e-02,1.60e-02,
424,1.20e-02,-8.00e-03,
425,-1.60e-02,1.60e-02,
426,1.20e-02,-8.00e-03,
427,-1.60e-02,1.60e-02,
428,3.80e-01,-2.54e-01,
429,-2.76e-01,2.56e-01,
430,1.20e-02,1.60e-02,
431,-1.60e-02,-8.00e-03,
432,1.20e-02,-8.00e-03,
433,-1.60e-02,1.40e-02,
434,1.20e-02,1.40e-02,
435,-1.60e-02,-1.00e-02,
436,1.20e-02,1.60e-02,
437,-1.60e-02,-1.00e-02,
438,1.20e-02,-8.00e-03,
439,-1.60e-02,1.40e-02,
440,-1.60e-02,-8.00e-03,
441,1.20e-02,1.40e-02,
442,1.20e-02,-8.00e-03,
443,-1.60e-02,1.40e-02,
444,-1.60e-02,1.40e-02,
445,1.60e-02,-8.00e-03,
446,1.20e-02,-8.00e-03,
447,-1.60e-02,1.40e-02,
448,1.20e-02,-8.00e-03,
449,-1.60e-02,1.60e-02,
450,1.20e-02,-8.00e-03,
451,-1.60e-02,1.60e-02,
452,1.20e-02,-8.00e-03,
453,-1.60e-02,1.40e-02,
454,1.20e-02,1.40e-02,
455,-1.60e-02,-8.00e-03,
456,3.00e-01,-2.54e-01,
457,-3.40e-01,2.56e-01,
458,-1.60e-02,-8.00e-03,
459,1.20e-02,1.60e-02,
460,-1.60e-02,-8.00e-03,
461,1.60e-02,1.60e-02,
462,1.20e-02,-8.00e-03,
463,-1.60e-02,1.60e-02,
464,-1.60e-02,1.40e-02,
465,1.20e-02,-8.00e-03,
466,1.20e-02,1.40e-02,
467,-1.60e-02,-8.00e-03,
468,1.20e-02,1.40e-02,
469,-1.60e-02,-1.00e-02,
470,-1.60e-02,1.40e-02,
471,1.20e-02,-8.00e-03,
472,-1.60e-02,-8.00e-03,
473,1.20e-02,1.60e-02,
474,1.20e-02,-8.00e-03,
475,-1.60e-02,1.40e-02,
476,4.04e-01,2.56e-01,
477,-1.00e-01,-2.54e-01,
478,1.20e-02,-8.00e-03,
479,-1.60e-02,1.40e-02,
480,1.20e-02,-8.00e-03,
481,-1.60e-02,1.40e-02,
482,1.20e-02,-8.00e-03,
483,-1.60e-02,1.60e-02,
484,1.20e-02,-8.00e-03,
485,-1.60e-02,1.40e-02,
486,1.20e-02,1.60e-02,
487,-1.60e-02,-1.00e-02,
488,1.20e-02,1.40e-02,
489,-1.60e-02,-1.00e-02,
490,-1.60e-02,1.40e-02,
491,1.20e-02,-8.00e-03,
492,-1.60e-02,-8.00e-03,
493,1.20e-02,1.40e-02,
494,1.20e-02,-8.00e-03,
495,-1.60e-02,1.40e-02,
496,1.20e-02,-8.00e-03,
497,-1.60e-02,1.40e-02,
498,1.20e-02,1.60e-02,
499,-1.60e-02,-8.00e-03,
500,1.20e-02,1.40e-02,
501,-1.60e-02,-8.00e-03,
502,1.20e-02,-8.00e-03,
503,-1.60e-02,1.60e-02,
504,-5.60e-02,-1.62e-01,
505,1.32e-01,4.00e-02,
506,4.72e-01,-2.54e-01,
507,-3.04e-01,2.56e-01,
508,1.20e-02,-8.00e-03,
509,-1.60e-02,1.40e-02,
510,-1.60e-02,1.40e-02,
511,1.20e-02,-8.00e-03,
512,-1.60e-02,1.40e-02,
513,1.20e-02,-8.00e-03,
514,-1.60e-02,1.40e-02,
515,1.20e-02,-1.00e-02,
516,1.20e-02,-8.00e-03,
517,-1.60e-02,1.40e-02,
518,1.20e-02,-8.00e-03,
519,-1.60e-02,1.40e-02,
520,1.20e-02,-1.00e-02,
521,-1.60e-02,1.60e-02,
522,-3.24e-01,-1.60e-01,
523,2.84e-01,1.36e-01,
524,-1.60e-02,-1.00e-02,
525,1.20e-02,1.40e-02,
526,1.20e-02,-1.00e-02,
527,-1.60e-02,1.40e-02,
528,-1.60e-02,-8.00e-03,
529,1.60e-02,1.60e-02,
530,1.20e-02,1.40e-02,
531,-1.60e-02,-1.00e-02,
532,1.20e-02,-8.00e-03,
533,-1.60e-02,1.40e-02,
534,1.20e-02,-8.00e-03,
535,-1.60e-02,1.60e-02,
536,1.20e-02,-8.00e-03,
537,-1.60e-02,1.40e-02,
538,1.20e-02,1.40e-02,
539,-1.60e-02,-1.00e-02,
540,-1.60e-02,-8.00e-03,
541,1.60e-02,1.40e-02,
542,1.20e-02,1.40e-02,
543,-1.60e-02,-1.00e-02,
544,1.20e-02,1.40e-02,
545,-1.60e-02,-1.00e-02,
546,1.20e-02,-1.00e-02,
547,-1.60e-02,1.40e-02,
548,1.20e-02,1.40e-02,
549,-1.60e-02,-8.00e-03,
550,-1.60e-02,3.00e-02,
551,2.00e-02,-1.80e-02,
552,-1.00e-01,-7.20e-02,
553,1.04e-01,2.06e-01,
554,4.72e-01,-2.54e-01,
555,-5.20e-01,2.56e-01,
556,1.20e-02,1.40e-02,
557,-1.60e-02,-1.00e-02,
558,1.20e-02,-1.00e-02,
559,-1.60e-02,1.40e-02,
560,1.20e-02,1.40e-02,
561,-2.00e-02,-8.00e-03,
562,-1.60e-02,-8.00e-03,
563,1.60e-02,1.60e-02,
564,1.20e-02,1.40e-02,
565,-1.60e-02,-8.00e-03,
566,1.20e-02,1.40e-02,
567,-1.60e-02,-1.00e-02,
568,1.20e-02,-8.00e-03,
569,-1.60e-02,1.40e-02,
570,1.20e-02,-8.00e-03,
571,-1.60e-02,1.40e-02,
572,-2.76e-01,2.56e-01,
573,2.52e-01,-2.54e-01,
574,1.20e-02,1.40e-02,
575,-1.60e-02,-8.00e-03,
576,-1.60e-02,-8.00e-03,
577,1.20e-02,1.60e-02,
578,1.20e-02,-8.00e-03,
579,-1.60e-02,1.60e-02,
580,1.20e-02,1.40e-02,
581,-1.60e-02,-8.00e-03,
582,1.20e-02,-8.00e-03,
583,-1.60e-02,1.60e-02,
584,1.20e-02,-1.00e-02,
585,-1.60e-02,1.60e-02,
586,-1.60e-02,-8.00e-03,
587,1.20e-02,1.40e-02,
588,-1.60e-02,-8.00e-03,
589,1.60e-02,1.60e-02,
590,1.20e-02,1.40e-02,
591,-1.60e-02,-8.00e-03,
592,-1.60e-02,-8.00e-03,
593,1.20e-02,1.60e-02,
594,1.20e-02,1.40e-02,
595,-1.60e-02,-8.00e-03,
596,1.20e-02,1.40e-02,
597,-1.60e-02,-8.00e-03,
598,-4.00e-02,-1.00e-02,
599,6.80e-02,5.80e-02,
600,4.72e-01,2.56e-01,
601,-4.36e-01,-2.12e-01,
602,-1.60e-02,-8.00e-03,
603,1.60e-02,1.40e-02,
604,1.20e-02,1.40e-02,
605,-1.60e-02,-8.00e-03,
606,1.20e-02,-8.00e-03,
607,-1.60e-02,1.40e-02,
608,-1.60e-02,1.40e-02,
609,1.20e-02,-1.00e-02,
610,1.20e-02,1.40e-02,
611,-1.60e-02,-1.00e-02,
612,-1.60e-02,1.40e-02,
613,1.20e-02,-1.00e-02,
614,1.20e-02,1.40e-02,
615,-1.60e-02,-1.00e-02,
616,1.20e-02,1.40e-02,
617,-1.60e-02,-8.00e-03,
618,1.20e-02,1.40e-02,
619,-1.60e-02,-1.00e-02,
620,4.72e-01,-2.54e-01,
621,-5.32e-01,2.56e-01,
622,1.20e-02,-8.00e-03,
623,-1.60e-02,1.40e-02,
624,1.20e-02,1.40e-02,
625,-1.60e-02,-1.00e-02,
626,-1.60e-02,1.60e-02,
627,1.60e-02,-1.00e-02,
628,1.20e-02,-8.00e-03,
629,-1.60e-02,1.40e-02,
630,-1.60e-02,1.40e-02,
631,1.20e-02,-1.00e-02,
632,1.20e-02,1.40e-02,
633,-1.60e-02,-1.00e-02,
634,1.20e-02,1.40e-02,
635,-1.60e-02,-1.00e-02,
636,1.20e-02,1.40e-02,
637,-1.60e-02,-1.00e-02,
638,-1.60e-02,-8.00e-03,
639,1.20e-02,1.40e-02,
640,1.20e-02,-8.00e-03,
641,-1.60e-02,1.40e-02,
642,1.20e-02,-8.00e-03,
643,-2.00e-02,1.40e-02,
644,-1.60e-02,-1.00e-02,
645,1.20e-02,1.40e-02,
646,-3.20e-02,8.80e-02,
647,6.40e-02,-6.40e-02,
648,-5.48e-01,2.56e-01,
649,4.72e-01,-2.54e-01,
650,-1.60e-02,1.80e-02,
651,1.20e-02,-1.00e-02,
652,1.20e-02,1.40e-02,
653,-1.60e-02,-1.00e-02,
654,1.20e-02,-1.00e-02,
655,-1.60e-02,1.40e-02,
656,1.20e-02,-8.00e-03,
657,-1.60e-02,1.20e-02,
658,1.20e-02,-8.00e-03,
659,-1.60e-02,1.40e-02,
660,1.20e-02,1.40e-02,
661,-1.60e-02,-1.00e-02,
662,1.20e-02,1.40e-02,
663,-1.60e-02,-1.00e-02,
664,1.20e-02,1.40e-02,
665,-1.60e-02,-1.00e-02,
666,-2.92e-01,1.50e-01,
667,3.60e-01,-9.20e-02,
668,1.20e-02,-8.00e-03,
669,-1.60e-02,1.40e-02,
670,-1.60e-02,-1.00e-02,
671,1.20e-02,1.40e-02,
672,1.20e-02,1.40e-02,
673,-1.60e-02,-8.00e-03,
674,1.20e-02,-1.00e-02,
675,-1.60e-02,1.40e-02,
676,-1.60e-02,-8.00e-03,
677,1.20e-02,1.60e-02,
678,1.20e-02,1.40e-02,
679,-1.60e-02,-1.00e-02,
680,1.20e-02,-8.00e-03,
681,-1.60e-02,1.40e-02,
682,1.20e-02,-1.00e-02,
683,-1.60e-02,1.40e-02,
684,1.20e-02,1.40e-02,
685,-1.60e-02,-1.00e-02,
686,1.20e-02,1.40e-02,
687,-1.60e-02,-8.00e-03,
688,1.20e-02,-1.00e-02,
689,-1.60e-02,1.40e-02,
690,1.20e-02,-1.00e-02,
691,-2.00e-02,1.40e-02,
692,1.20e-02,-1.00e-02,
693,-1.60e-02,1.40e-02,
694,5.20e-02,1.40e-02,
695,-5.20e-02,-2.60e-02,
696,-4.76e-01,-2.54e-01,
697,4.72e-01,2.10e-01,
698,-3.24e-01,-2.54e-01,
699,2.80e-01,1.78e-01,
700,1.20e-02,1.40e-02,
701,-1.60e-02,-1.00e-02,
702,-1.60e-02,-8.00e-03,
703,1.20e-02,1.40e-02,
704,-1.60e-02,-1.00e-02,
705,1.20e-02,1.40e-02,
706,-1.60e-02,1.40e-02,
707,1.20e-02,-1.00e-02,
708,-1.60e-02,-8.00e-03,
709,1.20e-02,1.40e-02,
710,1.20e-02,1.40e-02,
711,-1.60e-02,-8.00e-03,
712,-1.60e-02,-1.00e-02,
713,1.20e-02,1.40e-02,
714,-1.60e-02,1.40e-02,
715,1.20e-02,-1.00e-02,
716,-3.20e-01,2.56e-01,
717,1.48e-01,-2.28e-01,
718,1.20e-02,-8.00e-03,
719,-1.60e-02,1.60e-02,
720,-1.60e-02,-1.00e-02,
721,1.20e-02,1.40e-02,
722,1.20e-02,-1.00e-02,
723,-1.60e-02,1.40e-02,
724,1.20e-02,1.40e-02,
725,-1.60e-02,-1.00e-02,
726,-1.60e-02,1.40e-02,
727,1.20e-02,-1.00e-02,
728,-1.60e-02,-8.00e-03,
729,1.20e-02,1.40e-02,
730,1.20e-02,1.40e-02,
731,-1.60e-02,-1.00e-02,
732,-1.60e-02,1.40e-02,
733,1.20e-02,-1.00e-02,
734,-1.60e-02,-1.00e-02,
735,1.20e-02,1.40e-02,
736,1.20e-02,1.40e-02,
737,-1.60e-02,-8.00e-03,
738,1.20e-02,-8.00e-03,
739,-1.60e-02,1.40e-02,
740,-1.60e-02,-8.00e-03,
741,1.20e-02,1.40e-02,
742,3.40e-01,-1.74e-01,
743,-2.52e-01,2.56e-01,
744,-3.76e-01,-7.60e-02,
745,1.20e-02,1.40e-02,
746,1.20e-02,1.40e-02,
747,-1.60e-02,-1.00e-02,
748,1.20e-02,-8.00e-03,
749,-1.60e-02,1.40e-02,
750,1.20e-02,1.40e-02,
751,-1.60e-02,-1.00e-02,
752,-1.60e-02,1.40e-02,
753,1.20e-02,-1.00e-02,
754,-1.60e-02,-1.00e-02,
755,1.20e-02,1.40e-02,
756,-1.60e-02,1.40e-02,
757,1.20e-02,-1.00e-02,
758,1.20e-02,-1.00e-02,
759,-2.00e-02,1.40e-02,
760,-1.60e-02,1.40e-02,
761,1.20e-02,-1.00e-02,
762,1.20e-02,1.40e-02,
763,-1.60e-02,-1.00e-02,
764,-3.60e-01,2.56e-01,
765,3.96e-01,-2.54e-01,
766,-1.60e-02,1.40e-02,
767,1.20e-02,-1.00e-02,
768,1.20e-02,-8.00e-03,
769,-1.60e-02,1.40e-02,
770,-1.60e-02,-8.00e-03,
771,1.20e-02,1.40e-02,
772,-1.60e-02,1.40e-02,
773,1.60e-02,-1.00e-02,
774,-1.60e-02,1.40e-02,
775,1.20e-02,-1.00e-02,
776,-1.60e-02,1.40e-02,
777,1.60e-02,-1.00e-02,
778,-1.60e-02,-8.00e-03,
779,1.20e-02,1.40e-02,
780,-1.60e-02,-1.00e-02,
781,1.20e-02,1.40e-02,
782,-1.60e-02,1.40e-02,
783,1.20e-02,-1.00e-02,
784,1.20e-02,1.40e-02,
785,-1.60e-02,-1.00e-02,
786,-1.60e-02,1.40e-02,
787,1.20e-02,-1.00e-02,
788,-1.60e-02,1.40e-02,
789,1.20e-02,-1.00e-02,
790,1.20e-02,-3.40e-02,
791,-1.60e-02,1.60e-02,
792,4.72e-01,2.56e-01,
793,-4.52e-01,-2.54e-01,
794,1.20e-02,1.40e-02,
795,-1.60e-02,-1.00e-02,
796,-1.60e-02,-1.00e-02,
797,1.20e-02,1.40e-02,
798,-1.60e-02,1.20e-02,
799,1.20e-02,-1.00e-02,
800,-1.60e-02,1.40e-02,
801,1.20e-02,-1.00e-02,
802,1.20e-02,-8.00e-03,
803,-1.60e-02,1.40e-02,
804,1.20e-02,-1.00e-02,
805,-1.60e-02,1.40e-02,
806,1.20e-02,-1.00e-02,
807,-1.60e-02,1.40e-02,
808,-1.60e-02,-1.00e-02,
809,1.20e-02,1.40e-02,
810,-3.08e-01,1.22e-01,
811,3.20e-01,-2.00e-01,
812,-1.60e-02,-1.00e-02,
813,1.20e-02,1.40e-02,
814,1.20e-02,-1.00e-02,
815,-1.60e-02,1.40e-02,
816,1.20e-02,-1.00e-02,
817,-1.60e-02,1.40e-02,
818,-1.60e-02,-1.00e-02,
819,1.60e-02,1.40e-02,
820,1.20e-02,1.40e-02,
821,-1.60e-02,-1.00e-02,
822,1.20e-02,1.20e-02,
823,-1.60e-02,-1.00e-02,
824,1.20e-02,-1.00e-02,
825,-1.60e-02,1.40e-02,
826,1.20e-02,-1.00e-02,
827,-1.60e-02,1.40e-02,
828,-1.60e-02,-1.00e-02,
829,1.20e-02,1.40e-02,
830,1.20e-02,-1.00e-02,
831,-1.60e-02,1.40e-02,
832,1.20e-02,1.20e-02,
833,-1.60e-02,-1.20e-02,
