Motor_Data/MOTOR_3_ON/time domain/NewFile69.csv

X,CH1,CH2,Start,Increment,
Sequence,Volt,Volt,-3.000000e-02,5.000000e-05
0,1.20e-02,-8.00e-03,
1,-1.60e-02,1.40e-02,
2,1.20e-02,-8.00e-03,
3,-1.60e-02,1.40e-02,
4,-9.60e-02,2.20e-02,
5,6.80e-02,-5.20e-02,
6,1.20e-02,-1.00e-02,
7,-1.60e-02,1.40e-02,
8,1.20e-02,-8.00e-03,
9,-1.60e-02,1.40e-02,
10,1.20e-02,-8.00e-03,
11,-1.60e-02,1.40e-02,
12,1.20e-02,-8.00e-03,
13,-1.60e-02,1.40e-02,
14,-1.60e-02,-8.00e-03,
15,1.20e-02,1.40e-02,
16,1.20e-02,-8.00e-03,
17,-1.60e-02,1.40e-02,
18,1.20e-02,-8.00e-03,
19,-1.60e-02,1.40e-02,
20,1.60e-02,-8.00e-03,
21,-1.60e-02,1.40e-02,
22,1.20e-02,1.40e-02,
23,-1.60e-02,-1.00e-02,
24,1.20e-02,1.40e-02,
25,-1.60e-02,-8.00e-03,
26,1.20e-02,1.40e-02,
27,-1.60e-02,-1.00e-02,
28,1.20e-02,-8.00e-03,
29,-1.60e-02,1.40e-02,
30,-1.60e-02,-8.00e-03,
31,1.20e-02,1.40e-02,
32,-1.60e-02,-4.00e-02,
33,4.00e-02,8.20e-02,
34,3.32e-01,-2.06e-01,
35,-1.08e-01,2.56e-01,
36,1.20e-02,1.40e-02,
37,-1.60e-02,-8.00e-03,
38,1.20e-02,-8.00e-03,
39,-1.60e-02,1.40e-02,
40,1.20e-02,-8.00e-03,
41,-1.60e-02,1.40e-02,
42,1.20e-02,-8.00e-03,
43,-1.60e-02,1.40e-02,
44,1.20e-02,-8.00e-03,
45,-1.60e-02,1.40e-02,
46,1.20e-02,1.40e-02,
47,-1.60e-02,-1.00e-02,
48,1.20e-02,-8.00e-03,
49,-1.60e-02,1.40e-02,
50,1.20e-02,-8.00e-03,
51,-1.60e-02,1.40e-02,
52,-2.96e-01,2.56e-01,
53,3.28e-01,-1.38e-01,
54,1.20e-02,-8.00e-03,
55,-1.60e-02,1.40e-02,
56,-1.60e-02,1.20e-02,
57,1.20e-02,-8.00e-03,
58,1.20e-02,-8.00e-03,
59,-1.60e-02,1.40e-02,
60,1.20e-02,-8.00e-03,
61,-1.60e-02,1.40e-02,
62,1.20e-02,-8.00e-03,
63,-1.60e-02,1.40e-02,
64,1.20e-02,-8.00e-03,
65,-1.60e-02,1.40e-02,
66,-1.60e-02,1.40e-02,
67,1.60e-02,-8.00e-03,
68,1.20e-02,-8.00e-03,
69,-1.60e-02,1.60e-02,
70,1.20e-02,-8.00e-03,
71,-1.60e-02,1.40e-02,
72,1.20e-02,1.40e-02,
73,-1.60e-02,-8.00e-03,
74,1.20e-02,-8.00e-03,
75,-1.60e-02,1.40e-02,
76,1.20e-02,1.40e-02,
77,-1.60e-02,-8.00e-03,
78,2.44e-01,-1.56e-01,
79,-2.48e-01,2.02e-01,
80,1.20e-02,-8.00e-03,
81,-1.60e-02,1.40e-02,
82,1.20e-02,1.40e-02,
83,-1.60e-02,-8.00e-03,
84,1.20e-02,1.40e-02,
85,-1.60e-02,-1.00e-02,
86,1.20e-02,-1.00e-02,
87,-1.60e-02,1.40e-02,
88,-1.60e-02,1.40e-02,
89,1.20e-02,-1.00e-02,
90,1.20e-02,-1.00e-02,
91,-1.60e-02,1.60e-02,
92,1.20e-02,-8.00e-03,
93,-1.60e-02,1.40e-02,
94,1.20e-02,-8.00e-03,
95,-1.60e-02,1.60e-02,
96,-1.60e-02,-8.00e-03,
97,1.60e-02,1.40e-02,
98,-1.60e-02,1.40e-02,
99,1.20e-02,-8.00e-03,
100,2.44e-01,-2.54e-01,
101,-3.24e-01,2.56e-01,
102,-1.60e-02,1.40e-02,
103,1.20e-02,-1.00e-02,
104,1.20e-02,-8.00e-03,
105,-1.60e-02,1.40e-02,
106,1.20e-02,1.60e-02,
107,-1.60e-02,-8.00e-03,
108,1.20e-02,1.40e-02,
109,-1.60e-02,-8.00e-03,
110,1.20e-02,-8.00e-03,
111,-1.60e-02,1.60e-02,
112,1.20e-02,1.40e-02,
113,-1.60e-02,-8.00e-03,
114,-1.60e-02,-8.00e-03,
115,1.60e-02,1.60e-02,
116,1.20e-02,1.40e-02,
117,-1.60e-02,-8.00e-03,
118,1.20e-02,-8.00e-03,
119,-1.60e-02,1.40e-02,
120,1.20e-02,-8.00e-03,
121,-1.60e-02,1.60e-02,
122,1.20e-02,-8.00e-03,
123,-1.60e-02,1.60e-02,
124,1.20e-02,1.40e-02,
125,-1.60e-02,-8.00e-03,
126,1.40e-01,-1.24e-01,
127,-6.40e-02,6.40e-02,
128,3.00e-01,-2.54e-01,
129,-3.32e-01,2.48e-01,
130,1.20e-02,1.40e-02,
131,-1.60e-02,-1.00e-02,
132,-1.60e-02,1.60e-02,
133,1.20e-02,-8.00e-03,
134,1.20e-02,-8.00e-03,
135,-1.60e-02,1.40e-02,
136,1.20e-02,-8.00e-03,
137,-1.60e-02,1.40e-02,
138,1.20e-02,-8.00e-03,
139,-1.60e-02,1.40e-02,
140,1.20e-02,-8.00e-03,
141,-1.60e-02,1.40e-02,
142,1.20e-02,-8.00e-03,
143,-1.60e-02,1.40e-02,
144,1.20e-02,-8.00e-03,
145,-1.60e-02,1.40e-02,
146,4.40e-02,6.20e-02,
147,-6.80e-02,-5.40e-02,
148,1.20e-02,-8.00e-03,
149,-1.60e-02,1.40e-02,
150,1.20e-02,-8.00e-03,
151,-1.60e-02,1.60e-02,
152,-1.60e-02,-8.00e-03,
153,1.60e-02,1.40e-02,
154,1.20e-02,1.40e-02,
155,-1.60e-02,-8.00e-03,
156,1.20e-02,-8.00e-03,
157,-1.60e-02,1.40e-02,
158,1.20e-02,-8.00e-03,
159,-1.60e-02,1.40e-02,
160,1.20e-02,-8.00e-03,
161,-1.60e-02,1.40e-02,
162,1.20e-02,-1.00e-02,
163,-1.60e-02,1.40e-02,
164,1.20e-02,-8.00e-03,
165,-1.60e-02,1.40e-02,
166,1.20e-02,1.40e-02,
167,-1.60e-02,-1.00e-02,
168,-1.60e-02,1.40e-02,
169,1.20e-02,-1.00e-02,
170,1.20e-02,1.40e-02,
171,-1.60e-02,-1.00e-02,
172,1.20e-02,1.40e-02,
173,-1.60e-02,-1.00e-02,
174,-1.76e-01,-4.20e-02,
175,3.48e-01,2.56e-01,
176,1.20e-02,-8.00e-03,
177,-1.60e-02,1.40e-02,
178,1.20e-02,1.20e-02,
179,-1.60e-02,-8.00e-03,
180,1.20e-02,-8.00e-03,
181,-1.60e-02,1.40e-02,
182,1.20e-02,-8.00e-03,
183,-1.60e-02,1.40e-02,
184,1.20e-02,1.40e-02,
185,-1.60e-02,-1.00e-02,
186,-1.60e-02,1.40e-02,
187,1.20e-02,-1.00e-02,
188,1.20e-02,-1.00e-02,
189,-1.60e-02,1.40e-02,
190,1.20e-02,1.40e-02,
191,-1.60e-02,-1.00e-02,
192,-1.60e-02,-8.00e-03,
193,1.20e-02,1.40e-02,
194,-2.56e-01,2.32e-01,
195,1.64e-01,-2.54e-01,
196,1.20e-02,-1.00e-02,
197,-1.60e-02,1.40e-02,
198,1.20e-02,-8.00e-03,
199,-1.60e-02,1.40e-02,
200,1.20e-02,-8.00e-03,
201,-1.60e-02,1.40e-02,
202,1.20e-02,-8.00e-03,
203,-1.60e-02,1.40e-02,
204,1.20e-02,1.40e-02,
205,-1.60e-02,-1.00e-02,
206,1.20e-02,-8.00e-03,
207,-1.60e-02,1.40e-02,
208,-1.20e-02,-8.00e-03,
209,1.60e-02,1.40e-02,
210,1.20e-02,-8.00e-03,
211,-1.60e-02,1.40e-02,
212,1.20e-02,1.20e-02,
213,-1.60e-02,-8.00e-03,
214,1.20e-02,1.40e-02,
215,-1.60e-02,-8.00e-03,
216,-1.60e-02,1.40e-02,
217,1.20e-02,-8.00e-03,
218,-1.60e-02,1.40e-02,
219,1.20e-02,-1.00e-02,
220,3.36e-01,-1.52e-01,
221,-2.40e-01,1.98e-01,
222,1.20e-02,1.40e-02,
223,-1.60e-02,-1.00e-02,
224,1.20e-02,1.40e-02,
225,-1.60e-02,-1.00e-02,
226,1.20e-02,1.40e-02,
227,-1.60e-02,-8.00e-03,
228,1.20e-02,-8.00e-03,
229,-1.60e-02,1.40e-02,
230,1.20e-02,-8.00e-03,
231,-1.60e-02,1.40e-02,
232,1.20e-02,-1.00e-02,
233,-1.60e-02,1.40e-02,
234,1.20e-02,-8.00e-03,
235,-1.60e-02,1.40e-02,
236,-1.60e-02,-8.00e-03,
237,1.20e-02,1.40e-02,
238,1.20e-02,-8.00e-03,
239,-1.60e-02,1.40e-02,
240,-1.60e-02,1.40e-02,
241,1.60e-02,-8.00e-03,
242,-3.72e-01,-1.84e-01,
243,3.44e-01,2.08e-01,
244,1.20e-02,-8.00e-03,
245,-1.60e-02,1.40e-02,
246,1.20e-02,1.40e-02,
247,-1.60e-02,-8.00e-03,
248,1.20e-02,1.40e-02,
249,-1.60e-02,-1.00e-02,
250,1.20e-02,-8.00e-03,
251,-1.60e-02,1.60e-02,
252,-1.60e-02,-8.00e-03,
253,1.60e-02,1.40e-02,
254,1.20e-02,-8.00e-03,
255,-1.60e-02,1.40e-02,
256,1.20e-02,1.40e-02,
257,-1.60e-02,-1.20e-02,
258,1.20e-02,-8.00e-03,
259,-1.60e-02,1.40e-02,
260,-1.60e-02,1.40e-02,
261,1.60e-02,-8.00e-03,
262,1.20e-02,-8.00e-03,
263,-1.60e-02,1.40e-02,
264,1.20e-02,-8.00e-03,
265,-1.60e-02,1.40e-02,
266,6.40e-02,2.08e-01,
267,-9.60e-02,-1.28e-01,
268,1.20e-02,4.40e-02,
269,-5.20e-02,-2.54e-01,
270,-2.24e-01,1.74e-01,
271,1.20e-02,-6.00e-02,
272,1.20e-02,1.40e-02,
273,-1.60e-02,-8.00e-03,
274,1.20e-02,-8.00e-03,
275,-1.60e-02,1.60e-02,
276,1.20e-02,1.40e-02,
277,-1.60e-02,-8.00e-03,
278,1.20e-02,1.40e-02,
279,-1.60e-02,-1.00e-02,
280,1.20e-02,-8.00e-03,
281,-1.60e-02,1.40e-02,
282,1.20e-02,-8.00e-03,
283,-1.60e-02,1.40e-02,
284,1.20e-02,-1.00e-02,
285,-1.60e-02,1.60e-02,
286,1.32e-01,-3.20e-02,
287,-1.24e-01,5.60e-02,
288,-1.60e-02,1.60e-02,
289,1.60e-02,-1.00e-02,
290,1.20e-02,-8.00e-03,
291,-1.60e-02,1.40e-02,
292,1.20e-02,1.40e-02,
293,-1.60e-02,-8.00e-03,
294,1.20e-02,-8.00e-03,
295,-1.60e-02,1.60e-02,
296,1.20e-02,-8.00e-03,
297,-1.60e-02,1.60e-02,
298,-1.60e-02,1.40e-02,
299,1.60e-02,-8.00e-03,
300,1.20e-02,1.40e-02,
301,-1.60e-02,-8.00e-03,
302,1.20e-02,-8.00e-03,
303,-1.60e-02,1.40e-02,
304,-1.60e-02,-8.00e-03,
305,1.20e-02,1.40e-02,
306,1.20e-02,-8.00e-03,
307,-1.60e-02,1.40e-02,
308,1.20e-02,-8.00e-03,
309,-1.60e-02,1.40e-02,
310,1.20e-02,1.40e-02,
311,-1.60e-02,-8.00e-03,
312,1.20e-02,-8.00e-03,
313,-1.60e-02,1.60e-02,
314,1.20e-02,1.40e-02,
315,-1.60e-02,-8.00e-03,
316,1.32e-01,-2.54e-01,
317,-3.84e-01,2.52e-01,
318,1.20e-02,1.40e-02,
319,-1.60e-02,-8.00e-03,
320,-1.60e-02,-8.00e-03,
321,1.20e-02,1.60e-02,
322,-1.60e-02,-8.00e-03,
323,1.60e-02,1.40e-02,
324,1.20e-02,1.40e-02,
325,-1.60e-02,-8.00e-03,
326,-1.20e-02,-8.00e-03,
327,1.20e-02,1.40e-02,
328,1.20e-02,-8.00e-03,
329,-1.60e-02,1.40e-02,
330,1.20e-02,-8.00e-03,
331,-1.60e-02,1.60e-02,
332,1.20e-02,1.40e-02,
333,-1.60e-02,-8.00e-03,
334,1.20e-02,1.40e-02,
335,-1.60e-02,-8.00e-03,
336,3.52e-01,-2.54e-01,
337,-2.24e-01,1.20e-01,
338,1.20e-02,1.60e-02,
339,-1.60e-02,-8.00e-03,
340,1.20e-02,1.40e-02,
341,-1.60e-02,-8.00e-03,
342,1.20e-02,1.60e-02,
343,-1.60e-02,-1.00e-02,
344,1.20e-02,1.40e-02,
345,-1.20e-02,-1.00e-02,
346,1.20e-02,1.40e-02,
347,-1.60e-02,-8.00e-03,
348,1.20e-02,1.40e-02,
349,-1.60e-02,-8.00e-03,
350,1.20e-02,1.40e-02,
351,-1.60e-02,-8.00e-03,
352,1.20e-02,-8.00e-03,
353,-1.60e-02,1.40e-02,
354,1.20e-02,-8.00e-03,
355,-1.60e-02,1.40e-02,
356,1.20e-02,1.40e-02,
357,-1.60e-02,-1.00e-02,
358,1.20e-02,1.40e-02,
359,-1.60e-02,-8.00e-03,
360,1.20e-02,-8.00e-03,
361,-1.60e-02,1.60e-02,
362,3.12e-01,1.02e-01,
363,-3.20e-01,-1.42e-01,
364,1.20e-02,1.40e-02,
365,-1.60e-02,-8.00e-03,
366,1.20e-02,1.40e-02,
367,-1.60e-02,-8.00e-03,
368,-1.20e-02,-8.00e-03,
369,1.20e-02,1.60e-02,
370,-1.60e-02,1.40e-02,
371,1.60e-02,-8.00e-03,
372,1.20e-02,-8.00e-03,
373,-1.60e-02,1.40e-02,
374,1.20e-02,1.40e-02,
375,-1.60e-02,-8.00e-03,
376,1.20e-02,1.40e-02,
377,-1.60e-02,-8.00e-03,
378,1.20e-02,-8.00e-03,
379,-1.60e-02,1.40e-02,
380,1.20e-02,-8.00e-03,
381,-1.60e-02,1.40e-02,
382,-3.56e-01,2.16e-01,
383,3.12e-01,-2.54e-01,
384,1.20e-02,1.40e-02,
385,-1.60e-02,-8.00e-03,
386,1.20e-02,1.40e-02,
387,-1.60e-02,-8.00e-03,
388,1.20e-02,-8.00e-03,
389,-1.60e-02,1.40e-02,
390,1.20e-02,-8.00e-03,
391,-1.60e-02,1.40e-02,
392,1.20e-02,1.40e-02,
393,-1.60e-02,-8.00e-03,
394,1.20e-02,-8.00e-03,
395,-1.60e-02,1.40e-02,
396,1.20e-02,1.40e-02,
397,-1.60e-02,-8.00e-03,
398,-1.60e-02,-8.00e-03,
399,1.20e-02,1.40e-02,
400,-1.60e-02,-8.00e-03,
401,1.20e-02,1.60e-02,
402,1.20e-02,1.40e-02,
403,-1.60e-02,-8.00e-03,
404,1.20e-02,-8.00e-03,
405,-1.60e-02,1.20e-02,
406,1.20e-02,-8.00e-03,
407,-1.60e-02,1.40e-02,
408,1.84e-01,1.02e-01,
409,-2.00e-01,-2.34e-01,
410,2.12e-01,-2.54e-01,
411,-2.00e-01,1.56e-01,
412,1.20e-02,-8.00e-03,
413,-1.60e-02,1.40e-02,
414,1.20e-02,1.40e-02,
415,-1.60e-02,-8.00e-03,
416,1.20e-02,-8.00e-03,
417,-1.60e-02,1.40e-02,
418,1.20e-02,-8.00e-03,
419,-1.60e-02,1.40e-02,
420,-1.60e-02,-1.00e-02,
421,1.20e-02,1.60e-02,
422,1.20e-02,-8.00e-03,
423,-1.60e-02,1.40e-02,
424,1.20e-02,1.40e-02,
425,-1.60e-02,-1.00e-02,
426,1.20e-02,1.40e-02,
427,-1.60e-02,-1.00e-02,
428,4.40e-02,6.00e-02,
429,-5.20e-02,-4.60e-02,
430,1.20e-02,-8.00e-03,
431,-1.60e-02,1.40e-02,
432,1.20e-02,-8.00e-03,
433,-1.60e-02,1.60e-02,
434,-1.60e-02,-8.00e-03,
435,1.20e-02,1.40e-02,
436,1.20e-02,-1.00e-02,
437,-1.60e-02,1.40e-02,
438,1.20e-02,-8.00e-03,
439,-1.60e-02,1.40e-02,
440,-1.60e-02,1.60e-02,
441,1.60e-02,-8.00e-03,
442,1.20e-02,-8.00e-03,
443,-1.60e-02,1.40e-02,
444,1.20e-02,-8.00e-03,
445,-1.60e-02,1.40e-02,
446,1.20e-02,1.40e-02,
447,-1.60e-02,-1.00e-02,
448,1.20e-02,1.40e-02,
449,-1.60e-02,-1.00e-02,
450,1.20e-02,-8.00e-03,
451,-1.60e-02,1.60e-02,
452,1.20e-02,-1.00e-02,
453,-1.60e-02,1.60e-02,
454,1.20e-02,-8.00e-03,
455,-1.60e-02,1.40e-02,
456,1.20e-02,-8.00e-03,
457,-1.60e-02,1.40e-02,
458,4.72e-01,-1.52e-01,
459,-5.48e-01,2.14e-01,
460,1.20e-02,-8.00e-03,
461,-1.60e-02,1.40e-02,
462,1.20e-02,1.40e-02,
463,-1.60e-02,-1.00e-02,
464,-1.60e-02,-8.00e-03,
465,1.20e-02,1.40e-02,
466,1.20e-02,1.40e-02,
467,-1.60e-02,-1.00e-02,
468,1.20e-02,1.40e-02,
469,-1.60e-02,-8.00e-03,
470,1.20e-02,-8.00e-03,
471,-1.60e-02,1.40e-02,
472,1.20e-02,1.40e-02,
473,-1.60e-02,-8.00e-03,
474,1.20e-02,-1.00e-02,
475,-1.60e-02,1.60e-02,
476,3.20e-01,-2.22e-01,
477,-2.24e-01,1.26e-01,
478,-1.60e-02,-8.00e-03,
479,1.60e-02,1.60e-02,
480,1.20e-02,1.40e-02,
481,-1.60e-02,-8.00e-03,
482,-1.60e-02,-8.00e-03,
483,1.20e-02,1.40e-02,
484,1.20e-02,1.40e-02,
485,-1.60e-02,-8.00e-03,
486,1.20e-02,1.40e-02,
487,-1.60e-02,-8.00e-03,
488,1.20e-02,-8.00e-03,
489,-1.60e-02,1.60e-02,
490,1.20e-02,1.40e-02,
491,-1.60e-02,-8.00e-03,
492,1.20e-02,1.40e-02,
493,-1.60e-02,-8.00e-03,
494,1.20e-02,-8.00e-03,
495,-1.60e-02,1.40e-02,
496,1.20e-02,1.40e-02,
497,-1.60e-02,-8.00e-03,
498,1.20e-02,-8.00e-03,
499,-1.60e-02,1.60e-02,
500,1.20e-02,-8.00e-03,
501,-1.60e-02,1.40e-02,
502,4.72e-01,2.02e-01,
503,-5.16e-01,-1.66e-01,
504,1.20e-02,-8.00e-03,
505,-1.60e-02,1.40e-02,
506,1.20e-02,-8.00e-03,
507,-1.60e-02,1.40e-02,
508,1.20e-02,-8.00e-03,
509,-1.60e-02,1.40e-02,
510,1.20e-02,1.40e-02,
511,-1.60e-02,-1.00e-02,
512,1.20e-02,1.40e-02,
513,-1.60e-02,-8.00e-03,
514,1.20e-02,1.40e-02,
515,-1.60e-02,-8.00e-03,
516,-1.60e-02,-8.00e-03,
517,1.60e-02,1.40e-02,
518,1.60e-02,-8.00e-03,
519,-1.60e-02,1.40e-02,
520,1.20e-02,-8.00e-03,
521,-1.60e-02,1.40e-02,
522,1.20e-02,1.40e-02,
523,-1.60e-02,-8.00e-03,
524,-3.84e-01,2.56e-01,
525,4.44e-01,-2.22e-01,
526,1.20e-02,-8.00e-03,
527,-1.60e-02,1.40e-02,
528,1.20e-02,-8.00e-03,
529,-1.20e-02,1.40e-02,
530,-1.60e-02,-8.00e-03,
531,1.20e-02,1.40e-02,
532,1.20e-02,1.40e-02,
533,-1.60e-02,-8.00e-03,
534,-1.20e-02,-8.00e-03,
535,1.20e-02,1.60e-02,
536,-1.20e-02,1.40e-02,
537,1.20e-02,-8.00e-03,
538,1.20e-02,-8.00e-03,
539,-1.60e-02,1.40e-02,
540,1.20e-02,1.40e-02,
541,-1.60e-02,-1.00e-02,
542,1.20e-02,1.40e-02,
543,-1.60e-02,-8.00e-03,
544,1.20e-02,-8.00e-03,
545,-1.60e-02,1.40e-02,
546,1.20e-02,1.40e-02,
547,-1.60e-02,-8.00e-03,
548,1.20e-02,-8.00e-03,
549,-1.60e-02,1.60e-02,
550,1.20e-02,1.60e-01,
551,-1.04e-01,-1.78e-01,
552,-2.12e-01,1.70e-01,
553,4.72e-01,-1.14e-01,
554,1.20e-02,-8.00e-03,
555,-1.60e-02,1.40e-02,
556,1.20e-02,1.40e-02,
557,-1.60e-02,-1.00e-02,
558,1.20e-02,-8.00e-03,
559,-1.60e-02,1.40e-02,
560,1.20e-02,1.40e-02,
561,-1.60e-02,-1.00e-02,
562,-1.20e-02,-8.00e-03,
563,1.20e-02,1.40e-02,
564,1.20e-02,-8.00e-03,
565,-1.60e-02,1.40e-02,
566,1.60e-02,-1.00e-02,
567,-1.60e-02,1.40e-02,
568,1.20e-02,-8.00e-03,
569,-1.60e-02,1.60e-02,
570,-6.00e-02,-3.60e-02,
571,6.40e-02,6.40e-02,
572,-1.20e-02,1.40e-02,
573,1.20e-02,-8.00e-03,
574,1.20e-02,1.40e-02,
575,-1.60e-02,-1.00e-02,
576,1.20e-02,-8.00e-03,
577,-1.60e-02,1.40e-02,
578,1.20e-02,1.40e-02,
579,-1.60e-02,-8.00e-03,
580,-1.20e-02,1.40e-02,
581,1.20e-02,-8.00e-03,
582,1.20e-02,1.40e-02,
583,-1.20e-02,-8.00e-03,
584,1.20e-02,1.40e-02,
585,-1.60e-02,-1.00e-02,
586,1.20e-02,-8.00e-03,
587,-1.60e-02,1.40e-02,
588,1.20e-02,-1.00e-02,
589,-1.60e-02,1.40e-02,
590,-1.60e-02,-8.00e-03,
591,1.20e-02,1.40e-02,
592,1.20e-02,1.40e-02,
593,-1.60e-02,-8.00e-03,
594,-1.60e-02,1.40e-02,
595,1.60e-02,-8.00e-03,
596,1.20e-02,-8.00e-03,
597,-1.60e-02,1.40e-02,
598,-8.00e-02,8.60e-02,
599,4.16e-01,-2.32e-01,
600,-4.12e-01,2.56e-01,
601,2.80e-02,-4.80e-02,
602,-1.60e-02,1.40e-02,
603,1.60e-02,-1.00e-02,
604,1.20e-02,1.40e-02,
605,-1.60e-02,-1.00e-02,
606,1.20e-02,1.40e-02,
607,-1.60e-02,-1.00e-02,
608,1.20e-02,-8.00e-03,
609,-1.60e-02,1.60e-02,
610,-1.60e-02,1.40e-02,
611,1.60e-02,-1.00e-02,
612,-1.60e-02,1.40e-02,
613,1.20e-02,-1.00e-02,
614,1.20e-02,1.40e-02,
615,-1.60e-02,-1.00e-02,
616,1.20e-02,1.40e-02,
617,-1.60e-02,-1.00e-02,
618,2.24e-01,9.00e-02,
619,-1.68e-01,-2.54e-01,
620,1.20e-02,-8.00e-03,
621,-1.60e-02,1.40e-02,
622,1.20e-02,-8.00e-03,
623,-1.60e-02,1.40e-02,
624,-1.60e-02,1.60e-02,
625,1.20e-02,-8.00e-03,
626,1.20e-02,1.40e-02,
627,-1.60e-02,-1.00e-02,
628,1.20e-02,-1.00e-02,
629,-1.60e-02,1.40e-02,
630,1.20e-02,-8.00e-03,
631,-1.60e-02,1.40e-02,
632,1.20e-02,1.40e-02,
633,-1.20e-02,-1.00e-02,
634,1.20e-02,1.40e-02,
635,-1.60e-02,-1.00e-02,
636,1.20e-02,1.40e-02,
637,-1.60e-02,-8.00e-03,
638,1.20e-02,1.40e-02,
639,-1.20e-02,-8.00e-03,
640,1.20e-02,1.40e-02,
641,-1.60e-02,-8.00e-03,
642,1.20e-02,1.40e-02,
643,-1.60e-02,-8.00e-03,
644,-2.52e-01,-7.60e-02,
645,2.08e-01,1.92e-01,
646,1.20e-02,-8.00e-03,
647,-1.60e-02,1.40e-02,
648,1.20e-02,-8.00e-03,
649,-1.60e-02,1.40e-02,
650,1.20e-02,1.40e-02,
651,-1.60e-02,-1.00e-02,
652,-1.20e-02,1.60e-02,
653,1.20e-02,-8.00e-03,
654,1.20e-02,1.40e-02,
655,-1.20e-02,-8.00e-03,
656,1.20e-02,1.40e-02,
657,-1.60e-02,-8.00e-03,
658,1.20e-02,1.40e-02,
659,-1.60e-02,-1.00e-02,
660,1.20e-02,-8.00e-03,
661,-1.60e-02,1.60e-02,
662,1.20e-02,-8.00e-03,
663,-1.60e-02,1.40e-02,
664,1.20e-02,-8.00e-03,
665,-1.60e-02,1.60e-02,
666,-3.52e-01,-1.50e-01,
667,3.80e-01,1.74e-01,
668,1.20e-02,1.40e-02,
669,-1.60e-02,-8.00e-03,
670,1.20e-02,-8.00e-03,
671,-1.60e-02,1.40e-02,
672,1.20e-02,-8.00e-03,
673,-1.60e-02,1.60e-02,
674,1.20e-02,1.60e-02,
675,-1.60e-02,-8.00e-03,
676,1.20e-02,1.40e-02,
677,-1.60e-02,-8.00e-03,
678,-1.60e-02,-8.00e-03,
679,1.20e-02,1.40e-02,
680,1.20e-02,-8.00e-03,
681,-1.60e-02,1.40e-02,
682,1.20e-02,-8.00e-03,
683,-1.60e-02,1.40e-02,
684,1.20e-02,1.40e-02,
685,-1.60e-02,-8.00e-03,
686,1.20e-02,-8.00e-03,
687,-1.60e-02,1.40e-02,
688,-1.60e-02,1.40e-02,
689,1.20e-02,-8.00e-03,
690,-1.08e-01,1.36e-01,
691,6.00e-02,-2.00e-02,
692,1.20e-02,-1.00e-02,
693,-1.60e-02,1.40e-02,
694,-2.88e-01,-1.22e-01,
695,2.92e-01,9.00e-02,
696,1.20e-02,-8.00e-03,
697,-1.60e-02,1.40e-02,
698,1.20e-02,1.40e-02,
699,-1.60e-02,-1.00e-02,
700,-1.60e-02,1.40e-02,
701,1.20e-02,-8.00e-03,
702,1.20e-02,-8.00e-03,
703,-1.60e-02,1.40e-02,
704,-1.60e-02,1.40e-02,
705,1.20e-02,-1.00e-02,
706,1.20e-02,1.40e-02,
707,-1.60e-02,-1.20e-02,
708,-1.60e-02,-8.00e-03,
709,1.20e-02,1.40e-02,
710,3.60e-02,5.80e-02,
711,-6.00e-02,-4.00e-02,
712,1.20e-02,-8.00e-03,
713,-1.60e-02,1.40e-02,
714,1.20e-02,-8.00e-03,
715,-1.60e-02,1.40e-02,
716,1.20e-02,1.40e-02,
717,-1.60e-02,-8.00e-03,
718,-1.60e-02,-8.00e-03,
719,1.20e-02,1.40e-02,
720,-1.60e-02,-1.00e-02,
721,1.20e-02,1.40e-02,
722,1.20e-02,1.40e-02,
723,-1.60e-02,-8.00e-03,
724,1.20e-02,-8.00e-03,
725,-1.60e-02,1.60e-02,
726,1.20e-02,-1.00e-02,
727,-1.60e-02,1.60e-02,
728,1.20e-02,1.40e-02,
729,-1.60e-02,-8.00e-03,
730,-1.20e-02,1.40e-02,
731,1.20e-02,-8.00e-03,
732,1.20e-02,-8.00e-03,
733,-1.60e-02,1.40e-02,
734,1.20e-02,1.40e-02,
735,-1.60e-02,-8.00e-03,
736,1.20e-02,1.40e-02,
737,-1.60e-02,-8.00e-03,
738,1.20e-02,1.40e-02,
739,-1.60e-02,-8.00e-03,
740,4.72e-01,-2.54e-01,
741,-5.48e-01,2.28e-01,
742,1.20e-02,1.40e-02,
743,-1.60e-02,-8.00e-03,
744,1.60e-02,1.40e-02,
745,-1.60e-02,-8.00e-03,
746,1.20e-02,-8.00e-03,
747,-1.60e-02,1.40e-02,
748,-1.60e-02,-8.00e-03,
749,1.20e-02,1.40e-02,
750,-1.60e-02,1.40e-02,
751,1.60e-02,-1.00e-02,
752,1.60e-02,-8.00e-03,
753,-1.60e-02,1.40e-02,
754,1.20e-02,-8.00e-03,
755,-1.60e-02,1.40e-02,
756,1.20e-02,1.40e-02,
757,-1.60e-02,-8.00e-03,
758,1.20e-02,1.40e-02,
759,-1.60e-02,-8.00e-03,
760,2.64e-01,2.04e-01,
761,-2.04e-01,-1.48e-01,
762,-1.60e-02,1.40e-02,
763,1.60e-02,-8.00e-03,
764,1.20e-02,1.40e-02,
765,-1.60e-02,-8.00e-03,
766,1.20e-02,-8.00e-03,
767,-1.60e-02,1.40e-02,
768,1.20e-02,-8.00e-03,
769,-1.60e-02,1.40e-02,
770,-1.60e-02,1.40e-02,
771,1.60e-02,-1.00e-02,
772,1.20e-02,-8.00e-03,
773,-1.60e-02,1.40e-02,
774,-1.60e-02,-8.00e-03,
775,1.60e-02,1.40e-02,
776,1.20e-02,-1.00e-02,
777,-1.60e-02,1.40e-02,
778,-1.60e-02,-8.00e-03,
779,1.60e-02,1.60e-02,
780,1.20e-02,-8.00e-03,
781,-1.60e-02,1.40e-02,
782,1.20e-02,-1.00e-02,
783,-1.60e-02,1.40e-02,
784,1.20e-02,-1.00e-02,
785,-1.60e-02,1.60e-02,
786,4.08e-01,-1.52e-01,
787,-3.80e-01,2.56e-01,
788,1.60e-02,1.40e-02,
789,-1.60e-02,-1.00e-02,
790,-1.60e-02,-8.00e-03,
791,1.60e-02,1.40e-02,
792,-1.60e-02,-8.00e-03,
793,1.60e-02,1.40e-02,
794,-1.20e-02,-8.00e-03,
795,1.60e-02,1.40e-02,
796,1.20e-02,-8.00e-03,
797,-1.60e-02,1.40e-02,
798,1.20e-02,-8.00e-03,
799,-1.60e-02,1.40e-02,
800,1.20e-02,1.40e-02,
801,-1.60e-02,-1.00e-02,
802,1.60e-02,-8.00e-03,
803,-1.60e-02,1.60e-02,
804,1.20e-02,-8.00e-03,
805,-1.60e-02,1.40e-02,
806,2.76e-01,2.56e-01,
807,-3.92e-01,-1.56e-01,
808,1.60e-02,-8.00e-03,
809,-1.60e-02,1.40e-02,
810,1.20e-02,-8.00e-03,
811,-1.60e-02,1.40e-02,
812,-1.20e-02,1.40e-02,
813,1.60e-02,-8.00e-03,
814,-1.20e-02,-8.00e-03,
815,1.20e-02,1.40e-02,
816,-1.60e-02,-8.00e-03,
817,1.60e-02,1.40e-02,
818,1.20e-02,-8.00e-03,
819,-1.60e-02,1.40e-02,
820,1.60e-02,-8.00e-03,
821,-1.60e-02,1.40e-02,
822,1.20e-02,1.40e-02,
823,-1.60e-02,-8.00e-03,
824,1.20e-02,-8.00e-03,
825,-1.60e-02,1.40e-02,
826,1.20e-02,1.40e-02,
827,-1.60e-02,-8.00e-03,
828,1.20e-02,1.40e-02,
829,-1.60e-02,-8.00e-03,
830,1.20e-02,-8.00e-03,
831,-1.60e-02,1.40e-02,
832,-5.60e-02,1.82e-01,
833,1.60e-02,-8.80e-02,
