Motor_Data/MOTOR_3_ON/time domain/NewFile15(1).csv

X,CH1,CH2,Start,Increment,
Sequence,Volt,Volt,-3.000000e-02,5.000000e-05
0,3.12e-01,-7.00e-02,
1,-3.20e-01,9.40e-02,
2,1.20e-02,-1.00e-02,
3,-1.60e-02,1.40e-02,
4,1.20e-02,-8.00e-03,
5,-1.60e-02,1.20e-02,
6,1.20e-02,1.20e-02,
7,-1.60e-02,-1.00e-02,
8,1.20e-02,-1.00e-02,
9,-1.60e-02,1.40e-02,
10,1.20e-02,-1.00e-02,
11,-1.60e-02,1.40e-02,
12,1.20e-02,1.40e-02,
13,-1.60e-02,-8.00e-03,
14,1.20e-02,-8.00e-03,
15,-1.60e-02,1.40e-02,
16,1.20e-02,-8.00e-03,
17,-1.60e-02,1.40e-02,
18,1.20e-02,1.40e-02,
19,-1.60e-02,-8.00e-03,
20,1.20e-02,1.40e-02,
21,-1.60e-02,-1.00e-02,
22,-1.60e-02,-8.00e-03,
23,1.20e-02,1.40e-02,
24,1.20e-02,-1.00e-02,
25,-1.60e-02,1.40e-02,
26,-1.60e-02,-8.00e-03,
27,1.20e-02,1.40e-02,
28,1.20e-02,6.80e-02,
29,-5.20e-02,-7.60e-02,
30,-4.92e-01,-2.54e-01,
31,4.64e-01,2.24e-01,
32,1.20e-02,1.40e-02,
33,-1.60e-02,-1.00e-02,
34,-1.60e-02,-8.00e-03,
35,1.20e-02,1.40e-02,
36,-1.60e-02,-8.00e-03,
37,1.20e-02,1.40e-02,
38,-1.60e-02,1.40e-02,
39,1.20e-02,-8.00e-03,
40,1.20e-02,-8.00e-03,
41,-1.60e-02,1.40e-02,
42,1.20e-02,-8.00e-03,
43,-1.60e-02,1.40e-02,
44,1.20e-02,1.40e-02,
45,-1.60e-02,-1.00e-02,
46,1.20e-02,1.40e-02,
47,-1.60e-02,-8.00e-03,
48,-2.92e-01,-1.74e-01,
49,3.64e-01,2.12e-01,
50,2.08e-01,-2.14e-01,
51,-2.48e-01,1.46e-01,
52,1.20e-02,-8.00e-03,
53,-1.60e-02,1.40e-02,
54,1.20e-02,-8.00e-03,
55,-1.60e-02,1.40e-02,
56,1.20e-02,-8.00e-03,
57,-1.60e-02,1.40e-02,
58,1.20e-02,1.40e-02,
59,-1.60e-02,-8.00e-03,
60,1.20e-02,1.40e-02,
61,-1.60e-02,-1.00e-02,
62,1.20e-02,1.40e-02,
63,-1.60e-02,-1.00e-02,
64,1.20e-02,-8.00e-03,
65,-1.60e-02,1.40e-02,
66,1.20e-02,1.40e-02,
67,-1.60e-02,-8.00e-03,
68,1.20e-02,-8.00e-03,
69,-1.60e-02,1.40e-02,
70,1.20e-02,-8.00e-03,
71,-1.60e-02,1.40e-02,
72,1.20e-02,1.40e-02,
73,-1.60e-02,-8.00e-03,
74,-1.60e-02,-8.00e-03,
75,1.20e-02,1.40e-02,
76,4.72e-01,2.04e-01,
77,-1.72e-01,-2.54e-01,
78,1.20e-02,1.40e-02,
79,-1.60e-02,-8.00e-03,
80,1.20e-02,1.40e-02,
81,-1.60e-02,-8.00e-03,
82,1.20e-02,-8.00e-03,
83,-1.60e-02,1.40e-02,
84,1.20e-02,1.40e-02,
85,-1.60e-02,-1.00e-02,
86,1.20e-02,-8.00e-03,
87,-1.60e-02,1.40e-02,
88,1.20e-02,1.40e-02,
89,-1.60e-02,-1.00e-02,
90,1.20e-02,-1.00e-02,
91,-1.60e-02,1.40e-02,
92,1.20e-02,1.40e-02,
93,-1.60e-02,-1.00e-02,
94,1.20e-02,1.40e-02,
95,-1.60e-02,-8.00e-03,
96,3.80e-01,-2.54e-01,
97,-4.04e-01,1.10e-01,
98,1.20e-02,-8.00e-03,
99,-1.60e-02,1.40e-02,
100,1.20e-02,1.40e-02,
101,-1.60e-02,-1.00e-02,
102,1.20e-02,-8.00e-03,
103,-1.60e-02,1.40e-02,
104,-1.60e-02,1.40e-02,
105,1.20e-02,-1.00e-02,
106,1.20e-02,1.40e-02,
107,-2.00e-02,-8.00e-03,
108,1.20e-02,-1.00e-02,
109,-1.60e-02,1.40e-02,
110,1.20e-02,-8.00e-03,
111,-1.60e-02,1.40e-02,
112,1.20e-02,-8.00e-03,
113,-1.60e-02,1.40e-02,
114,1.20e-02,-8.00e-03,
115,-1.60e-02,1.40e-02,
116,1.20e-02,-8.00e-03,
117,-1.60e-02,1.40e-02,
118,1.20e-02,1.40e-02,
119,-1.60e-02,-1.00e-02,
120,1.20e-02,-8.00e-03,
121,-1.60e-02,1.40e-02,
122,-4.80e-02,6.20e-02,
123,2.80e-02,-1.60e-02,
124,-5.48e-01,2.56e-01,
125,4.72e-01,-2.54e-01,
126,-1.60e-02,-8.00e-03,
127,1.60e-02,1.40e-02,
128,1.20e-02,-8.00e-03,
129,-1.60e-02,1.40e-02,
130,1.20e-02,1.40e-02,
131,-1.60e-02,-8.00e-03,
132,1.20e-02,-8.00e-03,
133,-1.60e-02,1.40e-02,
134,1.20e-02,1.20e-02,
135,-1.60e-02,-8.00e-03,
136,1.20e-02,-1.00e-02,
137,-1.60e-02,1.40e-02,
138,1.60e-02,-8.00e-03,
139,-1.60e-02,1.40e-02,
140,1.20e-02,-8.00e-03,
141,-1.60e-02,1.40e-02,
142,1.80e-01,1.68e-01,
143,-1.84e-01,-1.54e-01,
144,1.20e-02,1.40e-02,
145,-1.60e-02,-1.00e-02,
146,1.20e-02,1.40e-02,
147,-1.60e-02,-8.00e-03,
148,1.20e-02,-1.00e-02,
149,-1.60e-02,1.40e-02,
150,-1.60e-02,-8.00e-03,
151,1.20e-02,1.40e-02,
152,1.20e-02,-8.00e-03,
153,-1.60e-02,1.40e-02,
154,-1.60e-02,1.40e-02,
155,1.20e-02,-1.00e-02,
156,1.20e-02,1.40e-02,
157,-1.60e-02,-1.00e-02,
158,-1.60e-02,-1.00e-02,
159,1.20e-02,1.40e-02,
160,1.20e-02,-1.00e-02,
161,-1.60e-02,1.40e-02,
162,1.20e-02,-8.00e-03,
163,-1.60e-02,1.40e-02,
164,1.20e-02,1.40e-02,
165,-1.60e-02,-1.00e-02,
166,1.20e-02,-8.00e-03,
167,-1.60e-02,1.40e-02,
168,1.20e-02,1.40e-02,
169,-1.60e-02,-8.00e-03,
170,1.20e-02,1.40e-02,
171,-1.60e-02,-8.00e-03,
172,-5.24e-01,2.56e-01,
173,4.08e-01,-2.54e-01,
174,1.20e-02,1.60e-02,
175,-1.60e-02,-8.00e-03,
176,1.20e-02,-8.00e-03,
177,-1.60e-02,1.40e-02,
178,1.20e-02,1.40e-02,
179,-1.60e-02,-1.00e-02,
180,1.20e-02,1.60e-02,
181,-1.60e-02,-1.00e-02,
182,1.20e-02,1.20e-02,
183,-1.60e-02,-8.00e-03,
184,1.20e-02,-8.00e-03,
185,-1.60e-02,1.40e-02,
186,1.20e-02,-8.00e-03,
187,-1.60e-02,1.40e-02,
188,-1.60e-02,-8.00e-03,
189,1.60e-02,1.40e-02,
190,-1.60e-02,1.40e-02,
191,1.20e-02,-1.00e-02,
192,-3.52e-01,-2.54e-01,
193,2.04e-01,2.56e-01,
194,1.20e-02,-8.00e-03,
195,-1.60e-02,1.40e-02,
196,1.20e-02,1.40e-02,
197,-1.60e-02,-1.00e-02,
198,-1.60e-02,-8.00e-03,
199,1.20e-02,1.40e-02,
200,1.20e-02,1.40e-02,
201,-1.60e-02,-8.00e-03,
202,-1.60e-02,1.40e-02,
203,1.20e-02,-1.00e-02,
204,1.20e-02,1.40e-02,
205,-1.60e-02,-1.00e-02,
206,1.20e-02,-1.00e-02,
207,-1.60e-02,1.40e-02,
208,1.20e-02,-8.00e-03,
209,-1.60e-02,1.40e-02,
210,1.20e-02,-8.00e-03,
211,-1.60e-02,1.40e-02,
212,-1.60e-02,-8.00e-03,
213,1.20e-02,1.40e-02,
214,1.20e-02,-8.00e-03,
215,-1.60e-02,1.40e-02,
216,1.20e-02,1.40e-02,
217,-1.60e-02,-8.00e-03,
218,3.96e-01,-8.00e-03,
219,-3.08e-01,2.56e-01,
220,1.20e-02,1.40e-02,
221,-1.60e-02,-1.00e-02,
222,1.20e-02,-1.00e-02,
223,-2.00e-02,1.60e-02,
224,1.20e-02,-8.00e-03,
225,-1.60e-02,1.40e-02,
226,1.20e-02,-1.00e-02,
227,-1.60e-02,1.40e-02,
228,-1.60e-02,-8.00e-03,
229,1.20e-02,1.40e-02,
230,1.20e-02,-8.00e-03,
231,-1.60e-02,1.40e-02,
232,1.20e-02,1.20e-02,
233,-1.60e-02,-1.00e-02,
234,1.20e-02,-8.00e-03,
235,-1.60e-02,1.40e-02,
236,-1.60e-02,1.40e-02,
237,1.20e-02,-1.00e-02,
238,-7.60e-02,-1.60e-02,
239,3.28e-01,1.98e-01,
240,-3.60e-01,-2.42e-01,
241,3.32e-01,1.32e-01,
242,1.20e-02,-1.00e-02,
243,-1.60e-02,1.60e-02,
244,-1.60e-02,-8.00e-03,
245,1.20e-02,1.40e-02,
246,1.20e-02,1.40e-02,
247,-1.60e-02,-1.00e-02,
248,1.20e-02,1.40e-02,
249,-1.60e-02,-1.00e-02,
250,1.20e-02,-8.00e-03,
251,-1.60e-02,1.40e-02,
252,1.20e-02,-8.00e-03,
253,-1.60e-02,1.40e-02,
254,1.20e-02,1.40e-02,
255,-1.60e-02,-1.00e-02,
256,1.20e-02,-1.00e-02,
257,-1.60e-02,1.40e-02,
258,1.20e-02,1.40e-02,
259,-1.60e-02,-1.00e-02,
260,-1.60e-02,1.40e-02,
261,1.20e-02,-1.00e-02,
262,-1.60e-02,-1.00e-02,
263,1.60e-02,1.40e-02,
264,1.20e-02,1.40e-02,
265,-1.60e-02,-1.00e-02,
266,-3.20e-01,2.56e-01,
267,3.88e-01,-2.54e-01,
268,2.60e-01,-2.54e-01,
269,-4.16e-01,2.56e-01,
270,-1.60e-02,-1.00e-02,
271,1.20e-02,1.40e-02,
272,-1.60e-02,-8.00e-03,
273,1.20e-02,1.40e-02,
274,1.20e-02,-1.00e-02,
275,-1.60e-02,1.40e-02,
276,1.20e-02,-1.00e-02,
277,-1.60e-02,1.40e-02,
278,1.20e-02,-8.00e-03,
279,-1.60e-02,1.20e-02,
280,1.20e-02,-1.00e-02,
281,-1.60e-02,1.40e-02,
282,1.20e-02,1.20e-02,
283,-1.60e-02,-1.00e-02,
284,2.04e-01,-7.80e-02,
285,-2.16e-01,8.00e-02,
286,1.20e-02,-8.00e-03,
287,-1.60e-02,1.20e-02,
288,1.20e-02,-1.00e-02,
289,-1.60e-02,1.40e-02,
290,-1.60e-02,1.20e-02,
291,1.60e-02,-1.00e-02,
292,1.20e-02,1.40e-02,
293,-1.60e-02,-1.00e-02,
294,-1.60e-02,-1.00e-02,
295,1.20e-02,1.40e-02,
296,1.20e-02,-1.00e-02,
297,-1.60e-02,1.40e-02,
298,1.20e-02,1.40e-02,
299,-1.60e-02,-1.00e-02,
300,1.20e-02,1.20e-02,
301,-1.60e-02,-1.00e-02,
302,-1.60e-02,1.20e-02,
303,1.20e-02,-1.00e-02,
304,1.20e-02,-8.00e-03,
305,-1.60e-02,1.20e-02,
306,-1.60e-02,-8.00e-03,
307,1.20e-02,1.40e-02,
308,1.20e-02,-1.00e-02,
309,-1.60e-02,1.40e-02,
310,1.20e-02,1.40e-02,
311,-1.60e-02,-1.00e-02,
312,1.20e-02,-1.04e-01,
313,-8.80e-02,9.20e-02,
314,-4.56e-01,2.56e-01,
315,4.72e-01,-2.54e-01,
316,1.20e-02,-8.00e-03,
317,-1.60e-02,1.40e-02,
318,1.20e-02,-8.00e-03,
319,-1.60e-02,1.40e-02,
320,1.20e-02,-8.00e-03,
321,-1.60e-02,1.40e-02,
322,1.20e-02,-8.00e-03,
323,-1.60e-02,1.20e-02,
324,1.20e-02,1.20e-02,
325,-1.60e-02,-1.00e-02,
326,1.20e-02,-1.00e-02,
327,-1.60e-02,1.40e-02,
328,1.20e-02,-8.00e-03,
329,-1.60e-02,1.40e-02,
330,1.20e-02,-8.00e-03,
331,-1.60e-02,1.40e-02,
332,1.20e-02,1.40e-02,
333,-1.60e-02,-1.00e-02,
334,2.20e-01,-2.54e-01,
335,-2.40e-01,1.86e-01,
336,1.20e-02,1.40e-02,
337,-1.60e-02,-1.00e-02,
338,1.20e-02,-8.00e-03,
339,-1.60e-02,1.40e-02,
340,1.20e-02,-1.00e-02,
341,-1.60e-02,1.40e-02,
342,-1.60e-02,-8.00e-03,
343,1.20e-02,1.40e-02,
344,1.20e-02,1.20e-02,
345,-1.60e-02,-1.00e-02,
346,1.20e-02,-8.00e-03,
347,-1.60e-02,1.40e-02,
348,1.20e-02,1.40e-02,
349,-1.60e-02,-1.00e-02,
350,1.20e-02,1.40e-02,
351,-1.60e-02,-1.00e-02,
352,1.20e-02,-8.00e-03,
353,-1.60e-02,1.40e-02,
354,1.20e-02,-8.00e-03,
355,-1.60e-02,1.40e-02,
356,1.20e-02,-8.00e-03,
357,-1.60e-02,1.60e-02,
358,-1.60e-02,-1.00e-02,
359,1.20e-02,1.40e-02,
360,-4.32e-01,-2.54e-01,
361,4.32e-01,2.56e-01,
362,1.20e-02,-1.00e-02,
363,-1.60e-02,1.40e-02,
364,-1.60e-02,-1.00e-02,
365,1.20e-02,1.40e-02,
366,1.20e-02,-8.00e-03,
367,-1.60e-02,1.40e-02,
368,1.20e-02,-1.00e-02,
369,-1.60e-02,1.40e-02,
370,-1.60e-02,-8.00e-03,
371,1.20e-02,1.40e-02,
372,-1.60e-02,1.40e-02,
373,1.20e-02,-1.00e-02,
374,-1.60e-02,-1.00e-02,
375,1.20e-02,1.20e-02,
376,1.20e-02,-1.00e-02,
377,-1.60e-02,1.40e-02,
378,-1.60e-02,1.40e-02,
379,1.20e-02,-8.00e-03,
380,1.20e-02,-8.00e-03,
381,-1.60e-02,1.20e-02,
382,3.32e-01,2.56e-01,
383,-3.12e-01,-2.54e-01,
384,1.20e-02,-8.00e-03,
385,-1.60e-02,1.40e-02,
386,1.20e-02,-1.00e-02,
387,-1.60e-02,1.40e-02,
388,1.20e-02,1.20e-02,
389,-1.60e-02,-1.00e-02,
390,1.20e-02,-8.00e-03,
391,-1.60e-02,1.40e-02,
392,-1.60e-02,-8.00e-03,
393,1.20e-02,1.40e-02,
394,1.20e-02,1.40e-02,
395,-1.60e-02,-1.00e-02,
396,-1.60e-02,-1.00e-02,
397,1.20e-02,1.40e-02,
398,1.20e-02,1.40e-02,
399,-1.60e-02,-1.00e-02,
400,1.20e-02,-8.00e-03,
401,-1.60e-02,1.40e-02,
402,-1.60e-02,1.40e-02,
403,1.20e-02,-1.00e-02,
404,-1.60e-02,-1.00e-02,
405,1.20e-02,1.40e-02,
406,1.20e-02,-8.00e-03,
407,-1.60e-02,1.40e-02,
408,1.20e-02,1.40e-02,
409,-3.60e-02,-1.00e-02,
410,4.72e-01,2.56e-01,
411,-4.80e-01,-2.54e-01,
412,1.20e-02,-1.00e-02,
413,-1.60e-02,1.40e-02,
414,-1.60e-02,-1.00e-02,
415,1.20e-02,1.40e-02,
416,1.20e-02,-1.00e-02,
417,-1.60e-02,1.40e-02,
418,1.20e-02,-1.00e-02,
419,-1.60e-02,1.40e-02,
420,-1.60e-02,-8.00e-03,
421,1.20e-02,1.20e-02,
422,-1.60e-02,-1.20e-02,
423,1.20e-02,1.40e-02,
424,-1.60e-02,1.20e-02,
425,1.20e-02,-8.00e-03,
426,-2.84e-01,-1.48e-01,
427,2.84e-01,1.82e-01,
428,1.20e-02,-1.00e-02,
429,-1.60e-02,1.40e-02,
430,1.20e-02,-8.00e-03,
431,-1.60e-02,1.40e-02,
432,-1.60e-02,-8.00e-03,
433,1.20e-02,1.40e-02,
434,1.20e-02,1.20e-02,
435,-1.60e-02,-8.00e-03,
436,1.20e-02,1.40e-02,
437,-1.60e-02,-8.00e-03,
438,1.20e-02,-8.00e-03,
439,-1.60e-02,1.40e-02,
440,1.20e-02,-8.00e-03,
441,-1.60e-02,1.60e-02,
442,1.20e-02,1.40e-02,
443,-1.60e-02,-1.00e-02,
444,1.20e-02,-8.00e-03,
445,-1.60e-02,1.40e-02,
446,1.20e-02,-8.00e-03,
447,-1.60e-02,1.40e-02,
448,1.20e-02,-8.00e-03,
449,-1.60e-02,1.60e-02,
450,1.20e-02,-8.00e-03,
451,-1.60e-02,1.40e-02,
452,1.20e-02,-8.00e-03,
453,-1.60e-02,1.60e-02,
454,3.60e-02,-3.40e-02,
455,-7.20e-02,1.60e-02,
456,-5.48e-01,-2.00e-01,
457,4.20e-01,2.56e-01,
458,1.20e-02,-1.00e-02,
459,-1.60e-02,1.40e-02,
460,1.20e-02,1.40e-02,
461,-1.60e-02,-8.00e-03,
462,1.20e-02,-1.00e-02,
463,-1.60e-02,1.40e-02,
464,1.20e-02,-8.00e-03,
465,-1.60e-02,1.40e-02,
466,1.20e-02,1.40e-02,
467,-1.60e-02,-8.00e-03,
468,-1.60e-02,-1.00e-02,
469,1.20e-02,1.40e-02,
470,1.20e-02,1.40e-02,
471,-1.60e-02,-8.00e-03,
472,1.20e-02,1.40e-02,
473,-1.60e-02,-1.00e-02,
474,-1.60e-02,-1.00e-02,
475,1.20e-02,1.40e-02,
476,4.32e-01,-2.54e-01,
477,-2.20e-01,2.56e-01,
478,-1.60e-02,1.40e-02,
479,1.20e-02,-1.00e-02,
480,1.20e-02,-8.00e-03,
481,-1.60e-02,1.40e-02,
482,1.20e-02,1.40e-02,
483,-1.60e-02,-1.00e-02,
484,1.20e-02,-8.00e-03,
485,-1.60e-02,1.40e-02,
486,-1.60e-02,-8.00e-03,
487,1.20e-02,1.40e-02,
488,1.20e-02,1.40e-02,
489,-1.60e-02,-1.00e-02,
490,1.20e-02,-8.00e-03,
491,-1.60e-02,1.40e-02,
492,1.20e-02,1.40e-02,
493,-1.60e-02,-1.00e-02,
494,1.20e-02,1.40e-02,
495,-1.60e-02,-1.00e-02,
496,1.20e-02,-8.00e-03,
497,-1.60e-02,1.40e-02,
498,1.20e-02,-8.00e-03,
499,-1.20e-02,1.40e-02,
500,1.20e-02,1.60e-02,
501,-1.60e-02,-1.00e-02,
502,3.16e-01,2.56e-01,
503,-5.48e-01,-2.54e-01,
504,1.20e-02,-8.00e-03,
505,-1.60e-02,1.40e-02,
506,1.20e-02,-8.00e-03,
507,-1.60e-02,1.60e-02,
508,1.20e-02,1.40e-02,
509,-1.60e-02,-1.00e-02,
510,1.20e-02,-8.00e-03,
511,-1.60e-02,1.40e-02,
512,1.20e-02,1.40e-02,
513,-1.60e-02,-1.00e-02,
514,1.20e-02,1.20e-02,
515,-1.60e-02,-1.00e-02,
516,1.20e-02,-8.00e-03,
517,-1.60e-02,1.40e-02,
518,-1.60e-02,1.40e-02,
519,1.20e-02,-8.00e-03,
520,1.20e-02,1.40e-02,
521,-1.60e-02,-8.00e-03,
522,1.20e-02,-8.00e-03,
523,-1.60e-02,1.20e-02,
524,3.36e-01,2.56e-01,
525,-3.28e-01,-2.48e-01,
526,1.20e-02,-8.00e-03,
527,-1.60e-02,1.40e-02,
528,1.20e-02,-8.00e-03,
529,-1.60e-02,1.40e-02,
530,1.20e-02,1.40e-02,
531,-1.60e-02,-8.00e-03,
532,-1.60e-02,-8.00e-03,
533,1.20e-02,1.40e-02,
534,1.20e-02,-8.00e-03,
535,-1.60e-02,1.40e-02,
536,1.20e-02,-8.00e-03,
537,-1.60e-02,1.40e-02,
538,1.60e-02,-8.00e-03,
539,-1.60e-02,1.40e-02,
540,1.20e-02,-8.00e-03,
541,-1.60e-02,1.40e-02,
542,1.20e-02,1.60e-02,
543,-1.60e-02,-1.00e-02,
544,1.20e-02,1.40e-02,
545,-1.60e-02,-1.00e-02,
546,1.20e-02,-8.00e-03,
547,-1.60e-02,1.40e-02,
548,1.20e-02,1.40e-02,
549,-1.60e-02,-1.00e-02,
550,1.20e-02,-8.00e-03,
551,-1.60e-02,1.40e-02,
552,4.72e-01,-2.54e-01,
553,-5.48e-01,2.56e-01,
554,1.20e-02,1.40e-02,
555,-1.60e-02,-1.00e-02,
556,1.20e-02,-1.00e-02,
557,-1.60e-02,1.40e-02,
558,1.20e-02,1.40e-02,
559,-1.60e-02,-1.00e-02,
560,1.20e-02,1.40e-02,
561,-1.60e-02,-1.00e-02,
562,1.20e-02,1.40e-02,
563,-1.60e-02,-1.00e-02,
564,1.20e-02,1.40e-02,
565,-1.60e-02,-1.00e-02,
566,1.20e-02,-8.00e-03,
567,-1.60e-02,1.40e-02,
568,-1.60e-02,-1.00e-02,
569,5.60e-02,5.20e-02,
570,-2.08e-01,1.16e-01,
571,2.56e-01,-1.04e-01,
572,1.20e-02,-8.00e-03,
573,-1.60e-02,1.40e-02,
574,1.20e-02,1.40e-02,
575,-1.60e-02,-1.00e-02,
576,-1.60e-02,-8.00e-03,
577,1.20e-02,1.40e-02,
578,1.20e-02,1.40e-02,
579,-1.60e-02,-1.00e-02,
580,1.20e-02,-8.00e-03,
581,-1.60e-02,1.40e-02,
582,1.20e-02,-8.00e-03,
583,-1.60e-02,1.40e-02,
584,-1.60e-02,1.20e-02,
585,1.20e-02,-1.00e-02,
586,1.20e-02,1.40e-02,
587,-1.60e-02,-8.00e-03,
588,-1.60e-02,1.40e-02,
589,1.20e-02,-1.00e-02,
590,-1.60e-02,-1.00e-02,
591,1.20e-02,1.40e-02,
592,1.20e-02,1.20e-02,
593,-1.60e-02,-1.00e-02,
594,1.20e-02,-1.00e-02,
595,-1.60e-02,1.40e-02,
596,-1.60e-02,-1.00e-02,
597,1.20e-02,3.40e-02,
598,4.72e-01,2.56e-01,
599,-5.48e-01,-2.54e-01,
600,-4.68e-01,2.56e-01,
601,3.52e-01,-2.54e-01,
602,1.20e-02,-1.00e-02,
603,-1.60e-02,1.40e-02,
604,1.20e-02,-1.00e-02,
605,-1.60e-02,1.40e-02,
606,1.20e-02,-8.00e-03,
607,-2.00e-02,1.40e-02,
608,-1.60e-02,1.40e-02,
609,1.20e-02,-1.00e-02,
610,-1.60e-02,1.40e-02,
611,1.60e-02,-1.00e-02,
612,1.20e-02,-8.00e-03,
613,-1.60e-02,1.40e-02,
614,1.20e-02,1.40e-02,
615,-1.60e-02,-1.00e-02,
616,1.20e-02,-8.00e-03,
617,-1.60e-02,1.40e-02,
618,-3.88e-01,2.56e-01,
619,2.60e-01,-1.34e-01,
620,1.20e-02,-1.00e-02,
621,-1.60e-02,1.40e-02,
622,1.20e-02,1.20e-02,
623,-1.60e-02,-1.00e-02,
624,-1.60e-02,-1.00e-02,
625,1.60e-02,1.40e-02,
626,-1.60e-02,-1.00e-02,
627,1.20e-02,1.40e-02,
628,1.20e-02,-8.00e-03,
629,-1.60e-02,1.20e-02,
630,-1.60e-02,-1.00e-02,
631,1.60e-02,1.40e-02,
632,-1.60e-02,-1.00e-02,
633,1.20e-02,1.40e-02,
634,1.20e-02,-8.00e-03,
635,-1.60e-02,1.40e-02,
636,1.20e-02,1.40e-02,
637,-1.60e-02,-1.00e-02,
638,-1.60e-02,1.40e-02,
639,1.20e-02,-8.00e-03,
640,1.20e-02,-8.00e-03,
641,-1.60e-02,1.40e-02,
642,1.20e-02,-8.00e-03,
643,-1.60e-02,1.40e-02,
644,-4.96e-01,-2.54e-01,
645,4.72e-01,2.56e-01,
646,1.20e-02,1.40e-02,
647,-1.60e-02,-1.00e-02,
648,1.20e-02,-8.00e-03,
649,-1.60e-02,1.40e-02,
650,1.20e-02,-8.00e-03,
651,-1.60e-02,1.20e-02,
652,1.20e-02,-8.00e-03,
653,-1.60e-02,1.40e-02,
654,1.20e-02,1.20e-02,
655,-1.60e-02,-1.00e-02,
656,1.20e-02,1.20e-02,
657,-1.60e-02,-8.00e-03,
658,1.20e-02,-8.00e-03,
659,-1.60e-02,1.40e-02,
660,1.20e-02,-8.00e-03,
661,-1.60e-02,1.40e-02,
662,1.20e-02,-1.00e-02,
663,-1.60e-02,1.40e-02,
664,1.20e-02,1.40e-02,
665,-1.60e-02,-8.00e-03,
666,3.40e-01,-2.54e-01,
667,-3.88e-01,2.56e-01,
668,1.20e-02,-1.00e-02,
669,-1.60e-02,1.40e-02,
670,1.20e-02,-8.00e-03,
671,-1.60e-02,1.40e-02,
672,1.20e-02,1.40e-02,
673,-1.60e-02,-8.00e-03,
674,1.20e-02,-8.00e-03,
675,-2.00e-02,1.60e-02,
676,1.20e-02,-8.00e-03,
677,-1.60e-02,1.40e-02,
678,1.20e-02,1.40e-02,
679,-1.60e-02,-8.00e-03,
680,1.20e-02,1.40e-02,
681,-1.60e-02,-1.00e-02,
682,1.20e-02,1.60e-02,
683,-1.60e-02,-1.00e-02,
684,1.20e-02,-8.00e-03,
685,-1.60e-02,1.40e-02,
686,1.20e-02,1.40e-02,
687,-1.60e-02,-8.00e-03,
688,1.20e-02,-8.00e-03,
689,-1.60e-02,1.40e-02,
690,-1.60e-02,1.40e-02,
691,1.20e-02,-8.00e-03,
692,-1.60e-02,-2.00e-02,
693,4.80e-02,1.60e-02,
694,-5.48e-01,2.56e-01,
695,4.36e-01,-2.54e-01,
696,1.20e-02,1.40e-02,
697,-1.60e-02,-1.00e-02,
698,1.20e-02,1.40e-02,
699,-1.60e-02,-1.00e-02,
700,1.20e-02,1.40e-02,
701,-1.60e-02,-1.00e-02,
702,1.20e-02,-8.00e-03,
703,-1.60e-02,1.40e-02,
704,1.20e-02,1.40e-02,
705,-1.60e-02,-1.00e-02,
706,1.20e-02,-8.00e-03,
707,-1.60e-02,1.40e-02,
708,1.20e-02,-8.00e-03,
709,-1.60e-02,1.40e-02,
710,1.20e-02,-8.00e-03,
711,-1.60e-02,1.40e-02,
712,2.12e-01,-6.60e-02,
713,-1.40e-01,1.54e-01,
714,1.20e-02,1.20e-02,
715,-1.20e-02,-1.00e-02,
716,1.20e-02,-8.00e-03,
717,-1.60e-02,1.40e-02,
718,1.20e-02,1.40e-02,
719,-1.60e-02,-1.00e-02,
720,1.20e-02,1.40e-02,
721,-1.60e-02,-1.00e-02,
722,1.20e-02,1.40e-02,
723,-1.60e-02,-1.00e-02,
724,1.20e-02,1.40e-02,
725,-1.60e-02,-8.00e-03,
726,1.20e-02,-8.00e-03,
727,-1.60e-02,1.40e-02,
728,1.20e-02,-8.00e-03,
729,-1.60e-02,1.40e-02,
730,1.20e-02,1.40e-02,
731,-1.60e-02,-1.00e-02,
732,1.20e-02,-1.00e-02,
733,-1.60e-02,1.40e-02,
734,1.20e-02,-8.00e-03,
735,-1.60e-02,1.60e-02,
736,1.20e-02,1.40e-02,
737,-1.60e-02,-8.00e-03,
738,1.20e-02,1.40e-02,
739,-1.60e-02,-8.00e-03,
740,-7.60e-02,2.20e-01,
741,9.20e-02,-9.80e-02,
742,-4.04e-01,2.56e-01,
743,4.64e-01,-2.54e-01,
744,1.20e-02,1.40e-02,
745,-1.60e-02,-1.00e-02,
746,1.20e-02,-8.00e-03,
747,-1.60e-02,1.40e-02,
748,1.20e-02,-8.00e-03,
749,-1.60e-02,1.40e-02,
750,1.20e-02,1.40e-02,
751,-1.60e-02,-1.00e-02,
752,-1.60e-02,-8.00e-03,
753,1.20e-02,1.40e-02,
754,1.20e-02,-8.00e-03,
755,-1.60e-02,1.40e-02,
756,-1.60e-02,1.40e-02,
757,1.20e-02,-1.00e-02,
758,-1.60e-02,-1.00e-02,
759,1.60e-02,1.40e-02,
760,3.32e-01,2.56e-01,
761,-2.64e-01,-2.54e-01,
762,1.20e-02,1.40e-02,
763,-1.60e-02,-1.00e-02,
764,-1.60e-02,-8.00e-03,
765,1.60e-02,1.40e-02,
766,1.20e-02,-8.00e-03,
767,-2.00e-02,1.40e-02,
768,-1.60e-02,-8.00e-03,
769,1.60e-02,1.40e-02,
770,-1.60e-02,1.40e-02,
771,1.60e-02,-8.00e-03,
772,1.20e-02,1.40e-02,
773,-1.60e-02,-8.00e-03,
774,-1.60e-02,1.40e-02,
775,1.20e-02,-1.00e-02,
776,1.20e-02,-8.00e-03,
777,-1.60e-02,1.60e-02,
778,1.20e-02,-8.00e-03,
779,-1.60e-02,1.40e-02,
780,-1.60e-02,-8.00e-03,
781,1.60e-02,1.40e-02,
782,1.20e-02,-8.00e-03,
783,-1.60e-02,1.40e-02,
784,-1.60e-02,-8.00e-03,
785,1.20e-02,1.40e-02,
786,-4.96e-01,-2.54e-01,
787,3.20e-01,2.56e-01,
788,1.20e-02,-1.00e-02,
789,-1.60e-02,1.40e-02,
790,1.20e-02,1.40e-02,
791,-1.60e-02,-1.00e-02,
792,-1.60e-02,1.40e-02,
793,1.20e-02,-8.00e-03,
794,1.20e-02,-8.00e-03,
795,-1.60e-02,1.40e-02,
796,1.20e-02,1.40e-02,
797,-1.60e-02,-1.00e-02,
798,1.20e-02,1.40e-02,
799,-1.60e-02,-8.00e-03,
800,1.20e-02,-8.00e-03,
801,-1.60e-02,1.40e-02,
802,1.20e-02,1.40e-02,
803,-1.60e-02,-1.00e-02,
804,-1.60e-02,-1.00e-02,
805,1.60e-02,1.40e-02,
806,1.20e-02,1.40e-02,
807,-1.60e-02,-8.00e-03,
808,-2.72e-01,-2.42e-01,
809,2.44e-01,2.56e-01,
810,1.20e-02,-8.00e-03,
811,-1.60e-02,1.40e-02,
812,1.20e-02,-8.00e-03,
813,-1.60e-02,1.40e-02,
814,1.20e-02,1.40e-02,
815,-1.60e-02,-1.20e-02,
816,1.20e-02,-8.00e-03,
817,-1.60e-02,1.40e-02,
818,1.20e-02,-8.00e-03,
819,-1.60e-02,1.40e-02,
820,1.20e-02,1.40e-02,
821,-1.60e-02,-8.00e-03,
822,1.20e-02,-8.00e-03,
823,-1.60e-02,1.40e-02,
824,1.20e-02,1.20e-02,
825,-1.60e-02,-1.00e-02,
826,1.20e-02,-8.00e-03,
827,-1.60e-02,1.40e-02,
828,1.20e-02,1.40e-02,
829,-1.60e-02,-8.00e-03,
830,1.20e-02,1.20e-02,
831,-1.60e-02,-8.00e-03,
832,1.20e-02,-1.00e-02,
833,-1.60e-02,1.40e-02,
