Motor_Data/MOTOR_3_ON/time domain/NewFile4(1).csv

X,CH1,CH2,Start,Increment,
Sequence,Volt,Volt,-3.000000e-02,5.000000e-05
0,1.20e-02,1.40e-02,
1,-1.60e-02,-1.00e-02,
2,-1.60e-02,-8.00e-03,
3,1.60e-02,1.40e-02,
4,1.20e-02,-8.00e-03,
5,-1.60e-02,1.60e-02,
6,1.60e-02,1.40e-02,
7,-1.60e-02,-8.00e-03,
8,1.20e-02,1.60e-02,
9,-1.60e-02,-1.00e-02,
10,1.20e-02,-8.00e-03,
11,-1.60e-02,1.40e-02,
12,1.20e-02,1.40e-02,
13,-1.60e-02,-1.00e-02,
14,1.20e-02,-8.00e-03,
15,-1.60e-02,1.40e-02,
16,1.20e-02,-8.00e-03,
17,-1.60e-02,1.40e-02,
18,4.72e-01,-2.54e-01,
19,-5.48e-01,2.56e-01,
20,1.20e-02,1.40e-02,
21,-1.60e-02,-1.00e-02,
22,-1.60e-02,-8.00e-03,
23,1.60e-02,1.40e-02,
24,1.20e-02,1.40e-02,
25,-1.60e-02,-8.00e-03,
26,1.20e-02,1.40e-02,
27,-1.60e-02,-1.00e-02,
28,1.20e-02,1.40e-02,
29,-1.60e-02,-8.00e-03,
30,1.20e-02,-8.00e-03,
31,-1.60e-02,1.40e-02,
32,-1.60e-02,1.40e-02,
33,1.20e-02,-8.00e-03,
34,-2.64e-01,1.24e-01,
35,2.28e-01,-1.22e-01,
36,1.20e-02,1.40e-02,
37,-1.60e-02,-8.00e-03,
38,1.20e-02,1.40e-02,
39,-1.60e-02,-8.00e-03,
40,1.20e-02,1.40e-02,
41,-1.60e-02,-8.00e-03,
42,1.20e-02,1.40e-02,
43,-1.60e-02,-8.00e-03,
44,1.20e-02,-8.00e-03,
45,-1.60e-02,1.60e-02,
46,1.20e-02,-8.00e-03,
47,-1.60e-02,1.40e-02,
48,1.20e-02,1.40e-02,
49,-1.60e-02,-8.00e-03,
50,1.20e-02,1.40e-02,
51,-1.60e-02,-1.00e-02,
52,1.20e-02,-8.00e-03,
53,-1.60e-02,1.40e-02,
54,1.20e-02,1.40e-02,
55,-1.60e-02,-1.00e-02,
56,1.20e-02,-8.00e-03,
57,-1.60e-02,1.40e-02,
58,-1.60e-02,-8.00e-03,
59,1.20e-02,1.60e-02,
60,-1.60e-02,1.40e-02,
61,1.20e-02,-1.00e-02,
62,-1.60e-02,-8.00e-03,
63,1.60e-02,1.40e-02,
64,4.72e-01,-2.54e-01,
65,-5.48e-01,2.56e-01,
66,1.20e-02,-1.00e-02,
67,-1.60e-02,1.60e-02,
68,1.60e-02,-8.00e-03,
69,-1.60e-02,1.40e-02,
70,1.20e-02,1.60e-02,
71,-1.60e-02,-8.00e-03,
72,-1.60e-02,-8.00e-03,
73,1.20e-02,1.60e-02,
74,1.20e-02,-8.00e-03,
75,-1.60e-02,1.40e-02,
76,1.20e-02,-8.00e-03,
77,-1.60e-02,1.60e-02,
78,1.20e-02,1.40e-02,
79,-1.20e-02,-8.00e-03,
80,1.20e-02,1.40e-02,
81,-1.60e-02,-8.00e-03,
82,1.20e-02,1.40e-02,
83,-1.60e-02,-1.00e-02,
84,-2.76e-01,2.56e-01,
85,3.92e-01,-2.54e-01,
86,-1.60e-02,-8.00e-03,
87,1.20e-02,1.60e-02,
88,1.20e-02,1.40e-02,
89,-1.60e-02,-1.00e-02,
90,1.20e-02,1.40e-02,
91,-1.60e-02,-1.00e-02,
92,1.20e-02,-8.00e-03,
93,-1.60e-02,1.40e-02,
94,1.20e-02,-8.00e-03,
95,-1.60e-02,1.40e-02,
96,1.20e-02,1.40e-02,
97,-1.60e-02,-8.00e-03,
98,1.20e-02,1.40e-02,
99,-1.60e-02,-8.00e-03,
100,1.20e-02,-8.00e-03,
101,-1.60e-02,1.60e-02,
102,1.20e-02,1.40e-02,
103,-1.60e-02,-1.00e-02,
104,-1.20e-02,-8.00e-03,
105,1.20e-02,1.60e-02,
106,1.20e-02,1.40e-02,
107,-1.60e-02,-8.00e-03,
108,1.20e-02,1.40e-02,
109,-1.60e-02,-8.00e-03,
110,4.72e-01,2.56e-01,
111,-3.52e-01,-2.54e-01,
112,1.20e-02,1.40e-02,
113,-1.60e-02,-1.00e-02,
114,1.20e-02,-8.00e-03,
115,-1.60e-02,1.40e-02,
116,1.20e-02,1.40e-02,
117,-1.60e-02,-8.00e-03,
118,-1.60e-02,1.40e-02,
119,1.20e-02,-8.00e-03,
120,1.20e-02,1.40e-02,
121,-1.60e-02,-8.00e-03,
122,1.20e-02,1.40e-02,
123,-1.60e-02,-1.00e-02,
124,1.20e-02,1.40e-02,
125,-1.60e-02,-1.00e-02,
126,-1.60e-02,-8.00e-03,
127,1.20e-02,1.40e-02,
128,1.20e-02,1.40e-02,
129,-1.60e-02,-1.00e-02,
130,-3.92e-01,2.56e-01,
131,3.76e-01,-2.54e-01,
132,1.20e-02,-8.00e-03,
133,-1.60e-02,1.40e-02,
134,1.20e-02,-8.00e-03,
135,-1.60e-02,1.40e-02,
136,1.20e-02,1.40e-02,
137,-1.60e-02,-1.00e-02,
138,1.20e-02,-8.00e-03,
139,-1.60e-02,1.40e-02,
140,1.20e-02,-8.00e-03,
141,-1.60e-02,1.40e-02,
142,1.20e-02,1.40e-02,
143,-1.60e-02,-8.00e-03,
144,1.20e-02,1.40e-02,
145,-1.60e-02,-1.00e-02,
146,1.20e-02,-8.00e-03,
147,-1.60e-02,1.40e-02,
148,1.20e-02,-8.00e-03,
149,-1.60e-02,1.40e-02,
150,1.20e-02,-1.00e-02,
151,-1.60e-02,1.40e-02,
152,1.20e-02,1.40e-02,
153,-1.60e-02,-1.00e-02,
154,1.20e-02,1.40e-02,
155,-1.60e-02,-1.00e-02,
156,1.20e-02,-8.00e-03,
157,-1.60e-02,1.40e-02,
158,-3.96e-01,-2.54e-01,
159,4.72e-01,2.56e-01,
160,-1.60e-02,1.20e-02,
161,1.60e-02,-1.00e-02,
162,-1.60e-02,-8.00e-03,
163,1.60e-02,1.40e-02,
164,1.20e-02,1.40e-02,
165,-1.60e-02,-1.00e-02,
166,1.20e-02,1.40e-02,
167,-1.60e-02,-1.00e-02,
168,1.20e-02,-8.00e-03,
169,-1.60e-02,1.40e-02,
170,-1.60e-02,-8.00e-03,
171,1.20e-02,1.40e-02,
172,1.20e-02,1.20e-02,
173,-1.60e-02,-8.00e-03,
174,1.20e-02,1.20e-02,
175,-1.60e-02,-8.00e-03,
176,2.48e-01,-1.16e-01,
177,-2.64e-01,1.22e-01,
178,1.20e-02,-1.00e-02,
179,-1.60e-02,1.40e-02,
180,1.20e-02,-1.00e-02,
181,-1.60e-02,1.40e-02,
182,1.20e-02,-1.00e-02,
183,-1.60e-02,1.40e-02,
184,1.20e-02,-8.00e-03,
185,-1.60e-02,1.40e-02,
186,1.20e-02,1.40e-02,
187,-1.60e-02,-1.00e-02,
188,1.20e-02,1.40e-02,
189,-1.60e-02,-8.00e-03,
190,-1.60e-02,1.40e-02,
191,1.60e-02,-1.00e-02,
192,1.20e-02,-8.00e-03,
193,-1.60e-02,1.40e-02,
194,1.20e-02,1.40e-02,
195,-1.60e-02,-8.00e-03,
196,-1.60e-02,1.40e-02,
197,1.60e-02,-8.00e-03,
198,1.20e-02,1.40e-02,
199,-1.60e-02,-8.00e-03,
200,1.20e-02,1.40e-02,
201,-1.60e-02,-8.00e-03,
202,-1.60e-02,1.40e-02,
203,1.60e-02,-8.00e-03,
204,1.20e-02,1.40e-02,
205,-1.60e-02,-8.00e-03,
206,4.72e-01,-2.54e-01,
207,-5.48e-01,2.56e-01,
208,-1.60e-02,1.40e-02,
209,1.60e-02,-8.00e-03,
210,-1.60e-02,1.40e-02,
211,1.60e-02,-8.00e-03,
212,1.20e-02,1.40e-02,
213,-1.60e-02,-8.00e-03,
214,1.20e-02,1.40e-02,
215,-1.60e-02,-1.00e-02,
216,1.20e-02,1.40e-02,
217,-1.60e-02,-1.00e-02,
218,1.20e-02,1.40e-02,
219,-1.60e-02,-1.00e-02,
220,1.20e-02,-8.00e-03,
221,-1.60e-02,1.40e-02,
222,1.20e-02,-8.00e-03,
223,-1.60e-02,1.40e-02,
224,3.48e-01,2.56e-01,
225,-2.40e-01,-2.54e-01,
226,1.20e-02,-8.00e-03,
227,-1.60e-02,1.40e-02,
228,1.20e-02,-8.00e-03,
229,-1.60e-02,1.40e-02,
230,1.20e-02,-8.00e-03,
231,-1.60e-02,1.40e-02,
232,1.20e-02,-1.00e-02,
233,-1.20e-02,1.60e-02,
234,1.20e-02,1.40e-02,
235,-1.60e-02,-8.00e-03,
236,1.20e-02,1.60e-02,
237,-1.60e-02,-8.00e-03,
238,-1.60e-02,1.40e-02,
239,1.60e-02,-8.00e-03,
240,1.20e-02,1.40e-02,
241,-1.60e-02,-8.00e-03,
242,1.20e-02,1.40e-02,
243,-1.60e-02,-8.00e-03,
244,1.20e-02,-8.00e-03,
245,-1.60e-02,1.40e-02,
246,1.60e-02,-8.00e-03,
247,-1.60e-02,1.60e-02,
248,1.20e-02,-8.00e-03,
249,-1.60e-02,1.60e-02,
250,4.72e-01,2.56e-01,
251,-5.48e-01,-2.54e-01,
252,1.20e-02,1.40e-02,
253,-1.60e-02,-8.00e-03,
254,1.20e-02,-8.00e-03,
255,-1.60e-02,1.40e-02,
256,1.20e-02,1.40e-02,
257,-1.60e-02,-1.00e-02,
258,1.20e-02,1.40e-02,
259,-1.60e-02,-8.00e-03,
260,1.20e-02,1.40e-02,
261,-1.60e-02,-8.00e-03,
262,1.20e-02,1.40e-02,
263,-1.60e-02,-8.00e-03,
264,1.20e-02,-8.00e-03,
265,-1.60e-02,1.40e-02,
266,1.20e-02,-8.00e-03,
267,-1.60e-02,1.40e-02,
268,1.20e-02,-8.00e-03,
269,-1.60e-02,1.40e-02,
270,-1.60e-02,-8.00e-03,
271,1.20e-02,1.40e-02,
272,3.16e-01,2.56e-01,
273,-2.40e-01,-2.46e-01,
274,1.20e-02,-8.00e-03,
275,-1.60e-02,1.40e-02,
276,1.20e-02,1.40e-02,
277,-1.60e-02,-8.00e-03,
278,1.20e-02,1.40e-02,
279,-1.60e-02,-8.00e-03,
280,1.20e-02,-8.00e-03,
281,-1.60e-02,1.40e-02,
282,1.20e-02,1.40e-02,
283,-1.60e-02,-8.00e-03,
284,1.20e-02,1.40e-02,
285,-1.60e-02,-1.00e-02,
286,1.20e-02,-8.00e-03,
287,-1.60e-02,1.40e-02,
288,-1.20e-02,-8.00e-03,
289,1.20e-02,1.40e-02,
290,1.20e-02,-8.00e-03,
291,-1.60e-02,1.40e-02,
292,1.20e-02,-8.00e-03,
293,-1.60e-02,1.40e-02,
294,1.20e-02,-8.00e-03,
295,-1.60e-02,1.40e-02,
296,-1.60e-02,-8.00e-03,
297,1.20e-02,1.40e-02,
298,1.20e-02,1.40e-02,
299,-1.60e-02,-8.00e-03,
300,-5.48e-01,2.56e-01,
301,4.72e-01,-2.54e-01,
302,1.20e-02,1.40e-02,
303,-1.60e-02,-1.00e-02,
304,1.20e-02,1.20e-02,
305,-1.60e-02,-8.00e-03,
306,-1.60e-02,-8.00e-03,
307,1.60e-02,1.40e-02,
308,1.20e-02,-8.00e-03,
309,-1.60e-02,1.60e-02,
310,-1.60e-02,1.40e-02,
311,1.20e-02,-8.00e-03,
312,1.20e-02,1.40e-02,
313,-1.60e-02,-1.00e-02,
314,1.20e-02,-8.00e-03,
315,-1.60e-02,1.20e-02,
316,2.16e-01,1.00e-01,
317,-9.60e-02,-1.82e-01,
318,1.60e-02,1.40e-02,
319,-1.60e-02,-1.00e-02,
320,1.20e-02,-1.00e-02,
321,-1.60e-02,1.40e-02,
322,1.20e-02,-1.00e-02,
323,-1.60e-02,1.40e-02,
324,1.20e-02,1.40e-02,
325,-1.60e-02,-1.00e-02,
326,1.20e-02,1.20e-02,
327,-1.60e-02,-1.00e-02,
328,1.20e-02,-8.00e-03,
329,-1.60e-02,1.40e-02,
330,1.20e-02,1.40e-02,
331,-1.60e-02,-8.00e-03,
332,1.20e-02,1.40e-02,
333,-1.60e-02,-8.00e-03,
334,1.20e-02,1.40e-02,
335,-1.60e-02,-8.00e-03,
336,-1.60e-02,-1.00e-02,
337,1.20e-02,1.40e-02,
338,1.20e-02,-8.00e-03,
339,-1.60e-02,1.40e-02,
340,1.20e-02,-8.00e-03,
341,-2.00e-02,1.40e-02,
342,1.20e-02,1.40e-02,
343,-1.60e-02,-8.00e-03,
344,1.20e-02,1.40e-02,
345,-1.60e-02,-1.00e-02,
346,-3.96e-01,-2.54e-01,
347,4.72e-01,2.56e-01,
348,1.20e-02,-8.00e-03,
349,-1.60e-02,1.40e-02,
350,1.20e-02,-8.00e-03,
351,-1.60e-02,1.40e-02,
352,1.20e-02,-8.00e-03,
353,-1.60e-02,1.40e-02,
354,1.20e-02,-8.00e-03,
355,-1.60e-02,1.40e-02,
356,-1.60e-02,1.40e-02,
357,1.20e-02,-1.00e-02,
358,-1.60e-02,1.40e-02,
359,1.20e-02,-1.00e-02,
360,1.20e-02,1.40e-02,
361,-1.60e-02,-1.00e-02,
362,1.20e-02,1.40e-02,
363,-1.60e-02,-1.00e-02,
364,1.20e-02,-8.00e-03,
365,-1.60e-02,1.40e-02,
366,-3.12e-01,-1.76e-01,
367,4.20e-01,2.56e-01,
368,1.20e-02,-8.00e-03,
369,-1.60e-02,1.40e-02,
370,1.20e-02,1.60e-02,
371,-2.00e-02,-1.00e-02,
372,1.20e-02,1.40e-02,
373,-1.60e-02,-8.00e-03,
374,1.20e-02,1.40e-02,
375,-1.60e-02,-1.00e-02,
376,1.20e-02,-8.00e-03,
377,-1.60e-02,1.60e-02,
378,1.20e-02,1.40e-02,
379,-1.60e-02,-8.00e-03,
380,1.20e-02,1.40e-02,
381,-1.60e-02,-8.00e-03,
382,1.20e-02,-8.00e-03,
383,-1.60e-02,1.40e-02,
384,1.20e-02,1.40e-02,
385,-1.60e-02,-8.00e-03,
386,1.20e-02,1.40e-02,
387,-1.60e-02,-8.00e-03,
388,1.20e-02,-1.00e-02,
389,-1.60e-02,1.40e-02,
390,-1.60e-02,1.40e-02,
391,1.20e-02,-1.00e-02,
392,-5.48e-01,2.56e-01,
393,4.72e-01,-2.54e-01,
394,1.20e-02,1.40e-02,
395,-1.60e-02,-8.00e-03,
396,1.20e-02,-8.00e-03,
397,-1.60e-02,1.60e-02,
398,1.20e-02,1.40e-02,
399,-1.60e-02,-8.00e-03,
400,1.20e-02,1.40e-02,
401,-1.60e-02,-8.00e-03,
402,1.20e-02,1.40e-02,
403,-1.60e-02,-8.00e-03,
404,-1.60e-02,1.40e-02,
405,1.60e-02,-8.00e-03,
406,1.20e-02,-8.00e-03,
407,-1.60e-02,1.40e-02,
408,1.20e-02,1.40e-02,
409,-1.60e-02,-8.00e-03,
410,1.20e-02,-8.00e-03,
411,-1.60e-02,1.40e-02,
412,-3.16e-01,2.56e-01,
413,4.56e-01,-2.16e-01,
414,1.20e-02,-8.00e-03,
415,-1.60e-02,1.40e-02,
416,1.20e-02,-1.00e-02,
417,-1.60e-02,1.40e-02,
418,1.20e-02,1.40e-02,
419,-1.60e-02,-1.00e-02,
420,-1.60e-02,-8.00e-03,
421,1.20e-02,1.40e-02,
422,-1.60e-02,-8.00e-03,
423,1.20e-02,1.60e-02,
424,1.20e-02,1.40e-02,
425,-1.60e-02,-8.00e-03,
426,1.20e-02,-8.00e-03,
427,-1.60e-02,1.40e-02,
428,1.20e-02,-8.00e-03,
429,-1.60e-02,1.40e-02,
430,1.20e-02,-8.00e-03,
431,-1.60e-02,1.40e-02,
432,-1.60e-02,1.40e-02,
433,1.20e-02,-8.00e-03,
434,-1.60e-02,-8.00e-03,
435,1.20e-02,1.40e-02,
436,1.20e-02,-8.00e-03,
437,-1.60e-02,1.60e-02,
438,1.20e-02,-8.00e-03,
439,-1.60e-02,1.60e-02,
440,4.72e-01,2.56e-01,
441,-5.48e-01,-2.54e-01,
442,1.20e-02,1.40e-02,
443,-1.60e-02,-8.00e-03,
444,1.20e-02,-8.00e-03,
445,-1.60e-02,1.40e-02,
446,-1.60e-02,-8.00e-03,
447,1.60e-02,1.40e-02,
448,1.20e-02,-8.00e-03,
449,-1.60e-02,1.40e-02,
450,1.20e-02,1.40e-02,
451,-1.60e-02,-8.00e-03,
452,1.20e-02,1.40e-02,
453,-1.60e-02,-8.00e-03,
454,1.20e-02,-8.00e-03,
455,-1.60e-02,1.40e-02,
456,1.20e-02,1.40e-02,
457,-1.60e-02,-8.00e-03,
458,2.76e-01,-1.22e-01,
459,-1.96e-01,7.60e-02,
460,1.20e-02,-1.00e-02,
461,-1.60e-02,1.40e-02,
462,1.20e-02,-8.00e-03,
463,-1.60e-02,1.40e-02,
464,1.60e-02,1.40e-02,
465,-1.60e-02,-8.00e-03,
466,1.20e-02,1.40e-02,
467,-1.60e-02,-1.00e-02,
468,1.20e-02,1.40e-02,
469,-1.60e-02,-8.00e-03,
470,1.20e-02,-8.00e-03,
471,-1.60e-02,1.40e-02,
472,1.20e-02,1.40e-02,
473,-1.60e-02,-1.00e-02,
474,1.20e-02,-8.00e-03,
475,-1.60e-02,1.40e-02,
476,1.20e-02,1.40e-02,
477,-1.60e-02,-8.00e-03,
478,1.20e-02,1.40e-02,
479,-1.60e-02,-8.00e-03,
480,1.20e-02,-8.00e-03,
481,-1.60e-02,1.40e-02,
482,1.20e-02,1.60e-02,
483,-1.60e-02,-8.00e-03,
484,1.20e-02,-8.00e-03,
485,-1.60e-02,1.60e-02,
486,1.20e-02,1.40e-02,
487,-1.60e-02,-1.00e-02,
488,-5.48e-01,-2.54e-01,
489,4.72e-01,2.56e-01,
490,-1.60e-02,-8.00e-03,
491,1.60e-02,1.40e-02,
492,1.20e-02,1.40e-02,
493,-1.60e-02,-1.00e-02,
494,1.20e-02,1.40e-02,
495,-1.60e-02,-1.00e-02,
496,1.20e-02,-8.00e-03,
497,-1.60e-02,1.40e-02,
498,1.20e-02,1.40e-02,
499,-1.60e-02,-1.00e-02,
500,1.20e-02,1.20e-02,
501,-1.60e-02,-1.00e-02,
502,1.20e-02,1.40e-02,
503,-1.60e-02,-1.00e-02,
504,1.20e-02,1.40e-02,
505,-1.60e-02,-1.00e-02,
506,4.12e-01,2.56e-01,
507,-3.92e-01,-2.54e-01,
508,-1.60e-02,-1.00e-02,
509,1.20e-02,1.40e-02,
510,1.20e-02,1.40e-02,
511,-1.60e-02,-8.00e-03,
512,1.20e-02,-8.00e-03,
513,-1.60e-02,1.60e-02,
514,-1.60e-02,-8.00e-03,
515,1.60e-02,1.40e-02,
516,-1.60e-02,1.40e-02,
517,1.60e-02,-1.00e-02,
518,1.20e-02,1.40e-02,
519,-1.60e-02,-1.00e-02,
520,1.20e-02,-8.00e-03,
521,-1.60e-02,1.60e-02,
522,1.20e-02,-8.00e-03,
523,-1.60e-02,1.40e-02,
524,1.20e-02,-8.00e-03,
525,-1.60e-02,1.40e-02,
526,1.20e-02,-1.00e-02,
527,-1.60e-02,1.40e-02,
528,1.20e-02,-8.00e-03,
529,-1.60e-02,1.60e-02,
530,1.20e-02,1.40e-02,
531,-1.60e-02,-8.00e-03,
532,-5.48e-01,2.56e-01,
533,4.72e-01,-2.54e-01,
534,1.20e-02,-1.00e-02,
535,-1.60e-02,1.40e-02,
536,1.20e-02,1.40e-02,
537,-1.60e-02,-1.00e-02,
538,-1.60e-02,-8.00e-03,
539,1.60e-02,1.40e-02,
540,1.20e-02,-8.00e-03,
541,-1.60e-02,1.40e-02,
542,1.20e-02,1.40e-02,
543,-1.60e-02,-1.00e-02,
544,1.20e-02,1.20e-02,
545,-1.60e-02,-1.00e-02,
546,-1.60e-02,1.20e-02,
547,1.20e-02,-1.00e-02,
548,1.20e-02,1.40e-02,
549,-1.60e-02,-1.00e-02,
550,1.20e-02,1.40e-02,
551,-1.60e-02,-8.00e-03,
552,1.20e-02,1.20e-02,
553,-1.60e-02,-1.00e-02,
554,-3.12e-01,2.56e-01,
555,3.00e-01,-2.54e-01,
556,-1.60e-02,-8.00e-03,
557,1.20e-02,1.40e-02,
558,1.20e-02,1.40e-02,
559,-1.60e-02,-1.00e-02,
560,1.20e-02,1.40e-02,
561,-1.60e-02,-8.00e-03,
562,1.20e-02,1.40e-02,
563,-1.60e-02,-1.00e-02,
564,1.20e-02,1.40e-02,
565,-1.60e-02,-1.00e-02,
566,1.20e-02,-8.00e-03,
567,-1.60e-02,1.40e-02,
568,1.20e-02,-8.00e-03,
569,-1.60e-02,1.20e-02,
570,1.20e-02,1.40e-02,
571,-1.60e-02,-1.00e-02,
572,1.20e-02,-8.00e-03,
573,-1.60e-02,1.40e-02,
574,1.20e-02,-8.00e-03,
575,-1.60e-02,1.40e-02,
576,1.20e-02,-8.00e-03,
577,-1.60e-02,1.40e-02,
578,-1.60e-02,1.20e-02,
579,1.20e-02,-1.00e-02,
580,1.20e-02,-1.00e-02,
581,-1.60e-02,1.40e-02,
582,4.72e-01,2.56e-01,
583,-5.20e-01,-2.54e-01,
584,1.20e-02,1.40e-02,
585,-1.60e-02,-1.00e-02,
586,-1.60e-02,1.20e-02,
587,1.20e-02,-1.00e-02,
588,1.20e-02,-8.00e-03,
589,-1.60e-02,1.20e-02,
590,1.20e-02,-8.00e-03,
591,-1.60e-02,1.40e-02,
592,1.20e-02,-8.00e-03,
593,-1.60e-02,1.40e-02,
594,1.20e-02,1.40e-02,
595,-2.00e-02,-1.00e-02,
596,-1.60e-02,1.40e-02,
597,1.20e-02,-1.00e-02,
598,1.96e-01,-7.80e-02,
599,-3.52e-01,9.40e-02,
600,3.92e-01,1.06e-01,
601,-1.40e-01,-1.16e-01,
602,1.20e-02,1.40e-02,
603,-1.60e-02,-1.00e-02,
604,1.20e-02,-1.00e-02,
605,-1.60e-02,1.40e-02,
606,-1.60e-02,-1.00e-02,
607,1.60e-02,1.40e-02,
608,1.20e-02,-1.00e-02,
609,-1.60e-02,1.40e-02,
610,1.20e-02,1.40e-02,
611,-1.60e-02,-1.00e-02,
612,1.20e-02,-8.00e-03,
613,-1.60e-02,1.40e-02,
614,-1.60e-02,1.40e-02,
615,1.60e-02,-1.00e-02,
616,1.20e-02,-8.00e-03,
617,-1.60e-02,1.40e-02,
618,-1.60e-02,-8.00e-03,
619,1.20e-02,1.40e-02,
620,1.20e-02,-1.00e-02,
621,-1.60e-02,1.40e-02,
622,1.20e-02,1.40e-02,
623,-1.60e-02,-1.00e-02,
624,1.20e-02,-8.00e-03,
625,-1.60e-02,1.40e-02,
626,1.20e-02,-1.00e-02,
627,-1.60e-02,1.40e-02,
628,3.52e-01,-2.54e-01,
629,-5.48e-01,2.56e-01,
630,1.20e-02,1.40e-02,
631,-1.60e-02,-1.00e-02,
632,1.20e-02,-8.00e-03,
633,-1.60e-02,1.40e-02,
634,1.20e-02,-1.00e-02,
635,-1.60e-02,1.40e-02,
636,1.20e-02,1.40e-02,
637,-1.60e-02,-1.00e-02,
638,1.20e-02,-8.00e-03,
639,-1.60e-02,1.40e-02,
640,1.20e-02,-8.00e-03,
641,-1.60e-02,1.40e-02,
642,1.20e-02,-8.00e-03,
643,-1.60e-02,1.40e-02,
644,1.20e-02,-1.00e-02,
645,-1.60e-02,1.40e-02,
646,1.20e-02,1.40e-02,
647,-1.60e-02,-8.00e-03,
648,-4.20e-01,2.06e-01,
649,3.56e-01,-2.40e-01,
650,1.20e-02,-8.00e-03,
651,-1.60e-02,1.40e-02,
652,1.20e-02,-1.00e-02,
653,-1.60e-02,1.40e-02,
654,1.20e-02,1.40e-02,
655,-1.60e-02,-1.00e-02,
656,1.20e-02,-1.00e-02,
657,-1.60e-02,1.40e-02,
658,-1.60e-02,-1.00e-02,
659,1.20e-02,1.40e-02,
660,1.20e-02,-8.00e-03,
661,-1.60e-02,1.40e-02,
662,1.20e-02,1.40e-02,
663,-1.60e-02,-8.00e-03,
664,1.20e-02,-1.00e-02,
665,-1.60e-02,1.40e-02,
666,1.20e-02,-8.00e-03,
667,-1.60e-02,1.40e-02,
668,-1.60e-02,1.40e-02,
669,1.60e-02,-1.00e-02,
670,1.20e-02,-8.00e-03,
671,-1.60e-02,1.40e-02,
672,1.20e-02,1.40e-02,
673,-1.60e-02,-8.00e-03,
674,4.72e-01,2.56e-01,
675,-5.48e-01,-2.54e-01,
676,1.20e-02,-8.00e-03,
677,-1.60e-02,1.40e-02,
678,1.20e-02,-8.00e-03,
679,-1.60e-02,1.40e-02,
680,1.20e-02,-8.00e-03,
681,-1.60e-02,1.40e-02,
682,1.20e-02,-8.00e-03,
683,-1.60e-02,1.40e-02,
684,1.60e-02,-8.00e-03,
685,-1.60e-02,1.40e-02,
686,1.20e-02,1.40e-02,
687,-1.60e-02,-1.00e-02,
688,1.20e-02,-8.00e-03,
689,-1.60e-02,1.40e-02,
690,1.20e-02,1.40e-02,
691,-1.60e-02,-1.00e-02,
692,1.20e-02,1.40e-02,
693,-1.60e-02,-8.00e-03,
694,-3.40e-01,2.56e-01,
695,4.08e-01,-2.54e-01,
696,2.40e-02,-2.20e-02,
697,-1.60e-02,1.40e-02,
698,1.20e-02,-8.00e-03,
699,-1.60e-02,1.40e-02,
700,1.20e-02,-8.00e-03,
701,-1.60e-02,1.60e-02,
702,-1.60e-02,1.40e-02,
703,1.20e-02,-1.00e-02,
704,1.20e-02,-8.00e-03,
705,-1.60e-02,1.60e-02,
706,1.20e-02,-8.00e-03,
707,-1.60e-02,1.40e-02,
708,-1.60e-02,1.40e-02,
709,1.20e-02,-1.00e-02,
710,-1.60e-02,-8.00e-03,
711,1.20e-02,1.40e-02,
712,1.20e-02,1.40e-02,
713,-1.60e-02,-8.00e-03,
714,1.20e-02,-8.00e-03,
715,-1.60e-02,1.40e-02,
716,1.20e-02,-8.00e-03,
717,-1.60e-02,1.40e-02,
718,1.20e-02,1.40e-02,
719,-1.60e-02,-8.00e-03,
720,-1.60e-02,-8.00e-03,
721,1.20e-02,1.40e-02,
722,4.72e-01,2.56e-01,
723,-5.48e-01,-2.54e-01,
724,-1.60e-02,1.60e-02,
725,1.60e-02,-1.00e-02,
726,1.20e-02,-8.00e-03,
727,-1.60e-02,1.40e-02,
728,1.20e-02,-8.00e-03,
729,-1.60e-02,1.40e-02,
730,1.60e-02,1.40e-02,
731,-1.60e-02,-8.00e-03,
732,1.20e-02,1.60e-02,
733,-1.60e-02,-1.00e-02,
734,1.20e-02,-8.00e-03,
735,-1.60e-02,1.40e-02,
736,1.20e-02,-1.00e-02,
737,-1.60e-02,1.40e-02,
738,-1.60e-02,-1.00e-02,
739,1.20e-02,1.40e-02,
740,-1.76e-01,1.38e-01,
741,1.48e-01,-1.32e-01,
742,1.20e-02,1.40e-02,
743,-1.60e-02,-1.00e-02,
744,1.20e-02,-8.00e-03,
745,-1.60e-02,1.40e-02,
746,1.20e-02,1.40e-02,
747,-1.60e-02,-1.00e-02,
748,1.20e-02,-8.00e-03,
749,-1.60e-02,1.40e-02,
750,1.20e-02,-8.00e-03,
751,-1.60e-02,1.60e-02,
752,1.20e-02,-8.00e-03,
753,-1.60e-02,1.20e-02,
754,1.20e-02,-8.00e-03,
755,-1.60e-02,1.40e-02,
756,1.20e-02,-8.00e-03,
757,-1.60e-02,1.40e-02,
758,1.20e-02,-1.00e-02,
759,-1.60e-02,1.40e-02,
760,-1.60e-02,-8.00e-03,
761,1.20e-02,1.40e-02,
762,1.20e-02,-8.00e-03,
763,-1.60e-02,1.40e-02,
764,1.20e-02,1.40e-02,
765,-1.60e-02,-8.00e-03,
766,-1.60e-02,-8.00e-03,
767,1.60e-02,1.40e-02,
768,1.20e-02,-8.00e-03,
769,-1.60e-02,1.40e-02,
770,4.72e-01,2.56e-01,
771,-5.48e-01,-2.54e-01,
772,1.20e-02,-8.00e-03,
773,-1.60e-02,1.40e-02,
774,1.20e-02,-1.00e-02,
775,-1.60e-02,1.40e-02,
776,-1.60e-02,1.20e-02,
777,1.20e-02,-1.00e-02,
778,1.20e-02,1.40e-02,
779,-1.60e-02,-1.00e-02,
780,1.20e-02,-1.00e-02,
781,-1.60e-02,1.40e-02,
782,1.20e-02,1.40e-02,
783,-1.60e-02,-1.00e-02,
784,-1.60e-02,1.20e-02,
785,1.20e-02,-1.00e-02,
786,-1.60e-02,1.40e-02,
787,1.20e-02,-1.00e-02,
788,-2.76e-01,-2.22e-01,
789,2.44e-01,2.56e-01,
790,1.20e-02,-1.00e-02,
791,-1.60e-02,1.40e-02,
792,-1.60e-02,-1.00e-02,
793,1.20e-02,1.40e-02,
794,1.60e-02,1.40e-02,
795,-1.60e-02,-1.00e-02,
796,1.20e-02,1.40e-02,
797,-1.60e-02,-8.00e-03,
798,1.20e-02,-8.00e-03,
799,-1.60e-02,1.40e-02,
800,1.20e-02,-1.00e-02,
801,-1.60e-02,1.40e-02,
802,1.20e-02,-1.00e-02,
803,-1.60e-02,1.40e-02,
804,1.20e-02,-1.00e-02,
805,-1.60e-02,1.40e-02,
806,1.20e-02,1.40e-02,
807,-1.60e-02,-1.00e-02,
808,1.20e-02,1.40e-02,
809,-1.60e-02,-1.00e-02,
810,1.20e-02,1.40e-02,
811,-1.60e-02,-1.00e-02,
812,-1.20e-02,-8.00e-03,
813,1.20e-02,1.40e-02,
814,4.72e-01,-2.54e-01,
815,-5.48e-01,2.56e-01,
816,-2.00e-02,-1.00e-02,
817,2.00e-02,1.20e-02,
818,1.20e-02,1.40e-02,
819,-1.60e-02,-8.00e-03,
820,-1.60e-02,1.40e-02,
821,1.20e-02,-1.00e-02,
822,-1.60e-02,1.20e-02,
823,1.60e-02,-1.00e-02,
824,1.20e-02,1.20e-02,
825,-1.60e-02,-8.00e-03,
826,1.20e-02,-8.00e-03,
827,-1.60e-02,1.40e-02,
828,1.20e-02,1.40e-02,
829,-1.60e-02,-1.00e-02,
830,1.20e-02,1.40e-02,
831,-1.60e-02,-8.00e-03,
832,1.20e-02,-8.00e-03,
833,-1.60e-02,1.40e-02,
