Motor_Data/MOTOR_3_ON/time domain/NewFile72(1).csv

X,CH1,CH2,Start,Increment,
Sequence,Volt,Volt,-3.000000e-02,5.000000e-05
0,1.20e-02,1.40e-02,
1,-1.20e-02,-8.00e-03,
2,1.20e-02,-8.00e-03,
3,-1.60e-02,1.40e-02,
4,1.20e-02,1.40e-02,
5,-1.60e-02,-8.00e-03,
6,1.20e-02,1.40e-02,
7,-1.60e-02,-8.00e-03,
8,3.44e-01,2.18e-01,
9,-3.04e-01,-3.00e-02,
10,1.20e-02,-6.00e-03,
11,-1.20e-02,1.40e-02,
12,-1.20e-02,1.60e-02,
13,1.20e-02,-8.00e-03,
14,-1.20e-02,-8.00e-03,
15,1.20e-02,1.60e-02,
16,1.20e-02,1.40e-02,
17,-1.60e-02,-8.00e-03,
18,1.20e-02,-8.00e-03,
19,-1.60e-02,1.40e-02,
20,1.20e-02,1.40e-02,
21,-1.60e-02,-8.00e-03,
22,1.20e-02,1.40e-02,
23,-1.60e-02,-8.00e-03,
24,1.20e-02,1.40e-02,
25,-1.60e-02,-8.00e-03,
26,1.20e-02,-8.00e-03,
27,-1.60e-02,1.40e-02,
28,-1.20e-02,-6.00e-03,
29,1.20e-02,1.60e-02,
30,1.20e-02,-8.00e-03,
31,-1.60e-02,1.40e-02,
32,-1.20e-02,-8.00e-03,
33,1.20e-02,1.40e-02,
34,4.64e-01,-2.54e-01,
35,-3.56e-01,2.52e-01,
36,2.00e-01,-2.54e-01,
37,-2.72e-01,2.14e-01,
38,1.20e-02,-8.00e-03,
39,-1.60e-02,1.40e-02,
40,1.20e-02,1.20e-02,
41,-1.20e-02,-8.00e-03,
42,-1.20e-02,1.40e-02,
43,1.20e-02,-8.00e-03,
44,-1.20e-02,-8.00e-03,
45,1.20e-02,1.40e-02,
46,1.20e-02,1.40e-02,
47,-1.60e-02,-6.00e-03,
48,-1.20e-02,-6.00e-03,
49,1.20e-02,1.40e-02,
50,-1.20e-02,-8.00e-03,
51,1.20e-02,1.40e-02,
52,1.20e-02,1.40e-02,
53,-1.20e-02,-8.00e-03,
54,-2.16e-01,9.80e-02,
55,1.88e-01,-7.40e-02,
56,1.20e-02,1.40e-02,
57,-1.60e-02,-8.00e-03,
58,-1.20e-02,-6.00e-03,
59,1.20e-02,1.40e-02,
60,-1.20e-02,1.40e-02,
61,1.20e-02,-8.00e-03,
62,-1.20e-02,-8.00e-03,
63,1.20e-02,1.40e-02,
64,1.20e-02,1.40e-02,
65,-1.20e-02,-8.00e-03,
66,1.20e-02,-8.00e-03,
67,-1.60e-02,1.40e-02,
68,1.20e-02,-6.00e-03,
69,-1.20e-02,1.40e-02,
70,-1.20e-02,-8.00e-03,
71,1.20e-02,1.40e-02,
72,1.20e-02,-8.00e-03,
73,-1.20e-02,1.40e-02,
74,1.20e-02,1.20e-02,
75,-1.60e-02,-8.00e-03,
76,-1.20e-02,-8.00e-03,
77,1.20e-02,1.40e-02,
78,1.20e-02,1.20e-02,
79,-1.20e-02,-8.00e-03,
80,1.20e-02,1.40e-02,
81,-1.60e-02,-8.00e-03,
82,1.08e-01,-1.22e-01,
83,-6.00e-02,3.80e-02,
84,-4.96e-01,1.28e-01,
85,3.72e-01,-2.54e-01,
86,-1.20e-02,-8.00e-03,
87,1.20e-02,1.40e-02,
88,1.20e-02,-6.00e-03,
89,-1.60e-02,1.20e-02,
90,1.20e-02,1.40e-02,
91,-1.60e-02,-8.00e-03,
92,-1.60e-02,-8.00e-03,
93,1.20e-02,1.40e-02,
94,-1.20e-02,1.40e-02,
95,1.20e-02,-8.00e-03,
96,1.20e-02,1.40e-02,
97,-1.60e-02,-8.00e-03,
98,1.20e-02,-8.00e-03,
99,-1.60e-02,1.40e-02,
100,-1.20e-02,-8.00e-03,
101,1.20e-02,1.40e-02,
102,3.88e-01,-2.14e-01,
103,-3.80e-01,2.00e-01,
104,1.20e-02,1.40e-02,
105,-1.60e-02,-8.00e-03,
106,1.20e-02,1.40e-02,
107,-1.60e-02,-8.00e-03,
108,1.20e-02,1.40e-02,
109,-1.60e-02,-8.00e-03,
110,-1.20e-02,-8.00e-03,
111,1.20e-02,1.40e-02,
112,1.20e-02,-6.00e-03,
113,-1.60e-02,1.40e-02,
114,1.20e-02,1.40e-02,
115,-1.60e-02,-8.00e-03,
116,1.20e-02,1.40e-02,
117,-1.60e-02,-8.00e-03,
118,1.20e-02,1.40e-02,
119,-1.60e-02,-8.00e-03,
120,-1.60e-02,-8.00e-03,
121,1.20e-02,1.40e-02,
122,1.20e-02,-8.00e-03,
123,-1.60e-02,1.40e-02,
124,1.20e-02,-8.00e-03,
125,-1.60e-02,1.40e-02,
126,1.20e-02,1.40e-02,
127,-1.60e-02,-8.00e-03,
128,-3.48e-01,-7.20e-02,
129,3.20e-01,1.34e-01,
130,1.20e-02,-8.00e-03,
131,-1.60e-02,1.40e-02,
132,1.20e-02,-8.00e-03,
133,-1.60e-02,1.40e-02,
134,1.20e-02,-8.00e-03,
135,-1.60e-02,1.40e-02,
136,1.20e-02,1.40e-02,
137,-1.20e-02,-8.00e-03,
138,1.20e-02,-8.00e-03,
139,-1.60e-02,1.40e-02,
140,1.20e-02,1.40e-02,
141,-1.20e-02,-8.00e-03,
142,-1.20e-02,1.40e-02,
143,1.20e-02,-8.00e-03,
144,1.20e-02,1.40e-02,
145,-1.60e-02,-8.00e-03,
146,1.20e-02,-8.00e-03,
147,-1.60e-02,1.60e-02,
148,1.20e-02,1.40e-02,
149,-1.60e-02,-8.00e-03,
150,3.52e-01,2.28e-01,
151,-1.64e-01,-2.32e-01,
152,-1.20e-02,1.40e-02,
153,1.20e-02,-8.00e-03,
154,-1.20e-02,-6.00e-03,
155,1.60e-02,1.40e-02,
156,1.20e-02,-6.00e-03,
157,-1.20e-02,1.40e-02,
158,1.20e-02,1.40e-02,
159,-1.20e-02,-8.00e-03,
160,-1.20e-02,1.40e-02,
161,1.20e-02,-8.00e-03,
162,1.20e-02,1.40e-02,
163,-1.20e-02,-8.00e-03,
164,-1.20e-02,1.40e-02,
165,1.20e-02,-6.00e-03,
166,1.20e-02,-8.00e-03,
167,-1.20e-02,1.40e-02,
168,1.20e-02,-6.00e-03,
169,-1.20e-02,1.40e-02,
170,-1.20e-02,-8.00e-03,
171,1.20e-02,1.40e-02,
172,1.20e-02,-8.00e-03,
173,-1.20e-02,1.40e-02,
174,1.20e-02,-6.00e-03,
175,-1.20e-02,1.40e-02,
176,-4.76e-01,-2.00e-01,
177,4.72e-01,2.56e-01,
178,-2.24e-01,1.08e-01,
179,1.64e-01,-7.20e-02,
180,-1.20e-02,1.40e-02,
181,1.20e-02,-8.00e-03,
182,1.20e-02,1.40e-02,
183,-1.20e-02,-8.00e-03,
184,1.20e-02,-8.00e-03,
185,-1.60e-02,1.40e-02,
186,1.20e-02,1.40e-02,
187,-1.60e-02,-8.00e-03,
188,1.20e-02,1.40e-02,
189,-1.60e-02,-8.00e-03,
190,1.20e-02,-8.00e-03,
191,-1.60e-02,1.40e-02,
192,-1.20e-02,-8.00e-03,
193,1.20e-02,1.40e-02,
194,-1.20e-02,1.40e-02,
195,1.20e-02,-1.00e-02,
196,4.80e-02,-2.20e-02,
197,-3.60e-02,5.40e-02,
198,1.20e-02,-8.00e-03,
199,-1.60e-02,1.40e-02,
200,1.20e-02,1.40e-02,
201,-1.60e-02,-8.00e-03,
202,1.20e-02,-8.00e-03,
203,-1.60e-02,1.40e-02,
204,-1.20e-02,-8.00e-03,
205,1.20e-02,1.40e-02,
206,1.20e-02,-8.00e-03,
207,-1.60e-02,1.40e-02,
208,-1.20e-02,1.20e-02,
209,1.20e-02,-8.00e-03,
210,1.20e-02,1.20e-02,
211,-1.60e-02,-8.00e-03,
212,-1.60e-02,-8.00e-03,
213,1.20e-02,1.40e-02,
214,1.20e-02,-8.00e-03,
215,-1.60e-02,1.40e-02,
216,-1.20e-02,1.40e-02,
217,1.20e-02,-8.00e-03,
218,1.20e-02,1.20e-02,
219,-1.60e-02,-8.00e-03,
220,1.20e-02,1.40e-02,
221,-1.60e-02,-8.00e-03,
222,7.60e-02,-5.60e-02,
223,-6.00e-02,6.20e-02,
224,-8.80e-02,-2.54e-01,
225,3.68e-01,2.56e-01,
226,1.20e-02,-8.00e-03,
227,-1.60e-02,1.20e-02,
228,-1.20e-02,1.40e-02,
229,1.20e-02,-8.00e-03,
230,-1.20e-02,-8.00e-03,
231,1.20e-02,1.40e-02,
232,1.20e-02,1.20e-02,
233,-1.20e-02,-8.00e-03,
234,1.20e-02,-8.00e-03,
235,-1.60e-02,1.40e-02,
236,-1.20e-02,1.40e-02,
237,1.20e-02,-8.00e-03,
238,1.20e-02,-8.00e-03,
239,-1.20e-02,1.40e-02,
240,-1.20e-02,-8.00e-03,
241,1.20e-02,1.40e-02,
242,1.20e-02,1.40e-02,
243,-1.20e-02,-8.00e-03,
244,-3.04e-01,2.56e-01,
245,3.12e-01,-2.14e-01,
246,1.20e-02,1.40e-02,
247,-1.60e-02,-8.00e-03,
248,-1.20e-02,1.40e-02,
249,1.20e-02,-8.00e-03,
250,1.20e-02,-8.00e-03,
251,-1.60e-02,1.40e-02,
252,1.20e-02,1.40e-02,
253,-1.60e-02,-8.00e-03,
254,1.20e-02,-6.00e-03,
255,-1.60e-02,1.40e-02,
256,1.20e-02,1.40e-02,
257,-1.60e-02,-8.00e-03,
258,1.20e-02,-8.00e-03,
259,-1.20e-02,1.60e-02,
260,1.20e-02,-8.00e-03,
261,-1.20e-02,1.40e-02,
262,1.20e-02,-8.00e-03,
263,-1.60e-02,1.40e-02,
264,1.20e-02,1.40e-02,
265,-1.20e-02,-8.00e-03,
266,1.20e-02,1.40e-02,
267,-1.60e-02,-8.00e-03,
268,1.20e-02,-1.00e-02,
269,-1.60e-02,1.40e-02,
270,4.60e-01,1.52e-01,
271,-3.12e-01,-1.78e-01,
272,1.20e-02,-8.00e-03,
273,-1.20e-02,1.40e-02,
274,-1.20e-02,1.20e-02,
275,1.20e-02,-8.00e-03,
276,1.20e-02,1.40e-02,
277,-1.60e-02,-8.00e-03,
278,1.20e-02,-8.00e-03,
279,-1.60e-02,1.40e-02,
280,1.20e-02,1.40e-02,
281,-1.60e-02,-8.00e-03,
282,1.20e-02,1.40e-02,
283,-1.60e-02,-8.00e-03,
284,1.20e-02,1.40e-02,
285,-1.60e-02,-8.00e-03,
286,-1.20e-02,-8.00e-03,
287,1.20e-02,1.40e-02,
288,-1.20e-02,1.40e-02,
289,1.20e-02,-8.00e-03,
290,1.20e-02,1.40e-02,
291,-1.60e-02,-8.00e-03,
292,3.52e-01,2.56e-01,
293,-2.92e-01,-2.10e-01,
294,1.20e-02,1.40e-02,
295,-1.60e-02,-8.00e-03,
296,-1.20e-02,-8.00e-03,
297,1.20e-02,1.40e-02,
298,1.20e-02,-8.00e-03,
299,-1.60e-02,1.40e-02,
300,1.20e-02,1.40e-02,
301,-1.60e-02,-8.00e-03,
302,-1.20e-02,-8.00e-03,
303,1.20e-02,1.40e-02,
304,-1.20e-02,1.40e-02,
305,1.20e-02,-8.00e-03,
306,1.20e-02,1.40e-02,
307,-1.60e-02,-8.00e-03,
308,1.20e-02,1.40e-02,
309,-1.60e-02,-8.00e-03,
310,-1.20e-02,1.40e-02,
311,1.60e-02,-8.00e-03,
312,1.20e-02,-8.00e-03,
313,-1.60e-02,1.40e-02,
314,1.20e-02,-8.00e-03,
315,-1.60e-02,1.60e-02,
316,-1.96e-01,2.56e-01,
317,4.72e-01,-2.54e-01,
318,3.12e-01,-1.14e-01,
319,-2.88e-01,1.04e-01,
320,1.20e-02,1.40e-02,
321,-1.20e-02,-8.00e-03,
322,1.20e-02,-8.00e-03,
323,-1.60e-02,1.40e-02,
324,1.20e-02,1.40e-02,
325,-1.60e-02,-8.00e-03,
326,1.20e-02,1.40e-02,
327,-1.60e-02,-8.00e-03,
328,1.20e-02,1.40e-02,
329,-1.60e-02,-8.00e-03,
330,-1.20e-02,1.40e-02,
331,1.20e-02,-8.00e-03,
332,-1.20e-02,1.40e-02,
333,1.20e-02,-8.00e-03,
334,-1.20e-02,-6.00e-03,
335,1.20e-02,1.40e-02,
336,8.40e-02,2.20e-02,
337,-7.20e-02,-3.20e-02,
338,-1.20e-02,1.40e-02,
339,1.20e-02,-8.00e-03,
340,1.20e-02,-8.00e-03,
341,-1.60e-02,1.40e-02,
342,1.20e-02,1.40e-02,
343,-1.20e-02,-6.00e-03,
344,-1.20e-02,-6.00e-03,
345,1.20e-02,1.40e-02,
346,-1.20e-02,-6.00e-03,
347,1.20e-02,1.40e-02,
348,-1.20e-02,-6.00e-03,
349,1.20e-02,1.40e-02,
350,-1.20e-02,1.40e-02,
351,1.20e-02,-8.00e-03,
352,1.20e-02,-8.00e-03,
353,-1.60e-02,1.40e-02,
354,1.20e-02,-8.00e-03,
355,-1.20e-02,1.40e-02,
356,1.20e-02,1.20e-02,
357,-1.60e-02,-8.00e-03,
358,1.20e-02,1.40e-02,
359,-1.60e-02,-8.00e-03,
360,1.20e-02,1.40e-02,
361,-1.20e-02,-8.00e-03,
362,-1.20e-02,-8.00e-03,
363,1.20e-02,1.40e-02,
364,1.96e-01,-1.38e-01,
365,-2.00e-01,5.80e-02,
366,4.72e-01,2.56e-01,
367,-5.48e-01,-2.54e-01,
368,1.20e-02,1.40e-02,
369,-1.60e-02,-8.00e-03,
370,1.20e-02,1.40e-02,
371,-1.20e-02,-8.00e-03,
372,-1.20e-02,1.40e-02,
373,1.20e-02,-8.00e-03,
374,1.20e-02,1.40e-02,
375,-1.20e-02,-8.00e-03,
376,1.20e-02,1.40e-02,
377,-1.60e-02,-8.00e-03,
378,-1.20e-02,1.40e-02,
379,1.20e-02,-8.00e-03,
380,-1.20e-02,-8.00e-03,
381,1.20e-02,1.40e-02,
382,1.20e-02,1.40e-02,
383,-1.60e-02,-8.00e-03,
384,3.60e-01,-2.08e-01,
385,-4.00e-01,2.56e-01,
386,-1.20e-02,-8.00e-03,
387,1.20e-02,1.40e-02,
388,1.20e-02,-8.00e-03,
389,-1.60e-02,1.40e-02,
390,1.20e-02,-8.00e-03,
391,-1.60e-02,1.40e-02,
392,1.20e-02,1.40e-02,
393,-1.60e-02,-8.00e-03,
394,-1.20e-02,-8.00e-03,
395,1.20e-02,1.40e-02,
396,1.20e-02,-6.00e-03,
397,-1.60e-02,1.40e-02,
398,1.20e-02,-8.00e-03,
399,-1.60e-02,1.40e-02,
400,1.20e-02,1.40e-02,
401,-1.60e-02,-8.00e-03,
402,-1.20e-02,-6.00e-03,
403,1.20e-02,1.40e-02,
404,1.20e-02,1.40e-02,
405,-1.20e-02,-8.00e-03,
406,-1.20e-02,1.40e-02,
407,1.20e-02,-6.00e-03,
408,-1.20e-02,1.40e-02,
409,1.20e-02,-6.00e-03,
410,-4.72e-01,1.08e-01,
411,3.00e-01,-1.28e-01,
412,-1.20e-02,-1.20e-02,
413,1.60e-02,1.60e-02,
414,1.20e-02,1.40e-02,
415,-1.20e-02,-8.00e-03,
416,-1.20e-02,1.40e-02,
417,1.20e-02,-8.00e-03,
418,1.20e-02,1.40e-02,
419,-1.60e-02,-6.00e-03,
420,1.20e-02,1.60e-02,
421,-1.20e-02,-8.00e-03,
422,1.20e-02,-8.00e-03,
423,-1.60e-02,1.20e-02,
424,-1.20e-02,-8.00e-03,
425,1.20e-02,1.40e-02,
426,1.20e-02,1.40e-02,
427,-1.60e-02,-8.00e-03,
428,1.20e-02,1.40e-02,
429,-1.60e-02,-8.00e-03,
430,1.20e-02,-8.00e-03,
431,-1.60e-02,1.40e-02,
432,4.24e-01,2.06e-01,
433,-3.32e-01,-2.54e-01,
434,1.20e-02,1.40e-02,
435,-1.60e-02,-8.00e-03,
436,1.20e-02,-6.00e-03,
437,-1.60e-02,1.40e-02,
438,1.20e-02,-8.00e-03,
439,-1.60e-02,1.40e-02,
440,-1.20e-02,-8.00e-03,
441,1.20e-02,1.40e-02,
442,1.20e-02,-8.00e-03,
443,-1.60e-02,1.40e-02,
444,1.20e-02,1.40e-02,
445,-1.60e-02,-8.00e-03,
446,1.20e-02,-8.00e-03,
447,-1.60e-02,1.60e-02,
448,-1.60e-02,-8.00e-03,
449,1.60e-02,1.40e-02,
450,1.20e-02,1.40e-02,
451,-1.60e-02,-8.00e-03,
452,1.20e-02,1.40e-02,
453,-1.20e-02,-8.00e-03,
454,-1.60e-02,-1.00e-02,
455,1.20e-02,1.40e-02,
456,-1.60e-02,1.40e-02,
457,1.20e-02,-8.00e-03,
458,-4.60e-01,-2.54e-01,
459,4.72e-01,2.56e-01,
460,1.40e-01,1.80e-01,
461,-1.76e-01,-1.24e-01,
462,1.20e-02,1.20e-02,
463,-1.60e-02,-8.00e-03,
464,-1.20e-02,-8.00e-03,
465,1.20e-02,1.40e-02,
466,1.20e-02,1.40e-02,
467,-1.60e-02,-8.00e-03,
468,-1.60e-02,-8.00e-03,
469,1.20e-02,1.40e-02,
470,1.20e-02,-8.00e-03,
471,-1.20e-02,1.40e-02,
472,-1.20e-02,1.40e-02,
473,1.20e-02,-8.00e-03,
474,1.20e-02,-8.00e-03,
475,-1.60e-02,1.40e-02,
476,1.20e-02,-8.00e-03,
477,-1.60e-02,1.40e-02,
478,9.60e-02,4.80e-02,
479,-2.00e-02,-4.40e-02,
480,-1.20e-02,-8.00e-03,
481,1.20e-02,1.40e-02,
482,1.20e-02,-8.00e-03,
483,-1.20e-02,1.40e-02,
484,1.20e-02,-8.00e-03,
485,-1.60e-02,1.40e-02,
486,-1.20e-02,-8.00e-03,
487,1.20e-02,1.40e-02,
488,1.20e-02,1.40e-02,
489,-1.60e-02,-1.00e-02,
490,1.20e-02,-8.00e-03,
491,-1.60e-02,1.40e-02,
492,-1.20e-02,-6.00e-03,
493,1.20e-02,1.40e-02,
494,-1.20e-02,1.40e-02,
495,1.20e-02,-8.00e-03,
496,-1.20e-02,-8.00e-03,
497,1.20e-02,1.40e-02,
498,1.20e-02,1.20e-02,
499,-1.20e-02,-8.00e-03,
500,1.20e-02,-8.00e-03,
501,-1.60e-02,1.40e-02,
502,1.20e-02,1.40e-02,
503,-1.60e-02,-8.00e-03,
504,1.20e-02,1.40e-02,
505,-1.60e-02,-8.00e-03,
506,-1.04e-01,-2.80e-02,
507,1.20e-02,8.80e-02,
508,-1.20e-02,-2.34e-01,
509,3.76e-01,2.56e-01,
510,-1.20e-02,-8.00e-03,
511,1.20e-02,1.40e-02,
512,1.20e-02,-8.00e-03,
513,-1.60e-02,1.40e-02,
514,-1.20e-02,1.40e-02,
515,1.20e-02,-8.00e-03,
516,-1.20e-02,-8.00e-03,
517,1.20e-02,1.40e-02,
518,-1.20e-02,1.40e-02,
519,1.20e-02,-8.00e-03,
520,-1.20e-02,-8.00e-03,
521,1.20e-02,1.40e-02,
522,-1.20e-02,1.20e-02,
523,1.20e-02,-8.00e-03,
524,1.20e-02,1.40e-02,
525,-1.60e-02,-8.00e-03,
526,-2.92e-01,-7.80e-02,
527,2.20e-01,2.50e-01,
528,1.20e-02,-8.00e-03,
529,-1.60e-02,1.40e-02,
530,-1.20e-02,1.20e-02,
531,1.20e-02,-8.00e-03,
532,1.20e-02,-8.00e-03,
533,-1.20e-02,1.40e-02,
534,1.20e-02,1.40e-02,
535,-1.20e-02,-8.00e-03,
536,1.20e-02,-8.00e-03,
537,-1.60e-02,1.40e-02,
538,-1.20e-02,-6.00e-03,
539,1.20e-02,1.40e-02,
540,-1.20e-02,-6.00e-03,
541,1.20e-02,1.40e-02,
542,1.20e-02,1.40e-02,
543,-1.60e-02,-8.00e-03,
544,-1.20e-02,1.40e-02,
545,1.20e-02,-8.00e-03,
546,-1.20e-02,-8.00e-03,
547,1.20e-02,1.40e-02,
548,-1.20e-02,-8.00e-03,
549,1.20e-02,1.40e-02,
550,-1.20e-02,1.40e-02,
551,1.20e-02,-8.00e-03,
552,4.28e-01,-1.52e-01,
553,-8.00e-02,1.60e-01,
554,-1.20e-02,-8.00e-03,
555,1.20e-02,1.40e-02,
556,1.20e-02,1.40e-02,
557,-1.60e-02,-8.00e-03,
558,-1.20e-02,-8.00e-03,
559,1.60e-02,1.40e-02,
560,-1.20e-02,-8.00e-03,
561,1.20e-02,1.40e-02,
562,-1.20e-02,-6.00e-03,
563,1.20e-02,1.40e-02,
564,-1.20e-02,-6.00e-03,
565,1.20e-02,1.40e-02,
566,1.20e-02,1.40e-02,
567,-1.60e-02,-8.00e-03,
568,-1.20e-02,1.20e-02,
569,1.20e-02,-8.00e-03,
570,1.20e-02,1.40e-02,
571,-1.60e-02,-8.00e-03,
572,-1.20e-02,-6.00e-03,
573,1.20e-02,1.60e-02,
574,-2.44e-01,2.56e-01,
575,3.80e-01,-1.04e-01,
576,1.20e-02,1.40e-02,
577,-1.20e-02,-8.00e-03,
578,1.20e-02,1.40e-02,
579,-1.60e-02,-8.00e-03,
580,-1.20e-02,1.40e-02,
581,1.20e-02,-8.00e-03,
582,1.20e-02,-6.00e-03,
583,-1.20e-02,1.40e-02,
584,-1.20e-02,1.40e-02,
585,1.20e-02,-8.00e-03,
586,1.20e-02,-6.00e-03,
587,-1.20e-02,1.40e-02,
588,-1.20e-02,1.40e-02,
589,1.20e-02,-8.00e-03,
590,-1.20e-02,-6.00e-03,
591,1.20e-02,1.40e-02,
592,-1.20e-02,1.40e-02,
593,1.20e-02,-8.00e-03,
594,-1.20e-02,1.40e-02,
595,1.20e-02,-8.00e-03,
596,1.20e-02,1.40e-02,
597,-1.60e-02,-6.00e-03,
598,1.00e-01,2.10e-01,
599,-4.88e-01,-2.00e-01,
600,4.72e-01,-2.54e-01,
601,-5.28e-01,2.56e-01,
602,-2.64e-01,1.28e-01,
603,2.92e-01,-1.36e-01,
604,1.20e-02,1.40e-02,
605,-1.20e-02,-8.00e-03,
606,-1.20e-02,-6.00e-03,
607,1.20e-02,1.40e-02,
608,1.20e-02,1.40e-02,
609,-1.20e-02,-8.00e-03,
610,-1.20e-02,-8.00e-03,
611,1.20e-02,1.40e-02,
612,-1.20e-02,1.40e-02,
613,1.60e-02,-8.00e-03,
614,-1.20e-02,1.40e-02,
615,1.20e-02,-8.00e-03,
616,-1.20e-02,1.40e-02,
617,1.20e-02,-8.00e-03,
618,-5.20e-02,-3.80e-02,
619,5.20e-02,5.40e-02,
620,1.20e-02,1.40e-02,
621,-1.60e-02,-8.00e-03,
622,-1.20e-02,1.60e-02,
623,1.20e-02,-8.00e-03,
624,1.20e-02,-8.00e-03,
625,-1.60e-02,1.40e-02,
626,1.20e-02,-6.00e-03,
627,-1.60e-02,1.60e-02,
628,1.20e-02,1.40e-02,
629,-1.60e-02,-8.00e-03,
630,1.20e-02,1.40e-02,
631,-1.60e-02,-8.00e-03,
632,1.20e-02,1.40e-02,
633,-1.60e-02,-8.00e-03,
634,1.20e-02,-8.00e-03,
635,-1.60e-02,1.40e-02,
636,1.20e-02,-8.00e-03,
637,-1.60e-02,1.40e-02,
638,1.20e-02,-8.00e-03,
639,-1.20e-02,1.40e-02,
640,1.20e-02,-8.00e-03,
641,-1.60e-02,1.40e-02,
642,1.20e-02,-8.00e-03,
643,-1.60e-02,1.40e-02,
644,1.20e-02,1.40e-02,
645,-1.60e-02,-8.00e-03,
646,-8.40e-02,4.20e-02,
647,6.40e-02,-7.00e-02,
648,-5.48e-01,2.56e-01,
649,4.72e-01,-2.54e-01,
650,1.20e-02,-8.00e-03,
651,-1.60e-02,1.40e-02,
652,1.20e-02,-8.00e-03,
653,-1.20e-02,1.40e-02,
654,1.20e-02,1.40e-02,
655,-1.60e-02,-8.00e-03,
656,1.20e-02,1.40e-02,
657,-1.60e-02,-8.00e-03,
658,1.20e-02,1.40e-02,
659,-1.60e-02,-8.00e-03,
660,-1.20e-02,1.60e-02,
661,1.20e-02,-8.00e-03,
662,1.20e-02,1.40e-02,
663,-1.60e-02,-8.00e-03,
664,1.20e-02,1.20e-02,
665,-1.60e-02,-8.00e-03,
666,-1.20e-02,1.40e-02,
667,1.20e-02,-6.00e-03,
668,-1.68e-01,2.28e-01,
669,1.52e-01,-2.50e-01,
670,1.20e-02,-8.00e-03,
671,-1.20e-02,1.40e-02,
672,-1.20e-02,-8.00e-03,
673,1.20e-02,1.40e-02,
674,1.20e-02,1.40e-02,
675,-1.20e-02,-8.00e-03,
676,-1.20e-02,1.40e-02,
677,1.20e-02,-8.00e-03,
678,-1.20e-02,1.40e-02,
679,1.20e-02,-8.00e-03,
680,-1.20e-02,-8.00e-03,
681,1.20e-02,1.40e-02,
682,-1.60e-02,1.40e-02,
683,1.60e-02,-8.00e-03,
684,-1.20e-02,1.40e-02,
685,1.20e-02,-8.00e-03,
686,-1.20e-02,1.40e-02,
687,1.20e-02,-8.00e-03,
688,1.20e-02,1.20e-02,
689,-1.20e-02,-8.00e-03,
690,1.20e-02,1.40e-02,
691,-1.60e-02,-8.00e-03,
692,6.00e-02,1.40e-02,
693,-2.00e-02,-2.00e-02,
694,-3.12e-01,-4.80e-02,
695,4.24e-01,1.36e-01,
696,-1.20e-02,-8.00e-03,
697,1.20e-02,1.40e-02,
698,-1.20e-02,-8.00e-03,
699,1.20e-02,1.40e-02,
700,1.20e-02,1.40e-02,
701,-1.60e-02,-8.00e-03,
702,1.20e-02,-8.00e-03,
703,-1.20e-02,1.40e-02,
704,1.20e-02,-8.00e-03,
705,-1.60e-02,1.40e-02,
706,-1.20e-02,-8.00e-03,
707,1.20e-02,1.40e-02,
708,-1.20e-02,-8.00e-03,
709,1.20e-02,1.40e-02,
710,1.20e-02,-8.00e-03,
711,-1.60e-02,1.40e-02,
712,-1.20e-02,1.40e-02,
713,1.20e-02,-6.00e-03,
714,2.32e-01,1.62e-01,
715,-1.64e-01,-1.62e-01,
716,1.20e-02,-6.00e-03,
717,-1.20e-02,1.40e-02,
718,-1.20e-02,-8.00e-03,
719,1.20e-02,1.40e-02,
720,1.20e-02,-6.00e-03,
721,-1.60e-02,1.40e-02,
722,1.20e-02,1.40e-02,
723,-1.60e-02,-8.00e-03,
724,1.20e-02,1.40e-02,
725,-1.60e-02,-8.00e-03,
726,-1.20e-02,1.40e-02,
727,1.20e-02,-8.00e-03,
728,-1.20e-02,-8.00e-03,
729,1.20e-02,1.40e-02,
730,1.20e-02,1.20e-02,
731,-1.60e-02,-8.00e-03,
732,1.20e-02,1.40e-02,
733,-1.60e-02,-8.00e-03,
734,1.20e-02,1.40e-02,
735,-1.20e-02,-8.00e-03,
736,-1.20e-02,1.40e-02,
737,1.20e-02,-8.00e-03,
738,-1.20e-02,1.40e-02,
739,1.20e-02,-8.00e-03,
740,4.72e-01,2.56e-01,
741,-5.24e-01,-2.54e-01,
742,-3.80e-01,1.52e-01,
743,3.72e-01,-1.78e-01,
744,-1.20e-02,1.40e-02,
745,1.20e-02,-8.00e-03,
746,-1.60e-02,-8.00e-03,
747,1.20e-02,1.40e-02,
748,-1.20e-02,-8.00e-03,
749,1.20e-02,1.40e-02,
750,1.20e-02,-8.00e-03,
751,-1.20e-02,1.40e-02,
752,1.20e-02,-8.00e-03,
753,-1.60e-02,1.40e-02,
754,-1.20e-02,1.40e-02,
755,1.20e-02,-8.00e-03,
756,-1.60e-02,-8.00e-03,
757,1.20e-02,1.40e-02,
758,1.20e-02,-8.00e-03,
759,-1.60e-02,1.20e-02,
760,6.80e-02,-2.40e-02,
761,-6.40e-02,2.80e-02,
762,-1.20e-02,-8.00e-03,
763,1.20e-02,1.40e-02,
764,-1.60e-02,-8.00e-03,
765,1.20e-02,1.40e-02,
766,1.20e-02,-8.00e-03,
767,-1.60e-02,1.40e-02,
768,1.20e-02,1.20e-02,
769,-1.60e-02,-8.00e-03,
770,-1.60e-02,1.40e-02,
771,1.60e-02,-8.00e-03,
772,-1.20e-02,1.40e-02,
773,1.20e-02,-8.00e-03,
774,-1.20e-02,-6.00e-03,
775,1.20e-02,1.40e-02,
776,-1.20e-02,1.40e-02,
777,1.20e-02,-8.00e-03,
778,1.20e-02,-8.00e-03,
779,-1.60e-02,1.60e-02,
780,-1.20e-02,1.40e-02,
781,1.20e-02,-8.00e-03,
782,-1.60e-02,-8.00e-03,
783,1.20e-02,1.40e-02,
784,-1.20e-02,1.40e-02,
785,1.20e-02,-8.00e-03,
786,1.20e-02,-6.00e-03,
787,-1.60e-02,1.40e-02,
788,-6.00e-02,-7.40e-02,
789,4.00e-02,7.60e-02,
790,1.20e-02,2.56e-01,
791,-2.24e-01,-2.54e-01,
792,1.20e-02,1.40e-02,
793,-1.60e-02,-8.00e-03,
794,1.20e-02,1.40e-02,
795,-1.60e-02,-8.00e-03,
796,1.20e-02,1.40e-02,
797,-1.60e-02,-8.00e-03,
798,1.20e-02,-8.00e-03,
799,-1.60e-02,1.40e-02,
800,1.20e-02,1.40e-02,
801,-1.60e-02,-8.00e-03,
802,1.20e-02,1.40e-02,
803,-1.60e-02,-8.00e-03,
804,1.20e-02,-8.00e-03,
805,-1.60e-02,1.40e-02,
806,1.20e-02,1.40e-02,
807,-1.20e-02,-8.00e-03,
808,-4.00e-01,-2.16e-01,
809,4.72e-01,2.44e-01,
810,1.20e-02,-8.00e-03,
811,-1.60e-02,1.40e-02,
812,-1.20e-02,1.40e-02,
813,1.20e-02,-6.00e-03,
814,-1.60e-02,1.40e-02,
815,1.60e-02,-8.00e-03,
816,-1.60e-02,1.40e-02,
817,1.20e-02,-8.00e-03,
818,1.20e-02,-6.00e-03,
819,-1.60e-02,1.40e-02,
820,1.20e-02,1.40e-02,
821,-1.60e-02,-8.00e-03,
822,1.20e-02,-8.00e-03,
823,-1.60e-02,1.60e-02,
824,1.20e-02,1.40e-02,
825,-1.60e-02,-8.00e-03,
826,1.20e-02,-8.00e-03,
827,-1.60e-02,1.40e-02,
828,1.20e-02,-6.00e-03,
829,-1.60e-02,1.60e-02,
830,-1.20e-02,1.40e-02,
831,1.20e-02,-8.00e-03,
832,1.20e-02,1.40e-02,
833,-1.60e-02,-6.00e-03,
