Motor_Data/MOTOR_3_ON/time domain/NewFile67.csv

X,CH1,CH2,Start,Increment,
Sequence,Volt,Volt,-3.000000e-02,5.000000e-05
0,1.20e-02,1.20e-02,
1,-1.60e-02,-1.00e-02,
2,1.20e-02,-8.00e-03,
3,-1.60e-02,1.20e-02,
4,-1.20e-02,-1.00e-02,
5,1.20e-02,1.40e-02,
6,1.20e-02,1.20e-02,
7,-1.60e-02,-1.00e-02,
8,-3.32e-01,-2.04e-01,
9,3.56e-01,1.06e-01,
10,1.20e-02,1.40e-02,
11,-1.60e-02,-1.00e-02,
12,1.20e-02,-8.00e-03,
13,-1.60e-02,1.40e-02,
14,1.20e-02,1.40e-02,
15,-1.60e-02,-8.00e-03,
16,-1.60e-02,-8.00e-03,
17,1.20e-02,1.40e-02,
18,1.20e-02,1.40e-02,
19,-1.60e-02,-8.00e-03,
20,-1.20e-02,-8.00e-03,
21,1.20e-02,1.40e-02,
22,1.20e-02,-8.00e-03,
23,-1.60e-02,1.20e-02,
24,1.20e-02,-8.00e-03,
25,-1.60e-02,1.40e-02,
26,1.20e-02,1.40e-02,
27,-1.60e-02,-8.00e-03,
28,-1.20e-02,-8.00e-03,
29,1.20e-02,1.40e-02,
30,1.20e-02,1.40e-02,
31,-1.60e-02,-8.00e-03,
32,-1.60e-02,-1.00e-02,
33,1.20e-02,1.20e-02,
34,4.72e-01,2.56e-01,
35,-3.04e-01,-2.22e-01,
36,1.20e-02,-8.00e-03,
37,-1.60e-02,1.40e-02,
38,1.20e-02,-8.00e-03,
39,-1.60e-02,1.40e-02,
40,1.60e-02,-8.00e-03,
41,-1.60e-02,1.60e-02,
42,1.20e-02,-8.00e-03,
43,-1.60e-02,1.40e-02,
44,1.20e-02,-8.00e-03,
45,-1.60e-02,1.40e-02,
46,1.20e-02,1.40e-02,
47,-1.60e-02,-8.00e-03,
48,1.20e-02,-8.00e-03,
49,-1.60e-02,1.40e-02,
50,1.20e-02,1.40e-02,
51,-1.60e-02,-1.00e-02,
52,1.20e-02,-8.00e-03,
53,-1.60e-02,1.40e-02,
54,1.20e-02,-8.00e-03,
55,-1.60e-02,1.40e-02,
56,2.72e-01,2.56e-01,
57,-2.56e-01,-5.40e-02,
58,1.20e-02,-8.00e-03,
59,-1.60e-02,1.40e-02,
60,1.20e-02,1.40e-02,
61,-1.60e-02,-8.00e-03,
62,1.20e-02,-8.00e-03,
63,-1.60e-02,1.40e-02,
64,1.20e-02,1.40e-02,
65,-1.60e-02,-1.00e-02,
66,1.20e-02,-8.00e-03,
67,-1.60e-02,1.40e-02,
68,1.20e-02,-8.00e-03,
69,-1.60e-02,1.40e-02,
70,1.20e-02,-8.00e-03,
71,-1.60e-02,1.40e-02,
72,1.20e-02,-8.00e-03,
73,-1.60e-02,1.40e-02,
74,1.20e-02,-8.00e-03,
75,-1.60e-02,1.40e-02,
76,1.20e-02,1.20e-02,
77,-1.60e-02,-8.00e-03,
78,-1.20e-02,1.40e-02,
79,1.20e-02,-8.00e-03,
80,1.20e-02,-8.00e-03,
81,-1.60e-02,1.20e-02,
82,1.20e-02,-8.00e-03,
83,-1.60e-02,1.40e-02,
84,-3.48e-01,1.58e-01,
85,3.16e-01,-2.26e-01,
86,1.20e-02,-8.00e-03,
87,-1.60e-02,1.40e-02,
88,1.20e-02,1.40e-02,
89,-1.60e-02,-8.00e-03,
90,1.20e-02,-8.00e-03,
91,-1.60e-02,1.40e-02,
92,1.20e-02,-8.00e-03,
93,-1.60e-02,1.40e-02,
94,1.20e-02,1.20e-02,
95,-1.60e-02,-8.00e-03,
96,1.20e-02,-8.00e-03,
97,-1.60e-02,1.40e-02,
98,1.20e-02,-8.00e-03,
99,-1.60e-02,1.40e-02,
100,1.64e-01,-5.80e-02,
101,-1.88e-01,7.00e-02,
102,1.20e-02,-1.00e-02,
103,-1.60e-02,1.40e-02,
104,1.20e-02,1.40e-02,
105,-1.60e-02,-1.00e-02,
106,1.20e-02,-8.00e-03,
107,-1.60e-02,1.40e-02,
108,-1.60e-02,-8.00e-03,
109,1.20e-02,1.40e-02,
110,-1.60e-02,1.40e-02,
111,1.60e-02,-8.00e-03,
112,1.20e-02,-8.00e-03,
113,-1.60e-02,1.40e-02,
114,1.20e-02,-8.00e-03,
115,-1.60e-02,1.40e-02,
116,-1.60e-02,-1.00e-02,
117,1.20e-02,1.40e-02,
118,-1.20e-02,1.40e-02,
119,1.20e-02,-1.00e-02,
120,1.20e-02,-1.00e-02,
121,-1.60e-02,1.40e-02,
122,-1.20e-02,-8.00e-03,
123,1.20e-02,1.40e-02,
124,1.20e-02,1.40e-02,
125,-1.60e-02,-8.00e-03,
126,-1.20e-02,-8.00e-03,
127,1.20e-02,1.40e-02,
128,-7.20e-02,-6.60e-02,
129,3.60e-02,6.80e-02,
130,4.72e-01,-2.54e-01,
131,-5.48e-01,2.56e-01,
132,1.20e-02,-8.00e-03,
133,-1.60e-02,1.40e-02,
134,-1.20e-02,-8.00e-03,
135,1.20e-02,1.40e-02,
136,-1.20e-02,-8.00e-03,
137,1.20e-02,1.20e-02,
138,1.20e-02,1.20e-02,
139,-1.60e-02,-1.00e-02,
140,1.20e-02,-8.00e-03,
141,-1.60e-02,1.40e-02,
142,1.20e-02,-8.00e-03,
143,-1.60e-02,1.40e-02,
144,1.20e-02,-8.00e-03,
145,-1.60e-02,1.40e-02,
146,-1.60e-02,1.20e-02,
147,1.60e-02,-1.00e-02,
148,1.20e-02,1.40e-02,
149,-1.60e-02,-8.00e-03,
150,3.80e-01,-2.12e-01,
151,-2.48e-01,1.76e-01,
152,1.20e-02,-8.00e-03,
153,-1.60e-02,1.40e-02,
154,1.20e-02,-8.00e-03,
155,-1.60e-02,1.40e-02,
156,1.20e-02,1.20e-02,
157,-1.60e-02,-8.00e-03,
158,-1.20e-02,-8.00e-03,
159,1.20e-02,1.40e-02,
160,-1.20e-02,1.40e-02,
161,1.20e-02,-8.00e-03,
162,-1.20e-02,1.20e-02,
163,1.20e-02,-1.00e-02,
164,1.20e-02,1.20e-02,
165,-1.60e-02,-1.00e-02,
166,-1.20e-02,1.40e-02,
167,1.20e-02,-8.00e-03,
168,-1.20e-02,-8.00e-03,
169,1.20e-02,1.40e-02,
170,-1.20e-02,1.40e-02,
171,1.20e-02,-8.00e-03,
172,-1.60e-02,-8.00e-03,
173,1.20e-02,1.40e-02,
174,-1.20e-02,-8.00e-03,
175,1.60e-02,1.40e-02,
176,4.72e-01,-1.70e-01,
177,-5.48e-01,1.82e-01,
178,1.20e-02,-8.00e-03,
179,-1.20e-02,1.40e-02,
180,-1.60e-02,-8.00e-03,
181,1.20e-02,1.40e-02,
182,1.20e-02,-8.00e-03,
183,-1.20e-02,1.40e-02,
184,1.20e-02,-8.00e-03,
185,-1.60e-02,1.40e-02,
186,1.20e-02,-8.00e-03,
187,-1.60e-02,1.40e-02,
188,1.20e-02,-8.00e-03,
189,-1.60e-02,1.40e-02,
190,1.20e-02,-8.00e-03,
191,-1.60e-02,1.20e-02,
192,-1.20e-02,1.40e-02,
193,1.20e-02,-1.00e-02,
194,1.20e-02,1.40e-02,
195,-1.20e-02,-8.00e-03,
196,1.20e-02,2.56e-01,
197,-2.72e-01,-1.92e-01,
198,-1.20e-01,1.02e-01,
199,1.64e-01,-4.40e-02,
200,1.20e-02,-8.00e-03,
201,-1.60e-02,1.40e-02,
202,-1.20e-02,1.20e-02,
203,1.20e-02,-1.00e-02,
204,-1.20e-02,1.40e-02,
205,1.20e-02,-8.00e-03,
206,-1.20e-02,-8.00e-03,
207,1.20e-02,1.40e-02,
208,1.60e-02,1.40e-02,
209,-1.60e-02,-8.00e-03,
210,1.20e-02,-8.00e-03,
211,-1.60e-02,1.40e-02,
212,1.20e-02,-8.00e-03,
213,-1.60e-02,1.40e-02,
214,1.20e-02,1.20e-02,
215,-1.60e-02,-8.00e-03,
216,1.20e-02,-8.00e-03,
217,-1.60e-02,1.40e-02,
218,1.20e-02,-1.00e-02,
219,-1.60e-02,1.40e-02,
220,-1.20e-02,-8.00e-03,
221,1.20e-02,1.40e-02,
222,1.20e-02,1.40e-02,
223,-1.60e-02,-8.00e-03,
224,-5.48e-01,1.36e-01,
225,4.72e-01,-1.62e-01,
226,1.20e-02,-8.00e-03,
227,-1.60e-02,1.40e-02,
228,-1.60e-02,1.40e-02,
229,1.20e-02,-8.00e-03,
230,1.20e-02,-8.00e-03,
231,-1.60e-02,1.40e-02,
232,1.20e-02,1.20e-02,
233,-1.60e-02,-1.00e-02,
234,1.20e-02,-1.00e-02,
235,-1.60e-02,1.40e-02,
236,-1.20e-02,-8.00e-03,
237,1.20e-02,1.40e-02,
238,1.20e-02,-8.00e-03,
239,-1.60e-02,1.60e-02,
240,1.20e-02,1.40e-02,
241,-1.60e-02,-8.00e-03,
242,2.12e-01,1.02e-01,
243,-2.72e-01,-7.60e-02,
244,1.20e-02,1.40e-02,
245,-1.20e-02,-8.00e-03,
246,-1.20e-02,1.40e-02,
247,1.20e-02,-8.00e-03,
248,-1.20e-02,-8.00e-03,
249,1.20e-02,1.40e-02,
250,1.20e-02,1.40e-02,
251,-1.60e-02,-8.00e-03,
252,1.20e-02,-8.00e-03,
253,-1.60e-02,1.40e-02,
254,1.20e-02,-8.00e-03,
255,-1.60e-02,1.40e-02,
256,-1.20e-02,1.40e-02,
257,1.20e-02,-8.00e-03,
258,1.20e-02,-1.00e-02,
259,-1.20e-02,1.40e-02,
260,1.20e-02,1.40e-02,
261,-1.60e-02,-8.00e-03,
262,-1.20e-02,-8.00e-03,
263,1.60e-02,1.40e-02,
264,-1.20e-02,1.40e-02,
265,1.20e-02,-1.00e-02,
266,-1.20e-02,-8.00e-03,
267,1.20e-02,1.40e-02,
268,1.20e-02,1.40e-02,
269,-1.60e-02,-8.00e-03,
270,-3.20e-02,-6.00e-02,
271,1.20e-02,4.00e-02,
272,4.72e-01,-2.50e-01,
273,-3.00e-01,2.50e-01,
274,1.20e-02,1.40e-02,
275,-1.60e-02,-8.00e-03,
276,1.20e-02,1.40e-02,
277,-1.20e-02,-1.00e-02,
278,1.20e-02,1.20e-02,
279,-1.60e-02,-8.00e-03,
280,-1.20e-02,1.40e-02,
281,1.20e-02,-8.00e-03,
282,1.20e-02,-8.00e-03,
283,-1.20e-02,1.40e-02,
284,1.60e-02,-8.00e-03,
285,-1.60e-02,1.40e-02,
286,1.20e-02,-8.00e-03,
287,-1.60e-02,1.40e-02,
288,1.20e-02,-8.00e-03,
289,-1.60e-02,1.40e-02,
290,4.60e-01,2.56e-01,
291,-4.68e-01,-2.20e-01,
292,1.20e-02,1.40e-02,
293,-1.60e-02,-1.00e-02,
294,1.20e-02,-8.00e-03,
295,-1.60e-02,1.20e-02,
296,1.20e-02,-8.00e-03,
297,-1.60e-02,1.40e-02,
298,1.20e-02,-8.00e-03,
299,-1.60e-02,1.40e-02,
300,1.20e-02,-8.00e-03,
301,-1.60e-02,1.40e-02,
302,1.20e-02,1.20e-02,
303,-1.20e-02,-8.00e-03,
304,1.20e-02,1.40e-02,
305,-1.20e-02,-1.00e-02,
306,-1.20e-02,-8.00e-03,
307,1.20e-02,1.40e-02,
308,1.20e-02,-8.00e-03,
309,-1.20e-02,1.40e-02,
310,-1.20e-02,1.20e-02,
311,1.20e-02,-8.00e-03,
312,1.20e-02,-8.00e-03,
313,-1.60e-02,1.40e-02,
314,1.20e-02,-8.00e-03,
315,-1.20e-02,1.40e-02,
316,4.40e-01,2.18e-01,
317,-4.48e-01,-2.22e-01,
318,1.20e-02,-8.00e-03,
319,-1.60e-02,1.20e-02,
320,-1.20e-02,-1.00e-02,
321,1.20e-02,1.40e-02,
322,1.20e-02,1.40e-02,
323,-1.60e-02,-8.00e-03,
324,-1.60e-02,-8.00e-03,
325,1.20e-02,1.40e-02,
326,1.20e-02,-8.00e-03,
327,-1.60e-02,1.20e-02,
328,1.20e-02,-8.00e-03,
329,-1.60e-02,1.40e-02,
330,-1.20e-02,-8.00e-03,
331,1.20e-02,1.40e-02,
332,1.20e-02,1.20e-02,
333,-1.60e-02,-8.00e-03,
334,1.20e-02,-1.00e-02,
335,-1.60e-02,1.40e-02,
336,1.20e-02,-8.00e-03,
337,-1.60e-02,1.40e-02,
338,-2.16e-01,-2.28e-01,
339,3.56e-01,9.60e-02,
340,1.20e-02,1.20e-02,
341,-1.60e-02,-8.00e-03,
342,-1.20e-02,-8.00e-03,
343,1.20e-02,1.40e-02,
344,1.20e-02,-1.00e-02,
345,-1.60e-02,1.40e-02,
346,1.20e-02,-8.00e-03,
347,-1.60e-02,1.40e-02,
348,1.20e-02,-8.00e-03,
349,-1.60e-02,1.40e-02,
350,1.20e-02,1.40e-02,
351,-1.20e-02,-8.00e-03,
352,1.20e-02,-8.00e-03,
353,-1.20e-02,1.60e-02,
354,1.20e-02,-8.00e-03,
355,-1.20e-02,1.40e-02,
356,-1.20e-02,1.40e-02,
357,1.20e-02,-8.00e-03,
358,1.20e-02,1.40e-02,
359,-1.60e-02,-8.00e-03,
360,1.20e-02,-8.00e-03,
361,-1.60e-02,1.40e-02,
362,1.20e-02,1.40e-02,
363,-1.60e-02,-8.00e-03,
364,1.20e-02,-8.00e-03,
365,-1.60e-02,1.40e-02,
366,-4.52e-01,1.22e-01,
367,4.72e-01,-2.54e-01,
368,-1.20e-02,1.20e-02,
369,1.20e-02,-8.00e-03,
370,1.20e-02,1.20e-02,
371,-1.60e-02,-8.00e-03,
372,1.20e-02,1.40e-02,
373,-1.60e-02,-1.00e-02,
374,1.20e-02,-8.00e-03,
375,-1.60e-02,1.40e-02,
376,-1.60e-02,-8.00e-03,
377,1.60e-02,1.40e-02,
378,1.20e-02,1.20e-02,
379,-1.60e-02,-8.00e-03,
380,-1.20e-02,-8.00e-03,
381,1.20e-02,1.40e-02,
382,-1.20e-02,-8.00e-03,
383,1.20e-02,1.40e-02,
384,-1.28e-01,6.20e-02,
385,1.16e-01,-6.20e-02,
386,1.20e-02,-8.00e-03,
387,-1.60e-02,1.40e-02,
388,-1.60e-02,-8.00e-03,
389,1.20e-02,1.40e-02,
390,1.20e-02,-8.00e-03,
391,-1.60e-02,1.20e-02,
392,1.20e-02,1.20e-02,
393,-1.60e-02,-8.00e-03,
394,1.20e-02,1.40e-02,
395,-1.60e-02,-8.00e-03,
396,1.20e-02,-8.00e-03,
397,-1.60e-02,1.40e-02,
398,1.20e-02,1.20e-02,
399,-1.60e-02,-8.00e-03,
400,-1.20e-02,-1.00e-02,
401,1.60e-02,1.40e-02,
402,1.20e-02,1.40e-02,
403,-1.60e-02,-1.00e-02,
404,1.20e-02,1.40e-02,
405,-1.60e-02,-8.00e-03,
406,1.20e-02,-8.00e-03,
407,-1.20e-02,1.40e-02,
408,-1.60e-02,-8.00e-03,
409,1.20e-02,1.40e-02,
410,5.60e-02,-1.00e-02,
411,-4.00e-02,5.00e-02,
412,5.60e-02,-8.00e-03,
413,-3.64e-01,1.80e-02,
414,3.00e-01,2.56e-01,
415,-2.16e-01,-1.66e-01,
416,1.20e-02,-8.00e-03,
417,-1.60e-02,1.40e-02,
418,1.20e-02,-8.00e-03,
419,-1.60e-02,1.40e-02,
420,1.20e-02,-8.00e-03,
421,-1.60e-02,1.40e-02,
422,-1.20e-02,-8.00e-03,
423,1.20e-02,1.40e-02,
424,1.20e-02,-1.00e-02,
425,-1.60e-02,1.40e-02,
426,1.20e-02,1.40e-02,
427,-1.60e-02,-1.00e-02,
428,1.20e-02,-8.00e-03,
429,-1.60e-02,1.40e-02,
430,1.20e-02,-8.00e-03,
431,-1.60e-02,1.40e-02,
432,-1.36e-01,-1.40e-01,
433,2.92e-01,2.56e-01,
434,1.20e-02,-8.00e-03,
435,-1.60e-02,1.40e-02,
436,-1.60e-02,-8.00e-03,
437,1.20e-02,1.40e-02,
438,1.20e-02,1.40e-02,
439,-1.60e-02,-1.00e-02,
440,1.20e-02,1.40e-02,
441,-1.60e-02,-1.00e-02,
442,1.20e-02,-8.00e-03,
443,-1.60e-02,1.20e-02,
444,1.20e-02,1.40e-02,
445,-1.60e-02,-8.00e-03,
446,1.20e-02,-8.00e-03,
447,-1.60e-02,1.40e-02,
448,1.20e-02,-8.00e-03,
449,-1.60e-02,1.40e-02,
450,-1.60e-02,-1.00e-02,
451,1.20e-02,1.40e-02,
452,1.20e-02,1.40e-02,
453,-1.60e-02,-8.00e-03,
454,1.20e-02,-8.00e-03,
455,-1.60e-02,1.20e-02,
456,1.20e-02,1.20e-02,
457,-1.60e-02,-8.00e-03,
458,-5.40e-01,-1.88e-01,
459,4.72e-01,1.42e-01,
460,1.20e-02,1.40e-02,
461,-1.60e-02,-8.00e-03,
462,1.20e-02,1.20e-02,
463,-1.60e-02,-1.00e-02,
464,-1.20e-02,1.20e-02,
465,1.20e-02,-8.00e-03,
466,1.20e-02,-8.00e-03,
467,-1.60e-02,1.40e-02,
468,1.20e-02,-8.00e-03,
469,-1.60e-02,1.40e-02,
470,1.20e-02,1.40e-02,
471,-1.20e-02,-1.00e-02,
472,1.20e-02,1.40e-02,
473,-1.60e-02,-1.00e-02,
474,1.20e-02,-8.00e-03,
475,-1.20e-02,1.40e-02,
476,1.20e-02,-8.00e-03,
477,-1.60e-02,1.40e-02,
478,1.20e-02,-8.00e-03,
479,-1.60e-02,1.20e-02,
480,2.36e-01,-1.98e-01,
481,-1.60e-01,2.22e-01,
482,-1.60e-02,-8.00e-03,
483,1.20e-02,1.40e-02,
484,-1.20e-02,-8.00e-03,
485,1.20e-02,1.20e-02,
486,1.20e-02,-8.00e-03,
487,-1.60e-02,1.40e-02,
488,-1.60e-02,-8.00e-03,
489,1.20e-02,1.40e-02,
490,1.20e-02,1.20e-02,
491,-1.60e-02,-1.00e-02,
492,1.20e-02,1.40e-02,
493,-1.60e-02,-1.00e-02,
494,-1.60e-02,-8.00e-03,
495,1.20e-02,1.40e-02,
496,1.20e-02,-8.00e-03,
497,-1.60e-02,1.40e-02,
498,1.20e-02,-8.00e-03,
499,-1.60e-02,1.40e-02,
500,-1.20e-02,-8.00e-03,
501,1.20e-02,1.40e-02,
502,1.20e-02,-8.00e-03,
503,-1.60e-02,1.20e-02,
504,1.20e-02,-8.00e-03,
505,-1.60e-02,1.40e-02,
506,1.24e-01,-1.66e-01,
507,-3.64e-01,1.66e-01,
508,1.08e-01,-1.02e-01,
509,-2.40e-02,8.00e-02,
510,-1.60e-02,-8.00e-03,
511,1.20e-02,1.40e-02,
512,1.20e-02,-8.00e-03,
513,-1.60e-02,1.20e-02,
514,1.20e-02,-8.00e-03,
515,-1.60e-02,1.20e-02,
516,1.20e-02,1.20e-02,
517,-1.60e-02,-8.00e-03,
518,1.20e-02,-8.00e-03,
519,-1.60e-02,1.40e-02,
520,1.20e-02,1.20e-02,
521,-1.60e-02,-8.00e-03,
522,1.20e-02,-8.00e-03,
523,-1.60e-02,1.40e-02,
524,1.56e-01,5.80e-02,
525,-1.48e-01,-6.20e-02,
526,1.20e-02,-8.00e-03,
527,-1.60e-02,1.40e-02,
528,1.20e-02,-8.00e-03,
529,-1.60e-02,1.40e-02,
530,1.20e-02,-8.00e-03,
531,-1.60e-02,1.40e-02,
532,1.20e-02,-8.00e-03,
533,-1.60e-02,1.40e-02,
534,-1.20e-02,1.20e-02,
535,1.20e-02,-8.00e-03,
536,1.20e-02,1.40e-02,
537,-1.60e-02,-8.00e-03,
538,1.20e-02,1.20e-02,
539,-1.60e-02,-1.00e-02,
540,1.20e-02,-8.00e-03,
541,-1.60e-02,1.40e-02,
542,1.20e-02,-8.00e-03,
543,-1.60e-02,1.20e-02,
544,-1.60e-02,-8.00e-03,
545,1.20e-02,1.40e-02,
546,1.20e-02,-8.00e-03,
547,-1.60e-02,1.40e-02,
548,1.20e-02,-8.00e-03,
549,-1.60e-02,1.40e-02,
550,-1.60e-02,-8.00e-03,
551,1.20e-02,1.40e-02,
552,6.80e-02,-3.00e-02,
553,-1.60e-02,3.80e-02,
554,4.72e-01,-2.54e-01,
555,-1.04e-01,2.56e-01,
556,1.20e-02,1.40e-02,
557,-1.60e-02,-1.00e-02,
558,-1.60e-02,-8.00e-03,
559,1.20e-02,1.40e-02,
560,-1.60e-02,-8.00e-03,
561,1.20e-02,1.40e-02,
562,1.20e-02,-8.00e-03,
563,-1.60e-02,1.40e-02,
564,-1.20e-02,-8.00e-03,
565,1.20e-02,1.40e-02,
566,-1.60e-02,1.20e-02,
567,1.20e-02,-8.00e-03,
568,1.20e-02,-8.00e-03,
569,-1.60e-02,1.40e-02,
570,1.20e-02,-8.00e-03,
571,-1.60e-02,1.20e-02,
572,1.20e-02,1.40e-02,
573,-1.60e-02,-8.00e-03,
574,2.40e-01,2.56e-01,
575,-4.08e-01,-7.80e-02,
576,1.20e-02,1.40e-02,
577,-1.60e-02,-1.00e-02,
578,1.20e-02,1.40e-02,
579,-1.20e-02,-8.00e-03,
580,1.20e-02,-8.00e-03,
581,-1.60e-02,1.40e-02,
582,1.20e-02,1.40e-02,
583,-1.60e-02,-8.00e-03,
584,1.20e-02,1.40e-02,
585,-1.60e-02,-1.00e-02,
586,1.20e-02,1.40e-02,
587,-1.60e-02,-1.00e-02,
588,-1.60e-02,-8.00e-03,
589,1.20e-02,1.40e-02,
590,-1.60e-02,1.40e-02,
591,1.20e-02,-8.00e-03,
592,1.20e-02,-8.00e-03,
593,-1.60e-02,1.40e-02,
594,1.20e-02,-8.00e-03,
595,-1.60e-02,1.40e-02,
596,1.20e-02,-8.00e-03,
597,-1.60e-02,1.40e-02,
598,1.20e-02,1.20e-02,
599,-1.84e-01,-1.04e-01,
600,-5.48e-01,2.00e-01,
601,4.72e-01,-1.76e-01,
602,1.20e-02,-8.00e-03,
603,-1.60e-02,1.20e-02,
604,1.20e-02,1.40e-02,
605,-1.60e-02,-1.00e-02,
606,1.20e-02,-8.00e-03,
607,-1.60e-02,1.40e-02,
608,1.20e-02,1.20e-02,
609,-1.60e-02,-8.00e-03,
610,1.20e-02,-8.00e-03,
611,-1.60e-02,1.40e-02,
612,1.20e-02,-8.00e-03,
613,-1.60e-02,1.40e-02,
614,1.20e-02,-8.00e-03,
615,-1.60e-02,1.40e-02,
616,1.20e-02,-8.00e-03,
617,-1.60e-02,1.40e-02,
618,1.20e-02,-8.00e-03,
619,-1.60e-02,1.40e-02,
620,-2.64e-01,-2.06e-01,
621,3.08e-01,2.56e-01,
622,1.20e-02,-8.00e-03,
623,-1.60e-02,1.40e-02,
624,1.20e-02,1.20e-02,
625,-1.60e-02,-8.00e-03,
626,1.20e-02,-8.00e-03,
627,-1.60e-02,1.40e-02,
628,1.20e-02,-8.00e-03,
629,-1.60e-02,1.40e-02,
630,1.20e-02,-8.00e-03,
631,-1.60e-02,1.40e-02,
632,-1.20e-02,-8.00e-03,
633,1.20e-02,1.40e-02,
634,1.20e-02,-8.00e-03,
635,-1.60e-02,1.40e-02,
636,1.20e-02,-8.00e-03,
637,-1.60e-02,1.40e-02,
638,-1.60e-02,-8.00e-03,
639,1.20e-02,1.40e-02,
640,1.20e-02,1.40e-02,
641,-1.60e-02,-1.00e-02,
642,1.20e-02,-8.00e-03,
643,-1.60e-02,1.40e-02,
644,-1.60e-02,1.40e-02,
645,1.20e-02,-8.00e-03,
646,1.20e-02,1.40e-02,
647,-1.60e-02,-1.00e-02,
648,4.72e-01,-1.72e-01,
649,-5.48e-01,1.54e-01,
650,1.20e-02,-8.00e-03,
651,-1.60e-02,1.20e-02,
652,1.20e-02,-8.00e-03,
653,-1.60e-02,1.40e-02,
654,1.20e-02,-8.00e-03,
655,-1.60e-02,1.20e-02,
656,1.20e-02,-8.00e-03,
657,-1.60e-02,1.40e-02,
658,-1.20e-02,1.20e-02,
659,1.20e-02,-8.00e-03,
660,1.20e-02,1.20e-02,
661,-1.60e-02,-8.00e-03,
662,1.20e-02,-8.00e-03,
663,-1.60e-02,1.40e-02,
664,-1.20e-02,-8.00e-03,
665,1.20e-02,1.40e-02,
666,1.36e-01,-5.80e-02,
667,-1.20e-01,8.40e-02,
668,-1.60e-02,-8.00e-03,
669,1.20e-02,1.40e-02,
670,1.20e-02,-8.00e-03,
671,-1.60e-02,1.40e-02,
672,1.20e-02,-8.00e-03,
673,-1.60e-02,1.40e-02,
674,1.20e-02,1.20e-02,
675,-1.60e-02,-8.00e-03,
676,1.20e-02,1.40e-02,
677,-1.60e-02,-8.00e-03,
678,1.20e-02,-8.00e-03,
679,-1.60e-02,1.40e-02,
680,1.20e-02,1.40e-02,
681,-1.60e-02,-8.00e-03,
682,1.20e-02,1.20e-02,
683,-1.60e-02,-8.00e-03,
684,-1.20e-02,-8.00e-03,
685,1.20e-02,1.40e-02,
686,1.20e-02,-8.00e-03,
687,-1.60e-02,1.40e-02,
688,-1.20e-02,-8.00e-03,
689,1.20e-02,1.40e-02,
690,1.20e-02,-8.00e-03,
691,-1.60e-02,1.40e-02,
692,-5.60e-02,-8.00e-03,
693,5.20e-02,3.00e-02,
694,1.20e-02,1.40e-02,
695,-1.60e-02,-8.00e-03,
696,3.84e-01,-1.00e-01,
697,-4.44e-01,2.50e-01,
698,1.20e-02,-8.00e-03,
699,-1.60e-02,1.20e-02,
700,1.20e-02,-8.00e-03,
701,-1.60e-02,1.20e-02,
702,1.20e-02,-8.00e-03,
703,-1.60e-02,1.20e-02,
704,1.20e-02,1.20e-02,
705,-1.60e-02,-1.00e-02,
706,1.20e-02,-8.00e-03,
707,-1.60e-02,1.40e-02,
708,1.20e-02,-8.00e-03,
709,-1.60e-02,1.40e-02,
710,1.20e-02,-8.00e-03,
711,-1.60e-02,1.40e-02,
712,-1.20e-02,1.40e-02,
713,1.20e-02,-8.00e-03,
714,-2.96e-01,-2.28e-01,
715,4.12e-01,2.28e-01,
716,1.20e-02,1.20e-02,
717,-1.60e-02,-8.00e-03,
718,-1.20e-02,-8.00e-03,
719,1.20e-02,1.40e-02,
720,1.20e-02,1.40e-02,
721,-1.60e-02,-8.00e-03,
722,1.20e-02,1.40e-02,
723,-1.60e-02,-8.00e-03,
724,1.20e-02,-8.00e-03,
725,-1.60e-02,1.40e-02,
726,1.20e-02,-8.00e-03,
727,-1.60e-02,1.40e-02,
728,1.20e-02,-8.00e-03,
729,-1.60e-02,1.40e-02,
730,1.20e-02,1.40e-02,
731,-1.60e-02,-1.00e-02,
732,1.20e-02,-8.00e-03,
733,-1.60e-02,1.40e-02,
734,1.20e-02,1.40e-02,
735,-1.60e-02,-1.00e-02,
736,1.20e-02,1.20e-02,
737,-1.60e-02,-8.00e-03,
738,1.20e-02,1.40e-02,
739,-1.60e-02,-1.00e-02,
740,-5.24e-01,1.94e-01,
741,3.92e-01,-2.10e-01,
742,-1.20e-02,-8.00e-03,
743,1.20e-02,1.40e-02,
744,1.20e-02,1.40e-02,
745,-1.60e-02,-1.00e-02,
746,1.20e-02,1.40e-02,
747,-1.60e-02,-1.00e-02,
748,1.20e-02,-8.00e-03,
749,-1.20e-02,1.40e-02,
750,1.20e-02,-8.00e-03,
751,-1.60e-02,1.40e-02,
752,1.20e-02,1.60e-02,
753,-1.60e-02,-8.00e-03,
754,-1.60e-02,-8.00e-03,
755,1.20e-02,1.40e-02,
756,1.20e-02,1.20e-02,
757,-1.60e-02,-8.00e-03,
758,1.20e-02,1.20e-02,
759,-1.60e-02,-8.00e-03,
760,1.20e-02,1.20e-02,
761,-1.60e-02,-1.00e-02,
762,2.76e-01,2.24e-01,
763,-3.04e-01,-1.64e-01,
764,1.20e-02,-8.00e-03,
765,-1.60e-02,1.40e-02,
766,1.20e-02,-8.00e-03,
767,-1.60e-02,1.40e-02,
768,1.20e-02,1.20e-02,
769,-1.60e-02,-1.00e-02,
770,1.20e-02,1.20e-02,
771,-1.60e-02,-8.00e-03,
772,1.20e-02,-8.00e-03,
773,-1.60e-02,1.40e-02,
774,-1.20e-02,-8.00e-03,
775,1.20e-02,1.40e-02,
776,-1.60e-02,-8.00e-03,
777,1.20e-02,1.40e-02,
778,-1.20e-02,1.40e-02,
779,1.20e-02,-1.00e-02,
780,1.20e-02,1.40e-02,
781,-1.60e-02,-8.00e-03,
782,1.20e-02,-8.00e-03,
783,-1.60e-02,1.40e-02,
784,1.20e-02,-8.00e-03,
785,-1.60e-02,1.40e-02,
786,1.20e-02,-1.00e-02,
787,-1.60e-02,1.40e-02,
788,-1.60e-02,1.40e-02,
789,1.20e-02,-8.00e-03,
790,-4.12e-01,-2.54e-01,
791,2.40e-02,2.22e-01,
792,1.20e-02,1.20e-02,
793,-1.60e-02,-1.00e-02,
794,1.20e-02,-8.00e-03,
795,-1.60e-02,1.40e-02,
796,1.20e-02,-8.00e-03,
797,-1.60e-02,1.40e-02,
798,1.60e-02,-8.00e-03,
799,-1.60e-02,1.40e-02,
800,1.20e-02,1.20e-02,
801,-1.60e-02,-8.00e-03,
802,1.20e-02,-8.00e-03,
803,-1.60e-02,1.40e-02,
804,1.20e-02,-8.00e-03,
805,-1.60e-02,1.40e-02,
806,-2.16e-01,-9.60e-02,
807,1.76e-01,1.22e-01,
808,1.20e-02,1.20e-02,
809,-1.60e-02,-8.00e-03,
810,1.20e-02,1.40e-02,
811,-1.20e-02,-8.00e-03,
812,1.20e-02,1.20e-02,
813,-1.60e-02,-8.00e-03,
814,-1.20e-02,1.40e-02,
815,1.20e-02,-8.00e-03,
816,1.20e-02,1.40e-02,
817,-1.60e-02,-8.00e-03,
818,-1.60e-02,-8.00e-03,
819,1.20e-02,1.40e-02,
820,1.20e-02,-8.00e-03,
821,-1.60e-02,1.40e-02,
822,1.20e-02,-8.00e-03,
823,-1.60e-02,1.40e-02,
824,1.20e-02,-8.00e-03,
825,-1.60e-02,1.40e-02,
826,1.20e-02,-8.00e-03,
827,-1.60e-02,1.40e-02,
828,-1.20e-02,1.20e-02,
829,1.20e-02,-8.00e-03,
830,1.20e-02,1.20e-02,
831,-1.60e-02,-8.00e-03,
832,1.20e-02,1.20e-02,
833,-1.60e-02,-8.00e-03,
