Motor_Data/MOTOR_3_ON/time domain/NewFile1(1).csv

X,CH1,CH2,Start,Increment,
Sequence,Volt,Volt,-3.000000e-02,5.000000e-05
0,-1.60e-02,-8.00e-03,
1,1.20e-02,1.40e-02,
2,1.20e-02,-8.00e-03,
3,-1.60e-02,1.40e-02,
4,-2.00e-01,-8.60e-02,
5,2.52e-01,1.32e-01,
6,1.20e-02,1.40e-02,
7,-1.60e-02,-8.00e-03,
8,-1.60e-02,-8.00e-03,
9,1.20e-02,1.40e-02,
10,1.20e-02,1.40e-02,
11,-1.60e-02,-8.00e-03,
12,1.60e-02,1.40e-02,
13,-2.00e-02,-1.00e-02,
14,-1.60e-02,1.40e-02,
15,1.60e-02,-8.00e-03,
16,-1.60e-02,1.40e-02,
17,1.20e-02,-1.00e-02,
18,-1.60e-02,-8.00e-03,
19,1.20e-02,1.40e-02,
20,1.20e-02,-8.00e-03,
21,-1.60e-02,1.60e-02,
22,1.20e-02,-8.00e-03,
23,-1.60e-02,1.40e-02,
24,1.20e-02,-8.00e-03,
25,-1.60e-02,1.60e-02,
26,-1.60e-02,-8.00e-03,
27,1.20e-02,1.40e-02,
28,-1.60e-02,-8.00e-03,
29,1.60e-02,1.40e-02,
30,1.20e-02,1.60e-02,
31,-1.60e-02,-8.00e-03,
32,-1.60e-02,-8.00e-03,
33,1.20e-02,1.60e-02,
34,4.72e-01,2.56e-01,
35,-5.48e-01,-2.54e-01,
36,1.20e-02,-8.00e-03,
37,-1.60e-02,1.40e-02,
38,1.20e-02,1.40e-02,
39,-1.60e-02,-8.00e-03,
40,1.20e-02,1.40e-02,
41,-1.60e-02,-8.00e-03,
42,1.20e-02,1.40e-02,
43,-1.60e-02,-8.00e-03,
44,1.20e-02,1.40e-02,
45,-1.60e-02,-8.00e-03,
46,-1.60e-02,1.40e-02,
47,1.20e-02,-8.00e-03,
48,-1.60e-02,1.40e-02,
49,1.60e-02,-8.00e-03,
50,1.20e-02,1.60e-02,
51,-1.60e-02,-8.00e-03,
52,3.12e-01,-2.10e-01,
53,-3.24e-01,1.74e-01,
54,-1.60e-02,1.40e-02,
55,1.60e-02,-1.00e-02,
56,1.20e-02,1.40e-02,
57,-1.60e-02,-8.00e-03,
58,1.20e-02,1.40e-02,
59,-1.60e-02,-8.00e-03,
60,1.20e-02,-8.00e-03,
61,-1.60e-02,1.40e-02,
62,-1.60e-02,1.40e-02,
63,1.20e-02,-1.00e-02,
64,1.20e-02,-8.00e-03,
65,-1.60e-02,1.40e-02,
66,-1.60e-02,1.40e-02,
67,1.60e-02,-8.00e-03,
68,1.20e-02,-8.00e-03,
69,-1.60e-02,1.40e-02,
70,1.20e-02,-1.00e-02,
71,-1.60e-02,1.40e-02,
72,-1.60e-02,1.40e-02,
73,1.20e-02,-8.00e-03,
74,-1.60e-02,-8.00e-03,
75,1.20e-02,1.40e-02,
76,1.20e-02,1.40e-02,
77,-1.60e-02,-8.00e-03,
78,1.20e-02,1.40e-02,
79,-1.60e-02,-8.00e-03,
80,4.72e-01,-2.54e-01,
81,-5.48e-01,2.56e-01,
82,-1.60e-02,1.40e-02,
83,1.60e-02,-1.00e-02,
84,1.20e-02,-8.00e-03,
85,-1.60e-02,1.40e-02,
86,-1.60e-02,-8.00e-03,
87,1.60e-02,1.40e-02,
88,1.20e-02,-8.00e-03,
89,-1.60e-02,1.40e-02,
90,-1.60e-02,1.40e-02,
91,1.60e-02,-8.00e-03,
92,1.60e-02,1.40e-02,
93,-1.60e-02,-1.00e-02,
94,1.20e-02,-1.00e-02,
95,-1.60e-02,1.40e-02,
96,-1.60e-02,1.40e-02,
97,1.20e-02,-1.00e-02,
98,-1.60e-02,1.40e-02,
99,1.60e-02,-1.00e-02,
100,4.20e-01,-2.54e-01,
101,-3.28e-01,1.82e-01,
102,-1.60e-02,-8.00e-03,
103,1.60e-02,1.40e-02,
104,1.20e-02,1.40e-02,
105,-1.60e-02,-1.00e-02,
106,1.20e-02,-8.00e-03,
107,-1.60e-02,1.40e-02,
108,1.20e-02,1.60e-02,
109,-1.60e-02,-1.00e-02,
110,1.20e-02,-8.00e-03,
111,-1.60e-02,1.40e-02,
112,-1.60e-02,1.40e-02,
113,1.60e-02,-8.00e-03,
114,1.60e-02,1.40e-02,
115,-2.00e-02,-8.00e-03,
116,-1.60e-02,-8.00e-03,
117,1.60e-02,1.60e-02,
118,1.20e-02,-8.00e-03,
119,-1.60e-02,1.60e-02,
120,-1.60e-02,1.40e-02,
121,1.60e-02,-1.00e-02,
122,1.20e-02,-8.00e-03,
123,-1.60e-02,1.40e-02,
124,-1.60e-02,1.40e-02,
125,1.60e-02,-8.00e-03,
126,1.20e-02,-8.00e-03,
127,-1.60e-02,1.60e-02,
128,4.72e-01,-2.54e-01,
129,-5.48e-01,2.56e-01,
130,-1.60e-02,-8.00e-03,
131,1.60e-02,1.40e-02,
132,-1.60e-02,1.40e-02,
133,1.60e-02,-8.00e-03,
134,1.20e-02,1.40e-02,
135,-1.60e-02,-1.00e-02,
136,1.20e-02,-8.00e-03,
137,-1.60e-02,1.40e-02,
138,1.20e-02,-8.00e-03,
139,-1.60e-02,1.40e-02,
140,1.20e-02,-8.00e-03,
141,-1.60e-02,1.40e-02,
142,1.20e-02,-1.00e-02,
143,-1.60e-02,1.40e-02,
144,1.20e-02,1.40e-02,
145,-1.60e-02,-8.00e-03,
146,-2.24e-01,-8.80e-02,
147,2.16e-01,9.00e-02,
148,1.20e-02,-8.00e-03,
149,-1.60e-02,1.40e-02,
150,1.20e-02,1.40e-02,
151,-1.60e-02,-8.00e-03,
152,1.20e-02,-8.00e-03,
153,-1.60e-02,1.40e-02,
154,1.20e-02,1.40e-02,
155,-1.60e-02,-1.00e-02,
156,1.20e-02,1.40e-02,
157,-1.60e-02,-8.00e-03,
158,1.20e-02,1.40e-02,
159,-1.60e-02,-8.00e-03,
160,-1.60e-02,-8.00e-03,
161,1.20e-02,1.40e-02,
162,1.20e-02,1.40e-02,
163,-1.60e-02,-8.00e-03,
164,1.20e-02,-8.00e-03,
165,-1.60e-02,1.40e-02,
166,1.20e-02,-1.00e-02,
167,-1.60e-02,1.40e-02,
168,1.20e-02,1.40e-02,
169,-1.60e-02,-8.00e-03,
170,1.20e-02,1.40e-02,
171,-1.60e-02,-8.00e-03,
172,1.20e-02,-8.00e-03,
173,-1.60e-02,1.40e-02,
174,1.20e-02,-8.00e-03,
175,-1.60e-02,1.40e-02,
176,-5.48e-01,2.56e-01,
177,4.72e-01,-2.54e-01,
178,1.20e-02,1.40e-02,
179,-2.00e-02,-8.00e-03,
180,1.20e-02,1.40e-02,
181,-1.60e-02,-1.00e-02,
182,1.20e-02,1.40e-02,
183,-1.60e-02,-8.00e-03,
184,-1.60e-02,-8.00e-03,
185,1.20e-02,1.40e-02,
186,1.20e-02,1.40e-02,
187,-1.60e-02,-8.00e-03,
188,-1.60e-02,-8.00e-03,
189,1.20e-02,1.40e-02,
190,-1.60e-02,1.40e-02,
191,1.60e-02,-8.00e-03,
192,1.20e-02,1.40e-02,
193,-1.60e-02,-8.00e-03,
194,-5.32e-01,1.20e-01,
195,1.36e-01,-1.82e-01,
196,1.20e-02,1.40e-02,
197,-1.60e-02,-1.00e-02,
198,1.20e-02,-8.00e-03,
199,-1.60e-02,1.60e-02,
200,1.20e-02,-8.00e-03,
201,-1.60e-02,1.60e-02,
202,1.20e-02,1.40e-02,
203,-1.60e-02,-8.00e-03,
204,1.20e-02,-1.00e-02,
205,-1.60e-02,1.40e-02,
206,1.20e-02,1.40e-02,
207,-1.60e-02,-8.00e-03,
208,1.20e-02,-8.00e-03,
209,-1.60e-02,1.40e-02,
210,-1.60e-02,-8.00e-03,
211,1.60e-02,1.40e-02,
212,-1.60e-02,-8.00e-03,
213,1.60e-02,1.40e-02,
214,1.20e-02,-8.00e-03,
215,-1.60e-02,1.40e-02,
216,1.20e-02,1.40e-02,
217,-1.60e-02,-1.00e-02,
218,1.20e-02,1.40e-02,
219,-1.60e-02,-1.00e-02,
220,4.72e-01,-2.54e-01,
221,-5.48e-01,2.56e-01,
222,1.20e-02,-8.00e-03,
223,-1.60e-02,1.40e-02,
224,-1.60e-02,1.40e-02,
225,1.60e-02,-1.00e-02,
226,1.20e-02,-8.00e-03,
227,-1.60e-02,1.40e-02,
228,1.20e-02,-8.00e-03,
229,-1.60e-02,1.40e-02,
230,1.20e-02,1.40e-02,
231,-1.60e-02,-1.00e-02,
232,1.20e-02,-8.00e-03,
233,-1.60e-02,1.60e-02,
234,1.20e-02,1.40e-02,
235,-1.60e-02,-1.00e-02,
236,1.20e-02,-8.00e-03,
237,-1.60e-02,1.40e-02,
238,-1.60e-02,-8.00e-03,
239,1.20e-02,1.40e-02,
240,1.20e-02,1.40e-02,
241,-1.60e-02,-8.00e-03,
242,3.60e-01,-2.46e-01,
243,-3.24e-01,2.56e-01,
244,-1.60e-02,1.40e-02,
245,1.60e-02,-8.00e-03,
246,1.20e-02,1.40e-02,
247,-1.60e-02,-1.00e-02,
248,-1.60e-02,-8.00e-03,
249,1.60e-02,1.60e-02,
250,1.60e-02,-8.00e-03,
251,-1.60e-02,1.40e-02,
252,1.20e-02,1.40e-02,
253,-2.00e-02,-1.00e-02,
254,1.20e-02,-1.00e-02,
255,-1.60e-02,1.40e-02,
256,1.20e-02,1.40e-02,
257,-1.60e-02,-8.00e-03,
258,1.20e-02,1.40e-02,
259,-1.60e-02,-1.00e-02,
260,1.20e-02,-8.00e-03,
261,-1.60e-02,1.40e-02,
262,1.20e-02,-8.00e-03,
263,-1.60e-02,1.40e-02,
264,1.20e-02,1.40e-02,
265,-1.60e-02,-8.00e-03,
266,1.20e-02,-8.00e-03,
267,-1.60e-02,1.60e-02,
268,1.20e-02,-8.00e-03,
269,-1.60e-02,1.60e-02,
270,-5.48e-01,-2.54e-01,
271,4.72e-01,2.56e-01,
272,1.20e-02,1.40e-02,
273,-1.60e-02,-1.00e-02,
274,1.20e-02,-8.00e-03,
275,-1.60e-02,1.40e-02,
276,1.20e-02,1.40e-02,
277,-1.60e-02,-8.00e-03,
278,-1.60e-02,-8.00e-03,
279,1.60e-02,1.40e-02,
280,-1.60e-02,1.40e-02,
281,1.60e-02,-1.00e-02,
282,1.20e-02,1.40e-02,
283,-1.60e-02,-1.00e-02,
284,-1.60e-02,-1.00e-02,
285,1.60e-02,1.40e-02,
286,-1.92e-01,-7.00e-02,
287,2.00e-01,9.80e-02,
288,-1.60e-02,-8.00e-03,
289,1.60e-02,1.40e-02,
290,-1.60e-02,-8.00e-03,
291,1.60e-02,1.40e-02,
292,1.60e-02,-8.00e-03,
293,-1.60e-02,1.40e-02,
294,1.20e-02,-8.00e-03,
295,-1.60e-02,1.60e-02,
296,-1.60e-02,-8.00e-03,
297,1.60e-02,1.40e-02,
298,-1.60e-02,1.40e-02,
299,1.60e-02,-8.00e-03,
300,1.20e-02,1.40e-02,
301,-1.60e-02,-8.00e-03,
302,1.20e-02,-8.00e-03,
303,-1.60e-02,1.60e-02,
304,1.20e-02,-8.00e-03,
305,-1.60e-02,1.40e-02,
306,1.20e-02,1.40e-02,
307,-1.60e-02,-8.00e-03,
308,-1.60e-02,-8.00e-03,
309,1.20e-02,1.40e-02,
310,1.20e-02,-8.00e-03,
311,-1.60e-02,1.40e-02,
312,1.20e-02,-8.00e-03,
313,-1.60e-02,1.40e-02,
314,1.20e-02,-8.00e-03,
315,-1.60e-02,1.40e-02,
316,-5.48e-01,2.56e-01,
317,4.72e-01,-2.54e-01,
318,1.20e-02,1.40e-02,
319,-1.60e-02,-8.00e-03,
320,-1.60e-02,-8.00e-03,
321,1.20e-02,1.60e-02,
322,-1.60e-02,1.40e-02,
323,1.20e-02,-8.00e-03,
324,1.20e-02,1.40e-02,
325,-1.60e-02,-8.00e-03,
326,1.20e-02,-8.00e-03,
327,-1.60e-02,1.60e-02,
328,1.20e-02,1.40e-02,
329,-1.60e-02,-8.00e-03,
330,1.20e-02,-8.00e-03,
331,-1.60e-02,1.60e-02,
332,1.20e-02,-8.00e-03,
333,-2.00e-02,1.40e-02,
334,-1.60e-02,1.40e-02,
335,1.20e-02,-1.00e-02,
336,2.56e-01,-2.54e-01,
337,-2.60e-01,1.90e-01,
338,1.20e-02,1.40e-02,
339,-1.60e-02,-8.00e-03,
340,1.20e-02,1.40e-02,
341,-1.60e-02,-8.00e-03,
342,1.20e-02,1.40e-02,
343,-1.60e-02,-8.00e-03,
344,-1.60e-02,-8.00e-03,
345,1.20e-02,1.40e-02,
346,-1.60e-02,1.60e-02,
347,1.20e-02,-8.00e-03,
348,1.20e-02,1.40e-02,
349,-1.60e-02,-8.00e-03,
350,1.20e-02,1.40e-02,
351,-1.60e-02,-8.00e-03,
352,-1.60e-02,1.40e-02,
353,1.20e-02,-1.00e-02,
354,1.20e-02,-8.00e-03,
355,-1.60e-02,1.40e-02,
356,-1.60e-02,1.40e-02,
357,1.60e-02,-8.00e-03,
358,1.20e-02,1.40e-02,
359,-1.60e-02,-8.00e-03,
360,1.20e-02,1.40e-02,
361,-1.60e-02,-8.00e-03,
362,4.72e-01,2.56e-01,
363,-5.48e-01,-2.54e-01,
364,1.20e-02,-8.00e-03,
365,-1.60e-02,1.60e-02,
366,1.20e-02,-8.00e-03,
367,-1.60e-02,1.40e-02,
368,-1.60e-02,-8.00e-03,
369,1.20e-02,1.40e-02,
370,1.20e-02,-8.00e-03,
371,-1.60e-02,1.60e-02,
372,1.20e-02,1.40e-02,
373,-1.60e-02,-8.00e-03,
374,1.60e-02,-8.00e-03,
375,-1.60e-02,1.40e-02,
376,1.20e-02,1.40e-02,
377,-1.60e-02,-8.00e-03,
378,1.20e-02,-6.00e-03,
379,-1.60e-02,1.40e-02,
380,1.20e-02,1.40e-02,
381,-1.60e-02,-8.00e-03,
382,4.72e-01,-2.40e-01,
383,-5.48e-01,2.56e-01,
384,-2.36e-01,1.28e-01,
385,1.76e-01,-8.60e-02,
386,1.20e-02,1.40e-02,
387,-1.60e-02,-8.00e-03,
388,-1.60e-02,-8.00e-03,
389,1.60e-02,1.60e-02,
390,1.20e-02,1.40e-02,
391,-1.60e-02,-8.00e-03,
392,1.20e-02,1.40e-02,
393,-1.60e-02,-8.00e-03,
394,-1.60e-02,1.40e-02,
395,1.20e-02,-8.00e-03,
396,1.20e-02,1.60e-02,
397,-1.60e-02,-8.00e-03,
398,-1.60e-02,1.40e-02,
399,1.60e-02,-8.00e-03,
400,1.20e-02,1.60e-02,
401,-1.60e-02,-8.00e-03,
402,1.20e-02,-8.00e-03,
403,-1.60e-02,1.60e-02,
404,-1.60e-02,-1.00e-02,
405,1.60e-02,1.60e-02,
406,1.20e-02,1.40e-02,
407,-1.60e-02,-8.00e-03,
408,1.20e-02,1.40e-02,
409,-1.60e-02,-8.00e-03,
410,-5.48e-01,2.56e-01,
411,4.72e-01,-2.54e-01,
412,1.60e-02,1.40e-02,
413,-1.60e-02,-8.00e-03,
414,-1.60e-02,-1.00e-02,
415,1.20e-02,1.40e-02,
416,1.20e-02,1.40e-02,
417,-1.60e-02,-8.00e-03,
418,1.20e-02,1.40e-02,
419,-1.60e-02,-1.00e-02,
420,1.20e-02,-8.00e-03,
421,-1.60e-02,1.40e-02,
422,-1.60e-02,-8.00e-03,
423,1.60e-02,1.60e-02,
424,-1.60e-02,-8.00e-03,
425,1.60e-02,1.40e-02,
426,1.20e-02,1.40e-02,
427,-1.60e-02,-8.00e-03,
428,-6.40e-02,-9.00e-02,
429,2.76e-01,1.26e-01,
430,-1.60e-02,1.40e-02,
431,1.20e-02,-1.00e-02,
432,-1.60e-02,-8.00e-03,
433,1.20e-02,1.40e-02,
434,1.20e-02,1.40e-02,
435,-1.60e-02,-8.00e-03,
436,-1.60e-02,1.40e-02,
437,1.60e-02,-8.00e-03,
438,-2.00e-02,-8.00e-03,
439,1.60e-02,1.40e-02,
440,1.20e-02,-8.00e-03,
441,-2.00e-02,1.40e-02,
442,-1.60e-02,1.40e-02,
443,1.60e-02,-8.00e-03,
444,-1.60e-02,1.60e-02,
445,1.20e-02,-8.00e-03,
446,-1.60e-02,-8.00e-03,
447,1.60e-02,1.40e-02,
448,1.20e-02,-8.00e-03,
449,-1.60e-02,1.40e-02,
450,-1.60e-02,-8.00e-03,
451,1.20e-02,1.40e-02,
452,1.20e-02,1.40e-02,
453,-1.60e-02,-8.00e-03,
454,1.20e-02,1.40e-02,
455,-1.60e-02,-8.00e-03,
456,1.20e-02,-8.00e-03,
457,-1.60e-02,1.40e-02,
458,4.72e-01,-2.54e-01,
459,-5.48e-01,2.56e-01,
460,1.20e-02,1.40e-02,
461,-1.60e-02,-8.00e-03,
462,1.20e-02,-1.00e-02,
463,-1.60e-02,1.40e-02,
464,1.20e-02,-8.00e-03,
465,-1.60e-02,1.40e-02,
466,-1.60e-02,1.40e-02,
467,1.20e-02,-8.00e-03,
468,-1.60e-02,-8.00e-03,
469,1.20e-02,1.40e-02,
470,1.20e-02,-8.00e-03,
471,-1.60e-02,1.40e-02,
472,1.20e-02,1.40e-02,
473,-1.60e-02,-8.00e-03,
474,-1.60e-02,-8.00e-03,
475,1.20e-02,1.40e-02,
476,-3.24e-01,2.32e-01,
477,3.40e-01,-1.96e-01,
478,1.20e-02,-8.00e-03,
479,-1.60e-02,1.40e-02,
480,1.20e-02,-8.00e-03,
481,-1.60e-02,1.40e-02,
482,1.20e-02,-8.00e-03,
483,-1.60e-02,1.40e-02,
484,-1.60e-02,1.40e-02,
485,1.20e-02,-8.00e-03,
486,1.20e-02,1.40e-02,
487,-1.60e-02,-1.00e-02,
488,1.20e-02,-8.00e-03,
489,-1.60e-02,1.40e-02,
490,1.20e-02,-8.00e-03,
491,-1.60e-02,1.60e-02,
492,1.20e-02,1.40e-02,
493,-1.60e-02,-1.00e-02,
494,1.20e-02,-8.00e-03,
495,-1.60e-02,1.40e-02,
496,-1.60e-02,1.20e-02,
497,1.20e-02,-8.00e-03,
498,1.20e-02,1.40e-02,
499,-1.60e-02,-8.00e-03,
500,-1.60e-02,1.40e-02,
501,1.20e-02,-1.00e-02,
502,1.20e-02,-8.00e-03,
503,-1.60e-02,1.40e-02,
504,4.72e-01,-2.54e-01,
505,-5.48e-01,2.56e-01,
506,1.20e-02,-1.00e-02,
507,-1.60e-02,1.40e-02,
508,1.20e-02,-8.00e-03,
509,-1.60e-02,1.40e-02,
510,1.20e-02,-8.00e-03,
511,-1.60e-02,1.40e-02,
512,1.20e-02,-8.00e-03,
513,-1.60e-02,1.40e-02,
514,1.20e-02,-8.00e-03,
515,-1.60e-02,1.40e-02,
516,1.20e-02,-8.00e-03,
517,-1.60e-02,1.40e-02,
518,1.20e-02,-8.00e-03,
519,-1.60e-02,1.40e-02,
520,-1.60e-02,1.40e-02,
521,1.20e-02,-8.00e-03,
522,1.20e-02,1.40e-02,
523,-1.60e-02,-1.00e-02,
524,3.96e-01,2.56e-01,
525,-3.80e-01,-2.54e-01,
526,-1.60e-02,-1.00e-02,
527,1.20e-02,1.40e-02,
528,1.20e-02,1.60e-02,
529,-1.60e-02,-8.00e-03,
530,1.20e-02,-8.00e-03,
531,-1.60e-02,1.40e-02,
532,1.20e-02,1.40e-02,
533,-1.60e-02,-1.00e-02,
534,1.20e-02,1.40e-02,
535,-1.60e-02,-1.00e-02,
536,1.20e-02,-8.00e-03,
537,-1.60e-02,1.40e-02,
538,1.20e-02,1.40e-02,
539,-1.60e-02,-1.00e-02,
540,-1.60e-02,-8.00e-03,
541,1.20e-02,1.40e-02,
542,-1.60e-02,1.40e-02,
543,1.20e-02,-8.00e-03,
544,-1.60e-02,-8.00e-03,
545,1.20e-02,1.40e-02,
546,1.20e-02,1.40e-02,
547,-1.60e-02,-8.00e-03,
548,-1.60e-02,-1.00e-02,
549,1.20e-02,1.40e-02,
550,-1.60e-02,-8.00e-03,
551,1.20e-02,1.40e-02,
552,-5.48e-01,-2.54e-01,
553,2.00e-02,2.56e-01,
554,-1.60e-02,-8.00e-03,
555,1.20e-02,1.40e-02,
556,1.20e-02,1.40e-02,
557,-1.60e-02,-8.00e-03,
558,1.20e-02,1.40e-02,
559,-1.60e-02,-1.00e-02,
560,1.20e-02,-8.00e-03,
561,-1.60e-02,1.40e-02,
562,1.20e-02,1.40e-02,
563,-1.60e-02,-1.00e-02,
564,1.20e-02,-8.00e-03,
565,-1.60e-02,1.40e-02,
566,1.20e-02,1.40e-02,
567,-2.00e-02,-8.00e-03,
568,-1.60e-02,1.40e-02,
569,1.60e-02,-8.00e-03,
570,2.68e-01,9.80e-02,
571,-2.32e-01,-7.60e-02,
572,1.20e-02,1.40e-02,
573,-1.60e-02,-1.00e-02,
574,1.20e-02,1.40e-02,
575,-2.00e-02,-1.00e-02,
576,-1.60e-02,1.40e-02,
577,1.20e-02,-1.00e-02,
578,1.20e-02,-8.00e-03,
579,-1.60e-02,1.40e-02,
580,-1.60e-02,1.40e-02,
581,1.60e-02,-8.00e-03,
582,1.20e-02,-1.00e-02,
583,-1.60e-02,1.40e-02,
584,1.20e-02,-8.00e-03,
585,-1.60e-02,1.40e-02,
586,1.20e-02,-8.00e-03,
587,-1.60e-02,1.40e-02,
588,-1.60e-02,1.40e-02,
589,1.20e-02,-1.00e-02,
590,1.20e-02,-8.00e-03,
591,-1.60e-02,1.40e-02,
592,1.20e-02,1.40e-02,
593,-1.60e-02,-8.00e-03,
594,1.20e-02,-8.00e-03,
595,-1.60e-02,1.40e-02,
596,1.20e-02,1.40e-02,
597,-1.60e-02,-1.00e-02,
598,-1.60e-02,1.40e-02,
599,4.72e-01,-2.54e-01,
600,-5.48e-01,2.56e-01,
601,4.72e-01,-2.54e-01,
602,1.20e-02,1.20e-02,
603,-1.60e-02,-1.00e-02,
604,-1.60e-02,1.20e-02,
605,1.60e-02,-1.00e-02,
606,1.20e-02,-1.00e-02,
607,-1.60e-02,1.40e-02,
608,1.20e-02,-8.00e-03,
609,-1.60e-02,1.40e-02,
610,1.20e-02,-1.00e-02,
611,-1.60e-02,1.40e-02,
612,1.20e-02,-8.00e-03,
613,-1.60e-02,1.40e-02,
614,-1.60e-02,-8.00e-03,
615,1.60e-02,1.40e-02,
616,-1.60e-02,-8.00e-03,
617,1.20e-02,1.40e-02,
618,-3.48e-01,1.40e-01,
619,3.36e-01,-1.44e-01,
620,1.20e-02,1.40e-02,
621,-1.60e-02,-8.00e-03,
622,1.20e-02,-1.00e-02,
623,-1.60e-02,1.40e-02,
624,1.20e-02,1.20e-02,
625,-1.60e-02,-8.00e-03,
626,1.20e-02,1.60e-02,
627,-1.60e-02,-8.00e-03,
628,1.20e-02,1.40e-02,
629,-1.60e-02,-1.00e-02,
630,-1.60e-02,1.40e-02,
631,1.20e-02,-1.00e-02,
632,1.20e-02,-8.00e-03,
633,-1.60e-02,1.40e-02,
634,1.20e-02,1.40e-02,
635,-1.60e-02,-8.00e-03,
636,1.20e-02,-1.00e-02,
637,-1.60e-02,1.40e-02,
638,1.20e-02,-8.00e-03,
639,-1.60e-02,1.40e-02,
640,1.20e-02,-8.00e-03,
641,-1.60e-02,1.40e-02,
642,1.20e-02,-8.00e-03,
643,-1.60e-02,1.40e-02,
644,-5.48e-01,2.56e-01,
645,4.72e-01,-2.54e-01,
646,1.20e-02,-8.00e-03,
647,-1.60e-02,1.40e-02,
648,1.20e-02,1.40e-02,
649,-1.60e-02,-1.00e-02,
650,1.20e-02,-1.00e-02,
651,-1.60e-02,1.40e-02,
652,1.20e-02,1.20e-02,
653,-1.60e-02,-1.00e-02,
654,1.20e-02,1.40e-02,
655,-1.60e-02,-1.00e-02,
656,1.20e-02,1.40e-02,
657,-1.60e-02,-1.00e-02,
658,1.20e-02,1.20e-02,
659,-1.60e-02,-1.00e-02,
660,1.20e-02,-8.00e-03,
661,-1.60e-02,1.40e-02,
662,1.20e-02,1.40e-02,
663,-1.60e-02,-8.00e-03,
664,-1.60e-02,1.40e-02,
665,1.20e-02,-1.00e-02,
666,4.72e-01,-2.54e-01,
667,-3.56e-01,2.56e-01,
668,1.20e-02,-8.00e-03,
669,-1.60e-02,1.40e-02,
670,1.20e-02,-8.00e-03,
671,-1.60e-02,1.40e-02,
672,1.20e-02,-8.00e-03,
673,-1.60e-02,1.40e-02,
674,1.20e-02,1.40e-02,
675,-1.60e-02,-8.00e-03,
676,1.20e-02,-1.00e-02,
677,-1.60e-02,1.40e-02,
678,1.20e-02,1.60e-02,
679,-1.60e-02,-1.00e-02,
680,1.20e-02,-8.00e-03,
681,-1.60e-02,1.40e-02,
682,-1.60e-02,1.40e-02,
683,1.20e-02,-8.00e-03,
684,1.20e-02,-1.00e-02,
685,-1.60e-02,1.40e-02,
686,1.20e-02,1.40e-02,
687,-1.60e-02,-8.00e-03,
688,1.20e-02,1.40e-02,
689,-1.60e-02,-1.00e-02,
690,-1.60e-02,-8.00e-03,
691,1.20e-02,1.40e-02,
692,1.20e-02,-1.00e-02,
693,-1.60e-02,1.40e-02,
694,4.72e-01,-2.54e-01,
695,-5.48e-01,2.56e-01,
696,1.20e-02,-8.00e-03,
697,-1.60e-02,1.40e-02,
698,-1.60e-02,1.40e-02,
699,1.60e-02,-1.00e-02,
700,1.20e-02,1.20e-02,
701,-1.60e-02,-8.00e-03,
702,1.20e-02,1.40e-02,
703,-1.60e-02,-8.00e-03,
704,-1.60e-02,-8.00e-03,
705,1.20e-02,1.40e-02,
706,1.20e-02,1.40e-02,
707,-1.60e-02,-8.00e-03,
708,-1.60e-02,-8.00e-03,
709,1.20e-02,1.40e-02,
710,3.08e-01,7.60e-02,
711,-1.28e-01,-1.06e-01,
712,1.20e-02,-8.00e-03,
713,-1.60e-02,1.40e-02,
714,-1.60e-02,-8.00e-03,
715,1.20e-02,1.40e-02,
716,1.20e-02,1.40e-02,
717,-1.60e-02,-8.00e-03,
718,1.20e-02,-8.00e-03,
719,-1.60e-02,1.40e-02,
720,1.20e-02,-8.00e-03,
721,-1.60e-02,1.40e-02,
722,1.20e-02,-1.00e-02,
723,-1.60e-02,1.60e-02,
724,1.60e-02,-8.00e-03,
725,-1.60e-02,1.40e-02,
726,1.20e-02,-8.00e-03,
727,-2.00e-02,1.40e-02,
728,-1.60e-02,-8.00e-03,
729,1.20e-02,1.40e-02,
730,1.20e-02,-8.00e-03,
731,-1.60e-02,1.60e-02,
732,1.20e-02,-8.00e-03,
733,-1.60e-02,1.40e-02,
734,-1.60e-02,1.40e-02,
735,1.20e-02,-8.00e-03,
736,1.20e-02,-8.00e-03,
737,-1.60e-02,1.60e-02,
738,1.20e-02,1.40e-02,
739,-1.60e-02,-8.00e-03,
740,-5.48e-01,2.56e-01,
741,4.72e-01,-2.54e-01,
742,-1.60e-02,1.40e-02,
743,1.20e-02,-1.00e-02,
744,1.20e-02,1.40e-02,
745,-1.60e-02,-8.00e-03,
746,-1.60e-02,1.40e-02,
747,1.20e-02,-8.00e-03,
748,1.20e-02,1.40e-02,
749,-1.60e-02,-8.00e-03,
750,-1.60e-02,1.40e-02,
751,1.20e-02,-1.00e-02,
752,1.20e-02,1.40e-02,
753,-1.60e-02,-8.00e-03,
754,1.20e-02,1.60e-02,
755,-1.60e-02,-8.00e-03,
756,-1.60e-02,-1.00e-02,
757,1.60e-02,1.60e-02,
758,-1.60e-02,-8.00e-03,
759,1.20e-02,1.40e-02,
760,2.32e-01,-1.94e-01,
761,-2.28e-01,8.40e-02,
762,1.20e-02,-8.00e-03,
763,-1.60e-02,1.60e-02,
764,1.20e-02,-8.00e-03,
765,-1.60e-02,1.60e-02,
766,1.20e-02,-8.00e-03,
767,-1.60e-02,1.40e-02,
768,-1.60e-02,1.40e-02,
769,1.60e-02,-8.00e-03,
770,1.20e-02,-8.00e-03,
771,-1.60e-02,1.40e-02,
772,1.20e-02,-8.00e-03,
773,-1.60e-02,1.40e-02,
774,1.20e-02,1.40e-02,
775,-1.60e-02,-8.00e-03,
776,-1.60e-02,1.40e-02,
777,1.20e-02,-8.00e-03,
778,1.60e-02,1.40e-02,
779,-2.00e-02,-8.00e-03,
780,1.20e-02,1.40e-02,
781,-1.60e-02,-8.00e-03,
782,1.20e-02,-8.00e-03,
783,-1.60e-02,1.60e-02,
784,-1.60e-02,1.40e-02,
785,1.60e-02,-8.00e-03,
786,-5.48e-01,-2.54e-01,
787,4.72e-01,2.56e-01,
788,1.60e-02,-8.00e-03,
789,-1.60e-02,1.60e-02,
790,1.20e-02,1.40e-02,
791,-1.60e-02,-8.00e-03,
792,1.20e-02,1.40e-02,
793,-1.60e-02,-1.00e-02,
794,1.20e-02,-8.00e-03,
795,-1.60e-02,1.60e-02,
796,1.20e-02,1.40e-02,
797,-1.60e-02,-8.00e-03,
798,1.20e-02,-1.00e-02,
799,-1.60e-02,1.40e-02,
800,1.20e-02,1.40e-02,
801,-1.60e-02,-8.00e-03,
802,1.20e-02,1.40e-02,
803,-1.60e-02,-8.00e-03,
804,1.20e-02,1.40e-02,
805,-1.60e-02,-8.00e-03,
806,-4.00e-01,-1.94e-01,
807,3.96e-01,2.46e-01,
808,-2.40e-02,-8.00e-03,
809,1.20e-02,1.40e-02,
810,1.20e-02,-8.00e-03,
811,-1.60e-02,1.40e-02,
812,1.20e-02,-8.00e-03,
813,-1.60e-02,1.40e-02,
814,1.20e-02,-8.00e-03,
815,-1.60e-02,1.40e-02,
816,1.20e-02,-8.00e-03,
817,-1.60e-02,1.40e-02,
818,1.20e-02,-8.00e-03,
819,-1.60e-02,1.40e-02,
820,1.20e-02,1.40e-02,
821,-1.60e-02,-8.00e-03,
822,1.20e-02,-8.00e-03,
823,-1.60e-02,1.40e-02,
824,1.20e-02,1.40e-02,
825,-1.60e-02,-8.00e-03,
826,1.20e-02,1.40e-02,
827,-1.60e-02,-8.00e-03,
828,1.20e-02,-8.00e-03,
829,-1.60e-02,1.40e-02,
830,-1.60e-02,-8.00e-03,
831,1.20e-02,1.40e-02,
832,1.20e-02,1.40e-02,
833,-1.60e-02,-8.00e-03,
