Motor_Data/MOTOR_3_ON/time domain/NewFile58(1).csv

X,CH1,CH2,Start,Increment,
Sequence,Volt,Volt,-3.000000e-02,5.000000e-05
0,-1.60e-02,1.40e-02,
1,1.20e-02,-8.00e-03,
2,-1.20e-02,1.20e-02,
3,1.20e-02,-8.00e-03,
4,-1.20e-02,-8.00e-03,
5,1.20e-02,1.40e-02,
6,-2.80e-02,-8.00e-03,
7,4.00e-02,4.00e-02,
8,1.20e-02,-1.00e-02,
9,-1.20e-02,1.40e-02,
10,-1.20e-02,1.40e-02,
11,1.20e-02,-6.00e-03,
12,-1.20e-02,1.40e-02,
13,1.20e-02,-8.00e-03,
14,-1.20e-02,1.20e-02,
15,1.20e-02,-8.00e-03,
16,-1.20e-02,-8.00e-03,
17,1.20e-02,1.40e-02,
18,-1.20e-02,-8.00e-03,
19,1.20e-02,1.40e-02,
20,-1.20e-02,1.20e-02,
21,1.20e-02,-8.00e-03,
22,-1.20e-02,1.20e-02,
23,1.20e-02,-8.00e-03,
24,-1.20e-02,1.20e-02,
25,1.20e-02,-8.00e-03,
26,-1.20e-02,-8.00e-03,
27,1.20e-02,1.40e-02,
28,-1.20e-02,-8.00e-03,
29,1.20e-02,1.40e-02,
30,-1.20e-02,-8.00e-03,
31,1.20e-02,1.40e-02,
32,-1.20e-02,-8.00e-03,
33,1.20e-02,1.40e-02,
34,3.60e-02,-3.20e-02,
35,-3.20e-02,1.28e-01,
36,2.28e-01,2.56e-01,
37,-4.40e-02,-2.54e-01,
38,-1.20e-02,1.20e-02,
39,1.20e-02,-8.00e-03,
40,-1.20e-02,1.40e-02,
41,1.20e-02,-8.00e-03,
42,-1.20e-02,-8.00e-03,
43,1.20e-02,1.40e-02,
44,-1.20e-02,-8.00e-03,
45,1.20e-02,1.40e-02,
46,1.20e-02,-1.00e-02,
47,-1.20e-02,1.40e-02,
48,-1.20e-02,1.20e-02,
49,1.20e-02,-8.00e-03,
50,-1.20e-02,-8.00e-03,
51,1.20e-02,1.40e-02,
52,-1.20e-02,-8.00e-03,
53,1.20e-02,1.40e-02,
54,-1.88e-01,3.20e-02,
55,2.00e-01,-2.54e-01,
56,-1.20e-02,1.20e-02,
57,1.20e-02,-8.00e-03,
58,-1.20e-02,1.20e-02,
59,1.20e-02,-8.00e-03,
60,-1.20e-02,1.20e-02,
61,1.20e-02,-8.00e-03,
62,1.20e-02,-8.00e-03,
63,-1.60e-02,1.40e-02,
64,1.20e-02,1.20e-02,
65,-1.20e-02,-8.00e-03,
66,-1.20e-02,1.20e-02,
67,1.20e-02,-8.00e-03,
68,-1.20e-02,1.20e-02,
69,1.20e-02,-1.00e-02,
70,-1.20e-02,-8.00e-03,
71,1.20e-02,1.40e-02,
72,-1.20e-02,-8.00e-03,
73,1.20e-02,1.40e-02,
74,-1.20e-02,1.20e-02,
75,1.20e-02,-1.00e-02,
76,-1.20e-02,-8.00e-03,
77,1.20e-02,1.40e-02,
78,1.20e-02,1.20e-02,
79,-1.60e-02,-8.00e-03,
80,-2.80e-01,-2.32e-01,
81,2.48e-01,2.56e-01,
82,-1.20e-02,-8.00e-03,
83,1.20e-02,1.20e-02,
84,-1.20e-02,-8.00e-03,
85,1.20e-02,1.40e-02,
86,-1.20e-02,-8.00e-03,
87,1.20e-02,1.40e-02,
88,-1.60e-02,-8.00e-03,
89,1.20e-02,1.20e-02,
90,-1.20e-02,1.20e-02,
91,1.20e-02,-8.00e-03,
92,-1.20e-02,1.40e-02,
93,1.20e-02,-8.00e-03,
94,-1.20e-02,1.20e-02,
95,1.20e-02,-8.00e-03,
96,-1.20e-02,-8.00e-03,
97,1.20e-02,1.40e-02,
98,-1.20e-02,-8.00e-03,
99,1.20e-02,1.40e-02,
100,-1.20e-02,-6.00e-03,
101,1.20e-02,1.40e-02,
102,2.52e-01,-2.54e-01,
103,-1.52e-01,2.24e-01,
104,-1.20e-02,1.20e-02,
105,1.20e-02,-8.00e-03,
106,-1.20e-02,1.40e-02,
107,1.20e-02,-8.00e-03,
108,1.20e-02,1.20e-02,
109,-1.60e-02,-1.00e-02,
110,-1.20e-02,1.40e-02,
111,1.20e-02,-8.00e-03,
112,-1.20e-02,-8.00e-03,
113,1.20e-02,1.40e-02,
114,-1.20e-02,-8.00e-03,
115,1.20e-02,1.40e-02,
116,-1.20e-02,-8.00e-03,
117,1.20e-02,1.40e-02,
118,-1.20e-02,-8.00e-03,
119,1.20e-02,1.40e-02,
120,-1.20e-02,-8.00e-03,
121,1.20e-02,1.20e-02,
122,-1.20e-02,-8.00e-03,
123,1.20e-02,1.40e-02,
124,1.20e-02,-8.00e-03,
125,-1.60e-02,1.40e-02,
126,1.20e-02,-8.00e-03,
127,-1.60e-02,1.40e-02,
128,-1.20e-02,-8.00e-03,
129,1.20e-02,1.40e-02,
130,-2.60e-01,2.56e-01,
131,1.76e-01,-1.92e-01,
132,-1.20e-02,1.20e-02,
133,1.20e-02,-8.00e-03,
134,-1.20e-02,-8.00e-03,
135,1.20e-02,1.40e-02,
136,-1.20e-02,1.20e-02,
137,1.20e-02,-8.00e-03,
138,-1.20e-02,-8.00e-03,
139,1.20e-02,1.20e-02,
140,1.20e-02,1.20e-02,
141,-1.20e-02,-8.00e-03,
142,1.20e-02,1.20e-02,
143,-1.20e-02,-8.00e-03,
144,1.20e-02,1.20e-02,
145,-1.20e-02,-8.00e-03,
146,-3.20e-02,-4.00e-02,
147,2.80e-02,4.20e-02,
148,-1.20e-02,-8.00e-03,
149,1.20e-02,1.40e-02,
150,-1.20e-02,1.40e-02,
151,1.20e-02,-8.00e-03,
152,-1.20e-02,-8.00e-03,
153,1.20e-02,1.40e-02,
154,-1.20e-02,1.20e-02,
155,1.20e-02,-8.00e-03,
156,-1.20e-02,-8.00e-03,
157,1.20e-02,1.20e-02,
158,-1.20e-02,1.40e-02,
159,1.20e-02,-8.00e-03,
160,-1.20e-02,-1.00e-02,
161,1.20e-02,1.40e-02,
162,-1.20e-02,-8.00e-03,
163,1.20e-02,1.40e-02,
164,-1.20e-02,-8.00e-03,
165,1.20e-02,1.40e-02,
166,-1.20e-02,1.20e-02,
167,1.20e-02,-8.00e-03,
168,-1.20e-02,1.20e-02,
169,1.20e-02,-8.00e-03,
170,-1.20e-02,-8.00e-03,
171,1.20e-02,1.40e-02,
172,-1.20e-02,1.20e-02,
173,1.20e-02,-8.00e-03,
174,1.04e-01,-2.80e-02,
175,-8.00e-02,2.26e-01,
176,2.60e-01,2.16e-01,
177,-2.96e-01,-1.00e-01,
178,-1.20e-02,-8.00e-03,
179,1.20e-02,1.20e-02,
180,1.20e-02,-8.00e-03,
181,-1.60e-02,1.20e-02,
182,-1.20e-02,-8.00e-03,
183,1.20e-02,1.20e-02,
184,1.20e-02,1.20e-02,
185,-1.20e-02,-8.00e-03,
186,-1.20e-02,1.20e-02,
187,1.20e-02,-8.00e-03,
188,-1.20e-02,1.20e-02,
189,1.20e-02,-8.00e-03,
190,-1.20e-02,1.20e-02,
191,1.20e-02,-8.00e-03,
192,-1.20e-02,1.20e-02,
193,1.20e-02,-8.00e-03,
194,-1.20e-02,-8.00e-03,
195,1.20e-02,1.20e-02,
196,1.60e-01,1.56e-01,
197,-1.32e-01,-2.04e-01,
198,-1.20e-02,1.20e-02,
199,1.20e-02,-8.00e-03,
200,-1.20e-02,-8.00e-03,
201,1.20e-02,1.60e-02,
202,-1.20e-02,1.20e-02,
203,1.20e-02,-1.00e-02,
204,-1.20e-02,1.20e-02,
205,1.20e-02,-8.00e-03,
206,-1.20e-02,1.20e-02,
207,1.20e-02,-8.00e-03,
208,-1.20e-02,-8.00e-03,
209,1.20e-02,1.20e-02,
210,-1.20e-02,1.20e-02,
211,1.20e-02,-8.00e-03,
212,-1.20e-02,1.20e-02,
213,1.20e-02,-8.00e-03,
214,-1.20e-02,1.20e-02,
215,1.20e-02,-8.00e-03,
216,-1.20e-02,1.20e-02,
217,1.20e-02,-8.00e-03,
218,1.20e-02,1.20e-02,
219,-1.20e-02,-8.00e-03,
220,2.80e-02,9.60e-02,
221,-5.20e-02,-9.20e-02,
222,-2.60e-01,2.56e-01,
223,2.72e-01,-2.14e-01,
224,-1.20e-02,-8.00e-03,
225,1.20e-02,1.20e-02,
226,-1.20e-02,1.20e-02,
227,1.20e-02,-8.00e-03,
228,-1.20e-02,-8.00e-03,
229,1.20e-02,1.40e-02,
230,8.00e-03,1.20e-02,
231,-1.20e-02,-8.00e-03,
232,-1.20e-02,1.40e-02,
233,1.20e-02,-8.00e-03,
234,1.20e-02,1.20e-02,
235,-1.20e-02,-8.00e-03,
236,1.20e-02,-8.00e-03,
237,-1.20e-02,1.40e-02,
238,-1.20e-02,-8.00e-03,
239,1.20e-02,1.40e-02,
240,1.20e-02,1.40e-02,
241,-1.60e-02,-8.00e-03,
242,1.28e-01,2.56e-01,
243,-1.36e-01,-2.46e-01,
244,-1.20e-02,-8.00e-03,
245,1.20e-02,1.20e-02,
246,-1.20e-02,-8.00e-03,
247,1.20e-02,1.40e-02,
248,-1.20e-02,-6.00e-03,
249,1.20e-02,1.40e-02,
250,-1.20e-02,-6.00e-03,
251,1.20e-02,1.40e-02,
252,-1.20e-02,-8.00e-03,
253,1.20e-02,1.40e-02,
254,1.20e-02,1.40e-02,
255,-1.20e-02,-8.00e-03,
256,-1.20e-02,-8.00e-03,
257,1.20e-02,1.40e-02,
258,-1.20e-02,1.40e-02,
259,1.20e-02,-8.00e-03,
260,1.20e-02,1.20e-02,
261,-1.60e-02,-8.00e-03,
262,-1.20e-02,1.40e-02,
263,1.20e-02,-8.00e-03,
264,-1.20e-02,1.20e-02,
265,1.20e-02,-8.00e-03,
266,-1.20e-02,1.20e-02,
267,1.20e-02,-8.00e-03,
268,-1.20e-02,-8.00e-03,
269,1.20e-02,1.20e-02,
270,-9.60e-02,-1.92e-01,
271,1.80e-01,9.00e-02,
272,-1.20e-02,-8.00e-03,
273,1.20e-02,1.20e-02,
274,-1.20e-02,1.20e-02,
275,1.20e-02,-8.00e-03,
276,-1.20e-02,-8.00e-03,
277,1.20e-02,1.40e-02,
278,-1.20e-02,-1.00e-02,
279,1.20e-02,1.40e-02,
280,-1.20e-02,-8.00e-03,
281,1.20e-02,1.40e-02,
282,-1.20e-02,1.20e-02,
283,1.20e-02,-8.00e-03,
284,1.20e-02,1.20e-02,
285,-1.60e-02,-8.00e-03,
286,1.20e-02,-8.00e-03,
287,-1.60e-02,1.20e-02,
288,-6.40e-02,-3.80e-02,
289,4.80e-02,4.00e-02,
290,1.20e-02,-8.00e-03,
291,-1.20e-02,1.40e-02,
292,-1.20e-02,1.20e-02,
293,1.20e-02,-8.00e-03,
294,-1.20e-02,1.20e-02,
295,1.20e-02,-8.00e-03,
296,-1.20e-02,-8.00e-03,
297,1.20e-02,1.40e-02,
298,-1.20e-02,1.20e-02,
299,1.20e-02,-1.00e-02,
300,-1.20e-02,-8.00e-03,
301,1.20e-02,1.40e-02,
302,8.00e-03,-8.00e-03,
303,-1.60e-02,1.40e-02,
304,-1.20e-02,-8.00e-03,
305,1.20e-02,1.40e-02,
306,-1.60e-02,-8.00e-03,
307,1.20e-02,1.40e-02,
308,-1.20e-02,-8.00e-03,
309,1.20e-02,1.40e-02,
310,-1.60e-02,-8.00e-03,
311,1.20e-02,1.40e-02,
312,-1.20e-02,1.40e-02,
313,1.20e-02,-8.00e-03,
314,-1.20e-02,1.40e-02,
315,1.20e-02,-2.60e-02,
316,2.80e-02,-6.00e-02,
317,-8.00e-02,1.78e-01,
318,3.36e-01,-2.54e-01,
319,-2.20e-01,2.56e-01,
320,1.20e-02,1.40e-02,
321,-1.60e-02,-8.00e-03,
322,1.20e-02,1.40e-02,
323,-1.20e-02,-8.00e-03,
324,-1.20e-02,1.20e-02,
325,1.20e-02,-8.00e-03,
326,-1.20e-02,-8.00e-03,
327,1.20e-02,1.40e-02,
328,-1.20e-02,-8.00e-03,
329,1.20e-02,1.20e-02,
330,-1.20e-02,1.40e-02,
331,1.20e-02,-1.00e-02,
332,-1.20e-02,1.20e-02,
333,1.20e-02,-8.00e-03,
334,-1.20e-02,-8.00e-03,
335,1.20e-02,1.20e-02,
336,-1.48e-01,-2.54e-01,
337,2.36e-01,6.20e-02,
338,-1.20e-02,-8.00e-03,
339,1.20e-02,1.40e-02,
340,-1.20e-02,-6.00e-03,
341,1.20e-02,1.40e-02,
342,-1.20e-02,-8.00e-03,
343,1.20e-02,1.40e-02,
344,-1.60e-02,-8.00e-03,
345,1.20e-02,1.40e-02,
346,-1.20e-02,-6.00e-03,
347,1.20e-02,1.40e-02,
348,1.20e-02,-8.00e-03,
349,-1.20e-02,1.40e-02,
350,-1.20e-02,-8.00e-03,
351,1.20e-02,1.20e-02,
352,-1.20e-02,1.20e-02,
353,1.20e-02,-8.00e-03,
354,-1.20e-02,-1.00e-02,
355,1.20e-02,1.20e-02,
356,-1.20e-02,1.40e-02,
357,1.20e-02,-8.00e-03,
358,1.20e-02,1.20e-02,
359,-1.20e-02,-8.00e-03,
360,-1.20e-02,1.20e-02,
361,1.20e-02,-8.00e-03,
362,-2.96e-01,-2.46e-01,
363,2.76e-01,2.20e-01,
364,-1.20e-02,-8.00e-03,
365,1.20e-02,1.20e-02,
366,-1.20e-02,1.20e-02,
367,1.20e-02,-8.00e-03,
368,1.20e-02,1.20e-02,
369,-1.20e-02,-8.00e-03,
370,-1.60e-02,1.20e-02,
371,1.20e-02,-8.00e-03,
372,-1.20e-02,1.20e-02,
373,1.20e-02,-8.00e-03,
374,-1.20e-02,-8.00e-03,
375,1.20e-02,1.40e-02,
376,-1.20e-02,-8.00e-03,
377,1.20e-02,1.20e-02,
378,-1.20e-02,1.20e-02,
379,1.20e-02,-8.00e-03,
380,8.00e-03,-8.00e-03,
381,-1.60e-02,1.20e-02,
382,1.20e-02,-8.00e-03,
383,-1.60e-02,1.20e-02,
384,2.32e-01,-2.54e-01,
385,-2.16e-01,2.56e-01,
386,-1.20e-02,-8.00e-03,
387,1.20e-02,1.20e-02,
388,-1.60e-02,1.20e-02,
389,1.20e-02,-8.00e-03,
390,-1.20e-02,1.40e-02,
391,1.20e-02,-8.00e-03,
392,-1.20e-02,-8.00e-03,
393,1.20e-02,1.40e-02,
394,-1.20e-02,1.20e-02,
395,1.20e-02,-8.00e-03,
396,1.20e-02,-8.00e-03,
397,-1.60e-02,1.20e-02,
398,-1.20e-02,-8.00e-03,
399,1.20e-02,1.40e-02,
400,1.20e-02,1.20e-02,
401,-1.20e-02,-8.00e-03,
402,-1.20e-02,1.20e-02,
403,1.20e-02,-8.00e-03,
404,-1.20e-02,1.20e-02,
405,1.20e-02,-8.00e-03,
406,-1.20e-02,1.40e-02,
407,1.20e-02,-8.00e-03,
408,-1.20e-02,1.20e-02,
409,1.20e-02,-8.00e-03,
410,-1.20e-02,1.40e-02,
411,1.20e-02,-8.00e-03,
412,-2.40e-01,1.60e-01,
413,3.08e-01,-1.14e-01,
414,-1.20e-02,-6.00e-03,
415,1.20e-02,1.40e-02,
416,-1.20e-02,1.20e-02,
417,1.20e-02,-8.00e-03,
418,-1.20e-02,1.40e-02,
419,1.20e-02,-8.00e-03,
420,-1.20e-02,1.40e-02,
421,1.20e-02,-8.00e-03,
422,1.20e-02,-8.00e-03,
423,-1.20e-02,1.40e-02,
424,-1.20e-02,-8.00e-03,
425,1.20e-02,1.60e-02,
426,-1.20e-02,-8.00e-03,
427,1.20e-02,1.40e-02,
428,5.20e-02,6.60e-02,
429,-3.20e-02,-3.00e-02,
430,-1.20e-02,-1.00e-02,
431,1.20e-02,1.40e-02,
432,-1.20e-02,-8.00e-03,
433,1.20e-02,1.40e-02,
434,-1.20e-02,1.20e-02,
435,1.20e-02,-8.00e-03,
436,1.20e-02,-6.00e-03,
437,-1.20e-02,1.20e-02,
438,-1.20e-02,1.40e-02,
439,1.20e-02,-8.00e-03,
440,-1.20e-02,1.40e-02,
441,1.20e-02,-8.00e-03,
442,-1.20e-02,-8.00e-03,
443,1.20e-02,1.40e-02,
444,-1.20e-02,-8.00e-03,
445,1.20e-02,1.20e-02,
446,-1.20e-02,1.20e-02,
447,1.20e-02,-6.00e-03,
448,-1.20e-02,-8.00e-03,
449,1.20e-02,1.40e-02,
450,-1.20e-02,-8.00e-03,
451,1.20e-02,1.40e-02,
452,-1.20e-02,1.20e-02,
453,1.20e-02,-8.00e-03,
454,-1.20e-02,1.40e-02,
455,1.20e-02,-8.00e-03,
456,4.40e-02,1.20e-02,
457,-2.80e-02,-6.20e-02,
458,3.72e-01,-2.14e-01,
459,-2.72e-01,2.56e-01,
460,-1.20e-02,-8.00e-03,
461,1.20e-02,1.40e-02,
462,-1.20e-02,1.40e-02,
463,1.20e-02,-8.00e-03,
464,-1.20e-02,-8.00e-03,
465,1.20e-02,1.20e-02,
466,-1.20e-02,1.40e-02,
467,1.20e-02,-1.00e-02,
468,1.20e-02,1.20e-02,
469,-1.60e-02,-8.00e-03,
470,-1.20e-02,-8.00e-03,
471,1.20e-02,1.40e-02,
472,-1.20e-02,-8.00e-03,
473,1.20e-02,1.40e-02,
474,-1.60e-02,-8.00e-03,
475,1.20e-02,1.40e-02,
476,-1.20e-02,1.40e-02,
477,1.20e-02,-1.00e-02,
478,1.68e-01,2.56e-01,
479,-1.60e-02,-2.06e-01,
480,-1.20e-02,1.40e-02,
481,1.20e-02,-8.00e-03,
482,-1.20e-02,1.20e-02,
483,1.20e-02,-8.00e-03,
484,-1.20e-02,1.20e-02,
485,1.20e-02,-8.00e-03,
486,-1.20e-02,1.20e-02,
487,1.20e-02,-8.00e-03,
488,-1.20e-02,1.20e-02,
489,1.20e-02,-8.00e-03,
490,-1.20e-02,1.20e-02,
491,1.20e-02,-8.00e-03,
492,-1.20e-02,1.20e-02,
493,1.20e-02,-6.00e-03,
494,-1.20e-02,1.40e-02,
495,1.20e-02,-8.00e-03,
496,-1.20e-02,-8.00e-03,
497,1.20e-02,1.40e-02,
498,-1.20e-02,-8.00e-03,
499,1.20e-02,1.40e-02,
500,-1.20e-02,1.20e-02,
501,1.20e-02,-8.00e-03,
502,1.60e-02,6.00e-02,
503,-3.60e-02,-3.00e-02,
504,-3.36e-01,1.88e-01,
505,2.48e-01,-1.50e-01,
506,1.20e-02,1.20e-02,
507,-1.20e-02,-8.00e-03,
508,-1.20e-02,-8.00e-03,
509,1.20e-02,1.40e-02,
510,1.20e-02,-8.00e-03,
511,-1.60e-02,1.40e-02,
512,-1.20e-02,-8.00e-03,
513,1.20e-02,1.40e-02,
514,-1.20e-02,-8.00e-03,
515,1.20e-02,1.40e-02,
516,-1.20e-02,-8.00e-03,
517,1.20e-02,1.20e-02,
518,-1.20e-02,1.20e-02,
519,1.20e-02,-8.00e-03,
520,1.20e-02,1.20e-02,
521,-1.20e-02,-8.00e-03,
522,-1.20e-02,1.20e-02,
523,1.20e-02,-8.00e-03,
524,-1.48e-01,-2.54e-01,
525,1.68e-01,1.60e-01,
526,1.20e-02,1.20e-02,
527,-1.20e-02,-8.00e-03,
528,-1.20e-02,-8.00e-03,
529,1.20e-02,1.40e-02,
530,-1.20e-02,1.40e-02,
531,1.20e-02,-8.00e-03,
532,-1.20e-02,1.20e-02,
533,1.20e-02,-8.00e-03,
534,-1.20e-02,1.20e-02,
535,1.20e-02,-8.00e-03,
536,-1.20e-02,-8.00e-03,
537,1.20e-02,1.20e-02,
538,-1.20e-02,1.20e-02,
539,1.20e-02,-1.00e-02,
540,1.20e-02,-8.00e-03,
541,-1.20e-02,1.20e-02,
542,-1.20e-02,1.20e-02,
543,1.20e-02,-8.00e-03,
544,-1.20e-02,-8.00e-03,
545,1.20e-02,1.40e-02,
546,-1.20e-02,1.20e-02,
547,1.20e-02,-8.00e-03,
548,-1.20e-02,-8.00e-03,
549,1.20e-02,1.20e-02,
550,-1.20e-02,1.20e-02,
551,1.20e-02,-1.00e-02,
552,-1.76e-01,-1.98e-01,
553,1.08e-01,1.32e-01,
554,1.20e-02,-8.00e-03,
555,-1.60e-02,1.20e-02,
556,-1.20e-02,-8.00e-03,
557,1.20e-02,1.40e-02,
558,-1.20e-02,-6.00e-03,
559,1.20e-02,1.20e-02,
560,-1.20e-02,-8.00e-03,
561,1.20e-02,1.20e-02,
562,-1.20e-02,1.20e-02,
563,1.20e-02,-8.00e-03,
564,-1.20e-02,1.20e-02,
565,1.20e-02,-6.00e-03,
566,1.20e-02,-8.00e-03,
567,-1.20e-02,1.40e-02,
568,-1.20e-02,1.40e-02,
569,1.20e-02,-1.00e-02,
570,3.20e-02,-3.80e-02,
571,-2.40e-02,3.60e-02,
572,-1.20e-02,1.20e-02,
573,1.20e-02,-8.00e-03,
574,-1.20e-02,-6.00e-03,
575,1.20e-02,1.40e-02,
576,1.20e-02,-8.00e-03,
577,-1.20e-02,1.20e-02,
578,-1.20e-02,-8.00e-03,
579,1.20e-02,1.40e-02,
580,-1.20e-02,-8.00e-03,
581,1.20e-02,1.40e-02,
582,1.20e-02,-8.00e-03,
583,-1.20e-02,1.40e-02,
584,-1.20e-02,1.20e-02,
585,1.20e-02,-8.00e-03,
586,-1.20e-02,-8.00e-03,
587,1.20e-02,1.40e-02,
588,-1.20e-02,-8.00e-03,
589,1.20e-02,1.40e-02,
590,-1.20e-02,-8.00e-03,
591,1.20e-02,1.40e-02,
592,-1.20e-02,1.40e-02,
593,1.20e-02,-8.00e-03,
594,1.20e-02,1.20e-02,
595,-1.20e-02,-8.00e-03,
596,1.20e-02,2.00e-02,
597,-5.60e-02,-1.10e-01,
598,1.20e-02,-8.00e-03,
599,-4.76e-01,2.56e-01,
600,4.72e-01,-2.28e-01,
601,-2.72e-01,2.22e-01,
602,-1.20e-02,-8.00e-03,
603,1.20e-02,1.40e-02,
604,-1.20e-02,-8.00e-03,
605,1.20e-02,1.40e-02,
606,-1.20e-02,1.40e-02,
607,1.20e-02,-8.00e-03,
608,-1.20e-02,-6.00e-03,
609,1.20e-02,1.40e-02,
610,-1.20e-02,-8.00e-03,
611,1.20e-02,1.20e-02,
612,-1.20e-02,-8.00e-03,
613,1.20e-02,1.20e-02,
614,-1.20e-02,-6.00e-03,
615,1.20e-02,1.40e-02,
616,-1.20e-02,1.20e-02,
617,1.20e-02,-1.00e-02,
618,-7.20e-02,-2.02e-01,
619,1.64e-01,2.56e-01,
620,8.00e-03,1.20e-02,
621,-1.20e-02,-8.00e-03,
622,-1.60e-02,-8.00e-03,
623,1.20e-02,1.40e-02,
624,-1.20e-02,1.20e-02,
625,1.20e-02,-8.00e-03,
626,-1.20e-02,1.20e-02,
627,1.20e-02,-8.00e-03,
628,-1.20e-02,-8.00e-03,
629,1.20e-02,1.40e-02,
630,-1.20e-02,1.20e-02,
631,1.20e-02,-8.00e-03,
632,-1.20e-02,-8.00e-03,
633,1.20e-02,1.20e-02,
634,8.00e-03,-8.00e-03,
635,-1.60e-02,1.20e-02,
636,8.00e-03,1.20e-02,
637,-1.20e-02,-8.00e-03,
638,-1.20e-02,-8.00e-03,
639,1.20e-02,1.20e-02,
640,-1.60e-02,1.20e-02,
641,1.20e-02,-8.00e-03,
642,1.20e-02,1.20e-02,
643,-1.20e-02,-8.00e-03,
644,2.68e-01,2.56e-01,
645,-2.32e-01,-1.74e-01,
646,1.20e-02,1.20e-02,
647,-1.20e-02,-8.00e-03,
648,-1.20e-02,-8.00e-03,
649,1.20e-02,1.20e-02,
650,-1.20e-02,-8.00e-03,
651,1.20e-02,1.40e-02,
652,-1.20e-02,-8.00e-03,
653,1.20e-02,1.20e-02,
654,-1.20e-02,1.20e-02,
655,8.00e-03,-8.00e-03,
656,-1.20e-02,1.20e-02,
657,1.20e-02,-6.00e-03,
658,1.20e-02,-8.00e-03,
659,-1.60e-02,1.20e-02,
660,-1.20e-02,1.20e-02,
661,1.20e-02,-8.00e-03,
662,-1.60e-02,1.20e-02,
663,1.20e-02,-1.00e-02,
664,1.20e-02,-8.00e-03,
665,-1.20e-02,1.40e-02,
666,1.56e-01,-2.54e-01,
667,-6.80e-02,2.52e-01,
668,-1.20e-02,1.20e-02,
669,1.20e-02,-8.00e-03,
670,-1.20e-02,1.40e-02,
671,1.20e-02,-8.00e-03,
672,-1.20e-02,1.20e-02,
673,1.20e-02,-8.00e-03,
674,-1.20e-02,-8.00e-03,
675,8.00e-03,1.40e-02,
676,-1.20e-02,-8.00e-03,
677,1.20e-02,1.40e-02,
678,-1.20e-02,1.40e-02,
679,1.20e-02,-8.00e-03,
680,-1.20e-02,-8.00e-03,
681,1.20e-02,1.20e-02,
682,-1.20e-02,1.20e-02,
683,1.20e-02,-8.00e-03,
684,1.20e-02,1.20e-02,
685,-1.20e-02,-8.00e-03,
686,1.20e-02,1.20e-02,
687,-1.20e-02,-8.00e-03,
688,-1.20e-02,-8.00e-03,
689,1.20e-02,1.40e-02,
690,-1.60e-02,-6.00e-03,
691,1.20e-02,1.40e-02,
692,-1.20e-02,1.40e-02,
693,1.20e-02,-8.00e-03,
694,1.60e-01,1.98e-01,
695,-1.76e-01,-1.06e-01,
696,1.20e-02,-8.00e-03,
697,-1.60e-02,1.40e-02,
698,-1.20e-02,-6.00e-03,
699,1.20e-02,1.40e-02,
700,-1.20e-02,1.40e-02,
701,1.20e-02,-8.00e-03,
702,-1.20e-02,1.20e-02,
703,1.20e-02,-8.00e-03,
704,-1.20e-02,1.20e-02,
705,1.20e-02,-8.00e-03,
706,-1.20e-02,1.20e-02,
707,1.20e-02,-8.00e-03,
708,-1.20e-02,-8.00e-03,
709,1.20e-02,1.20e-02,
710,2.40e-02,-2.00e-02,
711,-2.00e-02,4.60e-02,
712,-1.20e-02,1.40e-02,
713,1.20e-02,-8.00e-03,
714,-1.20e-02,-8.00e-03,
715,1.20e-02,1.40e-02,
716,-1.20e-02,-8.00e-03,
717,1.20e-02,1.20e-02,
718,-1.20e-02,-8.00e-03,
719,1.20e-02,1.20e-02,
720,-1.20e-02,1.20e-02,
721,1.20e-02,-8.00e-03,
722,-1.20e-02,1.20e-02,
723,1.20e-02,-8.00e-03,
724,-1.20e-02,-8.00e-03,
725,1.20e-02,1.40e-02,
726,-1.60e-02,1.20e-02,
727,1.20e-02,-8.00e-03,
728,-1.20e-02,-8.00e-03,
729,1.20e-02,1.40e-02,
730,-1.20e-02,1.40e-02,
731,1.20e-02,-8.00e-03,
732,-1.20e-02,-8.00e-03,
733,1.20e-02,1.20e-02,
734,1.20e-02,1.40e-02,
735,-1.20e-02,-1.00e-02,
736,-1.20e-02,1.40e-02,
737,1.20e-02,-8.00e-03,
738,1.28e-01,1.60e-02,
739,-4.40e-02,-1.16e-01,
740,2.16e-01,2.50e-01,
741,-2.08e-01,-2.54e-01,
742,-1.20e-02,-8.00e-03,
743,1.20e-02,1.40e-02,
744,-1.20e-02,1.20e-02,
745,1.20e-02,-8.00e-03,
746,-1.20e-02,1.20e-02,
747,1.20e-02,-8.00e-03,
748,-1.20e-02,-8.00e-03,
749,1.20e-02,1.20e-02,
750,-1.20e-02,-8.00e-03,
751,1.20e-02,1.20e-02,
752,-1.20e-02,-8.00e-03,
753,1.20e-02,1.40e-02,
754,1.20e-02,-8.00e-03,
755,-1.60e-02,1.40e-02,
756,-1.20e-02,1.20e-02,
757,1.20e-02,-8.00e-03,
758,-1.20e-02,-8.00e-03,
759,1.20e-02,1.40e-02,
760,1.80e-01,2.56e-01,
761,-1.68e-01,-2.44e-01,
762,-1.20e-02,-8.00e-03,
763,1.20e-02,1.40e-02,
764,-1.20e-02,-8.00e-03,
765,1.20e-02,1.20e-02,
766,-1.20e-02,1.40e-02,
767,1.20e-02,-8.00e-03,
768,-1.20e-02,-8.00e-03,
769,1.20e-02,1.40e-02,
770,-1.20e-02,-8.00e-03,
771,1.20e-02,1.40e-02,
772,-1.20e-02,1.20e-02,
773,1.20e-02,-8.00e-03,
774,-1.20e-02,-8.00e-03,
775,1.20e-02,1.40e-02,
776,-1.20e-02,1.20e-02,
777,1.20e-02,-8.00e-03,
778,-1.20e-02,1.20e-02,
779,1.20e-02,-8.00e-03,
780,-1.20e-02,-8.00e-03,
781,1.20e-02,1.40e-02,
782,-1.20e-02,1.20e-02,
783,1.20e-02,-8.00e-03,
784,2.80e-02,-2.60e-02,
785,-5.60e-02,7.00e-02,
786,3.16e-01,-1.94e-01,
787,-2.24e-01,2.22e-01,
788,-1.20e-02,1.40e-02,
789,1.20e-02,-8.00e-03,
790,8.00e-03,1.20e-02,
791,-1.20e-02,-8.00e-03,
792,-1.20e-02,-8.00e-03,
793,1.20e-02,1.40e-02,
794,-1.20e-02,-6.00e-03,
795,1.20e-02,1.20e-02,
796,-1.20e-02,1.20e-02,
797,1.20e-02,-8.00e-03,
798,-1.60e-02,-8.00e-03,
799,1.20e-02,1.40e-02,
800,1.20e-02,1.20e-02,
801,-1.20e-02,-8.00e-03,
802,-1.20e-02,-8.00e-03,
803,1.20e-02,1.20e-02,
804,-1.20e-02,-8.00e-03,
805,1.20e-02,1.20e-02,
806,2.16e-01,2.56e-01,
807,-1.56e-01,-2.54e-01,
808,-1.20e-02,1.20e-02,
809,1.20e-02,-8.00e-03,
810,-1.20e-02,-8.00e-03,
811,1.20e-02,1.20e-02,
812,-1.20e-02,1.20e-02,
813,1.20e-02,-8.00e-03,
814,-1.20e-02,1.40e-02,
815,1.20e-02,-1.20e-02,
816,-1.20e-02,1.40e-02,
817,1.20e-02,-8.00e-03,
818,-1.20e-02,-8.00e-03,
819,1.20e-02,1.40e-02,
820,-1.20e-02,-8.00e-03,
821,1.20e-02,1.40e-02,
822,1.20e-02,-8.00e-03,
823,-1.60e-02,1.40e-02,
824,-1.20e-02,1.20e-02,
825,1.20e-02,-8.00e-03,
826,1.20e-02,1.20e-02,
827,-1.60e-02,-8.00e-03,
828,1.20e-02,-8.00e-03,
829,-1.20e-02,1.40e-02,
830,-1.20e-02,1.40e-02,
831,1.20e-02,-8.00e-03,
832,1.20e-02,1.40e-02,
833,-1.20e-02,-8.00e-03,
