Motor_Data/MOTOR_3_ON/time domain/NewFile70(1).csv

X,CH1,CH2,Start,Increment,
Sequence,Volt,Volt,-3.000000e-02,5.000000e-05
0,-1.60e-02,1.20e-02,
1,1.20e-02,-8.00e-03,
2,1.20e-02,1.40e-02,
3,-1.20e-02,-1.00e-02,
4,-1.20e-02,1.40e-02,
5,1.20e-02,-8.00e-03,
6,-1.32e-01,-2.40e-02,
7,1.40e-01,4.60e-02,
8,1.20e-02,1.20e-02,
9,-1.60e-02,-1.00e-02,
10,1.20e-02,1.40e-02,
11,-1.20e-02,-8.00e-03,
12,1.20e-02,-8.00e-03,
13,-1.60e-02,1.40e-02,
14,-1.60e-02,-8.00e-03,
15,1.60e-02,1.40e-02,
16,1.20e-02,-8.00e-03,
17,-1.60e-02,1.40e-02,
18,-1.60e-02,1.40e-02,
19,1.60e-02,-8.00e-03,
20,1.20e-02,-8.00e-03,
21,-1.60e-02,1.40e-02,
22,-1.60e-02,-8.00e-03,
23,1.60e-02,1.40e-02,
24,1.20e-02,-8.00e-03,
25,-1.60e-02,1.40e-02,
26,1.20e-02,1.40e-02,
27,-1.60e-02,-8.00e-03,
28,1.20e-02,-8.00e-03,
29,-1.60e-02,1.40e-02,
30,1.20e-02,-8.00e-03,
31,-1.60e-02,1.40e-02,
32,-1.20e-02,1.40e-02,
33,1.20e-02,-1.00e-02,
34,3.88e-01,-2.54e-01,
35,-2.76e-01,2.56e-01,
36,-1.20e-02,1.20e-02,
37,1.20e-02,-8.00e-03,
38,1.20e-02,1.40e-02,
39,-1.60e-02,-1.00e-02,
40,1.20e-02,1.40e-02,
41,-1.60e-02,-1.00e-02,
42,-1.20e-02,-8.00e-03,
43,1.20e-02,1.40e-02,
44,-1.20e-02,1.40e-02,
45,1.20e-02,-8.00e-03,
46,1.20e-02,-8.00e-03,
47,-1.60e-02,1.40e-02,
48,1.20e-02,1.20e-02,
49,-1.60e-02,-1.00e-02,
50,1.20e-02,-1.00e-02,
51,-1.60e-02,1.40e-02,
52,1.20e-02,-8.00e-03,
53,-1.60e-02,1.40e-02,
54,4.72e-01,2.56e-01,
55,-3.00e-01,-1.86e-01,
56,1.20e-02,1.40e-02,
57,-1.60e-02,-1.00e-02,
58,1.20e-02,-8.00e-03,
59,-1.60e-02,1.40e-02,
60,1.20e-02,-8.00e-03,
61,-1.60e-02,1.40e-02,
62,1.20e-02,-8.00e-03,
63,-1.60e-02,1.40e-02,
64,1.20e-02,1.40e-02,
65,-1.60e-02,-1.00e-02,
66,1.20e-02,1.40e-02,
67,-1.60e-02,-8.00e-03,
68,1.20e-02,1.40e-02,
69,-1.60e-02,-1.00e-02,
70,1.20e-02,-8.00e-03,
71,-1.60e-02,1.40e-02,
72,-1.60e-02,-8.00e-03,
73,1.20e-02,1.40e-02,
74,1.20e-02,-8.00e-03,
75,-1.60e-02,1.40e-02,
76,1.20e-02,1.40e-02,
77,-1.60e-02,-8.00e-03,
78,1.20e-02,1.40e-02,
79,-1.60e-02,-1.00e-02,
80,1.00e-01,-3.80e-02,
81,-8.80e-02,6.40e-02,
82,1.20e-02,-8.00e-03,
83,-1.60e-02,1.40e-02,
84,1.20e-02,-8.00e-03,
85,-1.60e-02,1.40e-02,
86,1.60e-02,-1.00e-02,
87,-1.60e-02,1.40e-02,
88,1.20e-02,1.40e-02,
89,-1.60e-02,-1.00e-02,
90,-1.60e-02,1.40e-02,
91,1.20e-02,-1.00e-02,
92,-1.60e-02,-8.00e-03,
93,1.20e-02,1.40e-02,
94,1.20e-02,-8.00e-03,
95,-1.60e-02,1.40e-02,
96,1.20e-02,-8.00e-03,
97,-1.60e-02,1.40e-02,
98,1.20e-02,1.40e-02,
99,-1.20e-02,-8.00e-03,
100,1.20e-02,1.40e-02,
101,-1.60e-02,-8.00e-03,
102,-3.12e-01,2.56e-01,
103,2.92e-01,-1.76e-01,
104,1.20e-02,-8.00e-03,
105,-1.60e-02,1.60e-02,
106,1.20e-02,1.40e-02,
107,-1.60e-02,-8.00e-03,
108,1.20e-02,-8.00e-03,
109,-1.60e-02,1.40e-02,
110,1.20e-02,1.40e-02,
111,-1.60e-02,-8.00e-03,
112,1.20e-02,1.40e-02,
113,-1.60e-02,-8.00e-03,
114,-1.20e-02,-8.00e-03,
115,1.20e-02,1.40e-02,
116,1.20e-02,-8.00e-03,
117,-1.60e-02,1.40e-02,
118,1.20e-02,1.40e-02,
119,-1.60e-02,-8.00e-03,
120,1.20e-02,-8.00e-03,
121,-1.60e-02,1.40e-02,
122,1.20e-02,1.40e-02,
123,-1.60e-02,-8.00e-03,
124,1.20e-02,-8.00e-03,
125,-1.60e-02,1.40e-02,
126,2.00e-01,-8.00e-03,
127,-8.00e-02,9.60e-02,
128,3.44e-01,-2.54e-01,
129,-4.00e-01,2.50e-01,
130,1.20e-02,-8.00e-03,
131,-1.60e-02,1.40e-02,
132,1.20e-02,-8.00e-03,
133,-1.60e-02,1.40e-02,
134,1.20e-02,1.40e-02,
135,-1.60e-02,-8.00e-03,
136,-1.60e-02,-8.00e-03,
137,1.20e-02,1.40e-02,
138,1.20e-02,-8.00e-03,
139,-1.60e-02,1.40e-02,
140,1.20e-02,1.40e-02,
141,-1.60e-02,-8.00e-03,
142,-1.20e-02,-8.00e-03,
143,1.20e-02,1.40e-02,
144,1.20e-02,-8.00e-03,
145,-1.60e-02,1.40e-02,
146,-7.20e-02,-5.20e-02,
147,5.60e-02,5.40e-02,
148,-1.60e-02,-8.00e-03,
149,1.20e-02,1.40e-02,
150,-1.20e-02,-8.00e-03,
151,1.20e-02,1.40e-02,
152,-1.20e-02,1.20e-02,
153,1.20e-02,-8.00e-03,
154,1.20e-02,1.40e-02,
155,-1.60e-02,-8.00e-03,
156,1.20e-02,-8.00e-03,
157,-1.60e-02,1.40e-02,
158,1.20e-02,1.40e-02,
159,-1.60e-02,-8.00e-03,
160,1.20e-02,1.20e-02,
161,-1.60e-02,-8.00e-03,
162,1.20e-02,1.40e-02,
163,-1.60e-02,-8.00e-03,
164,-1.20e-02,1.20e-02,
165,1.20e-02,-8.00e-03,
166,1.20e-02,1.40e-02,
167,-1.60e-02,-8.00e-03,
168,1.20e-02,1.20e-02,
169,-1.60e-02,-1.00e-02,
170,1.20e-02,-8.00e-03,
171,-1.60e-02,1.40e-02,
172,1.20e-02,-8.00e-03,
173,-1.60e-02,1.40e-02,
174,-4.80e-02,5.00e-02,
175,1.60e-02,-1.20e-02,
176,4.72e-01,-2.54e-01,
177,-3.72e-01,2.56e-01,
178,1.20e-02,-8.00e-03,
179,-1.60e-02,1.40e-02,
180,1.20e-02,-8.00e-03,
181,-1.60e-02,1.40e-02,
182,1.20e-02,1.20e-02,
183,-1.60e-02,-8.00e-03,
184,1.20e-02,-8.00e-03,
185,-1.60e-02,1.40e-02,
186,1.20e-02,-8.00e-03,
187,-1.60e-02,1.40e-02,
188,1.20e-02,-8.00e-03,
189,-1.60e-02,1.40e-02,
190,1.20e-02,-8.00e-03,
191,-1.60e-02,1.40e-02,
192,1.20e-02,-8.00e-03,
193,-1.60e-02,1.40e-02,
194,-9.60e-02,2.16e-01,
195,2.32e-01,-2.54e-01,
196,-1.64e-01,7.00e-02,
197,1.20e-02,-7.80e-02,
198,1.20e-02,1.40e-02,
199,-1.60e-02,-8.00e-03,
200,1.20e-02,-8.00e-03,
201,-1.60e-02,1.40e-02,
202,1.20e-02,-8.00e-03,
203,-1.60e-02,1.40e-02,
204,1.20e-02,-8.00e-03,
205,-1.60e-02,1.60e-02,
206,1.20e-02,1.40e-02,
207,-2.00e-02,-8.00e-03,
208,1.20e-02,-8.00e-03,
209,-1.60e-02,1.40e-02,
210,1.20e-02,-8.00e-03,
211,-1.60e-02,1.40e-02,
212,1.20e-02,1.40e-02,
213,-1.60e-02,-8.00e-03,
214,1.20e-02,1.40e-02,
215,-1.60e-02,-8.00e-03,
216,1.20e-02,-8.00e-03,
217,-1.60e-02,1.40e-02,
218,1.20e-02,-8.00e-03,
219,-1.60e-02,1.40e-02,
220,3.20e-01,1.08e-01,
221,-3.40e-01,-1.62e-01,
222,1.20e-02,-8.00e-03,
223,-1.60e-02,1.40e-02,
224,1.20e-02,1.40e-02,
225,-1.60e-02,-8.00e-03,
226,1.20e-02,-8.00e-03,
227,-1.60e-02,1.40e-02,
228,1.20e-02,1.40e-02,
229,-1.60e-02,-1.00e-02,
230,-1.60e-02,-1.00e-02,
231,1.20e-02,1.40e-02,
232,-1.60e-02,1.40e-02,
233,1.60e-02,-8.00e-03,
234,1.20e-02,-8.00e-03,
235,-1.60e-02,1.60e-02,
236,1.20e-02,1.40e-02,
237,-1.60e-02,-8.00e-03,
238,-1.60e-02,1.40e-02,
239,1.20e-02,-1.00e-02,
240,1.20e-02,-8.00e-03,
241,-1.60e-02,1.40e-02,
242,-3.60e-01,-2.40e-01,
243,2.40e-01,2.56e-01,
244,1.20e-02,-8.00e-03,
245,-1.60e-02,1.40e-02,
246,1.20e-02,-8.00e-03,
247,-1.60e-02,1.40e-02,
248,1.20e-02,-8.00e-03,
249,-1.60e-02,1.40e-02,
250,1.20e-02,-8.00e-03,
251,-1.60e-02,1.40e-02,
252,1.20e-02,-8.00e-03,
253,-1.60e-02,1.40e-02,
254,1.20e-02,-8.00e-03,
255,-1.60e-02,1.40e-02,
256,1.20e-02,-8.00e-03,
257,-1.60e-02,1.60e-02,
258,-1.60e-02,-8.00e-03,
259,1.20e-02,1.40e-02,
260,1.20e-02,-8.00e-03,
261,-1.60e-02,1.40e-02,
262,-1.60e-02,-8.00e-03,
263,1.20e-02,1.40e-02,
264,1.20e-02,1.20e-02,
265,-1.60e-02,-8.00e-03,
266,1.20e-02,-8.00e-03,
267,-1.60e-02,1.40e-02,
268,1.36e-01,1.04e-01,
269,-9.60e-02,-1.36e-01,
270,2.52e-01,-2.24e-01,
271,-2.68e-01,1.44e-01,
272,1.20e-02,-8.00e-03,
273,-1.60e-02,1.40e-02,
274,1.20e-02,1.20e-02,
275,-1.60e-02,-8.00e-03,
276,1.20e-02,1.20e-02,
277,-1.60e-02,-1.00e-02,
278,1.20e-02,-8.00e-03,
279,-1.60e-02,1.20e-02,
280,1.20e-02,-8.00e-03,
281,-1.60e-02,1.40e-02,
282,1.20e-02,-8.00e-03,
283,-1.60e-02,1.40e-02,
284,1.20e-02,-1.00e-02,
285,-1.60e-02,1.40e-02,
286,1.20e-02,-8.00e-03,
287,-1.60e-02,1.40e-02,
288,-1.40e-01,4.60e-02,
289,1.24e-01,-5.00e-02,
290,1.20e-02,-8.00e-03,
291,-1.60e-02,1.40e-02,
292,1.20e-02,-8.00e-03,
293,-1.60e-02,1.40e-02,
294,-1.60e-02,1.40e-02,
295,1.20e-02,-8.00e-03,
296,-1.60e-02,-8.00e-03,
297,1.20e-02,1.40e-02,
298,-1.20e-02,1.40e-02,
299,1.20e-02,-8.00e-03,
300,1.20e-02,-8.00e-03,
301,-1.60e-02,1.20e-02,
302,1.20e-02,1.40e-02,
303,-1.60e-02,-8.00e-03,
304,1.20e-02,-8.00e-03,
305,-1.60e-02,1.40e-02,
306,1.20e-02,1.20e-02,
307,-1.60e-02,-8.00e-03,
308,1.20e-02,-8.00e-03,
309,-1.60e-02,1.40e-02,
310,1.20e-02,-8.00e-03,
311,-1.60e-02,1.40e-02,
312,-1.60e-02,-8.00e-03,
313,1.20e-02,1.40e-02,
314,1.20e-02,1.40e-02,
315,-1.60e-02,-1.60e-02,
316,-1.60e-02,2.56e-01,
317,4.72e-01,-2.54e-01,
318,1.20e-02,-8.00e-03,
319,-1.60e-02,1.40e-02,
320,1.20e-02,1.20e-02,
321,-1.60e-02,-8.00e-03,
322,1.20e-02,-8.00e-03,
323,-1.60e-02,1.40e-02,
324,1.20e-02,-8.00e-03,
325,-1.60e-02,1.40e-02,
326,-1.60e-02,1.40e-02,
327,1.20e-02,-8.00e-03,
328,1.20e-02,1.40e-02,
329,-1.60e-02,-8.00e-03,
330,1.20e-02,-8.00e-03,
331,-1.60e-02,1.40e-02,
332,1.20e-02,1.40e-02,
333,-1.60e-02,-8.00e-03,
334,1.20e-02,-8.00e-03,
335,-1.60e-02,1.40e-02,
336,-2.84e-01,1.52e-01,
337,3.92e-01,-2.54e-01,
338,1.20e-02,1.20e-02,
339,-1.60e-02,-8.00e-03,
340,-1.60e-02,1.40e-02,
341,1.20e-02,-8.00e-03,
342,-1.20e-02,1.40e-02,
343,1.20e-02,-8.00e-03,
344,1.20e-02,-8.00e-03,
345,-1.60e-02,1.40e-02,
346,1.20e-02,1.40e-02,
347,-1.60e-02,-8.00e-03,
348,1.20e-02,-8.00e-03,
349,-1.60e-02,1.40e-02,
350,1.20e-02,1.40e-02,
351,-1.60e-02,-8.00e-03,
352,1.20e-02,1.40e-02,
353,-1.60e-02,-8.00e-03,
354,1.20e-02,-8.00e-03,
355,-1.60e-02,1.40e-02,
356,1.20e-02,1.40e-02,
357,-1.60e-02,-8.00e-03,
358,1.20e-02,1.40e-02,
359,-1.60e-02,-8.00e-03,
360,1.20e-02,1.40e-02,
361,-1.60e-02,-8.00e-03,
362,-1.12e-01,4.80e-02,
363,1.00e-01,-4.80e-02,
364,1.20e-02,1.40e-02,
365,-1.60e-02,-8.00e-03,
366,1.20e-02,1.40e-02,
367,-1.60e-02,-1.00e-02,
368,1.20e-02,-8.00e-03,
369,-1.60e-02,1.40e-02,
370,1.20e-02,-8.00e-03,
371,-1.60e-02,1.40e-02,
372,1.20e-02,-8.00e-03,
373,-1.60e-02,1.40e-02,
374,1.20e-02,-8.00e-03,
375,-1.60e-02,1.40e-02,
376,1.20e-02,-8.00e-03,
377,-1.60e-02,1.40e-02,
378,1.20e-02,1.40e-02,
379,-1.60e-02,-8.00e-03,
380,1.20e-02,1.40e-02,
381,-1.60e-02,-8.00e-03,
382,1.20e-02,1.40e-02,
383,-1.60e-02,-8.00e-03,
384,2.44e-01,2.48e-01,
385,-3.00e-01,-2.54e-01,
386,-1.60e-02,-8.00e-03,
387,1.60e-02,1.40e-02,
388,1.20e-02,1.40e-02,
389,-1.60e-02,-1.00e-02,
390,1.20e-02,1.20e-02,
391,-1.60e-02,-8.00e-03,
392,1.20e-02,-8.00e-03,
393,-1.60e-02,1.40e-02,
394,1.20e-02,-8.00e-03,
395,-1.60e-02,1.40e-02,
396,-1.60e-02,-8.00e-03,
397,1.20e-02,1.60e-02,
398,1.20e-02,1.40e-02,
399,-1.60e-02,-8.00e-03,
400,-1.60e-02,-8.00e-03,
401,1.60e-02,1.40e-02,
402,1.20e-02,-1.00e-02,
403,-1.60e-02,1.40e-02,
404,1.20e-02,-8.00e-03,
405,-1.60e-02,1.40e-02,
406,1.20e-02,1.40e-02,
407,-1.60e-02,-8.00e-03,
408,6.00e-02,-1.42e-01,
409,-9.60e-02,8.40e-02,
410,-4.28e-01,-2.54e-01,
411,3.12e-01,1.88e-01,
412,1.20e-02,-1.00e-02,
413,-1.60e-02,1.40e-02,
414,1.20e-02,-1.00e-02,
415,-1.60e-02,1.40e-02,
416,-1.60e-02,-8.00e-03,
417,1.20e-02,1.40e-02,
418,1.20e-02,-8.00e-03,
419,-1.60e-02,1.40e-02,
420,1.20e-02,-8.00e-03,
421,-1.60e-02,1.40e-02,
422,1.20e-02,-8.00e-03,
423,-1.60e-02,1.40e-02,
424,1.20e-02,-8.00e-03,
425,-1.60e-02,1.40e-02,
426,1.20e-02,-8.00e-03,
427,-1.60e-02,1.40e-02,
428,7.60e-02,-4.60e-02,
429,-1.64e-01,8.80e-02,
430,1.20e-02,-8.00e-03,
431,-1.60e-02,1.40e-02,
432,1.20e-02,1.40e-02,
433,-1.60e-02,-8.00e-03,
434,1.20e-02,1.40e-02,
435,-1.60e-02,-8.00e-03,
436,1.20e-02,-8.00e-03,
437,-1.60e-02,1.40e-02,
438,1.20e-02,-8.00e-03,
439,-1.60e-02,1.40e-02,
440,-1.20e-02,1.40e-02,
441,1.20e-02,-8.00e-03,
442,1.20e-02,-8.00e-03,
443,-1.60e-02,1.40e-02,
444,1.20e-02,1.40e-02,
445,-1.60e-02,-1.00e-02,
446,1.20e-02,-8.00e-03,
447,-1.60e-02,1.20e-02,
448,1.20e-02,1.20e-02,
449,-1.60e-02,-8.00e-03,
450,-1.20e-02,1.40e-02,
451,1.20e-02,-8.00e-03,
452,1.20e-02,-8.00e-03,
453,-1.60e-02,1.40e-02,
454,1.20e-02,1.40e-02,
455,-1.60e-02,-1.00e-02,
456,1.60e-02,-8.00e-03,
457,-2.00e-02,1.40e-02,
458,-5.36e-01,-2.54e-01,
459,4.72e-01,2.56e-01,
460,1.20e-02,-8.00e-03,
461,-1.60e-02,1.40e-02,
462,-1.20e-02,1.40e-02,
463,1.60e-02,-8.00e-03,
464,1.20e-02,1.40e-02,
465,-1.20e-02,-8.00e-03,
466,1.20e-02,-8.00e-03,
467,-1.60e-02,1.60e-02,
468,-1.60e-02,1.40e-02,
469,1.60e-02,-8.00e-03,
470,1.20e-02,-8.00e-03,
471,-1.60e-02,1.40e-02,
472,1.20e-02,1.40e-02,
473,-1.60e-02,-8.00e-03,
474,1.20e-02,1.40e-02,
475,-1.60e-02,-8.00e-03,
476,3.56e-01,2.56e-01,
477,-1.76e-01,-1.96e-01,
478,1.60e-01,6.60e-02,
479,-1.60e-01,-9.00e-02,
480,1.20e-02,1.20e-02,
481,-1.60e-02,-1.00e-02,
482,-1.20e-02,1.40e-02,
483,1.20e-02,-8.00e-03,
484,1.20e-02,-8.00e-03,
485,-1.60e-02,1.40e-02,
486,1.20e-02,-8.00e-03,
487,-1.60e-02,1.40e-02,
488,1.20e-02,-8.00e-03,
489,-1.60e-02,1.20e-02,
490,1.20e-02,-8.00e-03,
491,-1.60e-02,1.40e-02,
492,1.20e-02,1.40e-02,
493,-1.60e-02,-8.00e-03,
494,1.20e-02,-1.00e-02,
495,-1.60e-02,1.40e-02,
496,-1.20e-02,-8.00e-03,
497,1.20e-02,1.40e-02,
498,1.20e-02,-8.00e-03,
499,-1.60e-02,1.40e-02,
500,-1.20e-02,1.40e-02,
501,1.20e-02,-8.00e-03,
502,-1.24e-01,4.00e-02,
503,1.44e-01,-4.20e-02,
504,1.20e-02,-8.00e-03,
505,-1.60e-02,1.20e-02,
506,1.20e-02,-8.00e-03,
507,-1.60e-02,1.40e-02,
508,1.20e-02,-8.00e-03,
509,-1.60e-02,1.20e-02,
510,1.20e-02,-8.00e-03,
511,-1.60e-02,1.40e-02,
512,1.20e-02,-8.00e-03,
513,-1.60e-02,1.40e-02,
514,1.20e-02,1.20e-02,
515,-1.60e-02,-8.00e-03,
516,1.20e-02,1.40e-02,
517,-1.60e-02,-8.00e-03,
518,1.20e-02,-8.00e-03,
519,-1.60e-02,1.40e-02,
520,1.20e-02,-8.00e-03,
521,-1.60e-02,1.40e-02,
522,1.20e-02,-8.00e-03,
523,-1.60e-02,1.40e-02,
524,4.48e-01,-2.54e-01,
525,-3.08e-01,2.56e-01,
526,1.20e-02,1.40e-02,
527,-1.60e-02,-8.00e-03,
528,1.60e-02,1.40e-02,
529,-1.60e-02,-8.00e-03,
530,1.20e-02,1.60e-02,
531,-1.60e-02,-8.00e-03,
532,1.20e-02,-8.00e-03,
533,-1.60e-02,1.40e-02,
534,1.20e-02,-8.00e-03,
535,-1.60e-02,1.40e-02,
536,1.20e-02,1.40e-02,
537,-1.60e-02,-6.00e-03,
538,1.20e-02,1.40e-02,
539,-1.60e-02,-8.00e-03,
540,1.20e-02,1.40e-02,
541,-1.60e-02,-8.00e-03,
542,1.20e-02,1.40e-02,
543,-1.20e-02,-8.00e-03,
544,1.20e-02,1.40e-02,
545,-1.60e-02,-8.00e-03,
546,1.20e-02,1.40e-02,
547,-1.60e-02,-8.00e-03,
548,1.20e-02,1.40e-02,
549,-1.60e-02,-8.00e-03,
550,1.88e-01,1.06e-01,
551,-3.60e-02,-1.34e-01,
552,-5.48e-01,-2.06e-01,
553,2.24e-01,2.32e-01,
554,1.20e-02,-8.00e-03,
555,-1.60e-02,1.40e-02,
556,1.20e-02,-6.00e-03,
557,-1.60e-02,1.40e-02,
558,1.20e-02,1.40e-02,
559,-1.60e-02,-8.00e-03,
560,1.20e-02,1.40e-02,
561,-2.00e-02,-8.00e-03,
562,1.20e-02,1.40e-02,
563,-1.60e-02,-8.00e-03,
564,1.20e-02,-8.00e-03,
565,-1.60e-02,1.40e-02,
566,1.20e-02,1.40e-02,
567,-1.60e-02,-8.00e-03,
568,1.20e-02,-6.00e-03,
569,-1.60e-02,1.40e-02,
570,1.00e-01,-5.20e-02,
571,-8.80e-02,6.60e-02,
572,-1.20e-02,-8.00e-03,
573,1.60e-02,1.60e-02,
574,1.20e-02,-8.00e-03,
575,-1.60e-02,1.40e-02,
576,1.20e-02,-8.00e-03,
577,-1.60e-02,1.60e-02,
578,1.20e-02,1.40e-02,
579,-1.60e-02,-8.00e-03,
580,1.20e-02,1.40e-02,
581,-1.60e-02,-8.00e-03,
582,1.20e-02,1.40e-02,
583,-1.60e-02,-8.00e-03,
584,1.20e-02,-8.00e-03,
585,-1.60e-02,1.40e-02,
586,1.20e-02,1.40e-02,
587,-1.20e-02,-8.00e-03,
588,1.20e-02,1.40e-02,
589,-1.60e-02,-8.00e-03,
590,1.20e-02,1.60e-02,
591,-1.60e-02,-8.00e-03,
592,1.20e-02,-1.00e-02,
593,-1.60e-02,1.40e-02,
594,1.20e-02,-8.00e-03,
595,-1.60e-02,1.40e-02,
596,-1.60e-02,-8.00e-03,
597,1.20e-02,1.40e-02,
598,2.00e-02,-8.00e-03,
599,-5.48e-01,2.56e-01,
600,4.72e-01,2.56e-01,
601,-4.36e-01,-2.54e-01,
602,1.20e-02,-8.00e-03,
603,-1.60e-02,1.40e-02,
604,1.20e-02,1.40e-02,
605,-1.60e-02,-8.00e-03,
606,1.20e-02,-8.00e-03,
607,-1.60e-02,1.40e-02,
608,1.20e-02,-8.00e-03,
609,-1.60e-02,1.40e-02,
610,1.20e-02,1.40e-02,
611,-1.60e-02,-8.00e-03,
612,1.20e-02,1.40e-02,
613,-1.60e-02,-8.00e-03,
614,1.20e-02,-8.00e-03,
615,-1.60e-02,1.40e-02,
616,1.20e-02,1.40e-02,
617,-1.60e-02,-8.00e-03,
618,-5.00e-01,9.80e-02,
619,3.96e-01,-2.32e-01,
620,1.20e-02,-8.00e-03,
621,-1.60e-02,1.40e-02,
622,-1.20e-02,-8.00e-03,
623,1.20e-02,1.40e-02,
624,1.20e-02,1.40e-02,
625,-1.60e-02,-8.00e-03,
626,1.20e-02,-8.00e-03,
627,-1.60e-02,1.40e-02,
628,1.20e-02,1.40e-02,
629,-1.60e-02,-8.00e-03,
630,1.20e-02,1.60e-02,
631,-1.60e-02,-1.00e-02,
632,1.20e-02,-8.00e-03,
633,-1.60e-02,1.40e-02,
634,-1.60e-02,-8.00e-03,
635,1.20e-02,1.40e-02,
636,-1.60e-02,1.40e-02,
637,1.60e-02,-8.00e-03,
638,1.20e-02,1.40e-02,
639,-1.60e-02,-8.00e-03,
640,1.20e-02,1.40e-02,
641,-1.60e-02,-8.00e-03,
642,1.20e-02,1.40e-02,
643,-1.60e-02,-8.00e-03,
644,-1.20e-01,5.00e-02,
645,1.16e-01,-4.40e-02,
646,1.20e-02,1.40e-02,
647,-1.20e-02,-8.00e-03,
648,-1.20e-02,-8.00e-03,
649,1.20e-02,1.40e-02,
650,1.20e-02,-8.00e-03,
651,-1.60e-02,1.40e-02,
652,1.20e-02,1.60e-02,
653,-1.60e-02,-8.00e-03,
654,1.20e-02,-1.00e-02,
655,-1.60e-02,1.40e-02,
656,1.20e-02,1.40e-02,
657,-1.60e-02,-8.00e-03,
658,1.20e-02,-8.00e-03,
659,-1.60e-02,1.40e-02,
660,1.20e-02,-8.00e-03,
661,-1.60e-02,1.60e-02,
662,1.20e-02,1.60e-02,
663,-1.60e-02,-8.00e-03,
664,1.20e-02,1.40e-02,
665,-1.60e-02,-8.00e-03,
666,-2.04e-01,2.24e-01,
667,2.04e-01,-2.54e-01,
668,-1.60e-02,-8.00e-03,
669,1.20e-02,1.40e-02,
670,1.20e-02,-8.00e-03,
671,-1.60e-02,1.40e-02,
672,1.20e-02,-8.00e-03,
673,-1.60e-02,1.40e-02,
674,-1.20e-02,-8.00e-03,
675,1.20e-02,1.40e-02,
676,-1.60e-02,-6.00e-03,
677,1.20e-02,1.60e-02,
678,-1.20e-02,-8.00e-03,
679,1.20e-02,1.40e-02,
680,1.20e-02,-8.00e-03,
681,-1.60e-02,1.40e-02,
682,1.20e-02,-8.00e-03,
683,-1.60e-02,1.40e-02,
684,1.20e-02,-8.00e-03,
685,-1.60e-02,1.40e-02,
686,1.20e-02,1.40e-02,
687,-1.60e-02,-1.00e-02,
688,1.20e-02,1.40e-02,
689,-1.60e-02,-8.00e-03,
690,8.80e-02,-1.56e-01,
691,-1.36e-01,8.80e-02,
692,3.28e-01,-2.54e-01,
693,-2.80e-01,2.10e-01,
694,-4.80e-02,-1.80e-02,
695,2.40e-02,1.40e-02,
696,1.20e-02,1.40e-02,
697,-1.60e-02,-8.00e-03,
698,-1.20e-02,-8.00e-03,
699,1.20e-02,1.40e-02,
700,1.20e-02,1.40e-02,
701,-1.60e-02,-1.00e-02,
702,1.20e-02,-8.00e-03,
703,-1.60e-02,1.40e-02,
704,1.20e-02,-8.00e-03,
705,-1.60e-02,1.40e-02,
706,1.20e-02,1.40e-02,
707,-1.60e-02,-8.00e-03,
708,1.20e-02,-8.00e-03,
709,-1.60e-02,1.40e-02,
710,1.04e-01,4.80e-02,
711,-1.04e-01,-3.40e-02,
712,-1.20e-02,1.40e-02,
713,1.20e-02,-8.00e-03,
714,1.20e-02,1.40e-02,
715,-1.60e-02,-8.00e-03,
716,1.20e-02,1.40e-02,
717,-1.60e-02,-1.00e-02,
718,1.20e-02,-8.00e-03,
719,-1.60e-02,1.40e-02,
720,1.60e-02,-8.00e-03,
721,-1.60e-02,1.60e-02,
722,1.20e-02,-8.00e-03,
723,-1.60e-02,1.40e-02,
724,1.20e-02,1.40e-02,
725,-1.60e-02,-8.00e-03,
726,1.20e-02,1.40e-02,
727,-1.60e-02,-1.00e-02,
728,1.20e-02,-8.00e-03,
729,-1.60e-02,1.40e-02,
730,1.20e-02,-8.00e-03,
731,-1.60e-02,1.40e-02,
732,1.20e-02,-8.00e-03,
733,-1.60e-02,1.60e-02,
734,1.20e-02,-8.00e-03,
735,-1.60e-02,1.40e-02,
736,-1.60e-02,-8.00e-03,
737,1.60e-02,1.40e-02,
738,-4.80e-02,1.40e-02,
739,3.20e-02,-1.80e-02,
740,4.40e-01,-1.96e-01,
741,-4.96e-01,2.56e-01,
742,1.20e-02,-8.00e-03,
743,-1.60e-02,1.40e-02,
744,1.20e-02,-8.00e-03,
745,-1.60e-02,1.40e-02,
746,1.20e-02,-8.00e-03,
747,-1.60e-02,1.40e-02,
748,-1.20e-02,-8.00e-03,
749,1.20e-02,1.60e-02,
750,1.20e-02,-8.00e-03,
751,-1.60e-02,1.40e-02,
752,1.20e-02,-8.00e-03,
753,-1.60e-02,1.40e-02,
754,1.20e-02,-8.00e-03,
755,-1.60e-02,1.60e-02,
756,1.20e-02,1.40e-02,
757,-1.60e-02,-8.00e-03,
758,1.76e-01,1.40e-02,
759,-4.32e-01,-2.42e-01,
760,3.24e-01,2.46e-01,
761,-1.76e-01,-1.00e-01,
762,1.20e-02,-8.00e-03,
763,-1.60e-02,1.40e-02,
764,1.20e-02,-8.00e-03,
765,-1.60e-02,1.40e-02,
766,1.20e-02,-8.00e-03,
767,-1.60e-02,1.40e-02,
768,1.20e-02,-8.00e-03,
769,-1.60e-02,1.40e-02,
770,1.60e-02,1.40e-02,
771,-1.60e-02,-8.00e-03,
772,1.20e-02,1.40e-02,
773,-1.60e-02,-8.00e-03,
774,-1.60e-02,-8.00e-03,
775,1.60e-02,1.40e-02,
776,-1.20e-02,-8.00e-03,
777,1.20e-02,1.40e-02,
778,1.20e-02,1.40e-02,
779,-1.60e-02,-8.00e-03,
780,1.20e-02,1.40e-02,
781,-1.60e-02,-8.00e-03,
782,1.20e-02,-8.00e-03,
783,-1.60e-02,1.40e-02,
784,-1.80e-01,-4.60e-02,
785,1.72e-01,4.40e-02,
786,1.20e-02,-8.00e-03,
787,-1.60e-02,1.40e-02,
788,1.20e-02,-8.00e-03,
789,-1.60e-02,1.40e-02,
790,1.20e-02,-8.00e-03,
791,-1.60e-02,1.40e-02,
792,-1.20e-02,-8.00e-03,
793,1.20e-02,1.40e-02,
794,1.20e-02,1.60e-02,
795,-1.60e-02,-8.00e-03,
796,-1.20e-02,1.40e-02,
797,1.20e-02,-8.00e-03,
798,-1.20e-02,1.40e-02,
799,1.20e-02,-8.00e-03,
800,1.20e-02,1.40e-02,
801,-1.60e-02,-8.00e-03,
802,1.20e-02,-8.00e-03,
803,-1.60e-02,1.40e-02,
804,-1.20e-02,-8.00e-03,
805,1.20e-02,1.40e-02,
806,-4.16e-01,2.56e-01,
807,3.56e-01,-2.54e-01,
808,1.20e-02,1.40e-02,
809,-1.20e-02,-8.00e-03,
810,1.20e-02,1.40e-02,
811,-1.20e-02,-8.00e-03,
812,1.20e-02,1.40e-02,
813,-1.60e-02,-8.00e-03,
814,-1.20e-02,1.40e-02,
815,1.20e-02,-8.00e-03,
816,1.20e-02,1.40e-02,
817,-1.60e-02,-8.00e-03,
818,1.20e-02,1.40e-02,
819,-1.60e-02,-8.00e-03,
820,1.20e-02,-6.00e-03,
821,-1.60e-02,1.40e-02,
822,-1.20e-02,1.40e-02,
823,1.20e-02,-8.00e-03,
824,1.20e-02,1.40e-02,
825,-1.60e-02,-8.00e-03,
826,1.20e-02,1.40e-02,
827,-1.60e-02,-8.00e-03,
828,1.20e-02,1.40e-02,
829,-1.60e-02,-8.00e-03,
830,1.20e-02,1.40e-02,
831,-1.60e-02,-8.00e-03,
832,-1.60e-02,1.40e-02,
833,6.00e-02,-1.60e-02,
