Motor_Data/MOTOR_3_ON/time domain/NewFile45.csv

X,CH1,CH2,Start,Increment,
Sequence,Volt,Volt,-3.000000e-02,5.000000e-05
0,1.20e-02,1.20e-02,
1,-1.60e-02,-8.00e-03,
2,4.16e-01,1.20e-02,
3,-5.48e-01,-2.54e-01,
4,1.20e-02,1.20e-02,
5,-1.60e-02,-1.00e-02,
6,-1.60e-02,-8.00e-03,
7,1.20e-02,1.40e-02,
8,-1.20e-02,1.20e-02,
9,1.20e-02,-8.00e-03,
10,1.20e-02,-8.00e-03,
11,-1.60e-02,1.20e-02,
12,-1.20e-02,-8.00e-03,
13,1.20e-02,1.40e-02,
14,1.20e-02,-8.00e-03,
15,-1.60e-02,1.40e-02,
16,-1.60e-02,1.20e-02,
17,1.20e-02,-8.00e-03,
18,1.20e-02,-8.00e-03,
19,-1.60e-02,1.40e-02,
20,-1.20e-02,-6.00e-03,
21,1.20e-02,1.20e-02,
22,1.20e-02,-8.00e-03,
23,-1.60e-02,1.40e-02,
24,1.20e-02,-8.00e-03,
25,-1.60e-02,1.40e-02,
26,-1.20e-02,-8.00e-03,
27,1.20e-02,1.20e-02,
28,-5.48e-01,-1.10e-01,
29,2.00e-01,1.16e-01,
30,1.20e-02,-8.00e-03,
31,-1.60e-02,1.40e-02,
32,-1.20e-02,1.20e-02,
33,1.20e-02,-8.00e-03,
34,1.20e-02,1.40e-02,
35,-1.20e-02,-8.00e-03,
36,1.20e-02,1.40e-02,
37,-1.60e-02,-8.00e-03,
38,-1.60e-02,-8.00e-03,
39,1.20e-02,1.20e-02,
40,1.20e-02,1.20e-02,
41,-1.60e-02,-8.00e-03,
42,-1.20e-02,-8.00e-03,
43,1.20e-02,1.40e-02,
44,1.20e-02,1.20e-02,
45,-1.60e-02,-8.00e-03,
46,-1.60e-02,1.20e-02,
47,1.20e-02,-6.00e-03,
48,1.20e-02,-6.00e-03,
49,-1.60e-02,1.40e-02,
50,4.72e-01,-2.54e-01,
51,-5.48e-01,2.52e-01,
52,1.20e-02,1.40e-02,
53,-1.60e-02,-8.00e-03,
54,1.20e-02,1.40e-02,
55,-1.60e-02,-8.00e-03,
56,1.20e-02,1.20e-02,
57,-1.60e-02,-8.00e-03,
58,1.20e-02,-8.00e-03,
59,-1.60e-02,1.40e-02,
60,1.20e-02,-6.00e-03,
61,-1.60e-02,1.40e-02,
62,-1.20e-02,-8.00e-03,
63,1.20e-02,1.40e-02,
64,1.20e-02,-6.00e-03,
65,-1.60e-02,1.40e-02,
66,1.20e-02,1.40e-02,
67,-1.60e-02,-8.00e-03,
68,-1.20e-02,-8.00e-03,
69,1.20e-02,1.40e-02,
70,1.20e-02,1.20e-02,
71,-1.60e-02,-8.00e-03,
72,-1.60e-02,-8.00e-03,
73,1.20e-02,1.40e-02,
74,-1.60e-02,1.40e-02,
75,1.20e-02,-6.00e-03,
76,-1.20e-02,1.20e-02,
77,1.20e-02,-8.00e-03,
78,4.72e-01,2.56e-01,
79,-2.64e-01,-2.54e-01,
80,1.20e-02,-8.00e-03,
81,-1.60e-02,1.40e-02,
82,1.20e-02,-8.00e-03,
83,-1.20e-02,1.20e-02,
84,-1.20e-02,-8.00e-03,
85,1.20e-02,1.40e-02,
86,1.20e-02,1.20e-02,
87,-1.60e-02,-8.00e-03,
88,-1.20e-02,-8.00e-03,
89,1.20e-02,1.40e-02,
90,1.20e-02,1.20e-02,
91,-1.60e-02,-8.00e-03,
92,1.20e-02,1.20e-02,
93,-1.60e-02,-8.00e-03,
94,-1.20e-02,-8.00e-03,
95,1.20e-02,1.40e-02,
96,1.08e-01,2.40e-02,
97,-1.12e-01,-5.00e-02,
98,-1.60e-02,-8.00e-03,
99,1.20e-02,1.20e-02,
100,1.20e-02,-8.00e-03,
101,-1.60e-02,1.40e-02,
102,1.20e-02,-6.00e-03,
103,-1.60e-02,1.40e-02,
104,-1.20e-02,1.20e-02,
105,1.20e-02,-8.00e-03,
106,1.20e-02,1.20e-02,
107,-1.60e-02,-8.00e-03,
108,-1.60e-02,1.40e-02,
109,1.20e-02,-8.00e-03,
110,1.20e-02,-8.00e-03,
111,-1.60e-02,1.20e-02,
112,-1.60e-02,1.40e-02,
113,1.20e-02,-8.00e-03,
114,1.20e-02,-8.00e-03,
115,-1.60e-02,1.20e-02,
116,-1.20e-02,-8.00e-03,
117,1.20e-02,1.20e-02,
118,1.20e-02,-8.00e-03,
119,-1.60e-02,1.40e-02,
120,1.20e-02,-8.00e-03,
121,-1.60e-02,1.40e-02,
122,1.20e-02,-8.00e-03,
123,-1.60e-02,1.20e-02,
124,1.20e-02,1.20e-02,
125,-1.60e-02,-1.00e-02,
126,-5.48e-01,-2.54e-01,
127,4.72e-01,1.96e-01,
128,1.20e-02,1.20e-02,
129,-1.60e-02,-8.00e-03,
130,1.20e-02,1.20e-02,
131,-1.60e-02,-1.00e-02,
132,-1.60e-02,1.40e-02,
133,1.20e-02,-1.00e-02,
134,1.20e-02,-8.00e-03,
135,-1.60e-02,1.20e-02,
136,1.20e-02,-8.00e-03,
137,-1.60e-02,1.20e-02,
138,1.20e-02,1.40e-02,
139,-1.60e-02,-1.00e-02,
140,-1.60e-02,-8.00e-03,
141,1.20e-02,1.40e-02,
142,1.20e-02,1.20e-02,
143,-1.60e-02,-8.00e-03,
144,-5.48e-01,-2.54e-01,
145,4.72e-01,2.56e-01,
146,1.20e-02,-8.00e-03,
147,-1.60e-02,1.20e-02,
148,1.20e-02,1.40e-02,
149,-1.60e-02,-8.00e-03,
150,1.20e-02,1.20e-02,
151,-1.60e-02,-8.00e-03,
152,1.20e-02,-8.00e-03,
153,-1.60e-02,1.40e-02,
154,1.20e-02,-8.00e-03,
155,-1.60e-02,1.20e-02,
156,-1.60e-02,1.20e-02,
157,1.20e-02,-8.00e-03,
158,-1.60e-02,1.20e-02,
159,1.20e-02,-8.00e-03,
160,1.20e-02,1.20e-02,
161,-1.60e-02,-8.00e-03,
162,1.20e-02,1.20e-02,
163,-1.60e-02,-8.00e-03,
164,1.20e-02,-8.00e-03,
165,-1.60e-02,1.40e-02,
166,1.20e-02,-8.00e-03,
167,-1.60e-02,1.20e-02,
168,-1.60e-02,-8.00e-03,
169,1.20e-02,1.20e-02,
170,5.20e-02,6.60e-02,
171,-9.60e-02,-1.60e-02,
172,4.72e-01,-2.22e-01,
173,-5.48e-01,1.46e-01,
174,-1.20e-02,1.20e-02,
175,1.20e-02,-8.00e-03,
176,1.20e-02,1.20e-02,
177,-1.20e-02,-8.00e-03,
178,-1.20e-02,1.20e-02,
179,1.20e-02,-8.00e-03,
180,1.20e-02,-8.00e-03,
181,-1.60e-02,1.20e-02,
182,1.20e-02,-8.00e-03,
183,-1.60e-02,1.20e-02,
184,1.20e-02,-8.00e-03,
185,-1.60e-02,1.40e-02,
186,-1.20e-02,-8.00e-03,
187,1.20e-02,1.20e-02,
188,-1.60e-02,1.20e-02,
189,1.20e-02,-8.00e-03,
190,1.20e-02,-8.00e-03,
191,-1.60e-02,1.40e-02,
192,-5.48e-01,-2.54e-01,
193,5.20e-02,2.56e-01,
194,1.20e-02,-8.00e-03,
195,-1.60e-02,1.20e-02,
196,1.20e-02,-6.00e-03,
197,-1.60e-02,1.20e-02,
198,1.20e-02,1.40e-02,
199,-1.60e-02,-8.00e-03,
200,-1.20e-02,1.20e-02,
201,1.20e-02,-8.00e-03,
202,1.20e-02,1.20e-02,
203,-1.60e-02,-8.00e-03,
204,1.20e-02,-8.00e-03,
205,-1.60e-02,1.20e-02,
206,1.20e-02,1.20e-02,
207,-1.60e-02,-8.00e-03,
208,1.20e-02,-8.00e-03,
209,-1.60e-02,1.20e-02,
210,1.20e-02,1.20e-02,
211,-1.60e-02,-8.00e-03,
212,1.20e-02,1.20e-02,
213,-1.60e-02,-8.00e-03,
214,-1.60e-02,-8.00e-03,
215,1.20e-02,1.40e-02,
216,1.20e-02,-8.00e-03,
217,-1.60e-02,1.40e-02,
218,-2.80e-02,-8.00e-03,
219,2.80e-02,7.80e-02,
220,-3.88e-01,-2.54e-01,
221,4.68e-01,2.42e-01,
222,1.20e-02,-8.00e-03,
223,-1.20e-02,1.40e-02,
224,1.20e-02,1.40e-02,
225,-1.20e-02,-8.00e-03,
226,-1.20e-02,-8.00e-03,
227,1.20e-02,1.20e-02,
228,-1.20e-02,1.20e-02,
229,1.20e-02,-8.00e-03,
230,-1.60e-02,-8.00e-03,
231,1.20e-02,1.40e-02,
232,-1.20e-02,1.40e-02,
233,1.20e-02,-8.00e-03,
234,-1.20e-02,1.20e-02,
235,1.20e-02,-8.00e-03,
236,1.20e-02,1.20e-02,
237,-1.60e-02,-8.00e-03,
238,-1.60e-02,-3.20e-02,
239,1.28e-01,6.20e-02,
240,1.20e-02,1.40e-02,
241,-1.20e-02,-8.00e-03,
242,1.20e-02,1.20e-02,
243,-1.20e-02,-8.00e-03,
244,-1.60e-02,-8.00e-03,
245,1.20e-02,1.20e-02,
246,1.20e-02,1.40e-02,
247,-1.20e-02,-8.00e-03,
248,-1.60e-02,-6.00e-03,
249,1.20e-02,1.40e-02,
250,-1.20e-02,1.20e-02,
251,1.20e-02,-8.00e-03,
252,-1.60e-02,-8.00e-03,
253,1.20e-02,1.40e-02,
254,1.20e-02,1.20e-02,
255,-1.60e-02,-8.00e-03,
256,-1.20e-02,1.20e-02,
257,1.20e-02,-8.00e-03,
258,1.20e-02,1.40e-02,
259,-1.60e-02,-8.00e-03,
260,1.20e-02,1.40e-02,
261,-1.20e-02,-8.00e-03,
262,-1.20e-02,1.40e-02,
263,1.20e-02,-1.00e-02,
264,1.20e-02,-8.00e-03,
265,-1.60e-02,1.40e-02,
266,1.20e-02,5.60e-02,
267,-6.00e-02,-1.00e-02,
268,4.72e-01,2.56e-01,
269,-5.16e-01,-2.54e-01,
270,1.20e-02,1.20e-02,
271,-1.20e-02,-8.00e-03,
272,-1.20e-02,-8.00e-03,
273,1.20e-02,1.40e-02,
274,1.20e-02,1.40e-02,
275,-1.20e-02,-8.00e-03,
276,1.20e-02,-8.00e-03,
277,-1.60e-02,1.40e-02,
278,-1.20e-02,1.20e-02,
279,1.20e-02,-8.00e-03,
280,-1.20e-02,1.20e-02,
281,1.20e-02,-8.00e-03,
282,-1.20e-02,-8.00e-03,
283,1.20e-02,1.40e-02,
284,1.20e-02,-6.00e-03,
285,-1.60e-02,1.40e-02,
286,-1.20e-02,-6.00e-03,
287,1.20e-02,1.40e-02,
288,-3.64e-01,-2.54e-01,
289,3.24e-01,2.56e-01,
290,1.20e-02,1.40e-02,
291,-1.60e-02,-8.00e-03,
292,1.20e-02,-8.00e-03,
293,-1.60e-02,1.40e-02,
294,-1.20e-02,-8.00e-03,
295,1.20e-02,1.40e-02,
296,-1.60e-02,1.20e-02,
297,1.20e-02,-8.00e-03,
298,1.20e-02,-8.00e-03,
299,-1.60e-02,1.40e-02,
300,-1.60e-02,-8.00e-03,
301,1.20e-02,1.40e-02,
302,1.20e-02,-8.00e-03,
303,-1.60e-02,1.40e-02,
304,1.20e-02,-8.00e-03,
305,-1.60e-02,1.20e-02,
306,1.20e-02,-8.00e-03,
307,-1.60e-02,1.20e-02,
308,-1.60e-02,1.20e-02,
309,1.20e-02,-1.00e-02,
310,1.20e-02,-8.00e-03,
311,-1.60e-02,1.40e-02,
312,1.20e-02,1.20e-02,
313,-1.60e-02,-8.00e-03,
314,4.72e-01,-1.16e-01,
315,-4.24e-01,2.56e-01,
316,1.20e-02,-8.00e-03,
317,-1.60e-02,1.20e-02,
318,1.20e-02,-8.00e-03,
319,-1.60e-02,1.20e-02,
320,-1.20e-02,1.20e-02,
321,1.20e-02,-8.00e-03,
322,1.20e-02,-8.00e-03,
323,-1.60e-02,1.40e-02,
324,1.20e-02,-8.00e-03,
325,-1.60e-02,1.40e-02,
326,-1.60e-02,1.20e-02,
327,1.20e-02,-8.00e-03,
328,1.20e-02,-8.00e-03,
329,-1.60e-02,1.20e-02,
330,1.20e-02,-8.00e-03,
331,-1.60e-02,1.20e-02,
332,1.20e-02,-8.00e-03,
333,-1.60e-02,1.20e-02,
334,1.20e-02,1.20e-02,
335,-1.60e-02,-8.00e-03,
336,-5.04e-01,2.56e-01,
337,4.56e-01,-1.02e-01,
338,1.20e-02,-8.00e-03,
339,-1.60e-02,1.40e-02,
340,1.20e-02,-8.00e-03,
341,-1.60e-02,1.40e-02,
342,-1.20e-02,-8.00e-03,
343,1.20e-02,1.20e-02,
344,-1.20e-02,1.20e-02,
345,1.20e-02,-8.00e-03,
346,-1.20e-02,1.20e-02,
347,1.20e-02,-8.00e-03,
348,1.20e-02,1.20e-02,
349,-1.60e-02,-8.00e-03,
350,1.20e-02,1.20e-02,
351,-1.60e-02,-8.00e-03,
352,1.20e-02,1.20e-02,
353,-1.60e-02,-8.00e-03,
354,-1.60e-02,1.20e-02,
355,1.20e-02,-8.00e-03,
356,1.20e-02,1.40e-02,
357,-1.60e-02,-8.00e-03,
358,-1.20e-02,-8.00e-03,
359,1.20e-02,1.40e-02,
360,1.20e-02,-8.00e-03,
361,-1.60e-02,1.20e-02,
362,1.20e-02,1.20e-02,
363,-1.60e-02,-8.00e-03,
364,-4.52e-01,-1.60e-01,
365,4.72e-01,1.78e-01,
366,-1.20e-02,1.20e-02,
367,1.20e-02,-1.00e-02,
368,-1.20e-02,1.20e-02,
369,1.20e-02,-8.00e-03,
370,1.20e-02,1.20e-02,
371,-1.60e-02,-1.00e-02,
372,1.20e-02,-8.00e-03,
373,-1.60e-02,1.40e-02,
374,1.20e-02,-8.00e-03,
375,-1.60e-02,1.20e-02,
376,1.20e-02,1.20e-02,
377,-1.60e-02,-8.00e-03,
378,-1.20e-02,1.20e-02,
379,1.20e-02,-8.00e-03,
380,-9.20e-02,-5.00e-02,
381,1.16e-01,5.00e-02,
382,1.20e-02,1.20e-02,
383,-1.60e-02,-1.00e-02,
384,1.20e-02,-8.00e-03,
385,-1.60e-02,1.20e-02,
386,-1.20e-02,-8.00e-03,
387,1.20e-02,1.20e-02,
388,-1.20e-02,-8.00e-03,
389,1.20e-02,1.40e-02,
390,1.20e-02,1.20e-02,
391,-1.60e-02,-8.00e-03,
392,-1.20e-02,-8.00e-03,
393,1.20e-02,1.40e-02,
394,-1.20e-02,1.20e-02,
395,1.20e-02,-8.00e-03,
396,-1.60e-02,1.20e-02,
397,1.20e-02,-8.00e-03,
398,1.20e-02,1.20e-02,
399,-1.60e-02,-8.00e-03,
400,-1.60e-02,1.40e-02,
401,1.20e-02,-8.00e-03,
402,-1.60e-02,-8.00e-03,
403,1.20e-02,1.20e-02,
404,1.20e-02,1.40e-02,
405,-1.20e-02,-8.00e-03,
406,1.20e-02,1.20e-02,
407,-1.20e-02,-8.00e-03,
408,-1.20e-02,1.20e-02,
409,1.20e-02,-8.00e-03,
410,4.72e-01,-8.00e-03,
411,-5.48e-01,2.56e-01,
412,4.72e-01,2.56e-01,
413,-2.72e-01,-7.40e-02,
414,1.20e-02,1.20e-02,
415,-1.60e-02,-8.00e-03,
416,-1.60e-02,-8.00e-03,
417,1.20e-02,1.20e-02,
418,-1.60e-02,-8.00e-03,
419,1.20e-02,1.20e-02,
420,-1.60e-02,1.20e-02,
421,1.20e-02,-1.00e-02,
422,1.20e-02,1.20e-02,
423,-1.60e-02,-8.00e-03,
424,-1.60e-02,1.40e-02,
425,1.20e-02,-1.00e-02,
426,1.20e-02,-8.00e-03,
427,-1.60e-02,1.20e-02,
428,-1.20e-02,-8.00e-03,
429,1.20e-02,1.20e-02,
430,-3.00e-01,-2.54e-01,
431,4.72e-01,2.56e-01,
432,1.20e-02,1.40e-02,
433,-1.20e-02,-8.00e-03,
434,-1.20e-02,-8.00e-03,
435,1.20e-02,1.40e-02,
436,-1.20e-02,-8.00e-03,
437,1.20e-02,1.40e-02,
438,-1.20e-02,-8.00e-03,
439,1.20e-02,1.40e-02,
440,1.20e-02,-8.00e-03,
441,-1.60e-02,1.40e-02,
442,-1.20e-02,1.20e-02,
443,1.20e-02,-8.00e-03,
444,1.20e-02,1.40e-02,
445,-1.60e-02,-8.00e-03,
446,1.20e-02,-8.00e-03,
447,-1.60e-02,1.20e-02,
448,-1.20e-02,1.40e-02,
449,1.20e-02,-8.00e-03,
450,1.20e-02,1.20e-02,
451,-1.20e-02,-8.00e-03,
452,1.20e-02,-8.00e-03,
453,-1.60e-02,1.20e-02,
454,-1.20e-02,1.20e-02,
455,1.20e-02,-8.00e-03,
456,4.72e-01,-2.54e-01,
457,-5.48e-01,7.20e-02,
458,-1.20e-02,1.20e-02,
459,1.20e-02,-8.00e-03,
460,1.20e-02,1.20e-02,
461,-1.60e-02,-8.00e-03,
462,-1.20e-02,-8.00e-03,
463,1.60e-02,1.40e-02,
464,1.20e-02,-8.00e-03,
465,-1.60e-02,1.40e-02,
466,1.20e-02,-8.00e-03,
467,-1.60e-02,1.20e-02,
468,-1.60e-02,1.40e-02,
469,1.60e-02,-1.00e-02,
470,1.20e-02,-8.00e-03,
471,-1.60e-02,1.40e-02,
472,1.20e-02,1.20e-02,
473,-1.60e-02,-8.00e-03,
474,-1.20e-02,1.40e-02,
475,1.20e-02,-8.00e-03,
476,1.20e-02,1.40e-02,
477,-1.60e-02,-8.00e-03,
478,-4.16e-01,-2.54e-01,
479,4.32e-01,1.74e-01,
480,1.20e-02,1.20e-02,
481,-1.60e-02,-8.00e-03,
482,1.20e-02,-8.00e-03,
483,-1.60e-02,1.40e-02,
484,1.20e-02,1.20e-02,
485,-1.60e-02,-8.00e-03,
486,-1.60e-02,-8.00e-03,
487,1.20e-02,1.40e-02,
488,-1.20e-02,-8.00e-03,
489,1.20e-02,1.20e-02,
490,1.20e-02,1.20e-02,
491,-1.60e-02,-1.00e-02,
492,1.20e-02,-8.00e-03,
493,-1.60e-02,1.20e-02,
494,1.20e-02,-1.00e-02,
495,-1.60e-02,1.40e-02,
496,1.20e-02,-8.00e-03,
497,-1.60e-02,1.20e-02,
498,-1.20e-02,1.20e-02,
499,1.20e-02,-8.00e-03,
500,1.20e-02,1.20e-02,
501,-1.60e-02,-8.00e-03,
502,1.20e-02,1.40e-02,
503,-1.60e-02,-8.00e-03,
504,1.20e-02,-1.20e-02,
505,-1.20e-02,1.40e-02,
506,4.48e-01,-2.54e-01,
507,-2.00e-01,1.28e-01,
508,1.20e-02,1.20e-02,
509,-1.60e-02,-8.00e-03,
510,1.20e-02,-6.00e-03,
511,-1.60e-02,1.20e-02,
512,-1.20e-02,1.20e-02,
513,1.20e-02,-8.00e-03,
514,1.20e-02,1.40e-02,
515,-1.60e-02,-8.00e-03,
516,1.20e-02,1.20e-02,
517,-1.60e-02,-8.00e-03,
518,1.20e-02,-8.00e-03,
519,-1.60e-02,1.40e-02,
520,1.20e-02,-8.00e-03,
521,-1.20e-02,1.40e-02,
522,1.20e-02,1.20e-02,
523,-1.60e-02,-8.00e-03,
524,1.36e-01,-7.20e-02,
525,-1.36e-01,5.20e-02,
526,-1.20e-02,-8.00e-03,
527,1.20e-02,1.20e-02,
528,-1.20e-02,1.20e-02,
529,1.20e-02,-8.00e-03,
530,-1.20e-02,-8.00e-03,
531,1.20e-02,1.40e-02,
532,1.20e-02,-8.00e-03,
533,-1.60e-02,1.40e-02,
534,-1.20e-02,1.20e-02,
535,1.20e-02,-8.00e-03,
536,1.20e-02,1.20e-02,
537,-1.60e-02,-8.00e-03,
538,1.20e-02,1.40e-02,
539,-1.60e-02,-8.00e-03,
540,-1.20e-02,-8.00e-03,
541,1.20e-02,1.20e-02,
542,1.20e-02,1.20e-02,
543,-1.60e-02,-8.00e-03,
544,-1.20e-02,1.20e-02,
545,1.20e-02,-8.00e-03,
546,-1.20e-02,-8.00e-03,
547,1.20e-02,1.40e-02,
548,-1.20e-02,1.20e-02,
549,1.20e-02,-8.00e-03,
550,-3.60e-02,-7.80e-02,
551,5.60e-02,5.40e-02,
552,1.20e-02,1.20e-02,
553,-7.20e-02,-7.80e-02,
554,-3.20e-01,2.56e-01,
555,4.40e-01,-2.54e-01,
556,-1.20e-02,1.40e-02,
557,1.20e-02,-8.00e-03,
558,1.20e-02,1.20e-02,
559,-1.60e-02,-1.00e-02,
560,1.20e-02,1.20e-02,
561,-1.60e-02,-8.00e-03,
562,1.20e-02,-8.00e-03,
563,-1.60e-02,1.20e-02,
564,-1.20e-02,-8.00e-03,
565,1.20e-02,1.20e-02,
566,-1.20e-02,1.20e-02,
567,1.20e-02,-8.00e-03,
568,1.20e-02,1.20e-02,
569,-1.60e-02,-8.00e-03,
570,1.20e-02,-8.00e-03,
571,-1.60e-02,1.20e-02,
572,-3.56e-01,1.20e-02,
573,3.00e-01,-2.16e-01,
574,1.20e-02,1.20e-02,
575,-1.60e-02,-8.00e-03,
576,-1.60e-02,-8.00e-03,
577,1.20e-02,1.20e-02,
578,-1.20e-02,1.40e-02,
579,1.20e-02,-8.00e-03,
580,-1.60e-02,1.20e-02,
581,1.20e-02,-8.00e-03,
582,1.20e-02,1.20e-02,
583,-1.60e-02,-8.00e-03,
584,1.20e-02,1.20e-02,
585,-1.20e-02,-8.00e-03,
586,-1.20e-02,1.20e-02,
587,1.20e-02,-8.00e-03,
588,1.20e-02,1.20e-02,
589,-1.60e-02,-8.00e-03,
590,-1.60e-02,1.20e-02,
591,1.20e-02,-8.00e-03,
592,-1.20e-02,1.20e-02,
593,1.20e-02,-8.00e-03,
594,1.20e-02,-8.00e-03,
595,-1.60e-02,1.40e-02,
596,1.20e-02,-8.00e-03,
597,-1.20e-02,1.20e-02,
598,-1.16e-01,5.80e-02,
599,4.72e-01,-1.40e-01,
600,-5.48e-01,2.56e-01,
601,4.12e-01,-2.54e-01,
602,1.20e-02,1.20e-02,
603,-1.60e-02,-1.00e-02,
604,1.20e-02,-8.00e-03,
605,-1.60e-02,1.20e-02,
606,1.20e-02,-8.00e-03,
607,-1.60e-02,1.20e-02,
608,-1.60e-02,-8.00e-03,
609,1.20e-02,1.20e-02,
610,1.20e-02,1.20e-02,
611,-1.60e-02,-8.00e-03,
612,1.20e-02,1.20e-02,
613,-1.60e-02,-8.00e-03,
614,1.20e-02,-8.00e-03,
615,-1.60e-02,1.40e-02,
616,1.20e-02,1.20e-02,
617,-1.20e-02,-8.00e-03,
618,-1.20e-02,-8.00e-03,
619,1.20e-02,1.40e-02,
620,-5.48e-01,2.56e-01,
621,3.96e-01,-2.54e-01,
622,1.20e-02,1.20e-02,
623,-1.20e-02,-8.00e-03,
624,-1.20e-02,1.20e-02,
625,1.20e-02,-8.00e-03,
626,-1.20e-02,1.20e-02,
627,1.20e-02,-8.00e-03,
628,1.20e-02,1.20e-02,
629,-1.60e-02,-8.00e-03,
630,1.20e-02,-8.00e-03,
631,-1.60e-02,1.40e-02,
632,1.20e-02,-8.00e-03,
633,-1.60e-02,1.40e-02,
634,-1.20e-02,-8.00e-03,
635,1.20e-02,1.40e-02,
636,1.20e-02,1.40e-02,
637,-1.60e-02,-8.00e-03,
638,1.20e-02,-8.00e-03,
639,-1.60e-02,1.40e-02,
640,1.20e-02,-8.00e-03,
641,-1.60e-02,1.40e-02,
642,1.20e-02,1.40e-02,
643,-1.60e-02,-8.00e-03,
644,1.20e-02,-6.00e-03,
645,-1.60e-02,1.40e-02,
646,1.20e-02,-8.00e-03,
647,-1.20e-02,1.40e-02,
648,-5.00e-01,-2.04e-01,
649,4.72e-01,1.98e-01,
650,1.20e-02,-8.00e-03,
651,-1.60e-02,1.40e-02,
652,1.20e-02,1.40e-02,
653,-1.60e-02,-8.00e-03,
654,1.20e-02,1.20e-02,
655,-1.20e-02,-1.00e-02,
656,1.20e-02,-8.00e-03,
657,-1.60e-02,1.20e-02,
658,-1.20e-02,-8.00e-03,
659,1.20e-02,1.40e-02,
660,1.20e-02,-8.00e-03,
661,-1.60e-02,1.20e-02,
662,1.20e-02,1.20e-02,
663,-1.60e-02,-8.00e-03,
664,-1.20e-02,-8.00e-03,
665,1.20e-02,1.20e-02,
666,6.40e-02,-5.60e-02,
667,-1.08e-01,6.60e-02,
668,1.20e-02,-8.00e-03,
669,-1.60e-02,1.40e-02,
670,1.20e-02,-8.00e-03,
671,-1.20e-02,1.40e-02,
672,1.20e-02,1.40e-02,
673,-1.60e-02,-8.00e-03,
674,-1.20e-02,1.20e-02,
675,1.20e-02,-8.00e-03,
676,1.20e-02,-8.00e-03,
677,-1.60e-02,1.40e-02,
678,1.20e-02,1.20e-02,
679,-1.20e-02,-8.00e-03,
680,1.20e-02,1.20e-02,
681,-1.60e-02,-8.00e-03,
682,1.20e-02,1.20e-02,
683,-1.20e-02,-1.00e-02,
684,1.20e-02,1.20e-02,
685,-1.60e-02,-8.00e-03,
686,1.20e-02,1.20e-02,
687,-1.60e-02,-8.00e-03,
688,1.20e-02,-8.00e-03,
689,-1.60e-02,1.20e-02,
690,1.20e-02,1.20e-02,
691,-1.60e-02,-8.00e-03,
692,1.20e-02,-6.00e-03,
693,-1.60e-02,1.40e-02,
694,-1.20e-02,1.20e-02,
695,1.20e-02,-8.00e-03,
696,4.72e-01,-2.54e-01,
697,-5.48e-01,2.56e-01,
698,-1.20e-02,-8.00e-03,
699,1.20e-02,1.20e-02,
700,1.20e-02,-8.00e-03,
701,-1.60e-02,1.20e-02,
702,1.20e-02,-8.00e-03,
703,-1.20e-02,1.40e-02,
704,1.20e-02,1.20e-02,
705,-1.60e-02,-8.00e-03,
706,1.20e-02,-8.00e-03,
707,-1.60e-02,1.40e-02,
708,-1.60e-02,-8.00e-03,
709,1.20e-02,1.20e-02,
710,1.20e-02,1.20e-02,
711,-1.60e-02,-8.00e-03,
712,1.20e-02,1.20e-02,
713,-1.60e-02,-1.00e-02,
714,1.20e-02,-8.00e-03,
715,-1.60e-02,1.40e-02,
716,-3.16e-01,-2.24e-01,
717,4.32e-01,2.56e-01,
718,-1.60e-02,1.20e-02,
719,1.20e-02,-8.00e-03,
720,1.20e-02,-8.00e-03,
721,-1.60e-02,1.40e-02,
722,-1.20e-02,1.20e-02,
723,1.20e-02,-8.00e-03,
724,-1.60e-02,1.20e-02,
725,1.20e-02,-8.00e-03,
726,1.20e-02,1.20e-02,
727,-1.60e-02,-8.00e-03,
728,-1.20e-02,1.20e-02,
729,1.20e-02,-1.00e-02,
730,1.20e-02,1.20e-02,
731,-1.60e-02,-8.00e-03,
732,-1.60e-02,1.20e-02,
733,1.20e-02,-1.00e-02,
734,-1.20e-02,-8.00e-03,
735,1.20e-02,1.40e-02,
736,1.20e-02,1.20e-02,
737,-1.20e-02,-8.00e-03,
738,1.20e-02,-8.00e-03,
739,-1.60e-02,1.20e-02,
740,6.80e-02,-3.80e-02,
741,-4.40e-02,3.60e-02,
742,-4.40e-01,2.34e-01,
743,4.28e-01,-2.54e-01,
744,-1.20e-02,-8.00e-03,
745,1.20e-02,1.20e-02,
746,1.20e-02,-8.00e-03,
747,-1.60e-02,1.40e-02,
748,-1.20e-02,-8.00e-03,
749,1.20e-02,1.20e-02,
750,1.20e-02,1.20e-02,
751,-1.60e-02,-8.00e-03,
752,-1.20e-02,1.20e-02,
753,1.20e-02,-8.00e-03,
754,1.20e-02,-8.00e-03,
755,-1.60e-02,1.40e-02,
756,1.20e-02,1.40e-02,
757,-1.20e-02,-8.00e-03,
758,-1.20e-02,-8.00e-03,
759,1.20e-02,1.20e-02,
760,1.20e-02,-8.00e-03,
761,-1.60e-02,1.20e-02,
762,3.28e-01,-1.00e-02,
763,-4.28e-01,2.56e-01,
764,-3.92e-01,-2.54e-01,
765,2.64e-01,1.14e-01,
766,-1.20e-02,-8.00e-03,
767,1.20e-02,1.20e-02,
768,1.20e-02,-8.00e-03,
769,-1.60e-02,1.20e-02,
770,-1.20e-02,-8.00e-03,
771,1.20e-02,1.40e-02,
772,1.20e-02,-8.00e-03,
773,-1.60e-02,1.20e-02,
774,1.20e-02,1.20e-02,
775,-1.60e-02,-8.00e-03,
776,1.20e-02,1.20e-02,
777,-1.20e-02,-8.00e-03,
778,1.20e-02,1.20e-02,
779,-1.20e-02,-8.00e-03,
780,1.20e-02,-8.00e-03,
781,-1.60e-02,1.40e-02,
782,-1.60e-02,-8.00e-03,
783,1.20e-02,1.40e-02,
784,-1.60e-02,1.20e-02,
785,1.20e-02,-8.00e-03,
786,1.20e-02,-8.00e-03,
787,-1.60e-02,1.40e-02,
788,-1.60e-02,-4.80e-02,
789,6.40e-02,1.60e-02,
790,-5.20e-02,-1.88e-01,
791,4.72e-01,1.54e-01,
792,1.64e-01,1.10e-01,
793,-1.08e-01,-1.50e-01,
794,-1.60e-02,-8.00e-03,
795,1.20e-02,1.40e-02,
796,1.20e-02,-8.00e-03,
797,-1.60e-02,1.20e-02,
798,1.20e-02,1.40e-02,
799,-1.20e-02,-8.00e-03,
800,-1.20e-02,1.20e-02,
801,1.20e-02,-8.00e-03,
802,1.20e-02,-8.00e-03,
803,-1.60e-02,1.20e-02,
804,1.20e-02,-8.00e-03,
805,-1.60e-02,1.40e-02,
806,1.20e-02,-8.00e-03,
807,-1.60e-02,1.40e-02,
808,1.48e-01,5.40e-02,
809,-1.32e-01,-6.80e-02,
810,1.20e-02,-8.00e-03,
811,-1.60e-02,1.40e-02,
812,1.20e-02,-8.00e-03,
813,-1.60e-02,1.40e-02,
814,1.20e-02,1.20e-02,
815,-1.60e-02,-8.00e-03,
816,1.20e-02,-1.00e-02,
817,-1.60e-02,1.40e-02,
818,1.20e-02,-8.00e-03,
819,-1.60e-02,1.40e-02,
820,1.20e-02,-8.00e-03,
821,-1.60e-02,1.40e-02,
822,1.20e-02,-8.00e-03,
823,-1.20e-02,1.40e-02,
824,1.20e-02,-8.00e-03,
825,-1.60e-02,1.40e-02,
826,-1.60e-02,1.40e-02,
827,1.20e-02,-8.00e-03,
828,1.20e-02,-8.00e-03,
829,-1.60e-02,1.20e-02,
830,1.20e-02,-8.00e-03,
831,-1.60e-02,1.40e-02,
832,1.20e-02,-8.00e-03,
833,-1.60e-02,1.40e-02,
