Motor_Data/MOTOR_3_ON/time domain/NewFile68.csv

X,CH1,CH2,Start,Increment,
Sequence,Volt,Volt,-3.000000e-02,5.000000e-05
0,-1.20e-02,-8.00e-03,
1,1.20e-02,1.40e-02,
2,-1.20e-02,-8.00e-03,
3,1.20e-02,1.40e-02,
4,1.20e-02,1.40e-02,
5,-1.60e-02,-1.00e-02,
6,-8.00e-02,-4.00e-02,
7,1.16e-01,6.60e-02,
8,3.60e-02,-3.00e-02,
9,-1.20e-02,1.40e-02,
10,1.20e-02,-8.00e-03,
11,-1.60e-02,1.40e-02,
12,1.20e-02,1.40e-02,
13,-1.60e-02,-1.00e-02,
14,1.20e-02,1.20e-02,
15,-1.60e-02,-8.00e-03,
16,1.20e-02,1.40e-02,
17,-1.60e-02,-1.00e-02,
18,-1.60e-02,-8.00e-03,
19,1.20e-02,1.40e-02,
20,1.20e-02,1.40e-02,
21,-1.60e-02,-1.00e-02,
22,1.20e-02,-8.00e-03,
23,-1.60e-02,1.40e-02,
24,1.20e-02,1.40e-02,
25,-1.60e-02,-1.00e-02,
26,1.20e-02,-8.00e-03,
27,-1.60e-02,1.40e-02,
28,1.20e-02,-8.00e-03,
29,-1.60e-02,1.20e-02,
30,1.20e-02,-8.00e-03,
31,-1.60e-02,1.40e-02,
32,1.20e-02,1.40e-02,
33,-1.60e-02,-1.00e-02,
34,1.20e-02,1.40e-02,
35,-1.60e-02,-1.00e-02,
36,1.20e-02,-2.54e-01,
37,-3.48e-01,2.56e-01,
38,-1.60e-02,1.40e-02,
39,1.20e-02,-8.00e-03,
40,1.20e-02,-8.00e-03,
41,-1.60e-02,1.40e-02,
42,1.20e-02,-1.00e-02,
43,-1.60e-02,1.40e-02,
44,1.20e-02,1.40e-02,
45,-1.60e-02,-8.00e-03,
46,1.20e-02,-8.00e-03,
47,-1.60e-02,1.40e-02,
48,-1.20e-02,-8.00e-03,
49,1.20e-02,1.40e-02,
50,1.20e-02,-8.00e-03,
51,-1.60e-02,1.40e-02,
52,1.20e-02,1.40e-02,
53,-1.60e-02,-1.00e-02,
54,1.20e-02,-8.00e-03,
55,-1.60e-02,1.40e-02,
56,-1.80e-01,2.40e-01,
57,3.36e-01,-1.32e-01,
58,1.20e-02,-8.00e-03,
59,-1.60e-02,1.40e-02,
60,1.20e-02,-8.00e-03,
61,-1.20e-02,1.20e-02,
62,-1.20e-02,1.40e-02,
63,1.20e-02,-8.00e-03,
64,-1.20e-02,1.40e-02,
65,1.20e-02,-1.00e-02,
66,1.20e-02,-8.00e-03,
67,-1.60e-02,1.40e-02,
68,1.20e-02,-8.00e-03,
69,-1.60e-02,1.40e-02,
70,-1.20e-02,1.40e-02,
71,1.20e-02,-1.00e-02,
72,-1.20e-02,1.40e-02,
73,1.20e-02,-8.00e-03,
74,1.20e-02,-8.00e-03,
75,-1.60e-02,1.40e-02,
76,1.20e-02,-8.00e-03,
77,-1.60e-02,1.40e-02,
78,1.20e-02,-8.00e-03,
79,-1.20e-02,1.40e-02,
80,-1.60e-02,-4.60e-02,
81,6.40e-02,3.60e-02,
82,1.28e-01,7.60e-02,
83,-1.60e-01,-9.40e-02,
84,1.20e-02,1.40e-02,
85,-1.60e-02,-1.00e-02,
86,1.20e-02,1.40e-02,
87,-1.60e-02,-8.00e-03,
88,-1.20e-02,-8.00e-03,
89,1.20e-02,1.40e-02,
90,1.20e-02,-1.00e-02,
91,-1.20e-02,1.40e-02,
92,1.20e-02,1.40e-02,
93,-1.60e-02,-8.00e-03,
94,1.20e-02,-8.00e-03,
95,-1.60e-02,1.40e-02,
96,-1.20e-02,-8.00e-03,
97,1.20e-02,1.40e-02,
98,-1.20e-02,-8.00e-03,
99,1.20e-02,1.40e-02,
100,-1.20e-02,-8.00e-03,
101,1.60e-02,1.40e-02,
102,3.64e-01,-2.36e-01,
103,-2.00e-01,2.56e-01,
104,1.20e-02,1.20e-02,
105,-1.60e-02,-1.00e-02,
106,-1.20e-02,1.20e-02,
107,1.20e-02,-8.00e-03,
108,1.20e-02,1.40e-02,
109,-1.60e-02,-8.00e-03,
110,1.20e-02,1.40e-02,
111,-1.60e-02,-1.00e-02,
112,1.20e-02,1.40e-02,
113,-1.60e-02,-8.00e-03,
114,1.20e-02,-1.00e-02,
115,-1.60e-02,1.40e-02,
116,1.20e-02,1.40e-02,
117,-1.60e-02,-1.00e-02,
118,-1.20e-02,1.20e-02,
119,1.20e-02,-1.00e-02,
120,1.20e-02,1.20e-02,
121,-1.60e-02,-8.00e-03,
122,-1.60e-02,-8.00e-03,
123,1.20e-02,1.40e-02,
124,1.20e-02,1.40e-02,
125,-1.60e-02,-1.00e-02,
126,1.20e-02,-8.00e-03,
127,-1.60e-02,1.40e-02,
128,1.20e-02,-8.00e-03,
129,-1.60e-02,1.40e-02,
130,-2.20e-01,9.60e-02,
131,2.72e-01,-9.20e-02,
132,-1.20e-02,-1.00e-02,
133,1.20e-02,1.40e-02,
134,-1.20e-02,-8.00e-03,
135,1.20e-02,1.40e-02,
136,1.20e-02,1.40e-02,
137,-1.60e-02,-8.00e-03,
138,-1.20e-02,1.40e-02,
139,1.20e-02,-8.00e-03,
140,1.20e-02,-8.00e-03,
141,-1.60e-02,1.40e-02,
142,-1.20e-02,1.20e-02,
143,1.20e-02,-8.00e-03,
144,-1.20e-02,1.40e-02,
145,1.20e-02,-8.00e-03,
146,-1.20e-02,-8.00e-03,
147,1.20e-02,1.40e-02,
148,6.40e-02,-5.40e-02,
149,-6.40e-02,4.60e-02,
150,1.20e-02,1.20e-02,
151,-1.60e-02,-1.00e-02,
152,1.20e-02,1.40e-02,
153,-1.60e-02,-8.00e-03,
154,1.20e-02,-1.00e-02,
155,-1.60e-02,1.40e-02,
156,1.20e-02,-8.00e-03,
157,-1.20e-02,1.40e-02,
158,1.20e-02,1.40e-02,
159,-1.60e-02,-1.00e-02,
160,1.20e-02,1.40e-02,
161,-1.20e-02,-1.00e-02,
162,-1.20e-02,1.40e-02,
163,1.20e-02,-8.00e-03,
164,1.20e-02,-8.00e-03,
165,-1.60e-02,1.40e-02,
166,1.20e-02,-8.00e-03,
167,-1.60e-02,1.40e-02,
168,1.20e-02,1.40e-02,
169,-1.60e-02,-1.00e-02,
170,1.20e-02,-8.00e-03,
171,-1.60e-02,1.40e-02,
172,1.20e-02,-8.00e-03,
173,-1.60e-02,1.40e-02,
174,1.20e-02,-8.00e-03,
175,-1.60e-02,1.40e-02,
176,-1.20e-02,1.20e-02,
177,1.20e-02,-8.00e-03,
178,2.84e-01,-2.32e-01,
179,-2.68e-01,2.56e-01,
180,1.20e-02,1.20e-02,
181,-1.60e-02,-1.00e-02,
182,1.20e-02,-8.00e-03,
183,-1.60e-02,1.40e-02,
184,1.20e-02,-8.00e-03,
185,-1.60e-02,1.40e-02,
186,1.20e-02,-8.00e-03,
187,-1.20e-02,1.40e-02,
188,-1.20e-02,-8.00e-03,
189,1.20e-02,1.40e-02,
190,-1.20e-02,1.40e-02,
191,1.20e-02,-1.00e-02,
192,1.20e-02,1.20e-02,
193,-1.60e-02,-1.00e-02,
194,-1.20e-02,1.40e-02,
195,1.20e-02,-1.00e-02,
196,-1.52e-01,2.26e-01,
197,2.88e-01,-1.78e-01,
198,-1.20e-02,-8.00e-03,
199,1.20e-02,1.40e-02,
200,1.20e-02,-8.00e-03,
201,-1.60e-02,1.40e-02,
202,1.20e-02,-8.00e-03,
203,-1.60e-02,1.40e-02,
204,-1.20e-02,1.40e-02,
205,1.20e-02,-8.00e-03,
206,1.20e-02,-8.00e-03,
207,-1.60e-02,1.40e-02,
208,1.20e-02,-1.00e-02,
209,-1.60e-02,1.40e-02,
210,-1.20e-02,-8.00e-03,
211,1.20e-02,1.40e-02,
212,1.20e-02,-8.00e-03,
213,-1.60e-02,1.40e-02,
214,1.20e-02,1.40e-02,
215,-1.20e-02,-8.00e-03,
216,-1.20e-02,1.40e-02,
217,1.20e-02,-8.00e-03,
218,-1.20e-02,-8.00e-03,
219,1.20e-02,1.40e-02,
220,1.20e-02,1.40e-02,
221,-1.60e-02,-8.00e-03,
222,-2.56e-01,2.12e-01,
223,3.20e-01,-1.16e-01,
224,1.20e-02,-8.00e-03,
225,-1.60e-02,1.40e-02,
226,1.20e-02,-8.00e-03,
227,-1.60e-02,1.40e-02,
228,1.20e-02,1.40e-02,
229,-1.60e-02,-8.00e-03,
230,1.20e-02,-8.00e-03,
231,-1.60e-02,1.40e-02,
232,1.20e-02,-8.00e-03,
233,-1.60e-02,1.40e-02,
234,1.20e-02,1.40e-02,
235,-1.60e-02,-8.00e-03,
236,1.20e-02,-8.00e-03,
237,-1.60e-02,1.40e-02,
238,-1.20e-02,1.40e-02,
239,1.20e-02,-8.00e-03,
240,1.20e-02,-8.00e-03,
241,-1.20e-02,1.40e-02,
242,1.20e-02,-8.00e-03,
243,-1.60e-02,1.40e-02,
244,2.24e-01,2.14e-01,
245,-3.12e-01,-2.54e-01,
246,-1.20e-02,1.40e-02,
247,1.20e-02,-8.00e-03,
248,-1.20e-02,-8.00e-03,
249,1.20e-02,1.40e-02,
250,1.20e-02,1.40e-02,
251,-1.60e-02,-8.00e-03,
252,-1.60e-02,1.40e-02,
253,1.60e-02,-8.00e-03,
254,1.20e-02,-8.00e-03,
255,-1.60e-02,1.40e-02,
256,1.20e-02,-8.00e-03,
257,-1.60e-02,1.40e-02,
258,1.20e-02,-8.00e-03,
259,-1.60e-02,1.40e-02,
260,1.20e-02,1.40e-02,
261,-1.60e-02,-1.00e-02,
262,1.20e-02,1.40e-02,
263,-1.60e-02,-8.00e-03,
264,1.20e-02,-8.00e-03,
265,-1.60e-02,1.40e-02,
266,1.20e-02,1.40e-02,
267,-1.60e-02,-8.00e-03,
268,1.20e-02,-8.00e-03,
269,-1.60e-02,1.40e-02,
270,-2.40e-01,1.20e-01,
271,3.12e-01,-1.66e-01,
272,1.20e-02,1.40e-02,
273,-1.60e-02,-1.00e-02,
274,1.20e-02,1.20e-02,
275,-1.60e-02,-1.00e-02,
276,1.20e-02,-8.00e-03,
277,-1.60e-02,1.40e-02,
278,1.20e-02,-8.00e-03,
279,-1.60e-02,1.40e-02,
280,-1.60e-02,1.40e-02,
281,1.20e-02,-8.00e-03,
282,1.20e-02,-8.00e-03,
283,-1.60e-02,1.20e-02,
284,1.20e-02,-1.00e-02,
285,-1.60e-02,1.40e-02,
286,1.20e-02,-8.00e-03,
287,-1.60e-02,1.40e-02,
288,-6.80e-02,5.80e-02,
289,6.80e-02,-5.80e-02,
290,1.20e-02,-8.00e-03,
291,-1.60e-02,1.40e-02,
292,-1.60e-02,-8.00e-03,
293,1.20e-02,1.40e-02,
294,1.20e-02,-8.00e-03,
295,-1.60e-02,1.40e-02,
296,1.20e-02,-8.00e-03,
297,-1.60e-02,1.40e-02,
298,1.20e-02,-8.00e-03,
299,-1.60e-02,1.40e-02,
300,1.20e-02,-8.00e-03,
301,-1.60e-02,1.40e-02,
302,1.20e-02,-8.00e-03,
303,-1.60e-02,1.40e-02,
304,-1.20e-02,-8.00e-03,
305,1.20e-02,1.40e-02,
306,-1.20e-02,1.20e-02,
307,1.20e-02,-8.00e-03,
308,1.20e-02,-8.00e-03,
309,-1.60e-02,1.40e-02,
310,1.20e-02,-8.00e-03,
311,-1.60e-02,1.40e-02,
312,1.20e-02,-8.00e-03,
313,-1.60e-02,1.40e-02,
314,1.20e-02,1.20e-02,
315,-1.60e-02,-1.00e-02,
316,1.20e-02,-8.00e-03,
317,-1.60e-02,1.40e-02,
318,1.20e-02,-2.54e-01,
319,-3.96e-01,2.26e-01,
320,1.20e-02,1.20e-02,
321,-1.60e-02,-1.00e-02,
322,1.20e-02,1.40e-02,
323,-1.20e-02,-8.00e-03,
324,1.20e-02,-8.00e-03,
325,-1.60e-02,1.40e-02,
326,1.20e-02,-1.00e-02,
327,-1.60e-02,1.40e-02,
328,1.20e-02,1.20e-02,
329,-1.60e-02,-8.00e-03,
330,-1.20e-02,-8.00e-03,
331,1.20e-02,1.40e-02,
332,1.20e-02,-8.00e-03,
333,-1.20e-02,1.40e-02,
334,1.20e-02,-8.00e-03,
335,-1.60e-02,1.20e-02,
336,-3.00e-01,-2.54e-01,
337,1.96e-01,1.38e-01,
338,1.20e-02,1.40e-02,
339,-1.60e-02,-1.00e-02,
340,-1.20e-02,-8.00e-03,
341,1.20e-02,1.40e-02,
342,1.20e-02,-8.00e-03,
343,-1.60e-02,1.40e-02,
344,1.20e-02,1.40e-02,
345,-1.60e-02,-1.00e-02,
346,1.20e-02,1.20e-02,
347,-1.60e-02,-8.00e-03,
348,1.20e-02,-8.00e-03,
349,-1.60e-02,1.40e-02,
350,1.20e-02,1.20e-02,
351,-1.60e-02,-8.00e-03,
352,1.20e-02,-8.00e-03,
353,-1.20e-02,1.40e-02,
354,1.20e-02,-8.00e-03,
355,-1.60e-02,1.40e-02,
356,1.20e-02,1.40e-02,
357,-1.60e-02,-1.00e-02,
358,1.20e-02,-8.00e-03,
359,-1.60e-02,1.40e-02,
360,1.20e-02,-8.00e-03,
361,-1.60e-02,1.40e-02,
362,-2.08e-01,1.28e-01,
363,1.96e-01,-9.80e-02,
364,1.20e-02,-1.00e-02,
365,-1.60e-02,1.40e-02,
366,1.20e-02,1.40e-02,
367,-1.60e-02,-8.00e-03,
368,1.20e-02,-8.00e-03,
369,-1.60e-02,1.20e-02,
370,1.20e-02,-8.00e-03,
371,-1.60e-02,1.40e-02,
372,1.20e-02,1.40e-02,
373,-1.60e-02,-8.00e-03,
374,1.20e-02,-1.00e-02,
375,-1.60e-02,1.40e-02,
376,1.20e-02,1.40e-02,
377,-1.60e-02,-8.00e-03,
378,1.20e-02,1.20e-02,
379,-1.60e-02,-1.00e-02,
380,1.20e-02,-8.00e-03,
381,-1.60e-02,1.20e-02,
382,1.20e-02,-8.00e-03,
383,-1.60e-02,1.40e-02,
384,3.52e-01,-2.54e-01,
385,-2.68e-01,2.56e-01,
386,-1.20e-02,1.40e-02,
387,1.20e-02,-1.00e-02,
388,1.20e-02,1.40e-02,
389,-1.60e-02,-8.00e-03,
390,1.20e-02,-1.00e-02,
391,-1.60e-02,1.40e-02,
392,-1.20e-02,-8.00e-03,
393,1.20e-02,1.40e-02,
394,-1.20e-02,-8.00e-03,
395,1.20e-02,1.20e-02,
396,1.20e-02,-1.00e-02,
397,-1.60e-02,1.40e-02,
398,-1.60e-02,-8.00e-03,
399,1.20e-02,1.40e-02,
400,1.20e-02,1.20e-02,
401,-1.60e-02,-1.00e-02,
402,1.20e-02,-8.00e-03,
403,-1.60e-02,1.40e-02,
404,1.20e-02,-8.00e-03,
405,-1.60e-02,1.40e-02,
406,-1.60e-02,-8.00e-03,
407,1.20e-02,1.40e-02,
408,-1.20e-02,-8.00e-03,
409,1.20e-02,1.20e-02,
410,1.20e-02,-8.00e-03,
411,-1.20e-02,1.20e-02,
412,1.92e-01,8.20e-02,
413,-1.80e-01,-1.00e-01,
414,1.20e-02,1.20e-02,
415,-1.60e-02,-1.00e-02,
416,1.20e-02,-8.00e-03,
417,-1.60e-02,1.40e-02,
418,1.20e-02,1.40e-02,
419,-1.60e-02,-8.00e-03,
420,-1.20e-02,-8.00e-03,
421,1.20e-02,1.40e-02,
422,1.20e-02,-8.00e-03,
423,-1.60e-02,1.20e-02,
424,1.20e-02,1.20e-02,
425,-1.60e-02,-8.00e-03,
426,1.20e-02,1.40e-02,
427,-1.60e-02,-1.00e-02,
428,4.80e-02,-3.00e-02,
429,-7.60e-02,5.20e-02,
430,1.20e-02,-1.00e-02,
431,-1.60e-02,1.20e-02,
432,1.20e-02,-8.00e-03,
433,-1.60e-02,1.40e-02,
434,1.20e-02,1.20e-02,
435,-1.60e-02,-8.00e-03,
436,1.20e-02,1.40e-02,
437,-1.60e-02,-8.00e-03,
438,1.20e-02,-8.00e-03,
439,-1.60e-02,1.40e-02,
440,1.20e-02,-8.00e-03,
441,-1.60e-02,1.20e-02,
442,1.20e-02,-1.00e-02,
443,-1.60e-02,1.40e-02,
444,-1.20e-02,1.20e-02,
445,1.20e-02,-8.00e-03,
446,1.20e-02,1.20e-02,
447,-1.60e-02,-1.00e-02,
448,-1.20e-02,1.40e-02,
449,1.20e-02,-1.00e-02,
450,-1.20e-02,-8.00e-03,
451,1.20e-02,1.40e-02,
452,-1.20e-02,-8.00e-03,
453,1.20e-02,1.20e-02,
454,1.20e-02,-8.00e-03,
455,-1.60e-02,1.40e-02,
456,1.20e-02,1.40e-02,
457,-1.60e-02,-1.00e-02,
458,-3.80e-01,1.40e-02,
459,4.72e-01,-2.30e-01,
460,1.20e-02,-8.00e-03,
461,-1.60e-02,1.40e-02,
462,1.20e-02,1.40e-02,
463,-1.60e-02,-8.00e-03,
464,1.20e-02,-8.00e-03,
465,-1.60e-02,1.40e-02,
466,1.20e-02,-8.00e-03,
467,-1.60e-02,1.40e-02,
468,-1.20e-02,-8.00e-03,
469,1.20e-02,1.40e-02,
470,1.20e-02,1.40e-02,
471,-1.60e-02,-8.00e-03,
472,1.20e-02,1.40e-02,
473,-1.20e-02,-8.00e-03,
474,1.20e-02,1.40e-02,
475,-1.60e-02,-8.00e-03,
476,1.20e-02,1.40e-02,
477,-1.60e-02,-8.00e-03,
478,-2.60e-01,2.56e-01,
479,2.32e-01,-1.46e-01,
480,-1.20e-02,-8.00e-03,
481,1.20e-02,1.40e-02,
482,1.20e-02,-1.00e-02,
483,-1.60e-02,1.40e-02,
484,1.20e-02,1.40e-02,
485,-1.60e-02,-1.00e-02,
486,1.20e-02,-8.00e-03,
487,-1.60e-02,1.40e-02,
488,1.20e-02,-1.00e-02,
489,-1.60e-02,1.40e-02,
490,1.20e-02,-8.00e-03,
491,-1.60e-02,1.40e-02,
492,1.20e-02,1.40e-02,
493,-1.60e-02,-8.00e-03,
494,1.20e-02,-8.00e-03,
495,-1.60e-02,1.40e-02,
496,1.20e-02,-8.00e-03,
497,-1.60e-02,1.40e-02,
498,1.20e-02,1.20e-02,
499,-1.60e-02,-8.00e-03,
500,1.20e-02,1.40e-02,
501,-1.20e-02,-8.00e-03,
502,-3.60e-02,-9.80e-02,
503,6.80e-02,4.20e-02,
504,-2.52e-01,1.54e-01,
505,2.64e-01,-9.60e-02,
506,1.20e-02,1.40e-02,
507,-1.60e-02,-1.00e-02,
508,-1.60e-02,-8.00e-03,
509,1.20e-02,1.40e-02,
510,1.20e-02,1.20e-02,
511,-1.60e-02,-1.00e-02,
512,-1.20e-02,-8.00e-03,
513,1.20e-02,1.40e-02,
514,1.20e-02,1.40e-02,
515,-1.60e-02,-1.00e-02,
516,-1.60e-02,-8.00e-03,
517,1.20e-02,1.40e-02,
518,1.20e-02,1.40e-02,
519,-1.60e-02,-8.00e-03,
520,1.20e-02,-8.00e-03,
521,-1.60e-02,1.40e-02,
522,1.20e-02,-8.00e-03,
523,-1.60e-02,1.40e-02,
524,2.96e-01,2.56e-01,
525,-2.88e-01,-2.54e-01,
526,1.20e-02,1.40e-02,
527,-1.60e-02,-8.00e-03,
528,-1.20e-02,-8.00e-03,
529,1.20e-02,1.40e-02,
530,1.20e-02,-8.00e-03,
531,-1.60e-02,1.40e-02,
532,1.20e-02,1.40e-02,
533,-1.20e-02,-8.00e-03,
534,1.20e-02,1.40e-02,
535,-1.60e-02,-8.00e-03,
536,1.20e-02,1.40e-02,
537,-1.60e-02,-8.00e-03,
538,-1.60e-02,-1.00e-02,
539,1.60e-02,1.40e-02,
540,1.20e-02,1.40e-02,
541,-1.60e-02,-8.00e-03,
542,1.20e-02,1.40e-02,
543,-1.20e-02,-1.00e-02,
544,1.20e-02,1.40e-02,
545,-1.20e-02,-1.00e-02,
546,1.20e-02,-8.00e-03,
547,-1.60e-02,1.40e-02,
548,1.20e-02,-8.00e-03,
549,-1.20e-02,1.40e-02,
550,1.20e-02,-8.00e-03,
551,-1.60e-02,1.60e-02,
552,3.68e-01,-1.58e-01,
553,-1.12e-01,9.20e-02,
554,1.20e-02,-8.00e-03,
555,-1.60e-02,1.40e-02,
556,-1.20e-02,1.40e-02,
557,1.20e-02,-8.00e-03,
558,1.20e-02,-8.00e-03,
559,-1.20e-02,1.40e-02,
560,-1.20e-02,-8.00e-03,
561,1.20e-02,1.40e-02,
562,1.20e-02,-8.00e-03,
563,-1.60e-02,1.40e-02,
564,1.20e-02,-8.00e-03,
565,-1.60e-02,1.40e-02,
566,-1.20e-02,1.20e-02,
567,1.20e-02,-8.00e-03,
568,1.20e-02,1.40e-02,
569,-1.60e-02,-8.00e-03,
570,8.80e-02,8.20e-02,
571,-7.60e-02,-6.60e-02,
572,1.20e-02,-8.00e-03,
573,-1.20e-02,1.40e-02,
574,1.20e-02,1.40e-02,
575,-1.60e-02,-8.00e-03,
576,-1.20e-02,1.20e-02,
577,1.20e-02,-8.00e-03,
578,-1.60e-02,1.40e-02,
579,1.60e-02,-8.00e-03,
580,-1.20e-02,1.40e-02,
581,1.20e-02,-8.00e-03,
582,-1.20e-02,1.40e-02,
583,1.20e-02,-8.00e-03,
584,1.20e-02,-8.00e-03,
585,-1.60e-02,1.40e-02,
586,1.20e-02,1.40e-02,
587,-1.60e-02,-8.00e-03,
588,1.20e-02,1.40e-02,
589,-1.60e-02,-8.00e-03,
590,1.20e-02,1.40e-02,
591,-1.60e-02,-8.00e-03,
592,1.20e-02,-8.00e-03,
593,-1.60e-02,1.40e-02,
594,1.20e-02,-8.00e-03,
595,-1.20e-02,1.40e-02,
596,-1.20e-02,1.20e-02,
597,1.20e-02,-8.00e-03,
598,1.00e-01,-7.40e-02,
599,-4.40e-01,8.40e-02,
600,3.36e-01,-2.54e-01,
601,-2.64e-01,2.56e-01,
602,1.20e-02,-8.00e-03,
603,-1.20e-02,1.40e-02,
604,1.20e-02,-8.00e-03,
605,-1.60e-02,1.40e-02,
606,-1.20e-02,-8.00e-03,
607,1.20e-02,1.40e-02,
608,1.20e-02,-8.00e-03,
609,-1.60e-02,1.40e-02,
610,-1.20e-02,1.40e-02,
611,1.20e-02,-8.00e-03,
612,1.20e-02,-8.00e-03,
613,-1.60e-02,1.40e-02,
614,1.20e-02,1.40e-02,
615,-1.60e-02,-8.00e-03,
616,1.20e-02,1.40e-02,
617,-1.20e-02,-8.00e-03,
618,-2.40e-01,2.22e-01,
619,3.48e-01,-1.90e-01,
620,1.20e-02,-8.00e-03,
621,-1.60e-02,1.60e-02,
622,1.60e-02,1.40e-02,
623,-1.60e-02,-8.00e-03,
624,-1.20e-02,-8.00e-03,
625,1.20e-02,1.40e-02,
626,1.20e-02,1.40e-02,
627,-1.60e-02,-1.00e-02,
628,-1.20e-02,-8.00e-03,
629,1.20e-02,1.40e-02,
630,-1.60e-02,-8.00e-03,
631,1.60e-02,1.40e-02,
632,1.20e-02,-8.00e-03,
633,-1.60e-02,1.40e-02,
634,1.20e-02,-8.00e-03,
635,-1.60e-02,1.40e-02,
636,1.20e-02,-8.00e-03,
637,-1.20e-02,1.60e-02,
638,1.20e-02,-8.00e-03,
639,-1.60e-02,1.40e-02,
640,1.20e-02,-8.00e-03,
641,-1.60e-02,1.40e-02,
642,1.20e-02,-8.00e-03,
643,-1.60e-02,1.40e-02,
644,1.80e-01,8.20e-02,
645,-2.76e-01,-8.20e-02,
646,1.20e-02,-8.00e-03,
647,-1.60e-02,1.40e-02,
648,1.20e-02,-8.00e-03,
649,-1.60e-02,1.40e-02,
650,1.20e-02,-8.00e-03,
651,-1.60e-02,1.40e-02,
652,1.20e-02,-8.00e-03,
653,-1.60e-02,1.60e-02,
654,-1.20e-02,-8.00e-03,
655,1.20e-02,1.40e-02,
656,1.20e-02,-8.00e-03,
657,-1.20e-02,1.40e-02,
658,1.20e-02,1.20e-02,
659,-1.60e-02,-8.00e-03,
660,1.20e-02,-6.00e-03,
661,-1.60e-02,1.40e-02,
662,-1.20e-02,-8.00e-03,
663,1.20e-02,1.40e-02,
664,-1.20e-02,1.40e-02,
665,1.20e-02,-8.00e-03,
666,-3.80e-01,2.56e-01,
667,1.56e-01,-2.54e-01,
668,1.20e-02,1.40e-02,
669,-1.60e-02,-8.00e-03,
670,-1.20e-02,1.40e-02,
671,1.20e-02,-8.00e-03,
672,1.20e-02,1.40e-02,
673,-1.20e-02,-8.00e-03,
674,1.20e-02,1.40e-02,
675,-1.60e-02,-1.00e-02,
676,1.20e-02,1.20e-02,
677,-1.60e-02,-8.00e-03,
678,1.20e-02,1.40e-02,
679,-1.60e-02,-8.00e-03,
680,-1.20e-02,-8.00e-03,
681,1.20e-02,1.40e-02,
682,1.20e-02,-8.00e-03,
683,-1.60e-02,1.40e-02,
684,1.20e-02,1.40e-02,
685,-1.60e-02,-8.00e-03,
686,1.20e-02,1.40e-02,
687,-1.60e-02,-8.00e-03,
688,-1.20e-02,-1.00e-02,
689,1.20e-02,1.40e-02,
690,1.20e-02,1.40e-02,
691,-1.20e-02,-8.00e-03,
692,2.68e-01,-1.82e-01,
693,-3.24e-01,1.26e-01,
694,1.20e-02,-1.00e-02,
695,-1.60e-02,1.40e-02,
696,1.20e-02,-8.00e-03,
697,-1.60e-02,1.60e-02,
698,1.20e-02,1.40e-02,
699,-1.60e-02,-8.00e-03,
700,1.20e-02,1.40e-02,
701,-1.60e-02,-8.00e-03,
702,1.20e-02,-8.00e-03,
703,-1.60e-02,1.40e-02,
704,1.60e-02,1.40e-02,
705,-1.60e-02,-1.00e-02,
706,1.20e-02,-8.00e-03,
707,-1.60e-02,1.60e-02,
708,1.20e-02,-8.00e-03,
709,-1.60e-02,1.40e-02,
710,5.60e-02,5.80e-02,
711,-1.36e-01,-2.80e-02,
712,-1.20e-02,1.40e-02,
713,1.20e-02,-8.00e-03,
714,1.20e-02,-8.00e-03,
715,-1.60e-02,1.40e-02,
716,-1.60e-02,-8.00e-03,
717,1.20e-02,1.40e-02,
718,-1.20e-02,1.40e-02,
719,1.60e-02,-8.00e-03,
720,-1.60e-02,-8.00e-03,
721,1.20e-02,1.40e-02,
722,-1.60e-02,1.40e-02,
723,1.60e-02,-8.00e-03,
724,1.20e-02,-8.00e-03,
725,-1.60e-02,1.40e-02,
726,-1.20e-02,-8.00e-03,
727,1.20e-02,1.40e-02,
728,-1.20e-02,-8.00e-03,
729,1.20e-02,1.40e-02,
730,-1.20e-02,-8.00e-03,
731,1.20e-02,1.40e-02,
732,-1.20e-02,-8.00e-03,
733,1.20e-02,1.40e-02,
734,-1.20e-02,1.40e-02,
735,1.20e-02,-8.00e-03,
736,-1.20e-02,-8.00e-03,
737,1.20e-02,1.40e-02,
738,1.20e-02,1.60e-02,
739,-1.60e-02,-8.00e-03,
740,4.72e-01,-2.54e-01,
741,-4.72e-01,2.56e-01,
742,1.20e-02,1.40e-02,
743,-1.60e-02,-8.00e-03,
744,1.20e-02,1.40e-02,
745,-1.60e-02,-8.00e-03,
746,1.20e-02,-1.00e-02,
747,-1.20e-02,1.60e-02,
748,-1.20e-02,1.40e-02,
749,1.60e-02,-8.00e-03,
750,1.20e-02,-8.00e-03,
751,-1.60e-02,1.40e-02,
752,-1.20e-02,-8.00e-03,
753,1.20e-02,1.40e-02,
754,-1.20e-02,1.40e-02,
755,1.20e-02,-8.00e-03,
756,1.20e-02,-8.00e-03,
757,-1.60e-02,1.40e-02,
758,3.00e-01,-2.54e-01,
759,-2.60e-01,2.06e-01,
760,1.20e-02,-8.00e-03,
761,-1.60e-02,1.40e-02,
762,1.20e-02,-8.00e-03,
763,-1.60e-02,1.40e-02,
764,1.20e-02,1.40e-02,
765,-1.60e-02,-8.00e-03,
766,1.20e-02,1.40e-02,
767,-1.60e-02,-8.00e-03,
768,1.20e-02,1.40e-02,
769,-1.20e-02,-8.00e-03,
770,1.20e-02,1.40e-02,
771,-1.60e-02,-8.00e-03,
772,-1.20e-02,1.40e-02,
773,1.20e-02,-8.00e-03,
774,-1.20e-02,1.40e-02,
775,1.20e-02,-8.00e-03,
776,1.20e-02,-8.00e-03,
777,-1.60e-02,1.40e-02,
778,1.20e-02,-8.00e-03,
779,-1.20e-02,1.40e-02,
780,1.20e-02,1.40e-02,
781,-1.60e-02,-1.00e-02,
782,1.20e-02,1.40e-02,
783,-1.60e-02,-1.00e-02,
784,2.12e-01,-1.42e-01,
785,-2.28e-01,1.14e-01,
786,1.20e-02,-1.00e-02,
787,-1.60e-02,1.40e-02,
788,1.20e-02,1.40e-02,
789,-1.60e-02,-1.00e-02,
790,1.20e-02,-8.00e-03,
791,-1.60e-02,1.40e-02,
792,1.20e-02,-8.00e-03,
793,-1.60e-02,1.40e-02,
794,1.20e-02,-8.00e-03,
795,-1.60e-02,1.40e-02,
796,-1.20e-02,1.40e-02,
797,1.20e-02,-8.00e-03,
798,1.20e-02,-8.00e-03,
799,-1.60e-02,1.40e-02,
800,1.20e-02,-8.00e-03,
801,-1.60e-02,1.40e-02,
802,1.20e-02,-8.00e-03,
803,-1.20e-02,1.60e-02,
804,-1.20e-02,1.40e-02,
805,1.20e-02,-8.00e-03,
806,-3.24e-01,-2.54e-01,
807,2.56e-01,2.56e-01,
808,1.20e-02,1.40e-02,
809,-1.20e-02,-8.00e-03,
810,-1.20e-02,1.40e-02,
811,1.20e-02,-8.00e-03,
812,-1.20e-02,-8.00e-03,
813,1.20e-02,1.60e-02,
814,-1.20e-02,-8.00e-03,
815,1.20e-02,1.40e-02,
816,-1.20e-02,1.40e-02,
817,1.20e-02,-8.00e-03,
818,1.20e-02,1.40e-02,
819,-1.60e-02,-8.00e-03,
820,1.20e-02,1.20e-02,
821,-1.60e-02,-1.00e-02,
822,1.20e-02,-8.00e-03,
823,-1.60e-02,1.40e-02,
824,1.20e-02,-8.00e-03,
825,-1.60e-02,1.40e-02,
826,1.20e-02,-8.00e-03,
827,-1.60e-02,1.40e-02,
828,-1.20e-02,-8.00e-03,
829,1.20e-02,1.40e-02,
830,-1.20e-02,-8.00e-03,
831,1.20e-02,1.40e-02,
832,1.20e-02,1.40e-02,
833,-1.60e-02,-8.00e-03,
