Motor_Data/MOTOR_3_ON/time domain/NewFile54(1).csv

X,CH1,CH2,Start,Increment,
Sequence,Volt,Volt,-3.000000e-02,5.000000e-05
0,-1.20e-02,-8.00e-03,
1,1.20e-02,1.40e-02,
2,1.20e-02,1.20e-02,
3,-1.60e-02,-1.00e-02,
4,1.20e-02,1.40e-02,
5,-1.20e-02,-8.00e-03,
6,-1.20e-02,-8.00e-03,
7,1.20e-02,1.40e-02,
8,-8.40e-02,-6.60e-02,
9,8.00e-02,7.00e-02,
10,-1.20e-02,1.20e-02,
11,1.20e-02,-1.00e-02,
12,-1.20e-02,1.40e-02,
13,1.20e-02,-8.00e-03,
14,-1.20e-02,-8.00e-03,
15,1.20e-02,1.40e-02,
16,-1.60e-02,1.40e-02,
17,1.20e-02,-1.00e-02,
18,1.20e-02,-8.00e-03,
19,-1.20e-02,1.40e-02,
20,1.20e-02,-8.00e-03,
21,-1.60e-02,1.40e-02,
22,-1.20e-02,-8.00e-03,
23,1.20e-02,1.40e-02,
24,1.20e-02,-8.00e-03,
25,-1.60e-02,1.40e-02,
26,-1.20e-02,1.40e-02,
27,1.20e-02,-8.00e-03,
28,1.20e-02,1.40e-02,
29,-1.60e-02,-8.00e-03,
30,-1.20e-02,-8.00e-03,
31,1.20e-02,1.40e-02,
32,-1.20e-02,-1.00e-02,
33,1.20e-02,1.40e-02,
34,-1.20e-02,-8.00e-03,
35,1.20e-02,1.40e-02,
36,3.60e-02,1.60e-01,
37,-2.68e-01,-1.18e-01,
38,4.08e-01,2.56e-01,
39,-2.56e-01,-2.54e-01,
40,-1.20e-02,-8.00e-03,
41,1.20e-02,1.40e-02,
42,-1.60e-02,1.20e-02,
43,1.20e-02,-1.00e-02,
44,1.20e-02,-8.00e-03,
45,-1.60e-02,1.40e-02,
46,8.00e-03,1.20e-02,
47,-1.60e-02,-8.00e-03,
48,1.20e-02,1.20e-02,
49,-1.60e-02,-1.00e-02,
50,1.20e-02,1.40e-02,
51,-1.60e-02,-8.00e-03,
52,-1.60e-02,-8.00e-03,
53,1.20e-02,1.40e-02,
54,-1.20e-02,1.20e-02,
55,1.20e-02,-8.00e-03,
56,1.20e-02,-1.00e-02,
57,-1.60e-02,1.40e-02,
58,-1.60e-01,2.22e-01,
59,1.88e-01,-2.18e-01,
60,-1.60e-02,1.40e-02,
61,1.20e-02,-8.00e-03,
62,1.20e-02,-8.00e-03,
63,-1.20e-02,1.40e-02,
64,-1.20e-02,1.20e-02,
65,1.20e-02,-8.00e-03,
66,-1.60e-02,-8.00e-03,
67,1.20e-02,1.40e-02,
68,-1.20e-02,1.20e-02,
69,1.20e-02,-8.00e-03,
70,1.20e-02,1.20e-02,
71,-1.60e-02,-8.00e-03,
72,-1.20e-02,-8.00e-03,
73,1.20e-02,1.40e-02,
74,-1.20e-02,-8.00e-03,
75,1.20e-02,1.40e-02,
76,-1.20e-02,-8.00e-03,
77,1.20e-02,1.40e-02,
78,1.20e-02,1.40e-02,
79,-1.60e-02,-8.00e-03,
80,-1.20e-02,-8.00e-03,
81,1.20e-02,1.40e-02,
82,2.80e-02,-6.20e-02,
83,-2.00e-02,2.00e-02,
84,9.60e-02,5.80e-02,
85,-1.20e-01,-6.80e-02,
86,-1.20e-02,1.20e-02,
87,1.20e-02,-1.00e-02,
88,-1.20e-02,1.40e-02,
89,1.20e-02,-1.00e-02,
90,1.20e-02,-8.00e-03,
91,-1.60e-02,1.40e-02,
92,-1.20e-02,-8.00e-03,
93,1.20e-02,1.40e-02,
94,-1.20e-02,-8.00e-03,
95,1.20e-02,1.20e-02,
96,1.20e-02,-8.00e-03,
97,-1.60e-02,1.40e-02,
98,-1.60e-02,1.20e-02,
99,1.20e-02,-1.00e-02,
100,-1.20e-02,1.20e-02,
101,1.20e-02,-8.00e-03,
102,-1.20e-02,-8.00e-03,
103,1.20e-02,1.40e-02,
104,1.68e-01,2.56e-01,
105,-1.68e-01,-2.54e-01,
106,-1.20e-02,-8.00e-03,
107,1.20e-02,1.40e-02,
108,-1.20e-02,-8.00e-03,
109,1.20e-02,1.20e-02,
110,-1.20e-02,1.20e-02,
111,1.20e-02,-8.00e-03,
112,1.20e-02,1.20e-02,
113,-1.60e-02,-8.00e-03,
114,1.20e-02,1.20e-02,
115,-1.60e-02,-1.00e-02,
116,-1.20e-02,-8.00e-03,
117,1.20e-02,1.40e-02,
118,-1.20e-02,-8.00e-03,
119,1.20e-02,1.40e-02,
120,-1.20e-02,-1.00e-02,
121,1.20e-02,1.40e-02,
122,1.20e-02,1.20e-02,
123,-1.60e-02,-1.00e-02,
124,1.20e-02,1.20e-02,
125,-1.20e-02,-8.00e-03,
126,-1.20e-02,1.40e-02,
127,1.20e-02,-1.00e-02,
128,1.20e-02,-8.00e-03,
129,-1.60e-02,1.40e-02,
130,1.20e-02,5.60e-02,
131,-2.00e-02,-1.80e-02,
132,-2.32e-01,2.14e-01,
133,1.56e-01,-1.96e-01,
134,-1.20e-02,-8.00e-03,
135,1.20e-02,1.20e-02,
136,-1.20e-02,1.40e-02,
137,1.20e-02,-1.00e-02,
138,-1.20e-02,-8.00e-03,
139,1.20e-02,1.40e-02,
140,-1.20e-02,-1.00e-02,
141,1.20e-02,1.40e-02,
142,-1.20e-02,-1.00e-02,
143,1.20e-02,1.40e-02,
144,-1.20e-02,1.40e-02,
145,1.20e-02,-1.00e-02,
146,-1.20e-02,1.40e-02,
147,1.20e-02,-8.00e-03,
148,1.20e-02,-8.00e-03,
149,-1.20e-02,1.40e-02,
150,-3.60e-02,9.20e-02,
151,1.16e-01,-6.20e-02,
152,1.20e-02,1.20e-02,
153,-1.60e-02,-8.00e-03,
154,-1.20e-02,1.20e-02,
155,1.20e-02,-8.00e-03,
156,1.20e-02,-8.00e-03,
157,-1.60e-02,1.40e-02,
158,1.20e-02,-8.00e-03,
159,-1.60e-02,1.40e-02,
160,-1.20e-02,1.20e-02,
161,1.20e-02,-8.00e-03,
162,-1.20e-02,1.40e-02,
163,1.20e-02,-1.00e-02,
164,-1.20e-02,-8.00e-03,
165,1.20e-02,1.40e-02,
166,-1.20e-02,1.40e-02,
167,1.20e-02,-1.00e-02,
168,-1.20e-02,1.40e-02,
169,1.20e-02,-8.00e-03,
170,-1.20e-02,1.40e-02,
171,1.20e-02,-8.00e-03,
172,1.20e-02,1.20e-02,
173,-1.60e-02,-8.00e-03,
174,1.20e-02,-8.00e-03,
175,-1.60e-02,1.40e-02,
176,2.92e-01,1.52e-01,
177,-1.96e-01,-1.30e-01,
178,-3.08e-01,2.56e-01,
179,4.72e-01,-2.54e-01,
180,-2.84e-01,-2.54e-01,
181,2.76e-01,1.66e-01,
182,1.20e-02,1.40e-02,
183,-1.20e-02,-1.00e-02,
184,1.20e-02,-8.00e-03,
185,-1.60e-02,1.40e-02,
186,-1.20e-02,1.40e-02,
187,1.20e-02,-1.00e-02,
188,1.20e-02,-8.00e-03,
189,-1.60e-02,1.40e-02,
190,1.20e-02,1.40e-02,
191,-1.60e-02,-8.00e-03,
192,-1.20e-02,-8.00e-03,
193,1.20e-02,1.40e-02,
194,1.20e-02,-8.00e-03,
195,-1.60e-02,1.40e-02,
196,-1.60e-02,-8.00e-03,
197,1.20e-02,1.60e-02,
198,1.16e-01,-2.48e-01,
199,-1.60e-01,1.08e-01,
200,1.20e-02,1.40e-02,
201,-1.60e-02,-8.00e-03,
202,-1.20e-02,-8.00e-03,
203,1.20e-02,1.40e-02,
204,1.20e-02,1.20e-02,
205,-1.60e-02,-8.00e-03,
206,1.20e-02,1.40e-02,
207,-1.60e-02,-8.00e-03,
208,1.20e-02,-1.00e-02,
209,-1.60e-02,1.40e-02,
210,-1.60e-02,1.40e-02,
211,1.20e-02,-1.00e-02,
212,-1.20e-02,1.40e-02,
213,1.20e-02,-1.00e-02,
214,1.20e-02,-8.00e-03,
215,-1.20e-02,1.40e-02,
216,-1.20e-02,1.40e-02,
217,1.20e-02,-1.00e-02,
218,-1.20e-02,-1.00e-02,
219,1.20e-02,1.40e-02,
220,-1.20e-02,1.40e-02,
221,1.20e-02,-8.00e-03,
222,1.20e-02,1.40e-02,
223,-1.60e-02,-1.00e-02,
224,-1.60e-02,5.60e-02,
225,8.40e-02,-4.20e-02,
226,1.20e-02,-8.00e-03,
227,-1.60e-02,1.40e-02,
228,-1.20e-02,-1.00e-02,
229,1.20e-02,1.40e-02,
230,1.20e-02,-8.00e-03,
231,-1.60e-02,1.40e-02,
232,1.20e-02,-8.00e-03,
233,-1.60e-02,1.40e-02,
234,-1.20e-02,-8.00e-03,
235,1.20e-02,1.40e-02,
236,1.20e-02,-8.00e-03,
237,-1.20e-02,1.40e-02,
238,1.20e-02,-8.00e-03,
239,-1.60e-02,1.40e-02,
240,-1.20e-02,-8.00e-03,
241,1.20e-02,1.40e-02,
242,-1.20e-02,1.40e-02,
243,1.20e-02,-8.00e-03,
244,1.20e-02,-8.00e-03,
245,-1.60e-02,1.40e-02,
246,-2.32e-01,-2.54e-01,
247,2.64e-01,2.56e-01,
248,-1.20e-02,1.40e-02,
249,1.20e-02,-1.00e-02,
250,-1.20e-02,1.40e-02,
251,1.20e-02,-8.00e-03,
252,-1.20e-02,1.40e-02,
253,1.20e-02,-8.00e-03,
254,1.20e-02,1.40e-02,
255,-1.60e-02,-8.00e-03,
256,1.20e-02,1.40e-02,
257,-1.20e-02,-8.00e-03,
258,1.20e-02,-8.00e-03,
259,-1.20e-02,1.40e-02,
260,-1.20e-02,-8.00e-03,
261,1.20e-02,1.40e-02,
262,-1.20e-02,1.40e-02,
263,1.20e-02,-8.00e-03,
264,1.20e-02,-8.00e-03,
265,-1.60e-02,1.40e-02,
266,1.20e-02,-1.00e-02,
267,-1.60e-02,1.40e-02,
268,-1.20e-02,-8.00e-03,
269,1.20e-02,1.40e-02,
270,-1.60e-02,-5.80e-02,
271,3.20e-02,2.60e-02,
272,2.72e-01,-1.58e-01,
273,-9.60e-02,2.10e-01,
274,-2.16e-01,-2.40e-01,
275,1.28e-01,1.30e-01,
276,-1.20e-02,1.20e-02,
277,1.20e-02,-8.00e-03,
278,-1.20e-02,1.40e-02,
279,1.20e-02,-8.00e-03,
280,-1.20e-02,-8.00e-03,
281,1.20e-02,1.40e-02,
282,1.20e-02,1.40e-02,
283,-1.60e-02,-8.00e-03,
284,-1.20e-02,1.40e-02,
285,1.20e-02,-8.00e-03,
286,1.20e-02,-8.00e-03,
287,-1.60e-02,1.40e-02,
288,-1.20e-02,-8.00e-03,
289,1.20e-02,1.40e-02,
290,-9.60e-02,-5.40e-02,
291,1.00e-01,5.40e-02,
292,-1.20e-02,-8.00e-03,
293,1.20e-02,1.20e-02,
294,1.20e-02,-8.00e-03,
295,-1.20e-02,1.40e-02,
296,-1.20e-02,1.40e-02,
297,1.20e-02,-8.00e-03,
298,1.20e-02,-8.00e-03,
299,-1.20e-02,1.20e-02,
300,1.20e-02,-8.00e-03,
301,-1.60e-02,1.40e-02,
302,1.20e-02,1.40e-02,
303,-1.60e-02,-8.00e-03,
304,1.20e-02,-8.00e-03,
305,-1.60e-02,1.60e-02,
306,-1.20e-02,1.40e-02,
307,1.20e-02,-8.00e-03,
308,-1.20e-02,-8.00e-03,
309,1.20e-02,1.40e-02,
310,-1.20e-02,-8.00e-03,
311,1.20e-02,1.40e-02,
312,-1.20e-02,-8.00e-03,
313,1.20e-02,1.40e-02,
314,-1.20e-02,1.40e-02,
315,1.20e-02,-1.00e-02,
316,-1.20e-02,-8.00e-03,
317,1.20e-02,1.40e-02,
318,-5.20e-02,-1.28e-01,
319,2.80e-02,1.28e-01,
320,3.92e-01,-2.54e-01,
321,-3.68e-01,2.56e-01,
322,-1.20e-02,1.40e-02,
323,1.20e-02,-8.00e-03,
324,1.20e-02,-8.00e-03,
325,-1.60e-02,1.40e-02,
326,-1.20e-02,1.40e-02,
327,1.20e-02,-8.00e-03,
328,-1.20e-02,-8.00e-03,
329,1.20e-02,1.40e-02,
330,1.20e-02,-8.00e-03,
331,-1.60e-02,1.40e-02,
332,1.20e-02,1.40e-02,
333,-1.60e-02,-8.00e-03,
334,-1.20e-02,-8.00e-03,
335,1.20e-02,1.40e-02,
336,-1.20e-02,-8.00e-03,
337,1.20e-02,1.40e-02,
338,-1.28e-01,-2.54e-01,
339,2.40e-01,2.10e-01,
340,-1.20e-02,-8.00e-03,
341,1.20e-02,1.40e-02,
342,-1.20e-02,1.40e-02,
343,1.20e-02,-1.00e-02,
344,-1.20e-02,-8.00e-03,
345,1.20e-02,1.40e-02,
346,-1.20e-02,-8.00e-03,
347,1.20e-02,1.40e-02,
348,-1.20e-02,-8.00e-03,
349,1.20e-02,1.40e-02,
350,-1.20e-02,-8.00e-03,
351,1.20e-02,1.40e-02,
352,-1.20e-02,1.40e-02,
353,1.20e-02,-8.00e-03,
354,-1.20e-02,-8.00e-03,
355,1.20e-02,1.40e-02,
356,-1.20e-02,1.40e-02,
357,1.20e-02,-8.00e-03,
358,1.20e-02,-8.00e-03,
359,-1.20e-02,1.40e-02,
360,-1.20e-02,-8.00e-03,
361,1.20e-02,1.40e-02,
362,1.20e-02,-8.00e-03,
363,-1.60e-02,1.40e-02,
364,8.00e-02,-2.80e-02,
365,-8.80e-02,5.20e-02,
366,-1.20e-02,1.40e-02,
367,1.20e-02,-1.00e-02,
368,-1.20e-02,-8.00e-03,
369,1.20e-02,1.40e-02,
370,-1.20e-02,1.20e-02,
371,1.20e-02,-8.00e-03,
372,-1.20e-02,-8.00e-03,
373,1.20e-02,1.40e-02,
374,-1.20e-02,1.40e-02,
375,1.20e-02,-8.00e-03,
376,1.20e-02,-8.00e-03,
377,-1.20e-02,1.40e-02,
378,-1.60e-02,1.20e-02,
379,1.20e-02,-1.00e-02,
380,-1.20e-02,-1.00e-02,
381,1.20e-02,1.40e-02,
382,-1.20e-02,-8.00e-03,
383,1.20e-02,1.60e-02,
384,-1.20e-02,-8.00e-03,
385,1.20e-02,1.40e-02,
386,-2.32e-01,2.48e-01,
387,1.72e-01,-2.40e-01,
388,-1.60e-02,-1.00e-02,
389,1.20e-02,1.40e-02,
390,-1.20e-02,-8.00e-03,
391,1.20e-02,1.40e-02,
392,-1.20e-02,-8.00e-03,
393,1.20e-02,1.40e-02,
394,1.20e-02,1.40e-02,
395,-1.60e-02,-8.00e-03,
396,1.20e-02,-1.00e-02,
397,-1.20e-02,1.40e-02,
398,1.20e-02,1.40e-02,
399,-1.60e-02,-8.00e-03,
400,-1.20e-02,1.20e-02,
401,1.20e-02,-1.00e-02,
402,-1.20e-02,-8.00e-03,
403,1.20e-02,1.20e-02,
404,-1.20e-02,-8.00e-03,
405,1.20e-02,1.40e-02,
406,-1.20e-02,-8.00e-03,
407,1.20e-02,1.40e-02,
408,-1.20e-02,1.40e-02,
409,1.20e-02,-1.00e-02,
410,-1.20e-02,1.60e-02,
411,1.20e-02,-8.00e-03,
412,2.80e-02,-5.20e-02,
413,-4.80e-02,6.20e-02,
414,2.52e-01,1.98e-01,
415,-2.88e-01,-1.54e-01,
416,-1.20e-02,1.20e-02,
417,1.20e-02,-1.00e-02,
418,1.20e-02,-8.00e-03,
419,-1.60e-02,1.40e-02,
420,-1.20e-02,1.40e-02,
421,1.20e-02,-1.00e-02,
422,-1.20e-02,1.40e-02,
423,1.20e-02,-1.00e-02,
424,1.20e-02,1.20e-02,
425,-1.60e-02,-1.00e-02,
426,-1.20e-02,-8.00e-03,
427,1.20e-02,1.40e-02,
428,-1.20e-02,-8.00e-03,
429,1.20e-02,1.40e-02,
430,-1.20e-02,-8.00e-03,
431,1.20e-02,1.40e-02,
432,7.60e-02,5.80e-02,
433,-1.20e-02,-6.80e-02,
434,-1.20e-02,-8.00e-03,
435,1.20e-02,1.40e-02,
436,1.20e-02,-8.00e-03,
437,-1.20e-02,1.20e-02,
438,-1.20e-02,-8.00e-03,
439,1.20e-02,1.40e-02,
440,-1.20e-02,-8.00e-03,
441,1.20e-02,1.40e-02,
442,-1.20e-02,-8.00e-03,
443,1.20e-02,1.40e-02,
444,-1.20e-02,-8.00e-03,
445,1.20e-02,1.40e-02,
446,-1.20e-02,-8.00e-03,
447,1.20e-02,1.40e-02,
448,-1.20e-02,1.40e-02,
449,1.20e-02,-1.00e-02,
450,1.20e-02,1.40e-02,
451,-1.20e-02,-8.00e-03,
452,-1.20e-02,1.20e-02,
453,1.20e-02,-8.00e-03,
454,-1.20e-02,-8.00e-03,
455,1.20e-02,1.40e-02,
456,-1.20e-02,1.40e-02,
457,1.20e-02,-1.00e-02,
458,-3.08e-01,-9.80e-02,
459,2.00e-01,1.64e-01,
460,4.72e-01,2.56e-01,
461,-4.52e-01,-2.54e-01,
462,-1.20e-02,1.20e-02,
463,1.20e-02,-1.00e-02,
464,-1.20e-02,-8.00e-03,
465,1.20e-02,1.40e-02,
466,-1.20e-02,-1.00e-02,
467,1.20e-02,1.40e-02,
468,-1.60e-02,1.20e-02,
469,1.20e-02,-8.00e-03,
470,-1.20e-02,-8.00e-03,
471,1.20e-02,1.40e-02,
472,1.20e-02,-1.00e-02,
473,-1.20e-02,1.40e-02,
474,-1.20e-02,1.40e-02,
475,1.20e-02,-1.00e-02,
476,1.20e-02,1.40e-02,
477,-1.60e-02,-8.00e-03,
478,-1.20e-02,-1.00e-02,
479,1.20e-02,1.40e-02,
480,-1.40e-01,1.94e-01,
481,1.28e-01,-1.42e-01,
482,1.20e-02,-8.00e-03,
483,-1.60e-02,1.40e-02,
484,-1.20e-02,-8.00e-03,
485,1.20e-02,1.40e-02,
486,1.20e-02,-8.00e-03,
487,-1.20e-02,1.40e-02,
488,1.20e-02,-8.00e-03,
489,-1.60e-02,1.40e-02,
490,-1.60e-02,1.40e-02,
491,1.20e-02,-8.00e-03,
492,-1.20e-02,1.20e-02,
493,1.20e-02,-8.00e-03,
494,1.20e-02,-8.00e-03,
495,-1.60e-02,1.40e-02,
496,-1.20e-02,-8.00e-03,
497,1.20e-02,1.40e-02,
498,1.20e-02,-8.00e-03,
499,-1.60e-02,1.40e-02,
500,-1.20e-02,1.40e-02,
501,1.20e-02,-8.00e-03,
502,-1.20e-02,1.40e-02,
503,1.20e-02,-1.00e-02,
504,-1.60e-02,-2.20e-02,
505,2.80e-02,4.80e-02,
506,-9.20e-02,-4.40e-02,
507,1.20e-02,5.00e-02,
508,1.20e-02,-1.00e-02,
509,-1.60e-02,1.40e-02,
510,1.20e-02,-8.00e-03,
511,-1.60e-02,1.20e-02,
512,-1.20e-02,1.40e-02,
513,1.20e-02,-8.00e-03,
514,1.20e-02,1.40e-02,
515,-1.60e-02,-1.00e-02,
516,-1.20e-02,-8.00e-03,
517,1.20e-02,1.40e-02,
518,-1.20e-02,-8.00e-03,
519,1.20e-02,1.40e-02,
520,-1.20e-02,-8.00e-03,
521,1.20e-02,1.40e-02,
522,-1.20e-02,-8.00e-03,
523,1.20e-02,1.40e-02,
524,1.20e-02,-8.00e-03,
525,-1.60e-02,1.40e-02,
526,1.68e-01,-2.04e-01,
527,-2.48e-01,2.46e-01,
528,-1.20e-02,1.20e-02,
529,1.20e-02,-8.00e-03,
530,1.20e-02,-8.00e-03,
531,-1.60e-02,1.40e-02,
532,-1.20e-02,-8.00e-03,
533,1.20e-02,1.40e-02,
534,1.20e-02,1.20e-02,
535,-1.20e-02,-1.00e-02,
536,-1.20e-02,1.40e-02,
537,1.20e-02,-1.00e-02,
538,1.20e-02,-8.00e-03,
539,-1.60e-02,1.40e-02,
540,1.20e-02,1.40e-02,
541,-1.20e-02,-8.00e-03,
542,-1.20e-02,-8.00e-03,
543,1.20e-02,1.40e-02,
544,1.20e-02,-8.00e-03,
545,-1.60e-02,1.40e-02,
546,-1.20e-02,-8.00e-03,
547,1.20e-02,1.40e-02,
548,-1.20e-02,-8.00e-03,
549,1.20e-02,1.40e-02,
550,-1.20e-02,-8.00e-03,
551,1.20e-02,1.40e-02,
552,1.20e-02,2.80e-02,
553,-2.00e-02,-4.40e-02,
554,2.04e-01,2.24e-01,
555,-6.40e-02,-2.14e-01,
556,1.20e-02,-8.00e-03,
557,-1.60e-02,1.40e-02,
558,-1.20e-02,1.40e-02,
559,1.20e-02,-1.00e-02,
560,1.20e-02,-8.00e-03,
561,-1.60e-02,1.20e-02,
562,1.20e-02,1.40e-02,
563,-1.60e-02,-1.00e-02,
564,-1.20e-02,1.40e-02,
565,1.20e-02,-8.00e-03,
566,-1.20e-02,1.20e-02,
567,1.20e-02,-1.00e-02,
568,1.20e-02,-8.00e-03,
569,-1.60e-02,1.40e-02,
570,-1.20e-02,-1.00e-02,
571,1.20e-02,1.40e-02,
572,-9.60e-02,-1.04e-01,
573,1.16e-01,1.14e-01,
574,-1.20e-02,1.40e-02,
575,1.20e-02,-1.00e-02,
576,-1.20e-02,-1.00e-02,
577,1.20e-02,1.40e-02,
578,-1.20e-02,-8.00e-03,
579,1.20e-02,1.40e-02,
580,1.20e-02,-8.00e-03,
581,-1.20e-02,1.40e-02,
582,1.20e-02,1.40e-02,
583,-1.20e-02,-8.00e-03,
584,1.20e-02,-1.00e-02,
585,-1.60e-02,1.40e-02,
586,1.20e-02,1.40e-02,
587,-1.60e-02,-8.00e-03,
588,-1.20e-02,1.40e-02,
589,1.20e-02,-8.00e-03,
590,-1.60e-02,-8.00e-03,
591,1.20e-02,1.40e-02,
592,-1.20e-02,-8.00e-03,
593,1.20e-02,1.40e-02,
594,-1.60e-02,1.40e-02,
595,1.20e-02,-1.00e-02,
596,1.20e-02,1.40e-02,
597,-1.60e-02,-8.00e-03,
598,1.60e-01,-2.02e-01,
599,-2.12e-01,1.82e-01,
600,4.36e-01,-1.88e-01,
601,-1.52e-01,1.04e-01,
602,-3.12e-01,2.56e-01,
603,3.08e-01,-2.54e-01,
604,1.20e-02,-8.00e-03,
605,-1.60e-02,1.40e-02,
606,1.20e-02,1.40e-02,
607,-1.60e-02,-1.00e-02,
608,-1.60e-02,-8.00e-03,
609,1.20e-02,1.20e-02,
610,1.20e-02,-8.00e-03,
611,-1.60e-02,1.40e-02,
612,-1.20e-02,1.20e-02,
613,1.20e-02,-1.00e-02,
614,-1.20e-02,1.40e-02,
615,1.20e-02,-8.00e-03,
616,-1.20e-02,1.20e-02,
617,1.20e-02,-8.00e-03,
618,-1.20e-02,-8.00e-03,
619,1.20e-02,1.40e-02,
620,2.40e-01,-1.18e-01,
621,-1.48e-01,2.56e-01,
622,-1.20e-02,-8.00e-03,
623,1.20e-02,1.40e-02,
624,-1.20e-02,1.40e-02,
625,1.20e-02,-1.00e-02,
626,-1.20e-02,-8.00e-03,
627,1.20e-02,1.60e-02,
628,-1.20e-02,-8.00e-03,
629,1.20e-02,1.20e-02,
630,-1.20e-02,-8.00e-03,
631,1.20e-02,1.40e-02,
632,1.20e-02,1.40e-02,
633,-1.20e-02,-1.00e-02,
634,-1.20e-02,-8.00e-03,
635,1.20e-02,1.40e-02,
636,-1.20e-02,-8.00e-03,
637,1.20e-02,1.40e-02,
638,-1.20e-02,-8.00e-03,
639,1.20e-02,1.40e-02,
640,-1.20e-02,1.20e-02,
641,1.20e-02,-1.00e-02,
642,1.20e-02,-8.00e-03,
643,-1.60e-02,1.40e-02,
644,-1.20e-02,-8.00e-03,
645,1.20e-02,1.40e-02,
646,-6.40e-02,-6.80e-02,
647,8.00e-02,4.20e-02,
648,1.20e-02,-8.00e-03,
649,-1.60e-02,1.20e-02,
650,-1.60e-02,1.40e-02,
651,1.20e-02,-8.00e-03,
652,-1.60e-02,-1.00e-02,
653,1.20e-02,1.40e-02,
654,1.20e-02,-8.00e-03,
655,-1.60e-02,1.40e-02,
656,-1.20e-02,-1.00e-02,
657,1.20e-02,1.40e-02,
658,1.20e-02,-8.00e-03,
659,-1.60e-02,1.40e-02,
660,-1.20e-02,-8.00e-03,
661,1.20e-02,1.40e-02,
662,-1.20e-02,-8.00e-03,
663,1.20e-02,1.40e-02,
664,-1.20e-02,1.40e-02,
665,1.20e-02,-8.00e-03,
666,-1.20e-02,-8.00e-03,
667,1.20e-02,1.40e-02,
668,-1.20e-02,-2.54e-01,
669,1.12e-01,2.22e-01,
670,1.20e-02,1.40e-02,
671,-1.60e-02,-8.00e-03,
672,-1.20e-02,-8.00e-03,
673,1.20e-02,1.20e-02,
674,-1.60e-02,-1.00e-02,
675,1.20e-02,1.40e-02,
676,-1.20e-02,1.20e-02,
677,1.20e-02,-1.00e-02,
678,-1.20e-02,-8.00e-03,
679,1.20e-02,1.40e-02,
680,-1.20e-02,1.40e-02,
681,1.20e-02,-1.00e-02,
682,-1.20e-02,1.40e-02,
683,1.20e-02,-1.00e-02,
684,1.20e-02,1.20e-02,
685,-1.20e-02,-1.00e-02,
686,-1.20e-02,1.20e-02,
687,1.20e-02,-8.00e-03,
688,-1.20e-02,-8.00e-03,
689,1.20e-02,1.40e-02,
690,1.20e-02,-8.00e-03,
691,-1.60e-02,1.40e-02,
692,-1.20e-02,1.20e-02,
693,8.00e-03,-8.00e-03,
694,4.80e-02,-8.20e-02,
695,-3.20e-02,1.40e-02,
696,-2.20e-01,1.66e-01,
697,2.28e-01,-1.10e-01,
698,-1.20e-02,-8.00e-03,
699,1.20e-02,1.40e-02,
700,-1.20e-02,1.20e-02,
701,1.20e-02,-1.00e-02,
702,-1.20e-02,1.40e-02,
703,1.20e-02,-8.00e-03,
704,1.20e-02,-8.00e-03,
705,-1.60e-02,1.40e-02,
706,-1.20e-02,-1.00e-02,
707,1.20e-02,1.20e-02,
708,1.20e-02,-8.00e-03,
709,-1.60e-02,1.40e-02,
710,1.20e-02,1.40e-02,
711,-1.60e-02,-1.00e-02,
712,6.40e-02,6.60e-02,
713,-6.80e-02,-7.20e-02,
714,-1.20e-02,1.40e-02,
715,1.20e-02,-1.00e-02,
716,-1.20e-02,-8.00e-03,
717,1.20e-02,1.40e-02,
718,-1.20e-02,-8.00e-03,
719,1.20e-02,1.40e-02,
720,1.20e-02,1.40e-02,
721,-1.60e-02,-8.00e-03,
722,-1.20e-02,1.40e-02,
723,1.20e-02,-8.00e-03,
724,-1.20e-02,-8.00e-03,
725,1.20e-02,1.40e-02,
726,1.20e-02,-8.00e-03,
727,-1.20e-02,1.40e-02,
728,-1.20e-02,-8.00e-03,
729,1.20e-02,1.40e-02,
730,-1.20e-02,1.40e-02,
731,1.20e-02,-8.00e-03,
732,-1.20e-02,1.40e-02,
733,1.20e-02,-8.00e-03,
734,-1.20e-02,-1.00e-02,
735,1.20e-02,1.60e-02,
736,1.20e-02,-8.00e-03,
737,-1.60e-02,1.40e-02,
738,1.20e-02,-8.00e-03,
739,-1.20e-02,1.40e-02,
740,-2.80e-01,2.56e-01,
741,2.84e-01,-1.96e-01,
742,-4.64e-01,-2.54e-01,
743,4.68e-01,2.56e-01,
744,1.20e-02,-8.00e-03,
745,-1.20e-02,1.40e-02,
746,-1.20e-02,-8.00e-03,
747,1.20e-02,1.40e-02,
748,1.20e-02,-1.00e-02,
749,-1.60e-02,1.40e-02,
750,-1.20e-02,-8.00e-03,
751,1.20e-02,1.40e-02,
752,-1.20e-02,1.20e-02,
753,1.20e-02,-8.00e-03,
754,-1.20e-02,1.40e-02,
755,1.20e-02,-8.00e-03,
756,1.20e-02,1.40e-02,
757,-1.20e-02,-8.00e-03,
758,-1.60e-02,1.40e-02,
759,1.20e-02,-1.00e-02,
760,2.40e-02,-1.00e-02,
761,-1.40e-01,9.60e-02,
762,1.64e-01,-1.78e-01,
763,-9.20e-02,1.78e-01,
764,-1.20e-02,-8.00e-03,
765,1.20e-02,1.40e-02,
766,-1.20e-02,1.40e-02,
767,1.20e-02,-1.00e-02,
768,-1.20e-02,-8.00e-03,
769,1.20e-02,1.40e-02,
770,1.20e-02,-8.00e-03,
771,-1.60e-02,1.40e-02,
772,1.20e-02,-8.00e-03,
773,-1.60e-02,1.20e-02,
774,-1.20e-02,1.40e-02,
775,1.20e-02,-1.00e-02,
776,-1.20e-02,1.20e-02,
777,1.20e-02,-1.00e-02,
778,-1.20e-02,1.20e-02,
779,1.20e-02,-1.00e-02,
780,-1.20e-02,1.20e-02,
781,1.20e-02,-8.00e-03,
782,-1.20e-02,-8.00e-03,
783,1.20e-02,1.40e-02,
784,-1.20e-02,-1.00e-02,
785,1.20e-02,1.40e-02,
786,-1.20e-02,1.40e-02,
787,1.20e-02,-9.00e-02,
788,1.68e-01,8.00e-02,
789,-1.60e-02,-5.60e-02,
790,-1.20e-02,1.20e-02,
791,1.20e-02,-1.00e-02,
792,1.20e-02,-1.00e-02,
793,-1.20e-02,1.40e-02,
794,-1.20e-02,-8.00e-03,
795,1.20e-02,1.20e-02,
796,-1.20e-02,-8.00e-03,
797,1.20e-02,1.40e-02,
798,1.20e-02,-1.00e-02,
799,-1.20e-02,1.40e-02,
800,-1.20e-02,-8.00e-03,
801,1.20e-02,1.40e-02,
802,-1.20e-02,-8.00e-03,
803,1.20e-02,1.40e-02,
804,-1.20e-02,-8.00e-03,
805,1.20e-02,1.40e-02,
806,1.20e-02,1.40e-02,
807,-1.20e-02,-1.00e-02,
808,-1.52e-01,2.56e-01,
809,2.20e-01,-1.32e-01,
810,-1.20e-02,-8.00e-03,
811,1.20e-02,1.40e-02,
812,-1.20e-02,-8.00e-03,
813,1.20e-02,1.40e-02,
814,1.20e-02,1.40e-02,
815,-1.20e-02,-8.00e-03,
816,1.20e-02,1.40e-02,
817,-1.20e-02,-8.00e-03,
818,1.20e-02,1.40e-02,
819,-1.20e-02,-1.00e-02,
820,1.20e-02,-8.00e-03,
821,-1.20e-02,1.40e-02,
822,1.20e-02,1.20e-02,
823,-1.60e-02,-8.00e-03,
824,1.20e-02,-8.00e-03,
825,-1.60e-02,1.40e-02,
826,-1.20e-02,-8.00e-03,
827,1.20e-02,1.40e-02,
828,1.20e-02,-8.00e-03,
829,-1.20e-02,1.40e-02,
830,-1.20e-02,-8.00e-03,
831,1.20e-02,1.40e-02,
832,-1.20e-02,1.40e-02,
833,1.20e-02,-8.00e-03,
