Motor_Data/MOTOR_3_ON/time domain/NewFile55(1).csv

X,CH1,CH2,Start,Increment,
Sequence,Volt,Volt,-3.000000e-02,5.000000e-05
0,-1.60e-02,-1.00e-02,
1,1.20e-02,1.40e-02,
2,-1.20e-02,1.40e-02,
3,1.20e-02,-8.00e-03,
4,1.20e-02,1.40e-02,
5,-1.60e-02,-8.00e-03,
6,-7.20e-02,6.40e-02,
7,8.00e-02,-7.00e-02,
8,-1.60e-02,-8.00e-03,
9,1.20e-02,1.60e-02,
10,1.20e-02,-1.00e-02,
11,-1.60e-02,1.40e-02,
12,-1.20e-02,1.60e-02,
13,1.20e-02,-8.00e-03,
14,-1.20e-02,1.40e-02,
15,1.20e-02,-8.00e-03,
16,1.20e-02,1.40e-02,
17,-1.20e-02,-8.00e-03,
18,1.20e-02,-8.00e-03,
19,-1.60e-02,1.60e-02,
20,-1.20e-02,1.40e-02,
21,1.20e-02,-1.00e-02,
22,-1.20e-02,1.40e-02,
23,1.20e-02,-1.00e-02,
24,-1.20e-02,-8.00e-03,
25,1.20e-02,1.40e-02,
26,1.20e-02,-8.00e-03,
27,-1.20e-02,1.60e-02,
28,-1.20e-02,1.40e-02,
29,1.20e-02,-1.00e-02,
30,1.20e-02,-8.00e-03,
31,-1.60e-02,1.40e-02,
32,4.40e-02,1.32e-01,
33,-3.20e-02,-1.00e-01,
34,-5.48e-01,2.56e-01,
35,2.80e-01,-2.54e-01,
36,2.16e-01,-1.60e-01,
37,-1.32e-01,1.68e-01,
38,1.20e-02,1.40e-02,
39,-1.60e-02,-8.00e-03,
40,-1.20e-02,1.40e-02,
41,1.20e-02,-8.00e-03,
42,-1.20e-02,-8.00e-03,
43,1.20e-02,1.60e-02,
44,1.20e-02,-1.00e-02,
45,-1.60e-02,1.40e-02,
46,1.20e-02,1.40e-02,
47,-1.60e-02,-1.00e-02,
48,1.20e-02,-8.00e-03,
49,-1.60e-02,1.40e-02,
50,1.20e-02,1.40e-02,
51,-1.20e-02,-8.00e-03,
52,1.20e-02,-8.00e-03,
53,-1.60e-02,1.40e-02,
54,-2.24e-01,2.56e-01,
55,2.08e-01,-2.24e-01,
56,-1.20e-02,1.40e-02,
57,1.20e-02,-1.00e-02,
58,1.20e-02,1.40e-02,
59,-1.20e-02,-1.00e-02,
60,1.20e-02,-8.00e-03,
61,-1.20e-02,1.60e-02,
62,1.20e-02,1.20e-02,
63,-1.20e-02,-1.00e-02,
64,1.20e-02,-8.00e-03,
65,-1.60e-02,1.60e-02,
66,-1.20e-02,-8.00e-03,
67,1.20e-02,1.40e-02,
68,1.20e-02,1.40e-02,
69,-1.60e-02,-1.00e-02,
70,-1.20e-02,1.40e-02,
71,1.20e-02,-1.00e-02,
72,-1.60e-02,1.20e-02,
73,1.20e-02,-1.00e-02,
74,1.20e-02,-8.00e-03,
75,-1.60e-02,1.20e-02,
76,1.20e-02,-1.00e-02,
77,-1.60e-02,1.40e-02,
78,1.20e-02,1.20e-02,
79,-1.20e-02,-1.00e-02,
80,-2.92e-01,-2.24e-01,
81,2.52e-01,2.40e-01,
82,-1.60e-02,-1.00e-02,
83,1.20e-02,1.40e-02,
84,-1.60e-02,-1.00e-02,
85,1.20e-02,1.60e-02,
86,1.20e-02,1.20e-02,
87,-1.60e-02,-1.00e-02,
88,1.20e-02,-8.00e-03,
89,-1.60e-02,1.40e-02,
90,-1.60e-02,-1.00e-02,
91,1.20e-02,1.20e-02,
92,-1.20e-02,1.40e-02,
93,1.20e-02,-1.00e-02,
94,-1.20e-02,-1.00e-02,
95,1.20e-02,1.40e-02,
96,1.20e-02,-8.00e-03,
97,-1.60e-02,1.40e-02,
98,1.20e-02,-8.00e-03,
99,-1.60e-02,1.40e-02,
100,1.20e-02,-8.00e-03,
101,-1.60e-02,1.40e-02,
102,1.84e-01,2.56e-01,
103,-1.68e-01,-2.38e-01,
104,1.20e-02,-1.00e-02,
105,-1.60e-02,1.40e-02,
106,1.20e-02,1.20e-02,
107,-1.60e-02,-1.00e-02,
108,1.20e-02,-8.00e-03,
109,-1.60e-02,1.20e-02,
110,-1.20e-02,1.20e-02,
111,1.20e-02,-1.00e-02,
112,1.20e-02,1.40e-02,
113,-1.60e-02,-1.00e-02,
114,-1.20e-02,-1.00e-02,
115,1.20e-02,1.40e-02,
116,-1.60e-02,-8.00e-03,
117,1.20e-02,1.40e-02,
118,1.20e-02,1.40e-02,
119,-1.60e-02,-1.00e-02,
120,1.20e-02,-1.00e-02,
121,-1.60e-02,1.40e-02,
122,-1.20e-02,1.40e-02,
123,1.20e-02,-1.00e-02,
124,1.20e-02,1.40e-02,
125,-1.60e-02,-1.20e-02,
126,1.20e-02,-8.00e-03,
127,-1.60e-02,1.40e-02,
128,1.20e-02,-8.00e-03,
129,-1.60e-02,1.40e-02,
130,-1.96e-01,1.96e-01,
131,1.76e-01,-2.00e-01,
132,1.20e-02,-8.00e-03,
133,-1.60e-02,1.40e-02,
134,-1.60e-02,-8.00e-03,
135,1.20e-02,1.60e-02,
136,1.20e-02,-1.00e-02,
137,-1.60e-02,1.40e-02,
138,1.20e-02,1.40e-02,
139,-1.60e-02,-1.00e-02,
140,1.20e-02,1.40e-02,
141,-1.60e-02,-1.00e-02,
142,1.20e-02,1.40e-02,
143,-1.60e-02,-1.00e-02,
144,1.20e-02,-8.00e-03,
145,-1.60e-02,1.40e-02,
146,-6.80e-02,9.60e-02,
147,5.60e-02,-5.60e-02,
148,1.20e-02,-8.00e-03,
149,-1.60e-02,1.40e-02,
150,1.20e-02,1.40e-02,
151,-1.60e-02,-1.00e-02,
152,-1.60e-02,1.40e-02,
153,1.20e-02,-1.00e-02,
154,-1.20e-02,-1.00e-02,
155,1.20e-02,1.40e-02,
156,1.20e-02,1.40e-02,
157,-1.60e-02,-1.00e-02,
158,1.20e-02,1.40e-02,
159,-1.60e-02,-1.00e-02,
160,1.20e-02,-8.00e-03,
161,-1.60e-02,1.40e-02,
162,1.20e-02,-1.00e-02,
163,-1.60e-02,1.40e-02,
164,-1.60e-02,1.40e-02,
165,1.20e-02,-1.00e-02,
166,-1.20e-02,1.40e-02,
167,1.20e-02,-8.00e-03,
168,-1.60e-02,1.40e-02,
169,1.20e-02,-8.00e-03,
170,1.20e-02,1.40e-02,
171,-1.60e-02,-8.00e-03,
172,1.20e-02,1.40e-02,
173,-1.60e-02,-1.00e-02,
174,1.88e-01,-8.00e-03,
175,-5.20e-02,1.70e-01,
176,2.72e-01,-2.54e-01,
177,-2.48e-01,2.56e-01,
178,-1.20e-02,-1.00e-02,
179,1.20e-02,1.40e-02,
180,-1.20e-02,-8.00e-03,
181,1.20e-02,1.40e-02,
182,1.20e-02,-8.00e-03,
183,-1.20e-02,1.40e-02,
184,1.20e-02,1.40e-02,
185,-1.60e-02,-8.00e-03,
186,1.20e-02,-8.00e-03,
187,-1.60e-02,1.40e-02,
188,-1.20e-02,-8.00e-03,
189,1.20e-02,1.60e-02,
190,-1.20e-02,-8.00e-03,
191,1.20e-02,1.40e-02,
192,1.20e-02,-8.00e-03,
193,-1.20e-02,1.40e-02,
194,-1.20e-02,-8.00e-03,
195,1.20e-02,1.40e-02,
196,-1.44e-01,2.56e-01,
197,3.60e-02,-2.20e-01,
198,1.20e-02,1.40e-02,
199,-1.60e-02,-1.00e-02,
200,-1.20e-02,-8.00e-03,
201,1.20e-02,1.40e-02,
202,-1.20e-02,-1.00e-02,
203,1.20e-02,1.40e-02,
204,-1.20e-02,1.40e-02,
205,1.20e-02,-8.00e-03,
206,-1.20e-02,1.40e-02,
207,1.20e-02,-1.00e-02,
208,-1.20e-02,1.40e-02,
209,1.20e-02,-8.00e-03,
210,-1.20e-02,-8.00e-03,
211,1.20e-02,1.40e-02,
212,1.20e-02,1.40e-02,
213,-1.20e-02,-8.00e-03,
214,1.20e-02,-8.00e-03,
215,-1.20e-02,1.40e-02,
216,-1.20e-02,-8.00e-03,
217,1.20e-02,1.40e-02,
218,1.20e-02,1.40e-02,
219,-1.20e-02,-8.00e-03,
220,-1.20e-02,-8.00e-03,
221,1.20e-02,1.40e-02,
222,2.84e-01,-1.58e-01,
223,-3.08e-01,1.74e-01,
224,-1.20e-02,1.40e-02,
225,1.20e-02,-8.00e-03,
226,1.20e-02,1.40e-02,
227,-1.60e-02,-8.00e-03,
228,1.20e-02,-8.00e-03,
229,-1.60e-02,1.40e-02,
230,-1.60e-02,-8.00e-03,
231,1.20e-02,1.40e-02,
232,1.20e-02,1.40e-02,
233,-1.60e-02,-1.00e-02,
234,-1.20e-02,-1.00e-02,
235,1.20e-02,1.40e-02,
236,1.20e-02,1.40e-02,
237,-1.20e-02,-1.00e-02,
238,-1.20e-02,1.40e-02,
239,1.20e-02,-8.00e-03,
240,1.20e-02,1.40e-02,
241,-1.20e-02,-1.00e-02,
242,1.20e-02,-8.00e-03,
243,-1.20e-02,1.60e-02,
244,2.24e-01,2.22e-01,
245,-1.64e-01,-1.66e-01,
246,-1.20e-02,1.40e-02,
247,1.20e-02,-8.00e-03,
248,-1.20e-02,1.40e-02,
249,1.20e-02,-8.00e-03,
250,1.20e-02,-8.00e-03,
251,-1.60e-02,1.40e-02,
252,1.20e-02,-8.00e-03,
253,-1.60e-02,1.40e-02,
254,-1.20e-02,1.40e-02,
255,1.20e-02,-1.00e-02,
256,1.20e-02,1.40e-02,
257,-1.20e-02,-8.00e-03,
258,1.20e-02,1.40e-02,
259,-1.60e-02,-1.00e-02,
260,1.20e-02,-8.00e-03,
261,-1.60e-02,1.60e-02,
262,-1.20e-02,-8.00e-03,
263,1.20e-02,1.40e-02,
264,1.20e-02,-8.00e-03,
265,-1.60e-02,1.40e-02,
266,1.20e-02,1.40e-02,
267,-1.60e-02,-1.00e-02,
268,1.20e-02,1.60e-02,
269,-1.60e-02,-8.00e-03,
270,1.20e-02,-2.54e-01,
271,-1.88e-01,2.56e-01,
272,-1.80e-01,-2.38e-01,
273,1.28e-01,1.48e-01,
274,1.20e-02,1.40e-02,
275,-1.60e-02,-1.00e-02,
276,1.20e-02,1.40e-02,
277,-1.60e-02,-8.00e-03,
278,-1.60e-02,-8.00e-03,
279,1.20e-02,1.40e-02,
280,-1.60e-02,-1.00e-02,
281,1.20e-02,1.40e-02,
282,1.20e-02,1.40e-02,
283,-1.60e-02,-1.00e-02,
284,1.20e-02,-8.00e-03,
285,-1.60e-02,1.40e-02,
286,-1.20e-02,-8.00e-03,
287,1.20e-02,1.40e-02,
288,1.08e-01,-7.20e-02,
289,-1.00e-01,7.20e-02,
290,1.20e-02,-8.00e-03,
291,-1.60e-02,1.40e-02,
292,-1.20e-02,1.40e-02,
293,1.20e-02,-1.00e-02,
294,-1.20e-02,-8.00e-03,
295,1.20e-02,1.40e-02,
296,1.20e-02,1.40e-02,
297,-1.60e-02,-1.00e-02,
298,1.20e-02,1.40e-02,
299,-1.60e-02,-1.00e-02,
300,1.20e-02,-8.00e-03,
301,-1.60e-02,1.40e-02,
302,1.20e-02,1.40e-02,
303,-1.60e-02,-1.00e-02,
304,-1.20e-02,1.40e-02,
305,1.20e-02,-8.00e-03,
306,1.20e-02,1.40e-02,
307,-1.60e-02,-1.00e-02,
308,1.20e-02,-8.00e-03,
309,-1.20e-02,1.40e-02,
310,1.20e-02,1.40e-02,
311,-1.60e-02,-1.00e-02,
312,-1.60e-02,-1.00e-02,
313,1.20e-02,1.40e-02,
314,1.20e-02,-8.00e-03,
315,-1.60e-02,1.40e-02,
316,6.40e-02,1.90e-01,
317,-7.60e-02,-6.60e-02,
318,-2.76e-01,-2.54e-01,
319,1.68e-01,1.70e-01,
320,1.20e-02,1.40e-02,
321,-1.60e-02,-8.00e-03,
322,1.20e-02,-1.00e-02,
323,-1.20e-02,1.40e-02,
324,1.20e-02,1.40e-02,
325,-1.60e-02,-1.00e-02,
326,1.20e-02,1.40e-02,
327,-1.20e-02,-1.00e-02,
328,1.20e-02,-8.00e-03,
329,-1.60e-02,1.40e-02,
330,-1.20e-02,-1.00e-02,
331,1.20e-02,1.40e-02,
332,1.20e-02,-8.00e-03,
333,-1.60e-02,1.40e-02,
334,1.20e-02,1.20e-02,
335,-1.60e-02,-1.00e-02,
336,1.20e-02,1.40e-02,
337,-1.60e-02,-1.00e-02,
338,-1.12e-01,2.56e-01,
339,2.12e-01,-1.88e-01,
340,-1.20e-02,-8.00e-03,
341,1.20e-02,1.40e-02,
342,1.20e-02,-8.00e-03,
343,-1.60e-02,1.40e-02,
344,-1.20e-02,-8.00e-03,
345,1.20e-02,1.40e-02,
346,1.20e-02,-8.00e-03,
347,-1.60e-02,1.40e-02,
348,1.20e-02,1.40e-02,
349,-1.60e-02,-8.00e-03,
350,-1.60e-02,-8.00e-03,
351,1.20e-02,1.40e-02,
352,1.20e-02,-8.00e-03,
353,-1.60e-02,1.40e-02,
354,1.20e-02,1.40e-02,
355,-1.60e-02,-1.00e-02,
356,-1.20e-02,-8.00e-03,
357,1.20e-02,1.60e-02,
358,1.20e-02,-1.00e-02,
359,-1.20e-02,1.40e-02,
360,-1.20e-02,1.40e-02,
361,1.20e-02,-8.00e-03,
362,-2.80e-02,-1.00e-02,
363,1.60e-02,5.20e-02,
364,2.96e-01,1.54e-01,
365,-3.16e-01,-1.82e-01,
366,-1.20e-02,-8.00e-03,
367,1.20e-02,1.40e-02,
368,1.20e-02,1.40e-02,
369,-1.60e-02,-1.00e-02,
370,-1.20e-02,-8.00e-03,
371,1.20e-02,1.40e-02,
372,1.20e-02,-8.00e-03,
373,-1.20e-02,1.60e-02,
374,1.20e-02,1.40e-02,
375,-1.60e-02,-1.00e-02,
376,1.20e-02,-8.00e-03,
377,-1.60e-02,1.40e-02,
378,1.20e-02,-1.00e-02,
379,-1.20e-02,1.40e-02,
380,1.20e-02,-8.00e-03,
381,-1.60e-02,1.40e-02,
382,1.20e-02,-8.00e-03,
383,-1.60e-02,1.40e-02,
384,2.52e-01,-2.54e-01,
385,-1.52e-01,2.56e-01,
386,1.20e-02,1.40e-02,
387,-1.60e-02,-8.00e-03,
388,1.20e-02,-1.00e-02,
389,-1.60e-02,1.40e-02,
390,-1.60e-02,1.40e-02,
391,1.20e-02,-1.00e-02,
392,-1.20e-02,-8.00e-03,
393,1.20e-02,1.40e-02,
394,1.20e-02,-8.00e-03,
395,-1.60e-02,1.40e-02,
396,1.20e-02,1.40e-02,
397,-1.20e-02,-8.00e-03,
398,-1.20e-02,-8.00e-03,
399,1.20e-02,1.20e-02,
400,1.20e-02,1.40e-02,
401,-1.60e-02,-8.00e-03,
402,1.20e-02,-8.00e-03,
403,-1.60e-02,1.40e-02,
404,1.20e-02,-1.00e-02,
405,-1.60e-02,1.40e-02,
406,-1.20e-02,-8.00e-03,
407,1.20e-02,1.40e-02,
408,-1.20e-02,1.40e-02,
409,1.20e-02,-1.20e-02,
410,1.20e-02,-8.00e-03,
411,-1.60e-02,1.40e-02,
412,-2.08e-01,-2.54e-01,
413,1.96e-01,1.84e-01,
414,1.20e-02,1.40e-02,
415,-1.20e-02,-1.00e-02,
416,-1.20e-02,-8.00e-03,
417,1.20e-02,1.40e-02,
418,-1.20e-02,1.40e-02,
419,1.20e-02,-8.00e-03,
420,-1.20e-02,-8.00e-03,
421,1.20e-02,1.40e-02,
422,1.20e-02,-8.00e-03,
423,-1.20e-02,1.40e-02,
424,-1.20e-02,1.40e-02,
425,1.20e-02,-1.00e-02,
426,-1.20e-02,-8.00e-03,
427,1.20e-02,1.40e-02,
428,-1.20e-02,-8.00e-03,
429,1.20e-02,1.40e-02,
430,1.20e-02,-7.80e-02,
431,-7.60e-02,9.40e-02,
432,-1.20e-02,-1.00e-02,
433,1.20e-02,1.40e-02,
434,1.20e-02,-8.00e-03,
435,-1.60e-02,1.60e-02,
436,-1.60e-02,1.40e-02,
437,1.20e-02,-8.00e-03,
438,-1.20e-02,1.40e-02,
439,1.20e-02,-8.00e-03,
440,1.20e-02,-1.00e-02,
441,-1.60e-02,1.40e-02,
442,-1.20e-02,1.60e-02,
443,1.20e-02,-8.00e-03,
444,1.20e-02,-8.00e-03,
445,-1.60e-02,1.40e-02,
446,-1.20e-02,1.40e-02,
447,1.20e-02,-1.00e-02,
448,1.20e-02,-1.00e-02,
449,-1.60e-02,1.40e-02,
450,1.20e-02,1.40e-02,
451,-1.20e-02,-8.00e-03,
452,1.20e-02,-8.00e-03,
453,-1.60e-02,1.40e-02,
454,-1.20e-02,-1.00e-02,
455,1.20e-02,1.60e-02,
456,1.20e-02,-1.00e-02,
457,-1.60e-02,1.40e-02,
458,-7.60e-02,-2.60e-02,
459,7.60e-02,1.34e-01,
460,-5.48e-01,2.56e-01,
461,4.72e-01,-2.54e-01,
462,-1.20e-02,-8.00e-03,
463,1.20e-02,1.40e-02,
464,1.20e-02,-8.00e-03,
465,-1.60e-02,1.60e-02,
466,-1.20e-02,1.60e-02,
467,1.20e-02,-8.00e-03,
468,1.20e-02,-8.00e-03,
469,-1.60e-02,1.40e-02,
470,1.20e-02,1.40e-02,
471,-1.20e-02,-8.00e-03,
472,-1.20e-02,-8.00e-03,
473,1.20e-02,1.40e-02,
474,-1.20e-02,1.40e-02,
475,1.20e-02,-8.00e-03,
476,1.20e-02,-8.00e-03,
477,-1.60e-02,1.60e-02,
478,1.88e-01,2.56e-01,
479,-1.52e-01,-2.22e-01,
480,-1.20e-02,1.40e-02,
481,1.20e-02,-8.00e-03,
482,-1.20e-02,1.40e-02,
483,1.20e-02,-1.00e-02,
484,-1.20e-02,1.40e-02,
485,1.20e-02,-1.00e-02,
486,1.20e-02,-8.00e-03,
487,-1.60e-02,1.40e-02,
488,1.20e-02,-1.00e-02,
489,-1.60e-02,1.40e-02,
490,-1.20e-02,-8.00e-03,
491,1.20e-02,1.40e-02,
492,-1.20e-02,-8.00e-03,
493,1.20e-02,1.40e-02,
494,-1.20e-02,-8.00e-03,
495,1.20e-02,1.40e-02,
496,-1.20e-02,-8.00e-03,
497,1.20e-02,1.40e-02,
498,-1.20e-02,1.40e-02,
499,1.20e-02,-8.00e-03,
500,-1.20e-02,-8.00e-03,
501,1.20e-02,1.40e-02,
502,1.20e-02,1.40e-02,
503,-1.60e-02,-1.00e-02,
504,2.16e-01,1.68e-01,
505,-1.88e-01,-1.32e-01,
506,1.52e-01,-2.30e-01,
507,-2.00e-01,1.24e-01,
508,1.20e-02,1.40e-02,
509,-1.20e-02,-1.00e-02,
510,-1.20e-02,-8.00e-03,
511,1.20e-02,1.40e-02,
512,1.20e-02,-8.00e-03,
513,-1.60e-02,1.40e-02,
514,-1.20e-02,1.20e-02,
515,1.20e-02,-1.00e-02,
516,1.20e-02,-1.00e-02,
517,-1.20e-02,1.40e-02,
518,-1.20e-02,-8.00e-03,
519,1.20e-02,1.40e-02,
520,-1.20e-02,-8.00e-03,
521,1.20e-02,1.40e-02,
522,-1.20e-02,-1.00e-02,
523,1.20e-02,1.40e-02,
524,1.20e-02,1.40e-02,
525,-1.60e-02,-1.00e-02,
526,-1.52e-01,2.12e-01,
527,1.60e-01,-2.54e-01,
528,-1.20e-02,1.40e-02,
529,1.20e-02,-1.00e-02,
530,-1.20e-02,-8.00e-03,
531,1.20e-02,1.40e-02,
532,1.20e-02,1.40e-02,
533,-1.60e-02,-1.00e-02,
534,-1.20e-02,1.40e-02,
535,1.20e-02,-1.00e-02,
536,1.20e-02,-1.00e-02,
537,-1.60e-02,1.40e-02,
538,1.20e-02,-8.00e-03,
539,-1.60e-02,1.40e-02,
540,1.20e-02,1.40e-02,
541,-1.20e-02,-1.00e-02,
542,1.20e-02,-8.00e-03,
543,-1.60e-02,1.60e-02,
544,1.20e-02,-8.00e-03,
545,-1.60e-02,1.40e-02,
546,1.20e-02,1.40e-02,
547,-1.20e-02,-1.00e-02,
548,1.20e-02,1.40e-02,
549,-1.60e-02,-8.00e-03,
550,-1.60e-02,1.40e-02,
551,1.20e-02,-8.00e-03,
552,-1.20e-02,-8.00e-03,
553,1.20e-02,1.40e-02,
554,-1.84e-01,-2.20e-01,
555,1.16e-01,1.48e-01,
556,1.20e-02,-8.00e-03,
557,-1.20e-02,1.40e-02,
558,1.20e-02,1.40e-02,
559,-1.60e-02,-1.00e-02,
560,1.20e-02,-8.00e-03,
561,-1.60e-02,1.40e-02,
562,-1.20e-02,1.40e-02,
563,1.20e-02,-8.00e-03,
564,1.20e-02,1.40e-02,
565,-1.60e-02,-1.00e-02,
566,-1.20e-02,-8.00e-03,
567,1.20e-02,1.40e-02,
568,-1.20e-02,-8.00e-03,
569,1.20e-02,1.40e-02,
570,1.20e-02,-1.00e-02,
571,-1.60e-02,1.40e-02,
572,-7.60e-02,-8.80e-02,
573,8.80e-02,9.80e-02,
574,1.20e-02,-8.00e-03,
575,-1.20e-02,1.40e-02,
576,1.20e-02,-8.00e-03,
577,-1.60e-02,1.40e-02,
578,1.20e-02,1.40e-02,
579,-1.20e-02,-8.00e-03,
580,1.20e-02,-8.00e-03,
581,-1.60e-02,1.40e-02,
582,-1.20e-02,1.40e-02,
583,1.20e-02,-1.00e-02,
584,1.20e-02,-8.00e-03,
585,-1.20e-02,1.40e-02,
586,1.20e-02,1.40e-02,
587,-1.60e-02,-1.00e-02,
588,1.20e-02,1.20e-02,
589,-1.60e-02,-1.00e-02,
590,1.20e-02,-1.00e-02,
591,-1.60e-02,1.40e-02,
592,1.20e-02,-8.00e-03,
593,-1.60e-02,1.40e-02,
594,1.20e-02,-8.00e-03,
595,-1.60e-02,1.40e-02,
596,-1.20e-02,1.20e-02,
597,1.20e-02,-1.00e-02,
598,-7.60e-02,7.80e-02,
599,3.64e-01,-9.40e-02,
600,-1.68e-01,7.00e-02,
601,4.40e-02,-7.40e-02,
602,3.84e-01,2.56e-01,
603,-3.88e-01,-2.54e-01,
604,-1.20e-02,-1.00e-02,
605,1.20e-02,1.40e-02,
606,1.20e-02,-8.00e-03,
607,-1.60e-02,1.40e-02,
608,-1.60e-02,-8.00e-03,
609,1.20e-02,1.40e-02,
610,-1.20e-02,-1.00e-02,
611,1.20e-02,1.40e-02,
612,1.20e-02,1.40e-02,
613,-1.60e-02,-1.00e-02,
614,1.20e-02,-8.00e-03,
615,-1.60e-02,1.40e-02,
616,1.20e-02,1.40e-02,
617,-1.60e-02,-8.00e-03,
618,1.20e-02,-1.00e-02,
619,-1.60e-02,1.40e-02,
620,-1.56e-01,2.56e-01,
621,2.28e-01,-2.20e-01,
622,-1.20e-02,-1.00e-02,
623,1.20e-02,1.40e-02,
624,1.20e-02,1.40e-02,
625,-1.60e-02,-1.00e-02,
626,-1.20e-02,-8.00e-03,
627,1.20e-02,1.40e-02,
628,-1.20e-02,1.40e-02,
629,1.20e-02,-1.00e-02,
630,1.20e-02,1.40e-02,
631,-1.60e-02,-1.00e-02,
632,-1.20e-02,-1.00e-02,
633,1.20e-02,1.40e-02,
634,1.20e-02,1.20e-02,
635,-1.60e-02,-1.00e-02,
636,1.20e-02,-1.00e-02,
637,-1.60e-02,1.40e-02,
638,-1.20e-02,-8.00e-03,
639,1.20e-02,1.40e-02,
640,1.20e-02,1.40e-02,
641,-1.60e-02,-1.00e-02,
642,1.20e-02,-8.00e-03,
643,-1.60e-02,1.40e-02,
644,1.20e-02,1.40e-02,
645,-1.60e-02,-1.00e-02,
646,-2.20e-01,1.88e-01,
647,2.08e-01,-1.56e-01,
648,1.20e-02,1.40e-02,
649,-1.60e-02,-1.00e-02,
650,1.20e-02,-8.00e-03,
651,-1.60e-02,1.40e-02,
652,1.20e-02,-8.00e-03,
653,-1.20e-02,1.40e-02,
654,-1.20e-02,1.40e-02,
655,1.20e-02,-1.00e-02,
656,-1.20e-02,1.40e-02,
657,1.20e-02,-1.00e-02,
658,1.20e-02,1.40e-02,
659,-1.20e-02,-8.00e-03,
660,1.20e-02,1.40e-02,
661,-1.60e-02,-8.00e-03,
662,-1.20e-02,1.40e-02,
663,1.20e-02,-8.00e-03,
664,-1.20e-02,-8.00e-03,
665,1.20e-02,1.40e-02,
666,1.20e-02,-8.00e-03,
667,-1.60e-02,1.40e-02,
668,-1.20e-02,-2.38e-01,
669,2.12e-01,1.86e-01,
670,1.20e-02,-8.00e-03,
671,-1.60e-02,1.40e-02,
672,1.20e-02,1.40e-02,
673,-1.60e-02,-8.00e-03,
674,1.20e-02,-8.00e-03,
675,-1.60e-02,1.60e-02,
676,1.20e-02,-8.00e-03,
677,-1.60e-02,1.40e-02,
678,-1.20e-02,1.40e-02,
679,1.20e-02,-8.00e-03,
680,1.20e-02,-8.00e-03,
681,-1.60e-02,1.40e-02,
682,1.20e-02,-8.00e-03,
683,-1.60e-02,1.40e-02,
684,-1.20e-02,-8.00e-03,
685,1.20e-02,1.40e-02,
686,1.20e-02,1.40e-02,
687,-1.60e-02,-8.00e-03,
688,1.20e-02,-8.00e-03,
689,-1.60e-02,1.60e-02,
690,1.20e-02,1.40e-02,
691,-1.60e-02,-8.00e-03,
692,1.20e-02,1.40e-02,
693,-1.60e-02,-8.00e-03,
694,1.20e-02,1.40e-02,
695,-1.60e-02,-8.00e-03,
696,-2.20e-01,1.98e-01,
697,2.12e-01,-1.24e-01,
698,1.20e-02,1.40e-02,
699,-1.20e-02,-1.00e-02,
700,1.20e-02,-8.00e-03,
701,-1.60e-02,1.40e-02,
702,1.20e-02,1.40e-02,
703,-1.60e-02,-8.00e-03,
704,1.20e-02,1.40e-02,
705,-1.60e-02,-8.00e-03,
706,-1.60e-02,-8.00e-03,
707,1.20e-02,1.40e-02,
708,1.20e-02,1.60e-02,
709,-1.60e-02,-1.00e-02,
710,-1.20e-02,1.40e-02,
711,1.20e-02,-8.00e-03,
712,1.20e-02,-8.00e-03,
713,-1.60e-02,1.40e-02,
714,-9.60e-02,8.20e-02,
715,8.80e-02,-5.20e-02,
716,1.20e-02,1.40e-02,
717,-1.60e-02,-1.00e-02,
718,-1.20e-02,-8.00e-03,
719,1.20e-02,1.40e-02,
720,1.20e-02,-8.00e-03,
721,-1.20e-02,1.60e-02,
722,-1.20e-02,1.40e-02,
723,1.20e-02,-8.00e-03,
724,-1.20e-02,-8.00e-03,
725,1.20e-02,1.40e-02,
726,-1.20e-02,1.40e-02,
727,1.20e-02,-8.00e-03,
728,-1.20e-02,-8.00e-03,
729,1.20e-02,1.40e-02,
730,-1.20e-02,1.40e-02,
731,1.20e-02,-8.00e-03,
732,-1.20e-02,-8.00e-03,
733,1.20e-02,1.40e-02,
734,-1.60e-02,1.40e-02,
735,1.20e-02,-8.00e-03,
736,-1.20e-02,1.40e-02,
737,1.20e-02,-8.00e-03,
738,1.20e-02,-8.00e-03,
739,-1.20e-02,1.40e-02,
740,-2.44e-01,1.02e-01,
741,1.40e-01,-1.84e-01,
742,3.68e-01,-2.54e-01,
743,-4.08e-01,2.56e-01,
744,-2.36e-01,2.48e-01,
745,2.00e-01,-2.00e-01,
746,-1.20e-02,-8.00e-03,
747,1.20e-02,1.40e-02,
748,-1.60e-02,1.40e-02,
749,1.20e-02,-8.00e-03,
750,1.20e-02,-8.00e-03,
751,-1.60e-02,1.40e-02,
752,1.20e-02,1.40e-02,
753,-1.60e-02,-1.00e-02,
754,-1.20e-02,1.40e-02,
755,1.20e-02,-1.00e-02,
756,1.20e-02,1.40e-02,
757,-1.60e-02,-1.00e-02,
758,-1.20e-02,1.40e-02,
759,1.20e-02,-1.00e-02,
760,1.20e-02,1.40e-02,
761,-1.60e-02,-1.00e-02,
762,2.48e-01,1.80e-01,
763,-1.76e-01,-1.66e-01,
764,1.20e-02,1.40e-02,
765,-1.20e-02,-1.00e-02,
766,-1.20e-02,-8.00e-03,
767,1.20e-02,1.40e-02,
768,-1.20e-02,-8.00e-03,
769,1.20e-02,1.40e-02,
770,-1.20e-02,1.40e-02,
771,1.20e-02,-8.00e-03,
772,1.20e-02,1.40e-02,
773,-1.60e-02,-8.00e-03,
774,-1.20e-02,1.40e-02,
775,1.20e-02,-1.00e-02,
776,-1.20e-02,-1.00e-02,
777,1.20e-02,1.40e-02,
778,1.20e-02,-8.00e-03,
779,-1.60e-02,1.40e-02,
780,1.20e-02,1.40e-02,
781,-1.60e-02,-1.00e-02,
782,1.20e-02,-8.00e-03,
783,-1.60e-02,1.40e-02,
784,1.20e-02,-1.00e-02,
785,-1.60e-02,1.40e-02,
786,-1.60e-02,1.40e-02,
787,1.20e-02,-1.00e-02,
788,-1.60e-02,2.22e-01,
789,3.16e-01,-2.20e-01,
790,-1.20e-02,-1.00e-02,
791,1.20e-02,1.40e-02,
792,1.20e-02,-1.00e-02,
793,-1.60e-02,1.40e-02,
794,-1.20e-02,1.40e-02,
795,1.20e-02,-1.00e-02,
796,1.20e-02,-1.00e-02,
797,-1.60e-02,1.40e-02,
798,1.20e-02,1.40e-02,
799,-1.60e-02,-1.00e-02,
800,-1.60e-02,1.40e-02,
801,1.20e-02,-8.00e-03,
802,1.20e-02,-8.00e-03,
803,-1.60e-02,1.40e-02,
804,1.20e-02,-8.00e-03,
805,-1.60e-02,1.40e-02,
806,1.20e-02,-8.00e-03,
807,-1.60e-02,1.60e-02,
808,1.20e-02,-8.00e-03,
809,-1.60e-02,1.40e-02,
810,1.64e-01,2.56e-01,
811,-1.60e-01,-1.82e-01,
812,1.20e-02,-1.00e-02,
813,-1.60e-02,1.40e-02,
814,-1.20e-02,1.40e-02,
815,1.20e-02,-1.00e-02,
816,-1.20e-02,1.40e-02,
817,1.20e-02,-1.00e-02,
818,1.20e-02,1.40e-02,
819,-1.60e-02,-1.00e-02,
820,1.20e-02,-1.00e-02,
821,-1.60e-02,1.40e-02,
822,-1.20e-02,1.40e-02,
823,1.20e-02,-1.00e-02,
824,-1.20e-02,1.20e-02,
825,1.20e-02,-1.00e-02,
826,-1.20e-02,-8.00e-03,
827,1.20e-02,1.40e-02,
828,-1.20e-02,-8.00e-03,
829,1.20e-02,1.40e-02,
830,-1.20e-02,-8.00e-03,
831,1.20e-02,1.40e-02,
832,-1.60e-02,1.40e-02,
833,1.20e-02,-8.00e-03,
