Motor_Data/MOTOR_3_ON/time domain/NewFile49.csv

X,CH1,CH2,Start,Increment,
Sequence,Volt,Volt,-3.000000e-02,5.000000e-05
0,1.20e-02,-8.00e-03,
1,-1.60e-02,1.40e-02,
2,1.20e-02,-8.00e-03,
3,-1.60e-02,1.20e-02,
4,1.20e-02,1.20e-02,
5,-1.60e-02,-8.00e-03,
6,-1.20e-02,-8.00e-03,
7,1.20e-02,1.40e-02,
8,-1.60e-02,-8.00e-03,
9,1.20e-02,1.40e-02,
10,1.20e-02,-8.00e-03,
11,-1.60e-02,1.40e-02,
12,-6.40e-02,1.20e-02,
13,6.40e-02,-1.54e-01,
14,-4.72e-01,2.56e-01,
15,2.92e-01,-2.54e-01,
16,1.20e-02,1.20e-02,
17,-1.60e-02,-1.00e-02,
18,1.20e-02,-8.00e-03,
19,-1.60e-02,1.20e-02,
20,-1.20e-02,-8.00e-03,
21,1.20e-02,1.40e-02,
22,-1.20e-02,1.20e-02,
23,1.20e-02,-1.00e-02,
24,1.20e-02,1.20e-02,
25,-1.20e-02,-8.00e-03,
26,-1.20e-02,-8.00e-03,
27,1.20e-02,1.20e-02,
28,1.20e-02,-8.00e-03,
29,-1.60e-02,1.20e-02,
30,1.20e-02,1.20e-02,
31,-1.20e-02,-8.00e-03,
32,1.20e-02,-8.00e-03,
33,-1.60e-02,1.20e-02,
34,1.84e-01,2.44e-01,
35,-1.04e-01,-2.54e-01,
36,-1.20e-02,-8.00e-03,
37,1.20e-02,1.40e-02,
38,-1.20e-02,-8.00e-03,
39,1.20e-02,1.20e-02,
40,-1.60e-02,1.40e-02,
41,1.20e-02,-8.00e-03,
42,1.20e-02,1.40e-02,
43,-1.60e-02,-8.00e-03,
44,-1.20e-02,1.20e-02,
45,1.20e-02,-8.00e-03,
46,1.20e-02,-8.00e-03,
47,-1.60e-02,1.40e-02,
48,1.20e-02,-8.00e-03,
49,-1.60e-02,1.40e-02,
50,-1.20e-02,1.20e-02,
51,1.20e-02,-8.00e-03,
52,1.20e-02,1.20e-02,
53,-1.60e-02,-8.00e-03,
54,1.20e-02,1.20e-02,
55,-1.60e-02,-8.00e-03,
56,-1.20e-02,1.20e-02,
57,1.20e-02,-8.00e-03,
58,1.20e-02,1.40e-02,
59,-1.60e-02,-8.00e-03,
60,1.20e-02,1.20e-02,
61,-1.20e-02,-8.00e-03,
62,-3.12e-01,2.30e-01,
63,2.64e-01,-2.20e-01,
64,-1.60e-02,1.20e-02,
65,1.20e-02,-8.00e-03,
66,1.20e-02,1.20e-02,
67,-1.60e-02,-8.00e-03,
68,1.20e-02,-8.00e-03,
69,-1.60e-02,1.40e-02,
70,1.20e-02,1.40e-02,
71,-1.60e-02,-8.00e-03,
72,1.20e-02,-8.00e-03,
73,-1.60e-02,1.40e-02,
74,1.20e-02,1.20e-02,
75,-1.60e-02,-8.00e-03,
76,1.20e-02,1.20e-02,
77,-1.60e-02,-8.00e-03,
78,1.20e-02,-8.00e-03,
79,-1.60e-02,1.40e-02,
80,1.56e-01,-9.80e-02,
81,-1.28e-01,1.22e-01,
82,1.20e-02,1.40e-02,
83,-1.60e-02,-8.00e-03,
84,1.20e-02,-8.00e-03,
85,-1.60e-02,1.40e-02,
86,1.20e-02,-8.00e-03,
87,-1.60e-02,1.40e-02,
88,-1.60e-02,-8.00e-03,
89,1.20e-02,1.40e-02,
90,1.20e-02,1.40e-02,
91,-1.60e-02,-8.00e-03,
92,-1.20e-02,1.40e-02,
93,1.20e-02,-1.00e-02,
94,1.20e-02,1.40e-02,
95,-1.20e-02,-8.00e-03,
96,1.20e-02,-8.00e-03,
97,-1.60e-02,1.40e-02,
98,-1.20e-02,-8.00e-03,
99,1.20e-02,1.20e-02,
100,1.20e-02,1.20e-02,
101,-1.60e-02,-8.00e-03,
102,-1.60e-02,-8.00e-03,
103,1.20e-02,1.40e-02,
104,-1.20e-02,-8.00e-03,
105,1.20e-02,1.40e-02,
106,-1.60e-02,3.60e-02,
107,1.20e-02,-1.20e-02,
108,1.20e-02,-8.00e-03,
109,-1.60e-02,1.40e-02,
110,2.40e-01,2.56e-01,
111,-6.80e-02,-2.54e-01,
112,1.20e-02,1.20e-02,
113,-1.60e-02,-8.00e-03,
114,1.20e-02,-8.00e-03,
115,-1.60e-02,1.20e-02,
116,1.20e-02,-8.00e-03,
117,-1.60e-02,1.40e-02,
118,1.20e-02,1.20e-02,
119,-1.60e-02,-8.00e-03,
120,1.20e-02,-8.00e-03,
121,-1.60e-02,1.20e-02,
122,1.20e-02,-8.00e-03,
123,-1.60e-02,1.40e-02,
124,1.20e-02,-8.00e-03,
125,-1.60e-02,1.40e-02,
126,-1.60e-02,1.20e-02,
127,1.20e-02,-8.00e-03,
128,2.92e-01,-2.54e-01,
129,-2.52e-01,2.56e-01,
130,1.20e-02,-8.00e-03,
131,-1.60e-02,1.20e-02,
132,1.20e-02,-1.00e-02,
133,-1.60e-02,1.20e-02,
134,-1.20e-02,1.40e-02,
135,1.20e-02,-8.00e-03,
136,1.20e-02,1.20e-02,
137,-1.60e-02,-8.00e-03,
138,1.20e-02,-8.00e-03,
139,-1.60e-02,1.40e-02,
140,1.20e-02,-8.00e-03,
141,-1.60e-02,1.40e-02,
142,1.20e-02,-8.00e-03,
143,-1.20e-02,1.40e-02,
144,1.20e-02,-8.00e-03,
145,-1.60e-02,1.40e-02,
146,1.20e-02,-8.00e-03,
147,-1.60e-02,1.40e-02,
148,1.20e-02,-8.00e-03,
149,-1.20e-02,1.40e-02,
150,1.20e-02,1.40e-02,
151,-1.60e-02,-8.00e-03,
152,1.20e-02,-8.00e-03,
153,-1.60e-02,1.40e-02,
154,4.36e-01,2.56e-01,
155,-1.60e-01,-2.54e-01,
156,-1.60e-02,1.40e-02,
157,1.20e-02,-8.00e-03,
158,-1.20e-02,-8.00e-03,
159,1.20e-02,1.60e-02,
160,-1.20e-02,1.40e-02,
161,1.20e-02,-8.00e-03,
162,1.20e-02,1.40e-02,
163,-1.60e-02,-8.00e-03,
164,1.20e-02,-6.00e-03,
165,-1.60e-02,1.40e-02,
166,1.20e-02,1.20e-02,
167,-1.60e-02,-8.00e-03,
168,1.20e-02,1.20e-02,
169,-1.60e-02,-8.00e-03,
170,1.20e-02,1.20e-02,
171,-1.60e-02,-8.00e-03,
172,1.20e-02,1.20e-02,
173,-1.60e-02,-1.00e-02,
174,1.20e-02,-1.00e-02,
175,-1.60e-02,1.40e-02,
176,-1.00e-01,1.08e-01,
177,1.92e-01,-2.54e-01,
178,-1.60e-02,-8.00e-03,
179,1.20e-02,1.20e-02,
180,-1.60e-02,-8.00e-03,
181,1.20e-02,1.20e-02,
182,1.20e-02,-8.00e-03,
183,-1.60e-02,1.40e-02,
184,1.20e-02,1.20e-02,
185,-1.60e-02,-1.00e-02,
186,1.20e-02,1.20e-02,
187,-1.60e-02,-8.00e-03,
188,-1.20e-02,1.40e-02,
189,1.20e-02,-1.00e-02,
190,1.20e-02,-8.00e-03,
191,-1.60e-02,1.20e-02,
192,1.20e-02,-8.00e-03,
193,-1.60e-02,1.40e-02,
194,1.20e-02,1.20e-02,
195,-1.60e-02,-8.00e-03,
196,1.20e-02,1.20e-02,
197,-1.60e-02,-8.00e-03,
198,-1.20e-02,1.20e-02,
199,1.20e-02,-8.00e-03,
200,-1.20e-02,-1.00e-02,
201,1.20e-02,1.40e-02,
202,1.20e-02,1.40e-02,
203,-1.60e-02,-2.00e-02,
204,-3.40e-01,-2.54e-01,
205,3.64e-01,2.56e-01,
206,1.20e-02,-8.00e-03,
207,-1.60e-02,1.40e-02,
208,1.20e-02,-8.00e-03,
209,-1.60e-02,1.40e-02,
210,1.20e-02,1.40e-02,
211,-1.60e-02,-1.00e-02,
212,1.20e-02,1.20e-02,
213,-1.60e-02,-1.00e-02,
214,-1.20e-02,1.20e-02,
215,1.20e-02,-1.00e-02,
216,-1.20e-02,-8.00e-03,
217,1.20e-02,1.40e-02,
218,1.20e-02,1.20e-02,
219,-1.60e-02,-8.00e-03,
220,1.72e-01,-1.36e-01,
221,-1.44e-01,1.66e-01,
222,-1.20e-02,-8.00e-03,
223,1.20e-02,1.40e-02,
224,1.20e-02,1.40e-02,
225,-1.60e-02,-8.00e-03,
226,-1.20e-02,-8.00e-03,
227,1.20e-02,1.40e-02,
228,1.20e-02,-1.00e-02,
229,-1.60e-02,1.40e-02,
230,1.20e-02,-8.00e-03,
231,-1.60e-02,1.40e-02,
232,1.20e-02,-8.00e-03,
233,-1.60e-02,1.40e-02,
234,-1.20e-02,-8.00e-03,
235,1.20e-02,1.40e-02,
236,1.20e-02,1.20e-02,
237,-1.20e-02,-1.00e-02,
238,1.20e-02,-8.00e-03,
239,-1.60e-02,1.40e-02,
240,-1.60e-02,1.20e-02,
241,1.20e-02,-8.00e-03,
242,8.00e-03,1.20e-02,
243,-1.60e-02,-1.00e-02,
244,-1.20e-02,1.20e-02,
245,1.20e-02,-8.00e-03,
246,1.20e-02,1.40e-02,
247,-1.60e-02,-1.00e-02,
248,-2.40e-02,2.00e-02,
249,8.40e-02,-3.80e-02,
250,2.64e-01,2.56e-01,
251,-2.76e-01,-2.54e-01,
252,-1.20e-02,1.20e-02,
253,1.20e-02,-1.00e-02,
254,-1.60e-02,1.20e-02,
255,1.20e-02,-1.00e-02,
256,1.20e-02,-8.00e-03,
257,-1.60e-02,1.20e-02,
258,-1.20e-02,1.20e-02,
259,1.20e-02,-1.00e-02,
260,1.20e-02,-8.00e-03,
261,-1.60e-02,1.20e-02,
262,1.20e-02,-8.00e-03,
263,-1.60e-02,1.40e-02,
264,1.20e-02,-8.00e-03,
265,-1.60e-02,1.20e-02,
266,1.20e-02,-8.00e-03,
267,-1.60e-02,1.20e-02,
268,1.20e-02,1.40e-02,
269,-1.60e-02,-1.00e-02,
270,1.20e-02,-2.54e-01,
271,-2.00e-01,2.56e-01,
272,-1.20e-02,-8.00e-03,
273,1.20e-02,1.40e-02,
274,-1.60e-02,-8.00e-03,
275,1.20e-02,1.20e-02,
276,-1.20e-02,-8.00e-03,
277,1.20e-02,1.20e-02,
278,1.20e-02,1.20e-02,
279,-1.60e-02,-1.00e-02,
280,1.20e-02,-8.00e-03,
281,-1.60e-02,1.40e-02,
282,-1.60e-02,1.20e-02,
283,1.20e-02,-8.00e-03,
284,1.20e-02,-1.00e-02,
285,-1.60e-02,1.40e-02,
286,-1.20e-02,1.40e-02,
287,1.20e-02,-1.00e-02,
288,1.20e-02,-8.00e-03,
289,-1.60e-02,1.40e-02,
290,-1.60e-02,-8.00e-03,
291,1.20e-02,1.40e-02,
292,1.20e-02,-8.00e-03,
293,-1.60e-02,1.40e-02,
294,1.20e-02,-1.00e-02,
295,-3.60e-02,1.60e-02,
296,-4.24e-01,-2.26e-01,
297,3.24e-01,2.46e-01,
298,1.20e-02,-8.00e-03,
299,-1.60e-02,1.40e-02,
300,-1.60e-02,-8.00e-03,
301,1.20e-02,1.40e-02,
302,1.20e-02,1.40e-02,
303,-1.60e-02,-1.00e-02,
304,1.20e-02,1.40e-02,
305,-1.60e-02,-8.00e-03,
306,1.20e-02,1.40e-02,
307,-1.60e-02,-8.00e-03,
308,1.20e-02,1.40e-02,
309,-1.60e-02,-1.00e-02,
310,1.20e-02,-1.00e-02,
311,-1.60e-02,1.40e-02,
312,-1.60e-02,-8.00e-03,
313,1.20e-02,1.40e-02,
314,1.20e-02,-8.00e-03,
315,-1.60e-02,1.40e-02,
316,2.36e-01,-2.54e-01,
317,-4.40e-02,2.56e-01,
318,1.20e-02,-8.00e-03,
319,-1.60e-02,1.40e-02,
320,-1.60e-02,-8.00e-03,
321,1.20e-02,1.40e-02,
322,1.20e-02,-8.00e-03,
323,-1.60e-02,1.40e-02,
324,1.20e-02,1.40e-02,
325,-1.60e-02,-8.00e-03,
326,1.20e-02,-8.00e-03,
327,-1.60e-02,1.20e-02,
328,1.20e-02,-8.00e-03,
329,-1.60e-02,1.40e-02,
330,1.20e-02,-8.00e-03,
331,-1.60e-02,1.40e-02,
332,-1.60e-02,1.20e-02,
333,1.20e-02,-8.00e-03,
334,1.20e-02,-8.00e-03,
335,-1.60e-02,1.20e-02,
336,1.20e-02,-8.00e-03,
337,-1.60e-02,1.40e-02,
338,1.20e-02,1.20e-02,
339,-1.60e-02,-8.00e-03,
340,1.20e-02,-8.00e-03,
341,-1.60e-02,1.20e-02,
342,-1.60e-02,-8.00e-03,
343,1.20e-02,1.40e-02,
344,-3.04e-01,2.56e-01,
345,2.88e-01,-2.28e-01,
346,1.20e-02,-8.00e-03,
347,-1.60e-02,1.40e-02,
348,-1.20e-02,1.20e-02,
349,1.20e-02,-8.00e-03,
350,1.20e-02,-8.00e-03,
351,-1.60e-02,1.40e-02,
352,1.20e-02,-8.00e-03,
353,-1.60e-02,1.20e-02,
354,1.20e-02,-1.00e-02,
355,-1.60e-02,1.40e-02,
356,-1.20e-02,-8.00e-03,
357,1.20e-02,1.20e-02,
358,-1.20e-02,-8.00e-03,
359,1.20e-02,1.40e-02,
360,1.20e-02,1.40e-02,
361,-1.60e-02,-8.00e-03,
362,-7.60e-02,-9.40e-02,
363,9.60e-02,1.36e-01,
364,1.20e-02,1.40e-02,
365,-1.60e-02,-8.00e-03,
366,1.20e-02,-8.00e-03,
367,-1.20e-02,1.40e-02,
368,1.20e-02,1.20e-02,
369,-1.60e-02,-1.00e-02,
370,1.20e-02,-8.00e-03,
371,-1.60e-02,1.40e-02,
372,1.20e-02,1.20e-02,
373,-1.60e-02,-8.00e-03,
374,1.20e-02,-8.00e-03,
375,-1.20e-02,1.40e-02,
376,1.20e-02,1.40e-02,
377,-1.20e-02,-8.00e-03,
378,-1.20e-02,-8.00e-03,
379,1.20e-02,1.40e-02,
380,-1.20e-02,-8.00e-03,
381,1.20e-02,1.40e-02,
382,1.20e-02,-8.00e-03,
383,-1.60e-02,1.40e-02,
384,-1.60e-02,1.40e-02,
385,1.20e-02,-8.00e-03,
386,1.20e-02,1.20e-02,
387,-1.60e-02,-8.00e-03,
388,1.20e-02,1.40e-02,
389,-2.40e-02,-3.60e-02,
390,5.20e-02,7.00e-02,
391,-1.20e-02,-2.20e-02,
392,2.28e-01,2.56e-01,
393,-3.60e-01,-2.54e-01,
394,-1.20e-02,1.20e-02,
395,1.20e-02,-8.00e-03,
396,-1.20e-02,1.40e-02,
397,1.20e-02,-8.00e-03,
398,1.20e-02,1.60e-02,
399,-1.60e-02,-8.00e-03,
400,-1.60e-02,-8.00e-03,
401,1.20e-02,1.40e-02,
402,1.20e-02,-8.00e-03,
403,-1.60e-02,1.40e-02,
404,1.20e-02,1.20e-02,
405,-1.60e-02,-8.00e-03,
406,1.20e-02,-8.00e-03,
407,-1.60e-02,1.40e-02,
408,1.20e-02,1.40e-02,
409,-1.20e-02,-8.00e-03,
410,2.36e-01,-2.54e-01,
411,-2.36e-01,2.56e-01,
412,1.20e-02,-8.00e-03,
413,-1.60e-02,1.40e-02,
414,1.20e-02,-8.00e-03,
415,-1.20e-02,1.40e-02,
416,1.20e-02,1.40e-02,
417,-1.60e-02,-8.00e-03,
418,-1.20e-02,-8.00e-03,
419,1.20e-02,1.40e-02,
420,1.20e-02,1.40e-02,
421,-1.20e-02,-8.00e-03,
422,-1.60e-02,1.20e-02,
423,1.20e-02,-8.00e-03,
424,1.20e-02,-8.00e-03,
425,-1.60e-02,1.40e-02,
426,1.20e-02,-1.00e-02,
427,-1.20e-02,1.40e-02,
428,1.20e-02,-6.00e-03,
429,-1.60e-02,1.40e-02,
430,-1.20e-02,-8.00e-03,
431,1.20e-02,1.40e-02,
432,1.20e-02,-8.00e-03,
433,-1.60e-02,1.40e-02,
434,-1.60e-02,-8.00e-03,
435,1.20e-02,1.40e-02,
436,4.20e-01,2.56e-01,
437,-2.52e-01,-2.40e-01,
438,1.20e-02,-8.00e-03,
439,-1.60e-02,1.40e-02,
440,1.20e-02,1.20e-02,
441,-1.60e-02,-8.00e-03,
442,-1.60e-02,1.20e-02,
443,1.20e-02,-8.00e-03,
444,-1.20e-02,1.40e-02,
445,1.20e-02,-1.00e-02,
446,1.20e-02,1.20e-02,
447,-1.60e-02,-8.00e-03,
448,1.20e-02,-8.00e-03,
449,-1.60e-02,1.40e-02,
450,1.20e-02,1.20e-02,
451,-1.20e-02,-8.00e-03,
452,1.20e-02,1.20e-02,
453,-1.60e-02,-8.00e-03,
454,-1.60e-02,-8.00e-03,
455,1.20e-02,1.60e-02,
456,-1.60e-02,1.40e-02,
457,1.20e-02,-1.00e-02,
458,1.28e-01,1.62e-01,
459,-3.20e-01,-2.54e-01,
460,1.20e-02,-8.00e-03,
461,-1.60e-02,1.40e-02,
462,1.20e-02,-8.00e-03,
463,-1.60e-02,1.40e-02,
464,1.20e-02,-8.00e-03,
465,-1.60e-02,1.40e-02,
466,1.20e-02,-8.00e-03,
467,-1.60e-02,1.40e-02,
468,1.20e-02,-8.00e-03,
469,-1.60e-02,1.20e-02,
470,-1.60e-02,-8.00e-03,
471,1.20e-02,1.40e-02,
472,1.20e-02,1.40e-02,
473,-1.60e-02,-8.00e-03,
474,1.20e-02,-1.00e-02,
475,-1.60e-02,1.40e-02,
476,1.20e-02,-8.00e-03,
477,-1.60e-02,1.40e-02,
478,-1.60e-02,-8.00e-03,
479,1.20e-02,1.40e-02,
480,1.20e-02,1.40e-02,
481,-1.60e-02,-8.00e-03,
482,1.20e-02,-8.00e-03,
483,-1.60e-02,1.40e-02,
484,1.20e-02,1.40e-02,
485,-1.60e-02,-8.00e-03,
486,-3.40e-01,-2.54e-01,
487,2.48e-01,2.08e-01,
488,1.20e-02,-8.00e-03,
489,-1.60e-02,1.40e-02,
490,1.20e-02,-8.00e-03,
491,-1.60e-02,1.40e-02,
492,1.20e-02,1.40e-02,
493,-1.60e-02,-8.00e-03,
494,1.20e-02,1.40e-02,
495,-1.60e-02,-1.00e-02,
496,-1.60e-02,-8.00e-03,
497,1.20e-02,1.40e-02,
498,1.20e-02,-8.00e-03,
499,-1.60e-02,1.40e-02,
500,1.20e-02,1.20e-02,
501,-1.60e-02,-8.00e-03,
502,9.60e-02,-1.42e-01,
503,-1.00e-01,1.58e-01,
504,1.20e-02,1.40e-02,
505,-1.60e-02,-8.00e-03,
506,1.20e-02,1.20e-02,
507,-1.60e-02,-8.00e-03,
508,-1.60e-02,-8.00e-03,
509,1.20e-02,1.40e-02,
510,-1.60e-02,1.40e-02,
511,1.20e-02,-8.00e-03,
512,1.20e-02,1.40e-02,
513,-1.60e-02,-8.00e-03,
514,1.20e-02,1.40e-02,
515,-1.60e-02,-8.00e-03,
516,1.20e-02,1.40e-02,
517,-1.60e-02,-8.00e-03,
518,-1.60e-02,-8.00e-03,
519,1.20e-02,1.40e-02,
520,1.20e-02,-8.00e-03,
521,-1.60e-02,1.40e-02,
522,1.20e-02,-8.00e-03,
523,-1.60e-02,1.40e-02,
524,1.20e-02,1.40e-02,
525,-1.60e-02,-8.00e-03,
526,1.20e-02,-8.00e-03,
527,-1.60e-02,1.40e-02,
528,1.20e-02,1.40e-02,
529,-1.60e-02,-1.00e-02,
530,-1.60e-02,2.20e-02,
531,1.60e-02,-2.20e-02,
532,-3.96e-01,1.92e-01,
533,4.52e-01,-2.54e-01,
534,-1.20e-02,-8.00e-03,
535,1.20e-02,1.40e-02,
536,1.20e-02,-1.00e-02,
537,-1.60e-02,1.40e-02,
538,1.20e-02,1.40e-02,
539,-1.60e-02,-8.00e-03,
540,-1.20e-02,1.40e-02,
541,1.20e-02,-8.00e-03,
542,-1.20e-02,-8.00e-03,
543,1.20e-02,1.40e-02,
544,-1.20e-02,1.20e-02,
545,1.20e-02,-8.00e-03,
546,1.20e-02,1.20e-02,
547,-1.60e-02,-8.00e-03,
548,1.20e-02,1.20e-02,
549,-1.60e-02,-8.00e-03,
550,1.20e-02,1.20e-02,
551,-1.60e-02,-1.00e-02,
552,2.08e-01,-2.54e-01,
553,-1.00e-01,2.00e-01,
554,-1.60e-02,1.40e-02,
555,1.20e-02,-8.00e-03,
556,1.20e-02,1.40e-02,
557,-1.60e-02,-8.00e-03,
558,1.20e-02,-8.00e-03,
559,-1.60e-02,1.40e-02,
560,-1.20e-02,1.20e-02,
561,1.20e-02,-8.00e-03,
562,1.20e-02,-8.00e-03,
563,-1.20e-02,1.20e-02,
564,1.20e-02,1.20e-02,
565,-1.60e-02,-8.00e-03,
566,1.20e-02,1.40e-02,
567,-1.60e-02,-8.00e-03,
568,-1.20e-02,-8.00e-03,
569,1.20e-02,1.40e-02,
570,-1.20e-02,1.20e-02,
571,1.20e-02,-8.00e-03,
572,1.20e-02,-8.00e-03,
573,-1.20e-02,1.40e-02,
574,1.20e-02,1.40e-02,
575,-1.60e-02,-8.00e-03,
576,-1.24e-01,1.20e-02,
577,8.40e-02,-3.40e-02,
578,-3.64e-01,2.14e-01,
579,2.88e-01,-2.26e-01,
580,-1.60e-02,-8.00e-03,
581,1.20e-02,1.20e-02,
582,1.20e-02,1.20e-02,
583,-1.60e-02,-1.00e-02,
584,1.20e-02,1.20e-02,
585,-1.60e-02,-8.00e-03,
586,1.20e-02,1.20e-02,
587,-1.60e-02,-1.00e-02,
588,1.20e-02,1.20e-02,
589,-1.60e-02,-8.00e-03,
590,-1.20e-02,1.20e-02,
591,1.20e-02,-1.00e-02,
592,-1.20e-02,1.20e-02,
593,1.20e-02,-8.00e-03,
594,1.20e-02,-1.00e-02,
595,-1.60e-02,1.40e-02,
596,1.20e-02,1.20e-02,
597,-1.60e-02,-8.00e-03,
598,1.20e-02,1.20e-02,
599,-2.72e-01,-2.54e-01,
600,2.12e-01,2.56e-01,
601,-3.32e-01,-1.80e-01,
602,-1.20e-02,-8.00e-03,
603,1.20e-02,1.20e-02,
604,-1.60e-02,1.20e-02,
605,1.20e-02,-8.00e-03,
606,1.20e-02,1.20e-02,
607,-1.60e-02,-1.00e-02,
608,1.20e-02,1.40e-02,
609,-1.60e-02,-8.00e-03,
610,1.20e-02,-1.00e-02,
611,-1.60e-02,1.40e-02,
612,1.20e-02,-8.00e-03,
613,-1.60e-02,1.20e-02,
614,1.20e-02,-8.00e-03,
615,-1.60e-02,1.60e-02,
616,1.20e-02,1.20e-02,
617,-1.60e-02,-8.00e-03,
618,1.20e-02,-8.00e-03,
619,-1.20e-02,1.40e-02,
620,-1.60e-02,-8.00e-03,
621,1.20e-02,1.20e-02,
622,1.20e-02,1.20e-02,
623,-1.60e-02,-8.00e-03,
624,1.20e-02,-8.00e-03,
625,-1.60e-02,1.80e-02,
626,3.40e-01,-2.54e-01,
627,-2.80e-01,2.46e-01,
628,-1.60e-02,-8.00e-03,
629,1.20e-02,1.40e-02,
630,1.20e-02,1.40e-02,
631,-1.60e-02,-8.00e-03,
632,-1.60e-02,-8.00e-03,
633,1.20e-02,1.40e-02,
634,1.20e-02,1.20e-02,
635,-1.60e-02,-1.00e-02,
636,1.20e-02,1.20e-02,
637,-1.60e-02,-8.00e-03,
638,1.20e-02,-8.00e-03,
639,-1.60e-02,1.40e-02,
640,1.20e-02,1.20e-02,
641,-1.60e-02,-1.00e-02,
642,1.20e-02,-8.00e-03,
643,-1.60e-02,1.60e-02,
644,1.76e-01,-7.60e-02,
645,-1.92e-01,1.04e-01,
646,-1.20e-02,-8.00e-03,
647,1.20e-02,1.40e-02,
648,1.20e-02,1.20e-02,
649,-1.60e-02,-1.00e-02,
650,-1.60e-02,1.40e-02,
651,1.20e-02,-1.00e-02,
652,1.20e-02,-8.00e-03,
653,-1.60e-02,1.40e-02,
654,1.20e-02,-8.00e-03,
655,-1.60e-02,1.40e-02,
656,1.20e-02,-8.00e-03,
657,-1.60e-02,1.20e-02,
658,1.20e-02,-8.00e-03,
659,-1.60e-02,1.40e-02,
660,1.20e-02,-8.00e-03,
661,-1.60e-02,1.40e-02,
662,-1.60e-02,-8.00e-03,
663,1.20e-02,1.40e-02,
664,1.20e-02,-8.00e-03,
665,-1.60e-02,1.20e-02,
666,-1.20e-02,-8.00e-03,
667,1.20e-02,1.20e-02,
668,1.20e-02,1.40e-02,
669,-1.60e-02,-1.00e-02,
670,-1.60e-02,-8.00e-03,
671,1.20e-02,1.40e-02,
672,2.40e-02,-6.80e-02,
673,-1.60e-02,3.40e-02,
674,-3.24e-01,-2.54e-01,
675,1.80e-01,2.56e-01,
676,-1.20e-02,-1.00e-02,
677,1.20e-02,1.40e-02,
678,1.20e-02,1.20e-02,
679,-1.60e-02,-8.00e-03,
680,-1.60e-02,-8.00e-03,
681,1.20e-02,1.40e-02,
682,1.20e-02,1.40e-02,
683,-1.60e-02,-1.00e-02,
684,1.20e-02,-8.00e-03,
685,-1.60e-02,1.20e-02,
686,1.20e-02,-8.00e-03,
687,-1.60e-02,1.20e-02,
688,1.20e-02,-8.00e-03,
689,-1.60e-02,1.20e-02,
690,1.20e-02,-8.00e-03,
691,-1.60e-02,1.40e-02,
692,2.88e-01,-2.54e-01,
693,-2.48e-01,2.56e-01,
694,1.20e-02,-8.00e-03,
695,-1.60e-02,1.20e-02,
696,1.20e-02,-8.00e-03,
697,-1.60e-02,1.40e-02,
698,1.20e-02,-8.00e-03,
699,-1.60e-02,1.20e-02,
700,1.20e-02,-8.00e-03,
701,-1.60e-02,1.40e-02,
702,-1.20e-02,-8.00e-03,
703,1.20e-02,1.40e-02,
704,1.20e-02,-8.00e-03,
705,-1.60e-02,1.40e-02,
706,1.20e-02,-8.00e-03,
707,-1.60e-02,1.20e-02,
708,1.20e-02,1.20e-02,
709,-1.60e-02,-8.00e-03,
710,-1.60e-02,-8.00e-03,
711,1.20e-02,1.40e-02,
712,1.20e-02,1.40e-02,
713,-1.60e-02,-1.00e-02,
714,-1.60e-02,1.40e-02,
715,1.20e-02,-8.00e-03,
716,1.20e-02,1.20e-02,
717,-1.60e-02,-8.00e-03,
718,-3.72e-01,-2.54e-01,
719,3.12e-01,2.56e-01,
720,1.20e-02,1.20e-02,
721,-1.60e-02,-8.00e-03,
722,1.20e-02,-8.00e-03,
723,-1.60e-02,1.40e-02,
724,1.20e-02,1.20e-02,
725,-1.60e-02,-8.00e-03,
726,1.20e-02,-8.00e-03,
727,-1.60e-02,1.40e-02,
728,-1.60e-02,1.20e-02,
729,1.20e-02,-8.00e-03,
730,-1.60e-02,1.20e-02,
731,1.20e-02,-1.00e-02,
732,1.20e-02,1.20e-02,
733,-1.60e-02,-1.00e-02,
734,1.20e-02,-8.00e-03,
735,-1.60e-02,1.40e-02,
736,1.20e-02,1.20e-02,
737,-1.60e-02,-1.00e-02,
738,1.20e-02,1.40e-02,
739,-1.60e-02,-8.00e-03,
740,1.52e-01,2.48e-01,
741,-1.24e-01,-2.26e-01,
742,1.20e-02,-8.00e-03,
743,-1.60e-02,1.40e-02,
744,1.20e-02,-8.00e-03,
745,-1.60e-02,1.40e-02,
746,-1.60e-02,-8.00e-03,
747,1.20e-02,1.40e-02,
748,1.20e-02,-8.00e-03,
749,-1.60e-02,1.40e-02,
750,1.20e-02,-8.00e-03,
751,-1.60e-02,1.40e-02,
752,-1.60e-02,1.20e-02,
753,1.20e-02,-8.00e-03,
754,-1.60e-02,1.40e-02,
755,1.20e-02,-8.00e-03,
756,1.20e-02,1.20e-02,
757,-1.60e-02,-1.00e-02,
758,1.20e-02,1.20e-02,
759,-1.60e-02,-1.00e-02,
760,-1.60e-02,-8.00e-03,
761,1.20e-02,1.20e-02,
762,-1.60e-02,-8.00e-03,
763,1.20e-02,1.40e-02,
764,1.20e-02,-8.00e-03,
765,-1.60e-02,1.40e-02,
766,1.20e-02,-3.40e-02,
767,-1.60e-02,1.60e-02,
768,2.64e-01,2.22e-01,
769,-2.88e-01,-2.54e-01,
770,1.20e-02,-8.00e-03,
771,-1.60e-02,1.40e-02,
772,1.20e-02,-8.00e-03,
773,-1.60e-02,1.40e-02,
774,1.20e-02,-8.00e-03,
775,-1.60e-02,1.40e-02,
776,1.20e-02,1.40e-02,
777,-1.60e-02,-1.00e-02,
778,1.20e-02,-8.00e-03,
779,-1.60e-02,1.40e-02,
780,1.20e-02,-8.00e-03,
781,-1.60e-02,1.20e-02,
782,1.20e-02,1.20e-02,
783,-1.60e-02,-8.00e-03,
784,1.20e-02,-8.00e-03,
785,-1.60e-02,1.20e-02,
786,-4.00e-02,-7.60e-02,
787,8.40e-02,6.40e-02,
788,1.20e-02,1.20e-02,
789,-1.60e-02,-1.00e-02,
790,-1.60e-02,1.20e-02,
791,1.20e-02,-1.00e-02,
792,1.20e-02,-8.00e-03,
793,-1.60e-02,1.40e-02,
794,1.20e-02,1.20e-02,
795,-1.60e-02,-8.00e-03,
796,1.20e-02,-8.00e-03,
797,-1.60e-02,1.40e-02,
798,1.20e-02,-8.00e-03,
799,-1.60e-02,1.40e-02,
800,1.20e-02,-8.00e-03,
801,-1.60e-02,1.20e-02,
802,1.20e-02,-8.00e-03,
803,-1.60e-02,1.40e-02,
804,1.20e-02,-8.00e-03,
805,-1.60e-02,1.40e-02,
806,1.20e-02,-8.00e-03,
807,-1.60e-02,1.40e-02,
808,-1.20e-02,-8.00e-03,
809,1.20e-02,1.40e-02,
810,1.20e-02,-1.00e-02,
811,-1.60e-02,1.40e-02,
812,-1.60e-02,1.40e-02,
813,1.20e-02,-1.00e-02,
814,-1.60e-02,-8.00e-03,
815,3.16e-01,1.40e-02,
816,-3.92e-01,2.56e-01,
817,4.72e-01,-6.20e-02,
818,1.20e-02,1.40e-02,
819,-1.60e-02,-8.00e-03,
820,1.20e-02,-8.00e-03,
821,-1.60e-02,1.20e-02,
822,1.20e-02,-1.00e-02,
823,-1.60e-02,1.40e-02,
824,1.20e-02,1.40e-02,
825,-1.60e-02,-8.00e-03,
826,1.20e-02,1.40e-02,
827,-1.60e-02,-1.00e-02,
828,-1.60e-02,1.20e-02,
829,1.20e-02,-8.00e-03,
830,1.20e-02,-8.00e-03,
831,-1.20e-02,1.40e-02,
832,1.20e-02,-8.00e-03,
833,-1.60e-02,1.40e-02,
