Motor_Data/MOTOR_3_ON/time domain/NewFile56.csv

X,CH1,CH2,Start,Increment,
Sequence,Volt,Volt,-3.000000e-02,5.000000e-05
0,-1.20e-02,1.40e-02,
1,1.20e-02,-8.00e-03,
2,1.20e-02,-8.00e-03,
3,-1.60e-02,1.40e-02,
4,1.16e-01,-1.44e-01,
5,-1.24e-01,1.84e-01,
6,1.20e-02,-8.00e-03,
7,-1.60e-02,1.40e-02,
8,-1.20e-02,-8.00e-03,
9,1.20e-02,1.40e-02,
10,-1.20e-02,-8.00e-03,
11,1.20e-02,1.40e-02,
12,-1.20e-02,1.40e-02,
13,1.20e-02,-1.00e-02,
14,-1.20e-02,-8.00e-03,
15,1.20e-02,1.20e-02,
16,1.20e-02,-8.00e-03,
17,-1.60e-02,1.20e-02,
18,-1.20e-02,-8.00e-03,
19,1.20e-02,1.40e-02,
20,-1.20e-02,-8.00e-03,
21,1.20e-02,1.40e-02,
22,1.20e-02,-8.00e-03,
23,-1.60e-02,1.20e-02,
24,-1.20e-02,-8.00e-03,
25,1.20e-02,1.40e-02,
26,-1.20e-02,-8.00e-03,
27,1.20e-02,1.40e-02,
28,1.20e-02,1.40e-02,
29,-1.60e-02,-8.00e-03,
30,-1.20e-02,1.40e-02,
31,1.20e-02,-8.00e-03,
32,1.44e-01,1.92e-01,
33,-1.96e-01,-1.98e-01,
34,-1.20e-02,-8.00e-03,
35,1.20e-02,1.40e-02,
36,1.20e-02,1.20e-02,
37,-1.60e-02,-1.00e-02,
38,1.20e-02,-8.00e-03,
39,-1.60e-02,1.40e-02,
40,1.20e-02,-8.00e-03,
41,-1.60e-02,1.40e-02,
42,-1.20e-02,1.40e-02,
43,1.20e-02,-8.00e-03,
44,-1.20e-02,1.40e-02,
45,1.20e-02,-8.00e-03,
46,-1.20e-02,1.20e-02,
47,1.20e-02,-8.00e-03,
48,-1.20e-02,-8.00e-03,
49,1.20e-02,1.40e-02,
50,6.80e-02,1.04e-01,
51,-8.80e-02,-7.20e-02,
52,-1.20e-02,-8.00e-03,
53,1.20e-02,1.40e-02,
54,1.20e-02,1.20e-02,
55,-1.60e-02,-8.00e-03,
56,-1.60e-02,1.20e-02,
57,1.20e-02,-8.00e-03,
58,-1.20e-02,1.40e-02,
59,1.20e-02,-1.00e-02,
60,-1.20e-02,-8.00e-03,
61,1.20e-02,1.40e-02,
62,-1.20e-02,1.40e-02,
63,1.20e-02,-8.00e-03,
64,-1.20e-02,1.40e-02,
65,1.20e-02,-8.00e-03,
66,-1.60e-02,-8.00e-03,
67,1.20e-02,1.40e-02,
68,1.20e-02,1.40e-02,
69,-1.60e-02,-1.00e-02,
70,-1.20e-02,1.40e-02,
71,1.20e-02,-8.00e-03,
72,-1.20e-02,-8.00e-03,
73,1.20e-02,1.40e-02,
74,1.20e-02,1.40e-02,
75,-1.60e-02,-8.00e-03,
76,-1.20e-02,-8.00e-03,
77,1.20e-02,3.80e-02,
78,-8.00e-02,1.20e-01,
79,4.80e-02,-5.60e-02,
80,-3.36e-01,2.56e-01,
81,4.04e-01,-2.54e-01,
82,-1.60e-02,-8.00e-03,
83,1.60e-02,1.40e-02,
84,-1.20e-02,1.40e-02,
85,1.20e-02,-8.00e-03,
86,-1.60e-02,-8.00e-03,
87,1.20e-02,1.40e-02,
88,-1.20e-02,-8.00e-03,
89,1.20e-02,1.40e-02,
90,-1.20e-02,-8.00e-03,
91,1.20e-02,1.40e-02,
92,1.20e-02,-8.00e-03,
93,-1.60e-02,1.40e-02,
94,-1.60e-02,-8.00e-03,
95,1.20e-02,1.40e-02,
96,-1.60e-02,-8.00e-03,
97,1.20e-02,1.40e-02,
98,-9.20e-02,2.56e-01,
99,1.12e-01,-1.72e-01,
100,-1.20e-02,-8.00e-03,
101,1.20e-02,1.40e-02,
102,1.20e-02,1.40e-02,
103,-1.60e-02,-1.00e-02,
104,-1.20e-02,-8.00e-03,
105,1.20e-02,1.40e-02,
106,1.20e-02,1.40e-02,
107,-1.60e-02,-1.20e-02,
108,1.20e-02,-8.00e-03,
109,-1.60e-02,1.40e-02,
110,-1.20e-02,-8.00e-03,
111,1.20e-02,1.40e-02,
112,1.20e-02,-1.00e-02,
113,-1.60e-02,1.40e-02,
114,1.20e-02,-8.00e-03,
115,-1.60e-02,1.40e-02,
116,-1.20e-02,1.20e-02,
117,1.20e-02,-1.00e-02,
118,1.20e-02,-8.00e-03,
119,-1.60e-02,1.40e-02,
120,-1.20e-02,1.20e-02,
121,1.20e-02,-8.00e-03,
122,1.20e-02,-8.00e-03,
123,-1.60e-02,1.40e-02,
124,-4.00e-01,-2.32e-01,
125,2.88e-01,2.56e-01,
126,1.20e-02,-8.00e-03,
127,-1.60e-02,1.40e-02,
128,-1.60e-02,-1.00e-02,
129,1.20e-02,1.60e-02,
130,-1.20e-02,-1.00e-02,
131,1.20e-02,1.40e-02,
132,1.20e-02,-8.00e-03,
133,-1.60e-02,1.40e-02,
134,1.20e-02,-8.00e-03,
135,-1.60e-02,1.40e-02,
136,-1.20e-02,-8.00e-03,
137,1.20e-02,1.40e-02,
138,1.20e-02,1.40e-02,
139,-1.60e-02,-1.00e-02,
140,-1.60e-02,-8.00e-03,
141,1.20e-02,1.40e-02,
142,-1.60e-02,1.40e-02,
143,1.20e-02,-1.00e-02,
144,1.20e-02,1.40e-02,
145,-1.60e-02,-1.00e-02,
146,-1.60e-02,-2.48e-01,
147,2.80e-01,2.56e-01,
148,1.20e-02,-8.00e-03,
149,-1.60e-02,1.20e-02,
150,1.20e-02,-8.00e-03,
151,-1.20e-02,1.40e-02,
152,-1.20e-02,1.40e-02,
153,1.20e-02,-1.00e-02,
154,8.00e-03,-1.00e-02,
155,-1.60e-02,1.40e-02,
156,1.20e-02,-8.00e-03,
157,-1.60e-02,1.40e-02,
158,-1.60e-02,-8.00e-03,
159,1.20e-02,1.40e-02,
160,-1.20e-02,-8.00e-03,
161,1.20e-02,1.40e-02,
162,1.20e-02,-1.00e-02,
163,-1.60e-02,1.40e-02,
164,1.20e-02,-8.00e-03,
165,-1.60e-02,1.40e-02,
166,1.20e-02,-8.00e-03,
167,-1.60e-02,1.40e-02,
168,1.20e-02,1.40e-02,
169,-1.60e-02,-1.00e-02,
170,1.20e-02,-8.00e-03,
171,-1.60e-02,1.20e-02,
172,1.20e-02,1.20e-02,
173,-1.60e-02,-8.00e-03,
174,1.68e-01,1.42e-01,
175,-2.16e-01,-1.14e-01,
176,-1.20e-02,1.20e-02,
177,1.20e-02,-1.00e-02,
178,8.00e-03,1.20e-02,
179,-1.20e-02,-1.00e-02,
180,-1.60e-02,1.40e-02,
181,1.20e-02,-1.00e-02,
182,-1.20e-02,1.40e-02,
183,1.20e-02,-1.00e-02,
184,1.20e-02,1.20e-02,
185,-1.60e-02,-8.00e-03,
186,1.20e-02,1.20e-02,
187,-1.60e-02,-1.00e-02,
188,1.20e-02,-8.00e-03,
189,-1.60e-02,1.40e-02,
190,-1.20e-02,1.20e-02,
191,1.20e-02,-8.00e-03,
192,3.60e-02,-5.00e-02,
193,-7.60e-02,8.60e-02,
194,-1.20e-02,-8.00e-03,
195,1.20e-02,1.40e-02,
196,1.20e-02,1.40e-02,
197,-1.60e-02,-1.00e-02,
198,-1.20e-02,-8.00e-03,
199,1.20e-02,1.40e-02,
200,1.20e-02,1.40e-02,
201,-1.60e-02,-8.00e-03,
202,1.20e-02,1.20e-02,
203,-1.60e-02,-8.00e-03,
204,-1.20e-02,-8.00e-03,
205,1.20e-02,1.20e-02,
206,1.20e-02,-8.00e-03,
207,-1.60e-02,1.40e-02,
208,-1.20e-02,-8.00e-03,
209,1.20e-02,1.40e-02,
210,1.20e-02,-8.00e-03,
211,-1.60e-02,1.40e-02,
212,-1.60e-02,1.20e-02,
213,1.20e-02,-1.00e-02,
214,8.00e-03,-1.00e-02,
215,-1.60e-02,1.40e-02,
216,1.20e-02,1.20e-02,
217,-1.60e-02,-8.00e-03,
218,-3.60e-02,4.60e-02,
219,3.20e-02,-3.40e-02,
220,-4.00e-01,2.56e-01,
221,3.64e-01,-2.54e-01,
222,1.48e-01,-2.00e-01,
223,-1.08e-01,1.92e-01,
224,-1.60e-02,1.40e-02,
225,1.20e-02,-8.00e-03,
226,-1.20e-02,-8.00e-03,
227,1.20e-02,1.40e-02,
228,1.20e-02,-8.00e-03,
229,-1.60e-02,1.40e-02,
230,-1.20e-02,-8.00e-03,
231,1.20e-02,1.40e-02,
232,-1.20e-02,-8.00e-03,
233,1.20e-02,1.40e-02,
234,-1.20e-02,-8.00e-03,
235,1.20e-02,1.40e-02,
236,-1.20e-02,1.20e-02,
237,1.20e-02,-8.00e-03,
238,-1.60e-02,-8.00e-03,
239,1.20e-02,1.40e-02,
240,1.48e-01,1.86e-01,
241,-1.64e-01,-2.12e-01,
242,1.20e-02,-8.00e-03,
243,-1.60e-02,1.40e-02,
244,-1.20e-02,1.40e-02,
245,1.20e-02,-8.00e-03,
246,1.20e-02,-8.00e-03,
247,-1.60e-02,1.40e-02,
248,1.20e-02,-8.00e-03,
249,-1.20e-02,1.40e-02,
250,1.20e-02,1.40e-02,
251,-1.60e-02,-1.00e-02,
252,-1.20e-02,1.40e-02,
253,1.20e-02,-8.00e-03,
254,-1.20e-02,1.40e-02,
255,1.20e-02,-8.00e-03,
256,1.20e-02,-8.00e-03,
257,-1.60e-02,1.40e-02,
258,-1.20e-02,-8.00e-03,
259,1.20e-02,1.40e-02,
260,-1.60e-02,-8.00e-03,
261,1.20e-02,1.40e-02,
262,-1.20e-02,-8.00e-03,
263,1.20e-02,1.40e-02,
264,-1.20e-02,-8.00e-03,
265,1.20e-02,1.40e-02,
266,-2.80e-01,2.56e-01,
267,2.56e-01,-2.54e-01,
268,1.20e-02,-8.00e-03,
269,-1.60e-02,1.20e-02,
270,-1.20e-02,-8.00e-03,
271,1.20e-02,1.20e-02,
272,1.20e-02,-8.00e-03,
273,-1.60e-02,1.20e-02,
274,-1.20e-02,-8.00e-03,
275,1.20e-02,1.20e-02,
276,1.20e-02,-8.00e-03,
277,-1.60e-02,1.40e-02,
278,-1.20e-02,-8.00e-03,
279,1.20e-02,1.40e-02,
280,1.20e-02,-8.00e-03,
281,-1.60e-02,1.40e-02,
282,1.20e-02,1.40e-02,
283,-1.60e-02,-1.00e-02,
284,1.20e-02,1.40e-02,
285,-1.60e-02,-1.00e-02,
286,1.20e-02,1.40e-02,
287,-1.60e-02,-1.00e-02,
288,-1.96e-01,-2.04e-01,
289,1.76e-01,1.76e-01,
290,-1.60e-02,1.40e-02,
291,1.20e-02,-1.00e-02,
292,-1.20e-02,-8.00e-03,
293,1.20e-02,1.40e-02,
294,8.00e-03,-8.00e-03,
295,-1.20e-02,1.20e-02,
296,-1.20e-02,-8.00e-03,
297,1.20e-02,1.40e-02,
298,-1.20e-02,1.40e-02,
299,1.20e-02,-1.00e-02,
300,-1.20e-02,-8.00e-03,
301,1.20e-02,1.40e-02,
302,1.20e-02,-8.00e-03,
303,-1.60e-02,1.40e-02,
304,-1.20e-02,-8.00e-03,
305,1.20e-02,1.40e-02,
306,1.20e-02,-8.00e-03,
307,-1.60e-02,1.40e-02,
308,-1.20e-02,1.40e-02,
309,1.20e-02,-1.00e-02,
310,1.20e-02,-8.00e-03,
311,-1.60e-02,1.40e-02,
312,-1.20e-02,-8.00e-03,
313,1.20e-02,1.40e-02,
314,-1.20e-02,-8.00e-03,
315,1.20e-02,1.40e-02,
316,1.96e-01,-1.40e-01,
317,-1.92e-01,1.30e-01,
318,-1.20e-02,1.40e-02,
319,1.20e-02,-8.00e-03,
320,-1.20e-02,-8.00e-03,
321,1.20e-02,1.40e-02,
322,1.20e-02,-8.00e-03,
323,-1.60e-02,1.40e-02,
324,-1.20e-02,-8.00e-03,
325,1.20e-02,1.40e-02,
326,1.20e-02,-1.00e-02,
327,-1.60e-02,1.40e-02,
328,-1.20e-02,-8.00e-03,
329,1.20e-02,1.40e-02,
330,-1.20e-02,1.40e-02,
331,1.20e-02,-8.00e-03,
332,-5.20e-02,4.20e-02,
333,6.80e-02,-1.60e-02,
334,-8.80e-02,4.40e-02,
335,6.40e-02,-8.80e-02,
336,1.20e-02,-1.00e-02,
337,-1.60e-02,1.40e-02,
338,8.00e-03,1.40e-02,
339,-1.20e-02,-8.00e-03,
340,1.20e-02,-8.00e-03,
341,-1.60e-02,1.40e-02,
342,-1.20e-02,1.40e-02,
343,1.20e-02,-8.00e-03,
344,1.20e-02,-8.00e-03,
345,-1.60e-02,1.40e-02,
346,-1.20e-02,1.40e-02,
347,1.20e-02,-1.00e-02,
348,-1.20e-02,-1.00e-02,
349,1.20e-02,1.40e-02,
350,-1.20e-02,1.20e-02,
351,1.20e-02,-1.00e-02,
352,-1.20e-02,1.20e-02,
353,1.20e-02,-8.00e-03,
354,-1.20e-02,-8.00e-03,
355,1.20e-02,1.40e-02,
356,-1.20e-02,1.40e-02,
357,1.20e-02,-8.00e-03,
358,-1.20e-02,-8.00e-03,
359,1.20e-02,1.40e-02,
360,-3.60e-02,-4.20e-02,
361,4.40e-02,1.80e-02,
362,3.24e-01,2.56e-01,
363,-3.48e-01,-2.54e-01,
364,9.20e-02,-9.20e-02,
365,-2.00e-02,4.60e-02,
366,-1.20e-02,1.40e-02,
367,1.20e-02,-8.00e-03,
368,-1.20e-02,1.20e-02,
369,1.20e-02,-8.00e-03,
370,1.20e-02,-8.00e-03,
371,-1.20e-02,1.40e-02,
372,1.20e-02,1.40e-02,
373,-1.60e-02,-8.00e-03,
374,1.20e-02,-1.00e-02,
375,-1.60e-02,1.40e-02,
376,1.20e-02,-8.00e-03,
377,-1.60e-02,1.40e-02,
378,-1.20e-02,1.20e-02,
379,1.20e-02,-1.00e-02,
380,-1.20e-02,-8.00e-03,
381,1.20e-02,1.40e-02,
382,1.48e-01,1.60e-01,
383,-1.96e-01,-2.06e-01,
384,-1.20e-02,-8.00e-03,
385,1.20e-02,1.40e-02,
386,-1.20e-02,-8.00e-03,
387,1.20e-02,1.40e-02,
388,1.20e-02,-8.00e-03,
389,-1.20e-02,1.40e-02,
390,1.20e-02,-8.00e-03,
391,-1.60e-02,1.40e-02,
392,1.20e-02,-8.00e-03,
393,-1.60e-02,1.40e-02,
394,-1.20e-02,-8.00e-03,
395,1.20e-02,1.40e-02,
396,-1.20e-02,-8.00e-03,
397,1.20e-02,1.40e-02,
398,-1.20e-02,-8.00e-03,
399,1.20e-02,1.40e-02,
400,-1.20e-02,-8.00e-03,
401,1.20e-02,1.20e-02,
402,1.20e-02,1.60e-02,
403,-1.60e-02,-1.00e-02,
404,1.20e-02,-8.00e-03,
405,-1.60e-02,1.40e-02,
406,-1.20e-02,-8.00e-03,
407,1.20e-02,1.40e-02,
408,-3.92e-01,-2.54e-01,
409,3.20e-01,2.56e-01,
410,1.20e-02,-8.00e-03,
411,-1.20e-02,1.20e-02,
412,-1.20e-02,1.40e-02,
413,1.20e-02,-1.00e-02,
414,-1.20e-02,-8.00e-03,
415,1.20e-02,1.40e-02,
416,-1.20e-02,-1.00e-02,
417,1.20e-02,1.20e-02,
418,1.20e-02,-8.00e-03,
419,-1.60e-02,1.40e-02,
420,1.20e-02,-8.00e-03,
421,-1.60e-02,1.40e-02,
422,-1.20e-02,1.20e-02,
423,1.20e-02,-1.00e-02,
424,-1.20e-02,-8.00e-03,
425,1.20e-02,1.20e-02,
426,1.20e-02,-8.00e-03,
427,-1.20e-02,1.40e-02,
428,1.20e-02,-8.00e-03,
429,-1.60e-02,1.40e-02,
430,-1.04e-01,2.56e-01,
431,2.32e-01,-1.70e-01,
432,-1.20e-02,-8.00e-03,
433,1.20e-02,1.40e-02,
434,-1.20e-02,1.60e-02,
435,1.20e-02,-8.00e-03,
436,-1.20e-02,-1.00e-02,
437,1.20e-02,1.40e-02,
438,1.20e-02,1.40e-02,
439,-1.60e-02,-1.00e-02,
440,1.20e-02,1.40e-02,
441,-1.60e-02,-8.00e-03,
442,1.20e-02,-1.00e-02,
443,-1.60e-02,1.40e-02,
444,-1.20e-02,-8.00e-03,
445,1.20e-02,1.40e-02,
446,-1.20e-02,1.20e-02,
447,1.20e-02,-1.00e-02,
448,1.20e-02,-8.00e-03,
449,-1.60e-02,1.40e-02,
450,1.20e-02,-8.00e-03,
451,-1.60e-02,1.40e-02,
452,-1.20e-02,-8.00e-03,
453,1.20e-02,1.60e-02,
454,-1.20e-02,-8.00e-03,
455,1.20e-02,1.40e-02,
456,1.20e-02,-8.00e-03,
457,-1.60e-02,1.40e-02,
458,-2.04e-01,1.78e-01,
459,1.20e-01,-2.12e-01,
460,1.20e-02,1.40e-02,
461,-1.20e-02,-1.00e-02,
462,1.20e-02,-1.00e-02,
463,-1.60e-02,1.40e-02,
464,1.20e-02,-8.00e-03,
465,-1.60e-02,1.40e-02,
466,1.20e-02,-8.00e-03,
467,-1.60e-02,1.40e-02,
468,-1.20e-02,-8.00e-03,
469,1.20e-02,1.20e-02,
470,1.20e-02,-1.00e-02,
471,-1.60e-02,1.40e-02,
472,1.20e-02,-8.00e-03,
473,-1.60e-02,1.40e-02,
474,-3.60e-02,-4.00e-02,
475,4.40e-02,6.40e-02,
476,1.20e-02,-1.00e-02,
477,-1.60e-02,1.40e-02,
478,-1.60e-02,-8.00e-03,
479,1.20e-02,1.20e-02,
480,1.20e-02,-1.00e-02,
481,-1.60e-02,1.40e-02,
482,1.20e-02,1.20e-02,
483,-1.60e-02,-1.00e-02,
484,-1.20e-02,1.20e-02,
485,1.20e-02,-1.00e-02,
486,-1.60e-02,1.20e-02,
487,1.20e-02,-1.00e-02,
488,-1.20e-02,-8.00e-03,
489,1.20e-02,1.40e-02,
490,-1.20e-02,-8.00e-03,
491,1.20e-02,1.20e-02,
492,-1.20e-02,-8.00e-03,
493,1.20e-02,1.40e-02,
494,1.20e-02,-1.00e-02,
495,-1.60e-02,1.40e-02,
496,-1.20e-02,-8.00e-03,
497,1.20e-02,1.40e-02,
498,-1.20e-02,-1.00e-02,
499,1.20e-02,1.40e-02,
500,1.20e-02,1.40e-02,
501,-1.20e-02,-1.00e-02,
502,-3.20e-02,-2.60e-02,
503,2.40e-02,5.60e-02,
504,-3.76e-01,-2.54e-01,
505,2.76e-01,2.56e-01,
506,-1.20e-02,-1.00e-02,
507,1.20e-02,1.40e-02,
508,-1.20e-02,-1.00e-02,
509,1.20e-02,1.40e-02,
510,-1.20e-02,-8.00e-03,
511,1.20e-02,1.40e-02,
512,-1.20e-02,-1.00e-02,
513,1.20e-02,1.40e-02,
514,-1.20e-02,1.20e-02,
515,1.20e-02,-8.00e-03,
516,-1.20e-02,-1.00e-02,
517,1.20e-02,1.40e-02,
518,1.20e-02,-8.00e-03,
519,-1.60e-02,1.40e-02,
520,1.20e-02,-8.00e-03,
521,-1.60e-02,1.40e-02,
522,1.20e-02,-8.00e-03,
523,-1.60e-02,1.20e-02,
524,2.08e-01,-2.54e-01,
525,-2.20e-01,2.56e-01,
526,-1.60e-02,1.20e-02,
527,1.20e-02,-8.00e-03,
528,-1.20e-02,1.40e-02,
529,1.20e-02,-1.00e-02,
530,-1.20e-02,-8.00e-03,
531,1.20e-02,1.40e-02,
532,-1.20e-02,-8.00e-03,
533,1.20e-02,1.40e-02,
534,-1.20e-02,1.40e-02,
535,1.20e-02,-8.00e-03,
536,-1.20e-02,1.40e-02,
537,1.20e-02,-1.00e-02,
538,-1.20e-02,1.40e-02,
539,1.20e-02,-8.00e-03,
540,1.20e-02,-8.00e-03,
541,-1.20e-02,1.20e-02,
542,-1.20e-02,-8.00e-03,
543,1.20e-02,1.40e-02,
544,-1.20e-02,-8.00e-03,
545,1.20e-02,1.40e-02,
546,-1.20e-02,1.40e-02,
547,1.20e-02,-8.00e-03,
548,-1.20e-02,-8.00e-03,
549,1.20e-02,1.60e-02,
550,2.84e-01,-2.54e-01,
551,-1.84e-01,2.56e-01,
552,-1.20e-02,1.40e-02,
553,1.20e-02,-8.00e-03,
554,1.20e-02,-8.00e-03,
555,-1.20e-02,1.40e-02,
556,1.20e-02,-8.00e-03,
557,-1.60e-02,1.20e-02,
558,-1.20e-02,1.20e-02,
559,1.20e-02,-1.00e-02,
560,1.20e-02,1.20e-02,
561,-1.60e-02,-1.00e-02,
562,-1.20e-02,-1.00e-02,
563,1.20e-02,1.40e-02,
564,-1.60e-02,1.20e-02,
565,1.20e-02,-1.00e-02,
566,1.20e-02,1.40e-02,
567,-1.60e-02,-1.00e-02,
568,-1.60e-02,-8.00e-03,
569,1.20e-02,1.20e-02,
570,-1.20e-02,1.20e-02,
571,1.20e-02,-1.00e-02,
572,-1.52e-01,-2.30e-01,
573,2.32e-01,2.08e-01,
574,-1.20e-02,-1.00e-02,
575,1.20e-02,1.40e-02,
576,-1.60e-02,1.40e-02,
577,1.20e-02,-1.00e-02,
578,-1.20e-02,1.20e-02,
579,1.20e-02,-1.00e-02,
580,-1.20e-02,1.20e-02,
581,1.20e-02,-8.00e-03,
582,-1.60e-02,-8.00e-03,
583,1.20e-02,1.40e-02,
584,-1.20e-02,-8.00e-03,
585,1.20e-02,1.40e-02,
586,-1.20e-02,-8.00e-03,
587,1.20e-02,1.40e-02,
588,-1.20e-02,1.40e-02,
589,1.20e-02,-8.00e-03,
590,-1.20e-02,1.40e-02,
591,1.20e-02,-1.00e-02,
592,1.20e-02,-8.00e-03,
593,-1.60e-02,1.40e-02,
594,-1.20e-02,1.40e-02,
595,1.20e-02,-1.00e-02,
596,1.20e-02,-1.00e-02,
597,-1.60e-02,1.40e-02,
598,1.40e-01,-1.10e-01,
599,-2.04e-01,2.38e-01,
600,2.16e-01,1.28e-01,
601,-1.72e-01,-1.44e-01,
602,-1.20e-02,1.20e-02,
603,1.20e-02,-1.00e-02,
604,1.20e-02,-1.00e-02,
605,-1.60e-02,1.20e-02,
606,1.20e-02,-1.00e-02,
607,-1.60e-02,1.20e-02,
608,-1.60e-02,1.20e-02,
609,1.20e-02,-1.00e-02,
610,1.20e-02,1.20e-02,
611,-1.60e-02,-1.00e-02,
612,-1.60e-02,1.20e-02,
613,1.20e-02,-1.00e-02,
614,1.20e-02,1.20e-02,
615,-1.60e-02,-1.00e-02,
616,1.04e-01,5.80e-02,
617,-8.80e-02,-7.60e-02,
618,1.20e-02,1.40e-02,
619,-1.60e-02,-1.00e-02,
620,1.20e-02,-1.00e-02,
621,-1.60e-02,1.40e-02,
622,-1.20e-02,1.40e-02,
623,1.20e-02,-1.00e-02,
624,-1.20e-02,-1.00e-02,
625,1.20e-02,1.20e-02,
626,1.20e-02,1.40e-02,
627,-1.60e-02,-1.00e-02,
628,1.20e-02,-1.00e-02,
629,-1.60e-02,1.40e-02,
630,1.20e-02,-8.00e-03,
631,-1.60e-02,1.20e-02,
632,-1.60e-02,-1.00e-02,
633,1.20e-02,1.20e-02,
634,-1.20e-02,-1.00e-02,
635,1.20e-02,1.20e-02,
636,1.20e-02,1.20e-02,
637,-1.60e-02,-1.00e-02,
638,1.20e-02,1.40e-02,
639,-1.60e-02,-1.00e-02,
640,1.20e-02,-8.00e-03,
641,-1.60e-02,1.40e-02,
642,-1.20e-02,-8.00e-03,
643,1.20e-02,1.20e-02,
644,2.40e-02,1.40e-02,
645,-2.00e-02,-4.60e-02,
646,4.04e-01,2.56e-01,
647,-4.88e-01,-2.54e-01,
648,-1.60e-02,1.40e-02,
649,1.20e-02,-1.00e-02,
650,1.20e-02,-1.00e-02,
651,-1.60e-02,1.20e-02,
652,-1.20e-02,1.20e-02,
653,1.20e-02,-1.00e-02,
654,1.20e-02,-8.00e-03,
655,-1.60e-02,1.40e-02,
656,-1.60e-02,1.40e-02,
657,1.20e-02,-1.00e-02,
658,-1.60e-02,-8.00e-03,
659,1.20e-02,1.40e-02,
660,1.20e-02,1.40e-02,
661,-1.20e-02,-1.00e-02,
662,-1.60e-02,-8.00e-03,
663,1.20e-02,1.40e-02,
664,1.20e-02,-8.00e-03,
665,-1.60e-02,1.40e-02,
666,1.32e-01,2.56e-01,
667,-2.40e-01,-2.54e-01,
668,1.20e-02,-8.00e-03,
669,-1.60e-02,1.40e-02,
670,-1.20e-02,-8.00e-03,
671,1.20e-02,1.40e-02,
672,1.20e-02,-8.00e-03,
673,-1.60e-02,1.40e-02,
674,1.20e-02,-1.00e-02,
675,-1.60e-02,1.40e-02,
676,1.20e-02,-8.00e-03,
677,-1.60e-02,1.40e-02,
678,-1.20e-02,1.40e-02,
679,1.20e-02,-1.00e-02,
680,-1.20e-02,1.40e-02,
681,1.20e-02,-8.00e-03,
682,1.20e-02,1.20e-02,
683,-1.60e-02,-8.00e-03,
684,1.20e-02,1.40e-02,
685,-1.60e-02,-8.00e-03,
686,1.20e-02,-8.00e-03,
687,-1.60e-02,1.40e-02,
688,-1.20e-02,-1.00e-02,
689,1.20e-02,1.40e-02,
690,-1.20e-02,1.40e-02,
691,1.20e-02,-8.00e-03,
692,3.48e-01,-2.54e-01,
693,-3.88e-01,2.56e-01,
694,-1.20e-02,-8.00e-03,
695,1.20e-02,1.40e-02,
696,1.20e-02,-8.00e-03,
697,-1.60e-02,1.40e-02,
698,-1.60e-02,1.40e-02,
699,1.20e-02,-8.00e-03,
700,1.20e-02,1.40e-02,
701,-1.60e-02,-8.00e-03,
702,-1.20e-02,-8.00e-03,
703,1.20e-02,1.40e-02,
704,-1.20e-02,-8.00e-03,
705,1.20e-02,1.40e-02,
706,-1.60e-02,-8.00e-03,
707,1.20e-02,1.40e-02,
708,-1.20e-02,-8.00e-03,
709,1.20e-02,1.40e-02,
710,-1.20e-02,-8.00e-03,
711,1.20e-02,1.40e-02,
712,1.20e-02,-8.00e-03,
713,-1.60e-02,1.60e-02,
714,-1.24e-01,2.56e-01,
715,1.64e-01,-2.20e-01,
716,1.20e-02,-8.00e-03,
717,-1.60e-02,1.40e-02,
718,-1.60e-02,1.20e-02,
719,1.20e-02,-1.00e-02,
720,1.20e-02,-8.00e-03,
721,-1.60e-02,1.40e-02,
722,-1.20e-02,-8.00e-03,
723,1.20e-02,1.40e-02,
724,-1.20e-02,-8.00e-03,
725,1.20e-02,1.40e-02,
726,-1.60e-02,-8.00e-03,
727,1.20e-02,1.40e-02,
728,1.20e-02,-8.00e-03,
729,-1.60e-02,1.40e-02,
730,-1.60e-02,1.20e-02,
731,1.20e-02,-8.00e-03,
732,-1.20e-02,-8.00e-03,
733,1.20e-02,1.40e-02,
734,-1.20e-02,1.40e-02,
735,1.20e-02,-8.00e-03,
736,1.20e-02,-8.00e-03,
737,-1.60e-02,1.40e-02,
738,-1.60e-02,1.40e-02,
739,1.20e-02,-1.00e-02,
740,1.40e-01,1.76e-01,
741,-1.84e-01,-1.72e-01,
742,1.08e-01,-1.36e-01,
743,-1.60e-02,1.20e-02,
744,1.20e-02,-8.00e-03,
745,-1.60e-02,1.40e-02,
746,1.20e-02,1.40e-02,
747,-1.60e-02,-1.00e-02,
748,1.20e-02,-8.00e-03,
749,-1.20e-02,1.20e-02,
750,-1.20e-02,-8.00e-03,
751,1.20e-02,1.40e-02,
752,1.20e-02,-8.00e-03,
753,-1.60e-02,1.40e-02,
754,-1.20e-02,-8.00e-03,
755,1.20e-02,1.40e-02,
756,1.20e-02,-8.00e-03,
757,-1.60e-02,1.40e-02,
758,8.00e-02,-5.40e-02,
759,-7.20e-02,8.40e-02,
760,1.20e-02,-8.00e-03,
761,-1.60e-02,1.40e-02,
762,-1.60e-02,-8.00e-03,
763,1.20e-02,1.40e-02,
764,1.20e-02,-8.00e-03,
765,-1.60e-02,1.40e-02,
766,-1.20e-02,1.20e-02,
767,1.20e-02,-8.00e-03,
768,-1.20e-02,1.40e-02,
769,1.20e-02,-8.00e-03,
770,-1.20e-02,1.20e-02,
771,1.20e-02,-1.00e-02,
772,1.20e-02,1.20e-02,
773,-1.60e-02,-8.00e-03,
774,-1.20e-02,1.40e-02,
775,1.20e-02,-8.00e-03,
776,-1.20e-02,1.20e-02,
777,1.20e-02,-8.00e-03,
778,-1.20e-02,-8.00e-03,
779,1.20e-02,1.40e-02,
780,1.20e-02,1.40e-02,
781,-1.20e-02,-1.00e-02,
782,1.20e-02,-1.00e-02,
783,-1.60e-02,1.20e-02,
784,-1.20e-02,-8.00e-03,
785,1.20e-02,1.40e-02,
786,6.80e-02,2.80e-02,
787,-1.60e-02,-8.80e-02,
788,4.72e-01,-2.54e-01,
789,-3.64e-01,2.56e-01,
790,-1.60e-02,-8.00e-03,
791,1.20e-02,1.60e-02,
792,1.20e-02,-8.00e-03,
793,-1.60e-02,1.40e-02,
794,1.20e-02,1.40e-02,
795,-1.60e-02,-8.00e-03,
796,1.20e-02,-8.00e-03,
797,-1.60e-02,1.60e-02,
798,-1.20e-02,-1.00e-02,
799,1.20e-02,1.40e-02,
800,-1.60e-02,1.40e-02,
801,1.20e-02,-1.00e-02,
802,-1.20e-02,-1.00e-02,
803,1.20e-02,1.40e-02,
804,-1.20e-02,-1.00e-02,
805,1.20e-02,1.40e-02,
806,1.20e-02,-8.00e-03,
807,-1.60e-02,1.40e-02,
808,-2.56e-01,-1.72e-01,
809,2.48e-01,2.04e-01,
810,1.20e-02,-1.00e-02,
811,-1.60e-02,1.40e-02,
812,1.20e-02,-8.00e-03,
813,-1.60e-02,1.40e-02,
814,1.20e-02,-8.00e-03,
815,-1.60e-02,1.40e-02,
816,1.20e-02,1.40e-02,
817,-1.60e-02,-8.00e-03,
818,-1.20e-02,1.40e-02,
819,1.20e-02,-1.00e-02,
820,-1.20e-02,-8.00e-03,
821,1.20e-02,1.40e-02,
822,-1.20e-02,1.20e-02,
823,1.20e-02,-1.00e-02,
824,-1.60e-02,1.20e-02,
825,1.20e-02,-8.00e-03,
826,-1.60e-02,-8.00e-03,
827,1.20e-02,1.40e-02,
828,1.20e-02,-8.00e-03,
829,-1.60e-02,1.60e-02,
830,1.20e-02,-8.00e-03,
831,-1.60e-02,1.40e-02,
832,-2.80e-02,-1.00e-02,
833,2.00e-02,6.40e-02,
