Motor_Data/MOTOR_3_ON/time domain/NewFile59(1).csv

X,CH1,CH2,Start,Increment,
Sequence,Volt,Volt,-3.000000e-02,5.000000e-05
0,1.20e-02,-8.00e-03,
1,-1.60e-02,1.40e-02,
2,1.20e-02,-8.00e-03,
3,-1.60e-02,1.40e-02,
4,-5.60e-02,-2.20e-02,
5,5.60e-02,7.40e-02,
6,-1.60e-02,-8.00e-03,
7,1.20e-02,1.40e-02,
8,-1.20e-02,-6.00e-03,
9,1.20e-02,1.40e-02,
10,1.20e-02,-6.00e-03,
11,-1.60e-02,1.60e-02,
12,1.20e-02,-8.00e-03,
13,-1.20e-02,1.40e-02,
14,-1.20e-02,1.40e-02,
15,1.20e-02,-8.00e-03,
16,1.20e-02,1.40e-02,
17,-1.20e-02,-8.00e-03,
18,1.20e-02,-8.00e-03,
19,-1.60e-02,1.40e-02,
20,1.20e-02,-8.00e-03,
21,-1.60e-02,1.40e-02,
22,1.20e-02,1.40e-02,
23,-1.60e-02,-1.00e-02,
24,-1.60e-02,-8.00e-03,
25,1.20e-02,1.40e-02,
26,1.20e-02,-8.00e-03,
27,-1.60e-02,1.40e-02,
28,1.20e-02,-1.20e-02,
29,-1.20e-02,1.40e-02,
30,1.20e-02,-8.00e-03,
31,-1.60e-02,1.40e-02,
32,1.48e-01,5.80e-02,
33,-1.60e-02,-1.40e-02,
34,-2.60e-01,-2.54e-01,
35,2.52e-01,2.56e-01,
36,1.20e-02,-8.00e-03,
37,-1.60e-02,1.40e-02,
38,-1.60e-02,1.40e-02,
39,1.20e-02,-1.00e-02,
40,-1.20e-02,1.20e-02,
41,1.20e-02,-1.00e-02,
42,-1.60e-02,1.40e-02,
43,1.20e-02,-8.00e-03,
44,1.20e-02,-8.00e-03,
45,-1.60e-02,1.40e-02,
46,1.20e-02,-8.00e-03,
47,-1.60e-02,1.40e-02,
48,1.20e-02,-8.00e-03,
49,-1.60e-02,1.40e-02,
50,-1.20e-02,-8.00e-03,
51,1.20e-02,1.40e-02,
52,-1.52e-01,-2.00e-01,
53,1.64e-01,1.12e-01,
54,1.20e-02,-8.00e-03,
55,-1.20e-02,1.40e-02,
56,1.20e-02,1.40e-02,
57,-1.60e-02,-8.00e-03,
58,1.20e-02,-8.00e-03,
59,-1.60e-02,1.40e-02,
60,1.20e-02,-1.00e-02,
61,-1.60e-02,1.40e-02,
62,-1.20e-02,1.40e-02,
63,1.20e-02,-8.00e-03,
64,-1.20e-02,-1.00e-02,
65,1.20e-02,1.40e-02,
66,1.20e-02,1.40e-02,
67,-1.60e-02,-8.00e-03,
68,1.20e-02,-8.00e-03,
69,-1.60e-02,1.40e-02,
70,1.20e-02,-1.00e-02,
71,-1.60e-02,1.40e-02,
72,-1.60e-02,-1.00e-02,
73,1.20e-02,1.40e-02,
74,1.20e-02,-8.00e-03,
75,-1.60e-02,1.40e-02,
76,1.20e-02,1.40e-02,
77,-1.60e-02,-1.00e-02,
78,3.48e-01,-2.54e-01,
79,-3.88e-01,2.56e-01,
80,-1.60e-02,-1.00e-02,
81,1.20e-02,1.40e-02,
82,1.20e-02,-8.00e-03,
83,-1.60e-02,1.40e-02,
84,1.20e-02,1.40e-02,
85,-1.60e-02,-1.00e-02,
86,1.20e-02,1.40e-02,
87,-1.60e-02,-8.00e-03,
88,1.20e-02,1.40e-02,
89,-1.20e-02,-8.00e-03,
90,1.20e-02,1.40e-02,
91,-1.60e-02,-8.00e-03,
92,1.20e-02,1.40e-02,
93,-1.60e-02,-1.00e-02,
94,-1.60e-02,1.60e-02,
95,1.20e-02,-8.00e-03,
96,1.20e-02,1.40e-02,
97,-1.60e-02,-1.00e-02,
98,1.20e-02,-8.00e-03,
99,-1.60e-02,1.40e-02,
100,-1.16e-01,-2.54e-01,
101,1.92e-01,2.56e-01,
102,1.20e-02,-8.00e-03,
103,-1.60e-02,1.40e-02,
104,1.20e-02,-1.00e-02,
105,-1.60e-02,1.40e-02,
106,1.20e-02,1.40e-02,
107,-1.60e-02,-8.00e-03,
108,1.20e-02,-1.00e-02,
109,-1.60e-02,1.40e-02,
110,1.20e-02,1.40e-02,
111,-1.60e-02,-8.00e-03,
112,1.20e-02,-1.00e-02,
113,-1.60e-02,1.40e-02,
114,-1.20e-02,-8.00e-03,
115,1.20e-02,1.40e-02,
116,1.20e-02,-8.00e-03,
117,-1.60e-02,1.40e-02,
118,1.20e-02,-8.00e-03,
119,-1.60e-02,1.40e-02,
120,-1.20e-02,-8.00e-03,
121,1.20e-02,1.40e-02,
122,1.20e-02,-1.00e-02,
123,-1.60e-02,1.40e-02,
124,1.20e-02,-1.00e-02,
125,-1.60e-02,1.40e-02,
126,-1.60e-02,-8.00e-03,
127,1.20e-02,1.40e-02,
128,-4.04e-01,-2.54e-01,
129,3.32e-01,2.56e-01,
130,1.20e-02,-8.00e-03,
131,-1.20e-02,1.40e-02,
132,1.20e-02,1.20e-02,
133,-1.60e-02,-8.00e-03,
134,-1.60e-02,1.40e-02,
135,1.20e-02,-1.00e-02,
136,-1.60e-02,1.40e-02,
137,1.20e-02,-1.00e-02,
138,1.20e-02,1.40e-02,
139,-1.60e-02,-1.00e-02,
140,1.20e-02,1.40e-02,
141,-1.60e-02,-8.00e-03,
142,1.20e-02,-8.00e-03,
143,-1.60e-02,1.40e-02,
144,1.20e-02,-8.00e-03,
145,-1.60e-02,1.40e-02,
146,5.60e-02,4.80e-02,
147,-5.60e-02,-3.40e-02,
148,1.20e-02,1.40e-02,
149,-1.60e-02,-1.00e-02,
150,-1.20e-02,1.40e-02,
151,1.20e-02,-1.20e-02,
152,1.20e-02,-8.00e-03,
153,-1.60e-02,1.40e-02,
154,1.20e-02,-8.00e-03,
155,-1.60e-02,1.20e-02,
156,-1.60e-02,-8.00e-03,
157,1.20e-02,1.40e-02,
158,-1.60e-02,1.40e-02,
159,1.20e-02,-8.00e-03,
160,-1.20e-02,-8.00e-03,
161,1.20e-02,1.40e-02,
162,1.20e-02,1.40e-02,
163,-1.60e-02,-1.00e-02,
164,-1.60e-02,-1.00e-02,
165,1.20e-02,1.40e-02,
166,1.20e-02,-8.00e-03,
167,-1.60e-02,1.40e-02,
168,1.20e-02,-8.00e-03,
169,-1.60e-02,1.40e-02,
170,1.20e-02,1.40e-02,
171,-1.60e-02,-1.00e-02,
172,-1.00e-01,1.04e-01,
173,3.60e-02,-8.40e-02,
174,2.36e-01,-1.00e-01,
175,-1.40e-01,2.20e-02,
176,1.92e-01,2.56e-01,
177,-2.48e-01,-8.00e-03,
178,-1.20e-02,-8.00e-03,
179,1.20e-02,1.40e-02,
180,1.20e-02,1.40e-02,
181,-1.60e-02,-8.00e-03,
182,1.20e-02,-1.00e-02,
183,-1.60e-02,1.40e-02,
184,-1.20e-02,1.20e-02,
185,1.20e-02,-8.00e-03,
186,1.20e-02,-8.00e-03,
187,-1.60e-02,1.40e-02,
188,1.20e-02,-8.00e-03,
189,-1.60e-02,1.40e-02,
190,8.00e-03,1.20e-02,
191,-1.60e-02,-8.00e-03,
192,-1.60e-02,-8.00e-03,
193,1.20e-02,1.20e-02,
194,1.72e-01,-2.54e-01,
195,-1.72e-01,2.38e-01,
196,1.20e-02,-8.00e-03,
197,-1.60e-02,1.40e-02,
198,-1.60e-02,-8.00e-03,
199,1.20e-02,1.40e-02,
200,1.20e-02,-1.00e-02,
201,-1.20e-02,1.40e-02,
202,-1.60e-02,-8.00e-03,
203,1.20e-02,1.40e-02,
204,-1.20e-02,1.40e-02,
205,1.20e-02,-8.00e-03,
206,-1.20e-02,-8.00e-03,
207,1.20e-02,1.40e-02,
208,-1.60e-02,-8.00e-03,
209,1.20e-02,1.40e-02,
210,1.20e-02,-8.00e-03,
211,-1.60e-02,1.40e-02,
212,1.20e-02,-8.00e-03,
213,-1.60e-02,1.40e-02,
214,1.20e-02,1.40e-02,
215,-1.60e-02,-8.00e-03,
216,1.20e-02,1.20e-02,
217,-1.60e-02,-1.00e-02,
218,1.20e-02,-8.00e-03,
219,-1.20e-02,1.40e-02,
220,-3.96e-01,2.56e-01,
221,3.96e-01,-2.54e-01,
222,1.20e-02,-8.00e-03,
223,-1.60e-02,1.40e-02,
224,1.20e-02,1.40e-02,
225,-1.60e-02,-1.00e-02,
226,1.20e-02,1.40e-02,
227,-1.60e-02,-1.00e-02,
228,1.20e-02,-8.00e-03,
229,-1.60e-02,1.40e-02,
230,-1.60e-02,1.40e-02,
231,1.20e-02,-8.00e-03,
232,-1.20e-02,-8.00e-03,
233,1.20e-02,1.40e-02,
234,1.20e-02,-8.00e-03,
235,-1.60e-02,1.40e-02,
236,1.20e-02,-8.00e-03,
237,-1.60e-02,1.40e-02,
238,1.20e-02,-8.00e-03,
239,-1.60e-02,1.40e-02,
240,1.20e-02,1.40e-02,
241,-1.60e-02,-8.00e-03,
242,-1.40e-01,2.56e-01,
243,1.72e-01,-2.38e-01,
244,1.20e-02,-8.00e-03,
245,-1.60e-02,1.40e-02,
246,-1.20e-02,-8.00e-03,
247,1.20e-02,1.40e-02,
248,-1.60e-02,1.40e-02,
249,1.20e-02,-8.00e-03,
250,-1.20e-02,1.40e-02,
251,1.20e-02,-8.00e-03,
252,-1.20e-02,-8.00e-03,
253,1.20e-02,1.40e-02,
254,1.20e-02,-8.00e-03,
255,-1.60e-02,1.40e-02,
256,1.20e-02,1.40e-02,
257,-1.60e-02,-8.00e-03,
258,-1.20e-02,-8.00e-03,
259,1.20e-02,1.40e-02,
260,1.20e-02,-8.00e-03,
261,-1.60e-02,1.40e-02,
262,1.20e-02,1.40e-02,
263,-1.60e-02,-1.00e-02,
264,1.20e-02,-8.00e-03,
265,-1.60e-02,1.40e-02,
266,1.20e-02,1.40e-02,
267,-1.20e-02,-8.00e-03,
268,-4.64e-01,2.56e-01,
269,2.68e-01,-2.54e-01,
270,-2.48e-01,2.54e-01,
271,9.20e-02,-1.68e-01,
272,1.20e-02,1.20e-02,
273,-1.60e-02,-1.00e-02,
274,1.20e-02,1.40e-02,
275,-1.60e-02,-8.00e-03,
276,1.20e-02,-8.00e-03,
277,-1.60e-02,1.40e-02,
278,-1.60e-02,-8.00e-03,
279,1.60e-02,1.40e-02,
280,-1.60e-02,-8.00e-03,
281,1.20e-02,1.40e-02,
282,-1.20e-02,-8.00e-03,
283,1.20e-02,1.40e-02,
284,-1.20e-02,-8.00e-03,
285,1.20e-02,1.40e-02,
286,5.60e-02,-3.60e-02,
287,-6.40e-02,5.40e-02,
288,-1.20e-02,-8.00e-03,
289,1.20e-02,1.40e-02,
290,1.20e-02,-8.00e-03,
291,-1.60e-02,1.40e-02,
292,-1.20e-02,-8.00e-03,
293,1.20e-02,1.40e-02,
294,1.20e-02,-8.00e-03,
295,-1.60e-02,1.40e-02,
296,1.20e-02,-8.00e-03,
297,-1.60e-02,1.60e-02,
298,1.20e-02,1.40e-02,
299,-1.60e-02,-8.00e-03,
300,1.20e-02,-8.00e-03,
301,-1.60e-02,1.40e-02,
302,1.20e-02,-1.00e-02,
303,-1.60e-02,1.40e-02,
304,1.20e-02,-8.00e-03,
305,-1.60e-02,1.40e-02,
306,1.20e-02,-8.00e-03,
307,-1.60e-02,1.20e-02,
308,1.20e-02,1.40e-02,
309,-1.60e-02,-8.00e-03,
310,1.20e-02,-8.00e-03,
311,-1.60e-02,1.40e-02,
312,1.20e-02,1.40e-02,
313,-1.60e-02,-8.00e-03,
314,-1.20e-01,-7.40e-02,
315,2.80e-02,5.00e-02,
316,-2.44e-01,-2.10e-01,
317,2.12e-01,2.56e-01,
318,1.20e-02,-8.00e-03,
319,-1.60e-02,1.20e-02,
320,-1.20e-02,-8.00e-03,
321,1.20e-02,1.40e-02,
322,1.20e-02,1.40e-02,
323,-1.60e-02,-1.00e-02,
324,1.20e-02,-8.00e-03,
325,-1.60e-02,1.40e-02,
326,1.20e-02,1.40e-02,
327,-1.60e-02,-1.00e-02,
328,-1.20e-02,-8.00e-03,
329,1.20e-02,1.40e-02,
330,1.20e-02,1.40e-02,
331,-1.60e-02,-1.00e-02,
332,1.20e-02,-8.00e-03,
333,-1.60e-02,1.40e-02,
334,1.20e-02,-8.00e-03,
335,-1.60e-02,1.40e-02,
336,1.56e-01,-1.42e-01,
337,-2.96e-01,2.56e-01,
338,-1.20e-02,-8.00e-03,
339,1.20e-02,1.40e-02,
340,-1.20e-02,-1.00e-02,
341,1.20e-02,1.40e-02,
342,-1.20e-02,1.40e-02,
343,1.20e-02,-8.00e-03,
344,-1.20e-02,-8.00e-03,
345,1.20e-02,1.40e-02,
346,1.20e-02,-8.00e-03,
347,-1.60e-02,1.40e-02,
348,-1.20e-02,-8.00e-03,
349,1.20e-02,1.40e-02,
350,-1.20e-02,-8.00e-03,
351,1.20e-02,1.40e-02,
352,-1.20e-02,1.40e-02,
353,1.20e-02,-8.00e-03,
354,1.20e-02,-8.00e-03,
355,-1.60e-02,1.40e-02,
356,1.20e-02,1.40e-02,
357,-1.60e-02,-8.00e-03,
358,1.20e-02,1.40e-02,
359,-1.60e-02,-8.00e-03,
360,5.20e-02,6.60e-02,
361,-4.00e-02,-4.60e-02,
362,4.60e-01,-2.54e-01,
363,-4.16e-01,2.56e-01,
364,-1.20e-02,-8.00e-03,
365,1.20e-02,1.40e-02,
366,-1.20e-02,-8.00e-03,
367,1.20e-02,1.40e-02,
368,1.20e-02,-8.00e-03,
369,-1.60e-02,1.40e-02,
370,1.20e-02,1.40e-02,
371,-1.60e-02,-8.00e-03,
372,1.20e-02,1.40e-02,
373,-1.60e-02,-8.00e-03,
374,-1.20e-02,-8.00e-03,
375,1.20e-02,1.40e-02,
376,-1.20e-02,1.40e-02,
377,1.20e-02,-1.00e-02,
378,1.20e-02,-8.00e-03,
379,-1.60e-02,1.40e-02,
380,-1.20e-02,-8.00e-03,
381,1.20e-02,1.40e-02,
382,2.04e-01,-2.20e-01,
383,-1.48e-01,2.16e-01,
384,1.20e-02,-8.00e-03,
385,-1.60e-02,1.40e-02,
386,1.20e-02,-8.00e-03,
387,-1.60e-02,1.40e-02,
388,1.20e-02,-8.00e-03,
389,-1.20e-02,1.40e-02,
390,1.20e-02,-8.00e-03,
391,-1.60e-02,1.40e-02,
392,1.20e-02,1.40e-02,
393,-1.60e-02,-8.00e-03,
394,1.20e-02,-8.00e-03,
395,-1.60e-02,1.60e-02,
396,1.20e-02,1.40e-02,
397,-1.60e-02,-1.00e-02,
398,-1.60e-02,-8.00e-03,
399,1.20e-02,1.40e-02,
400,1.20e-02,1.40e-02,
401,-1.60e-02,-1.00e-02,
402,1.20e-02,1.20e-02,
403,-1.60e-02,-1.00e-02,
404,1.20e-02,-8.00e-03,
405,-1.20e-02,1.40e-02,
406,1.20e-02,1.40e-02,
407,-1.60e-02,-8.00e-03,
408,1.20e-02,-8.00e-03,
409,-1.60e-02,1.40e-02,
410,2.32e-01,2.46e-01,
411,-2.92e-01,-2.54e-01,
412,-1.20e-02,-8.00e-03,
413,1.20e-02,1.40e-02,
414,1.20e-02,-8.00e-03,
415,-1.60e-02,1.40e-02,
416,1.20e-02,-8.00e-03,
417,-1.60e-02,1.40e-02,
418,1.20e-02,1.40e-02,
419,-1.60e-02,-8.00e-03,
420,1.20e-02,1.40e-02,
421,-1.20e-02,-8.00e-03,
422,1.20e-02,-8.00e-03,
423,-1.60e-02,1.40e-02,
424,-1.20e-02,-8.00e-03,
425,1.20e-02,1.40e-02,
426,1.20e-02,1.40e-02,
427,-1.60e-02,-8.00e-03,
428,6.80e-02,8.60e-02,
429,-4.00e-02,-5.80e-02,
430,-1.20e-02,-8.00e-03,
431,1.20e-02,1.40e-02,
432,1.20e-02,-8.00e-03,
433,-1.60e-02,1.40e-02,
434,-1.20e-02,1.40e-02,
435,1.20e-02,-8.00e-03,
436,1.20e-02,-8.00e-03,
437,-1.60e-02,1.60e-02,
438,-1.20e-02,1.40e-02,
439,1.20e-02,-8.00e-03,
440,-1.20e-02,-8.00e-03,
441,1.20e-02,1.40e-02,
442,1.20e-02,-8.00e-03,
443,-1.60e-02,1.40e-02,
444,-1.20e-02,1.40e-02,
445,1.20e-02,-8.00e-03,
446,-1.20e-02,1.40e-02,
447,1.20e-02,-8.00e-03,
448,1.20e-02,1.40e-02,
449,-1.60e-02,-8.00e-03,
450,1.20e-02,-8.00e-03,
451,-1.60e-02,1.40e-02,
452,1.20e-02,1.40e-02,
453,-1.60e-02,-8.00e-03,
454,1.20e-02,-8.00e-03,
455,-1.60e-02,1.40e-02,
456,1.28e-01,1.14e-01,
457,-1.24e-01,-8.00e-03,
458,2.56e-01,2.56e-01,
459,-3.00e-01,-2.54e-01,
460,1.20e-02,1.40e-02,
461,-1.60e-02,-1.00e-02,
462,-1.20e-02,-8.00e-03,
463,1.20e-02,1.40e-02,
464,1.20e-02,-8.00e-03,
465,-1.60e-02,1.40e-02,
466,-1.60e-02,1.40e-02,
467,1.20e-02,-8.00e-03,
468,1.20e-02,-8.00e-03,
469,-1.60e-02,1.20e-02,
470,1.20e-02,-8.00e-03,
471,-1.60e-02,1.40e-02,
472,1.20e-02,1.40e-02,
473,-1.60e-02,-1.00e-02,
474,-1.20e-02,1.40e-02,
475,1.20e-02,-8.00e-03,
476,-1.40e-01,2.22e-01,
477,1.92e-01,-2.28e-01,
478,-1.20e-02,-8.00e-03,
479,1.20e-02,1.40e-02,
480,1.20e-02,1.20e-02,
481,-1.60e-02,-8.00e-03,
482,1.20e-02,-8.00e-03,
483,-1.60e-02,1.40e-02,
484,1.20e-02,1.40e-02,
485,-1.60e-02,-8.00e-03,
486,-1.20e-02,1.40e-02,
487,1.20e-02,-8.00e-03,
488,-1.20e-02,-8.00e-03,
489,1.20e-02,1.40e-02,
490,1.20e-02,1.40e-02,
491,-1.60e-02,-8.00e-03,
492,-1.20e-02,-8.00e-03,
493,1.20e-02,1.40e-02,
494,1.20e-02,-8.00e-03,
495,-1.60e-02,1.40e-02,
496,-1.60e-02,-8.00e-03,
497,1.20e-02,1.40e-02,
498,-1.60e-02,-8.00e-03,
499,1.20e-02,1.40e-02,
500,1.20e-02,1.40e-02,
501,-1.60e-02,-1.20e-02,
502,-4.60e-01,-2.54e-01,
503,3.16e-01,2.56e-01,
504,1.20e-02,-8.00e-03,
505,-1.60e-02,1.40e-02,
506,1.20e-02,1.40e-02,
507,-1.60e-02,-1.00e-02,
508,-1.20e-02,-8.00e-03,
509,1.20e-02,1.40e-02,
510,-1.20e-02,-8.00e-03,
511,1.20e-02,1.40e-02,
512,-1.60e-02,1.20e-02,
513,1.20e-02,-1.00e-02,
514,1.20e-02,1.40e-02,
515,-1.60e-02,-8.00e-03,
516,1.20e-02,1.40e-02,
517,-1.60e-02,-8.00e-03,
518,1.20e-02,-8.00e-03,
519,-1.60e-02,1.60e-02,
520,1.20e-02,-8.00e-03,
521,-1.60e-02,1.40e-02,
522,1.20e-02,-8.00e-03,
523,-1.60e-02,1.20e-02,
524,1.56e-01,1.58e-01,
525,-1.76e-01,-2.54e-01,
526,-1.20e-02,1.40e-02,
527,1.20e-02,-1.00e-02,
528,1.20e-02,-8.00e-03,
529,-1.60e-02,1.40e-02,
530,-1.60e-02,-8.00e-03,
531,1.20e-02,1.40e-02,
532,1.20e-02,-8.00e-03,
533,-1.60e-02,1.40e-02,
534,1.20e-02,-8.00e-03,
535,-1.60e-02,1.40e-02,
536,-1.60e-02,1.40e-02,
537,1.20e-02,-8.00e-03,
538,8.00e-03,1.40e-02,
539,-1.60e-02,-8.00e-03,
540,1.20e-02,-8.00e-03,
541,-1.60e-02,1.40e-02,
542,1.20e-02,-8.00e-03,
543,-1.60e-02,1.40e-02,
544,1.20e-02,-8.00e-03,
545,-1.60e-02,1.40e-02,
546,1.20e-02,-8.00e-03,
547,-1.60e-02,1.40e-02,
548,1.20e-02,-8.00e-03,
549,-1.60e-02,1.40e-02,
550,-1.20e-02,-6.00e-03,
551,1.20e-02,1.40e-02,
552,-3.72e-01,-2.54e-01,
553,3.68e-01,2.18e-01,
554,-1.60e-02,-8.00e-03,
555,1.20e-02,1.40e-02,
556,1.20e-02,-8.00e-03,
557,-1.60e-02,1.40e-02,
558,1.20e-02,-8.00e-03,
559,-1.60e-02,1.40e-02,
560,1.20e-02,-1.00e-02,
561,-1.60e-02,1.40e-02,
562,1.20e-02,-8.00e-03,
563,-1.60e-02,1.60e-02,
564,-1.60e-02,-1.00e-02,
565,1.20e-02,1.40e-02,
566,1.20e-02,-8.00e-03,
567,-1.60e-02,1.40e-02,
568,1.20e-02,1.40e-02,
569,-1.60e-02,-8.00e-03,
570,-5.20e-02,-3.60e-02,
571,5.20e-02,6.60e-02,
572,-1.60e-02,1.20e-02,
573,1.20e-02,-1.00e-02,
574,-1.60e-02,1.40e-02,
575,1.20e-02,-1.00e-02,
576,-1.60e-02,-8.00e-03,
577,1.20e-02,1.40e-02,
578,-1.60e-02,-8.00e-03,
579,1.20e-02,1.40e-02,
580,-1.20e-02,1.20e-02,
581,1.20e-02,-1.00e-02,
582,1.20e-02,1.40e-02,
583,-1.60e-02,-8.00e-03,
584,-1.60e-02,-8.00e-03,
585,1.60e-02,1.40e-02,
586,-1.20e-02,-8.00e-03,
587,1.20e-02,1.40e-02,
588,1.20e-02,-8.00e-03,
589,-1.20e-02,1.40e-02,
590,-1.20e-02,1.40e-02,
591,1.20e-02,-8.00e-03,
592,1.20e-02,1.40e-02,
593,-1.60e-02,-8.00e-03,
594,-1.20e-02,-8.00e-03,
595,1.20e-02,1.40e-02,
596,-5.60e-02,-7.20e-02,
597,3.60e-02,8.60e-02,
598,1.20e-01,-1.48e-01,
599,-3.64e-01,2.56e-01,
600,4.36e-01,-2.54e-01,
601,-1.68e-01,2.18e-01,
602,1.20e-02,-8.00e-03,
603,-1.60e-02,1.40e-02,
604,-1.20e-02,-8.00e-03,
605,1.20e-02,1.40e-02,
606,-1.20e-02,-8.00e-03,
607,1.20e-02,1.40e-02,
608,-1.20e-02,1.40e-02,
609,1.20e-02,-8.00e-03,
610,-1.20e-02,1.40e-02,
611,1.20e-02,-8.00e-03,
612,1.20e-02,1.40e-02,
613,-1.60e-02,-8.00e-03,
614,1.20e-02,1.40e-02,
615,-1.20e-02,-8.00e-03,
616,-1.20e-02,1.40e-02,
617,1.20e-02,-8.00e-03,
618,-1.84e-01,2.56e-01,
619,1.76e-01,-4.60e-02,
620,1.20e-02,1.40e-02,
621,-1.20e-02,-8.00e-03,
622,1.20e-02,-8.00e-03,
623,-1.60e-02,1.40e-02,
624,-1.20e-02,-8.00e-03,
625,1.20e-02,1.40e-02,
626,1.20e-02,-8.00e-03,
627,-1.60e-02,1.40e-02,
628,-1.20e-02,1.40e-02,
629,1.20e-02,-8.00e-03,
630,-1.20e-02,-8.00e-03,
631,1.20e-02,1.40e-02,
632,-1.20e-02,-8.00e-03,
633,1.20e-02,1.40e-02,
634,1.20e-02,-8.00e-03,
635,-1.60e-02,1.40e-02,
636,1.20e-02,-8.00e-03,
637,-1.60e-02,1.40e-02,
638,-1.60e-02,1.40e-02,
639,1.20e-02,-1.00e-02,
640,-1.20e-02,-8.00e-03,
641,1.20e-02,1.60e-02,
642,-1.20e-02,-8.00e-03,
643,1.20e-02,1.40e-02,
644,-3.64e-01,2.56e-01,
645,3.36e-01,-2.54e-01,
646,-1.20e-02,-8.00e-03,
647,1.20e-02,1.40e-02,
648,-1.20e-02,-8.00e-03,
649,1.20e-02,1.40e-02,
650,1.20e-02,-8.00e-03,
651,-1.60e-02,1.40e-02,
652,1.20e-02,-8.00e-03,
653,-1.60e-02,1.40e-02,
654,1.20e-02,1.20e-02,
655,-1.60e-02,-1.00e-02,
656,1.20e-02,1.40e-02,
657,-1.60e-02,-1.00e-02,
658,-1.20e-02,1.20e-02,
659,1.20e-02,-8.00e-03,
660,1.20e-02,-8.00e-03,
661,-1.60e-02,1.40e-02,
662,-1.20e-02,-8.00e-03,
663,1.20e-02,1.40e-02,
664,1.20e-02,-8.00e-03,
665,-1.60e-02,1.40e-02,
666,8.80e-02,-2.16e-01,
667,-2.60e-01,2.56e-01,
668,-1.20e-02,1.40e-02,
669,1.20e-02,-1.00e-02,
670,1.20e-02,1.40e-02,
671,-1.60e-02,-1.00e-02,
672,-1.20e-02,-8.00e-03,
673,1.20e-02,1.40e-02,
674,-1.20e-02,-8.00e-03,
675,1.20e-02,1.40e-02,
676,-1.20e-02,-8.00e-03,
677,1.20e-02,1.20e-02,
678,-1.20e-02,-8.00e-03,
679,1.20e-02,1.20e-02,
680,-1.20e-02,-8.00e-03,
681,1.20e-02,1.40e-02,
682,1.20e-02,-8.00e-03,
683,-1.60e-02,1.40e-02,
684,1.20e-02,-8.00e-03,
685,-1.60e-02,1.40e-02,
686,-1.60e-02,-8.00e-03,
687,1.20e-02,1.40e-02,
688,-1.20e-02,-8.00e-03,
689,1.20e-02,1.40e-02,
690,1.20e-02,-8.00e-03,
691,-1.60e-02,1.40e-02,
692,-3.68e-01,2.56e-01,
693,3.40e-01,-2.44e-01,
694,-1.68e-01,1.04e-01,
695,2.04e-01,-7.40e-02,
696,-1.20e-02,1.40e-02,
697,1.20e-02,-8.00e-03,
698,1.20e-02,-1.00e-02,
699,-1.20e-02,1.40e-02,
700,-1.20e-02,-8.00e-03,
701,1.20e-02,1.40e-02,
702,-1.20e-02,-8.00e-03,
703,1.20e-02,1.40e-02,
704,-1.20e-02,-8.00e-03,
705,1.20e-02,1.40e-02,
706,-1.20e-02,-8.00e-03,
707,1.20e-02,1.40e-02,
708,-1.20e-02,-8.00e-03,
709,1.20e-02,1.40e-02,
710,-4.80e-02,4.60e-02,
711,2.80e-02,-5.00e-02,
712,-1.20e-02,-8.00e-03,
713,1.20e-02,1.40e-02,
714,-1.20e-02,1.40e-02,
715,1.20e-02,-8.00e-03,
716,1.20e-02,1.40e-02,
717,-1.60e-02,-8.00e-03,
718,1.20e-02,1.40e-02,
719,-1.20e-02,-8.00e-03,
720,1.20e-02,-8.00e-03,
721,-1.60e-02,1.40e-02,
722,1.20e-02,1.40e-02,
723,-1.60e-02,-8.00e-03,
724,-1.20e-02,1.40e-02,
725,1.20e-02,-1.00e-02,
726,1.20e-02,-8.00e-03,
727,-1.60e-02,1.40e-02,
728,1.20e-02,-8.00e-03,
729,-1.60e-02,1.40e-02,
730,1.20e-02,-8.00e-03,
731,-1.60e-02,1.40e-02,
732,1.20e-02,1.60e-02,
733,-1.60e-02,-1.00e-02,
734,-1.20e-02,-8.00e-03,
735,1.20e-02,1.40e-02,
736,1.20e-02,-8.00e-03,
737,-1.60e-02,1.40e-02,
738,9.20e-02,-8.00e-03,
739,-5.60e-02,2.40e-02,
740,2.52e-01,-2.20e-01,
741,-2.68e-01,2.56e-01,
742,1.20e-02,1.40e-02,
743,-1.60e-02,-8.00e-03,
744,1.20e-02,-8.00e-03,
745,-1.60e-02,1.40e-02,
746,1.20e-02,1.40e-02,
747,-1.60e-02,-1.00e-02,
748,1.20e-02,1.40e-02,
749,-1.60e-02,-1.00e-02,
750,1.20e-02,-8.00e-03,
751,-1.60e-02,1.40e-02,
752,1.20e-02,1.40e-02,
753,-1.60e-02,-1.00e-02,
754,1.20e-02,1.40e-02,
755,-1.60e-02,-8.00e-03,
756,-1.20e-02,1.20e-02,
757,1.20e-02,-8.00e-03,
758,1.20e-02,-8.00e-03,
759,-1.60e-02,1.40e-02,
760,-1.36e-01,1.74e-01,
761,1.76e-01,-1.76e-01,
762,1.20e-02,1.40e-02,
763,-1.20e-02,-8.00e-03,
764,1.20e-02,1.40e-02,
765,-1.60e-02,-1.00e-02,
766,-1.20e-02,1.40e-02,
767,1.20e-02,-8.00e-03,
768,-1.20e-02,-8.00e-03,
769,1.20e-02,1.40e-02,
770,-1.60e-02,-8.00e-03,
771,1.20e-02,1.40e-02,
772,-1.60e-02,-8.00e-03,
773,1.20e-02,1.40e-02,
774,1.20e-02,-8.00e-03,
775,-1.60e-02,1.40e-02,
776,-1.20e-02,-8.00e-03,
777,1.20e-02,1.40e-02,
778,1.20e-02,-8.00e-03,
779,-1.60e-02,1.40e-02,
780,1.20e-02,1.40e-02,
781,-1.60e-02,-8.00e-03,
782,1.20e-02,1.20e-02,
783,-1.60e-02,-8.00e-03,
784,-1.60e-02,-4.00e-02,
785,2.80e-02,7.60e-02,
786,4.00e-01,2.56e-01,
787,-4.44e-01,-2.54e-01,
788,-1.20e-02,-8.00e-03,
789,1.20e-02,1.40e-02,
790,1.20e-02,-8.00e-03,
791,-1.60e-02,1.40e-02,
792,1.20e-02,1.40e-02,
793,-1.60e-02,-1.00e-02,
794,-1.20e-02,1.40e-02,
795,1.20e-02,-8.00e-03,
796,-1.20e-02,-8.00e-03,
797,1.20e-02,1.40e-02,
798,1.20e-02,1.40e-02,
799,-1.20e-02,-8.00e-03,
800,1.20e-02,1.20e-02,
801,-1.60e-02,-8.00e-03,
802,1.20e-02,1.40e-02,
803,-1.60e-02,-1.00e-02,
804,1.20e-02,-8.00e-03,
805,-1.60e-02,1.40e-02,
806,-1.64e-01,-2.54e-01,
807,2.20e-01,2.52e-01,
808,-1.20e-02,-8.00e-03,
809,1.20e-02,1.40e-02,
810,-1.20e-02,-8.00e-03,
811,1.20e-02,1.20e-02,
812,1.20e-02,1.40e-02,
813,-1.60e-02,-1.00e-02,
814,-1.20e-02,-8.00e-03,
815,1.20e-02,1.40e-02,
816,1.20e-02,-8.00e-03,
817,-1.60e-02,1.40e-02,
818,1.20e-02,1.40e-02,
819,-1.60e-02,-1.00e-02,
820,1.20e-02,1.40e-02,
821,-1.60e-02,-1.00e-02,
822,1.20e-02,1.20e-02,
823,-1.60e-02,-8.00e-03,
824,1.20e-02,1.40e-02,
825,-1.60e-02,-1.00e-02,
826,-1.20e-02,-8.00e-03,
827,1.20e-02,1.40e-02,
828,-1.20e-02,-8.00e-03,
829,1.20e-02,1.40e-02,
830,-1.20e-02,-8.00e-03,
831,1.20e-02,1.40e-02,
832,1.20e-02,1.40e-02,
833,-1.60e-02,-1.00e-02,
