Motor_Data/MOTOR_3_ON/time domain/NewFile7.csv

X,CH1,CH2,Start,Increment,
Sequence,Volt,Volt,-3.000000e-02,5.000000e-05
0,1.20e-02,-8.00e-03,
1,-2.00e-02,1.60e-02,
2,1.20e-02,1.60e-02,
3,-1.60e-02,-8.00e-03,
4,1.20e-02,1.40e-02,
5,-1.60e-02,-1.00e-02,
6,1.20e-02,1.40e-02,
7,-1.60e-02,-1.00e-02,
8,1.20e-02,-1.00e-02,
9,-1.60e-02,1.40e-02,
10,1.20e-02,-1.00e-02,
11,-1.60e-02,1.60e-02,
12,2.32e-01,-2.14e-01,
13,-3.44e-01,2.40e-01,
14,1.20e-02,1.40e-02,
15,-1.60e-02,-1.00e-02,
16,-1.60e-02,-1.00e-02,
17,1.20e-02,1.40e-02,
18,-1.60e-02,-1.00e-02,
19,1.20e-02,1.60e-02,
20,-1.60e-02,-1.00e-02,
21,1.60e-02,1.40e-02,
22,1.20e-02,1.40e-02,
23,-1.60e-02,-1.00e-02,
24,1.20e-02,-1.00e-02,
25,-1.60e-02,1.40e-02,
26,-1.60e-02,1.40e-02,
27,1.60e-02,-1.00e-02,
28,1.20e-02,1.60e-02,
29,-1.60e-02,-1.00e-02,
30,-1.60e-02,-1.00e-02,
31,1.60e-02,1.80e-02,
32,-1.60e-02,-1.00e-02,
33,1.20e-02,1.40e-02,
34,-1.60e-02,-1.00e-02,
35,1.20e-02,1.60e-02,
36,1.20e-02,-1.00e-02,
37,-1.60e-02,1.40e-02,
38,-5.48e-01,-2.54e-01,
39,4.72e-01,2.56e-01,
40,-1.60e-02,1.40e-02,
41,1.60e-02,-1.00e-02,
42,-1.60e-02,1.40e-02,
43,1.60e-02,-1.00e-02,
44,1.20e-02,-8.00e-03,
45,-1.60e-02,1.40e-02,
46,-1.60e-02,1.40e-02,
47,1.20e-02,-8.00e-03,
48,1.20e-02,1.40e-02,
49,-1.60e-02,-1.00e-02,
50,1.20e-02,1.40e-02,
51,-1.60e-02,-1.00e-02,
52,-1.60e-02,1.40e-02,
53,1.60e-02,-1.00e-02,
54,1.20e-02,1.40e-02,
55,-1.60e-02,-1.00e-02,
56,1.60e-02,1.40e-02,
57,-1.60e-02,-8.00e-03,
58,2.24e-01,-9.00e-02,
59,-2.76e-01,1.50e-01,
60,3.04e-01,-1.98e-01,
61,-1.88e-01,1.50e-01,
62,1.20e-02,-1.00e-02,
63,-1.60e-02,1.40e-02,
64,1.20e-02,1.40e-02,
65,-1.60e-02,-1.00e-02,
66,-1.60e-02,1.40e-02,
67,1.60e-02,-1.00e-02,
68,1.20e-02,1.40e-02,
69,-1.60e-02,-8.00e-03,
70,1.20e-02,-1.00e-02,
71,-1.60e-02,1.60e-02,
72,1.20e-02,-1.00e-02,
73,-1.60e-02,1.40e-02,
74,-1.60e-02,-1.00e-02,
75,1.20e-02,1.60e-02,
76,-1.60e-02,1.60e-02,
77,1.60e-02,-1.00e-02,
78,-1.60e-02,1.40e-02,
79,1.60e-02,-1.00e-02,
80,-1.60e-02,-8.00e-03,
81,1.20e-02,1.60e-02,
82,-1.60e-02,-1.00e-02,
83,1.60e-02,1.60e-02,
84,-1.60e-02,-8.00e-03,
85,1.60e-02,1.60e-02,
86,-5.48e-01,2.56e-01,
87,4.72e-01,-2.54e-01,
88,-1.60e-02,-1.00e-02,
89,1.60e-02,1.60e-02,
90,1.20e-02,-1.00e-02,
91,-1.60e-02,1.60e-02,
92,-1.60e-02,-1.00e-02,
93,1.60e-02,1.60e-02,
94,-1.60e-02,1.40e-02,
95,1.60e-02,-1.00e-02,
96,1.20e-02,1.40e-02,
97,-1.60e-02,-1.00e-02,
98,1.20e-02,-1.00e-02,
99,-1.60e-02,1.40e-02,
100,-1.60e-02,1.40e-02,
101,1.20e-02,-1.20e-02,
102,-1.60e-02,-1.00e-02,
103,1.20e-02,1.40e-02,
104,1.32e-01,-8.20e-02,
105,-1.40e-01,9.40e-02,
106,1.20e-02,-1.00e-02,
107,-1.60e-02,1.60e-02,
108,-1.60e-02,-8.00e-03,
109,1.60e-02,1.40e-02,
110,-1.60e-02,1.40e-02,
111,1.60e-02,-1.00e-02,
112,1.20e-02,1.60e-02,
113,-1.60e-02,-1.00e-02,
114,1.20e-02,-1.00e-02,
115,-1.60e-02,1.40e-02,
116,-1.60e-02,1.40e-02,
117,1.60e-02,-1.00e-02,
118,1.20e-02,-8.00e-03,
119,-1.60e-02,1.40e-02,
120,-1.60e-02,-8.00e-03,
121,1.20e-02,1.40e-02,
122,1.20e-02,-1.00e-02,
123,-1.60e-02,1.60e-02,
124,-1.60e-02,1.60e-02,
125,1.60e-02,-1.00e-02,
126,1.20e-02,-1.00e-02,
127,-1.60e-02,1.60e-02,
128,1.20e-02,1.40e-02,
129,-1.60e-02,-1.00e-02,
130,1.20e-02,-1.00e-02,
131,-1.60e-02,1.40e-02,
132,-1.60e-02,1.40e-02,
133,1.60e-02,-1.00e-02,
134,4.72e-01,-2.54e-01,
135,-5.48e-01,2.56e-01,
136,-1.60e-02,-1.00e-02,
137,1.60e-02,1.40e-02,
138,-1.60e-02,1.60e-02,
139,1.60e-02,-1.00e-02,
140,-1.60e-02,1.40e-02,
141,1.60e-02,-1.00e-02,
142,-1.60e-02,-1.00e-02,
143,1.60e-02,1.60e-02,
144,1.20e-02,-1.00e-02,
145,-1.60e-02,1.60e-02,
146,1.20e-02,1.40e-02,
147,-1.60e-02,-1.00e-02,
148,1.20e-02,-1.00e-02,
149,-1.60e-02,1.40e-02,
150,1.60e-02,1.60e-02,
151,-2.00e-02,-1.00e-02,
152,-5.00e-01,2.56e-01,
153,2.68e-01,-2.06e-01,
154,-1.60e-02,-1.00e-02,
155,1.60e-02,1.60e-02,
156,1.20e-02,1.40e-02,
157,-1.60e-02,-1.00e-02,
158,1.20e-02,-1.00e-02,
159,-1.60e-02,1.40e-02,
160,-1.60e-02,-8.00e-03,
161,1.60e-02,1.60e-02,
162,-1.60e-02,1.40e-02,
163,1.60e-02,-1.00e-02,
164,-1.60e-02,-1.00e-02,
165,1.60e-02,1.60e-02,
166,-1.60e-02,-1.00e-02,
167,1.60e-02,1.40e-02,
168,-1.60e-02,1.60e-02,
169,1.60e-02,-1.00e-02,
170,-1.60e-02,1.40e-02,
171,1.60e-02,-8.00e-03,
172,1.20e-02,-8.00e-03,
173,-1.60e-02,1.60e-02,
174,1.20e-02,1.40e-02,
175,-1.60e-02,-1.00e-02,
176,-1.60e-02,1.40e-02,
177,1.20e-02,-1.00e-02,
178,-5.48e-01,2.56e-01,
179,4.72e-01,-2.54e-01,
180,-1.60e-02,-1.00e-02,
181,1.20e-02,1.40e-02,
182,-1.60e-02,-1.00e-02,
183,1.60e-02,1.40e-02,
184,1.20e-02,-1.00e-02,
185,-1.60e-02,1.60e-02,
186,-1.60e-02,-8.00e-03,
187,1.60e-02,1.60e-02,
188,-1.60e-02,1.60e-02,
189,1.60e-02,-1.00e-02,
190,1.20e-02,1.60e-02,
191,-1.60e-02,-1.00e-02,
192,-1.60e-02,-1.00e-02,
193,1.20e-02,1.60e-02,
194,-1.60e-02,-8.00e-03,
195,1.20e-02,1.60e-02,
196,1.20e-02,1.60e-02,
197,-1.60e-02,-1.00e-02,
198,-1.60e-02,1.60e-02,
199,1.20e-02,-8.00e-03,
200,2.28e-01,2.56e-01,
201,-3.36e-01,-2.54e-01,
202,1.20e-02,-8.00e-03,
203,-1.60e-02,1.40e-02,
204,1.20e-02,1.40e-02,
205,-1.60e-02,-1.00e-02,
206,-1.60e-02,1.40e-02,
207,1.60e-02,-1.00e-02,
208,-1.60e-02,1.40e-02,
209,1.20e-02,-8.00e-03,
210,-1.60e-02,-8.00e-03,
211,1.20e-02,1.40e-02,
212,-1.60e-02,1.40e-02,
213,1.60e-02,-1.00e-02,
214,-1.60e-02,1.40e-02,
215,1.60e-02,-1.00e-02,
216,1.20e-02,1.40e-02,
217,-1.60e-02,-1.00e-02,
218,-1.60e-02,1.40e-02,
219,1.20e-02,-1.00e-02,
220,1.20e-02,1.40e-02,
221,-1.60e-02,-1.00e-02,
222,-1.60e-02,-1.00e-02,
223,1.60e-02,1.60e-02,
224,1.20e-02,-8.00e-03,
225,-1.60e-02,1.60e-02,
226,4.72e-01,-2.54e-01,
227,-5.48e-01,2.56e-01,
228,7.60e-02,9.40e-02,
229,-2.40e-02,-1.40e-02,
230,-1.60e-02,1.60e-02,
231,1.20e-02,-1.00e-02,
232,-2.00e-02,-8.00e-03,
233,1.60e-02,1.40e-02,
234,1.20e-02,-8.00e-03,
235,-1.60e-02,1.40e-02,
236,-1.60e-02,1.60e-02,
237,1.20e-02,-1.00e-02,
238,1.20e-02,1.60e-02,
239,-1.60e-02,-1.00e-02,
240,-1.60e-02,1.60e-02,
241,1.60e-02,-1.20e-02,
242,-1.60e-02,-8.00e-03,
243,1.60e-02,1.60e-02,
244,-2.40e-01,-1.08e-01,
245,2.20e-01,1.56e-01,
246,-1.60e-02,1.60e-02,
247,1.60e-02,-1.00e-02,
248,-1.60e-02,-8.00e-03,
249,1.60e-02,1.60e-02,
250,-1.60e-02,1.60e-02,
251,1.60e-02,-1.00e-02,
252,-1.60e-02,1.60e-02,
253,1.60e-02,-8.00e-03,
254,-1.60e-02,-8.00e-03,
255,1.60e-02,1.60e-02,
256,1.20e-02,-8.00e-03,
257,-1.60e-02,1.60e-02,
258,1.20e-02,1.60e-02,
259,-1.60e-02,-1.00e-02,
260,-1.60e-02,1.40e-02,
261,1.20e-02,-8.00e-03,
262,-1.60e-02,-8.00e-03,
263,1.60e-02,1.60e-02,
264,-1.60e-02,-8.00e-03,
265,1.60e-02,1.60e-02,
266,-1.60e-02,-8.00e-03,
267,1.20e-02,1.60e-02,
268,-1.60e-02,-8.00e-03,
269,1.20e-02,1.60e-02,
270,-1.60e-02,1.60e-02,
271,1.20e-02,-1.00e-02,
272,-1.60e-02,1.40e-02,
273,1.20e-02,-1.00e-02,
274,1.60e-02,2.56e-01,
275,-5.44e-01,-2.54e-01,
276,1.20e-02,-8.00e-03,
277,-1.60e-02,1.40e-02,
278,1.20e-02,-1.00e-02,
279,-1.60e-02,1.60e-02,
280,-1.60e-02,-1.00e-02,
281,1.60e-02,1.60e-02,
282,-1.60e-02,1.40e-02,
283,1.60e-02,-1.00e-02,
284,1.60e-02,-8.00e-03,
285,-1.60e-02,1.60e-02,
286,1.20e-02,1.40e-02,
287,-1.60e-02,-1.00e-02,
288,1.20e-02,-1.00e-02,
289,-1.60e-02,1.60e-02,
290,1.20e-02,-1.00e-02,
291,-1.60e-02,1.60e-02,
292,-3.28e-01,-2.54e-01,
293,3.28e-01,2.56e-01,
294,1.20e-02,-8.00e-03,
295,-1.60e-02,1.60e-02,
296,-1.60e-02,-8.00e-03,
297,1.60e-02,1.40e-02,
298,1.20e-02,-1.00e-02,
299,-1.60e-02,1.60e-02,
300,-1.60e-02,-8.00e-03,
301,1.20e-02,1.60e-02,
302,1.20e-02,-8.00e-03,
303,-1.60e-02,1.60e-02,
304,-1.60e-02,-8.00e-03,
305,1.20e-02,1.60e-02,
306,-1.60e-02,1.40e-02,
307,1.20e-02,-1.00e-02,
308,1.20e-02,1.40e-02,
309,-1.60e-02,-1.00e-02,
310,-1.60e-02,-8.00e-03,
311,1.60e-02,1.60e-02,
312,-1.60e-02,1.40e-02,
313,1.60e-02,-1.00e-02,
314,1.20e-02,1.60e-02,
315,-1.60e-02,-1.00e-02,
316,-1.60e-02,-1.00e-02,
317,1.60e-02,1.60e-02,
318,-3.12e-01,-2.54e-01,
319,4.72e-01,2.56e-01,
320,-1.60e-02,-1.00e-02,
321,1.60e-02,1.60e-02,
322,-1.60e-02,1.40e-02,
323,1.60e-02,-1.00e-02,
324,1.20e-02,-1.00e-02,
325,-1.60e-02,1.60e-02,
326,1.20e-02,-8.00e-03,
327,-1.60e-02,1.60e-02,
328,1.60e-02,-1.00e-02,
329,-1.60e-02,1.60e-02,
330,-1.60e-02,1.40e-02,
331,1.20e-02,-1.00e-02,
332,-1.60e-02,-1.00e-02,
333,1.60e-02,1.40e-02,
334,1.20e-02,1.40e-02,
335,-1.60e-02,-1.00e-02,
336,1.20e-02,-8.00e-03,
337,-1.60e-02,1.60e-02,
338,1.20e-02,1.40e-02,
339,-1.60e-02,-1.00e-02,
340,4.68e-01,2.56e-01,
341,-4.40e-01,-2.54e-01,
342,1.20e-02,-8.00e-03,
343,-1.60e-02,1.60e-02,
344,1.60e-02,1.40e-02,
345,-1.60e-02,-1.00e-02,
346,-1.60e-02,1.40e-02,
347,1.60e-02,-1.00e-02,
348,-1.60e-02,1.40e-02,
349,1.60e-02,-1.00e-02,
350,1.20e-02,1.60e-02,
351,-1.60e-02,-1.00e-02,
352,-1.60e-02,1.60e-02,
353,1.20e-02,-1.00e-02,
354,-1.60e-02,-8.00e-03,
355,1.20e-02,1.40e-02,
356,1.20e-02,1.60e-02,
357,-1.60e-02,-1.00e-02,
358,1.20e-02,1.40e-02,
359,-1.60e-02,-1.00e-02,
360,-1.60e-02,-1.00e-02,
361,1.60e-02,1.60e-02,
362,-1.60e-02,1.60e-02,
363,1.60e-02,-1.00e-02,
364,1.20e-02,-8.00e-03,
365,-1.60e-02,1.60e-02,
366,-1.60e-02,-8.00e-03,
367,1.60e-02,1.40e-02,
368,4.72e-01,-2.54e-01,
369,-5.48e-01,2.56e-01,
370,-1.60e-02,-8.00e-03,
371,1.60e-02,1.60e-02,
372,-1.60e-02,1.40e-02,
373,1.60e-02,-1.00e-02,
374,-1.60e-02,1.40e-02,
375,1.20e-02,-8.00e-03,
376,-1.60e-02,1.60e-02,
377,1.20e-02,-1.00e-02,
378,-1.60e-02,-8.00e-03,
379,1.60e-02,1.60e-02,
380,-1.60e-02,-8.00e-03,
381,1.20e-02,1.60e-02,
382,1.20e-02,-8.00e-03,
383,-1.60e-02,1.60e-02,
384,-1.64e-01,7.60e-02,
385,1.48e-01,-7.60e-02,
386,1.20e-02,-8.00e-03,
387,-1.60e-02,1.60e-02,
388,1.20e-02,1.40e-02,
389,-1.60e-02,-8.00e-03,
390,-1.60e-02,1.60e-02,
391,1.60e-02,-1.00e-02,
392,1.20e-02,-8.00e-03,
393,-1.60e-02,1.60e-02,
394,1.20e-02,1.40e-02,
395,-1.60e-02,-8.00e-03,
396,-1.60e-02,-1.00e-02,
397,1.20e-02,1.40e-02,
398,-1.60e-02,-8.00e-03,
399,1.60e-02,1.60e-02,
400,-1.60e-02,-8.00e-03,
401,1.60e-02,1.60e-02,
402,-1.60e-02,-1.00e-02,
403,1.60e-02,1.40e-02,
404,1.20e-02,-1.00e-02,
405,-1.60e-02,1.60e-02,
406,-1.60e-02,-1.00e-02,
407,1.60e-02,1.40e-02,
408,1.20e-02,-1.00e-02,
409,-1.60e-02,1.60e-02,
410,-1.60e-02,1.40e-02,
411,1.60e-02,-1.00e-02,
412,-1.60e-02,1.40e-02,
413,1.20e-02,-1.00e-02,
414,-5.48e-01,-2.54e-01,
415,4.72e-01,2.56e-01,
416,1.20e-02,-1.00e-02,
417,-1.60e-02,1.40e-02,
418,1.20e-02,1.40e-02,
419,-1.60e-02,-1.00e-02,
420,-1.60e-02,1.40e-02,
421,1.20e-02,-1.00e-02,
422,-1.60e-02,1.40e-02,
423,1.60e-02,-1.00e-02,
424,1.20e-02,-1.00e-02,
425,-1.60e-02,1.60e-02,
426,1.20e-02,-1.00e-02,
427,-1.60e-02,1.40e-02,
428,1.20e-02,1.40e-02,
429,-2.00e-02,-1.00e-02,
430,-1.60e-02,1.60e-02,
431,1.20e-02,-1.00e-02,
432,4.56e-01,-1.96e-01,
433,-2.16e-01,2.44e-01,
434,-1.60e-02,1.40e-02,
435,1.20e-02,-1.00e-02,
436,-1.60e-02,-1.00e-02,
437,1.60e-02,1.60e-02,
438,1.20e-02,-1.00e-02,
439,-1.60e-02,1.60e-02,
440,-1.60e-02,-1.00e-02,
441,1.60e-02,1.60e-02,
442,-1.60e-02,-8.00e-03,
443,1.60e-02,1.60e-02,
444,1.20e-02,-1.00e-02,
445,-1.60e-02,1.60e-02,
446,-1.60e-02,-1.00e-02,
447,1.60e-02,1.60e-02,
448,-1.60e-02,1.40e-02,
449,1.60e-02,-1.00e-02,
450,1.20e-02,1.40e-02,
451,-1.60e-02,-1.00e-02,
452,-1.60e-02,1.60e-02,
453,1.60e-02,-1.00e-02,
454,1.20e-02,1.40e-02,
455,-1.60e-02,-1.00e-02,
456,-1.60e-02,-1.00e-02,
457,1.60e-02,1.60e-02,
458,4.72e-01,-2.54e-01,
459,-5.48e-01,2.56e-01,
460,-6.00e-02,5.80e-02,
461,6.80e-02,-4.80e-02,
462,-1.60e-02,1.40e-02,
463,1.60e-02,-1.00e-02,
464,-1.60e-02,-1.00e-02,
465,1.60e-02,1.60e-02,
466,-1.60e-02,-1.00e-02,
467,1.60e-02,1.60e-02,
468,1.20e-02,-1.00e-02,
469,-1.60e-02,1.60e-02,
470,-1.60e-02,1.40e-02,
471,1.20e-02,-1.00e-02,
472,1.20e-02,-8.00e-03,
473,-1.60e-02,1.60e-02,
474,-1.60e-02,-8.00e-03,
475,1.60e-02,1.60e-02,
476,1.20e-02,-1.00e-02,
477,-1.60e-02,1.60e-02,
478,-1.60e-02,1.60e-02,
479,1.60e-02,-1.00e-02,
480,2.68e-01,-2.54e-01,
481,-2.80e-01,2.16e-01,
482,-1.60e-02,1.40e-02,
483,1.60e-02,-1.00e-02,
484,-1.60e-02,1.60e-02,
485,1.60e-02,-1.00e-02,
486,1.60e-02,1.40e-02,
487,-1.60e-02,-1.00e-02,
488,-1.60e-02,-1.00e-02,
489,1.60e-02,1.60e-02,
490,1.60e-02,1.40e-02,
491,-1.60e-02,-1.00e-02,
492,1.20e-02,-1.00e-02,
493,-1.60e-02,1.40e-02,
494,-1.60e-02,1.60e-02,
495,1.60e-02,-1.00e-02,
496,1.20e-02,-1.20e-02,
497,-1.60e-02,1.60e-02,
498,-2.00e-02,1.40e-02,
499,1.60e-02,-1.00e-02,
500,1.20e-02,1.40e-02,
501,-1.60e-02,-1.00e-02,
502,-1.60e-02,1.60e-02,
503,1.60e-02,-1.00e-02,
504,1.20e-02,1.40e-02,
505,-1.60e-02,-1.00e-02,
506,-1.60e-02,1.40e-02,
507,1.60e-02,-1.00e-02,
508,-5.40e-01,-2.54e-01,
509,2.32e-01,2.56e-01,
510,-1.60e-02,-1.00e-02,
511,1.60e-02,1.40e-02,
512,-1.60e-02,1.40e-02,
513,1.60e-02,-1.00e-02,
514,-1.60e-02,1.60e-02,
515,1.20e-02,-1.20e-02,
516,-1.60e-02,1.40e-02,
517,1.60e-02,-1.00e-02,
518,-1.60e-02,-1.00e-02,
519,1.60e-02,1.40e-02,
520,1.20e-02,-1.00e-02,
521,-2.00e-02,1.40e-02,
522,1.20e-02,-1.00e-02,
523,-1.60e-02,1.40e-02,
524,-2.08e-01,9.80e-02,
525,1.76e-01,-8.40e-02,
526,1.20e-02,-1.00e-02,
527,-1.60e-02,1.60e-02,
528,-1.60e-02,1.40e-02,
529,1.60e-02,-1.00e-02,
530,1.20e-02,1.40e-02,
531,-1.60e-02,-8.00e-03,
532,1.20e-02,-1.00e-02,
533,-1.60e-02,1.60e-02,
534,-1.60e-02,-1.00e-02,
535,1.60e-02,1.40e-02,
536,-1.60e-02,-1.00e-02,
537,1.60e-02,1.40e-02,
538,1.20e-02,-1.00e-02,
539,-1.60e-02,1.60e-02,
540,-1.60e-02,1.40e-02,
541,1.60e-02,-1.00e-02,
542,1.20e-02,1.40e-02,
543,-1.60e-02,-1.00e-02,
544,1.20e-02,1.40e-02,
545,-1.60e-02,-1.00e-02,
546,1.20e-02,1.60e-02,
547,-1.60e-02,-1.00e-02,
548,1.20e-02,1.40e-02,
549,-1.60e-02,-1.00e-02,
550,1.20e-02,1.40e-02,
551,-1.60e-02,-8.00e-03,
552,-1.60e-02,1.40e-02,
553,1.60e-02,-1.00e-02,
554,3.96e-01,-2.54e-01,
555,-4.48e-01,2.56e-01,
556,-1.60e-02,1.40e-02,
557,1.20e-02,-8.00e-03,
558,1.20e-02,1.40e-02,
559,-1.60e-02,-1.00e-02,
560,1.20e-02,1.40e-02,
561,-1.60e-02,-1.00e-02,
562,1.20e-02,1.40e-02,
563,-1.60e-02,-1.00e-02,
564,1.20e-02,-8.00e-03,
565,-1.60e-02,1.40e-02,
566,-1.60e-02,1.40e-02,
567,1.60e-02,-1.00e-02,
568,1.20e-02,-8.00e-03,
569,-1.60e-02,1.40e-02,
570,-1.60e-02,-1.00e-02,
571,1.20e-02,1.40e-02,
572,-1.68e-01,-1.54e-01,
573,2.96e-01,1.44e-01,
574,-4.16e-01,-2.48e-01,
575,1.88e-01,2.56e-01,
576,1.20e-02,-1.00e-02,
577,-1.60e-02,1.60e-02,
578,1.20e-02,1.40e-02,
579,-1.60e-02,-1.00e-02,
580,1.20e-02,1.60e-02,
581,-1.60e-02,-1.00e-02,
582,1.20e-02,-1.00e-02,
583,-1.60e-02,1.60e-02,
584,-1.60e-02,-1.00e-02,
585,1.60e-02,1.60e-02,
586,1.20e-02,1.60e-02,
587,-1.60e-02,-1.00e-02,
588,1.20e-02,-8.00e-03,
589,-1.60e-02,1.40e-02,
590,1.20e-02,1.40e-02,
591,-1.60e-02,-1.00e-02,
592,1.20e-02,-8.00e-03,
593,-1.60e-02,1.60e-02,
594,-1.60e-02,1.60e-02,
595,1.60e-02,-1.00e-02,
596,-1.60e-02,-1.00e-02,
597,1.60e-02,1.60e-02,
598,-2.00e-02,-8.00e-03,
599,3.76e-01,1.92e-01,
600,4.72e-01,-2.54e-01,
601,-5.48e-01,2.56e-01,
602,-1.60e-02,1.60e-02,
603,1.60e-02,-1.00e-02,
604,1.60e-02,-8.00e-03,
605,-1.60e-02,1.60e-02,
606,-1.60e-02,1.40e-02,
607,1.60e-02,-1.00e-02,
608,-1.60e-02,-1.00e-02,
609,1.20e-02,1.60e-02,
610,-1.60e-02,1.40e-02,
611,1.60e-02,-1.00e-02,
612,-1.60e-02,-1.00e-02,
613,1.60e-02,1.60e-02,
614,1.60e-02,-1.00e-02,
615,-1.60e-02,1.60e-02,
616,-1.60e-02,-1.00e-02,
617,1.20e-02,1.60e-02,
618,1.20e-02,1.40e-02,
619,-1.60e-02,-1.00e-02,
620,4.20e-01,-2.32e-01,
621,-4.08e-01,2.16e-01,
622,-1.60e-02,-1.00e-02,
623,1.60e-02,1.60e-02,
624,1.20e-02,-8.00e-03,
625,-1.60e-02,1.60e-02,
626,1.20e-02,-8.00e-03,
627,-1.60e-02,1.60e-02,
628,1.20e-02,1.40e-02,
629,-2.00e-02,-1.00e-02,
630,1.20e-02,-8.00e-03,
631,-1.60e-02,1.40e-02,
632,1.20e-02,1.40e-02,
633,-1.60e-02,-1.00e-02,
634,-1.60e-02,1.40e-02,
635,1.60e-02,-8.00e-03,
636,1.20e-02,-8.00e-03,
637,-1.60e-02,1.60e-02,
638,1.20e-02,1.40e-02,
639,-1.60e-02,-1.00e-02,
640,-1.60e-02,-1.00e-02,
641,1.60e-02,1.60e-02,
642,-1.60e-02,1.60e-02,
643,1.60e-02,-1.00e-02,
644,-1.60e-02,-8.00e-03,
645,1.60e-02,1.60e-02,
646,1.20e-02,1.60e-02,
647,-1.60e-02,-1.00e-02,
648,-5.48e-01,-2.54e-01,
649,4.72e-01,2.56e-01,
650,-1.60e-02,1.60e-02,
651,1.60e-02,-1.00e-02,
652,-1.60e-02,-8.00e-03,
653,1.60e-02,1.60e-02,
654,1.20e-02,1.40e-02,
655,-1.60e-02,-1.00e-02,
656,1.20e-02,1.60e-02,
657,-1.60e-02,-1.00e-02,
658,-1.60e-02,1.40e-02,
659,1.60e-02,-1.00e-02,
660,-1.60e-02,1.40e-02,
661,1.60e-02,-1.00e-02,
662,1.20e-02,1.60e-02,
663,-1.60e-02,-8.00e-03,
664,1.60e-02,1.40e-02,
665,-1.60e-02,-1.00e-02,
666,2.84e-01,8.60e-02,
667,-2.04e-01,-8.20e-02,
668,-1.60e-02,-8.00e-03,
669,1.20e-02,1.60e-02,
670,1.20e-02,1.60e-02,
671,-1.60e-02,-8.00e-03,
672,-1.60e-02,-8.00e-03,
673,1.60e-02,1.60e-02,
674,-1.60e-02,-1.00e-02,
675,1.60e-02,1.60e-02,
676,-1.60e-02,-8.00e-03,
677,1.60e-02,1.60e-02,
678,1.60e-02,1.60e-02,
679,-1.60e-02,-1.00e-02,
680,1.20e-02,-8.00e-03,
681,-1.60e-02,1.60e-02,
682,1.20e-02,-8.00e-03,
683,-1.60e-02,1.60e-02,
684,1.20e-02,-8.00e-03,
685,-1.60e-02,1.60e-02,
686,-1.60e-02,1.60e-02,
687,1.60e-02,-1.00e-02,
688,-1.60e-02,1.40e-02,
689,1.60e-02,-1.00e-02,
690,1.20e-02,-1.00e-02,
691,-2.00e-02,1.60e-02,
692,-1.60e-02,1.40e-02,
693,1.60e-02,-8.00e-03,
694,4.72e-01,2.56e-01,
695,-5.48e-01,-2.54e-01,
696,1.20e-02,1.40e-02,
697,-1.60e-02,-1.00e-02,
698,1.20e-02,-1.00e-02,
699,-1.60e-02,1.60e-02,
700,-1.60e-02,-8.00e-03,
701,1.20e-02,1.60e-02,
702,1.20e-02,-8.00e-03,
703,-1.60e-02,1.40e-02,
704,1.20e-02,1.60e-02,
705,-1.60e-02,-8.00e-03,
706,-1.60e-02,1.40e-02,
707,1.60e-02,-1.00e-02,
708,1.20e-02,1.40e-02,
709,-1.60e-02,-1.00e-02,
710,-1.60e-02,1.40e-02,
711,1.20e-02,-1.00e-02,
712,1.20e-02,1.40e-02,
713,-1.60e-02,-8.00e-03,
714,2.12e-01,-2.54e-01,
715,-2.68e-01,2.56e-01,
716,1.20e-02,1.40e-02,
717,-1.60e-02,-1.00e-02,
718,1.20e-02,-1.00e-02,
719,-1.60e-02,1.60e-02,
720,-1.60e-02,1.60e-02,
721,1.60e-02,-1.00e-02,
722,-1.60e-02,1.60e-02,
723,1.60e-02,-1.00e-02,
724,-1.60e-02,-8.00e-03,
725,1.60e-02,1.40e-02,
726,-1.60e-02,1.40e-02,
727,1.60e-02,-1.00e-02,
728,-1.60e-02,1.60e-02,
729,1.20e-02,-1.00e-02,
730,-1.60e-02,-8.00e-03,
731,1.60e-02,1.60e-02,
732,1.60e-02,-8.00e-03,
733,-1.60e-02,1.60e-02,
734,1.20e-02,-1.00e-02,
735,-1.60e-02,1.60e-02,
736,-1.60e-02,1.60e-02,
737,1.60e-02,-1.00e-02,
738,1.20e-02,-8.00e-03,
739,-1.60e-02,1.60e-02,
740,4.72e-01,2.56e-01,
741,-5.48e-01,-2.54e-01,
742,-1.60e-02,-1.00e-02,
743,1.20e-02,1.40e-02,
744,-1.60e-02,1.60e-02,
745,1.20e-02,-1.00e-02,
746,1.20e-02,1.40e-02,
747,-2.00e-02,-1.00e-02,
748,1.20e-02,1.40e-02,
749,-1.60e-02,-1.00e-02,
750,1.20e-02,1.60e-02,
751,-1.60e-02,-1.00e-02,
752,1.20e-02,1.40e-02,
753,-1.60e-02,-1.00e-02,
754,-1.60e-02,-1.00e-02,
755,1.60e-02,1.60e-02,
756,1.20e-02,-1.00e-02,
757,-1.60e-02,1.60e-02,
758,-1.60e-02,-8.00e-03,
759,1.60e-02,1.40e-02,
760,-3.44e-01,2.56e-01,
761,4.24e-01,-2.54e-01,
762,-1.60e-02,1.60e-02,
763,1.60e-02,-1.00e-02,
764,-1.60e-02,1.40e-02,
765,1.60e-02,-1.00e-02,
766,-1.60e-02,1.60e-02,
767,1.60e-02,-1.00e-02,
768,-1.60e-02,1.40e-02,
769,1.60e-02,-1.00e-02,
770,-1.60e-02,1.60e-02,
771,1.60e-02,-1.00e-02,
772,1.20e-02,-1.00e-02,
773,-1.60e-02,1.60e-02,
774,-1.60e-02,-1.00e-02,
775,1.60e-02,1.60e-02,
776,1.20e-02,1.40e-02,
777,-1.60e-02,-1.00e-02,
778,-1.60e-02,-1.00e-02,
779,1.60e-02,1.60e-02,
780,-1.60e-02,-1.00e-02,
781,1.60e-02,1.60e-02,
782,-1.60e-02,-1.00e-02,
783,1.60e-02,1.60e-02,
784,-1.60e-02,-8.00e-03,
785,1.60e-02,1.60e-02,
786,1.20e-02,1.40e-02,
787,-1.60e-02,-1.00e-02,
788,-5.48e-01,2.56e-01,
789,4.72e-01,-2.54e-01,
790,-1.60e-02,-1.00e-02,
791,1.60e-02,1.60e-02,
792,-1.60e-02,1.40e-02,
793,1.20e-02,-1.00e-02,
794,-1.60e-02,1.40e-02,
795,1.60e-02,-1.00e-02,
796,-1.60e-02,1.40e-02,
797,1.60e-02,-1.00e-02,
798,-1.60e-02,1.40e-02,
799,1.20e-02,-8.00e-03,
800,1.20e-02,-8.00e-03,
801,-1.60e-02,1.40e-02,
802,1.20e-02,-1.00e-02,
803,-1.60e-02,1.40e-02,
804,-1.60e-02,1.40e-02,
805,1.60e-02,-1.00e-02,
806,3.16e-01,-8.00e-02,
807,-3.12e-01,1.08e-01,
808,-1.60e-02,1.60e-02,
809,1.60e-02,-1.00e-02,
810,-1.60e-02,1.40e-02,
811,1.20e-02,-1.00e-02,
812,1.20e-02,1.60e-02,
813,-1.60e-02,-1.00e-02,
814,1.20e-02,-1.00e-02,
815,-1.60e-02,1.60e-02,
816,1.20e-02,1.40e-02,
817,-1.60e-02,-1.00e-02,
818,-1.60e-02,1.40e-02,
819,1.60e-02,-1.00e-02,
820,1.20e-02,1.40e-02,
821,-2.00e-02,-1.00e-02,
822,1.20e-02,-1.00e-02,
823,-1.60e-02,1.40e-02,
824,-1.60e-02,-1.00e-02,
825,1.60e-02,1.40e-02,
826,1.20e-02,-1.00e-02,
827,-1.60e-02,1.40e-02,
828,1.60e-02,-1.00e-02,
829,-1.60e-02,1.60e-02,
830,1.20e-02,1.40e-02,
831,-1.60e-02,-1.00e-02,
832,-1.60e-02,-1.00e-02,
833,1.20e-02,1.60e-02,
