Motor_Data/MOTOR_3_ON/time domain/NewFile18.csv

X,CH1,CH2,Start,Increment,
Sequence,Volt,Volt,-3.000000e-02,5.000000e-05
0,-1.60e-02,1.40e-02,
1,1.60e-02,-8.00e-03,
2,-1.60e-02,-1.00e-02,
3,1.20e-02,1.40e-02,
4,1.20e-02,1.40e-02,
5,-1.60e-02,-1.00e-02,
6,-1.60e-02,-8.00e-03,
7,1.60e-02,1.40e-02,
8,1.20e-02,1.40e-02,
9,-1.60e-02,-1.00e-02,
10,-1.60e-02,1.40e-02,
11,1.60e-02,-8.00e-03,
12,1.20e-02,1.40e-02,
13,-1.60e-02,-8.00e-03,
14,-1.60e-02,-8.00e-03,
15,1.20e-02,1.40e-02,
16,7.20e-02,2.02e-01,
17,-4.80e-02,-1.00e-02,
18,4.72e-01,2.56e-01,
19,-5.44e-01,-2.54e-01,
20,1.20e-02,-8.00e-03,
21,-1.60e-02,1.40e-02,
22,1.20e-02,1.40e-02,
23,-1.60e-02,-8.00e-03,
24,1.20e-02,-1.00e-02,
25,-1.60e-02,1.40e-02,
26,1.20e-02,1.40e-02,
27,-1.60e-02,-1.00e-02,
28,1.20e-02,1.40e-02,
29,-1.60e-02,-1.00e-02,
30,1.20e-02,-1.00e-02,
31,-1.60e-02,1.40e-02,
32,1.20e-02,1.40e-02,
33,-1.60e-02,-1.00e-02,
34,-1.60e-02,-8.00e-03,
35,1.60e-02,1.40e-02,
36,1.40e-01,1.12e-01,
37,-2.76e-01,-7.80e-02,
38,-1.60e-02,-8.00e-03,
39,1.20e-02,1.40e-02,
40,-1.60e-02,-8.00e-03,
41,1.60e-02,1.40e-02,
42,1.20e-02,-8.00e-03,
43,-1.60e-02,1.40e-02,
44,1.20e-02,-1.00e-02,
45,-1.60e-02,1.40e-02,
46,1.20e-02,-8.00e-03,
47,-1.60e-02,1.60e-02,
48,1.20e-02,1.40e-02,
49,-1.60e-02,-1.00e-02,
50,1.20e-02,-8.00e-03,
51,-1.60e-02,1.40e-02,
52,1.20e-02,-1.00e-02,
53,-1.60e-02,1.40e-02,
54,1.20e-02,1.40e-02,
55,-1.60e-02,-1.00e-02,
56,1.20e-02,-1.00e-02,
57,-1.60e-02,1.40e-02,
58,1.20e-02,1.40e-02,
59,-1.60e-02,-8.00e-03,
60,1.20e-02,-8.00e-03,
61,-1.60e-02,1.40e-02,
62,1.20e-02,1.40e-02,
63,-1.60e-02,-1.00e-02,
64,1.20e-02,6.20e-02,
65,-7.60e-02,-1.60e-02,
66,-5.48e-01,2.56e-01,
67,2.36e-01,-2.54e-01,
68,-1.60e-02,-8.00e-03,
69,1.20e-02,1.40e-02,
70,-1.60e-02,-8.00e-03,
71,1.20e-02,1.40e-02,
72,1.20e-02,1.40e-02,
73,-1.60e-02,-8.00e-03,
74,1.20e-02,-8.00e-03,
75,-1.60e-02,1.40e-02,
76,-1.60e-02,-8.00e-03,
77,1.20e-02,1.40e-02,
78,-1.60e-02,-8.00e-03,
79,1.20e-02,1.60e-02,
80,1.20e-02,-8.00e-03,
81,-1.60e-02,1.40e-02,
82,-1.60e-02,1.40e-02,
83,1.20e-02,-8.00e-03,
84,-1.60e-02,-8.00e-03,
85,1.20e-02,1.40e-02,
86,3.16e-01,2.56e-01,
87,-3.28e-01,-2.54e-01,
88,1.20e-02,-8.00e-03,
89,-1.60e-02,1.60e-02,
90,-1.60e-02,-8.00e-03,
91,1.60e-02,1.40e-02,
92,1.20e-02,1.40e-02,
93,-1.60e-02,-8.00e-03,
94,1.20e-02,-8.00e-03,
95,-1.60e-02,1.40e-02,
96,-1.60e-02,-8.00e-03,
97,1.20e-02,1.40e-02,
98,1.20e-02,1.40e-02,
99,-2.00e-02,-8.00e-03,
100,1.20e-02,1.40e-02,
101,-1.60e-02,-8.00e-03,
102,1.60e-02,-1.00e-02,
103,-1.60e-02,1.40e-02,
104,-1.60e-02,-8.00e-03,
105,1.20e-02,1.40e-02,
106,1.20e-02,-8.00e-03,
107,-1.60e-02,1.40e-02,
108,-1.60e-02,-8.00e-03,
109,1.60e-02,1.40e-02,
110,1.20e-02,-8.00e-03,
111,-1.60e-02,1.40e-02,
112,-5.48e-01,-2.54e-01,
113,3.16e-01,2.56e-01,
114,1.20e-02,1.40e-02,
115,-1.60e-02,-1.00e-02,
116,-1.60e-02,1.40e-02,
117,1.60e-02,-1.00e-02,
118,1.20e-02,-8.00e-03,
119,-1.60e-02,1.40e-02,
120,-1.60e-02,-8.00e-03,
121,1.60e-02,1.40e-02,
122,1.60e-02,-1.00e-02,
123,-1.60e-02,1.40e-02,
124,1.20e-02,1.40e-02,
125,-1.60e-02,-8.00e-03,
126,-1.60e-02,1.40e-02,
127,1.20e-02,-1.00e-02,
128,1.20e-02,-8.00e-03,
129,-1.60e-02,1.40e-02,
130,1.20e-02,-8.00e-03,
131,-1.60e-02,1.40e-02,
132,1.20e-02,1.40e-02,
133,-1.60e-02,-1.00e-02,
134,-4.00e-01,-2.54e-01,
135,3.84e-01,2.56e-01,
136,1.20e-02,1.40e-02,
137,-1.60e-02,-1.00e-02,
138,1.20e-02,-1.00e-02,
139,-1.60e-02,1.40e-02,
140,1.20e-02,-8.00e-03,
141,-1.60e-02,1.40e-02,
142,-1.60e-02,1.40e-02,
143,1.20e-02,-1.00e-02,
144,1.20e-02,1.40e-02,
145,-1.60e-02,-1.00e-02,
146,1.60e-02,1.40e-02,
147,-1.60e-02,-8.00e-03,
148,1.20e-02,1.40e-02,
149,-1.60e-02,-8.00e-03,
150,1.60e-02,1.40e-02,
151,-1.60e-02,-8.00e-03,
152,1.20e-02,1.40e-02,
153,-1.60e-02,-1.00e-02,
154,1.20e-02,1.40e-02,
155,-1.60e-02,-8.00e-03,
156,-1.60e-02,-1.00e-02,
157,1.20e-02,1.40e-02,
158,-1.60e-02,-8.00e-03,
159,1.60e-02,1.40e-02,
160,-1.40e-01,1.86e-01,
161,7.60e-02,-1.02e-01,
162,-5.48e-01,-2.54e-01,
163,4.72e-01,2.56e-01,
164,-1.60e-02,-1.00e-02,
165,1.60e-02,1.40e-02,
166,1.20e-02,1.40e-02,
167,-1.60e-02,-1.00e-02,
168,1.20e-02,1.40e-02,
169,-1.60e-02,-8.00e-03,
170,1.20e-02,1.40e-02,
171,-1.60e-02,-1.00e-02,
172,-1.60e-02,-1.00e-02,
173,1.20e-02,1.40e-02,
174,1.20e-02,1.40e-02,
175,-1.60e-02,-1.00e-02,
176,-1.60e-02,1.60e-02,
177,1.60e-02,-1.00e-02,
178,1.20e-02,1.40e-02,
179,-1.60e-02,-1.00e-02,
180,2.04e-01,-1.44e-01,
181,-1.88e-01,1.66e-01,
182,1.20e-02,-1.00e-02,
183,-1.60e-02,1.40e-02,
184,-1.60e-02,1.40e-02,
185,1.60e-02,-8.00e-03,
186,-1.60e-02,1.40e-02,
187,1.20e-02,-1.00e-02,
188,-1.60e-02,1.60e-02,
189,1.60e-02,-1.00e-02,
190,-1.60e-02,-1.00e-02,
191,1.20e-02,1.60e-02,
192,-1.60e-02,1.40e-02,
193,1.20e-02,-8.00e-03,
194,1.20e-02,1.40e-02,
195,-1.60e-02,-1.00e-02,
196,-1.60e-02,-8.00e-03,
197,1.60e-02,1.40e-02,
198,-1.60e-02,1.40e-02,
199,1.60e-02,-8.00e-03,
200,1.60e-02,-1.00e-02,
201,-1.60e-02,1.40e-02,
202,-1.60e-02,-8.00e-03,
203,1.60e-02,1.60e-02,
204,1.20e-02,1.40e-02,
205,-1.60e-02,-1.00e-02,
206,-1.60e-02,1.40e-02,
207,1.20e-02,-8.00e-03,
208,-1.60e-02,-8.00e-03,
209,1.20e-02,1.40e-02,
210,-1.60e-02,-8.00e-03,
211,1.60e-02,1.40e-02,
212,-5.48e-01,2.56e-01,
213,4.72e-01,-2.54e-01,
214,1.20e-02,-1.00e-02,
215,-1.60e-02,1.40e-02,
216,1.20e-02,-1.00e-02,
217,-2.00e-02,1.60e-02,
218,1.20e-02,1.40e-02,
219,-1.60e-02,-1.00e-02,
220,1.20e-02,1.40e-02,
221,-1.60e-02,-1.00e-02,
222,1.20e-02,-8.00e-03,
223,-1.60e-02,1.40e-02,
224,1.20e-02,1.40e-02,
225,-1.60e-02,-8.00e-03,
226,-1.60e-02,1.40e-02,
227,1.20e-02,-1.00e-02,
228,1.20e-02,-8.00e-03,
229,-1.60e-02,1.40e-02,
230,4.44e-01,-2.54e-01,
231,-1.12e-01,2.56e-01,
232,1.20e-02,-8.00e-03,
233,-1.60e-02,1.40e-02,
234,1.20e-02,1.40e-02,
235,-1.60e-02,-8.00e-03,
236,1.20e-02,1.40e-02,
237,-1.60e-02,-1.00e-02,
238,1.20e-02,1.40e-02,
239,-1.60e-02,-8.00e-03,
240,1.20e-02,1.40e-02,
241,-1.60e-02,-1.00e-02,
242,1.20e-02,1.40e-02,
243,-1.60e-02,-8.00e-03,
244,1.20e-02,-8.00e-03,
245,-1.60e-02,1.40e-02,
246,1.20e-02,1.40e-02,
247,-1.60e-02,-1.00e-02,
248,1.20e-02,1.40e-02,
249,-1.60e-02,-8.00e-03,
250,1.20e-02,-8.00e-03,
251,-1.60e-02,1.60e-02,
252,1.20e-02,1.40e-02,
253,-1.60e-02,-8.00e-03,
254,1.20e-02,-1.00e-02,
255,-1.60e-02,1.40e-02,
256,1.20e-02,1.40e-02,
257,-1.60e-02,-8.00e-03,
258,4.72e-01,2.56e-01,
259,-5.48e-01,-2.54e-01,
260,1.20e-02,-8.00e-03,
261,-1.60e-02,1.40e-02,
262,1.20e-02,-8.00e-03,
263,-1.60e-02,1.40e-02,
264,1.20e-02,-8.00e-03,
265,-1.60e-02,1.40e-02,
266,1.20e-02,-8.00e-03,
267,-1.60e-02,1.40e-02,
268,1.20e-02,1.40e-02,
269,-1.60e-02,-8.00e-03,
270,1.20e-02,-8.00e-03,
271,-1.60e-02,1.40e-02,
272,1.20e-02,-8.00e-03,
273,-1.60e-02,1.60e-02,
274,-1.60e-02,-8.00e-03,
275,1.60e-02,1.40e-02,
276,1.20e-02,-8.00e-03,
277,-1.60e-02,1.60e-02,
278,1.20e-02,1.40e-02,
279,-1.60e-02,-8.00e-03,
280,-3.00e-01,-1.20e-01,
281,2.84e-01,2.56e-01,
282,-1.60e-02,1.40e-02,
283,1.20e-02,-1.00e-02,
284,1.20e-02,-8.00e-03,
285,-1.60e-02,1.40e-02,
286,-1.60e-02,-8.00e-03,
287,1.20e-02,1.60e-02,
288,1.20e-02,-8.00e-03,
289,-1.60e-02,1.60e-02,
290,1.20e-02,-8.00e-03,
291,-1.60e-02,1.60e-02,
292,-1.60e-02,-8.00e-03,
293,1.20e-02,1.40e-02,
294,1.20e-02,1.40e-02,
295,-1.60e-02,-1.00e-02,
296,1.20e-02,-8.00e-03,
297,-1.60e-02,1.40e-02,
298,1.20e-02,1.40e-02,
299,-1.60e-02,-1.00e-02,
300,1.20e-02,1.40e-02,
301,-1.60e-02,-1.00e-02,
302,1.20e-02,-8.00e-03,
303,-1.60e-02,1.40e-02,
304,1.20e-02,1.40e-02,
305,-1.60e-02,-1.00e-02,
306,3.60e-02,1.00e-01,
307,-4.40e-02,-1.12e-01,
308,3.40e-01,-2.54e-01,
309,-5.48e-01,2.56e-01,
310,1.60e-02,-8.00e-03,
311,-1.60e-02,1.40e-02,
312,1.20e-02,-8.00e-03,
313,-1.60e-02,1.40e-02,
314,-1.20e-02,-8.00e-03,
315,1.60e-02,1.40e-02,
316,1.20e-02,1.60e-02,
317,-1.60e-02,-8.00e-03,
318,-1.60e-02,1.40e-02,
319,1.60e-02,-8.00e-03,
320,-1.60e-02,-8.00e-03,
321,1.60e-02,1.40e-02,
322,1.20e-02,1.40e-02,
323,-1.60e-02,-1.00e-02,
324,1.20e-02,-8.00e-03,
325,-1.60e-02,1.40e-02,
326,2.20e-01,-1.44e-01,
327,-2.16e-01,1.00e-01,
328,1.20e-02,-8.00e-03,
329,-1.60e-02,1.40e-02,
330,1.20e-02,1.40e-02,
331,-1.60e-02,-1.00e-02,
332,1.20e-02,1.40e-02,
333,-1.60e-02,-1.00e-02,
334,-1.60e-02,1.40e-02,
335,1.20e-02,-8.00e-03,
336,1.20e-02,-1.00e-02,
337,-1.60e-02,1.40e-02,
338,1.60e-02,-8.00e-03,
339,-1.60e-02,1.40e-02,
340,-1.60e-02,1.40e-02,
341,1.60e-02,-8.00e-03,
342,1.20e-02,1.40e-02,
343,-1.60e-02,-1.00e-02,
344,1.20e-02,1.40e-02,
345,-1.60e-02,-1.00e-02,
346,-1.60e-02,-1.00e-02,
347,1.60e-02,1.40e-02,
348,-1.60e-02,1.40e-02,
349,1.20e-02,-1.00e-02,
350,-1.60e-02,-1.00e-02,
351,1.60e-02,1.40e-02,
352,-1.60e-02,-1.00e-02,
353,1.20e-02,1.40e-02,
354,4.40e-02,5.20e-02,
355,-6.40e-02,-4.80e-02,
356,-5.48e-01,2.56e-01,
357,4.56e-01,-2.54e-01,
358,1.20e-02,-1.80e-02,
359,-3.60e-02,4.20e-02,
360,-1.60e-02,1.40e-02,
361,1.20e-02,-1.00e-02,
362,-1.60e-02,1.40e-02,
363,1.60e-02,-1.00e-02,
364,-1.60e-02,1.40e-02,
365,1.60e-02,-1.00e-02,
366,1.20e-02,1.40e-02,
367,-1.60e-02,-1.00e-02,
368,1.20e-02,-8.00e-03,
369,-1.60e-02,1.40e-02,
370,-1.60e-02,-8.00e-03,
371,1.20e-02,1.40e-02,
372,-1.60e-02,1.40e-02,
373,1.60e-02,-1.00e-02,
374,-1.60e-02,-8.00e-03,
375,1.60e-02,1.40e-02,
376,-3.72e-01,2.56e-01,
377,3.60e-01,-2.54e-01,
378,1.20e-02,1.40e-02,
379,-1.60e-02,-8.00e-03,
380,1.60e-02,-8.00e-03,
381,-1.60e-02,1.40e-02,
382,1.20e-02,1.60e-02,
383,-1.60e-02,-1.00e-02,
384,1.20e-02,-1.00e-02,
385,-1.60e-02,1.40e-02,
386,1.20e-02,1.40e-02,
387,-1.60e-02,-8.00e-03,
388,1.20e-02,1.40e-02,
389,-1.60e-02,-8.00e-03,
390,1.20e-02,-8.00e-03,
391,-1.60e-02,1.40e-02,
392,1.20e-02,-8.00e-03,
393,-1.60e-02,1.40e-02,
394,-1.60e-02,1.40e-02,
395,1.20e-02,-8.00e-03,
396,1.20e-02,1.40e-02,
397,-1.60e-02,-1.00e-02,
398,1.20e-02,1.40e-02,
399,-1.60e-02,-1.00e-02,
400,1.20e-02,1.40e-02,
401,-1.60e-02,-1.00e-02,
402,1.20e-02,-8.00e-03,
403,-1.60e-02,1.40e-02,
404,-5.28e-01,2.56e-01,
405,4.72e-01,-2.54e-01,
406,1.20e-02,1.40e-02,
407,-1.60e-02,-1.00e-02,
408,1.20e-02,1.40e-02,
409,-1.60e-02,-1.00e-02,
410,1.20e-02,-1.00e-02,
411,-1.60e-02,1.40e-02,
412,1.20e-02,-8.00e-03,
413,-1.60e-02,1.40e-02,
414,1.20e-02,1.40e-02,
415,-1.60e-02,-1.00e-02,
416,1.20e-02,1.40e-02,
417,-1.60e-02,-1.00e-02,
418,1.20e-02,-8.00e-03,
419,-1.60e-02,1.40e-02,
420,1.20e-02,-1.00e-02,
421,-2.00e-02,1.60e-02,
422,1.20e-02,-1.00e-02,
423,-1.60e-02,1.60e-02,
424,1.20e-02,1.60e-02,
425,-1.60e-02,-8.00e-03,
426,4.20e-01,2.56e-01,
427,-3.48e-01,-2.54e-01,
428,1.20e-02,-8.00e-03,
429,-1.60e-02,1.40e-02,
430,1.20e-02,-8.00e-03,
431,-1.60e-02,1.40e-02,
432,1.20e-02,1.40e-02,
433,-1.60e-02,-8.00e-03,
434,-1.60e-02,1.40e-02,
435,1.20e-02,-8.00e-03,
436,1.20e-02,1.40e-02,
437,-1.60e-02,-8.00e-03,
438,1.20e-02,1.40e-02,
439,-1.60e-02,-1.00e-02,
440,1.20e-02,-8.00e-03,
441,-1.60e-02,1.40e-02,
442,1.20e-02,-8.00e-03,
443,-1.60e-02,1.60e-02,
444,-1.60e-02,1.40e-02,
445,1.20e-02,-8.00e-03,
446,1.20e-02,1.40e-02,
447,-1.60e-02,-8.00e-03,
448,-1.60e-02,-8.00e-03,
449,1.20e-02,1.40e-02,
450,-1.60e-02,1.40e-02,
451,1.20e-02,-1.00e-02,
452,9.60e-02,-5.60e-02,
453,-4.40e-02,1.34e-01,
454,-5.48e-01,-2.54e-01,
455,4.72e-01,2.56e-01,
456,1.20e-02,-8.00e-03,
457,-1.60e-02,1.40e-02,
458,1.20e-02,-8.00e-03,
459,-1.60e-02,1.40e-02,
460,-1.60e-02,-8.00e-03,
461,1.60e-02,1.40e-02,
462,1.20e-02,-8.00e-03,
463,-1.60e-02,1.40e-02,
464,1.20e-02,1.40e-02,
465,-1.60e-02,-8.00e-03,
466,1.20e-02,-8.00e-03,
467,-1.60e-02,1.40e-02,
468,1.20e-02,-1.00e-02,
469,-1.60e-02,1.40e-02,
470,1.20e-02,-8.00e-03,
471,-1.60e-02,1.40e-02,
472,-6.00e-02,-7.20e-02,
473,2.72e-01,1.06e-01,
474,1.20e-02,1.40e-02,
475,-1.60e-02,-1.00e-02,
476,1.20e-02,-8.00e-03,
477,-1.60e-02,1.60e-02,
478,1.20e-02,-1.00e-02,
479,-1.60e-02,1.40e-02,
480,1.20e-02,1.40e-02,
481,-1.60e-02,-1.00e-02,
482,1.60e-02,-8.00e-03,
483,-1.60e-02,1.60e-02,
484,-1.60e-02,1.40e-02,
485,1.20e-02,-1.00e-02,
486,1.20e-02,1.40e-02,
487,-1.60e-02,-8.00e-03,
488,1.20e-02,-8.00e-03,
489,-1.60e-02,1.40e-02,
490,1.60e-02,-8.00e-03,
491,-1.60e-02,1.40e-02,
492,1.20e-02,1.40e-02,
493,-1.60e-02,-8.00e-03,
494,1.20e-02,-8.00e-03,
495,-1.60e-02,1.60e-02,
496,1.20e-02,-8.00e-03,
497,-1.60e-02,1.40e-02,
498,1.20e-02,-8.00e-03,
499,-1.60e-02,1.40e-02,
500,-6.00e-02,-8.00e-03,
501,1.60e-02,5.80e-02,
502,-4.84e-01,2.56e-01,
503,3.68e-01,-2.54e-01,
504,1.20e-02,1.40e-02,
505,-1.60e-02,-8.00e-03,
506,1.20e-02,-8.00e-03,
507,-1.60e-02,1.40e-02,
508,1.20e-02,-1.00e-02,
509,-1.60e-02,1.40e-02,
510,-1.60e-02,-8.00e-03,
511,1.60e-02,1.60e-02,
512,1.20e-02,1.40e-02,
513,-1.60e-02,-1.00e-02,
514,1.20e-02,1.40e-02,
515,-1.60e-02,-1.00e-02,
516,1.20e-02,-8.00e-03,
517,-1.60e-02,1.40e-02,
518,-1.60e-02,-8.00e-03,
519,1.60e-02,1.60e-02,
520,1.20e-02,-8.00e-03,
521,-1.60e-02,1.40e-02,
522,2.88e-01,-2.42e-01,
523,-2.84e-01,2.56e-01,
524,1.20e-02,-8.00e-03,
525,-1.60e-02,1.40e-02,
526,-1.60e-02,-8.00e-03,
527,1.60e-02,1.40e-02,
528,1.20e-02,1.40e-02,
529,-1.60e-02,-8.00e-03,
530,-1.60e-02,1.40e-02,
531,1.60e-02,-1.00e-02,
532,1.20e-02,-8.00e-03,
533,-1.60e-02,1.40e-02,
534,1.20e-02,1.40e-02,
535,-1.60e-02,-1.00e-02,
536,1.20e-02,1.40e-02,
537,-1.60e-02,-8.00e-03,
538,1.20e-02,-8.00e-03,
539,-1.60e-02,1.40e-02,
540,1.20e-02,-8.00e-03,
541,-1.60e-02,1.40e-02,
542,1.20e-02,1.40e-02,
543,-1.60e-02,-1.20e-02,
544,1.20e-02,-8.00e-03,
545,-1.60e-02,1.40e-02,
546,-1.60e-02,-8.00e-03,
547,1.60e-02,1.60e-02,
548,-5.48e-01,2.56e-01,
549,4.72e-01,-2.54e-01,
550,1.60e-02,-1.00e-02,
551,-1.60e-02,1.60e-02,
552,1.20e-02,-8.00e-03,
553,-1.60e-02,1.40e-02,
554,1.20e-02,1.40e-02,
555,-1.60e-02,-1.00e-02,
556,1.20e-02,-1.00e-02,
557,-1.60e-02,1.40e-02,
558,1.20e-02,-8.00e-03,
559,-1.60e-02,1.40e-02,
560,-1.20e-02,-8.00e-03,
561,1.20e-02,1.40e-02,
562,1.20e-02,-8.00e-03,
563,-1.60e-02,1.40e-02,
564,-1.60e-02,-8.00e-03,
565,1.60e-02,1.40e-02,
566,1.20e-02,-8.00e-03,
567,-1.60e-02,1.40e-02,
568,1.20e-02,-8.00e-03,
569,-1.60e-02,1.40e-02,
570,4.72e-01,-2.54e-01,
571,-5.48e-01,2.56e-01,
572,1.20e-02,-8.00e-03,
573,-1.60e-02,1.40e-02,
574,1.20e-02,-8.00e-03,
575,-1.60e-02,1.40e-02,
576,-1.60e-02,-8.00e-03,
577,1.60e-02,1.40e-02,
578,1.20e-02,-8.00e-03,
579,-1.60e-02,1.40e-02,
580,1.60e-02,1.40e-02,
581,-1.60e-02,-1.00e-02,
582,1.20e-02,1.40e-02,
583,-1.60e-02,-1.00e-02,
584,1.20e-02,-8.00e-03,
585,-1.60e-02,1.40e-02,
586,-1.60e-02,-8.00e-03,
587,1.20e-02,1.40e-02,
588,1.20e-02,1.60e-02,
589,-1.60e-02,-8.00e-03,
590,-1.60e-02,-8.00e-03,
591,1.60e-02,1.40e-02,
592,1.20e-02,1.40e-02,
593,-1.60e-02,-8.00e-03,
594,1.20e-02,1.40e-02,
595,-1.60e-02,-8.00e-03,
596,1.20e-02,1.40e-02,
597,-1.60e-02,-8.00e-03,
598,3.20e-02,-6.20e-02,
599,-4.16e-01,1.90e-01,
600,4.72e-01,2.56e-01,
601,-4.28e-01,-2.54e-01,
602,1.20e-02,1.40e-02,
603,-1.60e-02,-8.00e-03,
604,1.60e-02,-8.00e-03,
605,-1.60e-02,1.40e-02,
606,1.20e-02,1.40e-02,
607,-1.60e-02,-1.00e-02,
608,1.20e-02,-8.00e-03,
609,-1.60e-02,1.60e-02,
610,1.20e-02,-8.00e-03,
611,-1.60e-02,1.60e-02,
612,-1.60e-02,1.40e-02,
613,1.20e-02,-1.00e-02,
614,1.20e-02,1.40e-02,
615,-1.60e-02,-1.00e-02,
616,-3.20e-02,1.40e-02,
617,8.40e-02,-1.00e-02,
618,9.20e-02,4.00e-02,
619,-9.20e-02,-9.60e-02,
620,1.20e-02,1.20e-02,
621,-1.60e-02,-8.00e-03,
622,1.20e-02,-8.00e-03,
623,-1.60e-02,1.40e-02,
624,1.20e-02,-8.00e-03,
625,-1.60e-02,1.40e-02,
626,1.20e-02,1.40e-02,
627,-1.60e-02,-1.00e-02,
628,1.20e-02,1.40e-02,
629,-2.00e-02,-1.00e-02,
630,-1.60e-02,-8.00e-03,
631,1.60e-02,1.40e-02,
632,-1.60e-02,-8.00e-03,
633,1.20e-02,1.40e-02,
634,1.20e-02,1.40e-02,
635,-1.60e-02,-1.00e-02,
636,1.20e-02,1.40e-02,
637,-1.60e-02,-1.00e-02,
638,1.20e-02,-8.00e-03,
639,-1.60e-02,1.40e-02,
640,1.20e-02,1.40e-02,
641,-1.60e-02,-8.00e-03,
642,-1.60e-02,1.40e-02,
643,1.60e-02,-8.00e-03,
644,-1.60e-02,1.40e-02,
645,1.20e-02,-1.00e-02,
646,-5.20e-02,8.00e-02,
647,8.00e-02,-5.60e-02,
648,-5.48e-01,-2.54e-01,
649,4.72e-01,2.56e-01,
650,-1.60e-02,-8.00e-03,
651,1.60e-02,1.40e-02,
652,1.20e-02,1.40e-02,
653,-1.60e-02,-1.00e-02,
654,-1.60e-02,-1.00e-02,
655,1.60e-02,1.60e-02,
656,1.20e-02,1.40e-02,
657,-1.60e-02,-1.00e-02,
658,1.20e-02,-8.00e-03,
659,-1.60e-02,1.40e-02,
660,1.20e-02,1.60e-02,
661,-1.60e-02,-1.00e-02,
662,1.20e-02,1.40e-02,
663,-1.60e-02,-1.00e-02,
664,1.20e-02,1.40e-02,
665,-1.60e-02,-8.00e-03,
666,-1.60e-02,1.40e-02,
667,1.24e-01,-5.40e-02,
668,3.52e-01,-2.54e-01,
669,-3.60e-01,2.56e-01,
670,1.20e-02,1.40e-02,
671,-1.60e-02,-1.00e-02,
672,1.20e-02,-8.00e-03,
673,-1.60e-02,1.40e-02,
674,-1.60e-02,1.40e-02,
675,1.60e-02,-8.00e-03,
676,-1.60e-02,1.40e-02,
677,1.20e-02,-8.00e-03,
678,-1.60e-02,1.40e-02,
679,1.20e-02,-1.00e-02,
680,-1.60e-02,1.40e-02,
681,1.60e-02,-8.00e-03,
682,1.20e-02,1.40e-02,
683,-1.60e-02,-8.00e-03,
684,-1.60e-02,-8.00e-03,
685,1.60e-02,1.60e-02,
686,1.20e-02,1.40e-02,
687,-1.60e-02,-8.00e-03,
688,-1.60e-02,1.40e-02,
689,1.20e-02,-8.00e-03,
690,1.20e-02,1.40e-02,
691,-1.60e-02,-8.00e-03,
692,-1.60e-02,1.40e-02,
693,1.60e-02,-1.00e-02,
694,-5.20e-01,-2.54e-01,
695,4.72e-01,2.56e-01,
696,-1.60e-02,1.40e-02,
697,1.60e-02,-1.00e-02,
698,1.20e-02,-1.00e-02,
699,-1.60e-02,1.40e-02,
700,-1.60e-02,-8.00e-03,
701,1.60e-02,1.60e-02,
702,1.20e-02,1.40e-02,
703,-1.60e-02,-1.00e-02,
704,1.20e-02,1.40e-02,
705,-1.60e-02,-8.00e-03,
706,1.20e-02,-8.00e-03,
707,-1.60e-02,1.40e-02,
708,1.20e-02,-8.00e-03,
709,-1.60e-02,1.40e-02,
710,1.20e-02,1.40e-02,
711,-1.60e-02,-1.00e-02,
712,1.20e-02,-8.00e-03,
713,-1.60e-02,1.40e-02,
714,1.20e-02,-8.00e-03,
715,-1.60e-02,1.40e-02,
716,-5.00e-01,-2.54e-01,
717,5.20e-02,2.56e-01,
718,-1.60e-02,-8.00e-03,
719,1.20e-02,1.40e-02,
720,-1.60e-02,1.40e-02,
721,1.60e-02,-1.00e-02,
722,1.20e-02,-8.00e-03,
723,-1.60e-02,1.40e-02,
724,1.20e-02,1.40e-02,
725,-1.60e-02,-1.00e-02,
726,1.20e-02,1.40e-02,
727,-1.60e-02,-8.00e-03,
728,1.20e-02,-8.00e-03,
729,-1.60e-02,1.60e-02,
730,1.20e-02,-8.00e-03,
731,-1.60e-02,1.40e-02,
732,-1.60e-02,-8.00e-03,
733,1.20e-02,1.40e-02,
734,1.20e-02,1.40e-02,
735,-1.60e-02,-8.00e-03,
736,1.20e-02,-8.00e-03,
737,-1.60e-02,1.40e-02,
738,1.20e-02,-8.00e-03,
739,-1.60e-02,1.40e-02,
740,1.60e-02,1.40e-02,
741,-1.60e-02,-8.00e-03,
742,-2.60e-01,-9.60e-02,
743,9.60e-02,1.94e-01,
744,4.72e-01,2.56e-01,
745,-2.72e-01,-2.54e-01,
746,1.20e-02,-8.00e-03,
747,-1.60e-02,1.40e-02,
748,1.20e-02,1.40e-02,
749,-1.60e-02,-1.00e-02,
750,1.20e-02,1.20e-02,
751,-1.60e-02,-8.00e-03,
752,-1.60e-02,1.40e-02,
753,1.20e-02,-1.00e-02,
754,1.20e-02,-8.00e-03,
755,-1.60e-02,1.40e-02,
756,1.20e-02,-8.00e-03,
757,-1.60e-02,1.40e-02,
758,1.20e-02,1.40e-02,
759,-1.60e-02,-1.00e-02,
760,1.20e-02,1.40e-02,
761,-1.60e-02,-1.00e-02,
762,-1.24e-01,-9.00e-02,
763,1.36e-01,9.20e-02,
764,-1.60e-02,1.40e-02,
765,1.60e-02,-1.00e-02,
766,1.20e-02,1.40e-02,
767,-1.60e-02,-8.00e-03,
768,1.20e-02,1.40e-02,
769,-1.60e-02,-1.00e-02,
770,1.20e-02,1.40e-02,
771,-1.60e-02,-1.00e-02,
772,1.60e-02,1.40e-02,
773,-1.60e-02,-1.00e-02,
774,1.20e-02,1.40e-02,
775,-1.60e-02,-1.00e-02,
776,1.20e-02,-8.00e-03,
777,-1.60e-02,1.60e-02,
778,1.20e-02,-8.00e-03,
779,-1.60e-02,1.60e-02,
780,1.20e-02,-8.00e-03,
781,-1.60e-02,1.40e-02,
782,-1.60e-02,1.40e-02,
783,1.20e-02,-8.00e-03,
784,-1.60e-02,1.40e-02,
785,1.60e-02,-8.00e-03,
786,1.20e-02,1.40e-02,
787,-1.60e-02,-8.00e-03,
788,1.20e-02,-8.00e-03,
789,-1.60e-02,1.60e-02,
790,1.20e-02,-8.00e-03,
791,-1.60e-02,1.40e-02,
792,1.20e-02,-8.00e-03,
793,-1.60e-02,1.60e-02,
794,-5.48e-01,-2.54e-01,
795,3.44e-01,2.56e-01,
796,-1.60e-02,1.40e-02,
797,1.60e-02,-1.00e-02,
798,-1.60e-02,1.40e-02,
799,1.60e-02,-8.00e-03,
800,1.20e-02,-1.00e-02,
801,-1.60e-02,1.40e-02,
802,1.20e-02,-8.00e-03,
803,-1.60e-02,1.60e-02,
804,1.20e-02,-1.00e-02,
805,-1.60e-02,1.60e-02,
806,1.20e-02,-8.00e-03,
807,-1.60e-02,1.40e-02,
808,1.20e-02,-8.00e-03,
809,-1.60e-02,1.40e-02,
810,1.20e-02,-8.00e-03,
811,-1.60e-02,1.40e-02,
812,-2.48e-01,-2.54e-01,
813,4.00e-01,2.56e-01,
814,-1.60e-02,1.40e-02,
815,1.60e-02,-8.00e-03,
816,1.20e-02,-8.00e-03,
817,-1.60e-02,1.40e-02,
818,1.60e-02,1.60e-02,
819,-1.60e-02,-1.00e-02,
820,1.20e-02,1.40e-02,
821,-1.60e-02,-8.00e-03,
822,1.20e-02,1.40e-02,
823,-1.60e-02,-1.00e-02,
824,1.20e-02,1.40e-02,
825,-1.60e-02,-1.00e-02,
826,1.20e-02,-8.00e-03,
827,-1.60e-02,1.40e-02,
828,-1.60e-02,1.40e-02,
829,1.60e-02,-8.00e-03,
830,-1.60e-02,1.40e-02,
831,1.60e-02,-8.00e-03,
832,-1.60e-02,-8.00e-03,
833,1.60e-02,1.40e-02,
