Motor_Data/MOTOR_3_ON/time domain/NewFile17.csv

X,CH1,CH2,Start,Increment,
Sequence,Volt,Volt,-3.000000e-02,5.000000e-05
0,-1.20e-02,-8.00e-03,
1,1.20e-02,1.40e-02,
2,1.20e-02,-8.00e-03,
3,-1.60e-02,1.60e-02,
4,1.20e-02,1.40e-02,
5,-1.60e-02,-1.00e-02,
6,1.20e-02,-8.00e-03,
7,-1.60e-02,1.40e-02,
8,1.20e-02,-8.00e-03,
9,-1.60e-02,1.40e-02,
10,1.20e-02,1.40e-02,
11,-1.60e-02,-1.00e-02,
12,1.20e-02,1.40e-02,
13,-1.60e-02,-1.00e-02,
14,1.20e-02,1.20e-02,
15,-1.60e-02,-1.00e-02,
16,1.20e-02,1.40e-02,
17,-1.60e-02,-1.00e-02,
18,1.20e-02,1.40e-02,
19,-1.60e-02,-1.00e-02,
20,-1.60e-02,-1.00e-02,
21,1.20e-02,1.40e-02,
22,1.20e-02,1.40e-02,
23,-1.60e-02,-1.00e-02,
24,1.20e-02,-1.00e-02,
25,-1.60e-02,1.40e-02,
26,1.20e-02,1.20e-02,
27,-1.60e-02,-1.00e-02,
28,2.80e-02,2.56e-01,
29,-4.16e-01,-2.54e-01,
30,1.20e-02,-1.00e-02,
31,-1.60e-02,1.40e-02,
32,1.20e-02,1.40e-02,
33,-1.60e-02,-1.00e-02,
34,1.20e-02,1.40e-02,
35,-2.00e-02,-1.00e-02,
36,-1.60e-02,-1.00e-02,
37,1.20e-02,1.60e-02,
38,-1.60e-02,1.40e-02,
39,1.20e-02,-1.00e-02,
40,1.20e-02,-1.00e-02,
41,-1.60e-02,1.40e-02,
42,1.20e-02,-1.00e-02,
43,-1.60e-02,1.60e-02,
44,1.20e-02,1.40e-02,
45,-1.60e-02,-1.00e-02,
46,4.72e-01,2.56e-01,
47,-3.24e-01,-2.54e-01,
48,1.20e-02,-1.00e-02,
49,-1.60e-02,1.40e-02,
50,1.20e-02,1.40e-02,
51,-1.60e-02,-8.00e-03,
52,1.20e-02,-1.00e-02,
53,-1.60e-02,1.40e-02,
54,1.20e-02,-1.00e-02,
55,-1.60e-02,1.40e-02,
56,1.20e-02,1.40e-02,
57,-1.60e-02,-1.00e-02,
58,1.20e-02,1.40e-02,
59,-1.60e-02,-1.00e-02,
60,-1.60e-02,-1.00e-02,
61,1.20e-02,1.40e-02,
62,1.20e-02,-1.00e-02,
63,-1.60e-02,1.40e-02,
64,1.20e-02,-1.00e-02,
65,-1.60e-02,1.40e-02,
66,1.20e-02,1.40e-02,
67,-1.60e-02,-1.00e-02,
68,1.20e-02,-1.00e-02,
69,-1.60e-02,1.40e-02,
70,1.20e-02,1.40e-02,
71,-1.60e-02,-1.00e-02,
72,1.20e-02,-8.00e-03,
73,-1.60e-02,1.42e-01,
74,-4.44e-01,-2.54e-01,
75,4.72e-01,2.56e-01,
76,-1.60e-02,-1.00e-02,
77,1.20e-02,1.40e-02,
78,-1.60e-02,1.40e-02,
79,1.20e-02,-1.00e-02,
80,1.20e-02,1.40e-02,
81,-1.60e-02,-1.00e-02,
82,-1.60e-02,1.40e-02,
83,1.60e-02,-1.20e-02,
84,1.60e-02,1.40e-02,
85,-1.60e-02,-1.00e-02,
86,1.20e-02,1.40e-02,
87,-1.60e-02,-1.00e-02,
88,1.20e-02,1.40e-02,
89,-1.60e-02,-1.00e-02,
90,1.20e-02,1.40e-02,
91,-1.60e-02,-1.00e-02,
92,1.20e-02,-8.00e-03,
93,-1.60e-02,1.40e-02,
94,4.00e-01,1.44e-01,
95,-4.32e-01,-2.54e-01,
96,1.20e-02,-8.00e-03,
97,-1.60e-02,1.40e-02,
98,1.60e-02,-8.00e-03,
99,-1.60e-02,1.60e-02,
100,1.60e-02,-8.00e-03,
101,-1.60e-02,1.40e-02,
102,-1.60e-02,-8.00e-03,
103,1.60e-02,1.40e-02,
104,1.20e-02,-1.00e-02,
105,-1.60e-02,1.40e-02,
106,1.20e-02,-1.00e-02,
107,-1.60e-02,1.60e-02,
108,1.20e-02,-1.00e-02,
109,-1.60e-02,1.40e-02,
110,-1.60e-02,-1.00e-02,
111,1.60e-02,1.40e-02,
112,1.20e-02,-1.00e-02,
113,-1.60e-02,1.40e-02,
114,1.20e-02,-8.00e-03,
115,-2.00e-02,1.40e-02,
116,1.60e-02,1.40e-02,
117,-1.60e-02,-1.00e-02,
118,1.20e-02,1.40e-02,
119,-1.60e-02,-8.00e-03,
120,1.20e-02,-8.00e-03,
121,-1.60e-02,1.40e-02,
122,4.72e-01,-2.54e-01,
123,-4.76e-01,2.56e-01,
124,1.20e-02,-8.00e-03,
125,-1.60e-02,1.60e-02,
126,1.20e-02,1.40e-02,
127,-1.60e-02,-1.00e-02,
128,1.20e-02,-1.00e-02,
129,-1.60e-02,1.60e-02,
130,1.20e-02,-8.00e-03,
131,-1.60e-02,1.40e-02,
132,-1.60e-02,-8.00e-03,
133,1.20e-02,1.60e-02,
134,1.20e-02,1.60e-02,
135,-1.60e-02,-1.00e-02,
136,1.20e-02,1.40e-02,
137,-1.60e-02,-1.00e-02,
138,-1.60e-02,1.40e-02,
139,1.20e-02,-8.00e-03,
140,-2.68e-01,1.10e-01,
141,3.04e-01,-6.80e-02,
142,-1.60e-02,1.40e-02,
143,1.20e-02,-1.00e-02,
144,1.20e-02,1.40e-02,
145,-1.60e-02,-1.00e-02,
146,1.20e-02,-8.00e-03,
147,-1.60e-02,1.40e-02,
148,1.20e-02,1.40e-02,
149,-1.60e-02,-1.00e-02,
150,1.20e-02,-1.00e-02,
151,-1.60e-02,1.40e-02,
152,-1.60e-02,1.40e-02,
153,1.60e-02,-8.00e-03,
154,1.20e-02,-8.00e-03,
155,-1.60e-02,1.40e-02,
156,1.20e-02,1.40e-02,
157,-1.60e-02,-1.00e-02,
158,1.20e-02,-8.00e-03,
159,-1.60e-02,1.40e-02,
160,1.20e-02,-8.00e-03,
161,-1.60e-02,1.40e-02,
162,1.20e-02,-1.00e-02,
163,-1.60e-02,1.40e-02,
164,-1.60e-02,1.20e-02,
165,1.20e-02,-1.00e-02,
166,1.20e-02,1.40e-02,
167,-1.60e-02,-1.00e-02,
168,-1.08e-01,1.64e-01,
169,6.00e-02,-6.40e-02,
170,-5.48e-01,-2.54e-01,
171,4.72e-01,2.56e-01,
172,1.20e-02,1.40e-02,
173,-1.60e-02,-1.00e-02,
174,-1.60e-02,1.40e-02,
175,1.20e-02,-1.00e-02,
176,1.20e-02,-8.00e-03,
177,-1.60e-02,1.40e-02,
178,1.20e-02,-1.00e-02,
179,-1.60e-02,1.40e-02,
180,1.20e-02,-1.00e-02,
181,-1.60e-02,1.40e-02,
182,-1.60e-02,-1.00e-02,
183,1.20e-02,1.40e-02,
184,1.20e-02,1.40e-02,
185,-1.60e-02,-1.00e-02,
186,1.20e-02,-1.00e-02,
187,-2.00e-02,1.40e-02,
188,1.20e-02,-8.00e-03,
189,-1.60e-02,1.40e-02,
190,3.84e-01,2.56e-01,
191,-4.80e-02,-2.20e-01,
192,-1.60e-02,1.40e-02,
193,1.20e-02,-1.00e-02,
194,1.20e-02,1.40e-02,
195,-1.60e-02,-8.00e-03,
196,1.20e-02,1.40e-02,
197,-1.60e-02,-1.00e-02,
198,1.20e-02,1.40e-02,
199,-1.60e-02,-1.00e-02,
200,-1.60e-02,1.40e-02,
201,1.60e-02,-1.00e-02,
202,1.20e-02,1.40e-02,
203,-1.60e-02,-1.00e-02,
204,1.20e-02,1.40e-02,
205,-1.60e-02,-1.00e-02,
206,1.20e-02,-1.00e-02,
207,-1.60e-02,1.40e-02,
208,1.60e-02,1.40e-02,
209,-1.60e-02,-1.00e-02,
210,1.20e-02,-1.00e-02,
211,-1.60e-02,1.40e-02,
212,1.20e-02,-8.00e-03,
213,-1.60e-02,1.40e-02,
214,-1.60e-02,-1.00e-02,
215,1.60e-02,1.40e-02,
216,4.08e-01,6.40e-02,
217,-5.24e-01,-2.54e-01,
218,-1.60e-02,1.40e-02,
219,1.60e-02,-1.20e-02,
220,1.20e-02,-1.00e-02,
221,-1.60e-02,1.40e-02,
222,-1.60e-02,-1.00e-02,
223,1.20e-02,1.40e-02,
224,1.60e-02,1.40e-02,
225,-1.60e-02,-1.00e-02,
226,1.20e-02,1.40e-02,
227,-1.60e-02,-1.00e-02,
228,1.20e-02,-1.00e-02,
229,-1.60e-02,1.40e-02,
230,1.20e-02,-1.00e-02,
231,-1.60e-02,1.40e-02,
232,1.20e-02,-8.00e-03,
233,-1.60e-02,1.40e-02,
234,-1.60e-02,-8.00e-03,
235,1.60e-02,1.40e-02,
236,-1.60e-02,-1.00e-02,
237,1.60e-02,1.40e-02,
238,-4.40e-01,2.56e-01,
239,8.40e-02,-2.54e-01,
240,1.60e-02,-8.00e-03,
241,-1.60e-02,1.40e-02,
242,-1.60e-02,-8.00e-03,
243,1.60e-02,1.40e-02,
244,-1.60e-02,-8.00e-03,
245,1.60e-02,1.40e-02,
246,1.20e-02,-8.00e-03,
247,-1.60e-02,1.40e-02,
248,-1.60e-02,-8.00e-03,
249,1.60e-02,1.40e-02,
250,1.20e-02,-8.00e-03,
251,-1.60e-02,1.40e-02,
252,1.20e-02,1.40e-02,
253,-1.60e-02,-1.00e-02,
254,-1.60e-02,-8.00e-03,
255,1.60e-02,1.40e-02,
256,1.20e-02,1.40e-02,
257,-1.60e-02,-1.00e-02,
258,1.20e-02,1.40e-02,
259,-1.60e-02,-8.00e-03,
260,-1.60e-02,-1.00e-02,
261,1.60e-02,1.40e-02,
262,1.20e-02,1.40e-02,
263,-1.60e-02,-1.00e-02,
264,1.20e-02,1.40e-02,
265,-1.60e-02,-1.00e-02,
266,-1.60e-02,-2.54e-01,
267,4.72e-01,2.56e-01,
268,1.20e-02,1.40e-02,
269,-1.60e-02,-1.00e-02,
270,1.20e-02,1.20e-02,
271,-1.60e-02,-1.00e-02,
272,1.20e-02,-1.00e-02,
273,-2.00e-02,1.40e-02,
274,1.20e-02,-8.00e-03,
275,-1.60e-02,1.40e-02,
276,1.20e-02,-1.00e-02,
277,-1.60e-02,1.20e-02,
278,-1.60e-02,1.20e-02,
279,1.20e-02,-1.00e-02,
280,1.20e-02,-1.00e-02,
281,-1.60e-02,1.40e-02,
282,1.20e-02,-8.00e-03,
283,-1.60e-02,1.40e-02,
284,-2.96e-01,1.72e-01,
285,3.00e-01,-8.20e-02,
286,1.20e-02,1.20e-02,
287,-1.60e-02,-1.00e-02,
288,1.20e-02,-8.00e-03,
289,-1.60e-02,1.40e-02,
290,1.20e-02,-8.00e-03,
291,-1.60e-02,1.40e-02,
292,1.20e-02,-1.00e-02,
293,-1.60e-02,1.40e-02,
294,1.20e-02,1.40e-02,
295,-1.60e-02,-1.00e-02,
296,1.20e-02,1.40e-02,
297,-1.60e-02,-1.00e-02,
298,1.20e-02,1.40e-02,
299,-1.60e-02,-8.00e-03,
300,1.20e-02,1.40e-02,
301,-1.60e-02,-1.00e-02,
302,1.20e-02,1.40e-02,
303,-1.60e-02,-1.00e-02,
304,1.20e-02,-1.00e-02,
305,-1.60e-02,1.40e-02,
306,1.20e-02,1.40e-02,
307,-1.60e-02,-8.00e-03,
308,1.20e-02,1.40e-02,
309,-1.60e-02,-1.00e-02,
310,1.20e-02,-8.00e-03,
311,-1.60e-02,1.40e-02,
312,6.80e-02,4.80e-02,
313,-1.60e-02,-3.20e-02,
314,-5.48e-01,2.56e-01,
315,3.56e-01,-2.54e-01,
316,1.20e-02,1.40e-02,
317,-1.60e-02,-1.00e-02,
318,-1.60e-02,1.40e-02,
319,1.60e-02,-1.00e-02,
320,1.20e-02,-8.00e-03,
321,-1.60e-02,1.40e-02,
322,1.20e-02,1.40e-02,
323,-1.60e-02,-1.00e-02,
324,1.20e-02,1.40e-02,
325,-1.60e-02,-1.00e-02,
326,1.20e-02,1.40e-02,
327,-1.60e-02,-1.00e-02,
328,1.20e-02,-8.00e-03,
329,-1.60e-02,1.40e-02,
330,1.20e-02,-1.00e-02,
331,-1.60e-02,1.40e-02,
332,-2.56e-01,-1.70e-01,
333,2.64e-01,2.56e-01,
334,1.20e-02,-1.00e-02,
335,-1.60e-02,1.40e-02,
336,1.20e-02,1.40e-02,
337,-1.60e-02,-1.00e-02,
338,1.20e-02,1.40e-02,
339,-1.60e-02,-1.00e-02,
340,-1.60e-02,1.40e-02,
341,1.20e-02,-1.00e-02,
342,1.20e-02,-1.00e-02,
343,-1.60e-02,1.40e-02,
344,-1.60e-02,-8.00e-03,
345,1.20e-02,1.40e-02,
346,1.20e-02,-8.00e-03,
347,-1.60e-02,1.40e-02,
348,1.20e-02,1.40e-02,
349,-1.60e-02,-1.00e-02,
350,1.20e-02,1.40e-02,
351,-1.60e-02,-8.00e-03,
352,-1.60e-02,-8.00e-03,
353,1.20e-02,1.60e-02,
354,1.20e-02,-1.00e-02,
355,-1.60e-02,1.40e-02,
356,-1.60e-02,1.40e-02,
357,1.20e-02,-8.00e-03,
358,-9.60e-02,-1.40e-02,
359,8.00e-02,1.20e-01,
360,4.00e-01,-2.54e-01,
361,-2.88e-01,2.02e-01,
362,1.20e-02,-8.00e-03,
363,-1.60e-02,1.40e-02,
364,1.20e-02,-1.00e-02,
365,-1.60e-02,1.40e-02,
366,-1.60e-02,-8.00e-03,
367,1.20e-02,1.40e-02,
368,-1.60e-02,1.40e-02,
369,1.20e-02,-1.00e-02,
370,-1.60e-02,1.40e-02,
371,1.60e-02,-1.00e-02,
372,1.20e-02,-8.00e-03,
373,-1.60e-02,1.40e-02,
374,1.20e-02,1.20e-02,
375,-1.60e-02,-1.00e-02,
376,-1.60e-02,-1.00e-02,
377,1.20e-02,1.40e-02,
378,1.20e-02,-1.00e-02,
379,-1.60e-02,1.60e-02,
380,-4.04e-01,-2.54e-01,
381,2.80e-01,2.56e-01,
382,1.20e-02,1.40e-02,
383,-1.60e-02,-8.00e-03,
384,1.20e-02,-8.00e-03,
385,-1.60e-02,1.60e-02,
386,1.20e-02,-1.00e-02,
387,-1.60e-02,1.40e-02,
388,-1.60e-02,-8.00e-03,
389,1.20e-02,1.60e-02,
390,-1.60e-02,1.40e-02,
391,1.20e-02,-1.00e-02,
392,1.20e-02,1.40e-02,
393,-1.60e-02,-1.00e-02,
394,1.20e-02,1.40e-02,
395,-1.60e-02,-1.00e-02,
396,1.20e-02,1.60e-02,
397,-1.60e-02,-1.00e-02,
398,1.60e-02,1.40e-02,
399,-1.60e-02,-1.00e-02,
400,1.20e-02,-8.00e-03,
401,-1.60e-02,1.40e-02,
402,-1.60e-02,-1.00e-02,
403,1.20e-02,1.40e-02,
404,1.20e-02,-8.00e-03,
405,-1.60e-02,1.40e-02,
406,1.20e-02,1.40e-02,
407,-1.60e-02,-1.00e-02,
408,-5.48e-01,-2.54e-01,
409,4.72e-01,2.56e-01,
410,1.20e-02,1.40e-02,
411,-1.60e-02,-1.00e-02,
412,-1.60e-02,1.40e-02,
413,1.20e-02,-1.00e-02,
414,1.20e-02,1.40e-02,
415,-2.00e-02,-8.00e-03,
416,-1.60e-02,1.40e-02,
417,1.20e-02,-1.00e-02,
418,1.20e-02,1.40e-02,
419,-1.60e-02,-1.00e-02,
420,-1.60e-02,-8.00e-03,
421,1.20e-02,1.40e-02,
422,1.20e-02,1.20e-02,
423,-2.00e-02,-1.00e-02,
424,1.20e-02,1.40e-02,
425,-1.60e-02,-1.00e-02,
426,2.68e-01,-2.08e-01,
427,-1.36e-01,1.84e-01,
428,1.20e-02,-8.00e-03,
429,-1.60e-02,1.40e-02,
430,1.20e-02,1.40e-02,
431,-1.60e-02,-1.00e-02,
432,-1.60e-02,1.40e-02,
433,1.20e-02,-1.00e-02,
434,-1.60e-02,-8.00e-03,
435,1.60e-02,1.40e-02,
436,1.20e-02,-8.00e-03,
437,-1.60e-02,1.40e-02,
438,1.20e-02,-8.00e-03,
439,-1.60e-02,1.40e-02,
440,1.20e-02,-8.00e-03,
441,-1.60e-02,1.40e-02,
442,1.20e-02,1.40e-02,
443,-1.60e-02,-8.00e-03,
444,1.20e-02,-8.00e-03,
445,-1.60e-02,1.40e-02,
446,1.60e-02,1.40e-02,
447,-1.60e-02,-1.00e-02,
448,1.20e-02,1.40e-02,
449,-1.60e-02,-1.00e-02,
450,1.20e-02,1.40e-02,
451,-1.60e-02,-1.00e-02,
452,-1.60e-02,1.40e-02,
453,1.60e-02,-8.00e-03,
454,-4.40e-02,-1.80e-02,
455,5.60e-02,3.00e-02,
456,3.16e-01,2.56e-01,
457,-4.40e-01,-1.00e-02,
458,1.20e-02,-1.00e-02,
459,-1.60e-02,1.40e-02,
460,1.20e-02,1.40e-02,
461,-1.60e-02,-1.00e-02,
462,1.20e-02,1.40e-02,
463,-1.60e-02,-1.00e-02,
464,1.20e-02,1.40e-02,
465,-1.60e-02,-1.00e-02,
466,1.20e-02,-1.00e-02,
467,-1.60e-02,1.60e-02,
468,1.20e-02,1.20e-02,
469,-1.60e-02,-1.00e-02,
470,1.20e-02,1.40e-02,
471,-1.60e-02,-1.00e-02,
472,-1.60e-02,1.40e-02,
473,1.20e-02,-8.00e-03,
474,1.20e-02,1.20e-02,
475,-1.60e-02,-1.00e-02,
476,-3.44e-01,-1.52e-01,
477,1.60e-01,2.56e-01,
478,1.20e-02,-1.00e-02,
479,-1.60e-02,1.40e-02,
480,1.20e-02,1.40e-02,
481,-1.60e-02,-1.00e-02,
482,1.20e-02,1.40e-02,
483,-1.60e-02,-1.00e-02,
484,1.20e-02,-1.00e-02,
485,-1.60e-02,1.40e-02,
486,1.20e-02,-1.00e-02,
487,-1.60e-02,1.40e-02,
488,1.20e-02,1.60e-02,
489,-1.60e-02,-1.00e-02,
490,-1.60e-02,-8.00e-03,
491,1.20e-02,1.60e-02,
492,1.20e-02,-1.00e-02,
493,-1.60e-02,1.40e-02,
494,1.20e-02,1.40e-02,
495,-1.60e-02,-1.00e-02,
496,1.20e-02,1.40e-02,
497,-1.60e-02,-1.00e-02,
498,1.20e-02,1.40e-02,
499,-1.60e-02,-8.00e-03,
500,1.20e-02,-1.00e-02,
501,-1.60e-02,1.40e-02,
502,4.44e-01,-2.54e-01,
503,-4.60e-01,2.56e-01,
504,1.20e-02,1.40e-02,
505,-1.60e-02,-1.00e-02,
506,1.20e-02,-1.00e-02,
507,-1.60e-02,1.40e-02,
508,1.20e-02,1.40e-02,
509,-1.60e-02,-1.00e-02,
510,1.20e-02,1.40e-02,
511,-1.60e-02,-1.00e-02,
512,1.20e-02,-8.00e-03,
513,-1.60e-02,1.40e-02,
514,1.20e-02,1.40e-02,
515,-1.60e-02,-8.00e-03,
516,1.20e-02,1.40e-02,
517,-1.60e-02,-1.00e-02,
518,-1.60e-02,-8.00e-03,
519,1.60e-02,1.40e-02,
520,1.20e-02,1.40e-02,
521,-1.60e-02,-1.00e-02,
522,1.20e-02,1.40e-02,
523,-1.60e-02,-1.00e-02,
524,2.80e-01,2.56e-01,
525,-2.28e-01,-1.60e-01,
526,1.20e-02,1.40e-02,
527,-1.60e-02,-1.00e-02,
528,1.20e-02,1.40e-02,
529,-1.60e-02,-1.00e-02,
530,1.20e-02,1.40e-02,
531,-2.00e-02,-1.00e-02,
532,1.20e-02,-1.00e-02,
533,-1.60e-02,1.40e-02,
534,1.20e-02,-1.00e-02,
535,-2.00e-02,1.40e-02,
536,1.20e-02,-1.00e-02,
537,-1.60e-02,1.20e-02,
538,1.20e-02,1.40e-02,
539,-1.60e-02,-1.00e-02,
540,1.20e-02,1.40e-02,
541,-1.60e-02,-8.00e-03,
542,-1.60e-02,1.20e-02,
543,1.20e-02,-8.00e-03,
544,1.20e-02,1.40e-02,
545,-1.60e-02,-1.00e-02,
546,1.20e-02,1.40e-02,
547,-1.60e-02,-1.00e-02,
548,1.20e-02,1.40e-02,
549,-1.60e-02,-1.00e-02,
550,1.20e-02,-8.00e-03,
551,-1.60e-02,1.40e-02,
552,4.72e-01,2.56e-01,
553,-3.84e-01,-2.54e-01,
554,1.20e-02,1.40e-02,
555,-2.00e-02,-1.00e-02,
556,1.20e-02,-8.00e-03,
557,-1.60e-02,1.40e-02,
558,1.20e-02,-1.00e-02,
559,-1.60e-02,1.40e-02,
560,-1.60e-02,-8.00e-03,
561,1.60e-02,1.40e-02,
562,1.20e-02,1.40e-02,
563,-1.60e-02,-1.00e-02,
564,1.20e-02,-8.00e-03,
565,-1.60e-02,1.40e-02,
566,1.20e-02,1.60e-02,
567,-1.60e-02,-1.00e-02,
568,1.20e-02,1.40e-02,
569,-1.60e-02,-1.00e-02,
570,1.92e-01,-8.40e-02,
571,-1.80e-01,1.20e-01,
572,1.60e-02,1.40e-02,
573,-1.60e-02,-1.00e-02,
574,1.20e-02,1.40e-02,
575,-1.60e-02,-1.00e-02,
576,1.20e-02,-1.00e-02,
577,-1.60e-02,1.40e-02,
578,-1.60e-02,-1.00e-02,
579,1.20e-02,1.40e-02,
580,1.20e-02,-1.00e-02,
581,-1.60e-02,1.40e-02,
582,1.20e-02,1.40e-02,
583,-1.60e-02,-1.00e-02,
584,-1.60e-02,1.40e-02,
585,1.20e-02,-1.00e-02,
586,1.20e-02,1.40e-02,
587,-1.60e-02,-1.00e-02,
588,1.20e-02,-1.00e-02,
589,-1.60e-02,1.40e-02,
590,-1.60e-02,-1.00e-02,
591,1.20e-02,1.40e-02,
592,1.20e-02,-1.00e-02,
593,-1.60e-02,1.40e-02,
594,1.20e-02,-8.00e-03,
595,-1.60e-02,1.40e-02,
596,1.20e-02,1.40e-02,
597,-1.60e-02,-1.00e-02,
598,4.40e-02,1.40e-02,
599,-8.80e-02,-1.42e-01,
600,4.72e-01,2.56e-01,
601,-5.48e-01,-2.54e-01,
602,1.20e-02,-8.00e-03,
603,-1.60e-02,1.40e-02,
604,1.20e-02,1.40e-02,
605,-1.60e-02,-1.00e-02,
606,-1.60e-02,-1.00e-02,
607,1.20e-02,1.40e-02,
608,-1.60e-02,-1.00e-02,
609,1.20e-02,1.40e-02,
610,1.20e-02,1.40e-02,
611,-1.60e-02,-1.00e-02,
612,-1.60e-02,1.20e-02,
613,1.20e-02,-8.00e-03,
614,1.20e-02,-1.00e-02,
615,-1.60e-02,1.40e-02,
616,1.20e-02,1.20e-02,
617,-1.60e-02,-1.00e-02,
618,-3.44e-01,1.96e-01,
619,3.92e-01,-1.66e-01,
620,1.20e-02,1.40e-02,
621,-1.60e-02,-1.20e-02,
622,1.20e-02,1.40e-02,
623,-1.60e-02,-1.00e-02,
624,1.20e-02,1.40e-02,
625,-1.60e-02,-1.00e-02,
626,1.20e-02,-8.00e-03,
627,-1.60e-02,1.40e-02,
628,1.20e-02,1.40e-02,
629,-1.60e-02,-8.00e-03,
630,1.20e-02,-1.00e-02,
631,-1.60e-02,1.40e-02,
632,-1.60e-02,1.20e-02,
633,1.20e-02,-1.00e-02,
634,-1.60e-02,-1.00e-02,
635,1.20e-02,1.60e-02,
636,-1.60e-02,1.20e-02,
637,1.20e-02,-8.00e-03,
638,1.20e-02,1.40e-02,
639,-1.60e-02,-1.00e-02,
640,1.20e-02,-8.00e-03,
641,-1.60e-02,1.20e-02,
642,1.20e-02,1.40e-02,
643,-1.60e-02,-1.00e-02,
644,-1.80e-01,2.00e-01,
645,4.72e-01,-1.74e-01,
646,4.20e-01,2.36e-01,
647,-5.24e-01,-2.02e-01,
648,1.20e-02,-8.00e-03,
649,-1.60e-02,1.20e-02,
650,1.20e-02,1.40e-02,
651,-1.60e-02,-1.00e-02,
652,-1.60e-02,1.40e-02,
653,1.20e-02,-1.00e-02,
654,1.20e-02,-1.00e-02,
655,-1.60e-02,1.40e-02,
656,1.20e-02,1.40e-02,
657,-1.60e-02,-1.00e-02,
658,1.20e-02,1.40e-02,
659,-1.60e-02,-1.00e-02,
660,1.20e-02,-8.00e-03,
661,-1.60e-02,1.60e-02,
662,1.20e-02,1.40e-02,
663,-1.60e-02,-8.00e-03,
664,1.20e-02,1.60e-02,
665,-1.60e-02,-1.00e-02,
666,2.40e-01,2.56e-01,
667,-3.16e-01,-2.54e-01,
668,1.20e-02,-1.00e-02,
669,-1.60e-02,1.40e-02,
670,1.20e-02,-1.00e-02,
671,-1.60e-02,1.60e-02,
672,-1.60e-02,1.40e-02,
673,1.60e-02,-8.00e-03,
674,1.20e-02,-8.00e-03,
675,-1.60e-02,1.40e-02,
676,1.20e-02,1.40e-02,
677,-1.60e-02,-8.00e-03,
678,1.20e-02,-8.00e-03,
679,-1.60e-02,1.40e-02,
680,1.20e-02,-1.00e-02,
681,-1.60e-02,1.40e-02,
682,1.20e-02,1.40e-02,
683,-1.60e-02,-1.00e-02,
684,1.20e-02,1.40e-02,
685,-1.60e-02,-8.00e-03,
686,-1.60e-02,-8.00e-03,
687,1.20e-02,1.40e-02,
688,1.20e-02,-8.00e-03,
689,-1.60e-02,1.40e-02,
690,1.20e-02,-1.00e-02,
691,-1.60e-02,1.40e-02,
692,-1.60e-02,-8.00e-03,
693,1.60e-02,1.40e-02,
694,4.72e-01,2.56e-01,
695,-5.08e-01,-2.54e-01,
696,1.20e-02,-8.00e-03,
697,-1.60e-02,1.40e-02,
698,-1.60e-02,1.40e-02,
699,1.60e-02,-1.00e-02,
700,-1.60e-02,-1.00e-02,
701,1.20e-02,1.40e-02,
702,-1.60e-02,1.40e-02,
703,1.20e-02,-8.00e-03,
704,-1.60e-02,1.60e-02,
705,1.20e-02,-1.00e-02,
706,1.20e-02,1.40e-02,
707,-1.60e-02,-1.00e-02,
708,1.20e-02,-8.00e-03,
709,-1.60e-02,1.40e-02,
710,-1.60e-02,1.40e-02,
711,1.60e-02,-1.00e-02,
712,2.12e-01,1.34e-01,
713,-1.88e-01,-1.26e-01,
714,1.20e-02,-8.00e-03,
715,-1.60e-02,1.60e-02,
716,1.20e-02,-8.00e-03,
717,-1.60e-02,1.40e-02,
718,1.20e-02,1.40e-02,
719,-1.60e-02,-1.00e-02,
720,-1.60e-02,1.40e-02,
721,1.20e-02,-1.00e-02,
722,-1.60e-02,1.60e-02,
723,1.20e-02,-1.00e-02,
724,1.20e-02,1.40e-02,
725,-1.60e-02,-1.00e-02,
726,1.20e-02,-8.00e-03,
727,-1.60e-02,1.40e-02,
728,1.20e-02,-8.00e-03,
729,-1.60e-02,1.40e-02,
730,1.20e-02,1.40e-02,
731,-1.60e-02,-1.00e-02,
732,1.60e-02,1.40e-02,
733,-1.60e-02,-1.00e-02,
734,1.20e-02,1.40e-02,
735,-1.60e-02,-1.00e-02,
736,1.20e-02,1.40e-02,
737,-1.60e-02,-1.00e-02,
738,1.20e-02,1.40e-02,
739,-1.60e-02,-1.00e-02,
740,-8.00e-02,-6.60e-02,
741,8.40e-02,5.80e-02,
742,3.24e-01,2.56e-01,
743,-4.48e-01,-2.54e-01,
744,-1.60e-02,-8.00e-03,
745,1.20e-02,1.60e-02,
746,1.20e-02,-1.00e-02,
747,-1.60e-02,1.60e-02,
748,1.20e-02,1.40e-02,
749,-1.60e-02,-1.00e-02,
750,1.20e-02,-8.00e-03,
751,-1.60e-02,1.40e-02,
752,1.20e-02,-8.00e-03,
753,-1.60e-02,1.40e-02,
754,-1.60e-02,1.40e-02,
755,1.20e-02,-1.00e-02,
756,1.20e-02,1.40e-02,
757,-1.60e-02,-1.00e-02,
758,1.20e-02,-1.00e-02,
759,-1.60e-02,1.40e-02,
760,1.20e-02,-1.00e-02,
761,-1.60e-02,1.60e-02,
762,3.36e-01,2.56e-01,
763,-4.84e-01,-2.24e-01,
764,1.20e-02,1.40e-02,
765,-1.60e-02,-1.00e-02,
766,-1.60e-02,-1.00e-02,
767,1.60e-02,1.40e-02,
768,1.20e-02,-8.00e-03,
769,-1.60e-02,1.40e-02,
770,1.20e-02,1.40e-02,
771,-1.60e-02,-1.00e-02,
772,-1.60e-02,1.40e-02,
773,1.20e-02,-1.00e-02,
774,-1.60e-02,-8.00e-03,
775,1.60e-02,1.40e-02,
776,1.20e-02,-1.00e-02,
777,-1.60e-02,1.40e-02,
778,-1.60e-02,-8.00e-03,
779,1.20e-02,1.40e-02,
780,1.20e-02,1.40e-02,
781,-1.60e-02,-1.00e-02,
782,1.20e-02,1.40e-02,
783,-1.60e-02,-1.00e-02,
784,1.20e-02,1.40e-02,
785,-1.60e-02,-1.00e-02,
786,1.20e-02,-8.00e-03,
787,-1.60e-02,1.40e-02,
788,9.20e-02,-2.54e-01,
789,-3.88e-01,1.82e-01,
790,-1.60e-02,-8.00e-03,
791,1.20e-02,1.40e-02,
792,1.20e-02,1.40e-02,
793,-1.60e-02,-1.00e-02,
794,1.20e-02,1.40e-02,
795,-1.60e-02,-1.00e-02,
796,-1.60e-02,-8.00e-03,
797,1.60e-02,1.40e-02,
798,1.20e-02,-8.00e-03,
799,-1.60e-02,1.40e-02,
800,1.20e-02,1.40e-02,
801,-1.60e-02,-1.00e-02,
802,1.20e-02,-8.00e-03,
803,-1.60e-02,1.40e-02,
804,1.20e-02,-1.00e-02,
805,-1.60e-02,1.40e-02,
806,1.20e-02,1.20e-02,
807,-1.60e-02,-1.00e-02,
808,1.20e-02,-8.00e-03,
809,-1.60e-02,1.40e-02,
810,3.32e-01,-2.54e-01,
811,-3.24e-01,2.56e-01,
812,1.20e-02,-1.00e-02,
813,-1.60e-02,1.40e-02,
814,1.20e-02,-8.00e-03,
815,-1.60e-02,1.40e-02,
816,1.20e-02,1.40e-02,
817,-1.60e-02,-1.00e-02,
818,-1.60e-02,1.40e-02,
819,1.20e-02,-1.00e-02,
820,1.20e-02,-8.00e-03,
821,-1.60e-02,1.40e-02,
822,-1.60e-02,1.40e-02,
823,1.20e-02,-1.00e-02,
824,1.20e-02,1.40e-02,
825,-1.60e-02,-1.00e-02,
826,1.20e-02,1.40e-02,
827,-1.60e-02,-8.00e-03,
828,1.20e-02,-8.00e-03,
829,-1.60e-02,1.40e-02,
830,1.20e-02,1.40e-02,
831,-1.60e-02,-8.00e-03,
832,1.20e-02,1.40e-02,
833,-1.60e-02,-8.00e-03,
