Motor_Data/MOTOR_3_ON/time domain/NewFile2.csv

X,CH1,CH2,Start,Increment,
Sequence,Volt,Volt,-3.000000e-02,5.000000e-05
0,-1.60e-02,-8.00e-03,
1,1.60e-02,1.40e-02,
2,-1.60e-02,1.40e-02,
3,1.60e-02,-1.00e-02,
4,1.20e-02,1.40e-02,
5,-1.60e-02,-1.00e-02,
6,1.20e-02,-1.00e-02,
7,-1.60e-02,1.40e-02,
8,-1.60e-02,1.40e-02,
9,1.60e-02,-1.00e-02,
10,1.20e-02,1.40e-02,
11,-1.60e-02,-1.00e-02,
12,-1.60e-02,1.40e-02,
13,1.20e-02,-8.00e-03,
14,1.20e-02,1.40e-02,
15,-1.60e-02,-1.00e-02,
16,1.40e-01,-1.80e-01,
17,-1.80e-01,2.34e-01,
18,4.72e-01,-2.54e-01,
19,-5.48e-01,2.56e-01,
20,-1.60e-02,-1.00e-02,
21,1.60e-02,1.40e-02,
22,-1.60e-02,-8.00e-03,
23,1.60e-02,1.40e-02,
24,1.20e-02,-8.00e-03,
25,-1.60e-02,1.40e-02,
26,1.20e-02,1.40e-02,
27,-1.60e-02,-8.00e-03,
28,1.20e-02,1.40e-02,
29,-1.60e-02,-1.00e-02,
30,-1.60e-02,1.40e-02,
31,1.20e-02,-8.00e-03,
32,1.20e-02,-8.00e-03,
33,-1.60e-02,1.40e-02,
34,1.20e-02,-8.00e-03,
35,-1.60e-02,1.40e-02,
36,2.16e-01,-2.14e-01,
37,-2.04e-01,1.82e-01,
38,-1.60e-02,-8.00e-03,
39,1.20e-02,1.40e-02,
40,1.20e-02,-8.00e-03,
41,-1.60e-02,1.40e-02,
42,1.20e-02,1.40e-02,
43,-1.60e-02,-1.00e-02,
44,-1.60e-02,1.40e-02,
45,1.20e-02,-8.00e-03,
46,1.20e-02,1.40e-02,
47,-1.60e-02,-8.00e-03,
48,-1.60e-02,1.40e-02,
49,1.60e-02,-8.00e-03,
50,-1.60e-02,-1.00e-02,
51,1.60e-02,1.40e-02,
52,1.20e-02,-1.00e-02,
53,-1.60e-02,1.40e-02,
54,1.20e-02,1.40e-02,
55,-1.60e-02,-8.00e-03,
56,-1.60e-02,-8.00e-03,
57,1.20e-02,1.40e-02,
58,1.20e-02,-8.00e-03,
59,-1.60e-02,1.40e-02,
60,1.20e-02,-8.00e-03,
61,-1.60e-02,1.40e-02,
62,4.72e-01,2.56e-01,
63,-5.48e-01,-2.54e-01,
64,1.20e-02,-1.00e-02,
65,-1.60e-02,1.40e-02,
66,1.20e-02,-8.00e-03,
67,-1.60e-02,1.40e-02,
68,-1.60e-02,1.40e-02,
69,1.20e-02,-8.00e-03,
70,-1.60e-02,1.40e-02,
71,1.60e-02,-8.00e-03,
72,1.20e-02,1.40e-02,
73,-1.60e-02,-8.00e-03,
74,1.20e-02,-8.00e-03,
75,-1.60e-02,1.40e-02,
76,1.20e-02,-8.00e-03,
77,-1.60e-02,1.40e-02,
78,1.20e-02,1.40e-02,
79,-1.60e-02,-1.00e-02,
80,1.20e-02,-8.00e-03,
81,-1.60e-02,1.40e-02,
82,1.20e-02,1.40e-02,
83,-1.60e-02,-8.00e-03,
84,3.32e-01,1.94e-01,
85,-3.36e-01,-2.54e-01,
86,1.20e-02,-8.00e-03,
87,-1.60e-02,1.40e-02,
88,1.20e-02,1.40e-02,
89,-1.60e-02,-8.00e-03,
90,1.20e-02,-8.00e-03,
91,-1.60e-02,1.40e-02,
92,1.20e-02,-8.00e-03,
93,-1.60e-02,1.40e-02,
94,-1.60e-02,-8.00e-03,
95,1.20e-02,1.40e-02,
96,-1.60e-02,1.40e-02,
97,1.20e-02,-8.00e-03,
98,1.20e-02,1.40e-02,
99,-1.60e-02,-1.00e-02,
100,1.20e-02,1.40e-02,
101,-1.60e-02,-8.00e-03,
102,1.20e-02,1.20e-02,
103,-1.60e-02,-8.00e-03,
104,1.20e-02,-8.00e-03,
105,-1.60e-02,1.40e-02,
106,1.20e-02,1.40e-02,
107,-1.60e-02,-8.00e-03,
108,1.20e-02,-8.00e-03,
109,-1.60e-02,1.40e-02,
110,1.20e-02,-8.00e-03,
111,-1.60e-02,1.60e-02,
112,4.72e-01,-2.54e-01,
113,-2.76e-01,2.56e-01,
114,1.20e-02,-8.00e-03,
115,-1.60e-02,1.40e-02,
116,1.20e-02,1.20e-02,
117,-1.60e-02,-1.00e-02,
118,1.20e-02,-8.00e-03,
119,-1.60e-02,1.40e-02,
120,1.20e-02,1.40e-02,
121,-1.60e-02,-1.00e-02,
122,1.20e-02,1.20e-02,
123,-1.60e-02,-8.00e-03,
124,1.20e-02,1.40e-02,
125,-1.60e-02,-8.00e-03,
126,-1.60e-02,-8.00e-03,
127,1.20e-02,1.40e-02,
128,3.40e-01,-1.28e-01,
129,-3.16e-01,1.44e-01,
130,1.20e-02,-8.00e-03,
131,-1.60e-02,1.40e-02,
132,1.20e-02,-8.00e-03,
133,-1.60e-02,1.40e-02,
134,1.60e-02,1.20e-02,
135,-1.60e-02,-1.00e-02,
136,1.20e-02,-8.00e-03,
137,-1.60e-02,1.40e-02,
138,1.20e-02,-8.00e-03,
139,-1.60e-02,1.40e-02,
140,1.20e-02,1.40e-02,
141,-1.60e-02,-8.00e-03,
142,1.20e-02,1.40e-02,
143,-1.60e-02,-8.00e-03,
144,1.20e-02,-8.00e-03,
145,-1.60e-02,1.40e-02,
146,1.20e-02,-8.00e-03,
147,-1.60e-02,1.40e-02,
148,1.20e-02,1.40e-02,
149,-1.60e-02,-1.00e-02,
150,1.20e-02,-8.00e-03,
151,-1.60e-02,1.40e-02,
152,1.20e-02,-8.00e-03,
153,-1.60e-02,1.40e-02,
154,1.20e-02,1.40e-02,
155,-1.60e-02,-8.00e-03,
156,1.20e-02,-1.00e-02,
157,-1.60e-02,1.40e-02,
158,-5.28e-01,2.56e-01,
159,4.72e-01,-2.54e-01,
160,1.20e-02,1.40e-02,
161,-1.60e-02,-1.00e-02,
162,1.20e-02,-8.00e-03,
163,-1.60e-02,1.40e-02,
164,1.20e-02,1.20e-02,
165,-1.60e-02,-8.00e-03,
166,1.60e-02,-1.00e-02,
167,-1.60e-02,1.40e-02,
168,1.20e-02,-8.00e-03,
169,-1.60e-02,1.40e-02,
170,-1.60e-02,-8.00e-03,
171,1.20e-02,1.40e-02,
172,1.20e-02,1.40e-02,
173,-1.60e-02,-8.00e-03,
174,1.20e-02,-8.00e-03,
175,-1.60e-02,1.40e-02,
176,-3.48e-01,1.28e-01,
177,3.28e-01,-1.36e-01,
178,1.20e-02,-8.00e-03,
179,-1.60e-02,1.60e-02,
180,1.20e-02,1.40e-02,
181,-1.60e-02,-1.00e-02,
182,1.20e-02,-8.00e-03,
183,-1.60e-02,1.40e-02,
184,-1.60e-02,1.40e-02,
185,1.60e-02,-8.00e-03,
186,1.20e-02,-8.00e-03,
187,-1.60e-02,1.20e-02,
188,1.20e-02,-8.00e-03,
189,-1.60e-02,1.40e-02,
190,-1.60e-02,-8.00e-03,
191,1.20e-02,1.40e-02,
192,1.20e-02,-8.00e-03,
193,-1.60e-02,1.40e-02,
194,1.20e-02,-8.00e-03,
195,-1.60e-02,1.40e-02,
196,1.20e-02,1.40e-02,
197,-1.60e-02,-8.00e-03,
198,1.20e-02,-8.00e-03,
199,-1.60e-02,1.40e-02,
200,1.20e-02,1.40e-02,
201,-1.60e-02,-8.00e-03,
202,-1.60e-02,1.40e-02,
203,1.20e-02,-8.00e-03,
204,-5.48e-01,2.56e-01,
205,4.72e-01,-2.54e-01,
206,1.20e-02,-8.00e-03,
207,-1.60e-02,1.40e-02,
208,-1.60e-02,1.40e-02,
209,1.60e-02,-8.00e-03,
210,1.20e-02,1.40e-02,
211,-1.60e-02,-8.00e-03,
212,1.20e-02,1.60e-02,
213,-1.60e-02,-8.00e-03,
214,1.20e-02,-8.00e-03,
215,-1.60e-02,1.40e-02,
216,-1.60e-02,-1.00e-02,
217,1.60e-02,1.40e-02,
218,1.20e-02,1.40e-02,
219,-1.60e-02,-8.00e-03,
220,-1.60e-02,-8.00e-03,
221,1.60e-02,1.40e-02,
222,1.20e-02,1.40e-02,
223,-1.60e-02,-1.00e-02,
224,-2.16e-01,-1.28e-01,
225,3.68e-01,2.40e-01,
226,1.20e-02,1.20e-02,
227,-1.60e-02,-8.00e-03,
228,1.20e-02,-8.00e-03,
229,-1.60e-02,1.40e-02,
230,-1.60e-02,-8.00e-03,
231,1.20e-02,1.40e-02,
232,1.20e-02,1.20e-02,
233,-1.60e-02,-8.00e-03,
234,1.20e-02,-8.00e-03,
235,-1.60e-02,1.40e-02,
236,1.20e-02,-8.00e-03,
237,-1.60e-02,1.40e-02,
238,1.20e-02,-1.00e-02,
239,-1.60e-02,1.40e-02,
240,1.20e-02,-8.00e-03,
241,-1.60e-02,1.40e-02,
242,1.20e-02,1.20e-02,
243,-1.60e-02,-1.00e-02,
244,1.20e-02,1.20e-02,
245,-1.60e-02,-8.00e-03,
246,1.20e-02,-8.00e-03,
247,-1.60e-02,1.40e-02,
248,1.20e-02,-1.00e-02,
249,-1.60e-02,1.40e-02,
250,1.20e-02,-8.00e-03,
251,-1.60e-02,1.40e-02,
252,4.72e-01,2.56e-01,
253,-5.48e-01,-2.54e-01,
254,1.20e-02,1.40e-02,
255,-1.60e-02,-1.00e-02,
256,1.20e-02,1.20e-02,
257,-1.60e-02,-8.00e-03,
258,-1.60e-02,1.20e-02,
259,1.20e-02,-8.00e-03,
260,-1.60e-02,1.20e-02,
261,1.20e-02,-1.00e-02,
262,1.60e-02,-8.00e-03,
263,-1.60e-02,1.20e-02,
264,-1.60e-02,1.20e-02,
265,1.20e-02,-1.00e-02,
266,-1.60e-02,-1.00e-02,
267,1.20e-02,1.40e-02,
268,1.20e-02,1.20e-02,
269,-1.60e-02,-1.00e-02,
270,1.20e-02,1.12e-01,
271,-3.24e-01,-1.02e-01,
272,1.20e-02,1.40e-02,
273,-1.60e-02,-1.00e-02,
274,1.20e-02,-8.00e-03,
275,-1.60e-02,1.40e-02,
276,1.20e-02,1.40e-02,
277,-1.60e-02,-1.00e-02,
278,-1.60e-02,1.40e-02,
279,1.20e-02,-8.00e-03,
280,1.20e-02,1.20e-02,
281,-1.60e-02,-8.00e-03,
282,1.20e-02,1.20e-02,
283,-1.60e-02,-1.00e-02,
284,1.20e-02,-8.00e-03,
285,-1.60e-02,1.20e-02,
286,1.20e-02,-8.00e-03,
287,-1.60e-02,1.40e-02,
288,1.20e-02,-8.00e-03,
289,-1.60e-02,1.20e-02,
290,-1.60e-02,-1.00e-02,
291,1.20e-02,1.40e-02,
292,1.20e-02,1.40e-02,
293,-1.60e-02,-1.00e-02,
294,-1.60e-02,1.20e-02,
295,1.20e-02,-1.00e-02,
296,-1.60e-02,-8.00e-03,
297,1.20e-02,1.20e-02,
298,4.72e-01,-2.54e-01,
299,-5.48e-01,2.56e-01,
300,3.36e-01,-2.54e-01,
301,-1.44e-01,1.80e-01,
302,1.20e-02,-8.00e-03,
303,-1.60e-02,1.20e-02,
304,1.20e-02,1.20e-02,
305,-1.60e-02,-1.00e-02,
306,1.20e-02,1.40e-02,
307,-1.60e-02,-8.00e-03,
308,1.20e-02,-8.00e-03,
309,-1.60e-02,1.40e-02,
310,1.20e-02,-8.00e-03,
311,-1.60e-02,1.40e-02,
312,1.20e-02,-1.00e-02,
313,-1.60e-02,1.40e-02,
314,1.20e-02,1.40e-02,
315,-1.60e-02,-8.00e-03,
316,-1.60e-02,-1.00e-02,
317,1.20e-02,1.40e-02,
318,-2.96e-01,1.90e-01,
319,3.16e-01,-2.54e-01,
320,-1.60e-02,1.40e-02,
321,1.20e-02,-1.00e-02,
322,1.20e-02,-8.00e-03,
323,-1.60e-02,1.40e-02,
324,-1.60e-02,-8.00e-03,
325,1.20e-02,1.40e-02,
326,1.20e-02,-8.00e-03,
327,-1.60e-02,1.40e-02,
328,1.20e-02,1.40e-02,
329,-1.60e-02,-1.00e-02,
330,1.20e-02,-8.00e-03,
331,-1.60e-02,1.40e-02,
332,1.20e-02,-1.00e-02,
333,-1.60e-02,1.40e-02,
334,1.20e-02,1.40e-02,
335,-1.60e-02,-8.00e-03,
336,1.20e-02,1.40e-02,
337,-1.60e-02,-1.00e-02,
338,1.60e-02,-8.00e-03,
339,-1.60e-02,1.40e-02,
340,-1.60e-02,-8.00e-03,
341,1.60e-02,1.40e-02,
342,-1.60e-02,1.20e-02,
343,1.60e-02,-8.00e-03,
344,4.72e-01,2.56e-01,
345,-5.48e-01,-2.54e-01,
346,1.20e-02,-1.00e-02,
347,-1.60e-02,1.40e-02,
348,1.20e-02,1.40e-02,
349,-1.60e-02,-8.00e-03,
350,1.20e-02,-8.00e-03,
351,-1.60e-02,1.40e-02,
352,1.20e-02,1.40e-02,
353,-1.60e-02,-8.00e-03,
354,-1.60e-02,-8.00e-03,
355,1.20e-02,1.40e-02,
356,1.20e-02,1.40e-02,
357,-1.60e-02,-8.00e-03,
358,1.20e-02,1.60e-02,
359,-1.60e-02,-8.00e-03,
360,1.20e-02,-8.00e-03,
361,-1.60e-02,1.40e-02,
362,1.20e-02,-8.00e-03,
363,-1.60e-02,1.40e-02,
364,-3.48e-01,1.98e-01,
365,3.68e-01,-2.44e-01,
366,1.20e-02,-1.00e-02,
367,-1.60e-02,1.40e-02,
368,1.20e-02,-1.00e-02,
369,-1.60e-02,1.40e-02,
370,1.20e-02,-8.00e-03,
371,-1.60e-02,1.40e-02,
372,1.20e-02,-8.00e-03,
373,-1.60e-02,1.40e-02,
374,-1.60e-02,-8.00e-03,
375,1.60e-02,1.40e-02,
376,1.20e-02,1.40e-02,
377,-2.00e-02,-8.00e-03,
378,1.20e-02,-8.00e-03,
379,-1.60e-02,1.40e-02,
380,1.20e-02,-8.00e-03,
381,-1.60e-02,1.40e-02,
382,1.20e-02,-8.00e-03,
383,-1.60e-02,1.40e-02,
384,1.20e-02,-8.00e-03,
385,-1.60e-02,1.40e-02,
386,-1.60e-02,-8.00e-03,
387,1.20e-02,1.40e-02,
388,1.20e-02,-8.00e-03,
389,-1.60e-02,1.40e-02,
390,1.20e-02,1.40e-02,
391,-1.60e-02,-8.00e-03,
392,-5.48e-01,2.56e-01,
393,4.72e-01,-2.54e-01,
394,1.20e-02,-8.00e-03,
395,-1.60e-02,1.40e-02,
396,1.20e-02,1.40e-02,
397,-1.60e-02,-1.00e-02,
398,1.20e-02,1.40e-02,
399,-1.60e-02,-8.00e-03,
400,1.20e-02,1.40e-02,
401,-1.60e-02,-8.00e-03,
402,1.20e-02,-8.00e-03,
403,-1.60e-02,1.40e-02,
404,1.20e-02,1.40e-02,
405,-1.60e-02,-8.00e-03,
406,1.20e-02,1.20e-02,
407,-1.60e-02,-8.00e-03,
408,1.20e-02,-8.00e-03,
409,-1.60e-02,1.40e-02,
410,-3.48e-01,1.08e-01,
411,3.96e-01,-1.08e-01,
412,1.20e-02,-8.00e-03,
413,-1.60e-02,1.40e-02,
414,1.20e-02,-8.00e-03,
415,-1.60e-02,1.40e-02,
416,1.20e-02,-8.00e-03,
417,-1.60e-02,1.40e-02,
418,1.20e-02,1.20e-02,
419,-1.60e-02,-8.00e-03,
420,1.20e-02,1.20e-02,
421,-1.60e-02,-8.00e-03,
422,1.20e-02,-8.00e-03,
423,-1.60e-02,1.40e-02,
424,1.20e-02,1.40e-02,
425,-1.60e-02,-1.00e-02,
426,-1.60e-02,-8.00e-03,
427,1.20e-02,1.40e-02,
428,1.20e-02,-1.00e-02,
429,-1.60e-02,1.40e-02,
430,1.20e-02,-8.00e-03,
431,-1.60e-02,1.40e-02,
432,1.20e-02,-8.00e-03,
433,-1.60e-02,1.40e-02,
434,1.20e-02,1.20e-02,
435,-1.60e-02,-8.00e-03,
436,-1.60e-02,-8.00e-03,
437,1.20e-02,1.40e-02,
438,-1.60e-02,1.40e-02,
439,2.56e-01,-1.26e-01,
440,4.72e-01,-2.54e-01,
441,-5.48e-01,2.56e-01,
442,1.20e-02,-8.00e-03,
443,-1.60e-02,1.40e-02,
444,1.20e-02,-1.00e-02,
445,-1.60e-02,1.40e-02,
446,1.20e-02,1.40e-02,
447,-1.60e-02,-1.00e-02,
448,1.20e-02,-8.00e-03,
449,-1.60e-02,1.40e-02,
450,1.20e-02,-1.00e-02,
451,-1.60e-02,1.40e-02,
452,1.20e-02,-8.00e-03,
453,-1.60e-02,1.40e-02,
454,1.20e-02,1.40e-02,
455,-1.60e-02,-8.00e-03,
456,1.20e-02,1.40e-02,
457,-1.60e-02,-1.00e-02,
458,-2.80e-01,-1.52e-01,
459,2.56e-01,1.24e-01,
460,1.20e-02,-8.00e-03,
461,-1.60e-02,1.40e-02,
462,1.20e-02,-8.00e-03,
463,-1.60e-02,1.40e-02,
464,1.20e-02,-8.00e-03,
465,-1.60e-02,1.40e-02,
466,-1.60e-02,-1.00e-02,
467,1.20e-02,1.40e-02,
468,1.20e-02,1.20e-02,
469,-1.60e-02,-8.00e-03,
470,1.20e-02,-8.00e-03,
471,-1.60e-02,1.40e-02,
472,1.20e-02,-8.00e-03,
473,-1.60e-02,1.40e-02,
474,1.20e-02,-8.00e-03,
475,-1.60e-02,1.40e-02,
476,1.20e-02,1.40e-02,
477,-1.60e-02,-8.00e-03,
478,1.20e-02,1.40e-02,
479,-1.60e-02,-8.00e-03,
480,1.20e-02,-8.00e-03,
481,-1.60e-02,1.40e-02,
482,1.20e-02,-8.00e-03,
483,-1.60e-02,1.40e-02,
484,4.72e-01,2.56e-01,
485,-5.48e-01,-2.54e-01,
486,1.20e-02,-1.00e-02,
487,-1.60e-02,1.40e-02,
488,1.20e-02,1.20e-02,
489,-1.60e-02,-1.00e-02,
490,-1.60e-02,-8.00e-03,
491,1.20e-02,1.20e-02,
492,1.20e-02,1.40e-02,
493,-1.60e-02,-1.00e-02,
494,1.20e-02,-8.00e-03,
495,-1.60e-02,1.40e-02,
496,1.20e-02,-8.00e-03,
497,-1.60e-02,1.40e-02,
498,1.20e-02,-8.00e-03,
499,-1.60e-02,1.40e-02,
500,1.20e-02,-1.00e-02,
501,-1.60e-02,1.40e-02,
502,-1.60e-02,1.40e-02,
503,1.60e-02,-8.00e-03,
504,-1.60e-02,-1.00e-02,
505,1.60e-02,1.40e-02,
506,2.28e-01,2.46e-01,
507,-2.28e-01,-2.36e-01,
508,1.20e-02,1.20e-02,
509,-1.60e-02,-1.00e-02,
510,1.60e-02,1.40e-02,
511,-1.60e-02,-1.00e-02,
512,1.20e-02,1.20e-02,
513,-1.60e-02,-1.00e-02,
514,-1.60e-02,-8.00e-03,
515,1.60e-02,1.40e-02,
516,-1.60e-02,1.40e-02,
517,1.60e-02,-8.00e-03,
518,1.20e-02,1.40e-02,
519,-1.60e-02,-1.00e-02,
520,-1.60e-02,1.20e-02,
521,1.20e-02,-1.00e-02,
522,-1.60e-02,-8.00e-03,
523,1.60e-02,1.20e-02,
524,-1.60e-02,1.20e-02,
525,1.20e-02,-1.00e-02,
526,-1.60e-02,-1.00e-02,
527,1.60e-02,1.40e-02,
528,1.20e-02,-8.00e-03,
529,-2.00e-02,1.40e-02,
530,1.20e-02,1.40e-02,
531,-1.60e-02,-1.00e-02,
532,-1.60e-02,-1.00e-02,
533,1.20e-02,1.40e-02,
534,4.72e-01,2.56e-01,
535,-5.48e-01,-1.72e-01,
536,-1.60e-02,-1.00e-02,
537,1.60e-02,1.40e-02,
538,1.20e-02,1.20e-02,
539,-1.60e-02,-1.00e-02,
540,-1.60e-02,1.20e-02,
541,1.20e-02,-1.00e-02,
542,-1.60e-02,1.20e-02,
543,1.60e-02,-1.00e-02,
544,1.20e-02,-1.00e-02,
545,-1.60e-02,1.40e-02,
546,1.20e-02,1.20e-02,
547,-1.60e-02,-1.00e-02,
548,1.20e-02,-8.00e-03,
549,-1.60e-02,1.40e-02,
550,-1.60e-02,-1.22e-01,
551,3.00e-01,8.40e-02,
552,1.20e-02,1.40e-02,
553,-1.60e-02,-1.00e-02,
554,-1.60e-02,1.40e-02,
555,1.60e-02,-1.00e-02,
556,1.20e-02,-8.00e-03,
557,-1.60e-02,1.40e-02,
558,1.20e-02,-1.00e-02,
559,-1.60e-02,1.40e-02,
560,-1.60e-02,1.40e-02,
561,1.20e-02,-8.00e-03,
562,1.20e-02,1.20e-02,
563,-1.60e-02,-8.00e-03,
564,1.20e-02,1.20e-02,
565,-1.60e-02,-1.00e-02,
566,1.20e-02,1.40e-02,
567,-1.60e-02,-1.00e-02,
568,1.20e-02,-1.00e-02,
569,-1.60e-02,1.40e-02,
570,1.20e-02,-8.00e-03,
571,-1.60e-02,1.40e-02,
572,1.20e-02,-8.00e-03,
573,-1.60e-02,1.40e-02,
574,1.20e-02,1.40e-02,
575,-1.60e-02,-8.00e-03,
576,1.20e-02,-8.00e-03,
577,-1.60e-02,1.20e-02,
578,-1.60e-02,1.20e-02,
579,1.20e-02,-1.00e-02,
580,4.72e-01,-2.54e-01,
581,-5.48e-01,2.56e-01,
582,-1.60e-02,-1.00e-02,
583,1.60e-02,1.20e-02,
584,1.20e-02,1.20e-02,
585,-1.60e-02,-1.00e-02,
586,1.20e-02,-8.00e-03,
587,-1.60e-02,1.40e-02,
588,-1.60e-02,-8.00e-03,
589,1.20e-02,1.40e-02,
590,1.20e-02,1.20e-02,
591,-1.60e-02,-1.00e-02,
592,-1.20e-02,1.20e-02,
593,1.20e-02,-8.00e-03,
594,1.20e-02,1.20e-02,
595,-1.60e-02,-8.00e-03,
596,-1.60e-02,-8.00e-03,
597,1.20e-02,1.40e-02,
598,4.80e-02,8.20e-02,
599,-1.76e-01,-1.66e-01,
600,2.48e-01,2.08e-01,
601,-2.44e-01,-2.28e-01,
602,1.20e-02,1.40e-02,
603,-1.60e-02,-1.00e-02,
604,1.20e-02,-8.00e-03,
605,-1.60e-02,1.40e-02,
606,1.20e-02,-8.00e-03,
607,-1.60e-02,1.40e-02,
608,1.20e-02,1.20e-02,
609,-1.60e-02,-8.00e-03,
610,1.20e-02,-8.00e-03,
611,-1.60e-02,1.40e-02,
612,1.20e-02,1.40e-02,
613,-1.60e-02,-8.00e-03,
614,1.20e-02,1.40e-02,
615,-1.60e-02,-1.00e-02,
616,1.20e-02,-8.00e-03,
617,-1.60e-02,1.40e-02,
618,-1.60e-02,1.40e-02,
619,1.20e-02,-8.00e-03,
620,1.20e-02,-8.00e-03,
621,-1.60e-02,1.40e-02,
622,1.20e-02,-8.00e-03,
623,-1.60e-02,1.40e-02,
624,1.20e-02,1.40e-02,
625,-1.60e-02,-1.00e-02,
626,4.72e-01,-2.54e-01,
627,-5.48e-01,2.56e-01,
628,1.20e-02,1.20e-02,
629,-1.60e-02,-1.00e-02,
630,1.20e-02,1.20e-02,
631,-1.60e-02,-8.00e-03,
632,1.20e-02,1.40e-02,
633,-1.60e-02,-1.00e-02,
634,1.20e-02,-8.00e-03,
635,-1.60e-02,1.40e-02,
636,-1.60e-02,-8.00e-03,
637,1.20e-02,1.40e-02,
638,1.20e-02,1.40e-02,
639,-1.60e-02,-1.00e-02,
640,1.20e-02,-1.00e-02,
641,-1.60e-02,1.40e-02,
642,1.20e-02,1.40e-02,
643,-1.60e-02,-1.00e-02,
644,1.20e-02,1.40e-02,
645,-1.60e-02,-8.00e-03,
646,2.08e-01,-2.54e-01,
647,-1.88e-01,2.56e-01,
648,1.20e-02,-1.00e-02,
649,-1.60e-02,1.40e-02,
650,-1.60e-02,1.20e-02,
651,1.20e-02,-8.00e-03,
652,1.20e-02,-8.00e-03,
653,-1.60e-02,1.40e-02,
654,1.20e-02,1.40e-02,
655,-1.60e-02,-1.00e-02,
656,-1.60e-02,1.40e-02,
657,1.20e-02,-8.00e-03,
658,1.20e-02,-8.00e-03,
659,-1.60e-02,1.40e-02,
660,1.20e-02,-8.00e-03,
661,-1.60e-02,1.40e-02,
662,1.20e-02,1.20e-02,
663,-1.60e-02,-8.00e-03,
664,1.60e-02,1.40e-02,
665,-1.60e-02,-1.00e-02,
666,1.20e-02,-8.00e-03,
667,-1.60e-02,1.60e-02,
668,1.20e-02,-1.00e-02,
669,-1.60e-02,1.40e-02,
670,-1.60e-02,-1.00e-02,
671,1.20e-02,1.40e-02,
672,-1.60e-02,-8.00e-03,
673,1.60e-02,1.40e-02,
674,-5.48e-01,2.56e-01,
675,4.72e-01,-2.54e-01,
676,1.20e-02,-1.00e-02,
677,-1.60e-02,1.40e-02,
678,1.20e-02,-1.00e-02,
679,-1.60e-02,1.40e-02,
680,1.20e-02,-1.00e-02,
681,-1.60e-02,1.40e-02,
682,1.20e-02,-8.00e-03,
683,-1.60e-02,1.40e-02,
684,1.20e-02,-8.00e-03,
685,-1.60e-02,1.40e-02,
686,1.20e-02,-1.00e-02,
687,-1.60e-02,1.40e-02,
688,1.20e-02,-1.00e-02,
689,-1.60e-02,1.40e-02,
690,1.20e-02,-8.00e-03,
691,-1.60e-02,1.40e-02,
692,2.92e-01,-1.64e-01,
693,-2.40e-01,1.30e-01,
694,-1.60e-02,1.20e-02,
695,1.20e-02,-1.00e-02,
696,-1.60e-02,-8.00e-03,
697,1.60e-02,1.40e-02,
698,1.20e-02,-1.00e-02,
699,-1.60e-02,1.40e-02,
700,1.20e-02,-1.00e-02,
701,-1.60e-02,1.40e-02,
702,1.20e-02,1.40e-02,
703,-1.60e-02,-1.00e-02,
704,1.20e-02,-8.00e-03,
705,-1.60e-02,1.60e-02,
706,-1.60e-02,-1.00e-02,
707,1.20e-02,1.40e-02,
708,1.20e-02,1.20e-02,
709,-1.60e-02,-1.00e-02,
710,1.20e-02,-8.00e-03,
711,-1.60e-02,1.40e-02,
712,1.20e-02,-8.00e-03,
713,-1.60e-02,1.40e-02,
714,1.20e-02,-8.00e-03,
715,-1.60e-02,1.40e-02,
716,1.20e-02,-1.00e-02,
717,-1.60e-02,1.40e-02,
718,1.20e-02,1.40e-02,
719,-1.60e-02,-1.00e-02,
720,-2.52e-01,2.24e-01,
721,2.36e-01,-1.66e-01,
722,4.72e-01,2.56e-01,
723,-5.48e-01,-2.54e-01,
724,1.20e-02,1.20e-02,
725,-1.60e-02,-1.00e-02,
726,1.20e-02,1.40e-02,
727,-1.60e-02,-1.00e-02,
728,1.20e-02,-1.00e-02,
729,-1.60e-02,1.40e-02,
730,1.20e-02,-8.00e-03,
731,-1.60e-02,1.40e-02,
732,1.20e-02,-8.00e-03,
733,-1.60e-02,1.40e-02,
734,1.20e-02,1.40e-02,
735,-1.60e-02,-1.00e-02,
736,1.20e-02,1.20e-02,
737,-1.60e-02,-8.00e-03,
738,1.20e-02,-8.00e-03,
739,-1.60e-02,1.40e-02,
740,2.44e-01,1.70e-01,
741,-2.72e-01,-2.36e-01,
742,1.20e-02,-8.00e-03,
743,-1.60e-02,1.40e-02,
744,1.20e-02,1.20e-02,
745,-1.60e-02,-1.00e-02,
746,1.20e-02,-1.00e-02,
747,-1.60e-02,1.40e-02,
748,1.20e-02,-8.00e-03,
749,-1.60e-02,1.20e-02,
750,1.20e-02,-8.00e-03,
751,-1.60e-02,1.40e-02,
752,-1.60e-02,1.20e-02,
753,1.20e-02,-1.00e-02,
754,1.20e-02,1.20e-02,
755,-1.60e-02,-1.00e-02,
756,1.20e-02,1.20e-02,
757,-1.60e-02,-1.00e-02,
758,1.20e-02,1.20e-02,
759,-1.60e-02,-1.00e-02,
760,1.20e-02,1.20e-02,
761,-1.60e-02,-8.00e-03,
762,1.20e-02,-8.00e-03,
763,-1.60e-02,1.40e-02,
764,1.20e-02,-8.00e-03,
765,-1.60e-02,1.40e-02,
766,-5.48e-01,2.56e-01,
767,4.72e-01,-2.54e-01,
768,1.20e-02,1.20e-02,
769,-1.60e-02,-1.00e-02,
770,1.20e-02,-8.00e-03,
771,-1.60e-02,1.40e-02,
772,1.20e-02,1.40e-02,
773,-1.60e-02,-8.00e-03,
774,1.20e-02,1.40e-02,
775,-1.60e-02,-1.00e-02,
776,1.20e-02,-8.00e-03,
777,-1.60e-02,1.40e-02,
778,1.20e-02,-8.00e-03,
779,-1.60e-02,1.40e-02,
780,1.20e-02,1.40e-02,
781,-1.60e-02,-1.00e-02,
782,1.20e-02,-8.00e-03,
783,-1.60e-02,1.40e-02,
784,-1.60e-02,-8.00e-03,
785,1.20e-02,1.40e-02,
786,1.20e-02,1.40e-02,
787,-1.60e-02,-1.00e-02,
788,1.88e-01,-2.16e-01,
789,-2.88e-01,2.56e-01,
790,1.20e-02,1.40e-02,
791,-1.60e-02,-1.00e-02,
792,1.20e-02,-8.00e-03,
793,-1.60e-02,1.40e-02,
794,1.20e-02,-8.00e-03,
795,-1.60e-02,1.40e-02,
796,-1.60e-02,1.40e-02,
797,1.20e-02,-1.00e-02,
798,1.20e-02,1.40e-02,
799,-1.60e-02,-8.00e-03,
800,1.20e-02,-8.00e-03,
801,-1.60e-02,1.20e-02,
802,1.60e-02,-8.00e-03,
803,-1.60e-02,1.40e-02,
804,1.20e-02,-8.00e-03,
805,-1.60e-02,1.40e-02,
806,1.20e-02,-8.00e-03,
807,-1.60e-02,1.40e-02,
808,1.20e-02,1.20e-02,
809,-1.60e-02,-1.00e-02,
810,1.20e-02,1.20e-02,
811,-1.60e-02,-8.00e-03,
812,1.20e-02,1.40e-02,
813,-1.60e-02,-8.00e-03,
814,4.72e-01,-2.54e-01,
815,-5.48e-01,2.56e-01,
816,1.20e-02,-1.00e-02,
817,-1.60e-02,1.40e-02,
818,1.20e-02,1.40e-02,
819,-1.60e-02,-1.00e-02,
820,-1.60e-02,1.40e-02,
821,1.20e-02,-8.00e-03,
822,1.20e-02,1.20e-02,
823,-1.60e-02,-1.00e-02,
824,-1.60e-02,1.20e-02,
825,1.20e-02,-8.00e-03,
826,-1.60e-02,1.40e-02,
827,1.60e-02,-1.00e-02,
828,1.20e-02,1.20e-02,
829,-1.60e-02,-8.00e-03,
830,1.20e-02,-1.00e-02,
831,-1.60e-02,1.60e-02,
832,-2.60e-01,9.40e-02,
833,1.20e-01,-1.20e-01,
