Motor_Data/MOTOR_3_ON/time domain/NewFile6(1).csv

X,CH1,CH2,Start,Increment,
Sequence,Volt,Volt,-3.000000e-02,5.000000e-05
0,1.20e-02,1.40e-02,
1,-1.60e-02,-8.00e-03,
2,-1.60e-02,-8.00e-03,
3,1.20e-02,1.20e-02,
4,-1.60e-02,-8.00e-03,
5,1.20e-02,1.40e-02,
6,-1.60e-02,-8.00e-03,
7,1.20e-02,1.20e-02,
8,-1.60e-02,-8.00e-03,
9,1.20e-02,1.40e-02,
10,1.20e-02,-8.00e-03,
11,-1.60e-02,1.20e-02,
12,-1.60e-02,1.40e-02,
13,1.20e-02,-8.00e-03,
14,1.20e-02,1.40e-02,
15,-1.60e-02,-8.00e-03,
16,-1.60e-02,-8.00e-03,
17,1.20e-02,1.20e-02,
18,-5.48e-01,2.56e-01,
19,4.72e-01,-2.54e-01,
20,-1.60e-02,-8.00e-03,
21,1.20e-02,1.40e-02,
22,1.20e-02,1.20e-02,
23,-1.60e-02,-1.00e-02,
24,1.20e-02,-1.00e-02,
25,-1.60e-02,1.40e-02,
26,-1.60e-02,-8.00e-03,
27,1.20e-02,1.40e-02,
28,1.20e-02,-8.00e-03,
29,-1.60e-02,1.40e-02,
30,1.20e-02,-8.00e-03,
31,-1.60e-02,1.40e-02,
32,1.20e-02,1.40e-02,
33,-1.60e-02,-1.00e-02,
34,1.20e-02,1.20e-02,
35,-1.60e-02,-8.00e-03,
36,2.84e-01,2.12e-01,
37,-3.60e-02,-2.28e-01,
38,-1.60e-02,1.20e-02,
39,1.20e-02,-8.00e-03,
40,1.20e-02,-8.00e-03,
41,-1.60e-02,1.20e-02,
42,1.20e-02,1.20e-02,
43,-1.60e-02,-8.00e-03,
44,1.20e-02,-8.00e-03,
45,-1.60e-02,1.40e-02,
46,-1.60e-02,-8.00e-03,
47,1.20e-02,1.40e-02,
48,-1.60e-02,-8.00e-03,
49,1.20e-02,1.40e-02,
50,-1.60e-02,1.40e-02,
51,1.60e-02,-8.00e-03,
52,-1.60e-02,1.40e-02,
53,1.60e-02,-8.00e-03,
54,1.20e-02,1.40e-02,
55,-1.60e-02,-8.00e-03,
56,1.20e-02,-8.00e-03,
57,-1.60e-02,1.40e-02,
58,1.20e-02,1.40e-02,
59,-1.60e-02,-8.00e-03,
60,1.20e-02,1.40e-02,
61,-1.60e-02,-8.00e-03,
62,-5.48e-01,2.56e-01,
63,4.72e-01,-2.54e-01,
64,1.20e-02,-8.00e-03,
65,-1.60e-02,1.40e-02,
66,-1.60e-02,-8.00e-03,
67,1.20e-02,1.40e-02,
68,1.20e-02,1.20e-02,
69,-1.60e-02,-8.00e-03,
70,-1.60e-02,-8.00e-03,
71,1.20e-02,1.40e-02,
72,1.20e-02,1.20e-02,
73,-1.60e-02,-8.00e-03,
74,1.20e-02,1.40e-02,
75,-1.60e-02,-8.00e-03,
76,1.20e-02,1.20e-02,
77,-1.60e-02,-8.00e-03,
78,1.20e-02,-8.00e-03,
79,-1.60e-02,1.40e-02,
80,1.20e-02,-8.00e-03,
81,-1.60e-02,1.40e-02,
82,1.20e-02,1.20e-02,
83,-1.60e-02,-8.00e-03,
84,4.24e-01,1.62e-01,
85,-4.12e-01,-2.54e-01,
86,1.20e-02,1.40e-02,
87,-1.60e-02,-8.00e-03,
88,1.20e-02,-1.00e-02,
89,-1.60e-02,1.40e-02,
90,1.20e-02,-8.00e-03,
91,-1.60e-02,1.40e-02,
92,1.20e-02,1.20e-02,
93,-1.60e-02,-1.00e-02,
94,-1.20e-02,-8.00e-03,
95,1.20e-02,1.20e-02,
96,1.20e-02,-8.00e-03,
97,-1.60e-02,1.40e-02,
98,-1.20e-02,1.20e-02,
99,1.60e-02,-8.00e-03,
100,1.20e-02,-6.00e-03,
101,-1.60e-02,1.40e-02,
102,1.20e-02,-8.00e-03,
103,-1.60e-02,1.40e-02,
104,1.20e-02,-8.00e-03,
105,-1.60e-02,1.40e-02,
106,1.20e-02,1.20e-02,
107,-1.60e-02,-8.00e-03,
108,1.20e-02,-8.00e-03,
109,-1.60e-02,1.40e-02,
110,4.72e-01,-2.54e-01,
111,-4.64e-01,2.56e-01,
112,1.20e-02,-8.00e-03,
113,-1.60e-02,1.40e-02,
114,1.20e-02,-8.00e-03,
115,-1.20e-02,1.20e-02,
116,1.20e-02,-8.00e-03,
117,-1.60e-02,1.40e-02,
118,1.20e-02,1.40e-02,
119,-1.60e-02,-8.00e-03,
120,1.20e-02,-8.00e-03,
121,-1.60e-02,1.40e-02,
122,1.20e-02,-1.00e-02,
123,-1.60e-02,1.40e-02,
124,-1.20e-02,1.20e-02,
125,1.20e-02,-8.00e-03,
126,1.20e-02,1.20e-02,
127,-1.60e-02,-8.00e-03,
128,-2.88e-01,1.00e-01,
129,2.96e-01,-1.22e-01,
130,1.20e-02,-8.00e-03,
131,-1.60e-02,1.20e-02,
132,1.20e-02,1.20e-02,
133,-1.60e-02,-8.00e-03,
134,1.20e-02,1.40e-02,
135,-1.60e-02,-8.00e-03,
136,-1.60e-02,-1.00e-02,
137,1.20e-02,1.40e-02,
138,1.20e-02,-8.00e-03,
139,-1.60e-02,1.20e-02,
140,-1.60e-02,-8.00e-03,
141,1.20e-02,1.20e-02,
142,1.20e-02,1.40e-02,
143,-1.60e-02,-8.00e-03,
144,1.20e-02,-8.00e-03,
145,-1.60e-02,1.40e-02,
146,-1.60e-02,1.20e-02,
147,1.60e-02,-8.00e-03,
148,-1.60e-02,-8.00e-03,
149,1.20e-02,1.40e-02,
150,1.20e-02,-8.00e-03,
151,-1.60e-02,1.40e-02,
152,-1.60e-02,1.20e-02,
153,1.20e-02,-1.00e-02,
154,-1.60e-02,-8.00e-03,
155,1.20e-02,1.40e-02,
156,-1.20e-02,-8.00e-03,
157,1.20e-02,1.40e-02,
158,4.72e-01,2.56e-01,
159,-3.68e-01,-2.54e-01,
160,1.20e-02,-8.00e-03,
161,-1.60e-02,1.40e-02,
162,1.20e-02,-8.00e-03,
163,-1.60e-02,1.40e-02,
164,-1.20e-02,-8.00e-03,
165,1.20e-02,1.40e-02,
166,1.20e-02,-8.00e-03,
167,-1.60e-02,1.40e-02,
168,1.20e-02,-6.00e-03,
169,-1.60e-02,1.40e-02,
170,1.20e-02,-8.00e-03,
171,-1.60e-02,1.40e-02,
172,1.20e-02,1.40e-02,
173,-1.20e-02,-8.00e-03,
174,1.20e-02,-8.00e-03,
175,-1.60e-02,1.40e-02,
176,-3.36e-01,-1.62e-01,
177,3.12e-01,2.32e-01,
178,1.20e-02,-8.00e-03,
179,-1.60e-02,1.60e-02,
180,1.20e-02,-8.00e-03,
181,-1.60e-02,1.40e-02,
182,1.20e-02,-8.00e-03,
183,-1.60e-02,1.20e-02,
184,1.20e-02,1.20e-02,
185,-1.60e-02,-8.00e-03,
186,1.60e-02,-8.00e-03,
187,-1.60e-02,1.40e-02,
188,1.20e-02,-8.00e-03,
189,-1.60e-02,1.40e-02,
190,-1.60e-02,-8.00e-03,
191,1.20e-02,1.40e-02,
192,-1.60e-02,-8.00e-03,
193,1.20e-02,1.40e-02,
194,1.20e-02,-8.00e-03,
195,-1.60e-02,1.40e-02,
196,1.20e-02,1.20e-02,
197,-1.60e-02,-8.00e-03,
198,-1.60e-02,-8.00e-03,
199,1.60e-02,1.40e-02,
200,-1.60e-02,-8.00e-03,
201,1.60e-02,1.40e-02,
202,-5.48e-01,-2.54e-01,
203,4.72e-01,2.56e-01,
204,-1.36e-01,9.20e-02,
205,2.80e-02,-2.60e-02,
206,1.20e-02,1.40e-02,
207,-1.60e-02,-8.00e-03,
208,-1.60e-02,-8.00e-03,
209,1.60e-02,1.40e-02,
210,1.20e-02,-8.00e-03,
211,-1.60e-02,1.40e-02,
212,1.20e-02,1.20e-02,
213,-1.60e-02,-8.00e-03,
214,1.20e-02,-8.00e-03,
215,-1.60e-02,1.40e-02,
216,1.20e-02,-8.00e-03,
217,-1.60e-02,1.20e-02,
218,1.20e-02,-8.00e-03,
219,-1.60e-02,1.20e-02,
220,1.20e-02,-8.00e-03,
221,-1.60e-02,1.40e-02,
222,-1.60e-02,-8.00e-03,
223,1.60e-02,1.40e-02,
224,3.44e-01,2.56e-01,
225,-4.24e-01,-2.54e-01,
226,1.20e-02,-8.00e-03,
227,-1.60e-02,1.20e-02,
228,-1.60e-02,1.40e-02,
229,1.20e-02,-8.00e-03,
230,1.20e-02,1.40e-02,
231,-1.20e-02,-8.00e-03,
232,1.20e-02,1.20e-02,
233,-1.60e-02,-8.00e-03,
234,1.20e-02,1.40e-02,
235,-1.60e-02,-8.00e-03,
236,1.20e-02,-8.00e-03,
237,-1.60e-02,1.40e-02,
238,1.20e-02,-8.00e-03,
239,-1.60e-02,1.40e-02,
240,-1.60e-02,-8.00e-03,
241,1.60e-02,1.40e-02,
242,1.20e-02,-8.00e-03,
243,-1.60e-02,1.40e-02,
244,1.20e-02,-8.00e-03,
245,-1.60e-02,1.40e-02,
246,1.20e-02,-8.00e-03,
247,-1.60e-02,1.40e-02,
248,1.20e-02,1.60e-02,
249,-1.60e-02,-8.00e-03,
250,1.20e-02,-8.00e-03,
251,-1.60e-02,1.40e-02,
252,4.72e-01,-2.54e-01,
253,-5.48e-01,2.56e-01,
254,1.20e-02,-8.00e-03,
255,-1.60e-02,1.40e-02,
256,1.20e-02,-8.00e-03,
257,-1.60e-02,1.40e-02,
258,1.20e-02,-8.00e-03,
259,-1.60e-02,1.40e-02,
260,1.20e-02,-8.00e-03,
261,-1.60e-02,1.20e-02,
262,1.20e-02,-8.00e-03,
263,-1.60e-02,1.40e-02,
264,1.20e-02,-8.00e-03,
265,-1.60e-02,1.40e-02,
266,1.20e-02,-1.00e-02,
267,-1.60e-02,1.40e-02,
268,-1.60e-02,-8.00e-03,
269,1.20e-02,1.40e-02,
270,1.32e-01,9.20e-02,
271,-2.36e-01,-8.80e-02,
272,-1.60e-02,-8.00e-03,
273,1.20e-02,1.40e-02,
274,-1.60e-02,1.20e-02,
275,1.20e-02,-8.00e-03,
276,1.20e-02,-8.00e-03,
277,-1.60e-02,1.40e-02,
278,-1.60e-02,1.20e-02,
279,1.20e-02,-8.00e-03,
280,1.20e-02,1.20e-02,
281,-1.60e-02,-8.00e-03,
282,1.20e-02,1.40e-02,
283,-1.60e-02,-1.00e-02,
284,1.20e-02,1.20e-02,
285,-1.60e-02,-1.00e-02,
286,-1.60e-02,1.20e-02,
287,1.20e-02,-8.00e-03,
288,1.20e-02,-8.00e-03,
289,-1.60e-02,1.20e-02,
290,1.20e-02,1.20e-02,
291,-1.60e-02,-8.00e-03,
292,1.20e-02,1.20e-02,
293,-2.00e-02,-8.00e-03,
294,1.20e-02,-8.00e-03,
295,-1.60e-02,1.40e-02,
296,1.20e-02,1.40e-02,
297,-1.60e-02,-1.00e-02,
298,4.72e-01,-2.54e-01,
299,-5.48e-01,2.56e-01,
300,-9.20e-02,1.42e-01,
301,5.20e-02,-3.80e-02,
302,1.20e-02,-8.00e-03,
303,-1.60e-02,1.40e-02,
304,1.20e-02,1.40e-02,
305,-1.60e-02,-8.00e-03,
306,1.20e-02,1.40e-02,
307,-1.60e-02,-8.00e-03,
308,1.20e-02,-8.00e-03,
309,-1.60e-02,1.40e-02,
310,1.20e-02,1.40e-02,
311,-1.60e-02,-8.00e-03,
312,1.20e-02,1.40e-02,
313,-1.60e-02,-8.00e-03,
314,1.20e-02,-8.00e-03,
315,-1.60e-02,1.40e-02,
316,1.20e-02,1.40e-02,
317,-1.60e-02,-8.00e-03,
318,-2.96e-01,2.30e-01,
319,7.60e-02,-2.42e-01,
320,1.20e-02,1.40e-02,
321,-1.60e-02,-8.00e-03,
322,1.20e-02,-8.00e-03,
323,-1.60e-02,1.40e-02,
324,1.20e-02,-8.00e-03,
325,-1.60e-02,1.40e-02,
326,1.20e-02,-8.00e-03,
327,-1.60e-02,1.40e-02,
328,1.20e-02,1.40e-02,
329,-1.60e-02,-8.00e-03,
330,1.20e-02,1.40e-02,
331,-1.60e-02,-8.00e-03,
332,1.20e-02,-8.00e-03,
333,-1.60e-02,1.40e-02,
334,1.20e-02,-8.00e-03,
335,-1.60e-02,1.40e-02,
336,-1.60e-02,-8.00e-03,
337,1.20e-02,1.40e-02,
338,1.20e-02,1.40e-02,
339,-1.60e-02,-8.00e-03,
340,1.20e-02,1.40e-02,
341,-1.60e-02,-8.00e-03,
342,1.20e-02,1.40e-02,
343,-1.60e-02,-8.00e-03,
344,4.72e-01,-2.54e-01,
345,-5.48e-01,2.56e-01,
346,1.20e-02,-6.00e-03,
347,-1.60e-02,1.20e-02,
348,1.20e-02,1.40e-02,
349,-1.60e-02,-8.00e-03,
350,-1.60e-02,1.40e-02,
351,1.20e-02,-8.00e-03,
352,1.20e-02,-8.00e-03,
353,-1.60e-02,1.40e-02,
354,-1.60e-02,-8.00e-03,
355,1.20e-02,1.40e-02,
356,1.20e-02,-1.00e-02,
357,-1.60e-02,1.40e-02,
358,1.20e-02,1.40e-02,
359,-1.60e-02,-8.00e-03,
360,1.20e-02,-8.00e-03,
361,-1.60e-02,1.40e-02,
362,1.20e-02,-8.00e-03,
363,-1.60e-02,1.40e-02,
364,4.56e-01,-2.54e-01,
365,-3.84e-01,2.28e-01,
366,1.20e-02,1.20e-02,
367,-1.60e-02,-8.00e-03,
368,-1.20e-02,1.40e-02,
369,1.20e-02,-8.00e-03,
370,1.20e-02,-8.00e-03,
371,-1.60e-02,1.40e-02,
372,1.20e-02,1.40e-02,
373,-1.60e-02,-8.00e-03,
374,1.20e-02,-8.00e-03,
375,-1.60e-02,1.40e-02,
376,-1.60e-02,1.40e-02,
377,1.20e-02,-8.00e-03,
378,1.20e-02,-8.00e-03,
379,-1.60e-02,1.40e-02,
380,1.20e-02,-8.00e-03,
381,-1.60e-02,1.40e-02,
382,-1.60e-02,-8.00e-03,
383,1.20e-02,1.40e-02,
384,1.20e-02,-8.00e-03,
385,-1.60e-02,1.40e-02,
386,1.20e-02,-8.00e-03,
387,-1.60e-02,1.40e-02,
388,1.60e-02,-8.00e-03,
389,-1.60e-02,1.40e-02,
390,1.20e-02,1.40e-02,
391,-1.60e-02,-8.00e-03,
392,-5.48e-01,2.56e-01,
393,2.24e-01,-2.54e-01,
394,1.20e-02,-8.00e-03,
395,-1.60e-02,1.40e-02,
396,1.20e-02,1.40e-02,
397,-1.60e-02,-8.00e-03,
398,1.20e-02,-8.00e-03,
399,-1.60e-02,1.40e-02,
400,1.20e-02,-1.00e-02,
401,-1.60e-02,1.40e-02,
402,1.20e-02,-8.00e-03,
403,-1.60e-02,1.40e-02,
404,1.20e-02,1.20e-02,
405,-1.60e-02,-8.00e-03,
406,1.20e-02,-8.00e-03,
407,-1.60e-02,1.20e-02,
408,1.20e-02,-8.00e-03,
409,-1.60e-02,1.40e-02,
410,2.16e-01,-8.00e-02,
411,-2.36e-01,1.04e-01,
412,1.20e-02,-8.00e-03,
413,-1.60e-02,1.40e-02,
414,1.20e-02,-8.00e-03,
415,-1.60e-02,1.40e-02,
416,-1.60e-02,-8.00e-03,
417,1.20e-02,1.40e-02,
418,1.20e-02,-8.00e-03,
419,-1.60e-02,1.40e-02,
420,1.20e-02,1.40e-02,
421,-1.60e-02,-8.00e-03,
422,1.20e-02,-8.00e-03,
423,-1.60e-02,1.40e-02,
424,1.20e-02,-8.00e-03,
425,-1.60e-02,1.40e-02,
426,1.20e-02,1.40e-02,
427,-1.20e-02,-8.00e-03,
428,1.20e-02,-8.00e-03,
429,-1.60e-02,1.40e-02,
430,1.20e-02,-8.00e-03,
431,-1.60e-02,1.40e-02,
432,1.20e-02,-8.00e-03,
433,-1.60e-02,1.40e-02,
434,1.20e-02,-8.00e-03,
435,-1.60e-02,1.40e-02,
436,1.20e-02,1.40e-02,
437,-1.60e-02,-8.00e-03,
438,1.20e-02,-8.00e-03,
439,-1.60e-02,1.40e-02,
440,4.72e-01,2.56e-01,
441,-5.48e-01,-2.54e-01,
442,-1.20e-02,-8.00e-03,
443,1.20e-02,1.40e-02,
444,1.20e-02,1.20e-02,
445,-1.60e-02,-8.00e-03,
446,1.20e-02,1.20e-02,
447,-1.60e-02,-8.00e-03,
448,1.20e-02,1.20e-02,
449,-1.60e-02,-8.00e-03,
450,1.20e-02,-8.00e-03,
451,-1.60e-02,1.40e-02,
452,-1.60e-02,1.40e-02,
453,1.20e-02,-8.00e-03,
454,1.20e-02,-8.00e-03,
455,-1.60e-02,1.40e-02,
456,1.20e-02,-8.00e-03,
457,-1.60e-02,1.20e-02,
458,-3.48e-01,-1.50e-01,
459,2.88e-01,4.80e-02,
460,1.20e-02,-8.00e-03,
461,-1.60e-02,1.20e-02,
462,1.20e-02,1.40e-02,
463,-1.60e-02,-8.00e-03,
464,1.20e-02,-8.00e-03,
465,-1.60e-02,1.40e-02,
466,1.20e-02,-8.00e-03,
467,-1.60e-02,1.20e-02,
468,1.20e-02,-8.00e-03,
469,-1.60e-02,1.40e-02,
470,1.20e-02,1.20e-02,
471,-1.60e-02,-8.00e-03,
472,1.20e-02,1.40e-02,
473,-1.60e-02,-1.00e-02,
474,1.20e-02,1.20e-02,
475,-1.60e-02,-8.00e-03,
476,1.20e-02,-8.00e-03,
477,-1.60e-02,1.40e-02,
478,1.20e-02,-8.00e-03,
479,-1.60e-02,1.20e-02,
480,1.20e-02,1.40e-02,
481,-1.60e-02,-8.00e-03,
482,1.20e-02,-8.00e-03,
483,-1.60e-02,1.40e-02,
484,4.72e-01,-2.54e-01,
485,-5.48e-01,2.56e-01,
486,-1.60e-02,1.20e-02,
487,1.20e-02,-8.00e-03,
488,1.20e-02,-8.00e-03,
489,-1.60e-02,1.40e-02,
490,-1.20e-02,1.20e-02,
491,1.20e-02,-8.00e-03,
492,1.20e-02,-8.00e-03,
493,-1.60e-02,1.40e-02,
494,1.20e-02,-8.00e-03,
495,-1.60e-02,1.40e-02,
496,-1.60e-02,-8.00e-03,
497,1.20e-02,1.40e-02,
498,1.20e-02,1.40e-02,
499,-1.60e-02,-1.00e-02,
500,1.20e-02,1.40e-02,
501,-1.60e-02,-8.00e-03,
502,1.20e-02,-8.00e-03,
503,-1.60e-02,1.40e-02,
504,1.20e-02,1.40e-02,
505,-1.60e-02,-8.00e-03,
506,-4.08e-01,-2.54e-01,
507,4.68e-01,2.56e-01,
508,1.20e-02,-8.00e-03,
509,-1.60e-02,1.40e-02,
510,1.20e-02,-8.00e-03,
511,-1.60e-02,1.40e-02,
512,1.20e-02,-8.00e-03,
513,-1.60e-02,1.40e-02,
514,1.20e-02,1.40e-02,
515,-1.60e-02,-8.00e-03,
516,1.20e-02,1.40e-02,
517,-1.60e-02,-1.00e-02,
518,-1.60e-02,-8.00e-03,
519,1.60e-02,1.20e-02,
520,-1.60e-02,-8.00e-03,
521,1.20e-02,1.20e-02,
522,1.20e-02,-8.00e-03,
523,-1.60e-02,1.40e-02,
524,1.20e-02,-8.00e-03,
525,-1.60e-02,1.20e-02,
526,1.20e-02,1.20e-02,
527,-1.60e-02,-8.00e-03,
528,1.20e-02,-8.00e-03,
529,-1.60e-02,1.40e-02,
530,1.20e-02,-8.00e-03,
531,-1.60e-02,1.40e-02,
532,1.20e-02,1.40e-02,
533,-1.60e-02,-8.00e-03,
534,4.72e-01,2.56e-01,
535,-5.48e-01,-2.54e-01,
536,1.20e-02,1.20e-02,
537,-1.60e-02,-1.00e-02,
538,1.20e-02,-8.00e-03,
539,-1.60e-02,1.40e-02,
540,-1.60e-02,-8.00e-03,
541,1.60e-02,1.40e-02,
542,1.20e-02,1.40e-02,
543,-1.60e-02,-8.00e-03,
544,1.20e-02,-8.00e-03,
545,-1.60e-02,1.40e-02,
546,1.20e-02,-8.00e-03,
547,-1.60e-02,1.40e-02,
548,-1.60e-02,-8.00e-03,
549,1.20e-02,1.40e-02,
550,-1.76e-01,9.60e-02,
551,2.08e-01,-1.18e-01,
552,1.20e-02,-8.00e-03,
553,-1.60e-02,1.20e-02,
554,-1.60e-02,-8.00e-03,
555,1.20e-02,1.40e-02,
556,1.20e-02,1.20e-02,
557,-1.60e-02,-8.00e-03,
558,1.20e-02,1.40e-02,
559,-1.60e-02,-1.00e-02,
560,-1.60e-02,1.20e-02,
561,1.20e-02,-8.00e-03,
562,1.20e-02,-8.00e-03,
563,-1.60e-02,1.40e-02,
564,1.20e-02,-8.00e-03,
565,-1.60e-02,1.20e-02,
566,-1.60e-02,-8.00e-03,
567,1.20e-02,1.40e-02,
568,-1.60e-02,1.20e-02,
569,1.60e-02,-8.00e-03,
570,-1.60e-02,1.40e-02,
571,1.20e-02,-8.00e-03,
572,-1.60e-02,-8.00e-03,
573,1.20e-02,1.40e-02,
574,1.20e-02,-8.00e-03,
575,-1.60e-02,1.40e-02,
576,1.20e-02,-8.00e-03,
577,-1.60e-02,1.40e-02,
578,-1.20e-02,1.40e-02,
579,1.20e-02,-8.00e-03,
580,4.72e-01,-2.54e-01,
581,-5.48e-01,2.56e-01,
582,-1.60e-02,-8.00e-03,
583,1.20e-02,1.20e-02,
584,1.20e-02,1.20e-02,
585,-1.60e-02,-8.00e-03,
586,1.20e-02,1.20e-02,
587,-1.60e-02,-8.00e-03,
588,1.20e-02,-8.00e-03,
589,-1.20e-02,1.40e-02,
590,1.20e-02,1.40e-02,
591,-1.60e-02,-8.00e-03,
592,1.20e-02,1.20e-02,
593,-1.60e-02,-8.00e-03,
594,1.20e-02,1.20e-02,
595,-1.60e-02,-8.00e-03,
596,1.20e-02,-8.00e-03,
597,-1.60e-02,1.40e-02,
598,6.80e-02,-1.30e-01,
599,-2.72e-01,2.04e-01,
600,-3.52e-01,1.90e-01,
601,3.88e-01,-1.74e-01,
602,1.20e-02,-8.00e-03,
603,-1.60e-02,1.40e-02,
604,1.20e-02,-8.00e-03,
605,-1.20e-02,1.40e-02,
606,1.20e-02,-8.00e-03,
607,-1.60e-02,1.40e-02,
608,-1.60e-02,-8.00e-03,
609,1.20e-02,1.40e-02,
610,1.20e-02,-8.00e-03,
611,-1.60e-02,1.40e-02,
612,1.20e-02,-8.00e-03,
613,-1.60e-02,1.20e-02,
614,1.20e-02,-8.00e-03,
615,-1.60e-02,1.40e-02,
616,-1.60e-02,1.20e-02,
617,1.20e-02,-8.00e-03,
618,1.20e-02,-8.00e-03,
619,-1.60e-02,1.40e-02,
620,1.20e-02,-8.00e-03,
621,-1.60e-02,1.40e-02,
622,1.20e-02,-8.00e-03,
623,-1.60e-02,1.40e-02,
624,1.20e-02,1.40e-02,
625,-1.60e-02,-8.00e-03,
626,-5.48e-01,-2.54e-01,
627,4.72e-01,2.56e-01,
628,-1.60e-02,1.20e-02,
629,1.20e-02,-8.00e-03,
630,-1.20e-02,1.20e-02,
631,1.20e-02,-8.00e-03,
632,1.20e-02,-8.00e-03,
633,-1.20e-02,1.20e-02,
634,1.20e-02,1.20e-02,
635,-1.60e-02,-8.00e-03,
636,1.20e-02,-8.00e-03,
637,-1.60e-02,1.20e-02,
638,1.20e-02,1.40e-02,
639,-1.60e-02,-8.00e-03,
640,1.20e-02,-8.00e-03,
641,-1.60e-02,1.40e-02,
642,1.20e-02,1.40e-02,
643,-1.60e-02,-8.00e-03,
644,1.20e-02,1.40e-02,
645,-1.60e-02,-1.00e-02,
646,-2.96e-01,-2.54e-01,
647,3.48e-01,2.56e-01,
648,-1.60e-02,-8.00e-03,
649,1.60e-02,1.40e-02,
650,1.20e-02,1.40e-02,
651,-1.60e-02,-8.00e-03,
652,1.20e-02,1.40e-02,
653,-1.60e-02,-1.00e-02,
654,1.20e-02,1.40e-02,
655,-1.60e-02,-8.00e-03,
656,1.20e-02,1.40e-02,
657,-1.60e-02,-8.00e-03,
658,1.20e-02,-8.00e-03,
659,-1.60e-02,1.40e-02,
660,1.20e-02,1.40e-02,
661,-1.60e-02,-8.00e-03,
662,1.20e-02,1.40e-02,
663,-1.60e-02,-1.00e-02,
664,1.20e-02,-8.00e-03,
665,-1.60e-02,1.40e-02,
666,1.20e-02,-8.00e-03,
667,-1.60e-02,1.40e-02,
668,-1.60e-02,-8.00e-03,
669,1.60e-02,1.40e-02,
670,1.20e-02,1.40e-02,
671,-1.60e-02,-8.00e-03,
672,1.20e-02,1.40e-02,
673,-1.60e-02,-8.00e-03,
674,-5.48e-01,-2.54e-01,
675,4.72e-01,2.56e-01,
676,-1.60e-02,1.20e-02,
677,1.20e-02,-8.00e-03,
678,1.20e-02,-8.00e-03,
679,-1.60e-02,1.40e-02,
680,1.20e-02,-8.00e-03,
681,-1.60e-02,1.40e-02,
682,1.20e-02,-8.00e-03,
683,-1.60e-02,1.40e-02,
684,1.20e-02,1.40e-02,
685,-1.60e-02,-8.00e-03,
686,1.20e-02,1.40e-02,
687,-1.60e-02,-8.00e-03,
688,1.60e-02,1.40e-02,
689,-1.60e-02,-8.00e-03,
690,1.20e-02,1.20e-02,
691,-1.60e-02,-8.00e-03,
692,-3.84e-01,-8.80e-02,
693,3.52e-01,7.60e-02,
694,1.20e-02,1.40e-02,
695,-1.60e-02,-8.00e-03,
696,-1.20e-02,-6.00e-03,
697,1.20e-02,1.40e-02,
698,1.20e-02,1.40e-02,
699,-1.60e-02,-8.00e-03,
700,1.20e-02,1.40e-02,
701,-1.60e-02,-8.00e-03,
702,1.20e-02,1.40e-02,
703,-1.60e-02,-8.00e-03,
704,1.20e-02,-8.00e-03,
705,-1.60e-02,1.40e-02,
706,1.20e-02,1.20e-02,
707,-1.60e-02,-8.00e-03,
708,1.20e-02,1.20e-02,
709,-1.60e-02,-8.00e-03,
710,1.20e-02,-8.00e-03,
711,-1.60e-02,1.40e-02,
712,-1.60e-02,1.40e-02,
713,1.20e-02,-8.00e-03,
714,1.20e-02,1.40e-02,
715,-1.60e-02,-8.00e-03,
716,-1.60e-02,-8.00e-03,
717,1.20e-02,1.40e-02,
718,-1.60e-02,-8.00e-03,
719,1.20e-02,1.40e-02,
720,-5.48e-01,2.56e-01,
721,4.72e-01,-2.54e-01,
722,-4.52e-01,2.56e-01,
723,1.92e-01,-2.12e-01,
724,1.20e-02,-8.00e-03,
725,-1.60e-02,1.40e-02,
726,1.20e-02,1.20e-02,
727,-1.60e-02,-8.00e-03,
728,1.20e-02,1.20e-02,
729,-1.60e-02,-8.00e-03,
730,1.20e-02,-8.00e-03,
731,-1.60e-02,1.40e-02,
732,-1.60e-02,-8.00e-03,
733,1.60e-02,1.40e-02,
734,1.20e-02,-8.00e-03,
735,-1.60e-02,1.40e-02,
736,-1.60e-02,-8.00e-03,
737,1.60e-02,1.40e-02,
738,-1.60e-02,-8.00e-03,
739,1.20e-02,1.40e-02,
740,-3.24e-01,2.56e-01,
741,4.12e-01,-2.22e-01,
742,1.20e-02,1.20e-02,
743,-1.60e-02,-8.00e-03,
744,-1.60e-02,-8.00e-03,
745,1.20e-02,1.20e-02,
746,1.20e-02,1.20e-02,
747,-1.60e-02,-8.00e-03,
748,1.20e-02,-8.00e-03,
749,-1.60e-02,1.20e-02,
750,1.20e-02,-8.00e-03,
751,-1.60e-02,1.20e-02,
752,1.20e-02,1.40e-02,
753,-1.60e-02,-8.00e-03,
754,-1.60e-02,1.20e-02,
755,1.20e-02,-8.00e-03,
756,1.20e-02,-8.00e-03,
757,-1.60e-02,1.20e-02,
758,1.20e-02,1.40e-02,
759,-2.00e-02,-8.00e-03,
760,1.20e-02,-8.00e-03,
761,-1.60e-02,1.40e-02,
762,1.20e-02,1.20e-02,
763,-1.60e-02,-8.00e-03,
764,1.20e-02,-8.00e-03,
765,-1.60e-02,1.40e-02,
766,4.72e-01,2.56e-01,
767,-5.48e-01,-2.54e-01,
768,1.20e-02,-8.00e-03,
769,-1.60e-02,1.40e-02,
770,-1.20e-02,1.20e-02,
771,1.20e-02,-8.00e-03,
772,-1.20e-02,-8.00e-03,
773,1.20e-02,1.20e-02,
774,1.20e-02,-8.00e-03,
775,-1.60e-02,1.20e-02,
776,1.20e-02,1.20e-02,
777,-1.60e-02,-8.00e-03,
778,1.20e-02,1.40e-02,
779,-1.60e-02,-1.00e-02,
780,1.20e-02,1.20e-02,
781,-1.60e-02,-8.00e-03,
782,1.20e-02,1.20e-02,
783,-1.60e-02,-8.00e-03,
784,1.20e-02,-8.00e-03,
785,-1.60e-02,1.40e-02,
786,-4.16e-01,-2.54e-01,
787,4.72e-01,2.56e-01,
788,-2.00e-02,2.00e-02,
789,1.20e-02,-3.00e-02,
790,-1.60e-02,-8.00e-03,
791,1.60e-02,1.40e-02,
792,-1.20e-02,1.20e-02,
793,1.20e-02,-8.00e-03,
794,1.20e-02,1.20e-02,
795,-1.60e-02,-8.00e-03,
796,-1.60e-02,1.40e-02,
797,1.20e-02,-8.00e-03,
798,-1.60e-02,1.40e-02,
799,1.20e-02,-8.00e-03,
800,1.20e-02,-8.00e-03,
801,-1.60e-02,1.40e-02,
802,1.20e-02,1.20e-02,
803,-1.60e-02,-8.00e-03,
804,1.20e-02,-8.00e-03,
805,-1.60e-02,1.40e-02,
806,1.20e-02,-8.00e-03,
807,-1.60e-02,1.40e-02,
808,1.20e-02,-8.00e-03,
809,-1.60e-02,1.40e-02,
810,1.20e-02,1.20e-02,
811,-1.60e-02,-8.00e-03,
812,1.20e-02,-8.00e-03,
813,-1.60e-02,1.40e-02,
814,4.72e-01,-2.54e-01,
815,-5.48e-01,2.56e-01,
816,1.20e-02,-8.00e-03,
817,-1.60e-02,1.40e-02,
818,1.20e-02,-8.00e-03,
819,-1.60e-02,1.40e-02,
820,1.20e-02,1.40e-02,
821,-1.60e-02,-8.00e-03,
822,1.20e-02,1.40e-02,
823,-1.60e-02,-8.00e-03,
824,1.20e-02,1.20e-02,
825,-1.60e-02,-8.00e-03,
826,1.20e-02,-8.00e-03,
827,-1.60e-02,1.40e-02,
828,1.20e-02,-8.00e-03,
829,-1.60e-02,1.20e-02,
830,1.20e-02,-8.00e-03,
831,-1.60e-02,1.40e-02,
832,-2.72e-01,1.08e-01,
833,2.12e-01,-1.24e-01,
