Motor_Data/MOTOR_3_ON/time domain/NewFile48.csv

X,CH1,CH2,Start,Increment,
Sequence,Volt,Volt,-3.000000e-02,5.000000e-05
0,1.20e-02,-8.00e-03,
1,-1.60e-02,1.20e-02,
2,-4.00e-02,4.40e-02,
3,4.00e-02,-4.00e-02,
4,-1.60e-02,-1.00e-02,
5,1.20e-02,1.20e-02,
6,1.20e-02,1.20e-02,
7,-1.60e-02,-1.00e-02,
8,1.20e-02,1.20e-02,
9,-1.60e-02,-1.00e-02,
10,1.20e-02,-8.00e-03,
11,-1.60e-02,1.40e-02,
12,-1.60e-02,-1.00e-02,
13,1.20e-02,1.20e-02,
14,1.20e-02,-8.00e-03,
15,-1.60e-02,1.20e-02,
16,1.20e-02,-8.00e-03,
17,-1.60e-02,1.20e-02,
18,-1.60e-02,-8.00e-03,
19,1.20e-02,1.20e-02,
20,1.20e-02,-1.00e-02,
21,-1.60e-02,1.40e-02,
22,-1.20e-02,-8.00e-03,
23,1.20e-02,1.40e-02,
24,1.20e-02,-8.00e-03,
25,-1.20e-02,1.40e-02,
26,-1.20e-02,1.20e-02,
27,1.20e-02,-1.00e-02,
28,1.20e-02,1.20e-02,
29,-1.60e-02,-8.00e-03,
30,-1.60e-02,-5.80e-02,
31,7.20e-02,1.40e-02,
32,-3.20e-01,2.56e-01,
33,2.56e-01,-2.54e-01,
34,-1.20e-02,-8.00e-03,
35,1.20e-02,1.40e-02,
36,1.20e-02,-8.00e-03,
37,-1.60e-02,1.40e-02,
38,1.20e-02,1.20e-02,
39,-1.60e-02,-8.00e-03,
40,-1.60e-02,1.20e-02,
41,1.20e-02,-8.00e-03,
42,1.20e-02,1.40e-02,
43,-1.60e-02,-8.00e-03,
44,-1.60e-02,1.40e-02,
45,1.20e-02,-1.00e-02,
46,1.20e-02,1.20e-02,
47,-1.60e-02,-8.00e-03,
48,1.20e-02,-8.00e-03,
49,-1.60e-02,1.40e-02,
50,-1.20e-02,1.20e-02,
51,1.20e-02,-1.00e-02,
52,-1.84e-01,2.56e-01,
53,8.80e-02,-2.54e-01,
54,-1.60e-02,1.20e-02,
55,1.20e-02,-8.00e-03,
56,1.20e-02,-8.00e-03,
57,-1.60e-02,1.40e-02,
58,1.20e-02,-8.00e-03,
59,-1.60e-02,1.20e-02,
60,-1.60e-02,1.20e-02,
61,1.20e-02,-8.00e-03,
62,1.20e-02,1.20e-02,
63,-1.60e-02,-8.00e-03,
64,1.20e-02,-8.00e-03,
65,-1.60e-02,1.20e-02,
66,-1.60e-02,-8.00e-03,
67,1.20e-02,1.40e-02,
68,1.20e-02,-8.00e-03,
69,-1.60e-02,1.20e-02,
70,1.20e-02,-8.00e-03,
71,-1.60e-02,1.40e-02,
72,1.20e-02,1.20e-02,
73,-1.60e-02,-1.00e-02,
74,1.20e-02,1.40e-02,
75,-1.60e-02,-1.00e-02,
76,1.20e-02,-1.00e-02,
77,-2.00e-02,2.60e-02,
78,4.04e-01,-2.54e-01,
79,-2.96e-01,2.56e-01,
80,1.20e-02,-8.00e-03,
81,-1.60e-02,1.40e-02,
82,1.20e-02,1.40e-02,
83,-1.60e-02,-8.00e-03,
84,-1.60e-02,1.20e-02,
85,1.20e-02,-8.00e-03,
86,-1.60e-02,-8.00e-03,
87,1.60e-02,1.20e-02,
88,1.20e-02,-8.00e-03,
89,-1.60e-02,1.40e-02,
90,1.20e-02,-8.00e-03,
91,-1.60e-02,1.40e-02,
92,-1.60e-02,-8.00e-03,
93,1.20e-02,1.20e-02,
94,1.20e-02,1.40e-02,
95,-1.60e-02,-8.00e-03,
96,1.20e-02,-8.00e-03,
97,-1.60e-02,1.40e-02,
98,2.76e-01,-2.54e-01,
99,-2.60e-01,2.56e-01,
100,1.28e-01,1.08e-01,
101,-1.32e-01,-8.60e-02,
102,1.20e-02,1.40e-02,
103,-1.60e-02,-1.00e-02,
104,-1.60e-02,1.40e-02,
105,1.20e-02,-8.00e-03,
106,-1.60e-02,1.20e-02,
107,1.20e-02,-8.00e-03,
108,1.20e-02,1.20e-02,
109,-1.60e-02,-1.00e-02,
110,1.20e-02,1.40e-02,
111,-1.60e-02,-8.00e-03,
112,1.20e-02,-8.00e-03,
113,-1.60e-02,1.20e-02,
114,-1.60e-02,-8.00e-03,
115,1.20e-02,1.40e-02,
116,-1.60e-02,-8.00e-03,
117,1.20e-02,1.40e-02,
118,-1.60e-02,-8.00e-03,
119,1.20e-02,1.20e-02,
120,1.20e-02,-8.00e-03,
121,-1.60e-02,1.40e-02,
122,1.20e-02,-8.00e-03,
123,-1.60e-02,1.40e-02,
124,1.20e-02,1.20e-02,
125,-1.60e-02,-8.00e-03,
126,2.76e-01,1.64e-01,
127,-3.04e-01,-2.54e-01,
128,-1.60e-02,-8.00e-03,
129,1.20e-02,1.20e-02,
130,1.20e-02,-1.00e-02,
131,-1.60e-02,1.20e-02,
132,1.20e-02,1.20e-02,
133,-1.60e-02,-1.00e-02,
134,1.20e-02,1.20e-02,
135,-1.60e-02,-8.00e-03,
136,-1.60e-02,1.20e-02,
137,1.20e-02,-8.00e-03,
138,1.20e-02,1.20e-02,
139,-1.60e-02,-1.00e-02,
140,1.20e-02,-8.00e-03,
141,-1.60e-02,1.20e-02,
142,1.20e-02,1.20e-02,
143,-1.60e-02,-1.00e-02,
144,-2.80e-02,3.60e-02,
145,3.20e-02,-4.40e-02,
146,-1.60e-02,-8.00e-03,
147,1.20e-02,1.20e-02,
148,1.20e-02,1.20e-02,
149,-1.60e-02,-1.00e-02,
150,1.20e-02,1.20e-02,
151,-1.60e-02,-8.00e-03,
152,-1.20e-02,-8.00e-03,
153,1.20e-02,1.40e-02,
154,1.20e-02,-8.00e-03,
155,-1.60e-02,1.40e-02,
156,1.20e-02,-8.00e-03,
157,-1.60e-02,1.40e-02,
158,1.20e-02,1.20e-02,
159,-1.60e-02,-8.00e-03,
160,1.20e-02,1.20e-02,
161,-1.60e-02,-8.00e-03,
162,1.20e-02,1.20e-02,
163,-1.60e-02,-8.00e-03,
164,1.20e-02,-8.00e-03,
165,-1.60e-02,1.20e-02,
166,1.20e-02,1.20e-02,
167,-1.20e-02,-8.00e-03,
168,1.20e-02,1.20e-02,
169,-1.60e-02,-8.00e-03,
170,-1.60e-02,-8.00e-03,
171,1.20e-02,1.40e-02,
172,4.40e-02,1.20e-02,
173,-1.60e-02,-2.80e-02,
174,4.72e-01,2.56e-01,
175,-3.84e-01,-1.08e-01,
176,1.20e-02,1.20e-02,
177,-1.60e-02,-1.00e-02,
178,1.20e-02,-8.00e-03,
179,-1.60e-02,1.20e-02,
180,-1.60e-02,1.20e-02,
181,1.20e-02,-1.00e-02,
182,1.20e-02,-8.00e-03,
183,-1.60e-02,1.40e-02,
184,1.20e-02,-8.00e-03,
185,-1.60e-02,1.40e-02,
186,1.20e-02,1.20e-02,
187,-1.60e-02,-8.00e-03,
188,-1.60e-02,-8.00e-03,
189,1.20e-02,1.60e-02,
190,1.20e-02,-8.00e-03,
191,-1.20e-02,1.40e-02,
192,2.44e-01,-2.54e-01,
193,-1.04e-01,2.56e-01,
194,1.20e-02,1.20e-02,
195,-1.60e-02,-8.00e-03,
196,1.20e-02,-8.00e-03,
197,-1.60e-02,1.20e-02,
198,-1.60e-02,1.20e-02,
199,1.20e-02,-8.00e-03,
200,1.20e-02,-8.00e-03,
201,-1.60e-02,1.40e-02,
202,1.20e-02,-8.00e-03,
203,-1.60e-02,1.20e-02,
204,1.20e-02,-8.00e-03,
205,-1.60e-02,1.40e-02,
206,-1.60e-02,-8.00e-03,
207,1.20e-02,1.20e-02,
208,1.20e-02,-8.00e-03,
209,-1.60e-02,1.40e-02,
210,1.20e-02,-8.00e-03,
211,-1.60e-02,1.20e-02,
212,-1.60e-02,1.20e-02,
213,1.20e-02,-8.00e-03,
214,1.20e-02,1.20e-02,
215,-1.60e-02,-8.00e-03,
216,-1.20e-02,-8.00e-03,
217,1.20e-02,1.40e-02,
218,4.40e-02,-2.80e-02,
219,-6.00e-02,5.20e-02,
220,-4.52e-01,2.56e-01,
221,3.92e-01,-2.54e-01,
222,-1.60e-02,-8.00e-03,
223,1.20e-02,1.20e-02,
224,-1.20e-02,1.20e-02,
225,1.20e-02,-1.00e-02,
226,1.20e-02,-8.00e-03,
227,-1.60e-02,1.20e-02,
228,-1.20e-02,1.20e-02,
229,1.20e-02,-1.00e-02,
230,-1.20e-02,-8.00e-03,
231,1.20e-02,1.20e-02,
232,-1.20e-02,-8.00e-03,
233,1.20e-02,1.40e-02,
234,1.20e-02,-8.00e-03,
235,-1.60e-02,1.40e-02,
236,-1.60e-02,-8.00e-03,
237,1.20e-02,1.20e-02,
238,-1.20e-02,-8.00e-03,
239,1.20e-02,1.40e-02,
240,-2.76e-01,2.56e-01,
241,1.68e-01,-2.54e-01,
242,-1.20e-02,-1.00e-02,
243,1.60e-02,1.40e-02,
244,1.20e-02,-8.00e-03,
245,-1.60e-02,1.40e-02,
246,1.20e-02,-1.00e-02,
247,-1.60e-02,1.40e-02,
248,1.20e-02,-8.00e-03,
249,-1.60e-02,1.40e-02,
250,1.20e-02,-8.00e-03,
251,-1.60e-02,1.40e-02,
252,-1.20e-02,-1.00e-02,
253,1.20e-02,1.40e-02,
254,1.20e-02,1.40e-02,
255,-1.20e-02,-1.00e-02,
256,-1.60e-02,-8.00e-03,
257,1.20e-02,1.20e-02,
258,1.20e-02,1.20e-02,
259,-1.60e-02,-1.00e-02,
260,1.20e-02,-8.00e-03,
261,-1.60e-02,1.20e-02,
262,1.20e-02,1.20e-02,
263,-1.60e-02,-1.00e-02,
264,1.20e-02,-8.00e-03,
265,-1.60e-02,1.20e-02,
266,-1.60e-02,-8.00e-03,
267,1.20e-02,1.40e-02,
268,-1.04e-01,-2.18e-01,
269,2.96e-01,2.56e-01,
270,1.20e-02,-1.00e-02,
271,-1.60e-02,1.20e-02,
272,1.20e-02,1.40e-02,
273,-1.60e-02,-8.00e-03,
274,1.20e-02,-8.00e-03,
275,-1.60e-02,1.20e-02,
276,1.20e-02,1.20e-02,
277,-1.60e-02,-8.00e-03,
278,1.20e-02,1.20e-02,
279,-1.60e-02,-8.00e-03,
280,1.20e-02,1.20e-02,
281,-1.60e-02,-8.00e-03,
282,1.20e-02,1.20e-02,
283,-1.60e-02,-8.00e-03,
284,-1.20e-02,-8.00e-03,
285,1.20e-02,1.40e-02,
286,4.80e-02,-3.40e-02,
287,-4.80e-02,5.20e-02,
288,1.20e-02,1.20e-02,
289,-1.60e-02,-1.00e-02,
290,-1.20e-02,-8.00e-03,
291,1.20e-02,1.40e-02,
292,-1.20e-02,-8.00e-03,
293,1.20e-02,1.20e-02,
294,1.20e-02,-1.00e-02,
295,-1.60e-02,1.40e-02,
296,1.20e-02,1.20e-02,
297,-1.60e-02,-8.00e-03,
298,1.20e-02,1.20e-02,
299,-1.60e-02,-8.00e-03,
300,-1.60e-02,1.20e-02,
301,1.20e-02,-8.00e-03,
302,1.20e-02,1.20e-02,
303,-1.60e-02,-8.00e-03,
304,1.20e-02,1.20e-02,
305,-1.60e-02,-8.00e-03,
306,-1.60e-02,-8.00e-03,
307,1.20e-02,1.40e-02,
308,1.20e-02,1.20e-02,
309,-1.60e-02,-8.00e-03,
310,-1.60e-02,1.20e-02,
311,1.20e-02,-8.00e-03,
312,1.20e-02,-8.00e-03,
313,-1.60e-02,1.40e-02,
314,-1.60e-02,-6.80e-02,
315,1.20e-02,5.60e-02,
316,-3.60e-01,2.56e-01,
317,1.68e-01,-2.54e-01,
318,1.20e-02,1.20e-02,
319,-1.60e-02,-1.00e-02,
320,-1.60e-02,1.20e-02,
321,1.20e-02,-1.00e-02,
322,-1.60e-02,-8.00e-03,
323,1.20e-02,1.40e-02,
324,1.20e-02,1.40e-02,
325,-1.60e-02,-8.00e-03,
326,1.20e-02,-1.00e-02,
327,-1.60e-02,1.20e-02,
328,1.20e-02,-8.00e-03,
329,-1.60e-02,1.20e-02,
330,1.20e-02,1.20e-02,
331,-1.60e-02,-8.00e-03,
332,1.20e-02,1.20e-02,
333,-1.60e-02,-8.00e-03,
334,2.48e-01,2.56e-01,
335,-2.16e-01,-2.24e-01,
336,1.20e-02,-8.00e-03,
337,-1.60e-02,1.20e-02,
338,-1.60e-02,-8.00e-03,
339,1.20e-02,1.40e-02,
340,-1.60e-02,-8.00e-03,
341,1.20e-02,1.40e-02,
342,1.20e-02,1.20e-02,
343,-1.60e-02,-8.00e-03,
344,1.20e-02,-8.00e-03,
345,-1.60e-02,1.20e-02,
346,1.20e-02,1.20e-02,
347,-1.20e-02,-8.00e-03,
348,-1.20e-02,-8.00e-03,
349,1.20e-02,1.40e-02,
350,1.20e-02,-8.00e-03,
351,-1.60e-02,1.40e-02,
352,-1.60e-02,-8.00e-03,
353,1.20e-02,1.20e-02,
354,1.20e-02,-8.00e-03,
355,-1.60e-02,1.40e-02,
356,1.20e-02,1.40e-02,
357,-1.60e-02,-8.00e-03,
358,1.20e-02,1.40e-02,
359,-1.60e-02,-1.00e-02,
360,4.08e-01,2.56e-01,
361,-3.24e-01,-2.54e-01,
362,-1.60e-02,-1.00e-02,
363,1.20e-02,1.20e-02,
364,-1.60e-02,1.20e-02,
365,1.20e-02,-1.00e-02,
366,8.00e-03,1.40e-02,
367,-1.60e-02,-8.00e-03,
368,-1.60e-02,-8.00e-03,
369,1.20e-02,1.20e-02,
370,1.20e-02,-8.00e-03,
371,-1.60e-02,1.20e-02,
372,1.20e-02,-8.00e-03,
373,-1.60e-02,1.40e-02,
374,1.20e-02,-8.00e-03,
375,-1.60e-02,1.20e-02,
376,-1.20e-02,-8.00e-03,
377,1.20e-02,1.40e-02,
378,-1.60e-02,-8.00e-03,
379,1.20e-02,1.40e-02,
380,1.20e-02,-8.00e-03,
381,-1.20e-02,1.20e-02,
382,2.76e-01,2.56e-01,
383,-2.20e-01,-2.54e-01,
384,1.20e-02,1.20e-02,
385,-1.60e-02,-8.00e-03,
386,1.20e-02,1.40e-02,
387,-1.60e-02,-8.00e-03,
388,1.20e-02,-8.00e-03,
389,-1.60e-02,1.20e-02,
390,1.20e-02,-1.00e-02,
391,-1.60e-02,1.20e-02,
392,-1.60e-02,1.20e-02,
393,1.20e-02,-1.00e-02,
394,-1.20e-02,-8.00e-03,
395,1.20e-02,1.20e-02,
396,-1.60e-02,1.20e-02,
397,1.20e-02,-1.00e-02,
398,1.20e-02,1.20e-02,
399,-1.60e-02,-8.00e-03,
400,-1.60e-02,-8.00e-03,
401,1.20e-02,1.20e-02,
402,1.20e-02,1.20e-02,
403,-1.60e-02,-8.00e-03,
404,1.20e-02,1.20e-02,
405,-1.60e-02,-1.00e-02,
406,1.20e-02,-1.00e-02,
407,-1.60e-02,1.20e-02,
408,1.20e-02,1.20e-02,
409,-1.60e-02,-1.00e-02,
410,-2.84e-01,-2.36e-01,
411,2.04e-01,2.02e-01,
412,-1.60e-02,1.20e-02,
413,1.20e-02,-1.00e-02,
414,1.20e-02,1.20e-02,
415,-1.60e-02,-1.00e-02,
416,1.20e-02,-8.00e-03,
417,-1.60e-02,1.40e-02,
418,1.20e-02,1.20e-02,
419,-1.60e-02,-1.00e-02,
420,1.20e-02,1.20e-02,
421,-1.60e-02,-8.00e-03,
422,1.20e-02,-1.00e-02,
423,-1.60e-02,1.40e-02,
424,-1.20e-02,1.20e-02,
425,1.20e-02,-8.00e-03,
426,1.20e-02,-8.00e-03,
427,-1.60e-02,1.40e-02,
428,5.60e-02,-5.20e-02,
429,-4.40e-02,5.20e-02,
430,1.20e-02,-8.00e-03,
431,-1.60e-02,1.20e-02,
432,1.20e-02,-8.00e-03,
433,-1.60e-02,1.40e-02,
434,1.20e-02,1.20e-02,
435,-1.60e-02,-1.00e-02,
436,-1.60e-02,1.20e-02,
437,1.20e-02,-8.00e-03,
438,-1.60e-02,-8.00e-03,
439,1.20e-02,1.40e-02,
440,1.20e-02,1.20e-02,
441,-1.60e-02,-8.00e-03,
442,1.20e-02,1.20e-02,
443,-1.60e-02,-8.00e-03,
444,-1.60e-02,-8.00e-03,
445,1.20e-02,1.20e-02,
446,1.20e-02,1.20e-02,
447,-1.60e-02,-1.00e-02,
448,1.20e-02,-8.00e-03,
449,-1.60e-02,1.20e-02,
450,-1.60e-02,-8.00e-03,
451,1.20e-02,1.20e-02,
452,1.20e-02,1.20e-02,
453,-1.60e-02,-8.00e-03,
454,-1.60e-02,-8.00e-03,
455,2.40e-02,4.20e-02,
456,1.20e-02,-8.00e-03,
457,-1.60e-02,1.20e-02,
458,3.36e-01,2.56e-01,
459,-4.28e-01,-1.96e-01,
460,1.20e-02,1.20e-02,
461,-1.60e-02,-8.00e-03,
462,1.20e-02,-8.00e-03,
463,-1.60e-02,1.40e-02,
464,-1.60e-02,-8.00e-03,
465,1.20e-02,1.40e-02,
466,-1.60e-02,-8.00e-03,
467,1.20e-02,1.20e-02,
468,-1.60e-02,-8.00e-03,
469,1.20e-02,1.20e-02,
470,1.20e-02,1.20e-02,
471,-1.60e-02,-1.00e-02,
472,-1.60e-02,1.20e-02,
473,1.20e-02,-8.00e-03,
474,-1.60e-02,-8.00e-03,
475,1.20e-02,1.40e-02,
476,2.40e-01,2.56e-01,
477,-6.00e-02,-2.36e-01,
478,1.20e-02,1.40e-02,
479,-1.60e-02,-1.00e-02,
480,-1.60e-02,1.20e-02,
481,1.20e-02,-8.00e-03,
482,-1.20e-02,-8.00e-03,
483,1.20e-02,1.20e-02,
484,-1.60e-02,-8.00e-03,
485,1.20e-02,1.40e-02,
486,1.20e-02,1.40e-02,
487,-1.60e-02,-8.00e-03,
488,1.20e-02,-8.00e-03,
489,-1.60e-02,1.40e-02,
490,8.00e-03,-8.00e-03,
491,-1.60e-02,1.40e-02,
492,1.20e-02,1.40e-02,
493,-1.60e-02,-8.00e-03,
494,-1.60e-02,-8.00e-03,
495,1.20e-02,1.40e-02,
496,1.20e-02,1.20e-02,
497,-1.60e-02,-8.00e-03,
498,1.20e-02,-8.00e-03,
499,-1.60e-02,1.40e-02,
500,-1.60e-02,1.20e-02,
501,1.20e-02,-8.00e-03,
502,3.36e-01,-2.54e-01,
503,-4.08e-01,2.56e-01,
504,1.20e-02,1.20e-02,
505,-1.60e-02,-8.00e-03,
506,1.20e-02,-8.00e-03,
507,-1.60e-02,1.40e-02,
508,1.20e-02,1.20e-02,
509,-1.60e-02,-1.00e-02,
510,1.20e-02,-8.00e-03,
511,-1.60e-02,1.20e-02,
512,1.20e-02,1.20e-02,
513,-1.60e-02,-8.00e-03,
514,-1.60e-02,-8.00e-03,
515,1.20e-02,1.40e-02,
516,-1.60e-02,1.20e-02,
517,1.20e-02,-8.00e-03,
518,1.20e-02,-8.00e-03,
519,-1.60e-02,1.40e-02,
520,1.20e-02,-8.00e-03,
521,-1.60e-02,1.40e-02,
522,1.20e-02,-8.00e-03,
523,-1.60e-02,1.20e-02,
524,-3.08e-01,-2.54e-01,
525,2.24e-01,2.56e-01,
526,1.20e-02,-8.00e-03,
527,-1.60e-02,1.20e-02,
528,-1.20e-02,-8.00e-03,
529,1.20e-02,1.40e-02,
530,1.20e-02,-8.00e-03,
531,-1.60e-02,1.20e-02,
532,-1.20e-02,1.20e-02,
533,1.20e-02,-8.00e-03,
534,-1.20e-02,-1.00e-02,
535,1.20e-02,1.40e-02,
536,1.20e-02,-1.00e-02,
537,-1.60e-02,1.40e-02,
538,1.20e-02,-8.00e-03,
539,-1.60e-02,1.40e-02,
540,1.20e-02,-8.00e-03,
541,-1.60e-02,1.40e-02,
542,-1.60e-02,1.20e-02,
543,1.20e-02,-1.00e-02,
544,1.20e-02,1.20e-02,
545,-1.60e-02,-8.00e-03,
546,1.20e-02,-8.00e-03,
547,-1.20e-02,1.40e-02,
548,1.20e-02,1.20e-02,
549,-1.60e-02,-8.00e-03,
550,-1.60e-02,-8.00e-03,
551,1.20e-02,1.40e-02,
552,-2.64e-01,2.22e-01,
553,2.08e-01,-2.14e-01,
554,1.20e-02,-1.00e-02,
555,-1.60e-02,1.40e-02,
556,-1.60e-02,-8.00e-03,
557,1.20e-02,1.20e-02,
558,-1.20e-02,-8.00e-03,
559,1.20e-02,1.20e-02,
560,1.20e-02,1.20e-02,
561,-1.60e-02,-1.00e-02,
562,1.20e-02,-8.00e-03,
563,-1.60e-02,1.20e-02,
564,-1.20e-02,-8.00e-03,
565,1.20e-02,1.40e-02,
566,1.20e-02,1.20e-02,
567,-1.20e-02,-8.00e-03,
568,1.20e-02,-8.00e-03,
569,-1.60e-02,1.40e-02,
570,-2.80e-02,3.40e-02,
571,3.60e-02,-3.60e-02,
572,1.20e-02,-1.00e-02,
573,-1.60e-02,1.40e-02,
574,1.20e-02,-8.00e-03,
575,-1.60e-02,1.20e-02,
576,1.20e-02,-8.00e-03,
577,-1.60e-02,1.40e-02,
578,-1.60e-02,1.40e-02,
579,1.20e-02,-8.00e-03,
580,1.20e-02,-8.00e-03,
581,-1.60e-02,1.40e-02,
582,-1.20e-02,1.40e-02,
583,1.20e-02,-8.00e-03,
584,-1.60e-02,1.40e-02,
585,1.20e-02,-1.00e-02,
586,1.20e-02,-8.00e-03,
587,-1.60e-02,1.40e-02,
588,-1.60e-02,1.40e-02,
589,1.20e-02,-8.00e-03,
590,1.20e-02,-8.00e-03,
591,-1.60e-02,1.40e-02,
592,1.20e-02,-8.00e-03,
593,-1.60e-02,1.40e-02,
594,-1.60e-02,-1.00e-02,
595,1.20e-02,1.40e-02,
596,1.20e-02,4.80e-02,
597,-4.40e-02,-7.40e-02,
598,-1.28e-01,-7.60e-02,
599,4.68e-01,2.56e-01,
600,-4.48e-01,-2.54e-01,
601,2.64e-01,2.56e-01,
602,1.20e-02,-1.00e-02,
603,-1.60e-02,1.20e-02,
604,1.20e-02,1.20e-02,
605,-1.60e-02,-8.00e-03,
606,1.20e-02,-8.00e-03,
607,-1.60e-02,1.40e-02,
608,1.20e-02,-8.00e-03,
609,-1.60e-02,1.20e-02,
610,1.20e-02,1.20e-02,
611,-1.60e-02,-1.00e-02,
612,1.20e-02,1.20e-02,
613,-1.60e-02,-1.00e-02,
614,1.20e-02,-8.00e-03,
615,-1.60e-02,1.40e-02,
616,1.20e-02,1.20e-02,
617,-1.60e-02,-8.00e-03,
618,1.72e-01,-2.54e-01,
619,-2.20e-01,2.42e-01,
620,-1.60e-02,-1.00e-02,
621,1.20e-02,1.40e-02,
622,1.20e-02,1.20e-02,
623,-1.60e-02,-8.00e-03,
624,1.20e-02,1.20e-02,
625,-1.60e-02,-1.00e-02,
626,-1.60e-02,1.20e-02,
627,1.20e-02,-1.00e-02,
628,1.20e-02,1.20e-02,
629,-1.60e-02,-1.00e-02,
630,-1.60e-02,1.40e-02,
631,8.00e-03,-1.00e-02,
632,1.20e-02,1.20e-02,
633,-1.60e-02,-1.00e-02,
634,-1.60e-02,1.40e-02,
635,1.20e-02,-1.00e-02,
636,-1.60e-02,1.20e-02,
637,1.20e-02,-8.00e-03,
638,-1.60e-02,-1.00e-02,
639,1.20e-02,1.40e-02,
640,1.20e-02,1.20e-02,
641,-1.60e-02,-1.00e-02,
642,1.20e-02,1.20e-02,
643,-1.60e-02,-1.00e-02,
644,4.72e-01,-2.54e-01,
645,-3.40e-01,2.56e-01,
646,-1.60e-02,1.20e-02,
647,1.20e-02,-1.00e-02,
648,1.20e-02,-8.00e-03,
649,-1.60e-02,1.20e-02,
650,1.20e-02,-8.00e-03,
651,-1.60e-02,1.20e-02,
652,1.20e-02,1.20e-02,
653,-1.60e-02,-8.00e-03,
654,1.20e-02,-1.00e-02,
655,-1.60e-02,1.20e-02,
656,1.20e-02,1.20e-02,
657,-1.60e-02,-1.00e-02,
658,1.20e-02,1.20e-02,
659,-1.60e-02,-1.00e-02,
660,1.20e-02,-8.00e-03,
661,-1.60e-02,1.20e-02,
662,-1.60e-02,-1.00e-02,
663,1.20e-02,1.20e-02,
664,-1.60e-02,-1.00e-02,
665,1.20e-02,1.20e-02,
666,2.56e-01,2.56e-01,
667,-2.32e-01,-2.54e-01,
668,-1.60e-02,-8.00e-03,
669,1.20e-02,1.20e-02,
670,-1.60e-02,1.20e-02,
671,1.20e-02,-1.00e-02,
672,1.20e-02,1.00e-02,
673,-1.60e-02,-1.00e-02,
674,-1.60e-02,-1.00e-02,
675,1.20e-02,1.40e-02,
676,-1.60e-02,1.20e-02,
677,1.60e-02,-1.00e-02,
678,-1.60e-02,1.20e-02,
679,1.20e-02,-1.00e-02,
680,1.20e-02,1.20e-02,
681,-1.60e-02,-1.00e-02,
682,1.20e-02,-8.00e-03,
683,-1.60e-02,1.20e-02,
684,1.20e-02,-1.00e-02,
685,-1.60e-02,1.20e-02,
686,-1.60e-02,-8.00e-03,
687,1.20e-02,1.20e-02,
688,1.20e-02,1.20e-02,
689,-1.60e-02,-1.00e-02,
690,-1.60e-02,-8.00e-03,
691,1.20e-02,1.20e-02,
692,1.20e-02,-8.00e-03,
693,-1.60e-02,1.40e-02,
694,2.76e-01,1.94e-01,
695,-3.28e-01,-1.36e-01,
696,1.20e-02,-8.00e-03,
697,-1.60e-02,1.20e-02,
698,-1.20e-02,-1.00e-02,
699,1.20e-02,1.20e-02,
700,1.20e-02,-1.00e-02,
701,-1.60e-02,1.40e-02,
702,-1.20e-02,1.20e-02,
703,1.20e-02,-8.00e-03,
704,-1.20e-02,-1.00e-02,
705,1.20e-02,1.20e-02,
706,1.20e-02,-8.00e-03,
707,-1.60e-02,1.20e-02,
708,1.20e-02,-8.00e-03,
709,-1.60e-02,1.20e-02,
710,-2.80e-02,3.20e-02,
711,4.00e-02,-7.20e-02,
712,1.20e-02,-1.00e-02,
713,-1.60e-02,1.20e-02,
714,-1.60e-02,1.20e-02,
715,1.20e-02,-1.00e-02,
716,-1.20e-02,1.20e-02,
717,1.20e-02,-8.00e-03,
718,1.20e-02,1.20e-02,
719,-1.60e-02,-1.00e-02,
720,1.20e-02,-1.00e-02,
721,-1.60e-02,1.20e-02,
722,1.20e-02,1.40e-02,
723,-1.60e-02,-8.00e-03,
724,1.20e-02,-8.00e-03,
725,-1.60e-02,1.20e-02,
726,-1.60e-02,1.20e-02,
727,1.20e-02,-8.00e-03,
728,1.20e-02,-8.00e-03,
729,-1.60e-02,1.20e-02,
730,-1.60e-02,1.20e-02,
731,1.20e-02,-8.00e-03,
732,1.20e-02,1.40e-02,
733,-1.60e-02,-1.00e-02,
734,1.20e-02,-8.00e-03,
735,-1.60e-02,1.20e-02,
736,1.20e-02,1.20e-02,
737,-1.60e-02,-8.00e-03,
738,1.60e-02,3.60e-02,
739,-2.00e-02,-1.00e-02,
740,3.16e-01,2.56e-01,
741,-4.96e-01,-2.54e-01,
742,1.20e-02,-1.00e-02,
743,-1.60e-02,1.40e-02,
744,-1.20e-02,1.20e-02,
745,1.20e-02,-1.00e-02,
746,-1.60e-02,-1.00e-02,
747,1.20e-02,1.20e-02,
748,-1.60e-02,1.20e-02,
749,1.20e-02,-8.00e-03,
750,1.20e-02,-8.00e-03,
751,-1.60e-02,1.40e-02,
752,1.20e-02,-8.00e-03,
753,-1.60e-02,1.20e-02,
754,1.20e-02,-8.00e-03,
755,-1.60e-02,1.40e-02,
756,1.20e-02,1.40e-02,
757,-1.60e-02,-1.00e-02,
758,1.20e-02,-8.00e-03,
759,-1.60e-02,1.20e-02,
760,-2.60e-01,2.56e-01,
761,2.24e-01,-2.48e-01,
762,1.20e-02,-8.00e-03,
763,-1.60e-02,1.20e-02,
764,1.20e-02,-1.00e-02,
765,-1.60e-02,1.40e-02,
766,1.20e-02,1.20e-02,
767,-1.60e-02,-1.00e-02,
768,1.20e-02,1.20e-02,
769,-1.20e-02,-8.00e-03,
770,1.20e-02,1.20e-02,
771,-1.60e-02,-8.00e-03,
772,1.20e-02,1.20e-02,
773,-1.60e-02,-1.00e-02,
774,-1.60e-02,-8.00e-03,
775,1.20e-02,1.20e-02,
776,1.20e-02,-8.00e-03,
777,-1.60e-02,1.40e-02,
778,-1.20e-02,1.20e-02,
779,1.20e-02,-8.00e-03,
780,-1.60e-02,1.20e-02,
781,1.20e-02,-8.00e-03,
782,1.20e-02,1.20e-02,
783,-1.60e-02,-8.00e-03,
784,-1.20e-02,-8.00e-03,
785,1.20e-02,1.40e-02,
786,4.04e-01,2.56e-01,
787,-5.48e-01,-2.54e-01,
788,1.20e-02,1.40e-02,
789,-1.60e-02,-1.00e-02,
790,1.20e-02,-1.00e-02,
791,-1.60e-02,1.40e-02,
792,1.20e-02,-8.00e-03,
793,-1.60e-02,1.40e-02,
794,1.20e-02,1.20e-02,
795,-1.60e-02,-8.00e-03,
796,1.20e-02,1.20e-02,
797,-1.20e-02,-8.00e-03,
798,1.20e-02,-8.00e-03,
799,-1.20e-02,1.40e-02,
800,-1.20e-02,-8.00e-03,
801,1.20e-02,1.20e-02,
802,-1.20e-02,1.20e-02,
803,1.20e-02,-8.00e-03,
804,-1.20e-02,-8.00e-03,
805,1.20e-02,1.20e-02,
806,1.20e-02,-8.00e-03,
807,-1.60e-02,1.20e-02,
808,-3.32e-01,-2.54e-01,
809,2.84e-01,2.56e-01,
810,1.20e-02,1.20e-02,
811,-1.60e-02,-8.00e-03,
812,-1.20e-02,-8.00e-03,
813,1.20e-02,1.20e-02,
814,1.20e-02,-8.00e-03,
815,-1.60e-02,1.40e-02,
816,1.20e-02,-8.00e-03,
817,-1.60e-02,1.40e-02,
818,-1.60e-02,-8.00e-03,
819,1.20e-02,1.20e-02,
820,1.20e-02,-1.00e-02,
821,-1.20e-02,1.40e-02,
822,1.20e-02,-8.00e-03,
823,-1.60e-02,1.40e-02,
824,1.20e-02,1.20e-02,
825,-1.60e-02,-8.00e-03,
826,1.20e-02,-8.00e-03,
827,-1.60e-02,1.40e-02,
828,1.20e-02,-8.00e-03,
829,-1.20e-02,1.40e-02,
830,-1.60e-02,1.20e-02,
831,1.20e-02,-8.00e-03,
832,1.20e-02,1.20e-02,
833,-1.60e-02,-1.00e-02,
