Laptop_2/LAPTOP_CHRGR_2_ON_DISTANT/time domain/NewFile8.csv

X,CH1,Start,Increment,
Sequence,Volt,-1.500000e-01,2.000000e-04
0,-1.40e-01,
1,1.36e-01,
2,1.44e-01,
3,-1.48e-01,
4,1.44e-01,
5,-1.52e-01,
6,1.32e-01,
7,-1.28e-01,
8,-1.52e-01,
9,1.32e-01,
10,-1.32e-01,
11,1.44e-01,
12,1.40e-01,
13,-1.28e-01,
14,1.32e-01,
15,-1.60e-01,
16,-1.52e-01,
17,1.48e-01,
18,-1.36e-01,
19,1.44e-01,
20,-1.60e-01,
21,1.48e-01,
22,-1.52e-01,
23,1.48e-01,
24,1.48e-01,
25,-1.64e-01,
26,1.40e-01,
27,-7.60e-02,
28,-4.40e-02,
29,1.44e-01,
30,1.28e-01,
31,-6.00e-02,
32,-1.12e-01,
33,1.04e-01,
34,1.16e-01,
35,-1.08e-01,
36,1.16e-01,
37,-1.12e-01,
38,1.20e-01,
39,-1.04e-01,
40,-1.08e-01,
41,1.36e-01,
42,1.36e-01,
43,-1.56e-01,
44,-1.56e-01,
45,1.44e-01,
46,1.40e-01,
47,-1.36e-01,
48,1.36e-01,
49,-1.56e-01,
50,-1.52e-01,
51,1.36e-01,
52,-1.40e-01,
53,1.40e-01,
54,1.48e-01,
55,-1.52e-01,
56,1.44e-01,
57,-1.40e-01,
58,-1.52e-01,
59,1.28e-01,
60,1.08e-01,
61,-1.48e-01,
62,-1.48e-01,
63,1.32e-01,
64,-1.48e-01,
65,1.48e-01,
66,1.32e-01,
67,-4.00e-02,
68,1.16e-01,
69,-2.00e-02,
70,-8.40e-02,
71,1.32e-01,
72,1.32e-01,
73,-1.28e-01,
74,-1.28e-01,
75,1.12e-01,
76,1.08e-01,
77,-1.36e-01,
78,1.20e-01,
79,-1.20e-01,
80,-1.44e-01,
81,1.16e-01,
82,1.12e-01,
83,-1.28e-01,
84,1.16e-01,
85,-1.28e-01,
86,-1.12e-01,
87,1.20e-01,
88,1.16e-01,
89,-1.40e-01,
90,1.40e-01,
91,-1.28e-01,
92,-1.52e-01,
93,1.48e-01,
94,1.32e-01,
95,-1.28e-01,
96,-1.32e-01,
97,1.32e-01,
98,1.28e-01,
99,-1.48e-01,
100,1.24e-01,
101,-1.44e-01,
102,1.24e-01,
103,-1.40e-01,
104,-6.40e-02,
105,1.44e-01,
106,-1.08e-01,
107,1.32e-01,
108,4.80e-02,
109,-9.20e-02,
110,1.28e-01,
111,-2.40e-02,
112,1.36e-01,
113,-8.80e-02,
114,-1.12e-01,
115,1.40e-01,
116,1.32e-01,
117,-1.08e-01,
118,-1.04e-01,
119,1.32e-01,
120,-1.44e-01,
121,1.32e-01,
122,1.24e-01,
123,-1.36e-01,
124,1.36e-01,
125,-1.48e-01,
126,1.36e-01,
127,-1.36e-01,
128,1.24e-01,
129,-1.16e-01,
130,-1.28e-01,
131,1.08e-01,
132,1.16e-01,
133,-1.16e-01,
134,-1.36e-01,
135,1.12e-01,
136,1.40e-01,
137,-1.16e-01,
138,-7.20e-02,
139,1.24e-01,
140,1.28e-01,
141,-1.16e-01,
142,-1.00e-01,
143,1.20e-01,
144,-2.80e-02,
145,1.36e-01,
146,1.24e-01,
147,-1.20e-02,
148,1.44e-01,
149,-1.52e-01,
150,-1.12e-01,
151,1.36e-01,
152,1.28e-01,
153,-5.20e-02,
154,-2.80e-02,
155,1.20e-01,
156,1.20e-01,
157,-1.44e-01,
158,1.40e-01,
159,-2.00e-02,
160,1.32e-01,
161,-1.12e-01,
162,1.36e-01,
163,-1.40e-01,
164,-1.40e-01,
165,1.32e-01,
166,-1.08e-01,
167,1.32e-01,
168,1.48e-01,
169,-1.28e-01,
170,-1.20e-01,
171,1.24e-01,
172,-6.80e-02,
173,1.28e-01,
174,1.40e-01,
175,-1.52e-01,
176,1.32e-01,
177,-1.52e-01,
178,-1.32e-01,
179,1.36e-01,
180,1.24e-01,
181,-1.04e-01,
182,1.04e-01,
183,-1.08e-01,
184,-1.04e-01,
185,1.12e-01,
186,-1.36e-01,
187,1.20e-01,
188,-1.04e-01,
189,1.20e-01,
190,-1.04e-01,
191,1.32e-01,
192,1.20e-01,
193,-1.36e-01,
194,1.36e-01,
195,-7.20e-02,
196,1.08e-01,
197,-1.20e-01,
198,1.28e-01,
199,-9.60e-02,
200,1.32e-01,
201,-1.24e-01,
202,-1.44e-01,
203,1.32e-01,
204,-1.44e-01,
205,1.44e-01,
206,-1.36e-01,
207,1.40e-01,
208,-1.48e-01,
209,1.40e-01,
210,-1.52e-01,
211,1.40e-01,
212,-1.44e-01,
213,1.28e-01,
214,1.32e-01,
215,-1.04e-01,
216,-1.44e-01,
217,1.28e-01,
218,1.28e-01,
219,-1.52e-01,
220,1.40e-01,
221,-1.32e-01,
222,-1.12e-01,
223,1.28e-01,
224,-1.12e-01,
225,1.32e-01,
226,1.12e-01,
227,-1.04e-01,
228,1.20e-01,
229,-1.32e-01,
230,-1.16e-01,
231,1.20e-01,
232,-1.04e-01,
233,1.04e-01,
234,1.32e-01,
235,-1.60e-02,
236,-5.20e-02,
237,1.20e-01,
238,1.20e-01,
239,-1.08e-01,
240,-1.32e-01,
241,1.28e-01,
242,1.20e-01,
243,-1.16e-01,
244,1.40e-01,
245,-1.16e-01,
246,1.28e-01,
247,-1.24e-01,
248,1.32e-01,
249,-1.40e-01,
250,1.32e-01,
251,-1.36e-01,
252,-1.28e-01,
253,1.32e-01,
254,1.44e-01,
255,-1.56e-01,
256,-1.60e-01,
257,1.36e-01,
258,-1.60e-01,
259,1.40e-01,
260,-1.48e-01,
261,1.32e-01,
262,-1.52e-01,
263,1.32e-01,
264,1.20e-01,
265,-1.24e-01,
266,1.36e-01,
267,-1.12e-01,
268,1.16e-01,
269,-1.40e-01,
270,-3.60e-02,
271,1.32e-01,
272,-3.20e-02,
273,1.28e-01,
274,1.16e-01,
275,-8.00e-02,
276,1.16e-01,
277,-7.60e-02,
278,1.12e-01,
279,-6.40e-02,
280,-1.16e-01,
281,1.12e-01,
282,1.36e-01,
283,-1.48e-01,
284,-8.80e-02,
285,1.24e-01,
286,1.20e-01,
287,-1.36e-01,
288,-1.36e-01,
289,1.16e-01,
290,1.20e-01,
291,-1.44e-01,
292,-1.24e-01,
293,1.40e-01,
294,1.28e-01,
295,-1.44e-01,
296,1.20e-01,
297,-1.40e-01,
298,-1.48e-01,
299,1.44e-01,
300,-1.44e-01,
301,1.28e-01,
302,-1.32e-01,
303,1.28e-01,
304,-9.20e-02,
305,1.48e-01,
306,-1.52e-01,
307,1.48e-01,
308,1.28e-01,
309,-7.60e-02,
310,-8.80e-02,
311,1.28e-01,
312,1.28e-01,
313,-2.80e-02,
314,1.16e-01,
315,-1.28e-01,
316,1.28e-01,
317,-1.16e-01,
318,-1.40e-01,
319,1.20e-01,
320,9.60e-02,
321,-1.28e-01,
322,1.24e-01,
323,-1.28e-01,
324,1.20e-01,
325,-1.12e-01,
326,-1.44e-01,
327,1.36e-01,
328,1.28e-01,
329,-1.44e-01,
330,1.20e-01,
331,-1.08e-01,
332,-1.36e-01,
333,1.36e-01,
334,1.40e-01,
335,-1.52e-01,
336,1.44e-01,
337,-1.52e-01,
338,1.20e-01,
339,-1.40e-01,
340,-1.40e-01,
341,1.36e-01,
342,1.36e-01,
343,-1.52e-01,
344,-1.24e-01,
345,1.32e-01,
346,-1.52e-01,
347,1.28e-01,
348,-9.60e-02,
349,1.12e-01,
350,-6.40e-02,
351,1.36e-01,
352,2.80e-02,
353,-1.40e-01,
354,-7.20e-02,
355,1.56e-01,
356,-1.52e-01,
357,1.32e-01,
358,-8.80e-02,
359,1.28e-01,
360,-1.12e-01,
361,1.32e-01,
362,1.28e-01,
363,-1.44e-01,
364,-1.36e-01,
365,1.32e-01,
366,1.24e-01,
367,-1.40e-01,
368,1.28e-01,
369,-1.16e-01,
370,-1.40e-01,
371,1.16e-01,
372,1.08e-01,
373,-1.28e-01,
374,1.16e-01,
375,-1.40e-01,
376,-8.40e-02,
377,1.36e-01,
378,-1.36e-01,
379,1.08e-01,
380,1.16e-01,
381,-1.16e-01,
382,1.16e-01,
383,-3.60e-02,
384,1.12e-01,
385,-1.28e-01,
386,1.32e-01,
387,-1.12e-01,
388,-1.12e-01,
389,4.80e-02,
390,-1.56e-01,
391,7.20e-02,
392,1.16e-01,
393,-1.00e-01,
394,1.32e-01,
395,-1.04e-01,
396,1.32e-01,
397,-5.60e-02,
398,-1.04e-01,
399,1.24e-01,
400,-1.40e-01,
401,1.24e-01,
402,1.40e-01,
403,-1.04e-01,
404,1.36e-01,
405,-1.48e-01,
406,1.32e-01,
407,-1.44e-01,
408,1.36e-01,
409,-1.28e-01,
410,1.48e-01,
411,-1.20e-01,
412,-1.56e-01,
413,1.36e-01,
414,1.36e-01,
415,-1.32e-01,
416,1.20e-01,
417,-1.40e-01,
418,-1.08e-01,
419,1.24e-01,
420,1.24e-01,
421,-1.32e-01,
422,-1.28e-01,
423,1.28e-01,
424,-9.20e-02,
425,1.36e-01,
426,1.28e-01,
427,-9.60e-02,
428,-2.80e-02,
429,9.20e-02,
430,-1.60e-02,
431,1.20e-01,
432,1.16e-01,
433,-1.40e-01,
434,-1.36e-01,
435,1.16e-01,
436,1.20e-01,
437,-1.08e-01,
438,1.08e-01,
439,-1.48e-01,
440,1.32e-01,
441,-1.36e-01,
442,-1.44e-01,
443,1.24e-01,
444,-1.28e-01,
445,1.36e-01,
446,-1.40e-01,
447,1.28e-01,
448,-1.04e-01,
449,1.48e-01,
450,-1.56e-01,
451,1.32e-01,
452,-1.36e-01,
453,1.36e-01,
454,1.28e-01,
455,-1.28e-01,
456,1.28e-01,
457,-1.48e-01,
458,-1.52e-01,
459,1.24e-01,
460,1.32e-01,
461,-1.24e-01,
462,-6.40e-02,
463,1.36e-01,
464,-1.08e-01,
465,1.32e-01,
466,-1.40e-01,
467,1.32e-01,
468,-2.80e-02,
469,1.24e-01,
470,1.28e-01,
471,-2.40e-02,
472,1.32e-01,
473,-4.00e-02,
474,-1.32e-01,
475,3.60e-02,
476,1.16e-01,
477,-1.32e-01,
478,-1.08e-01,
479,1.16e-01,
480,1.24e-01,
481,-1.32e-01,
482,1.12e-01,
483,-1.40e-01,
484,-1.32e-01,
485,1.28e-01,
486,1.20e-01,
487,-1.36e-01,
488,1.12e-01,
489,-1.44e-01,
490,1.40e-01,
491,-1.60e-01,
492,1.36e-01,
493,-1.56e-01,
494,-1.36e-01,
495,1.32e-01,
496,-1.40e-01,
497,1.32e-01,
498,1.44e-01,
499,-1.48e-01,
500,-1.28e-01,
501,1.20e-01,
502,1.32e-01,
503,-3.60e-02,
504,1.32e-01,
505,-4.00e-02,
506,1.16e-01,
507,-5.20e-02,
508,1.16e-01,
509,-1.12e-01,
510,1.16e-01,
511,-1.48e-01,
512,-4.00e-02,
513,1.36e-01,
514,-2.40e-02,
515,1.28e-01,
516,1.24e-01,
517,-1.36e-01,
518,1.08e-01,
519,-1.36e-01,
520,-1.24e-01,
521,1.20e-01,
522,-7.20e-02,
523,1.24e-01,
524,-1.24e-01,
525,1.12e-01,
526,-1.20e-01,
527,1.20e-01,
528,1.16e-01,
529,-1.20e-01,
530,-1.24e-01,
531,1.12e-01,
532,1.28e-01,
533,-1.52e-01,
534,1.24e-01,
535,-1.28e-01,
536,1.08e-01,
537,-1.36e-01,
538,-1.44e-01,
539,1.28e-01,
540,-1.48e-01,
541,1.24e-01,
542,1.20e-01,
543,-9.20e-02,
544,1.28e-01,
545,-1.12e-01,
546,1.32e-01,
547,-1.60e-02,
548,-1.40e-01,
549,1.36e-01,
550,-2.40e-02,
551,4.40e-02,
552,8.80e-02,
553,-4.40e-02,
554,1.28e-01,
555,-2.40e-02,
556,1.16e-01,
557,-5.60e-02,
558,-6.00e-02,
559,1.24e-01,
560,1.24e-01,
561,-1.08e-01,
562,1.24e-01,
563,-1.32e-01,
564,-1.40e-01,
565,1.24e-01,
566,-1.04e-01,
567,1.44e-01,
568,-1.52e-01,
569,1.36e-01,
570,-1.56e-01,
571,1.36e-01,
572,-1.32e-01,
573,1.16e-01,
574,1.20e-01,
575,-1.20e-01,
576,-1.28e-01,
577,1.20e-01,
578,-1.08e-01,
579,1.16e-01,
580,1.44e-01,
581,-1.32e-01,
582,1.08e-01,
583,-6.00e-02,
584,-3.60e-02,
585,1.24e-01,
586,1.24e-01,
587,-1.08e-01,
588,-1.12e-01,
589,1.32e-01,
590,-1.60e-01,
591,1.08e-01,
592,-2.80e-02,
593,1.36e-01,
594,-9.60e-02,
595,1.24e-01,
596,-1.44e-01,
597,1.32e-01,
598,-1.20e-01,
599,1.28e-01,
600,1.36e-01,
601,-1.44e-01,
602,-1.44e-01,
603,1.32e-01,
604,-1.52e-01,
605,1.36e-01,
606,-1.60e-01,
607,1.36e-01,
608,1.44e-01,
609,-1.16e-01,
610,-1.08e-01,
611,1.28e-01,
612,-1.40e-01,
613,1.28e-01,
614,1.28e-01,
615,-1.32e-01,
616,1.28e-01,
617,-1.08e-01,
618,1.16e-01,
619,-1.24e-01,
620,1.24e-01,
621,-1.32e-01,
622,-1.28e-01,
623,1.16e-01,
624,1.12e-01,
625,-3.60e-02,
626,-1.12e-01,
627,1.40e-01,
628,1.20e-01,
629,-6.80e-02,
630,1.28e-01,
631,-8.00e-02,
632,1.24e-01,
633,-1.32e-01,
634,1.28e-01,
635,-8.80e-02,
636,-1.04e-01,
637,1.32e-01,
638,1.40e-01,
639,-1.24e-01,
640,-1.40e-01,
641,1.40e-01,
642,1.24e-01,
643,-1.08e-01,
644,-7.20e-02,
645,1.32e-01,
646,-1.56e-01,
647,1.48e-01,
648,1.40e-01,
649,-1.52e-01,
650,-1.56e-01,
651,1.44e-01,
652,-1.40e-01,
653,1.32e-01,
654,1.28e-01,
655,-1.08e-01,
656,1.32e-01,
657,-1.40e-01,
658,-1.36e-01,
659,1.24e-01,
660,-1.48e-01,
661,1.08e-01,
662,-9.60e-02,
663,1.24e-01,
664,-1.00e-01,
665,1.24e-01,
666,-1.40e-01,
667,1.24e-01,
668,-1.16e-01,
669,1.32e-01,
670,-2.80e-02,
671,1.36e-01,
672,-1.04e-01,
673,1.28e-01,
674,1.48e-01,
675,-1.44e-01,
676,1.36e-01,
677,-1.16e-01,
678,1.36e-01,
679,-8.80e-02,
680,-1.44e-01,
681,1.12e-01,
682,-1.12e-01,
683,1.24e-01,
684,-1.08e-01,
685,1.28e-01,
686,1.44e-01,
687,-1.48e-01,
688,1.44e-01,
689,-1.52e-01,
690,-1.12e-01,
691,9.60e-02,
692,-1.16e-01,
693,1.28e-01,
694,-1.44e-01,
695,1.32e-01,
696,-1.52e-01,
697,1.32e-01,
698,1.56e-01,
699,-1.48e-01,
700,1.28e-01,
701,-1.12e-01,
702,-1.12e-01,
703,7.20e-02,
704,1.28e-01,
705,-1.12e-01,
706,7.20e-02,
707,-1.04e-01,
708,1.24e-01,
709,-1.04e-01,
710,3.60e-02,
711,-1.20e-01,
712,1.28e-01,
713,-1.32e-01,
714,-1.12e-01,
715,1.16e-01,
716,1.16e-01,
717,-6.00e-02,
718,-1.56e-01,
719,1.16e-01,
720,-9.60e-02,
721,1.20e-01,
722,1.36e-01,
723,-1.16e-01,
724,-8.00e-02,
725,1.36e-01,
726,-7.60e-02,
727,1.20e-01,
728,-1.08e-01,
729,1.20e-01,
730,-1.32e-01,
731,1.24e-01,
732,1.04e-01,
733,-9.20e-02,
734,1.44e-01,
735,-1.20e-01,
736,-1.12e-01,
737,1.28e-01,
738,-1.40e-01,
739,1.28e-01,
740,-1.44e-01,
741,1.24e-01,
742,-1.40e-01,
743,8.40e-02,
744,-3.60e-02,
745,1.16e-01,
746,-1.00e-01,
747,1.32e-01,
748,-1.40e-01,
749,1.08e-01,
750,-1.24e-01,
751,1.32e-01,
752,1.16e-01,
753,-4.00e-02,
754,1.28e-01,
755,-1.36e-01,
756,1.36e-01,
757,-2.00e-02,
758,1.36e-01,
759,-1.08e-01,
760,1.40e-01,
761,-1.04e-01,
762,-1.52e-01,
763,1.44e-01,
764,1.20e-01,
765,-1.08e-01,
766,-1.28e-01,
767,1.16e-01,
768,1.20e-01,
769,-1.04e-01,
770,1.08e-01,
771,-1.32e-01,
772,1.32e-01,
773,-1.44e-01,
774,1.24e-01,
775,-1.32e-01,
776,1.20e-01,
777,-1.32e-01,
778,1.24e-01,
779,-1.28e-01,
780,-1.32e-01,
781,1.16e-01,
782,-1.24e-01,
783,1.08e-01,
784,-1.36e-01,
785,1.24e-01,
786,-1.32e-01,
787,1.28e-01,
788,-1.36e-01,
789,1.20e-01,
790,-1.48e-01,
791,1.24e-01,
792,1.32e-01,
793,-6.80e-02,
794,1.28e-01,
795,-1.12e-01,
796,6.00e-02,
797,-1.44e-01,
798,1.36e-01,
799,-1.20e-01,
800,1.32e-01,
801,-1.36e-01,
802,1.28e-01,
803,-1.52e-01,
804,-1.44e-01,
805,1.36e-01,
806,1.36e-01,
807,-1.40e-01,
808,-1.12e-01,
809,1.24e-01,
810,-1.28e-01,
811,1.24e-01,
812,-7.20e-02,
813,1.36e-01,
814,-1.12e-01,
815,1.28e-01,
816,1.36e-01,
817,-1.52e-01,
818,1.24e-01,
819,-1.12e-01,
820,1.12e-01,
821,-9.20e-02,
822,-1.08e-01,
823,1.16e-01,
824,-7.60e-02,
825,1.24e-01,
826,1.16e-01,
827,-1.24e-01,
828,-1.00e-01,
829,1.20e-01,
830,-1.40e-01,
831,1.28e-01,
832,1.28e-01,
833,-1.40e-01,
834,-1.48e-01,
835,4.00e-02,
836,1.32e-01,
837,-8.00e-02,
838,1.04e-01,
839,-1.52e-01,
840,-1.56e-01,
841,1.40e-01,
842,-1.44e-01,
843,1.36e-01,
844,-1.56e-01,
845,5.60e-02,
846,1.32e-01,
847,-1.36e-01,
848,-1.20e-01,
849,1.40e-01,
850,-1.40e-01,
851,1.28e-01,
852,-1.44e-01,
853,1.32e-01,
854,1.24e-01,
855,-1.08e-01,
856,1.24e-01,
857,-1.16e-01,
858,-1.20e-01,
859,1.36e-01,
860,-1.16e-01,
861,1.16e-01,
862,-5.20e-02,
863,1.24e-01,
864,-1.04e-01,
865,1.20e-01,
866,1.12e-01,
867,-1.28e-01,
868,-1.32e-01,
869,1.36e-01,
870,1.16e-01,
871,-5.20e-02,
872,1.16e-01,
873,-1.04e-01,
874,-1.32e-01,
875,1.20e-01,
876,-1.08e-01,
877,1.24e-01,
878,1.44e-01,
879,-1.56e-01,
880,-1.32e-01,
881,1.28e-01,
882,-1.24e-01,
883,1.24e-01,
884,-1.12e-01,
885,1.24e-01,
886,-1.20e-01,
887,1.32e-01,
888,-1.48e-01,
889,1.44e-01,
890,-1.48e-01,
891,1.32e-01,
892,-1.04e-01,
893,1.36e-01,
894,1.28e-01,
895,-1.20e-01,
896,-1.28e-01,
897,1.28e-01,
898,8.00e-02,
899,-1.48e-01,
900,1.40e-01,
901,-1.36e-01,
902,-1.40e-01,
903,1.08e-01,
904,-6.00e-02,
905,1.20e-01,
906,1.08e-01,
907,-1.04e-01,
908,-1.24e-01,
909,1.28e-01,
910,1.24e-01,
911,-4.40e-02,
912,-8.40e-02,
913,1.08e-01,
914,-4.40e-02,
915,9.20e-02,
916,-1.60e-02,
917,1.00e-01,
918,1.08e-01,
919,-1.32e-01,
920,1.20e-01,
921,-1.24e-01,
922,-1.12e-01,
923,1.24e-01,
924,1.32e-01,
925,-1.48e-01,
926,-1.40e-01,
927,1.32e-01,
928,1.40e-01,
929,-5.20e-02,
930,-1.12e-01,
931,1.28e-01,
932,1.32e-01,
933,-1.04e-01,
934,1.28e-01,
935,-1.24e-01,
936,1.36e-01,
937,-1.36e-01,
938,-1.40e-01,
939,1.36e-01,
940,1.04e-01,
941,-1.20e-01,
942,-1.28e-01,
943,1.36e-01,
944,-1.44e-01,
945,8.00e-02,
946,1.32e-01,
947,-4.80e-02,
948,1.32e-01,
949,-5.20e-02,
950,1.24e-01,
951,-1.24e-01,
952,-1.24e-01,
953,1.28e-01,
954,-2.80e-02,
955,1.32e-01,
956,1.20e-01,
957,-3.20e-02,
958,1.40e-01,
959,-1.12e-01,
960,-1.44e-01,
961,1.32e-01,
962,-1.08e-01,
963,1.20e-01,
964,1.24e-01,
965,-1.12e-01,
966,-1.24e-01,
967,1.16e-01,
968,-1.28e-01,
969,1.12e-01,
970,-1.52e-01,
971,1.32e-01,
972,-1.20e-01,
973,1.36e-01,
974,-1.24e-01,
975,1.16e-01,
976,-1.36e-01,
977,1.24e-01,
978,1.20e-01,
979,-1.32e-01,
980,1.24e-01,
981,-1.24e-01,
982,-1.28e-01,
983,1.28e-01,
984,-4.00e-02,
985,7.60e-02,
986,-4.00e-02,
987,1.08e-01,
988,1.32e-01,
989,-7.60e-02,
990,-1.04e-01,
991,6.80e-02,
992,-6.40e-02,
993,8.80e-02,
994,1.08e-01,
995,-1.20e-02,
996,-1.56e-01,
997,1.40e-01,
998,1.04e-01,
999,-1.32e-01,
1000,1.32e-01,
1001,-8.40e-02,
1002,-1.48e-01,
1003,1.24e-01,
1004,-1.40e-01,
1005,1.24e-01,
1006,-1.40e-01,
1007,1.40e-01,
1008,1.40e-01,
1009,-1.56e-01,
1010,1.40e-01,
1011,-1.52e-01,
1012,1.36e-01,
1013,-1.24e-01,
1014,-1.16e-01,
1015,1.16e-01,
1016,1.20e-01,
1017,-1.08e-01,
1018,1.00e-01,
1019,-1.04e-01,
1020,1.08e-01,
1021,-1.04e-01,
1022,-1.44e-01,
1023,1.32e-01,
1024,1.16e-01,
1025,-9.20e-02,
1026,1.28e-01,
1027,-6.00e-02,
1028,1.20e-01,
1029,-6.80e-02,
1030,1.12e-01,
1031,-5.60e-02,
1032,-3.20e-02,
1033,1.32e-01,
1034,9.20e-02,
1035,-1.36e-01,
1036,-3.60e-02,
1037,1.32e-01,
1038,-1.40e-01,
1039,1.36e-01,
1040,1.44e-01,
1041,-1.44e-01,
1042,1.16e-01,
1043,-1.24e-01,
1044,1.32e-01,
1045,-6.40e-02,
1046,1.32e-01,
1047,-1.52e-01,
1048,1.08e-01,
1049,-1.16e-01,
1050,1.28e-01,
1051,-1.20e-01,
1052,1.36e-01,
1053,-1.52e-01,
1054,-8.40e-02,
1055,1.40e-01,
1056,-1.56e-01,
1057,1.32e-01,
1058,-1.32e-01,
1059,1.28e-01,
1060,-1.36e-01,
1061,1.12e-01,
1062,1.20e-01,
1063,-1.20e-01,
1064,-1.28e-01,
1065,1.20e-01,
1066,-3.60e-02,
1067,1.28e-01,
1068,1.24e-01,
1069,-1.04e-01,
1070,-8.40e-02,
1071,1.40e-01,
1072,-9.20e-02,
1073,1.44e-01,
1074,1.32e-01,
1075,-9.20e-02,
1076,1.16e-01,
1077,-9.60e-02,
1078,-8.40e-02,
1079,1.24e-01,
1080,1.32e-01,
1081,-1.00e-01,
1082,1.28e-01,
1083,-1.40e-01,
1084,-1.44e-01,
1085,1.36e-01,
1086,1.20e-01,
1087,-1.40e-01,
1088,-1.28e-01,
1089,1.08e-01,
1090,-1.20e-01,
1091,1.48e-01,
1092,-1.56e-01,
1093,1.32e-01,
1094,1.44e-01,
1095,-1.36e-01,
1096,-1.56e-01,
1097,1.36e-01,
1098,-1.32e-01,
1099,1.16e-01,
1100,-1.08e-01,
1101,1.20e-01,
1102,1.36e-01,
1103,-1.36e-01,
1104,-1.04e-01,
1105,2.80e-02,
1106,-3.60e-02,
1107,1.40e-01,
1108,1.20e-01,
1109,-1.28e-01,
1110,1.20e-01,
1111,-1.28e-01,
1112,1.24e-01,
1113,-1.32e-01,
1114,1.24e-01,
1115,-1.04e-01,
1116,1.28e-01,
1117,-1.48e-01,
1118,1.12e-01,
1119,-1.32e-01,
1120,-1.36e-01,
1121,1.16e-01,
1122,1.16e-01,
1123,-1.36e-01,
1124,1.12e-01,
1125,-1.16e-01,
1126,-1.48e-01,
1127,1.28e-01,
1128,-1.32e-01,
1129,1.32e-01,
1130,1.24e-01,
1131,-1.44e-01,
1132,-1.40e-01,
1133,1.28e-01,
1134,-1.12e-01,
1135,1.32e-01,
1136,-1.56e-01,
1137,1.48e-01,
1138,1.44e-01,
1139,-1.52e-01,
1140,1.48e-01,
1141,-1.40e-01,
1142,1.24e-01,
1143,-1.04e-01,
1144,1.28e-01,
1145,-8.00e-03,
1146,-3.60e-02,
1147,1.32e-01,
1148,7.20e-02,
1149,-1.32e-01,
1150,-2.40e-02,
1151,1.40e-01,
1152,1.40e-01,
1153,-4.40e-02,
1154,-1.32e-01,
1155,1.20e-01,
1156,1.16e-01,
1157,-9.20e-02,
1158,-1.20e-01,
1159,1.20e-01,
1160,-1.32e-01,
1161,1.36e-01,
1162,-1.20e-01,
1163,1.28e-01,
1164,-1.08e-01,
1165,1.08e-01,
1166,1.16e-01,
1167,-1.36e-01,
1168,1.12e-01,
1169,-1.04e-01,
1170,-1.08e-01,
1171,1.12e-01,
1172,-1.40e-01,
1173,1.40e-01,
1174,-1.40e-01,
1175,1.40e-01,
1176,1.36e-01,
1177,-1.56e-01,
1178,1.44e-01,
1179,-1.44e-01,
1180,1.36e-01,
1181,-1.32e-01,
1182,1.24e-01,
1183,-1.44e-01,
1184,1.32e-01,
1185,-6.80e-02,
1186,1.04e-01,
1187,-4.80e-02,
1188,1.40e-01,
1189,-1.12e-01,
1190,1.24e-01,
1191,-1.16e-01,
1192,-1.24e-01,
1193,6.00e-02,
1194,-1.40e-01,
1195,1.24e-01,
1196,1.24e-01,
1197,-1.24e-01,
1198,1.24e-01,
1199,-1.32e-01,
