Laptop_2/LAPTOP_CHRGR_2_ON_DISTANT/time domain/NewFile40.csv

X,CH1,Start,Increment,
Sequence,Volt,-1.500000e-01,2.000000e-04
0,-5.20e-02,
1,1.00e-01,
2,6.80e-02,
3,-4.40e-02,
4,-5.60e-02,
5,8.00e-02,
6,-7.60e-02,
7,8.40e-02,
8,1.36e-01,
9,-8.80e-02,
10,1.12e-01,
11,-8.00e-02,
12,-4.80e-02,
13,1.28e-01,
14,-8.80e-02,
15,1.08e-01,
16,-5.60e-02,
17,1.20e-01,
18,-1.08e-01,
19,1.32e-01,
20,5.60e-02,
21,-7.20e-02,
22,8.00e-02,
23,-6.40e-02,
24,1.00e-01,
25,-4.80e-02,
26,9.20e-02,
27,-6.80e-02,
28,-6.80e-02,
29,7.60e-02,
30,9.20e-02,
31,-5.60e-02,
32,1.36e-01,
33,-8.40e-02,
34,5.20e-02,
35,-7.60e-02,
36,1.36e-01,
37,-8.00e-02,
38,-5.60e-02,
39,9.20e-02,
40,-5.60e-02,
41,8.40e-02,
42,-6.00e-02,
43,1.00e-01,
44,-6.80e-02,
45,8.40e-02,
46,1.24e-01,
47,-1.12e-01,
48,-5.20e-02,
49,9.60e-02,
50,1.44e-01,
51,-8.80e-02,
52,1.28e-01,
53,-1.08e-01,
54,6.00e-02,
55,-1.08e-01,
56,1.20e-01,
57,-1.12e-01,
58,-1.16e-01,
59,1.56e-01,
60,1.52e-01,
61,-1.04e-01,
62,1.16e-01,
63,-7.60e-02,
64,4.40e-02,
65,-1.12e-01,
66,-8.80e-02,
67,1.36e-01,
68,-8.80e-02,
69,1.40e-01,
70,7.20e-02,
71,-6.00e-02,
72,-7.60e-02,
73,6.00e-02,
74,-4.40e-02,
75,1.28e-01,
76,-1.04e-01,
77,8.00e-02,
78,-1.00e-01,
79,1.28e-01,
80,1.24e-01,
81,-9.20e-02,
82,-8.40e-02,
83,1.56e-01,
84,-9.20e-02,
85,1.32e-01,
86,-8.40e-02,
87,1.12e-01,
88,-6.40e-02,
89,1.00e-01,
90,7.20e-02,
91,-5.20e-02,
92,-5.60e-02,
93,5.20e-02,
94,1.04e-01,
95,-7.20e-02,
96,1.32e-01,
97,-1.12e-01,
98,1.12e-01,
99,-8.80e-02,
100,1.08e-01,
101,-6.80e-02,
102,-7.20e-02,
103,8.00e-02,
104,8.40e-02,
105,-6.40e-02,
106,-7.60e-02,
107,1.16e-01,
108,-7.20e-02,
109,5.60e-02,
110,-7.20e-02,
111,8.40e-02,
112,8.00e-02,
113,-7.60e-02,
114,7.20e-02,
115,-1.08e-01,
116,-8.00e-02,
117,1.32e-01,
118,-1.08e-01,
119,1.28e-01,
120,-1.04e-01,
121,1.00e-01,
122,4.80e-02,
123,-5.60e-02,
124,-4.80e-02,
125,8.00e-02,
126,-5.60e-02,
127,7.60e-02,
128,-6.00e-02,
129,9.60e-02,
130,-1.04e-01,
131,1.36e-01,
132,8.80e-02,
133,-5.20e-02,
134,-6.80e-02,
135,4.80e-02,
136,-6.80e-02,
137,6.40e-02,
138,-6.40e-02,
139,1.00e-01,
140,1.28e-01,
141,-1.12e-01,
142,-4.00e-02,
143,6.40e-02,
144,8.00e-02,
145,-7.60e-02,
146,-7.60e-02,
147,6.40e-02,
148,-8.00e-02,
149,1.04e-01,
150,1.08e-01,
151,-6.00e-02,
152,9.20e-02,
153,-8.00e-02,
154,1.00e-01,
155,-8.80e-02,
156,-8.00e-02,
157,8.80e-02,
158,1.00e-01,
159,-9.20e-02,
160,1.40e-01,
161,-1.00e-01,
162,1.48e-01,
163,-1.08e-01,
164,1.44e-01,
165,-9.20e-02,
166,1.40e-01,
167,-9.60e-02,
168,1.44e-01,
169,-6.80e-02,
170,-1.04e-01,
171,1.36e-01,
172,-1.12e-01,
173,9.60e-02,
174,1.48e-01,
175,-1.00e-01,
176,1.52e-01,
177,-1.04e-01,
178,-1.04e-01,
179,1.48e-01,
180,-8.00e-02,
181,1.48e-01,
182,1.36e-01,
183,-1.08e-01,
184,-8.80e-02,
185,1.36e-01,
186,5.20e-02,
187,-7.60e-02,
188,4.40e-02,
189,-1.08e-01,
190,-3.20e-02,
191,5.20e-02,
192,-4.80e-02,
193,1.32e-01,
194,5.60e-02,
195,-1.04e-01,
196,1.36e-01,
197,-7.60e-02,
198,-8.80e-02,
199,1.44e-01,
200,-1.08e-01,
201,1.36e-01,
202,-1.12e-01,
203,1.44e-01,
204,-9.60e-02,
205,1.20e-01,
206,1.52e-01,
207,-1.12e-01,
208,-1.04e-01,
209,1.44e-01,
210,1.32e-01,
211,-9.20e-02,
212,1.12e-01,
213,-1.12e-01,
214,-9.20e-02,
215,1.40e-01,
216,1.56e-01,
217,-9.20e-02,
218,1.44e-01,
219,-1.12e-01,
220,-1.12e-01,
221,1.36e-01,
222,1.12e-01,
223,-1.04e-01,
224,-9.60e-02,
225,7.60e-02,
226,1.20e-01,
227,-1.00e-01,
228,-1.04e-01,
229,1.08e-01,
230,-9.20e-02,
231,1.36e-01,
232,1.24e-01,
233,-4.80e-02,
234,1.36e-01,
235,-8.00e-02,
236,-7.60e-02,
237,1.12e-01,
238,1.44e-01,
239,-8.00e-02,
240,-1.04e-01,
241,1.48e-01,
242,1.12e-01,
243,-1.20e-01,
244,-1.04e-01,
245,1.40e-01,
246,1.16e-01,
247,-9.20e-02,
248,1.36e-01,
249,-8.40e-02,
250,-1.08e-01,
251,1.36e-01,
252,-1.00e-01,
253,9.20e-02,
254,1.12e-01,
255,-1.00e-01,
256,-9.60e-02,
257,1.40e-01,
258,-7.60e-02,
259,1.28e-01,
260,1.40e-01,
261,-1.00e-01,
262,-8.00e-02,
263,4.40e-02,
264,-1.12e-01,
265,1.20e-01,
266,4.00e-02,
267,-4.40e-02,
268,1.36e-01,
269,-7.20e-02,
270,-1.16e-01,
271,6.00e-02,
272,1.40e-01,
273,-8.80e-02,
274,-1.08e-01,
275,1.44e-01,
276,-8.40e-02,
277,1.24e-01,
278,-8.40e-02,
279,1.20e-01,
280,-1.04e-01,
281,1.36e-01,
282,-1.04e-01,
283,1.36e-01,
284,-1.04e-01,
285,1.44e-01,
286,-1.12e-01,
287,1.24e-01,
288,-1.16e-01,
289,1.40e-01,
290,-1.00e-01,
291,1.36e-01,
292,-9.60e-02,
293,1.20e-01,
294,1.28e-01,
295,-1.08e-01,
296,1.36e-01,
297,-1.00e-01,
298,1.44e-01,
299,-1.04e-01,
300,1.08e-01,
301,-1.12e-01,
302,-9.60e-02,
303,1.20e-01,
304,-6.80e-02,
305,1.40e-01,
306,4.80e-02,
307,-1.08e-01,
308,1.04e-01,
309,-7.60e-02,
310,-4.80e-02,
311,1.28e-01,
312,3.60e-02,
313,-7.60e-02,
314,-1.08e-01,
315,4.40e-02,
316,2.80e-02,
317,-8.80e-02,
318,-1.00e-01,
319,1.40e-01,
320,-1.12e-01,
321,1.28e-01,
322,1.44e-01,
323,-1.12e-01,
324,-1.00e-01,
325,1.20e-01,
326,1.36e-01,
327,-1.00e-01,
328,-1.00e-01,
329,9.60e-02,
330,1.40e-01,
331,-1.08e-01,
332,-1.08e-01,
333,1.28e-01,
334,-1.00e-01,
335,1.44e-01,
336,-1.00e-01,
337,1.20e-01,
338,6.00e-02,
339,-9.60e-02,
340,-6.40e-02,
341,1.32e-01,
342,-7.20e-02,
343,1.44e-01,
344,-8.00e-02,
345,8.00e-02,
346,4.00e-02,
347,-6.40e-02,
348,5.60e-02,
349,-4.40e-02,
350,2.80e-02,
351,-1.00e-01,
352,1.36e-01,
353,-1.20e-02,
354,-5.60e-02,
355,1.44e-01,
356,6.00e-02,
357,-1.12e-01,
358,-8.00e-02,
359,1.52e-01,
360,-1.04e-01,
361,1.04e-01,
362,-4.40e-02,
363,1.52e-01,
364,1.40e-01,
365,-1.12e-01,
366,1.40e-01,
367,-1.08e-01,
368,1.08e-01,
369,-9.60e-02,
370,-9.60e-02,
371,1.40e-01,
372,-1.08e-01,
373,1.28e-01,
374,1.44e-01,
375,-1.12e-01,
376,-8.00e-02,
377,1.40e-01,
378,1.40e-01,
379,-1.08e-01,
380,1.32e-01,
381,-8.00e-02,
382,-9.60e-02,
383,1.44e-01,
384,-8.40e-02,
385,1.32e-01,
386,-1.08e-01,
387,4.40e-02,
388,-2.40e-02,
389,7.20e-02,
390,-9.60e-02,
391,6.40e-02,
392,-7.20e-02,
393,1.36e-01,
394,3.60e-02,
395,-5.20e-02,
396,4.00e-02,
397,-8.80e-02,
398,-6.00e-02,
399,1.44e-01,
400,-1.16e-01,
401,9.60e-02,
402,-9.20e-02,
403,1.08e-01,
404,1.36e-01,
405,-1.00e-01,
406,1.08e-01,
407,-8.80e-02,
408,1.12e-01,
409,-1.08e-01,
410,-1.12e-01,
411,1.40e-01,
412,-8.00e-02,
413,1.40e-01,
414,7.20e-02,
415,-1.16e-01,
416,1.00e-01,
417,-1.08e-01,
418,1.44e-01,
419,-1.16e-01,
420,1.48e-01,
421,-1.00e-01,
422,1.08e-01,
423,-5.20e-02,
424,-1.04e-01,
425,3.20e-02,
426,1.40e-01,
427,-1.04e-01,
428,-1.12e-01,
429,1.32e-01,
430,9.60e-02,
431,-1.00e-01,
432,8.40e-02,
433,-1.04e-01,
434,1.08e-01,
435,-4.80e-02,
436,-4.40e-02,
437,4.80e-02,
438,1.20e-01,
439,-1.04e-01,
440,-1.04e-01,
441,1.16e-01,
442,1.36e-01,
443,-8.00e-02,
444,-8.80e-02,
445,1.28e-01,
446,1.28e-01,
447,-1.08e-01,
448,1.44e-01,
449,-9.60e-02,
450,-8.00e-02,
451,1.32e-01,
452,-1.12e-01,
453,1.48e-01,
454,1.44e-01,
455,-1.12e-01,
456,-9.60e-02,
457,1.52e-01,
458,1.36e-01,
459,-9.60e-02,
460,-1.20e-01,
461,1.16e-01,
462,-9.60e-02,
463,6.00e-02,
464,-7.60e-02,
465,1.16e-01,
466,1.40e-01,
467,-7.20e-02,
468,-4.40e-02,
469,1.08e-01,
470,-3.60e-02,
471,1.28e-01,
472,-7.20e-02,
473,1.36e-01,
474,-1.04e-01,
475,1.44e-01,
476,-1.00e-01,
477,9.60e-02,
478,1.20e-01,
479,-2.80e-02,
480,1.28e-01,
481,-9.60e-02,
482,1.04e-01,
483,-9.60e-02,
484,-7.60e-02,
485,1.36e-01,
486,1.48e-01,
487,-1.08e-01,
488,-1.08e-01,
489,1.40e-01,
490,8.00e-02,
491,-1.00e-01,
492,-1.04e-01,
493,1.40e-01,
494,1.44e-01,
495,-1.00e-01,
496,1.36e-01,
497,-8.80e-02,
498,-8.00e-02,
499,1.60e-01,
500,1.52e-01,
501,-1.04e-01,
502,-1.12e-01,
503,1.44e-01,
504,1.32e-01,
505,-9.60e-02,
506,1.28e-01,
507,-4.00e-02,
508,4.00e-02,
509,-7.60e-02,
510,-7.20e-02,
511,7.60e-02,
512,3.20e-02,
513,-6.40e-02,
514,-8.00e-02,
515,6.00e-02,
516,-5.60e-02,
517,1.16e-01,
518,1.12e-01,
519,-1.04e-01,
520,1.16e-01,
521,-5.20e-02,
522,-1.00e-01,
523,1.00e-01,
524,1.20e-01,
525,-1.00e-01,
526,-1.00e-01,
527,1.28e-01,
528,-1.00e-01,
529,1.32e-01,
530,-1.04e-01,
531,1.32e-01,
532,1.40e-01,
533,-1.12e-01,
534,1.32e-01,
535,-1.12e-01,
536,1.44e-01,
537,-1.04e-01,
538,-8.40e-02,
539,1.32e-01,
540,-1.12e-01,
541,1.36e-01,
542,-1.12e-01,
543,1.40e-01,
544,6.00e-02,
545,-1.12e-01,
546,-1.08e-01,
547,1.32e-01,
548,-4.40e-02,
549,3.20e-02,
550,-8.00e-02,
551,1.00e-01,
552,-9.60e-02,
553,6.00e-02,
554,-6.00e-02,
555,1.36e-01,
556,-3.60e-02,
557,1.00e-01,
558,1.20e-01,
559,-1.08e-01,
560,1.24e-01,
561,-1.04e-01,
562,1.28e-01,
563,-1.12e-01,
564,-7.20e-02,
565,1.32e-01,
566,1.04e-01,
567,-9.20e-02,
568,-9.20e-02,
569,1.04e-01,
570,-1.08e-01,
571,7.60e-02,
572,-1.00e-01,
573,1.28e-01,
574,-7.60e-02,
575,1.44e-01,
576,-8.00e-02,
577,1.32e-01,
578,-1.00e-01,
579,8.80e-02,
580,1.24e-01,
581,-1.04e-01,
582,-1.12e-01,
583,5.60e-02,
584,-8.80e-02,
585,6.00e-02,
586,1.36e-01,
587,-1.16e-01,
588,5.60e-02,
589,-9.20e-02,
590,1.40e-01,
591,-8.00e-02,
592,-8.40e-02,
593,1.48e-01,
594,-8.80e-02,
595,5.20e-02,
596,-1.00e-01,
597,4.40e-02,
598,1.48e-01,
599,-1.12e-01,
600,-1.00e-01,
601,1.20e-01,
602,1.36e-01,
603,-7.60e-02,
604,-1.08e-01,
605,1.44e-01,
606,1.04e-01,
607,-1.04e-01,
608,1.32e-01,
609,-7.60e-02,
610,7.60e-02,
611,-5.60e-02,
612,7.60e-02,
613,-5.20e-02,
614,-8.80e-02,
615,1.00e-01,
616,1.32e-01,
617,-1.08e-01,
618,-1.04e-01,
619,1.16e-01,
620,-8.80e-02,
621,5.60e-02,
622,-4.00e-02,
623,9.20e-02,
624,-6.00e-02,
625,9.60e-02,
626,-5.60e-02,
627,6.40e-02,
628,-6.80e-02,
629,9.20e-02,
630,3.20e-02,
631,-8.40e-02,
632,1.24e-01,
633,-6.40e-02,
634,-7.60e-02,
635,7.60e-02,
636,8.80e-02,
637,-7.20e-02,
638,-6.00e-02,
639,1.00e-01,
640,-8.80e-02,
641,1.48e-01,
642,9.60e-02,
643,-7.20e-02,
644,1.20e-01,
645,-9.20e-02,
646,1.16e-01,
647,-7.20e-02,
648,-8.40e-02,
649,1.12e-01,
650,9.60e-02,
651,-7.60e-02,
652,-8.40e-02,
653,7.60e-02,
654,1.04e-01,
655,-6.80e-02,
656,8.40e-02,
657,-5.20e-02,
658,-5.60e-02,
659,9.20e-02,
660,9.20e-02,
661,-1.12e-01,
662,-6.80e-02,
663,1.28e-01,
664,-1.00e-01,
665,3.60e-02,
666,4.40e-02,
667,-5.60e-02,
668,-5.20e-02,
669,5.20e-02,
670,-5.20e-02,
671,4.40e-02,
672,8.00e-02,
673,-6.40e-02,
674,-7.60e-02,
675,4.40e-02,
676,-6.40e-02,
677,2.80e-02,
678,-4.40e-02,
679,8.00e-02,
680,9.60e-02,
681,-5.60e-02,
682,1.08e-01,
683,-7.20e-02,
684,1.16e-01,
685,-8.40e-02,
686,-8.40e-02,
687,9.60e-02,
688,-7.60e-02,
689,1.12e-01,
690,-8.80e-02,
691,1.16e-01,
692,-6.00e-02,
693,1.24e-01,
694,-7.20e-02,
695,1.00e-01,
696,-1.12e-01,
697,1.00e-01,
698,6.00e-02,
699,-1.12e-01,
700,1.40e-01,
701,-1.08e-01,
702,1.44e-01,
703,-1.04e-01,
704,6.80e-02,
705,-8.00e-02,
706,5.60e-02,
707,-6.40e-02,
708,6.40e-02,
709,-4.40e-02,
710,-6.80e-02,
711,7.60e-02,
712,-4.80e-02,
713,1.32e-01,
714,6.80e-02,
715,-6.00e-02,
716,-5.60e-02,
717,8.00e-02,
718,-5.20e-02,
719,9.20e-02,
720,-6.40e-02,
721,9.20e-02,
722,1.16e-01,
723,-1.04e-01,
724,-5.20e-02,
725,1.04e-01,
726,-5.60e-02,
727,8.00e-02,
728,8.40e-02,
729,-7.20e-02,
730,-6.80e-02,
731,1.00e-01,
732,-8.00e-02,
733,7.60e-02,
734,-5.20e-02,
735,1.00e-01,
736,-7.20e-02,
737,1.00e-01,
738,-8.40e-02,
739,3.20e-02,
740,8.00e-02,
741,-1.20e-01,
742,-9.20e-02,
743,1.24e-01,
744,-1.20e-01,
745,4.40e-02,
746,6.40e-02,
747,-8.00e-02,
748,-8.00e-02,
749,1.12e-01,
750,-1.12e-01,
751,5.60e-02,
752,-5.60e-02,
753,9.60e-02,
754,-5.60e-02,
755,9.60e-02,
756,-7.60e-02,
757,7.60e-02,
758,6.40e-02,
759,-6.40e-02,
760,-6.40e-02,
761,8.40e-02,
762,-7.20e-02,
763,8.80e-02,
764,9.60e-02,
765,-5.60e-02,
766,7.60e-02,
767,-6.80e-02,
768,-6.00e-02,
769,6.00e-02,
770,6.80e-02,
771,-6.40e-02,
772,9.60e-02,
773,-8.00e-02,
774,-7.20e-02,
775,6.00e-02,
776,5.20e-02,
777,-5.60e-02,
778,9.60e-02,
779,-5.60e-02,
780,9.60e-02,
781,-6.40e-02,
782,-9.60e-02,
783,4.40e-02,
784,4.00e-02,
785,-1.08e-01,
786,5.60e-02,
787,-8.40e-02,
788,-1.04e-01,
789,8.40e-02,
790,1.20e-01,
791,-3.60e-02,
792,-7.60e-02,
793,1.24e-01,
794,9.60e-02,
795,-7.20e-02,
796,-8.40e-02,
797,7.20e-02,
798,9.60e-02,
799,-6.40e-02,
800,1.04e-01,
801,-6.40e-02,
802,9.60e-02,
803,-7.20e-02,
804,-6.00e-02,
805,8.40e-02,
806,8.80e-02,
807,-9.20e-02,
808,-6.40e-02,
809,8.00e-02,
810,-6.00e-02,
811,9.20e-02,
812,9.20e-02,
813,-6.00e-02,
814,-5.60e-02,
815,4.00e-02,
816,-9.60e-02,
817,8.40e-02,
818,1.44e-01,
819,-9.20e-02,
820,1.36e-01,
821,-9.60e-02,
822,1.00e-01,
823,-1.04e-01,
824,8.00e-02,
825,-6.80e-02,
826,1.04e-01,
827,-6.80e-02,
828,8.80e-02,
829,-8.80e-02,
830,-1.08e-01,
831,1.36e-01,
832,8.00e-02,
833,-7.60e-02,
834,-6.80e-02,
835,7.20e-02,
836,-7.20e-02,
837,8.80e-02,
838,9.20e-02,
839,-9.60e-02,
840,-5.60e-02,
841,1.20e-01,
842,-1.20e-01,
843,1.32e-01,
844,-5.60e-02,
845,8.40e-02,
846,1.00e-01,
847,-8.40e-02,
848,-7.20e-02,
849,5.60e-02,
850,8.40e-02,
851,-4.80e-02,
852,-1.04e-01,
853,1.24e-01,
854,-6.00e-02,
855,5.60e-02,
856,-6.40e-02,
857,9.20e-02,
858,4.00e-02,
859,-6.00e-02,
860,-3.60e-02,
861,8.80e-02,
862,-8.00e-02,
863,1.20e-01,
864,5.60e-02,
865,-6.40e-02,
866,-1.00e-01,
867,1.32e-01,
868,-1.00e-01,
869,1.28e-01,
870,-1.04e-01,
871,5.60e-02,
872,1.00e-01,
873,-6.00e-02,
874,-6.40e-02,
875,1.00e-01,
876,-6.80e-02,
877,9.20e-02,
878,-7.20e-02,
879,1.04e-01,
880,1.32e-01,
881,-8.40e-02,
882,-7.60e-02,
883,8.80e-02,
884,1.08e-01,
885,-6.80e-02,
886,1.08e-01,
887,-8.40e-02,
888,-5.20e-02,
889,1.12e-01,
890,1.60e-01,
891,-9.60e-02,
892,-8.00e-02,
893,7.20e-02,
894,-5.60e-02,
895,1.04e-01,
896,-1.08e-01,
897,1.12e-01,
898,1.32e-01,
899,-9.20e-02,
900,1.28e-01,
901,-1.12e-01,
902,2.00e-02,
903,-8.40e-02,
904,7.60e-02,
905,-4.80e-02,
906,-6.40e-02,
907,7.20e-02,
908,-4.80e-02,
909,8.40e-02,
910,-5.60e-02,
911,9.20e-02,
912,1.20e-01,
913,-8.80e-02,
914,-8.40e-02,
915,7.60e-02,
916,-8.80e-02,
917,7.60e-02,
918,-5.20e-02,
919,5.20e-02,
920,-6.00e-02,
921,6.80e-02,
922,1.00e-01,
923,-6.40e-02,
924,-5.20e-02,
925,1.12e-01,
926,1.28e-01,
927,-7.60e-02,
928,7.60e-02,
929,-8.00e-02,
930,7.20e-02,
931,-4.00e-02,
932,-6.80e-02,
933,7.20e-02,
934,-8.80e-02,
935,6.00e-02,
936,1.36e-01,
937,-1.12e-01,
938,-8.00e-02,
939,9.20e-02,
940,-7.20e-02,
941,1.04e-01,
942,-6.00e-02,
943,6.80e-02,
944,-8.40e-02,
945,1.00e-01,
946,-1.00e-01,
947,2.80e-02,
948,3.60e-02,
949,-1.12e-01,
950,-1.08e-01,
951,1.20e-01,
952,6.80e-02,
953,-8.80e-02,
954,-8.40e-02,
955,9.60e-02,
956,-5.20e-02,
957,8.80e-02,
958,8.40e-02,
959,-6.00e-02,
960,8.40e-02,
961,-6.40e-02,
962,-9.60e-02,
963,1.32e-01,
964,1.16e-01,
965,-6.40e-02,
966,-4.40e-02,
967,8.80e-02,
968,-6.80e-02,
969,9.60e-02,
970,8.40e-02,
971,-4.40e-02,
972,-4.80e-02,
973,1.20e-01,
974,1.08e-01,
975,-7.60e-02,
976,9.20e-02,
977,-7.20e-02,
978,1.20e-01,
979,-1.12e-01,
980,-4.40e-02,
981,1.36e-01,
982,1.12e-01,
983,-1.04e-01,
984,-5.20e-02,
985,8.40e-02,
986,-6.80e-02,
987,8.80e-02,
988,-6.00e-02,
989,8.80e-02,
990,-7.20e-02,
991,6.40e-02,
992,8.40e-02,
993,-8.40e-02,
994,1.44e-01,
995,-5.60e-02,
996,1.08e-01,
997,-2.80e-02,
998,8.80e-02,
999,-8.00e-02,
1000,8.40e-02,
1001,-4.40e-02,
1002,1.00e-01,
1003,-5.20e-02,
1004,-6.00e-02,
1005,5.60e-02,
1006,-6.40e-02,
1007,6.80e-02,
1008,-7.60e-02,
1009,1.12e-01,
1010,-6.00e-02,
1011,8.40e-02,
1012,-6.00e-02,
1013,8.40e-02,
1014,-6.40e-02,
1015,8.00e-02,
1016,-6.40e-02,
1017,9.60e-02,
1018,-8.40e-02,
1019,4.80e-02,
1020,9.60e-02,
1021,-5.20e-02,
1022,-7.60e-02,
1023,5.20e-02,
1024,8.00e-02,
1025,-7.20e-02,
1026,1.04e-01,
1027,-6.80e-02,
1028,7.20e-02,
1029,-1.00e-01,
1030,7.60e-02,
1031,-4.00e-02,
1032,1.28e-01,
1033,-8.80e-02,
1034,1.40e-01,
1035,-8.40e-02,
1036,1.16e-01,
1037,-1.04e-01,
1038,1.20e-01,
1039,-8.40e-02,
1040,-8.40e-02,
1041,4.40e-02,
1042,-7.20e-02,
1043,1.16e-01,
1044,9.60e-02,
1045,-5.60e-02,
1046,-1.00e-01,
1047,1.40e-01,
1048,-5.20e-02,
1049,1.00e-01,
1050,8.00e-02,
1051,-5.60e-02,
1052,-4.40e-02,
1053,9.20e-02,
1054,7.20e-02,
1055,-6.40e-02,
1056,-5.20e-02,
1057,1.36e-01,
1058,-9.60e-02,
1059,1.04e-01,
1060,5.20e-02,
1061,-9.60e-02,
1062,8.40e-02,
1063,-5.60e-02,
1064,-6.00e-02,
1065,4.40e-02,
1066,-5.20e-02,
1067,8.80e-02,
1068,-5.60e-02,
1069,9.60e-02,
1070,-8.40e-02,
1071,5.20e-02,
1072,-6.00e-02,
1073,8.80e-02,
1074,-8.00e-02,
1075,4.00e-02,
1076,-5.20e-02,
1077,3.60e-02,
1078,-4.40e-02,
1079,1.12e-01,
1080,-1.00e-01,
1081,8.40e-02,
1082,-1.00e-01,
1083,1.00e-01,
1084,-6.80e-02,
1085,1.48e-01,
1086,-1.12e-01,
1087,1.60e-01,
1088,1.32e-01,
1089,-8.40e-02,
1090,6.40e-02,
1091,-7.60e-02,
1092,-4.40e-02,
1093,8.80e-02,
1094,1.04e-01,
1095,-5.20e-02,
1096,-7.60e-02,
1097,1.32e-01,
1098,-9.20e-02,
1099,9.20e-02,
1100,9.20e-02,
1101,-6.00e-02,
1102,-6.40e-02,
1103,9.20e-02,
1104,-5.60e-02,
1105,7.60e-02,
1106,5.60e-02,
1107,-5.60e-02,
1108,8.40e-02,
1109,-5.60e-02,
1110,-6.00e-02,
1111,9.20e-02,
1112,-5.20e-02,
1113,6.80e-02,
1114,3.20e-02,
1115,-7.20e-02,
1116,-7.60e-02,
1117,1.32e-01,
1118,-9.60e-02,
1119,1.48e-01,
1120,-8.40e-02,
1121,1.12e-01,
1122,-6.80e-02,
1123,6.80e-02,
1124,-6.40e-02,
1125,9.20e-02,
1126,-7.60e-02,
1127,8.80e-02,
1128,-6.80e-02,
1129,6.80e-02,
1130,1.48e-01,
1131,-1.00e-01,
1132,-6.40e-02,
1133,8.40e-02,
1134,-8.80e-02,
1135,1.08e-01,
1136,-7.60e-02,
1137,1.16e-01,
1138,1.12e-01,
1139,-8.00e-02,
1140,-1.12e-01,
1141,7.60e-02,
1142,-9.20e-02,
1143,1.00e-01,
1144,-4.80e-02,
1145,9.20e-02,
1146,8.80e-02,
1147,-7.60e-02,
1148,8.80e-02,
1149,-7.60e-02,
1150,1.08e-01,
1151,-7.60e-02,
1152,8.80e-02,
1153,-6.40e-02,
1154,-6.00e-02,
1155,6.80e-02,
1156,-4.80e-02,
1157,7.60e-02,
1158,-6.00e-02,
1159,8.80e-02,
1160,1.24e-01,
1161,-7.60e-02,
1162,9.20e-02,
1163,-8.40e-02,
1164,-9.60e-02,
1165,1.28e-01,
1166,-1.04e-01,
1167,1.16e-01,
1168,-8.40e-02,
1169,8.40e-02,
1170,1.04e-01,
1171,-7.60e-02,
1172,8.40e-02,
1173,-5.60e-02,
1174,-7.20e-02,
1175,9.20e-02,
1176,-5.60e-02,
1177,1.28e-01,
1178,1.04e-01,
1179,-8.80e-02,
1180,7.20e-02,
1181,-6.80e-02,
1182,8.80e-02,
1183,-8.80e-02,
1184,1.16e-01,
1185,-7.60e-02,
1186,9.20e-02,
1187,-1.00e-01,
1188,8.40e-02,
1189,-6.00e-02,
1190,-6.80e-02,
1191,9.20e-02,
1192,9.60e-02,
1193,-6.40e-02,
1194,-5.20e-02,
1195,8.40e-02,
1196,8.40e-02,
1197,-5.20e-02,
1198,-9.20e-02,
1199,4.80e-02,
