Laptop_2/LAPTOP_CHRGR_2_ON_DISTANT/time domain/NewFile43.csv

X,CH1,Start,Increment,
Sequence,Volt,-1.500000e-01,2.000000e-04
0,1.24e-01,
1,-8.40e-02,
2,-8.00e-02,
3,6.00e-02,
4,-1.04e-01,
5,1.60e-01,
6,-1.00e-01,
7,1.04e-01,
8,1.04e-01,
9,-7.20e-02,
10,-8.00e-02,
11,7.60e-02,
12,9.20e-02,
13,-8.40e-02,
14,1.04e-01,
15,-1.20e-01,
16,-1.24e-01,
17,1.48e-01,
18,-1.36e-01,
19,1.56e-01,
20,-1.20e-01,
21,1.60e-01,
22,-4.80e-02,
23,1.32e-01,
24,1.20e-01,
25,-9.20e-02,
26,-1.04e-01,
27,1.76e-01,
28,9.60e-02,
29,-1.20e-01,
30,1.04e-01,
31,-1.08e-01,
32,1.32e-01,
33,-6.80e-02,
34,1.32e-01,
35,-5.60e-02,
36,-8.80e-02,
37,1.44e-01,
38,2.80e-02,
39,-1.08e-01,
40,1.36e-01,
41,-9.60e-02,
42,-4.40e-02,
43,1.36e-01,
44,1.36e-01,
45,-1.04e-01,
46,9.60e-02,
47,-7.60e-02,
48,1.44e-01,
49,-1.40e-01,
50,9.60e-02,
51,-1.00e-01,
52,-8.80e-02,
53,1.88e-01,
54,-1.32e-01,
55,1.80e-01,
56,1.56e-01,
57,-1.32e-01,
58,1.16e-01,
59,-1.16e-01,
60,-1.04e-01,
61,1.12e-01,
62,-9.20e-02,
63,1.16e-01,
64,-7.20e-02,
65,6.40e-02,
66,1.24e-01,
67,-8.00e-02,
68,-6.80e-02,
69,1.76e-01,
70,-8.40e-02,
71,1.16e-01,
72,-8.00e-02,
73,1.00e-01,
74,-1.00e-01,
75,1.12e-01,
76,-1.00e-01,
77,7.20e-02,
78,-3.60e-02,
79,6.00e-02,
80,1.48e-01,
81,-9.20e-02,
82,1.24e-01,
83,-9.60e-02,
84,9.20e-02,
85,-1.24e-01,
86,1.16e-01,
87,-9.20e-02,
88,-1.24e-01,
89,1.76e-01,
90,1.56e-01,
91,-8.80e-02,
92,-9.20e-02,
93,9.60e-02,
94,8.80e-02,
95,-8.40e-02,
96,-9.20e-02,
97,1.12e-01,
98,1.76e-01,
99,-1.32e-01,
100,1.12e-01,
101,-8.80e-02,
102,-1.48e-01,
103,8.80e-02,
104,1.76e-01,
105,-9.60e-02,
106,-1.00e-01,
107,1.24e-01,
108,8.00e-02,
109,-7.60e-02,
110,-8.40e-02,
111,5.60e-02,
112,-8.80e-02,
113,1.00e-01,
114,6.40e-02,
115,-7.60e-02,
116,1.12e-01,
117,-1.16e-01,
118,-7.60e-02,
119,1.08e-01,
120,-6.80e-02,
121,1.24e-01,
122,-8.80e-02,
123,1.24e-01,
124,9.20e-02,
125,-8.80e-02,
126,1.76e-01,
127,-1.32e-01,
128,1.08e-01,
129,-9.20e-02,
130,1.24e-01,
131,-1.12e-01,
132,-1.04e-01,
133,9.60e-02,
134,1.20e-01,
135,-1.04e-01,
136,-1.44e-01,
137,1.68e-01,
138,-1.24e-01,
139,1.84e-01,
140,1.92e-01,
141,-1.52e-01,
142,7.60e-02,
143,-1.44e-01,
144,1.20e-01,
145,-6.80e-02,
146,-1.00e-01,
147,1.36e-01,
148,8.80e-02,
149,-8.00e-02,
150,-6.00e-02,
151,1.32e-01,
152,1.48e-01,
153,-1.08e-01,
154,-8.00e-02,
155,1.00e-01,
156,1.04e-01,
157,-8.40e-02,
158,1.08e-01,
159,-7.60e-02,
160,-7.60e-02,
161,7.60e-02,
162,1.60e-01,
163,-7.60e-02,
164,-6.80e-02,
165,7.60e-02,
166,-7.60e-02,
167,9.60e-02,
168,-9.60e-02,
169,1.28e-01,
170,-7.60e-02,
171,1.60e-01,
172,7.20e-02,
173,-9.60e-02,
174,1.36e-01,
175,-9.60e-02,
176,8.40e-02,
177,-9.20e-02,
178,-1.16e-01,
179,1.36e-01,
180,1.60e-01,
181,-1.40e-01,
182,1.64e-01,
183,-6.00e-02,
184,1.92e-01,
185,-9.20e-02,
186,1.88e-01,
187,-1.32e-01,
188,1.20e-01,
189,-6.00e-02,
190,8.40e-02,
191,-7.60e-02,
192,-9.20e-02,
193,1.48e-01,
194,-6.80e-02,
195,1.32e-01,
196,-1.04e-01,
197,1.44e-01,
198,-7.60e-02,
199,1.20e-01,
200,-6.40e-02,
201,1.24e-01,
202,1.24e-01,
203,-6.80e-02,
204,-8.00e-02,
205,5.60e-02,
206,1.24e-01,
207,-9.20e-02,
208,9.60e-02,
209,-7.20e-02,
210,6.80e-02,
211,-8.80e-02,
212,1.20e-01,
213,-6.80e-02,
214,-9.60e-02,
215,9.60e-02,
216,-1.32e-01,
217,1.56e-01,
218,1.16e-01,
219,-1.08e-01,
220,1.88e-01,
221,-1.36e-01,
222,-1.04e-01,
223,1.68e-01,
224,-2.00e-02,
225,1.80e-01,
226,-1.04e-01,
227,1.48e-01,
228,8.80e-02,
229,-1.24e-01,
230,1.00e-01,
231,-1.16e-01,
232,-1.20e-01,
233,1.48e-01,
234,1.48e-01,
235,-5.60e-02,
236,2.00e-01,
237,-1.12e-01,
238,1.44e-01,
239,-5.60e-02,
240,-8.40e-02,
241,1.00e-01,
242,-1.00e-01,
243,5.60e-02,
244,-9.60e-02,
245,1.96e-01,
246,1.08e-01,
247,-1.32e-01,
248,-9.60e-02,
249,1.28e-01,
250,1.16e-01,
251,-8.00e-02,
252,7.60e-02,
253,-8.40e-02,
254,1.12e-01,
255,-1.24e-01,
256,-1.12e-01,
257,8.00e-02,
258,-1.20e-01,
259,1.56e-01,
260,1.72e-01,
261,-1.16e-01,
262,1.36e-01,
263,-1.00e-01,
264,1.32e-01,
265,-1.04e-01,
266,-7.60e-02,
267,1.16e-01,
268,1.52e-01,
269,-8.80e-02,
270,-1.12e-01,
271,1.36e-01,
272,1.00e-01,
273,-8.80e-02,
274,1.12e-01,
275,-8.80e-02,
276,1.40e-01,
277,-1.08e-01,
278,-5.60e-02,
279,1.00e-01,
280,1.80e-01,
281,-1.52e-01,
282,5.60e-02,
283,-6.80e-02,
284,1.56e-01,
285,-1.00e-01,
286,-1.12e-01,
287,1.08e-01,
288,1.36e-01,
289,-8.40e-02,
290,-7.60e-02,
291,1.84e-01,
292,-1.12e-01,
293,1.84e-01,
294,-1.32e-01,
295,1.28e-01,
296,1.52e-01,
297,-1.04e-01,
298,-8.80e-02,
299,1.04e-01,
300,1.04e-01,
301,-7.60e-02,
302,-7.20e-02,
303,1.28e-01,
304,8.80e-02,
305,-6.80e-02,
306,-7.20e-02,
307,1.48e-01,
308,1.80e-01,
309,-1.00e-01,
310,-8.80e-02,
311,1.16e-01,
312,-7.20e-02,
313,1.20e-01,
314,-7.60e-02,
315,9.20e-02,
316,1.28e-01,
317,-7.60e-02,
318,1.24e-01,
319,-1.40e-01,
320,1.68e-01,
321,-5.60e-02,
322,1.08e-01,
323,-5.60e-02,
324,-6.80e-02,
325,1.24e-01,
326,-1.04e-01,
327,1.08e-01,
328,-1.24e-01,
329,1.88e-01,
330,1.56e-01,
331,-1.00e-01,
332,-1.24e-01,
333,1.64e-01,
334,-1.20e-01,
335,1.52e-01,
336,1.40e-01,
337,-1.12e-01,
338,1.28e-01,
339,-1.32e-01,
340,-9.60e-02,
341,1.48e-01,
342,-9.60e-02,
343,1.16e-01,
344,1.08e-01,
345,-9.60e-02,
346,1.36e-01,
347,-8.80e-02,
348,-9.60e-02,
349,1.84e-01,
350,-1.32e-01,
351,1.00e-01,
352,1.40e-01,
353,-8.40e-02,
354,-1.00e-01,
355,1.12e-01,
356,-7.20e-02,
357,9.60e-02,
358,6.00e-02,
359,-6.80e-02,
360,-6.80e-02,
361,1.04e-01,
362,-8.80e-02,
363,1.84e-01,
364,-8.40e-02,
365,1.04e-01,
366,-8.80e-02,
367,9.20e-02,
368,9.60e-02,
369,-8.80e-02,
370,1.88e-01,
371,-1.40e-01,
372,1.64e-01,
373,-1.40e-01,
374,-8.00e-02,
375,1.68e-01,
376,1.44e-01,
377,-1.12e-01,
378,-7.20e-02,
379,1.20e-01,
380,-1.12e-01,
381,6.40e-02,
382,-1.16e-01,
383,1.12e-01,
384,1.76e-01,
385,-1.04e-01,
386,-1.36e-01,
387,1.76e-01,
388,1.84e-01,
389,-1.04e-01,
390,1.80e-01,
391,-9.60e-02,
392,7.20e-02,
393,-4.40e-02,
394,1.04e-01,
395,-6.80e-02,
396,-6.00e-02,
397,1.16e-01,
398,1.16e-01,
399,-6.80e-02,
400,1.20e-01,
401,-7.60e-02,
402,-1.44e-01,
403,1.92e-01,
404,-7.60e-02,
405,1.12e-01,
406,9.20e-02,
407,-8.80e-02,
408,-7.60e-02,
409,1.20e-01,
410,-7.20e-02,
411,1.16e-01,
412,-1.28e-01,
413,1.56e-01,
414,1.28e-01,
415,-8.40e-02,
416,8.40e-02,
417,-5.20e-02,
418,1.00e-01,
419,-8.80e-02,
420,1.24e-01,
421,-9.20e-02,
422,-1.00e-01,
423,1.24e-01,
424,-7.20e-02,
425,1.24e-01,
426,-7.20e-02,
427,1.56e-01,
428,1.60e-01,
429,-1.00e-01,
430,1.44e-01,
431,-7.20e-02,
432,-1.48e-01,
433,7.20e-02,
434,-9.20e-02,
435,1.84e-01,
436,-1.08e-01,
437,1.68e-01,
438,1.48e-01,
439,-8.00e-02,
440,-8.40e-02,
441,6.40e-02,
442,1.04e-01,
443,-9.60e-02,
444,-1.00e-01,
445,6.00e-02,
446,1.28e-01,
447,-9.60e-02,
448,1.76e-01,
449,-1.04e-01,
450,1.60e-01,
451,-1.36e-01,
452,-6.80e-02,
453,1.56e-01,
454,1.08e-01,
455,-7.60e-02,
456,-7.20e-02,
457,1.16e-01,
458,1.16e-01,
459,-7.20e-02,
460,8.40e-02,
461,-9.20e-02,
462,-6.40e-02,
463,1.48e-01,
464,7.60e-02,
465,-7.20e-02,
466,-9.60e-02,
467,9.20e-02,
468,-1.00e-01,
469,1.32e-01,
470,1.80e-01,
471,-1.40e-01,
472,-1.40e-01,
473,1.76e-01,
474,9.60e-02,
475,-1.00e-01,
476,6.40e-02,
477,-1.04e-01,
478,-7.20e-02,
479,9.20e-02,
480,1.56e-01,
481,-7.20e-02,
482,1.56e-01,
483,-1.00e-01,
484,1.44e-01,
485,-1.40e-01,
486,2.04e-01,
487,-1.44e-01,
488,1.16e-01,
489,-7.20e-02,
490,1.20e-01,
491,-8.40e-02,
492,1.16e-01,
493,-7.60e-02,
494,-7.60e-02,
495,1.56e-01,
496,-1.20e-01,
497,1.64e-01,
498,-7.60e-02,
499,8.00e-02,
500,-7.20e-02,
501,8.80e-02,
502,1.20e-01,
503,-6.40e-02,
504,1.04e-01,
505,-7.20e-02,
506,-1.12e-01,
507,1.64e-01,
508,-6.00e-02,
509,1.24e-01,
510,1.16e-01,
511,-7.60e-02,
512,-8.40e-02,
513,1.28e-01,
514,1.12e-01,
515,-1.00e-01,
516,-9.60e-02,
517,1.00e-01,
518,-1.20e-01,
519,1.52e-01,
520,-1.44e-01,
521,1.84e-01,
522,1.28e-01,
523,-8.80e-02,
524,-1.04e-01,
525,1.04e-01,
526,1.68e-01,
527,-1.48e-01,
528,-1.08e-01,
529,1.56e-01,
530,-1.40e-01,
531,7.60e-02,
532,7.20e-02,
533,-1.04e-01,
534,-1.04e-01,
535,1.28e-01,
536,1.20e-01,
537,-6.40e-02,
538,-9.20e-02,
539,1.32e-01,
540,-1.24e-01,
541,1.48e-01,
542,1.20e-01,
543,-8.40e-02,
544,-9.60e-02,
545,1.08e-01,
546,-8.00e-02,
547,8.00e-02,
548,1.04e-01,
549,-8.00e-02,
550,1.08e-01,
551,-7.60e-02,
552,1.12e-01,
553,-8.00e-02,
554,-9.20e-02,
555,1.76e-01,
556,-1.40e-01,
557,7.60e-02,
558,-1.00e-01,
559,1.32e-01,
560,1.16e-01,
561,-8.40e-02,
562,-8.00e-02,
563,1.24e-01,
564,1.32e-01,
565,-7.60e-02,
566,1.12e-01,
567,-8.40e-02,
568,1.92e-01,
569,-1.04e-01,
570,1.24e-01,
571,-1.08e-01,
572,1.00e-01,
573,-6.40e-02,
574,8.40e-02,
575,-8.80e-02,
576,-8.80e-02,
577,1.44e-01,
578,1.40e-01,
579,-1.16e-01,
580,-7.20e-02,
581,1.48e-01,
582,1.08e-01,
583,-1.04e-01,
584,-1.08e-01,
585,1.40e-01,
586,1.08e-01,
587,-1.04e-01,
588,-9.60e-02,
589,1.04e-01,
590,-1.12e-01,
591,6.00e-02,
592,7.60e-02,
593,-8.80e-02,
594,1.00e-01,
595,-9.60e-02,
596,-9.20e-02,
597,1.20e-01,
598,1.64e-01,
599,-6.40e-02,
600,-7.20e-02,
601,1.24e-01,
602,-1.24e-01,
603,1.04e-01,
604,1.36e-01,
605,-1.32e-01,
606,1.84e-01,
607,-9.60e-02,
608,9.60e-02,
609,-9.60e-02,
610,-7.60e-02,
611,1.24e-01,
612,-9.20e-02,
613,1.24e-01,
614,1.16e-01,
615,-8.40e-02,
616,1.16e-01,
617,-9.20e-02,
618,1.68e-01,
619,-1.28e-01,
620,-9.20e-02,
621,8.80e-02,
622,-9.60e-02,
623,1.40e-01,
624,1.12e-01,
625,-9.60e-02,
626,1.32e-01,
627,-8.40e-02,
628,1.56e-01,
629,-9.20e-02,
630,2.40e-02,
631,-1.12e-01,
632,-1.16e-01,
633,1.20e-01,
634,-1.16e-01,
635,1.32e-01,
636,1.08e-01,
637,-1.28e-01,
638,-1.48e-01,
639,1.68e-01,
640,1.80e-01,
641,-1.44e-01,
642,-1.32e-01,
643,1.20e-01,
644,9.60e-02,
645,-8.40e-02,
646,-8.80e-02,
647,1.20e-01,
648,1.08e-01,
649,-8.00e-02,
650,1.20e-01,
651,-8.80e-02,
652,1.20e-01,
653,-1.32e-01,
654,-7.20e-02,
655,1.16e-01,
656,-8.00e-02,
657,1.12e-01,
658,8.00e-02,
659,-8.40e-02,
660,1.08e-01,
661,-1.00e-01,
662,1.64e-01,
663,-9.60e-02,
664,-8.40e-02,
665,7.20e-02,
666,1.16e-01,
667,-7.20e-02,
668,-9.60e-02,
669,8.80e-02,
670,1.40e-01,
671,-1.08e-01,
672,-9.60e-02,
673,1.72e-01,
674,3.20e-02,
675,-8.40e-02,
676,1.36e-01,
677,-1.04e-01,
678,6.40e-02,
679,-8.40e-02,
680,-1.24e-01,
681,5.60e-02,
682,-1.12e-01,
683,1.84e-01,
684,-1.32e-01,
685,1.88e-01,
686,1.76e-01,
687,-1.12e-01,
688,7.60e-02,
689,-7.20e-02,
690,1.40e-01,
691,-8.80e-02,
692,-9.20e-02,
693,1.28e-01,
694,-7.60e-02,
695,1.12e-01,
696,-1.20e-01,
697,1.84e-01,
698,-1.20e-01,
699,1.76e-01,
700,-1.04e-01,
701,1.72e-01,
702,1.64e-01,
703,-8.00e-02,
704,-9.20e-02,
705,1.48e-01,
706,-9.60e-02,
707,1.44e-01,
708,-1.04e-01,
709,1.12e-01,
710,-1.32e-01,
711,1.72e-01,
712,-9.60e-02,
713,1.80e-01,
714,1.84e-01,
715,-1.08e-01,
716,1.04e-01,
717,-1.20e-01,
718,-7.20e-02,
719,1.24e-01,
720,1.84e-01,
721,-1.28e-01,
722,-1.40e-01,
723,1.96e-01,
724,1.20e-01,
725,-1.36e-01,
726,1.80e-01,
727,-7.60e-02,
728,1.12e-01,
729,-1.04e-01,
730,1.48e-01,
731,-1.04e-01,
732,1.16e-01,
733,-1.04e-01,
734,1.68e-01,
735,-1.28e-01,
736,-9.20e-02,
737,1.12e-01,
738,-9.20e-02,
739,1.16e-01,
740,1.24e-01,
741,-8.00e-02,
742,-8.00e-02,
743,1.08e-01,
744,1.08e-01,
745,-7.20e-02,
746,1.44e-01,
747,-7.20e-02,
748,1.00e-01,
749,-7.20e-02,
750,1.24e-01,
751,-8.80e-02,
752,-6.40e-02,
753,1.12e-01,
754,-6.80e-02,
755,1.44e-01,
756,7.20e-02,
757,-7.20e-02,
758,-8.40e-02,
759,1.28e-01,
760,1.36e-01,
761,-9.60e-02,
762,-9.60e-02,
763,8.40e-02,
764,-1.08e-01,
765,1.28e-01,
766,8.80e-02,
767,-1.24e-01,
768,1.56e-01,
769,-1.04e-01,
770,-9.20e-02,
771,1.04e-01,
772,1.24e-01,
773,-1.00e-01,
774,-8.40e-02,
775,1.08e-01,
776,-9.60e-02,
777,1.60e-01,
778,-1.12e-01,
779,9.20e-02,
780,1.52e-01,
781,-1.40e-01,
782,-1.28e-01,
783,7.20e-02,
784,-9.60e-02,
785,6.40e-02,
786,-8.00e-02,
787,1.20e-01,
788,-6.40e-02,
789,1.16e-01,
790,8.80e-02,
791,-8.80e-02,
792,1.68e-01,
793,-1.28e-01,
794,-1.08e-01,
795,1.16e-01,
796,1.16e-01,
797,-7.60e-02,
798,-9.60e-02,
799,1.60e-01,
800,-1.32e-01,
801,1.24e-01,
802,1.20e-01,
803,-1.08e-01,
804,1.56e-01,
805,-1.12e-01,
806,-1.44e-01,
807,1.56e-01,
808,-1.44e-01,
809,1.36e-01,
810,-8.00e-02,
811,1.32e-01,
812,-1.00e-01,
813,9.20e-02,
814,-8.40e-02,
815,1.08e-01,
816,1.24e-01,
817,-1.08e-01,
818,1.32e-01,
819,-8.80e-02,
820,1.40e-01,
821,-1.08e-01,
822,3.60e-02,
823,-8.00e-02,
824,1.12e-01,
825,-1.04e-01,
826,1.08e-01,
827,-6.80e-02,
828,1.16e-01,
829,-1.00e-01,
830,1.24e-01,
831,-7.20e-02,
832,1.28e-01,
833,-8.00e-02,
834,1.24e-01,
835,-8.40e-02,
836,-8.80e-02,
837,1.16e-01,
838,-9.20e-02,
839,1.04e-01,
840,1.12e-01,
841,-6.40e-02,
842,-8.00e-02,
843,1.12e-01,
844,1.12e-01,
845,-7.60e-02,
846,4.40e-02,
847,-6.80e-02,
848,-9.60e-02,
849,1.60e-01,
850,-8.00e-02,
851,1.36e-01,
852,-1.20e-01,
853,1.72e-01,
854,-1.16e-01,
855,1.08e-01,
856,-7.60e-02,
857,5.20e-02,
858,-5.20e-02,
859,1.16e-01,
860,1.28e-01,
861,-4.40e-02,
862,1.24e-01,
863,-5.60e-02,
864,-9.60e-02,
865,8.80e-02,
866,6.80e-02,
867,-1.00e-01,
868,1.12e-01,
869,-8.00e-02,
870,-1.28e-01,
871,1.52e-01,
872,1.80e-01,
873,-1.00e-01,
874,1.40e-01,
875,-7.20e-02,
876,-1.08e-01,
877,7.20e-02,
878,-1.12e-01,
879,4.80e-02,
880,1.36e-01,
881,-1.04e-01,
882,1.32e-01,
883,-1.00e-01,
884,-1.00e-01,
885,1.32e-01,
886,1.32e-01,
887,-8.80e-02,
888,-1.40e-01,
889,1.84e-01,
890,1.84e-01,
891,-1.28e-01,
892,1.72e-01,
893,-1.36e-01,
894,-7.20e-02,
895,7.20e-02,
896,-6.40e-02,
897,1.12e-01,
898,1.00e-01,
899,-8.00e-02,
900,7.20e-02,
901,-8.00e-02,
902,-6.80e-02,
903,1.60e-01,
904,1.16e-01,
905,-5.60e-02,
906,8.00e-02,
907,-7.20e-02,
908,1.16e-01,
909,-5.60e-02,
910,-8.40e-02,
911,1.08e-01,
912,1.64e-01,
913,-1.20e-01,
914,1.40e-01,
915,-1.00e-01,
916,1.48e-01,
917,-1.04e-01,
918,1.36e-01,
919,-1.20e-01,
920,-1.12e-01,
921,1.52e-01,
922,1.52e-01,
923,-1.12e-01,
924,1.20e-01,
925,-9.60e-02,
926,-9.60e-02,
927,6.80e-02,
928,-6.80e-02,
929,1.20e-01,
930,-9.60e-02,
931,1.20e-01,
932,-1.16e-01,
933,1.20e-01,
934,8.00e-02,
935,-1.04e-01,
936,-1.36e-01,
937,1.88e-01,
938,-1.12e-01,
939,1.24e-01,
940,1.32e-01,
941,-8.80e-02,
942,-9.20e-02,
943,1.20e-01,
944,-8.80e-02,
945,1.28e-01,
946,-1.20e-01,
947,1.44e-01,
948,-1.28e-01,
949,1.72e-01,
950,7.20e-02,
951,-8.00e-02,
952,-1.20e-01,
953,1.40e-01,
954,-8.40e-02,
955,1.04e-01,
956,1.24e-01,
957,-5.20e-02,
958,-7.60e-02,
959,1.32e-01,
960,-1.00e-01,
961,8.00e-02,
962,-1.00e-01,
963,1.52e-01,
964,1.36e-01,
965,-8.00e-02,
966,1.44e-01,
967,-1.16e-01,
968,-1.04e-01,
969,1.36e-01,
970,1.80e-01,
971,-1.48e-01,
972,-1.32e-01,
973,1.52e-01,
974,1.52e-01,
975,-1.52e-01,
976,-1.08e-01,
977,1.20e-01,
978,1.32e-01,
979,-4.40e-02,
980,9.60e-02,
981,-9.20e-02,
982,8.40e-02,
983,-7.60e-02,
984,-8.80e-02,
985,1.32e-01,
986,1.28e-01,
987,-7.20e-02,
988,1.12e-01,
989,-8.00e-02,
990,1.16e-01,
991,-9.20e-02,
992,-1.40e-01,
993,1.68e-01,
994,-9.20e-02,
995,1.40e-01,
996,-1.08e-01,
997,1.12e-01,
998,7.60e-02,
999,-8.80e-02,
1000,-7.60e-02,
1001,1.12e-01,
1002,-9.20e-02,
1003,5.20e-02,
1004,-7.20e-02,
1005,1.48e-01,
1006,-1.36e-01,
1007,1.72e-01,
1008,1.28e-01,
1009,-7.60e-02,
1010,1.28e-01,
1011,-6.40e-02,
1012,9.60e-02,
1013,-8.00e-02,
1014,-4.80e-02,
1015,1.96e-01,
1016,1.76e-01,
1017,-1.04e-01,
1018,1.36e-01,
1019,-1.40e-01,
1020,1.44e-01,
1021,-1.20e-01,
1022,-1.08e-01,
1023,1.20e-01,
1024,1.36e-01,
1025,-7.60e-02,
1026,-8.00e-02,
1027,1.44e-01,
1028,1.44e-01,
1029,-1.44e-01,
1030,1.72e-01,
1031,-1.08e-01,
1032,1.04e-01,
1033,-5.60e-02,
1034,-1.04e-01,
1035,8.00e-02,
1036,-8.00e-02,
1037,1.20e-01,
1038,1.16e-01,
1039,-9.60e-02,
1040,-1.28e-01,
1041,1.28e-01,
1042,1.00e-01,
1043,-7.60e-02,
1044,1.08e-01,
1045,-7.20e-02,
1046,-6.80e-02,
1047,1.04e-01,
1048,-8.40e-02,
1049,1.04e-01,
1050,8.00e-02,
1051,-1.40e-01,
1052,-8.40e-02,
1053,1.32e-01,
1054,-1.36e-01,
1055,1.84e-01,
1056,1.60e-01,
1057,-8.00e-02,
1058,-1.44e-01,
1059,1.52e-01,
1060,1.12e-01,
1061,-9.20e-02,
1062,-7.60e-02,
1063,1.16e-01,
1064,-8.00e-02,
1065,1.00e-01,
1066,-9.60e-02,
1067,1.56e-01,
1068,-1.32e-01,
1069,1.76e-01,
1070,-1.12e-01,
1071,1.24e-01,
1072,-9.60e-02,
1073,1.12e-01,
1074,-1.08e-01,
1075,2.40e-02,
1076,8.00e-02,
1077,-4.80e-02,
1078,1.60e-01,
1079,-1.32e-01,
1080,-8.00e-02,
1081,1.24e-01,
1082,1.28e-01,
1083,-6.40e-02,
1084,-9.60e-02,
1085,1.16e-01,
1086,-8.40e-02,
1087,1.20e-01,
1088,1.32e-01,
1089,-1.28e-01,
1090,-6.80e-02,
1091,5.20e-02,
1092,-8.40e-02,
1093,1.12e-01,
1094,-7.60e-02,
1095,5.20e-02,
1096,1.24e-01,
1097,-6.40e-02,
1098,-1.40e-01,
1099,1.52e-01,
1100,-8.80e-02,
1101,9.20e-02,
1102,-4.00e-02,
1103,5.60e-02,
1104,9.20e-02,
1105,-1.32e-01,
1106,-1.40e-01,
1107,1.84e-01,
1108,1.08e-01,
1109,-1.12e-01,
1110,-7.60e-02,
1111,1.12e-01,
1112,-7.60e-02,
1113,6.40e-02,
1114,-1.08e-01,
1115,1.44e-01,
1116,1.12e-01,
1117,-1.04e-01,
1118,1.44e-01,
1119,-1.40e-01,
1120,-8.80e-02,
1121,1.40e-01,
1122,9.60e-02,
1123,-8.80e-02,
1124,-7.60e-02,
1125,1.44e-01,
1126,-1.12e-01,
1127,8.40e-02,
1128,1.28e-01,
1129,-1.44e-01,
1130,1.20e-01,
1131,-8.00e-02,
1132,1.28e-01,
1133,-4.80e-02,
1134,-7.20e-02,
1135,9.20e-02,
1136,-1.20e-01,
1137,1.32e-01,
1138,-1.12e-01,
1139,1.72e-01,
1140,-1.44e-01,
1141,1.56e-01,
1142,-7.20e-02,
1143,9.20e-02,
1144,1.16e-01,
1145,-7.60e-02,
1146,-4.00e-02,
1147,1.12e-01,
1148,-7.20e-02,
1149,1.20e-01,
1150,-8.00e-02,
1151,1.12e-01,
1152,-1.12e-01,
1153,6.80e-02,
1154,-8.00e-02,
1155,9.20e-02,
1156,5.60e-02,
1157,-8.00e-02,
1158,1.36e-01,
1159,-6.00e-02,
1160,1.68e-01,
1161,-9.60e-02,
1162,1.72e-01,
1163,-1.44e-01,
1164,-1.00e-01,
1165,1.24e-01,
1166,-1.08e-01,
1167,1.52e-01,
1168,1.60e-01,
1169,-4.80e-02,
1170,-1.04e-01,
1171,1.40e-01,
1172,-1.40e-01,
1173,1.84e-01,
1174,1.04e-01,
1175,-9.20e-02,
1176,-1.16e-01,
1177,1.20e-01,
1178,9.20e-02,
1179,-1.04e-01,
1180,4.80e-02,
1181,-1.20e-01,
1182,6.80e-02,
1183,-7.60e-02,
1184,1.76e-01,
1185,-7.20e-02,
1186,1.80e-01,
1187,-1.04e-01,
1188,5.60e-02,
1189,-7.60e-02,
1190,1.00e-01,
1191,-7.60e-02,
1192,-7.20e-02,
1193,1.08e-01,
1194,1.16e-01,
1195,-8.40e-02,
1196,1.12e-01,
1197,-1.32e-01,
1198,-8.00e-02,
1199,8.80e-02,
