Laptop_2/LAPTOP_CHRGR_2_ON_DISTANT/time domain/NewFile9.csv

X,CH1,Start,Increment,
Sequence,Volt,-1.500000e-01,2.000000e-04
0,1.36e-01,
1,-1.52e-01,
2,1.32e-01,
3,-1.32e-01,
4,-1.56e-01,
5,1.44e-01,
6,1.40e-01,
7,-1.28e-01,
8,-1.48e-01,
9,1.40e-01,
10,-1.04e-01,
11,1.20e-01,
12,1.24e-01,
13,-1.16e-01,
14,1.24e-01,
15,-1.28e-01,
16,1.08e-01,
17,-1.36e-01,
18,1.28e-01,
19,-1.52e-01,
20,-1.40e-01,
21,1.00e-01,
22,-1.40e-01,
23,1.40e-01,
24,1.28e-01,
25,-8.00e-03,
26,1.32e-01,
27,-1.44e-01,
28,-1.16e-01,
29,5.20e-02,
30,-3.20e-02,
31,7.20e-02,
32,-1.12e-01,
33,9.20e-02,
34,-1.40e-01,
35,1.40e-01,
36,-1.60e-02,
37,1.32e-01,
38,-4.00e-02,
39,1.32e-01,
40,1.36e-01,
41,-1.12e-01,
42,-1.48e-01,
43,1.32e-01,
44,-1.24e-01,
45,1.24e-01,
46,-1.40e-01,
47,1.20e-01,
48,1.24e-01,
49,-1.60e-01,
50,1.00e-01,
51,-1.56e-01,
52,1.44e-01,
53,-1.36e-01,
54,-1.52e-01,
55,1.24e-01,
56,-1.12e-01,
57,1.20e-01,
58,-1.16e-01,
59,1.20e-01,
60,1.16e-01,
61,-1.24e-01,
62,1.24e-01,
63,-1.48e-01,
64,-3.20e-02,
65,1.32e-01,
66,-1.52e-01,
67,1.44e-01,
68,1.40e-01,
69,-4.40e-02,
70,1.28e-01,
71,-1.36e-01,
72,-1.48e-01,
73,1.28e-01,
74,-6.00e-02,
75,1.28e-01,
76,1.32e-01,
77,-1.32e-01,
78,-4.80e-02,
79,8.40e-02,
80,1.36e-01,
81,-1.48e-01,
82,-1.20e-01,
83,1.52e-01,
84,-1.48e-01,
85,1.40e-01,
86,1.52e-01,
87,-1.60e-01,
88,-1.36e-01,
89,1.40e-01,
90,-1.56e-01,
91,1.48e-01,
92,1.44e-01,
93,-1.60e-01,
94,-1.40e-01,
95,1.28e-01,
96,-1.20e-01,
97,1.36e-01,
98,1.20e-01,
99,-1.40e-01,
100,-1.36e-01,
101,1.24e-01,
102,-1.64e-01,
103,1.40e-01,
104,1.24e-01,
105,-9.20e-02,
106,1.20e-01,
107,-1.20e-01,
108,-1.28e-01,
109,1.28e-01,
110,-1.08e-01,
111,1.24e-01,
112,-9.60e-02,
113,2.80e-02,
114,1.24e-01,
115,-1.36e-01,
116,1.28e-01,
117,-1.12e-01,
118,1.32e-01,
119,-4.40e-02,
120,1.28e-01,
121,-1.44e-01,
122,-1.48e-01,
123,1.40e-01,
124,1.24e-01,
125,-1.48e-01,
126,-1.52e-01,
127,1.44e-01,
128,1.32e-01,
129,-1.44e-01,
130,1.36e-01,
131,-1.48e-01,
132,-1.56e-01,
133,1.48e-01,
134,-1.44e-01,
135,1.44e-01,
136,-1.60e-01,
137,1.28e-01,
138,5.60e-02,
139,-1.44e-01,
140,1.28e-01,
141,-1.40e-01,
142,1.16e-01,
143,-1.44e-01,
144,1.48e-01,
145,-1.12e-01,
146,1.08e-01,
147,-1.24e-01,
148,1.28e-01,
149,-1.36e-01,
150,1.20e-01,
151,-1.36e-01,
152,-3.60e-02,
153,1.20e-01,
154,9.60e-02,
155,-1.08e-01,
156,-1.16e-01,
157,1.44e-01,
158,1.32e-01,
159,-6.40e-02,
160,1.24e-01,
161,-1.08e-01,
162,1.20e-01,
163,-1.12e-01,
164,1.28e-01,
165,-1.44e-01,
166,1.44e-01,
167,-1.60e-01,
168,1.40e-01,
169,-1.36e-01,
170,-1.60e-01,
171,1.44e-01,
172,1.44e-01,
173,-1.52e-01,
174,-1.60e-01,
175,1.48e-01,
176,1.40e-01,
177,-1.28e-01,
178,1.40e-01,
179,-1.08e-01,
180,1.40e-01,
181,-4.40e-02,
182,-1.60e-01,
183,1.32e-01,
184,-2.40e-02,
185,1.32e-01,
186,1.48e-01,
187,-5.20e-02,
188,1.36e-01,
189,-1.28e-01,
190,1.16e-01,
191,-1.24e-01,
192,-1.36e-01,
193,4.80e-02,
194,-1.40e-01,
195,1.28e-01,
196,-1.16e-01,
197,1.44e-01,
198,1.24e-01,
199,-1.36e-01,
200,1.20e-01,
201,-1.20e-01,
202,1.28e-01,
203,-1.28e-01,
204,1.24e-01,
205,-1.28e-01,
206,-9.60e-02,
207,1.44e-01,
208,1.48e-01,
209,-1.56e-01,
210,-6.40e-02,
211,1.48e-01,
212,1.44e-01,
213,-1.52e-01,
214,-8.80e-02,
215,1.12e-01,
216,-1.40e-01,
217,1.28e-01,
218,-1.68e-01,
219,1.36e-01,
220,1.32e-01,
221,-1.36e-01,
222,-1.48e-01,
223,1.48e-01,
224,-1.64e-01,
225,1.16e-01,
226,-1.04e-01,
227,1.56e-01,
228,1.36e-01,
229,-6.00e-02,
230,-1.08e-01,
231,1.32e-01,
232,1.36e-01,
233,-1.48e-01,
234,1.40e-01,
235,-1.48e-01,
236,-1.04e-01,
237,1.36e-01,
238,1.32e-01,
239,-1.36e-01,
240,1.32e-01,
241,-1.24e-01,
242,1.36e-01,
243,-1.40e-01,
244,1.24e-01,
245,-1.40e-01,
246,1.40e-01,
247,-1.60e-01,
248,1.20e-01,
249,-1.16e-01,
250,1.12e-01,
251,-1.08e-01,
252,1.36e-01,
253,-1.28e-01,
254,1.40e-01,
255,-1.32e-01,
256,-1.52e-01,
257,1.36e-01,
258,1.28e-01,
259,-1.12e-01,
260,-1.28e-01,
261,1.20e-01,
262,-1.36e-01,
263,1.28e-01,
264,1.24e-01,
265,-1.48e-01,
266,1.00e-01,
267,-9.20e-02,
268,-1.24e-01,
269,1.44e-01,
270,1.16e-01,
271,-1.20e-01,
272,1.36e-01,
273,-4.00e-02,
274,8.00e-02,
275,-1.12e-01,
276,2.00e-02,
277,-4.40e-02,
278,1.44e-01,
279,-1.20e-01,
280,1.32e-01,
281,-1.28e-01,
282,1.32e-01,
283,-1.32e-01,
284,1.32e-01,
285,-1.48e-01,
286,-1.48e-01,
287,1.28e-01,
288,-1.12e-01,
289,1.44e-01,
290,-1.36e-01,
291,1.32e-01,
292,1.24e-01,
293,-1.40e-01,
294,-1.20e-01,
295,1.32e-01,
296,1.08e-01,
297,-1.36e-01,
298,1.40e-01,
299,-1.28e-01,
300,1.40e-01,
301,-1.52e-01,
302,-1.60e-01,
303,1.48e-01,
304,1.12e-01,
305,-1.20e-01,
306,-1.12e-01,
307,1.08e-01,
308,-1.36e-01,
309,1.20e-01,
310,-2.80e-02,
311,1.20e-01,
312,-3.20e-02,
313,1.28e-01,
314,5.20e-02,
315,-1.16e-01,
316,-1.40e-01,
317,9.20e-02,
318,-1.40e-01,
319,1.28e-01,
320,1.40e-01,
321,-1.24e-01,
322,-1.32e-01,
323,1.48e-01,
324,1.48e-01,
325,-1.52e-01,
326,-1.56e-01,
327,1.44e-01,
328,1.36e-01,
329,-1.40e-01,
330,-1.52e-01,
331,1.40e-01,
332,1.40e-01,
333,-1.60e-01,
334,1.40e-01,
335,-1.52e-01,
336,-1.56e-01,
337,1.40e-01,
338,-1.52e-01,
339,1.00e-01,
340,-1.60e-01,
341,1.44e-01,
342,9.20e-02,
343,-9.20e-02,
344,-1.48e-01,
345,9.60e-02,
346,-1.16e-01,
347,1.16e-01,
348,-1.32e-01,
349,1.24e-01,
350,1.28e-01,
351,-3.20e-02,
352,1.12e-01,
353,-8.80e-02,
354,-3.20e-02,
355,1.40e-01,
356,-1.08e-01,
357,1.24e-01,
358,1.28e-01,
359,-1.16e-01,
360,-1.44e-01,
361,1.28e-01,
362,1.32e-01,
363,-1.36e-01,
364,1.44e-01,
365,-1.04e-01,
366,-1.52e-01,
367,1.24e-01,
368,1.44e-01,
369,-1.16e-01,
370,-1.20e-01,
371,1.32e-01,
372,1.44e-01,
373,-1.40e-01,
374,-1.32e-01,
375,1.48e-01,
376,-1.48e-01,
377,1.32e-01,
378,-1.36e-01,
379,1.36e-01,
380,-1.16e-01,
381,1.28e-01,
382,1.28e-01,
383,-1.16e-01,
384,-1.12e-01,
385,1.36e-01,
386,-1.20e-01,
387,1.36e-01,
388,7.20e-02,
389,-6.40e-02,
390,-1.32e-01,
391,1.32e-01,
392,-1.32e-01,
393,1.28e-01,
394,1.08e-01,
395,-1.00e-01,
396,1.40e-01,
397,-4.40e-02,
398,-1.48e-01,
399,6.80e-02,
400,-1.16e-01,
401,1.16e-01,
402,1.20e-01,
403,-1.28e-01,
404,-1.08e-01,
405,1.28e-01,
406,-1.24e-01,
407,1.36e-01,
408,1.36e-01,
409,-1.20e-01,
410,1.24e-01,
411,-1.48e-01,
412,1.44e-01,
413,-9.60e-02,
414,1.48e-01,
415,-1.60e-01,
416,-1.60e-01,
417,1.52e-01,
418,-1.60e-01,
419,1.44e-01,
420,1.44e-01,
421,-1.56e-01,
422,1.40e-01,
423,-1.52e-01,
424,1.44e-01,
425,-1.40e-01,
426,-3.60e-02,
427,1.56e-01,
428,4.80e-02,
429,-6.80e-02,
430,1.32e-01,
431,-1.20e-01,
432,-4.00e-02,
433,1.44e-01,
434,-6.80e-02,
435,3.20e-02,
436,-2.00e-02,
437,1.48e-01,
438,-9.20e-02,
439,1.32e-01,
440,1.44e-01,
441,-1.36e-01,
442,-1.56e-01,
443,1.36e-01,
444,1.44e-01,
445,-1.32e-01,
446,1.44e-01,
447,-1.60e-01,
448,1.36e-01,
449,-5.20e-02,
450,1.24e-01,
451,-1.40e-01,
452,1.28e-01,
453,-1.24e-01,
454,-1.48e-01,
455,1.12e-01,
456,-1.48e-01,
457,1.40e-01,
458,-1.28e-01,
459,1.32e-01,
460,1.28e-01,
461,-1.52e-01,
462,1.32e-01,
463,-5.60e-02,
464,-1.52e-01,
465,1.40e-01,
466,-2.00e-02,
467,1.44e-01,
468,1.20e-01,
469,-1.24e-01,
470,-8.80e-02,
471,1.40e-01,
472,1.36e-01,
473,-1.12e-01,
474,-1.20e-01,
475,1.32e-01,
476,1.36e-01,
477,-1.08e-01,
478,1.16e-01,
479,-1.44e-01,
480,-1.36e-01,
481,1.36e-01,
482,1.28e-01,
483,-1.12e-01,
484,1.28e-01,
485,-1.32e-01,
486,-1.36e-01,
487,1.20e-01,
488,-1.12e-01,
489,1.48e-01,
490,1.48e-01,
491,-1.36e-01,
492,-1.44e-01,
493,1.40e-01,
494,1.24e-01,
495,-1.36e-01,
496,-1.08e-01,
497,1.24e-01,
498,-1.28e-01,
499,9.60e-02,
500,1.32e-01,
501,-8.00e-02,
502,-1.32e-01,
503,1.32e-01,
504,1.44e-01,
505,-6.00e-02,
506,-2.40e-02,
507,1.40e-01,
508,1.52e-01,
509,-3.60e-02,
510,-7.20e-02,
511,1.20e-01,
512,-1.48e-01,
513,5.60e-02,
514,1.24e-01,
515,-2.80e-02,
516,-7.20e-02,
517,1.32e-01,
518,1.32e-01,
519,-8.00e-02,
520,1.28e-01,
521,-1.52e-01,
522,1.40e-01,
523,-1.40e-01,
524,1.40e-01,
525,-5.60e-02,
526,1.32e-01,
527,-1.48e-01,
528,-1.12e-01,
529,1.48e-01,
530,1.32e-01,
531,-1.40e-01,
532,-1.44e-01,
533,1.36e-01,
534,1.24e-01,
535,-1.44e-01,
536,-9.20e-02,
537,1.24e-01,
538,-1.36e-01,
539,1.32e-01,
540,-1.36e-01,
541,1.20e-01,
542,-9.60e-02,
543,1.24e-01,
544,-8.00e-02,
545,1.20e-01,
546,7.20e-02,
547,-1.28e-01,
548,-3.20e-02,
549,1.32e-01,
550,-8.80e-02,
551,1.24e-01,
552,2.00e-02,
553,-1.64e-01,
554,1.36e-01,
555,-3.60e-02,
556,-1.00e-01,
557,1.28e-01,
558,1.40e-01,
559,-1.16e-01,
560,-9.60e-02,
561,1.32e-01,
562,-1.60e-01,
563,1.52e-01,
564,-1.52e-01,
565,1.48e-01,
566,1.60e-01,
567,-1.40e-01,
568,1.44e-01,
569,-1.64e-01,
570,1.44e-01,
571,-1.40e-01,
572,1.44e-01,
573,-1.32e-01,
574,1.36e-01,
575,-1.48e-01,
576,1.32e-01,
577,-1.36e-01,
578,-1.36e-01,
579,1.28e-01,
580,-1.56e-01,
581,1.40e-01,
582,1.40e-01,
583,-1.28e-01,
584,-8.40e-02,
585,1.12e-01,
586,-1.40e-01,
587,1.36e-01,
588,1.12e-01,
589,-1.20e-02,
590,-4.40e-02,
591,1.40e-01,
592,-1.20e-01,
593,1.44e-01,
594,1.20e-01,
595,-1.32e-01,
596,1.28e-01,
597,-1.44e-01,
598,-1.28e-01,
599,1.20e-01,
600,-1.40e-01,
601,1.36e-01,
602,1.40e-01,
603,-1.40e-01,
604,-1.16e-01,
605,1.28e-01,
606,-1.40e-01,
607,1.04e-01,
608,1.32e-01,
609,-1.16e-01,
610,-1.24e-01,
611,1.36e-01,
612,1.44e-01,
613,-8.00e-02,
614,-1.24e-01,
615,1.28e-01,
616,1.44e-01,
617,-1.12e-01,
618,1.08e-01,
619,-1.36e-01,
620,1.28e-01,
621,-1.44e-01,
622,-9.60e-02,
623,1.44e-01,
624,1.16e-01,
625,-1.40e-01,
626,-6.00e-02,
627,1.24e-01,
628,1.32e-01,
629,-1.16e-01,
630,-1.48e-01,
631,4.40e-02,
632,-4.80e-02,
633,1.28e-01,
634,-4.80e-02,
635,1.44e-01,
636,-4.40e-02,
637,8.40e-02,
638,-1.40e-01,
639,1.12e-01,
640,-4.80e-02,
641,1.20e-01,
642,-1.32e-01,
643,1.20e-01,
644,-1.24e-01,
645,1.52e-01,
646,-1.40e-01,
647,1.28e-01,
648,-1.52e-01,
649,1.44e-01,
650,1.36e-01,
651,-1.40e-01,
652,-1.40e-01,
653,1.36e-01,
654,1.28e-01,
655,-1.48e-01,
656,1.32e-01,
657,-1.32e-01,
658,1.40e-01,
659,-1.28e-01,
660,-1.60e-01,
661,1.28e-01,
662,1.52e-01,
663,-2.80e-02,
664,-1.20e-01,
665,1.28e-01,
666,1.32e-01,
667,-1.28e-01,
668,-1.08e-01,
669,1.36e-01,
670,1.40e-01,
671,-1.24e-01,
672,-2.00e-02,
673,1.32e-01,
674,1.28e-01,
675,-1.32e-01,
676,1.44e-01,
677,-1.56e-01,
678,1.24e-01,
679,-2.40e-02,
680,-1.36e-01,
681,1.28e-01,
682,1.12e-01,
683,-1.36e-01,
684,1.28e-01,
685,-1.36e-01,
686,-1.40e-01,
687,1.36e-01,
688,-1.24e-01,
689,1.12e-01,
690,1.12e-01,
691,-1.24e-01,
692,1.16e-01,
693,-1.36e-01,
694,1.40e-01,
695,-1.32e-01,
696,1.40e-01,
697,-1.60e-01,
698,1.28e-01,
699,-1.36e-01,
700,-1.28e-01,
701,1.36e-01,
702,-1.40e-01,
703,1.24e-01,
704,9.60e-02,
705,-1.36e-01,
706,-1.40e-01,
707,1.12e-01,
708,1.16e-01,
709,-1.48e-01,
710,-1.16e-01,
711,1.44e-01,
712,1.32e-01,
713,-8.00e-02,
714,-1.20e-01,
715,1.24e-01,
716,1.40e-01,
717,-1.28e-01,
718,1.36e-01,
719,-1.52e-01,
720,-1.64e-01,
721,1.32e-01,
722,-1.32e-01,
723,1.36e-01,
724,-1.20e-01,
725,1.36e-01,
726,-1.52e-01,
727,1.44e-01,
728,-1.60e-01,
729,1.40e-01,
730,1.04e-01,
731,-1.60e-01,
732,-1.00e-01,
733,1.28e-01,
734,-1.12e-01,
735,1.24e-01,
736,-1.32e-01,
737,1.20e-01,
738,1.20e-01,
739,-1.28e-01,
740,1.20e-01,
741,-1.24e-01,
742,-1.36e-01,
743,1.16e-01,
744,-1.08e-01,
745,1.24e-01,
746,-1.00e-01,
747,1.32e-01,
748,1.24e-01,
749,-1.60e-02,
750,-7.60e-02,
751,1.44e-01,
752,-1.36e-01,
753,1.16e-01,
754,-1.32e-01,
755,1.40e-01,
756,-5.60e-02,
757,1.36e-01,
758,1.16e-01,
759,-1.56e-01,
760,1.40e-01,
761,-1.52e-01,
762,-1.52e-01,
763,1.44e-01,
764,1.36e-01,
765,-1.12e-01,
766,1.32e-01,
767,-1.28e-01,
768,1.48e-01,
769,-1.56e-01,
770,8.00e-02,
771,-1.44e-01,
772,1.44e-01,
773,-1.20e-01,
774,1.28e-01,
775,-1.12e-01,
776,1.20e-01,
777,-1.24e-01,
778,1.36e-01,
779,-1.60e-01,
780,1.44e-01,
781,-1.32e-01,
782,-1.04e-01,
783,1.20e-01,
784,-1.40e-01,
785,1.24e-01,
786,-9.20e-02,
787,1.24e-01,
788,-1.20e-01,
789,1.32e-01,
790,-3.60e-02,
791,1.20e-01,
792,-4.80e-02,
793,1.28e-01,
794,1.24e-01,
795,-9.60e-02,
796,-1.28e-01,
797,1.28e-01,
798,-8.80e-02,
799,1.20e-01,
800,-1.48e-01,
801,1.36e-01,
802,-4.80e-02,
803,1.48e-01,
804,1.48e-01,
805,-1.52e-01,
806,1.48e-01,
807,-1.32e-01,
808,1.32e-01,
809,-1.52e-01,
810,-1.48e-01,
811,1.28e-01,
812,1.16e-01,
813,-1.56e-01,
814,1.36e-01,
815,-1.36e-01,
816,1.52e-01,
817,-1.52e-01,
818,-1.08e-01,
819,1.36e-01,
820,-1.40e-01,
821,1.32e-01,
822,-1.12e-01,
823,1.28e-01,
824,-1.36e-01,
825,1.32e-01,
826,-1.28e-01,
827,1.32e-01,
828,1.40e-01,
829,-1.28e-01,
830,-1.36e-01,
831,1.24e-01,
832,-1.12e-01,
833,1.20e-01,
834,-1.12e-01,
835,1.44e-01,
836,-1.28e-01,
837,1.48e-01,
838,1.36e-01,
839,-1.28e-01,
840,5.20e-02,
841,-1.52e-01,
842,1.20e-01,
843,-1.20e-01,
844,1.40e-01,
845,-1.56e-01,
846,-1.48e-01,
847,1.16e-01,
848,-1.20e-01,
849,1.28e-01,
850,1.32e-01,
851,-1.20e-01,
852,-1.20e-01,
853,1.32e-01,
854,-1.40e-01,
855,1.44e-01,
856,-1.36e-01,
857,1.16e-01,
858,1.40e-01,
859,-1.44e-01,
860,-1.56e-01,
861,1.32e-01,
862,1.20e-01,
863,-1.44e-01,
864,9.60e-02,
865,-1.40e-01,
866,-8.40e-02,
867,1.20e-01,
868,1.08e-01,
869,-1.40e-01,
870,-1.44e-01,
871,1.32e-01,
872,-4.00e-02,
873,1.24e-01,
874,5.20e-02,
875,-1.44e-01,
876,1.40e-01,
877,-1.20e-01,
878,-1.36e-01,
879,1.20e-01,
880,1.28e-01,
881,-1.32e-01,
882,-1.28e-01,
883,1.20e-01,
884,1.20e-01,
885,-1.24e-01,
886,1.32e-01,
887,-1.44e-01,
888,1.20e-01,
889,-1.00e-01,
890,1.12e-01,
891,-1.28e-01,
892,-1.16e-01,
893,9.20e-02,
894,-1.32e-01,
895,8.80e-02,
896,1.44e-01,
897,-1.56e-01,
898,1.28e-01,
899,-1.28e-01,
900,1.12e-01,
901,-1.28e-01,
902,1.36e-01,
903,-1.36e-01,
904,-1.40e-01,
905,1.48e-01,
906,-1.32e-01,
907,1.40e-01,
908,1.28e-01,
909,-1.32e-01,
910,1.36e-01,
911,-8.40e-02,
912,-1.44e-01,
913,1.48e-01,
914,-1.60e-01,
915,8.40e-02,
916,1.32e-01,
917,-7.60e-02,
918,-1.60e-01,
919,1.36e-01,
920,1.44e-01,
921,-1.52e-01,
922,1.44e-01,
923,-1.52e-01,
924,-1.60e-01,
925,1.44e-01,
926,1.48e-01,
927,-1.56e-01,
928,1.36e-01,
929,-1.56e-01,
930,1.40e-01,
931,-1.28e-01,
932,6.80e-02,
933,-1.56e-01,
934,1.40e-01,
935,-1.48e-01,
936,-1.32e-01,
937,1.40e-01,
938,-1.52e-01,
939,1.44e-01,
940,1.44e-01,
941,-1.60e-01,
942,1.16e-01,
943,-1.60e-01,
944,-1.36e-01,
945,1.28e-01,
946,-5.20e-02,
947,1.04e-01,
948,1.52e-01,
949,-1.12e-01,
950,1.36e-01,
951,-1.48e-01,
952,1.44e-01,
953,-4.00e-02,
954,-3.60e-02,
955,1.48e-01,
956,-4.80e-02,
957,1.48e-01,
958,1.32e-01,
959,-1.64e-01,
960,-1.60e-01,
961,1.44e-01,
962,-1.52e-01,
963,1.36e-01,
964,1.48e-01,
965,-1.32e-01,
966,-1.52e-01,
967,1.48e-01,
968,1.36e-01,
969,-1.32e-01,
970,1.48e-01,
971,-1.48e-01,
972,9.60e-02,
973,-1.36e-01,
974,1.08e-01,
975,-1.56e-01,
976,1.12e-01,
977,-1.44e-01,
978,1.32e-01,
979,-1.20e-01,
980,-1.04e-01,
981,1.16e-01,
982,-1.32e-01,
983,1.12e-01,
984,1.20e-01,
985,-1.36e-01,
986,-1.36e-01,
987,1.12e-01,
988,-6.80e-02,
989,1.44e-01,
990,-3.20e-02,
991,1.28e-01,
992,-8.00e-02,
993,1.32e-01,
994,1.28e-01,
995,-1.48e-01,
996,1.16e-01,
997,-8.80e-02,
998,1.28e-01,
999,-1.52e-01,
1000,-1.52e-01,
1001,1.48e-01,
1002,1.40e-01,
1003,-1.48e-01,
1004,1.48e-01,
1005,-1.60e-01,
1006,1.36e-01,
1007,-1.44e-01,
1008,1.52e-01,
1009,-9.20e-02,
1010,-1.20e-01,
1011,1.32e-01,
1012,1.16e-01,
1013,-1.12e-01,
1014,1.28e-01,
1015,-1.12e-01,
1016,1.44e-01,
1017,-1.20e-01,
1018,1.24e-01,
1019,-1.56e-01,
1020,-1.28e-01,
1021,1.24e-01,
1022,1.20e-01,
1023,-1.32e-01,
1024,5.60e-02,
1025,-1.28e-01,
1026,1.08e-01,
1027,-1.28e-01,
1028,1.16e-01,
1029,-1.36e-01,
1030,1.28e-01,
1031,-1.40e-01,
1032,-1.32e-01,
1033,1.20e-01,
1034,-6.80e-02,
1035,1.28e-01,
1036,4.40e-02,
1037,-1.40e-01,
1038,-1.28e-01,
1039,1.36e-01,
1040,1.40e-01,
1041,-1.12e-01,
1042,1.44e-01,
1043,-1.24e-01,
1044,1.28e-01,
1045,-1.24e-01,
1046,-1.52e-01,
1047,1.20e-01,
1048,-1.36e-01,
1049,1.36e-01,
1050,1.44e-01,
1051,-1.52e-01,
1052,-1.52e-01,
1053,1.44e-01,
1054,-1.56e-01,
1055,1.28e-01,
1056,-1.48e-01,
1057,1.32e-01,
1058,1.00e-01,
1059,-1.16e-01,
1060,-1.44e-01,
1061,1.32e-01,
1062,-1.24e-01,
1063,1.52e-01,
1064,-1.32e-01,
1065,1.08e-01,
1066,1.04e-01,
1067,-3.60e-02,
1068,-1.16e-01,
1069,1.44e-01,
1070,-9.20e-02,
1071,1.04e-01,
1072,-1.12e-01,
1073,1.36e-01,
1074,1.12e-01,
1075,-1.00e-01,
1076,-1.28e-01,
1077,1.16e-01,
1078,-1.24e-01,
1079,1.16e-01,
1080,1.16e-01,
1081,-1.20e-01,
1082,1.36e-01,
1083,-1.08e-01,
1084,1.40e-01,
1085,-1.28e-01,
1086,-1.44e-01,
1087,1.16e-01,
1088,1.44e-01,
1089,-1.52e-01,
1090,-1.36e-01,
1091,1.44e-01,
1092,-1.52e-01,
1093,1.40e-01,
1094,1.36e-01,
1095,-1.08e-01,
1096,-1.44e-01,
1097,1.36e-01,
1098,-1.36e-01,
1099,1.16e-01,
1100,-1.36e-01,
1101,1.36e-01,
1102,-6.00e-02,
1103,1.36e-01,
1104,1.28e-01,
1105,-3.20e-02,
1106,3.60e-02,
1107,-1.40e-01,
1108,1.24e-01,
1109,-9.60e-02,
1110,-6.40e-02,
1111,1.32e-01,
1112,-6.80e-02,
1113,1.12e-01,
1114,-9.60e-02,
1115,1.28e-01,
1116,1.24e-01,
1117,-1.28e-01,
1118,1.24e-01,
1119,-1.20e-01,
1120,-1.28e-01,
1121,1.24e-01,
1122,1.24e-01,
1123,-1.20e-01,
1124,-1.24e-01,
1125,1.12e-01,
1126,1.12e-01,
1127,-1.28e-01,
1128,1.20e-01,
1129,-1.00e-01,
1130,1.12e-01,
1131,-1.28e-01,
1132,1.48e-01,
1133,-1.36e-01,
1134,1.20e-01,
1135,-1.56e-01,
1136,1.40e-01,
1137,-1.52e-01,
1138,1.32e-01,
1139,-9.60e-02,
1140,-7.20e-02,
1141,1.28e-01,
1142,5.60e-02,
1143,-8.80e-02,
1144,-1.36e-01,
1145,3.60e-02,
1146,-1.32e-01,
1147,4.00e-02,
1148,1.44e-01,
1149,-3.60e-02,
1150,1.40e-01,
1151,-2.80e-02,
1152,-4.00e-02,
1153,4.80e-02,
1154,1.28e-01,
1155,-4.40e-02,
1156,-1.48e-01,
1157,1.24e-01,
1158,-1.16e-01,
1159,1.08e-01,
1160,-1.64e-01,
1161,1.36e-01,
1162,1.28e-01,
1163,-1.44e-01,
1164,1.24e-01,
1165,-1.24e-01,
1166,-1.44e-01,
1167,1.20e-01,
1168,-1.36e-01,
1169,1.20e-01,
1170,1.36e-01,
1171,-1.00e-01,
1172,1.32e-01,
1173,-1.44e-01,
1174,1.32e-01,
1175,-1.44e-01,
1176,1.28e-01,
1177,-1.16e-01,
1178,-1.24e-01,
1179,8.80e-02,
1180,1.20e-01,
1181,-1.32e-01,
1182,-1.28e-01,
1183,1.12e-01,
1184,1.20e-01,
1185,-1.36e-01,
1186,-6.80e-02,
1187,1.24e-01,
1188,-1.60e-02,
1189,1.40e-01,
1190,1.28e-01,
1191,-1.32e-01,
1192,4.80e-02,
1193,-1.12e-01,
1194,-1.44e-01,
1195,1.44e-01,
1196,1.28e-01,
1197,-2.40e-02,
1198,1.36e-01,
1199,-1.44e-01,
