Laptop_2/LAPTOP_CHRGR_2_ON_DISTANT/time domain/NewFile18.csv

X,CH1,Start,Increment,
Sequence,Volt,-1.500000e-01,2.000000e-04
0,9.60e-02,
1,-9.60e-02,
2,1.44e-01,
3,-8.00e-02,
4,1.16e-01,
5,-8.00e-02,
6,-1.08e-01,
7,1.04e-01,
8,-1.00e-01,
9,1.16e-01,
10,-1.04e-01,
11,1.36e-01,
12,-1.40e-01,
13,1.16e-01,
14,-1.08e-01,
15,1.32e-01,
16,4.00e-02,
17,-1.20e-01,
18,1.40e-01,
19,-8.80e-02,
20,1.60e-01,
21,-1.24e-01,
22,-1.32e-01,
23,1.00e-01,
24,1.60e-01,
25,-1.36e-01,
26,1.56e-01,
27,-8.80e-02,
28,1.04e-01,
29,-1.24e-01,
30,1.24e-01,
31,-1.04e-01,
32,8.40e-02,
33,-1.00e-01,
34,1.24e-01,
35,-1.04e-01,
36,-1.04e-01,
37,1.12e-01,
38,-8.80e-02,
39,9.20e-02,
40,1.16e-01,
41,-1.20e-01,
42,-1.00e-01,
43,9.60e-02,
44,1.12e-01,
45,-9.60e-02,
46,-1.04e-01,
47,8.40e-02,
48,-1.00e-01,
49,1.48e-01,
50,-1.24e-01,
51,8.80e-02,
52,-9.60e-02,
53,1.24e-01,
54,1.24e-01,
55,-1.00e-01,
56,-1.08e-01,
57,1.24e-01,
58,1.28e-01,
59,-1.00e-01,
60,1.24e-01,
61,-1.28e-01,
62,-1.16e-01,
63,1.00e-01,
64,1.12e-01,
65,-1.20e-01,
66,-1.24e-01,
67,1.00e-01,
68,-1.28e-01,
69,1.08e-01,
70,9.60e-02,
71,-1.16e-01,
72,-1.12e-01,
73,1.08e-01,
74,1.08e-01,
75,-1.04e-01,
76,7.60e-02,
77,-7.20e-02,
78,9.20e-02,
79,-1.04e-01,
80,-1.00e-01,
81,7.60e-02,
82,-9.60e-02,
83,1.32e-01,
84,1.36e-01,
85,-1.28e-01,
86,-1.24e-01,
87,8.80e-02,
88,9.20e-02,
89,-9.60e-02,
90,-1.04e-01,
91,1.16e-01,
92,-8.80e-02,
93,1.04e-01,
94,1.12e-01,
95,-1.04e-01,
96,-1.40e-01,
97,1.08e-01,
98,1.12e-01,
99,-5.20e-02,
100,-1.04e-01,
101,1.08e-01,
102,1.40e-01,
103,-8.80e-02,
104,-1.24e-01,
105,1.08e-01,
106,-1.04e-01,
107,1.24e-01,
108,-1.36e-01,
109,1.40e-01,
110,-1.28e-01,
111,8.80e-02,
112,1.04e-01,
113,-1.20e-01,
114,-1.28e-01,
115,1.08e-01,
116,1.00e-01,
117,-1.28e-01,
118,-1.24e-01,
119,8.00e-02,
120,-1.20e-01,
121,1.36e-01,
122,-1.08e-01,
123,1.48e-01,
124,1.48e-01,
125,-1.20e-01,
126,1.32e-01,
127,-1.04e-01,
128,1.00e-01,
129,-1.12e-01,
130,1.28e-01,
131,-9.20e-02,
132,7.60e-02,
133,-1.08e-01,
134,1.52e-01,
135,-1.04e-01,
136,7.60e-02,
137,-8.80e-02,
138,7.20e-02,
139,-9.60e-02,
140,-9.60e-02,
141,1.08e-01,
142,-1.00e-01,
143,1.04e-01,
144,1.16e-01,
145,-5.60e-02,
146,9.20e-02,
147,-1.00e-01,
148,1.12e-01,
149,-1.00e-01,
150,-8.80e-02,
151,1.12e-01,
152,8.00e-02,
153,-1.04e-01,
154,-3.60e-02,
155,1.16e-01,
156,-7.20e-02,
157,1.04e-01,
158,1.16e-01,
159,-1.32e-01,
160,1.32e-01,
161,-1.16e-01,
162,8.00e-02,
163,-1.20e-01,
164,-7.20e-02,
165,1.44e-01,
166,1.28e-01,
167,-1.24e-01,
168,1.56e-01,
169,-1.32e-01,
170,1.20e-01,
171,-1.08e-01,
172,-1.20e-01,
173,1.24e-01,
174,-1.16e-01,
175,1.08e-01,
176,-1.08e-01,
177,8.80e-02,
178,1.56e-01,
179,-1.40e-01,
180,-1.20e-01,
181,1.16e-01,
182,9.60e-02,
183,-1.36e-01,
184,1.20e-01,
185,-7.60e-02,
186,4.00e-02,
187,-1.04e-01,
188,-7.20e-02,
189,1.04e-01,
190,-8.80e-02,
191,8.40e-02,
192,-2.80e-02,
193,1.28e-01,
194,-1.24e-01,
195,1.32e-01,
196,1.08e-01,
197,-3.60e-02,
198,-1.32e-01,
199,1.20e-01,
200,1.12e-01,
201,-1.04e-01,
202,1.20e-01,
203,-1.00e-01,
204,-1.00e-01,
205,9.60e-02,
206,1.40e-01,
207,-1.40e-01,
208,-1.36e-01,
209,1.32e-01,
210,-1.16e-01,
211,1.48e-01,
212,-1.08e-01,
213,9.60e-02,
214,-1.12e-01,
215,1.24e-01,
216,4.00e-02,
217,-1.32e-01,
218,1.08e-01,
219,-1.16e-01,
220,-1.00e-01,
221,1.20e-01,
222,9.20e-02,
223,-1.16e-01,
224,-1.04e-01,
225,8.80e-02,
226,1.40e-01,
227,-7.20e-02,
228,1.16e-01,
229,-1.20e-01,
230,1.16e-01,
231,-1.12e-01,
232,-6.00e-02,
233,1.28e-01,
234,-1.04e-01,
235,7.60e-02,
236,-9.60e-02,
237,1.16e-01,
238,-1.12e-01,
239,1.32e-01,
240,1.20e-01,
241,-1.04e-01,
242,-1.16e-01,
243,1.04e-01,
244,-8.80e-02,
245,1.04e-01,
246,1.00e-01,
247,-1.00e-01,
248,8.80e-02,
249,-1.00e-01,
250,-1.08e-01,
251,1.56e-01,
252,-1.12e-01,
253,1.36e-01,
254,9.60e-02,
255,-1.04e-01,
256,1.44e-01,
257,-8.80e-02,
258,1.56e-01,
259,-1.32e-01,
260,-1.16e-01,
261,1.76e-01,
262,1.64e-01,
263,-1.16e-01,
264,-4.00e-02,
265,1.44e-01,
266,-1.48e-01,
267,1.32e-01,
268,1.00e-01,
269,-7.20e-02,
270,1.44e-01,
271,-1.20e-01,
272,1.44e-01,
273,-1.32e-01,
274,-3.20e-02,
275,1.12e-01,
276,-1.28e-01,
277,1.36e-01,
278,1.40e-01,
279,-1.32e-01,
280,-1.36e-01,
281,1.56e-01,
282,-1.24e-01,
283,1.24e-01,
284,-1.16e-01,
285,1.28e-01,
286,-1.36e-01,
287,1.44e-01,
288,1.60e-01,
289,-1.36e-01,
290,1.60e-01,
291,-1.20e-01,
292,1.28e-01,
293,-1.24e-01,
294,1.68e-01,
295,-1.28e-01,
296,-1.16e-01,
297,1.64e-01,
298,-1.24e-01,
299,1.28e-01,
300,1.52e-01,
301,-1.28e-01,
302,-1.28e-01,
303,1.48e-01,
304,1.28e-01,
305,-1.32e-01,
306,9.20e-02,
307,-1.08e-01,
308,-7.20e-02,
309,9.60e-02,
310,-1.20e-01,
311,3.60e-02,
312,1.36e-01,
313,-1.40e-01,
314,-1.08e-01,
315,9.60e-02,
316,1.08e-01,
317,-1.04e-01,
318,-9.60e-02,
319,1.24e-01,
320,-1.04e-01,
321,1.00e-01,
322,1.16e-01,
323,-9.60e-02,
324,9.60e-02,
325,-1.16e-01,
326,1.04e-01,
327,-1.04e-01,
328,1.08e-01,
329,-9.60e-02,
330,-1.00e-01,
331,6.40e-02,
332,1.04e-01,
333,-9.60e-02,
334,-1.20e-01,
335,1.60e-01,
336,1.40e-01,
337,-1.00e-01,
338,-1.08e-01,
339,1.24e-01,
340,-1.04e-01,
341,1.16e-01,
342,-7.20e-02,
343,1.28e-01,
344,1.20e-01,
345,-6.00e-02,
346,-8.80e-02,
347,1.08e-01,
348,1.24e-01,
349,-1.00e-01,
350,9.20e-02,
351,-9.60e-02,
352,8.00e-02,
353,-7.60e-02,
354,9.60e-02,
355,-1.32e-01,
356,1.40e-01,
357,-6.80e-02,
358,-1.32e-01,
359,1.36e-01,
360,-1.32e-01,
361,1.60e-01,
362,-1.36e-01,
363,1.64e-01,
364,1.32e-01,
365,-1.08e-01,
366,1.48e-01,
367,-1.32e-01,
368,-1.40e-01,
369,1.36e-01,
370,-1.36e-01,
371,1.16e-01,
372,1.48e-01,
373,-8.80e-02,
374,9.20e-02,
375,-8.80e-02,
376,9.20e-02,
377,-1.00e-01,
378,1.04e-01,
379,-9.20e-02,
380,-1.20e-01,
381,1.52e-01,
382,-1.24e-01,
383,1.44e-01,
384,1.04e-01,
385,-1.00e-01,
386,9.20e-02,
387,-8.80e-02,
388,-1.04e-01,
389,1.24e-01,
390,-7.20e-02,
391,1.00e-01,
392,1.28e-01,
393,-9.60e-02,
394,1.04e-01,
395,-1.16e-01,
396,9.60e-02,
397,-1.08e-01,
398,-1.12e-01,
399,8.80e-02,
400,-1.16e-01,
401,1.20e-01,
402,-1.40e-01,
403,8.80e-02,
404,9.60e-02,
405,-1.16e-01,
406,1.16e-01,
407,-5.20e-02,
408,-1.32e-01,
409,1.28e-01,
410,1.36e-01,
411,-1.12e-01,
412,-1.04e-01,
413,1.36e-01,
414,-1.08e-01,
415,1.24e-01,
416,-8.00e-02,
417,1.24e-01,
418,9.60e-02,
419,-1.20e-01,
420,1.20e-01,
421,-6.80e-02,
422,-1.04e-01,
423,8.80e-02,
424,-9.60e-02,
425,6.00e-02,
426,1.08e-01,
427,-1.04e-01,
428,1.04e-01,
429,-1.20e-01,
430,-1.00e-01,
431,9.60e-02,
432,-8.80e-02,
433,1.16e-01,
434,-9.20e-02,
435,9.20e-02,
436,1.00e-01,
437,-1.08e-01,
438,-1.04e-01,
439,1.60e-01,
440,-1.12e-01,
441,1.32e-01,
442,-1.24e-01,
443,1.36e-01,
444,-1.24e-01,
445,1.04e-01,
446,-1.28e-01,
447,1.40e-01,
448,-1.28e-01,
449,1.08e-01,
450,1.36e-01,
451,-1.24e-01,
452,1.44e-01,
453,-1.20e-01,
454,1.40e-01,
455,-1.08e-01,
456,1.28e-01,
457,-1.16e-01,
458,1.40e-01,
459,-1.44e-01,
460,-9.60e-02,
461,1.08e-01,
462,-1.16e-01,
463,1.00e-01,
464,9.20e-02,
465,-1.12e-01,
466,-1.12e-01,
467,1.00e-01,
468,-9.20e-02,
469,1.28e-01,
470,9.60e-02,
471,-1.12e-01,
472,-1.00e-01,
473,8.80e-02,
474,1.04e-01,
475,-6.40e-02,
476,1.08e-01,
477,-1.00e-01,
478,9.20e-02,
479,-7.20e-02,
480,1.20e-01,
481,-1.20e-01,
482,8.80e-02,
483,-9.60e-02,
484,-9.20e-02,
485,1.20e-01,
486,1.16e-01,
487,-1.04e-01,
488,-1.16e-01,
489,9.60e-02,
490,-1.28e-01,
491,1.12e-01,
492,1.40e-01,
493,-1.36e-01,
494,1.40e-01,
495,-1.12e-01,
496,-1.08e-01,
497,1.00e-01,
498,-1.20e-01,
499,1.36e-01,
500,1.40e-01,
501,-1.24e-01,
502,1.36e-01,
503,-1.24e-01,
504,-1.28e-01,
505,8.40e-02,
506,-1.12e-01,
507,8.00e-02,
508,-2.00e-02,
509,1.36e-01,
510,-1.08e-01,
511,8.80e-02,
512,-1.04e-01,
513,1.16e-01,
514,-1.12e-01,
515,7.60e-02,
516,1.28e-01,
517,-1.04e-01,
518,-1.00e-01,
519,1.16e-01,
520,-9.20e-02,
521,1.16e-01,
522,-8.40e-02,
523,9.20e-02,
524,-1.36e-01,
525,1.64e-01,
526,1.56e-01,
527,-6.40e-02,
528,1.36e-01,
529,-1.32e-01,
530,-1.20e-01,
531,1.32e-01,
532,-9.60e-02,
533,1.00e-01,
534,-6.00e-02,
535,1.16e-01,
536,-1.04e-01,
537,1.00e-01,
538,1.12e-01,
539,-1.04e-01,
540,-1.32e-01,
541,1.56e-01,
542,1.00e-01,
543,-1.00e-01,
544,1.36e-01,
545,-9.60e-02,
546,8.40e-02,
547,-7.20e-02,
548,1.20e-01,
549,-1.16e-01,
550,-1.04e-01,
551,1.00e-01,
552,7.60e-02,
553,-9.20e-02,
554,1.32e-01,
555,-1.16e-01,
556,1.20e-01,
557,-1.16e-01,
558,-1.12e-01,
559,1.32e-01,
560,1.36e-01,
561,-1.08e-01,
562,-1.00e-01,
563,1.24e-01,
564,-1.04e-01,
565,1.16e-01,
566,-1.12e-01,
567,1.40e-01,
568,-1.04e-01,
569,1.24e-01,
570,1.28e-01,
571,-9.60e-02,
572,-1.12e-01,
573,9.60e-02,
574,-1.04e-01,
575,1.28e-01,
576,1.08e-01,
577,-1.00e-01,
578,-9.60e-02,
579,1.00e-01,
580,9.60e-02,
581,-7.20e-02,
582,-9.60e-02,
583,1.00e-01,
584,-6.80e-02,
585,1.00e-01,
586,-1.20e-01,
587,8.00e-02,
588,-7.60e-02,
589,1.28e-01,
590,9.20e-02,
591,-1.20e-01,
592,-1.12e-01,
593,8.40e-02,
594,-1.20e-01,
595,4.80e-02,
596,-1.28e-01,
597,1.20e-01,
598,1.08e-01,
599,-1.12e-01,
600,1.12e-01,
601,-1.24e-01,
602,1.40e-01,
603,-1.36e-01,
604,-1.44e-01,
605,1.76e-01,
606,-1.32e-01,
607,1.52e-01,
608,-1.20e-01,
609,1.52e-01,
610,-1.12e-01,
611,1.64e-01,
612,1.56e-01,
613,-1.32e-01,
614,1.48e-01,
615,-1.12e-01,
616,9.60e-02,
617,-6.00e-02,
618,1.08e-01,
619,-8.00e-02,
620,-9.60e-02,
621,1.08e-01,
622,1.04e-01,
623,-1.00e-01,
624,6.00e-02,
625,-1.12e-01,
626,-9.60e-02,
627,9.60e-02,
628,-1.00e-01,
629,1.08e-01,
630,-1.04e-01,
631,9.60e-02,
632,-1.08e-01,
633,4.80e-02,
634,-1.16e-01,
635,9.60e-02,
636,-1.08e-01,
637,9.20e-02,
638,1.20e-01,
639,-8.80e-02,
640,-1.08e-01,
641,8.00e-02,
642,1.36e-01,
643,-1.04e-01,
644,-1.40e-01,
645,1.56e-01,
646,-1.24e-01,
647,1.16e-01,
648,-1.08e-01,
649,1.20e-01,
650,-1.08e-01,
651,1.36e-01,
652,-1.16e-01,
653,1.32e-01,
654,8.00e-02,
655,-1.40e-01,
656,1.32e-01,
657,-1.36e-01,
658,1.48e-01,
659,-1.40e-01,
660,1.32e-01,
661,-1.04e-01,
662,-2.80e-02,
663,1.08e-01,
664,-1.04e-01,
665,8.80e-02,
666,1.40e-01,
667,-9.20e-02,
668,-1.24e-01,
669,1.20e-01,
670,-9.60e-02,
671,1.12e-01,
672,1.08e-01,
673,-3.60e-02,
674,9.20e-02,
675,-9.60e-02,
676,-9.60e-02,
677,1.08e-01,
678,1.08e-01,
679,-1.00e-01,
680,-1.08e-01,
681,1.32e-01,
682,-1.32e-01,
683,1.40e-01,
684,1.20e-01,
685,-1.20e-01,
686,1.00e-01,
687,-9.60e-02,
688,9.60e-02,
689,-1.04e-01,
690,-8.80e-02,
691,9.20e-02,
692,-1.40e-01,
693,9.20e-02,
694,1.76e-01,
695,-1.24e-01,
696,-1.24e-01,
697,1.24e-01,
698,-1.28e-01,
699,8.40e-02,
700,-1.04e-01,
701,1.12e-01,
702,1.16e-01,
703,-1.12e-01,
704,9.20e-02,
705,-7.20e-02,
706,1.36e-01,
707,-3.60e-02,
708,1.04e-01,
709,-1.32e-01,
710,7.60e-02,
711,-1.12e-01,
712,8.00e-02,
713,-1.12e-01,
714,-8.00e-03,
715,9.60e-02,
716,5.60e-02,
717,-1.04e-01,
718,9.20e-02,
719,-9.60e-02,
720,-1.00e-01,
721,1.16e-01,
722,-9.60e-02,
723,1.04e-01,
724,-6.40e-02,
725,1.12e-01,
726,-8.80e-02,
727,9.20e-02,
728,-1.16e-01,
729,1.52e-01,
730,-9.60e-02,
731,1.04e-01,
732,-1.04e-01,
733,1.24e-01,
734,-1.00e-01,
735,1.20e-01,
736,-9.60e-02,
737,1.16e-01,
738,-1.24e-01,
739,1.52e-01,
740,-1.08e-01,
741,1.44e-01,
742,9.60e-02,
743,-6.80e-02,
744,8.00e-02,
745,-1.08e-01,
746,4.80e-02,
747,-9.60e-02,
748,6.00e-02,
749,-4.80e-02,
750,2.80e-02,
751,-1.24e-01,
752,1.52e-01,
753,-8.40e-02,
754,-1.08e-01,
755,1.24e-01,
756,1.00e-01,
757,-1.20e-02,
758,-1.40e-01,
759,1.68e-01,
760,-1.36e-01,
761,1.40e-01,
762,1.40e-01,
763,-1.28e-01,
764,-9.20e-02,
765,8.00e-02,
766,1.12e-01,
767,-8.80e-02,
768,9.20e-02,
769,-1.00e-01,
770,-9.20e-02,
771,1.20e-01,
772,1.44e-01,
773,-1.12e-01,
774,-1.00e-01,
775,1.28e-01,
776,-1.36e-01,
777,1.52e-01,
778,1.28e-01,
779,-1.12e-01,
780,-1.28e-01,
781,1.28e-01,
782,8.40e-02,
783,-1.00e-01,
784,-8.00e-02,
785,1.36e-01,
786,-1.04e-01,
787,1.08e-01,
788,-1.12e-01,
789,9.20e-02,
790,-1.32e-01,
791,1.32e-01,
792,-3.60e-02,
793,1.68e-01,
794,-9.60e-02,
795,1.16e-01,
796,1.28e-01,
797,-7.20e-02,
798,-1.24e-01,
799,1.20e-01,
800,1.16e-01,
801,-1.24e-01,
802,1.52e-01,
803,-1.40e-01,
804,1.36e-01,
805,-8.80e-02,
806,-1.08e-01,
807,1.28e-01,
808,1.36e-01,
809,-1.08e-01,
810,-9.20e-02,
811,9.20e-02,
812,1.24e-01,
813,-8.80e-02,
814,-1.08e-01,
815,9.60e-02,
816,1.24e-01,
817,-5.60e-02,
818,-1.00e-01,
819,1.16e-01,
820,1.04e-01,
821,-8.80e-02,
822,8.80e-02,
823,-1.12e-01,
824,9.20e-02,
825,-4.40e-02,
826,1.04e-01,
827,-9.60e-02,
828,-8.40e-02,
829,9.60e-02,
830,-1.00e-01,
831,1.20e-01,
832,-9.60e-02,
833,9.20e-02,
834,-9.60e-02,
835,1.16e-01,
836,-1.12e-01,
837,9.20e-02,
838,-1.08e-01,
839,1.08e-01,
840,-9.60e-02,
841,1.28e-01,
842,1.32e-01,
843,-1.24e-01,
844,1.44e-01,
845,-1.36e-01,
846,1.28e-01,
847,-1.12e-01,
848,1.28e-01,
849,-1.00e-01,
850,-1.08e-01,
851,1.36e-01,
852,1.36e-01,
853,-1.24e-01,
854,-1.16e-01,
855,1.72e-01,
856,1.40e-01,
857,-1.04e-01,
858,-1.16e-01,
859,1.12e-01,
860,1.40e-01,
861,-1.20e-01,
862,-1.12e-01,
863,1.32e-01,
864,-7.60e-02,
865,1.16e-01,
866,-1.00e-01,
867,1.12e-01,
868,-1.12e-01,
869,1.40e-01,
870,1.36e-01,
871,-1.28e-01,
872,1.52e-01,
873,-7.20e-02,
874,1.40e-01,
875,-7.20e-02,
876,-9.60e-02,
877,1.12e-01,
878,9.20e-02,
879,-9.20e-02,
880,1.16e-01,
881,-1.00e-01,
882,1.00e-01,
883,-1.04e-01,
884,-1.20e-01,
885,1.00e-01,
886,-8.00e-02,
887,1.08e-01,
888,-1.20e-01,
889,1.12e-01,
890,1.28e-01,
891,-1.08e-01,
892,1.28e-01,
893,-1.12e-01,
894,-9.20e-02,
895,1.20e-01,
896,1.32e-01,
897,-1.28e-01,
898,-1.00e-01,
899,1.44e-01,
900,7.60e-02,
901,-1.04e-01,
902,6.40e-02,
903,-1.04e-01,
904,1.56e-01,
905,-7.60e-02,
906,1.00e-01,
907,-1.28e-01,
908,-1.16e-01,
909,1.20e-01,
910,8.80e-02,
911,-1.16e-01,
912,7.60e-02,
913,-1.00e-01,
914,-1.12e-01,
915,1.28e-01,
916,-1.60e-02,
917,1.20e-01,
918,8.40e-02,
919,-1.28e-01,
920,-9.60e-02,
921,1.12e-01,
922,-9.20e-02,
923,1.00e-01,
924,-1.00e-01,
925,1.16e-01,
926,1.00e-01,
927,-9.60e-02,
928,1.32e-01,
929,-1.20e-01,
930,-1.12e-01,
931,1.08e-01,
932,-1.00e-01,
933,1.20e-01,
934,1.20e-01,
935,-1.00e-01,
936,1.28e-01,
937,-1.08e-01,
938,1.28e-01,
939,-1.32e-01,
940,8.00e-02,
941,-1.00e-01,
942,1.48e-01,
943,-1.32e-01,
944,1.16e-01,
945,-1.32e-01,
946,-1.16e-01,
947,1.44e-01,
948,-1.16e-01,
949,1.48e-01,
950,-1.12e-01,
951,1.60e-01,
952,-1.08e-01,
953,1.32e-01,
954,8.40e-02,
955,-1.36e-01,
956,-1.28e-01,
957,2.40e-02,
958,1.12e-01,
959,-7.20e-02,
960,1.24e-01,
961,-9.60e-02,
962,-1.08e-01,
963,8.40e-02,
964,9.20e-02,
965,-8.00e-02,
966,1.16e-01,
967,-9.60e-02,
968,1.28e-01,
969,-9.60e-02,
970,-1.00e-01,
971,9.20e-02,
972,-9.60e-02,
973,9.20e-02,
974,-9.20e-02,
975,1.16e-01,
976,1.24e-01,
977,-8.80e-02,
978,-1.04e-01,
979,1.16e-01,
980,-1.04e-01,
981,8.00e-02,
982,1.04e-01,
983,-9.60e-02,
984,7.20e-02,
985,-1.12e-01,
986,-1.08e-01,
987,1.00e-01,
988,-8.80e-02,
989,8.40e-02,
990,-1.32e-01,
991,1.16e-01,
992,1.00e-01,
993,-1.04e-01,
994,1.20e-01,
995,-1.00e-01,
996,-8.80e-02,
997,8.40e-02,
998,-1.04e-01,
999,1.16e-01,
1000,-1.16e-01,
1001,9.20e-02,
1002,-9.60e-02,
1003,1.24e-01,
1004,-1.16e-01,
1005,1.24e-01,
1006,-1.08e-01,
1007,8.00e-02,
1008,1.24e-01,
1009,-1.08e-01,
1010,1.04e-01,
1011,-1.08e-01,
1012,1.72e-01,
1013,-9.60e-02,
1014,1.12e-01,
1015,-9.20e-02,
1016,1.08e-01,
1017,-1.04e-01,
1018,1.04e-01,
1019,-8.00e-02,
1020,1.04e-01,
1021,-6.80e-02,
1022,-9.60e-02,
1023,1.44e-01,
1024,8.00e-02,
1025,-1.28e-01,
1026,1.56e-01,
1027,-1.32e-01,
1028,-1.28e-01,
1029,1.36e-01,
1030,-2.80e-02,
1031,1.20e-01,
1032,8.40e-02,
1033,-1.00e-01,
1034,-1.08e-01,
1035,1.20e-01,
1036,8.00e-02,
1037,-9.60e-02,
1038,-1.08e-01,
1039,1.40e-01,
1040,1.40e-01,
1041,-1.12e-01,
1042,1.68e-01,
1043,-1.20e-01,
1044,1.20e-01,
1045,-3.20e-02,
1046,-1.16e-01,
1047,1.04e-01,
1048,1.48e-01,
1049,-6.40e-02,
1050,-1.20e-01,
1051,1.28e-01,
1052,9.20e-02,
1053,-1.04e-01,
1054,-1.16e-01,
1055,6.80e-02,
1056,1.08e-01,
1057,-1.12e-01,
1058,1.40e-01,
1059,-1.00e-01,
1060,-1.20e-01,
1061,1.32e-01,
1062,-5.20e-02,
1063,1.24e-01,
1064,-1.08e-01,
1065,1.00e-01,
1066,9.20e-02,
1067,-1.04e-01,
1068,-9.60e-02,
1069,8.80e-02,
1070,-9.20e-02,
1071,1.00e-01,
1072,1.08e-01,
1073,-1.12e-01,
1074,-1.04e-01,
1075,1.20e-01,
1076,1.20e-01,
1077,-9.60e-02,
1078,-9.60e-02,
1079,7.60e-02,
1080,-1.00e-01,
1081,7.60e-02,
1082,-1.00e-01,
1083,7.60e-02,
1084,-1.24e-01,
1085,9.60e-02,
1086,1.48e-01,
1087,-1.28e-01,
1088,-9.20e-02,
1089,1.28e-01,
1090,1.00e-01,
1091,-1.20e-01,
1092,-9.20e-02,
1093,1.24e-01,
1094,1.24e-01,
1095,-1.32e-01,
1096,-1.08e-01,
1097,1.36e-01,
1098,-9.60e-02,
1099,8.40e-02,
1100,1.28e-01,
1101,-1.16e-01,
1102,-1.20e-01,
1103,1.04e-01,
1104,1.36e-01,
1105,-1.40e-01,
1106,1.12e-01,
1107,-7.60e-02,
1108,-6.00e-02,
1109,1.12e-01,
1110,-1.28e-01,
1111,1.16e-01,
1112,1.00e-01,
1113,-1.36e-01,
1114,-1.00e-01,
1115,1.08e-01,
1116,-1.24e-01,
1117,1.44e-01,
1118,1.12e-01,
1119,-1.00e-01,
1120,9.60e-02,
1121,-1.04e-01,
1122,-1.00e-01,
1123,1.12e-01,
1124,-9.60e-02,
1125,9.60e-02,
1126,1.44e-01,
1127,-1.16e-01,
1128,-1.20e-01,
1129,8.40e-02,
1130,1.24e-01,
1131,-1.00e-01,
1132,1.28e-01,
1133,-1.08e-01,
1134,1.12e-01,
1135,-9.20e-02,
1136,-1.28e-01,
1137,1.12e-01,
1138,9.60e-02,
1139,-1.24e-01,
1140,-1.16e-01,
1141,4.40e-02,
1142,-1.24e-01,
1143,9.20e-02,
1144,1.32e-01,
1145,-1.20e-01,
1146,-1.20e-01,
1147,1.68e-01,
1148,-2.80e-02,
1149,1.44e-01,
1150,9.60e-02,
1151,-8.40e-02,
1152,9.60e-02,
1153,-1.08e-01,
1154,1.24e-01,
1155,-9.60e-02,
1156,8.40e-02,
1157,-1.24e-01,
1158,6.40e-02,
1159,-1.24e-01,
1160,-9.60e-02,
1161,1.08e-01,
1162,-1.00e-01,
1163,1.08e-01,
1164,-1.04e-01,
1165,1.08e-01,
1166,1.12e-01,
1167,-8.80e-02,
1168,-1.28e-01,
1169,1.44e-01,
1170,1.00e-01,
1171,-6.40e-02,
1172,9.60e-02,
1173,-1.04e-01,
1174,1.16e-01,
1175,-8.80e-02,
1176,8.80e-02,
1177,-1.04e-01,
1178,-1.32e-01,
1179,1.28e-01,
1180,1.32e-01,
1181,-9.20e-02,
1182,-1.32e-01,
1183,1.40e-01,
1184,1.36e-01,
1185,-4.00e-02,
1186,1.04e-01,
1187,-1.32e-01,
1188,-1.44e-01,
1189,1.08e-01,
1190,7.60e-02,
1191,-1.44e-01,
1192,1.44e-01,
1193,-6.80e-02,
1194,-6.40e-02,
1195,1.08e-01,
1196,1.48e-01,
1197,-1.36e-01,
1198,1.44e-01,
1199,-1.12e-01,
