Laptop_2/LAPTOP_CHRGR_2_ON_DISTANT/time domain/NewFile29.csv

X,CH1,Start,Increment,
Sequence,Volt,-1.500000e-01,2.000000e-04
0,1.48e-01,
1,-1.16e-01,
2,-1.04e-01,
3,1.48e-01,
4,1.40e-01,
5,-8.80e-02,
6,1.36e-01,
7,-1.08e-01,
8,1.92e-01,
9,-1.24e-01,
10,-9.20e-02,
11,1.16e-01,
12,-1.12e-01,
13,1.40e-01,
14,-1.00e-01,
15,1.36e-01,
16,-1.12e-01,
17,1.00e-01,
18,2.08e-01,
19,-1.28e-01,
20,8.40e-02,
21,-1.08e-01,
22,1.48e-01,
23,-1.20e-01,
24,9.20e-02,
25,-1.12e-01,
26,-2.80e-02,
27,1.68e-01,
28,1.88e-01,
29,-1.16e-01,
30,1.88e-01,
31,-1.72e-01,
32,-1.36e-01,
33,1.88e-01,
34,-7.20e-02,
35,1.20e-01,
36,-1.68e-01,
37,1.04e-01,
38,1.48e-01,
39,-1.48e-01,
40,-1.60e-01,
41,1.52e-01,
42,2.00e-01,
43,-1.52e-01,
44,-1.64e-01,
45,2.12e-01,
46,1.64e-01,
47,-1.12e-01,
48,-1.20e-01,
49,1.48e-01,
50,-1.08e-01,
51,1.32e-01,
52,-1.20e-01,
53,1.44e-01,
54,1.48e-01,
55,-1.28e-01,
56,-1.20e-01,
57,7.60e-02,
58,1.28e-01,
59,-1.12e-01,
60,-1.00e-01,
61,1.28e-01,
62,-1.04e-01,
63,8.00e-02,
64,-7.60e-02,
65,9.20e-02,
66,-1.24e-01,
67,2.80e-02,
68,1.04e-01,
69,-1.12e-01,
70,-2.40e-02,
71,1.40e-01,
72,-1.00e-01,
73,8.40e-02,
74,8.80e-02,
75,-1.36e-01,
76,-1.12e-01,
77,8.80e-02,
78,-1.28e-01,
79,8.00e-02,
80,2.04e-01,
81,-9.20e-02,
82,1.16e-01,
83,-1.24e-01,
84,1.72e-01,
85,-1.36e-01,
86,1.36e-01,
87,-1.40e-01,
88,-1.36e-01,
89,1.84e-01,
90,1.20e-01,
91,-1.52e-01,
92,1.00e-01,
93,-1.28e-01,
94,-1.20e-01,
95,1.24e-01,
96,-1.28e-01,
97,1.32e-01,
98,-1.12e-01,
99,1.36e-01,
100,1.52e-01,
101,-1.24e-01,
102,-1.28e-01,
103,1.24e-01,
104,1.04e-01,
105,-1.04e-01,
106,1.40e-01,
107,-1.04e-01,
108,1.24e-01,
109,-1.04e-01,
110,-1.16e-01,
111,6.00e-02,
112,1.72e-01,
113,-1.20e-01,
114,1.60e-01,
115,-1.48e-01,
116,1.16e-01,
117,-1.40e-01,
118,8.40e-02,
119,-1.56e-01,
120,-8.80e-02,
121,1.72e-01,
122,1.52e-01,
123,-1.24e-01,
124,1.64e-01,
125,-1.12e-01,
126,1.56e-01,
127,-8.40e-02,
128,-1.28e-01,
129,1.88e-01,
130,2.16e-01,
131,-1.36e-01,
132,-1.36e-01,
133,9.60e-02,
134,1.48e-01,
135,-1.28e-01,
136,1.68e-01,
137,-8.80e-02,
138,-1.00e-01,
139,1.84e-01,
140,1.00e-01,
141,-1.20e-01,
142,1.00e-01,
143,-1.28e-01,
144,-1.04e-01,
145,9.60e-02,
146,1.36e-01,
147,-1.24e-01,
148,1.24e-01,
149,-1.40e-01,
150,-1.20e-01,
151,1.84e-01,
152,-1.12e-01,
153,7.20e-02,
154,6.80e-02,
155,-1.16e-01,
156,1.20e-01,
157,-1.00e-01,
158,1.52e-01,
159,-7.60e-02,
160,1.88e-01,
161,-1.24e-01,
162,1.60e-01,
163,-1.36e-01,
164,-1.32e-01,
165,1.68e-01,
166,1.36e-01,
167,-1.12e-01,
168,-1.24e-01,
169,1.48e-01,
170,-6.80e-02,
171,1.56e-01,
172,-1.24e-01,
173,9.20e-02,
174,-1.64e-01,
175,1.48e-01,
176,1.56e-01,
177,-1.00e-01,
178,1.04e-01,
179,-8.80e-02,
180,-1.44e-01,
181,8.00e-02,
182,-1.08e-01,
183,1.20e-01,
184,1.88e-01,
185,-6.00e-02,
186,-1.36e-01,
187,1.60e-01,
188,1.56e-01,
189,-1.28e-01,
190,1.52e-01,
191,-1.20e-01,
192,-8.40e-02,
193,1.24e-01,
194,-1.28e-01,
195,1.60e-01,
196,1.72e-01,
197,-1.16e-01,
198,9.60e-02,
199,-1.44e-01,
200,1.92e-01,
201,-1.48e-01,
202,1.76e-01,
203,-1.16e-01,
204,-1.40e-01,
205,1.60e-01,
206,-1.36e-01,
207,1.28e-01,
208,1.00e-01,
209,-1.00e-01,
210,-1.16e-01,
211,1.32e-01,
212,-1.00e-01,
213,1.40e-01,
214,-1.48e-01,
215,2.08e-01,
216,-1.56e-01,
217,1.64e-01,
218,1.04e-01,
219,-1.24e-01,
220,1.64e-01,
221,-1.00e-01,
222,1.84e-01,
223,-1.44e-01,
224,1.48e-01,
225,-1.12e-01,
226,1.12e-01,
227,-1.08e-01,
228,1.08e-01,
229,-1.36e-01,
230,1.00e-01,
231,-1.08e-01,
232,6.80e-02,
233,-1.24e-01,
234,-1.32e-01,
235,1.72e-01,
236,1.28e-01,
237,-2.80e-02,
238,-1.20e-01,
239,6.80e-02,
240,-1.00e-01,
241,1.72e-01,
242,1.52e-01,
243,-1.08e-01,
244,-1.20e-01,
245,1.16e-01,
246,-1.52e-01,
247,7.60e-02,
248,-1.52e-01,
249,1.84e-01,
250,1.36e-01,
251,-5.60e-02,
252,-1.12e-01,
253,1.32e-01,
254,-1.04e-01,
255,4.00e-02,
256,1.36e-01,
257,-1.12e-01,
258,1.84e-01,
259,-1.12e-01,
260,1.32e-01,
261,-7.60e-02,
262,-1.16e-01,
263,1.48e-01,
264,1.56e-01,
265,-1.20e-01,
266,9.20e-02,
267,-1.20e-01,
268,-8.40e-02,
269,1.28e-01,
270,-9.20e-02,
271,8.80e-02,
272,1.24e-01,
273,-1.28e-01,
274,-8.80e-02,
275,1.56e-01,
276,6.80e-02,
277,-1.36e-01,
278,-1.20e-01,
279,1.72e-01,
280,1.60e-01,
281,-1.12e-01,
282,2.08e-01,
283,-1.64e-01,
284,-1.68e-01,
285,1.64e-01,
286,2.12e-01,
287,-1.44e-01,
288,-1.04e-01,
289,1.32e-01,
290,1.64e-01,
291,-1.20e-01,
292,1.24e-01,
293,-1.28e-01,
294,-1.08e-01,
295,1.48e-01,
296,-1.60e-01,
297,1.28e-01,
298,-7.60e-02,
299,1.24e-01,
300,1.52e-01,
301,-1.04e-01,
302,1.76e-01,
303,-1.28e-01,
304,1.72e-01,
305,-8.00e-02,
306,-1.40e-01,
307,1.72e-01,
308,1.60e-01,
309,-1.28e-01,
310,1.92e-01,
311,-1.20e-01,
312,-1.20e-01,
313,2.00e-01,
314,1.28e-01,
315,-7.20e-02,
316,9.60e-02,
317,-7.60e-02,
318,6.80e-02,
319,-1.52e-01,
320,2.08e-01,
321,-1.48e-01,
322,1.76e-01,
323,-1.44e-01,
324,2.16e-01,
325,-1.60e-01,
326,1.44e-01,
327,-1.60e-01,
328,1.96e-01,
329,-1.24e-01,
330,1.32e-01,
331,-1.56e-01,
332,1.40e-01,
333,-1.48e-01,
334,2.04e-01,
335,-1.56e-01,
336,-1.56e-01,
337,1.96e-01,
338,1.88e-01,
339,-1.16e-01,
340,-8.80e-02,
341,1.44e-01,
342,1.28e-01,
343,-1.32e-01,
344,-1.24e-01,
345,8.40e-02,
346,-1.44e-01,
347,1.92e-01,
348,1.52e-01,
349,-1.20e-01,
350,1.48e-01,
351,-1.48e-01,
352,1.84e-01,
353,-1.36e-01,
354,-1.40e-01,
355,1.52e-01,
356,-8.80e-02,
357,1.24e-01,
358,1.84e-01,
359,-1.44e-01,
360,-1.48e-01,
361,2.00e-01,
362,8.40e-02,
363,-1.56e-01,
364,1.84e-01,
365,-1.40e-01,
366,2.32e-01,
367,-1.68e-01,
368,-1.64e-01,
369,2.16e-01,
370,-1.24e-01,
371,1.64e-01,
372,-1.52e-01,
373,2.08e-01,
374,-1.36e-01,
375,1.00e-01,
376,1.32e-01,
377,-1.48e-01,
378,-1.44e-01,
379,1.84e-01,
380,1.76e-01,
381,-1.60e-01,
382,-1.32e-01,
383,1.20e-01,
384,1.92e-01,
385,-1.20e-01,
386,-1.20e-01,
387,1.84e-01,
388,1.92e-01,
389,-9.60e-02,
390,-9.60e-02,
391,1.48e-01,
392,-1.36e-01,
393,1.76e-01,
394,-1.52e-01,
395,1.80e-01,
396,1.48e-01,
397,-1.36e-01,
398,-1.48e-01,
399,1.88e-01,
400,2.12e-01,
401,-1.68e-01,
402,-1.64e-01,
403,1.76e-01,
404,2.08e-01,
405,-1.60e-01,
406,1.76e-01,
407,-1.60e-01,
408,-1.24e-01,
409,2.08e-01,
410,-1.56e-01,
411,1.28e-01,
412,-1.60e-01,
413,1.44e-01,
414,-1.52e-01,
415,1.60e-01,
416,2.04e-01,
417,-1.00e-01,
418,-1.20e-01,
419,2.04e-01,
420,2.04e-01,
421,-1.08e-01,
422,-6.40e-02,
423,1.76e-01,
424,-1.48e-01,
425,1.76e-01,
426,-1.40e-01,
427,1.32e-01,
428,-1.08e-01,
429,1.72e-01,
430,1.36e-01,
431,-1.04e-01,
432,-9.60e-02,
433,1.56e-01,
434,-8.00e-02,
435,1.28e-01,
436,1.84e-01,
437,-1.16e-01,
438,-1.52e-01,
439,2.12e-01,
440,-1.48e-01,
441,1.16e-01,
442,-1.44e-01,
443,1.84e-01,
444,-1.48e-01,
445,1.76e-01,
446,2.12e-01,
447,-1.56e-01,
448,-1.44e-01,
449,1.84e-01,
450,-1.60e-01,
451,1.76e-01,
452,-1.56e-01,
453,1.96e-01,
454,-1.64e-01,
455,1.16e-01,
456,-1.12e-01,
457,2.04e-01,
458,-1.52e-01,
459,1.08e-01,
460,-1.60e-01,
461,1.80e-01,
462,1.28e-01,
463,-1.56e-01,
464,1.80e-01,
465,-1.32e-01,
466,-1.28e-01,
467,1.76e-01,
468,-2.40e-02,
469,1.76e-01,
470,-1.48e-01,
471,1.80e-01,
472,1.68e-01,
473,-1.52e-01,
474,1.32e-01,
475,-1.52e-01,
476,1.48e-01,
477,-1.24e-01,
478,-1.56e-01,
479,2.00e-01,
480,1.80e-01,
481,-1.52e-01,
482,-1.44e-01,
483,2.04e-01,
484,-1.44e-01,
485,1.84e-01,
486,-1.44e-01,
487,2.00e-01,
488,-1.28e-01,
489,1.64e-01,
490,-1.52e-01,
491,2.12e-01,
492,-1.48e-01,
493,1.28e-01,
494,1.60e-01,
495,-1.60e-01,
496,-1.48e-01,
497,1.84e-01,
498,2.04e-01,
499,-1.48e-01,
500,-1.40e-01,
501,1.68e-01,
502,1.84e-01,
503,-1.32e-01,
504,1.60e-01,
505,-1.40e-01,
506,1.76e-01,
507,-9.60e-02,
508,-1.32e-01,
509,1.76e-01,
510,1.20e-01,
511,-1.40e-01,
512,-1.36e-01,
513,1.44e-01,
514,1.68e-01,
515,-1.36e-01,
516,-1.52e-01,
517,1.72e-01,
518,-1.48e-01,
519,1.96e-01,
520,-1.44e-01,
521,1.88e-01,
522,-1.48e-01,
523,1.84e-01,
524,-1.52e-01,
525,1.96e-01,
526,-1.24e-01,
527,1.32e-01,
528,1.80e-01,
529,-1.00e-01,
530,-1.48e-01,
531,1.88e-01,
532,-1.56e-01,
533,2.12e-01,
534,-1.56e-01,
535,1.76e-01,
536,1.80e-01,
537,-1.60e-01,
538,-1.36e-01,
539,2.00e-01,
540,-1.56e-01,
541,1.92e-01,
542,-1.32e-01,
543,1.32e-01,
544,-1.56e-01,
545,1.56e-01,
546,1.36e-01,
547,-1.04e-01,
548,1.28e-01,
549,-1.12e-01,
550,1.72e-01,
551,-1.08e-01,
552,-1.12e-01,
553,1.36e-01,
554,1.76e-01,
555,-1.48e-01,
556,1.48e-01,
557,-1.44e-01,
558,1.76e-01,
559,-1.48e-01,
560,2.00e-01,
561,-9.20e-02,
562,-1.36e-01,
563,2.04e-01,
564,-1.48e-01,
565,7.60e-02,
566,-1.52e-01,
567,1.64e-01,
568,-1.56e-01,
569,2.08e-01,
570,-1.44e-01,
571,1.80e-01,
572,1.56e-01,
573,-1.56e-01,
574,2.04e-01,
575,-1.60e-01,
576,2.12e-01,
577,-8.80e-02,
578,1.76e-01,
579,-1.60e-01,
580,2.08e-01,
581,-1.52e-01,
582,9.20e-02,
583,-1.56e-01,
584,-1.52e-01,
585,1.36e-01,
586,1.84e-01,
587,-1.04e-01,
588,1.28e-01,
589,-7.20e-02,
590,1.64e-01,
591,-9.20e-02,
592,-9.20e-02,
593,1.68e-01,
594,-1.52e-01,
595,1.84e-01,
596,-1.36e-01,
597,1.60e-01,
598,1.72e-01,
599,-9.20e-02,
600,-1.04e-01,
601,1.60e-01,
602,1.80e-01,
603,-1.44e-01,
604,-1.36e-01,
605,1.72e-01,
606,-1.52e-01,
607,1.92e-01,
608,1.20e-01,
609,-1.48e-01,
610,1.16e-01,
611,-1.56e-01,
612,-1.56e-01,
613,1.76e-01,
614,7.60e-02,
615,-1.60e-01,
616,-1.48e-01,
617,1.68e-01,
618,-1.52e-01,
619,1.80e-01,
620,2.24e-01,
621,-1.36e-01,
622,1.48e-01,
623,-1.48e-01,
624,1.52e-01,
625,-1.16e-01,
626,6.40e-02,
627,-1.56e-01,
628,-1.24e-01,
629,1.04e-01,
630,1.76e-01,
631,-1.40e-01,
632,2.00e-01,
633,-1.24e-01,
634,-1.36e-01,
635,1.76e-01,
636,1.64e-01,
637,-1.48e-01,
638,1.76e-01,
639,-1.12e-01,
640,-1.36e-01,
641,1.84e-01,
642,-1.52e-01,
643,7.60e-02,
644,-1.52e-01,
645,8.80e-02,
646,1.64e-01,
647,-6.80e-02,
648,1.12e-01,
649,-1.56e-01,
650,-1.48e-01,
651,1.72e-01,
652,1.28e-01,
653,-1.36e-01,
654,1.64e-01,
655,-1.40e-01,
656,1.12e-01,
657,-1.04e-01,
658,2.04e-01,
659,-1.48e-01,
660,-1.52e-01,
661,2.00e-01,
662,2.08e-01,
663,-1.52e-01,
664,1.80e-01,
665,-1.36e-01,
666,1.84e-01,
667,-8.40e-02,
668,1.88e-01,
669,-3.20e-02,
670,-1.52e-01,
671,1.76e-01,
672,-1.56e-01,
673,1.84e-01,
674,-1.52e-01,
675,1.40e-01,
676,-1.52e-01,
677,1.76e-01,
678,-1.56e-01,
679,1.68e-01,
680,1.40e-01,
681,-1.00e-01,
682,-1.08e-01,
683,1.24e-01,
684,-1.12e-01,
685,1.40e-01,
686,-1.08e-01,
687,8.40e-02,
688,1.40e-01,
689,-1.40e-01,
690,-9.60e-02,
691,1.36e-01,
692,-1.08e-01,
693,9.20e-02,
694,7.20e-02,
695,-1.04e-01,
696,-1.32e-01,
697,1.76e-01,
698,-1.52e-01,
699,1.76e-01,
700,-1.56e-01,
701,1.60e-01,
702,-1.36e-01,
703,2.00e-01,
704,-1.16e-01,
705,1.00e-01,
706,1.56e-01,
707,-8.80e-02,
708,-7.60e-02,
709,1.04e-01,
710,1.52e-01,
711,-1.04e-01,
712,1.28e-01,
713,-1.64e-01,
714,1.40e-01,
715,-1.12e-01,
716,-1.04e-01,
717,1.20e-01,
718,1.56e-01,
719,-1.24e-01,
720,-1.16e-01,
721,1.68e-01,
722,1.64e-01,
723,-1.56e-01,
724,-1.52e-01,
725,1.88e-01,
726,7.20e-02,
727,-1.36e-01,
728,-1.00e-01,
729,1.20e-01,
730,1.44e-01,
731,-1.08e-01,
732,-1.12e-01,
733,1.44e-01,
734,-6.80e-02,
735,1.48e-01,
736,-6.00e-02,
737,1.36e-01,
738,-1.00e-01,
739,1.44e-01,
740,-1.00e-01,
741,8.80e-02,
742,-1.04e-01,
743,1.04e-01,
744,1.00e-01,
745,-1.28e-01,
746,-1.40e-01,
747,9.20e-02,
748,-6.40e-02,
749,1.36e-01,
750,1.24e-01,
751,-1.12e-01,
752,1.48e-01,
753,-1.08e-01,
754,-1.08e-01,
755,1.48e-01,
756,-8.40e-02,
757,2.00e-01,
758,1.76e-01,
759,-1.48e-01,
760,-8.00e-02,
761,1.36e-01,
762,1.00e-01,
763,-1.08e-01,
764,-1.32e-01,
765,7.20e-02,
766,-1.12e-01,
767,1.52e-01,
768,2.00e-01,
769,-1.48e-01,
770,8.00e-02,
771,-1.24e-01,
772,-1.32e-01,
773,8.40e-02,
774,1.40e-01,
775,-1.20e-01,
776,1.56e-01,
777,-1.08e-01,
778,1.76e-01,
779,-1.20e-01,
780,-1.36e-01,
781,2.16e-01,
782,1.72e-01,
783,-1.28e-01,
784,8.80e-02,
785,-1.20e-01,
786,1.68e-01,
787,-1.00e-01,
788,-9.60e-02,
789,1.08e-01,
790,1.32e-01,
791,-9.60e-02,
792,8.80e-02,
793,-9.60e-02,
794,-1.04e-01,
795,4.40e-02,
796,-1.32e-01,
797,1.44e-01,
798,-1.08e-01,
799,1.56e-01,
800,1.44e-01,
801,-1.24e-01,
802,1.96e-01,
803,-1.56e-01,
804,1.56e-01,
805,-1.52e-01,
806,1.68e-01,
807,-1.28e-01,
808,1.72e-01,
809,-1.16e-01,
810,1.40e-01,
811,-1.20e-01,
812,1.52e-01,
813,-1.12e-01,
814,1.56e-01,
815,-1.32e-01,
816,-1.48e-01,
817,1.84e-01,
818,-1.04e-01,
819,1.52e-01,
820,-9.20e-02,
821,1.24e-01,
822,-1.00e-01,
823,1.20e-01,
824,-1.00e-01,
825,6.40e-02,
826,1.20e-01,
827,-1.40e-01,
828,-1.16e-01,
829,1.60e-01,
830,1.36e-01,
831,-1.36e-01,
832,-4.40e-02,
833,1.00e-01,
834,-9.20e-02,
835,1.00e-01,
836,-1.00e-01,
837,6.80e-02,
838,-8.80e-02,
839,1.28e-01,
840,1.84e-01,
841,-1.44e-01,
842,1.64e-01,
843,-1.08e-01,
844,1.44e-01,
845,-1.08e-01,
846,-1.08e-01,
847,1.48e-01,
848,-8.40e-02,
849,1.52e-01,
850,1.08e-01,
851,-1.48e-01,
852,1.32e-01,
853,-9.60e-02,
854,1.52e-01,
855,-1.24e-01,
856,1.56e-01,
857,-1.32e-01,
858,1.52e-01,
859,-1.16e-01,
860,1.56e-01,
861,-1.48e-01,
862,-1.16e-01,
863,9.20e-02,
864,1.64e-01,
865,-6.40e-02,
866,1.32e-01,
867,-1.36e-01,
868,-1.28e-01,
869,9.60e-02,
870,-1.20e-01,
871,1.48e-01,
872,5.60e-02,
873,-8.80e-02,
874,1.36e-01,
875,-1.04e-01,
876,-7.20e-02,
877,1.64e-01,
878,-1.48e-01,
879,1.44e-01,
880,-1.12e-01,
881,1.84e-01,
882,-1.48e-01,
883,1.80e-01,
884,-1.28e-01,
885,1.52e-01,
886,-9.20e-02,
887,8.40e-02,
888,1.12e-01,
889,-1.04e-01,
890,1.20e-01,
891,-6.40e-02,
892,-1.00e-01,
893,1.40e-01,
894,1.72e-01,
895,-1.48e-01,
896,1.32e-01,
897,-9.60e-02,
898,1.20e-01,
899,-1.24e-01,
900,-9.20e-02,
901,1.24e-01,
902,-8.40e-02,
903,8.40e-02,
904,-8.00e-03,
905,1.88e-01,
906,-1.12e-01,
907,9.60e-02,
908,1.16e-01,
909,-6.00e-02,
910,1.60e-01,
911,-1.32e-01,
912,-4.00e-02,
913,9.60e-02,
914,1.80e-01,
915,-2.40e-02,
916,1.48e-01,
917,-1.20e-01,
918,-9.20e-02,
919,5.20e-02,
920,-8.40e-02,
921,1.52e-01,
922,1.04e-01,
923,-6.40e-02,
924,-1.44e-01,
925,1.44e-01,
926,-1.00e-01,
927,4.80e-02,
928,1.40e-01,
929,-8.40e-02,
930,1.40e-01,
931,-9.20e-02,
932,1.32e-01,
933,-1.00e-01,
934,1.64e-01,
935,-1.44e-01,
936,-9.60e-02,
937,1.72e-01,
938,-1.00e-01,
939,1.36e-01,
940,-1.04e-01,
941,1.32e-01,
942,-9.20e-02,
943,9.20e-02,
944,-1.40e-01,
945,1.44e-01,
946,-1.36e-01,
947,1.76e-01,
948,1.44e-01,
949,-1.44e-01,
950,1.68e-01,
951,-7.20e-02,
952,-6.80e-02,
953,1.24e-01,
954,-1.32e-01,
955,1.20e-01,
956,-1.20e-01,
957,1.76e-01,
958,-1.60e-01,
959,2.20e-01,
960,-1.64e-01,
961,2.08e-01,
962,1.96e-01,
963,-1.52e-01,
964,1.68e-01,
965,-1.56e-01,
966,2.08e-01,
967,-1.52e-01,
968,-1.48e-01,
969,1.52e-01,
970,-1.24e-01,
971,1.48e-01,
972,-1.24e-01,
973,5.60e-02,
974,2.00e-01,
975,-1.40e-01,
976,-1.40e-01,
977,2.00e-01,
978,-1.20e-01,
979,1.20e-01,
980,-1.24e-01,
981,1.68e-01,
982,1.40e-01,
983,-1.40e-01,
984,-1.40e-01,
985,1.44e-01,
986,-1.56e-01,
987,1.16e-01,
988,-1.48e-01,
989,1.36e-01,
990,2.04e-01,
991,-1.16e-01,
992,1.76e-01,
993,-1.44e-01,
994,1.80e-01,
995,-8.40e-02,
996,8.00e-02,
997,-1.44e-01,
998,1.76e-01,
999,-9.20e-02,
1000,-1.44e-01,
1001,1.80e-01,
1002,-1.24e-01,
1003,2.00e-01,
1004,-1.24e-01,
1005,2.08e-01,
1006,1.32e-01,
1007,-1.56e-01,
1008,2.04e-01,
1009,-1.52e-01,
1010,2.00e-01,
1011,-1.56e-01,
1012,-1.56e-01,
1013,1.44e-01,
1014,1.76e-01,
1015,-1.52e-01,
1016,-1.36e-01,
1017,1.52e-01,
1018,-1.12e-01,
1019,1.48e-01,
1020,1.32e-01,
1021,-1.16e-01,
1022,-1.52e-01,
1023,1.76e-01,
1024,-1.28e-01,
1025,1.40e-01,
1026,1.80e-01,
1027,-1.20e-01,
1028,1.08e-01,
1029,-9.60e-02,
1030,8.80e-02,
1031,-1.40e-01,
1032,9.60e-02,
1033,-1.36e-01,
1034,-8.00e-02,
1035,1.72e-01,
1036,1.80e-01,
1037,-1.04e-01,
1038,-1.16e-01,
1039,1.36e-01,
1040,-1.20e-01,
1041,6.80e-02,
1042,-1.12e-01,
1043,1.60e-01,
1044,7.60e-02,
1045,-1.20e-01,
1046,1.60e-01,
1047,-1.52e-01,
1048,1.48e-01,
1049,-1.08e-01,
1050,-1.36e-01,
1051,1.04e-01,
1052,5.20e-02,
1053,-9.60e-02,
1054,1.56e-01,
1055,-1.24e-01,
1056,-1.60e-01,
1057,1.44e-01,
1058,1.56e-01,
1059,-1.28e-01,
1060,-1.28e-01,
1061,1.48e-01,
1062,-1.04e-01,
1063,9.20e-02,
1064,8.40e-02,
1065,-8.40e-02,
1066,1.88e-01,
1067,-2.80e-02,
1068,1.68e-01,
1069,-1.12e-01,
1070,1.04e-01,
1071,-9.60e-02,
1072,8.80e-02,
1073,-1.00e-01,
1074,1.24e-01,
1075,-1.00e-01,
1076,-6.00e-02,
1077,1.48e-01,
1078,1.08e-01,
1079,-1.24e-01,
1080,-1.08e-01,
1081,8.80e-02,
1082,-1.20e-01,
1083,1.24e-01,
1084,1.04e-01,
1085,-9.60e-02,
1086,-1.04e-01,
1087,9.20e-02,
1088,1.76e-01,
1089,-1.52e-01,
1090,1.60e-01,
1091,-1.40e-01,
1092,-1.52e-01,
1093,1.88e-01,
1094,-1.12e-01,
1095,1.48e-01,
1096,2.08e-01,
1097,-1.44e-01,
1098,1.60e-01,
1099,-1.36e-01,
1100,1.72e-01,
1101,-1.24e-01,
1102,-1.28e-01,
1103,3.20e-02,
1104,-1.32e-01,
1105,1.16e-01,
1106,1.80e-01,
1107,-1.44e-01,
1108,1.08e-01,
1109,-6.80e-02,
1110,-1.20e-01,
1111,6.80e-02,
1112,-7.60e-02,
1113,1.56e-01,
1114,-1.44e-01,
1115,1.56e-01,
1116,-1.20e-01,
1117,1.72e-01,
1118,1.16e-01,
1119,-1.52e-01,
1120,1.68e-01,
1121,-1.32e-01,
1122,-9.60e-02,
1123,1.16e-01,
1124,-8.80e-02,
1125,1.24e-01,
1126,-1.08e-01,
1127,1.20e-01,
1128,1.44e-01,
1129,-7.60e-02,
1130,-1.36e-01,
1131,1.28e-01,
1132,-1.12e-01,
1133,9.20e-02,
1134,-1.16e-01,
1135,1.28e-01,
1136,-1.04e-01,
1137,1.04e-01,
1138,1.56e-01,
1139,-1.32e-01,
1140,-1.36e-01,
1141,2.00e-01,
1142,1.40e-01,
1143,-1.08e-01,
1144,1.16e-01,
1145,-1.32e-01,
1146,-1.20e-01,
1147,8.00e-02,
1148,-1.28e-01,
1149,9.60e-02,
1150,1.68e-01,
1151,-1.64e-01,
1152,-9.60e-02,
1153,1.04e-01,
1154,-1.28e-01,
1155,1.64e-01,
1156,2.40e-02,
1157,-1.28e-01,
1158,1.40e-01,
1159,-1.12e-01,
1160,1.72e-01,
1161,-1.32e-01,
1162,6.80e-02,
1163,-1.48e-01,
1164,-1.36e-01,
1165,1.08e-01,
1166,-1.52e-01,
1167,1.72e-01,
1168,1.64e-01,
1169,-1.04e-01,
1170,1.72e-01,
1171,-1.48e-01,
1172,-1.00e-01,
1173,1.28e-01,
1174,-9.20e-02,
1175,1.28e-01,
1176,-1.00e-01,
1177,1.24e-01,
1178,1.12e-01,
1179,-1.08e-01,
1180,-9.60e-02,
1181,1.60e-01,
1182,1.44e-01,
1183,-7.60e-02,
1184,-9.20e-02,
1185,7.60e-02,
1186,1.32e-01,
1187,-1.24e-01,
1188,1.00e-01,
1189,-1.24e-01,
1190,-8.40e-02,
1191,8.80e-02,
1192,-1.48e-01,
1193,1.60e-01,
1194,-1.12e-01,
1195,1.44e-01,
1196,9.60e-02,
1197,-1.48e-01,
1198,-1.68e-01,
1199,9.60e-02,
