Laptop_2/LAPTOP_CHRGR_2_ON_DISTANT/time domain/NewFile28.csv

X,CH1,Start,Increment,
Sequence,Volt,-1.500000e-01,2.000000e-04
0,1.28e-01,
1,-1.24e-01,
2,1.08e-01,
3,-1.40e-01,
4,-1.32e-01,
5,1.80e-01,
6,1.72e-01,
7,-1.24e-01,
8,1.28e-01,
9,-1.24e-01,
10,-8.80e-02,
11,1.32e-01,
12,1.32e-01,
13,-1.32e-01,
14,-1.24e-01,
15,1.84e-01,
16,1.76e-01,
17,-1.36e-01,
18,1.76e-01,
19,-1.32e-01,
20,-1.28e-01,
21,1.44e-01,
22,-1.48e-01,
23,1.68e-01,
24,1.16e-01,
25,-1.48e-01,
26,-1.44e-01,
27,1.76e-01,
28,-1.52e-01,
29,1.20e-01,
30,-1.44e-01,
31,1.60e-01,
32,-1.36e-01,
33,9.60e-02,
34,1.64e-01,
35,-1.16e-01,
36,-1.04e-01,
37,1.52e-01,
38,-1.44e-01,
39,1.44e-01,
40,1.72e-01,
41,-8.00e-02,
42,-1.32e-01,
43,1.72e-01,
44,1.48e-01,
45,-1.16e-01,
46,-9.60e-02,
47,1.52e-01,
48,1.48e-01,
49,-1.28e-01,
50,-1.24e-01,
51,1.36e-01,
52,-1.28e-01,
53,1.80e-01,
54,-1.36e-01,
55,1.48e-01,
56,1.64e-01,
57,-1.48e-01,
58,-1.40e-01,
59,1.68e-01,
60,-1.16e-01,
61,1.92e-01,
62,-1.52e-01,
63,1.96e-01,
64,1.60e-01,
65,-1.28e-01,
66,-1.48e-01,
67,9.60e-02,
68,-1.44e-01,
69,1.16e-01,
70,1.60e-01,
71,-1.32e-01,
72,-1.28e-01,
73,1.00e-01,
74,-1.28e-01,
75,1.76e-01,
76,1.24e-01,
77,-1.24e-01,
78,-1.32e-01,
79,1.36e-01,
80,-1.36e-01,
81,1.84e-01,
82,-1.32e-01,
83,1.68e-01,
84,8.80e-02,
85,-1.32e-01,
86,-1.24e-01,
87,1.44e-01,
88,-1.28e-01,
89,8.40e-02,
90,-1.40e-01,
91,9.20e-02,
92,-1.32e-01,
93,1.44e-01,
94,-1.36e-01,
95,1.72e-01,
96,1.44e-01,
97,-1.40e-01,
98,1.88e-01,
99,-1.44e-01,
100,1.68e-01,
101,-1.16e-01,
102,-1.48e-01,
103,1.16e-01,
104,1.36e-01,
105,-5.20e-02,
106,1.76e-01,
107,-4.00e-02,
108,-4.00e-02,
109,1.52e-01,
110,2.40e-02,
111,-1.32e-01,
112,1.56e-01,
113,-1.24e-01,
114,-1.44e-01,
115,1.48e-01,
116,1.88e-01,
117,-1.16e-01,
118,-1.32e-01,
119,1.64e-01,
120,1.92e-01,
121,-1.40e-01,
122,1.40e-01,
123,-1.32e-01,
124,-1.36e-01,
125,1.84e-01,
126,-1.32e-01,
127,1.80e-01,
128,-1.24e-01,
129,1.48e-01,
130,-1.40e-01,
131,1.44e-01,
132,1.76e-01,
133,-1.08e-01,
134,-1.24e-01,
135,1.80e-01,
136,1.64e-01,
137,-1.44e-01,
138,1.88e-01,
139,-1.40e-01,
140,1.60e-01,
141,-1.28e-01,
142,-1.40e-01,
143,1.64e-01,
144,1.72e-01,
145,-1.16e-01,
146,1.56e-01,
147,-1.36e-01,
148,1.68e-01,
149,-5.60e-02,
150,1.64e-01,
151,-1.20e-01,
152,-1.48e-01,
153,1.12e-01,
154,-1.32e-01,
155,1.28e-01,
156,1.56e-01,
157,-1.36e-01,
158,1.48e-01,
159,-1.48e-01,
160,-9.60e-02,
161,1.76e-01,
162,1.68e-01,
163,-1.12e-01,
164,1.84e-01,
165,-1.12e-01,
166,1.68e-01,
167,-1.40e-01,
168,1.36e-01,
169,-1.36e-01,
170,-1.36e-01,
171,1.20e-01,
172,-1.40e-01,
173,1.76e-01,
174,1.48e-01,
175,-8.40e-02,
176,1.56e-01,
177,-1.32e-01,
178,8.40e-02,
179,-1.36e-01,
180,1.36e-01,
181,-1.44e-01,
182,-1.44e-01,
183,8.80e-02,
184,-1.28e-01,
185,1.68e-01,
186,1.72e-01,
187,-1.48e-01,
188,1.68e-01,
189,-1.08e-01,
190,1.60e-01,
191,-1.52e-01,
192,1.12e-01,
193,-1.24e-01,
194,-1.24e-01,
195,1.40e-01,
196,-2.40e-02,
197,1.08e-01,
198,-1.12e-01,
199,1.68e-01,
200,1.84e-01,
201,-1.28e-01,
202,-1.48e-01,
203,1.68e-01,
204,-1.36e-01,
205,1.64e-01,
206,-1.40e-01,
207,1.68e-01,
208,-1.32e-01,
209,1.28e-01,
210,1.72e-01,
211,-1.24e-01,
212,1.80e-01,
213,-1.32e-01,
214,1.60e-01,
215,-1.28e-01,
216,1.44e-01,
217,-1.44e-01,
218,1.76e-01,
219,-1.40e-01,
220,1.36e-01,
221,-1.36e-01,
222,-1.24e-01,
223,1.68e-01,
224,-1.08e-01,
225,1.88e-01,
226,1.68e-01,
227,-1.48e-01,
228,-1.28e-01,
229,8.80e-02,
230,1.08e-01,
231,-1.20e-01,
232,-1.48e-01,
233,1.64e-01,
234,1.64e-01,
235,-9.20e-02,
236,1.60e-01,
237,-1.16e-01,
238,1.44e-01,
239,-1.32e-01,
240,1.92e-01,
241,-1.24e-01,
242,-1.36e-01,
243,1.84e-01,
244,-1.40e-01,
245,1.44e-01,
246,1.76e-01,
247,-1.36e-01,
248,-1.28e-01,
249,1.36e-01,
250,-1.52e-01,
251,1.84e-01,
252,1.40e-01,
253,-1.48e-01,
254,-1.32e-01,
255,1.88e-01,
256,-1.40e-01,
257,2.00e-01,
258,1.92e-01,
259,-1.32e-01,
260,1.64e-01,
261,-1.36e-01,
262,1.12e-01,
263,-1.48e-01,
264,1.60e-01,
265,-1.48e-01,
266,-1.12e-01,
267,1.60e-01,
268,1.64e-01,
269,-1.52e-01,
270,9.60e-02,
271,-1.36e-01,
272,1.32e-01,
273,-1.16e-01,
274,-1.44e-01,
275,1.08e-01,
276,2.40e-02,
277,-1.36e-01,
278,-1.00e-01,
279,1.56e-01,
280,-1.48e-01,
281,2.00e-01,
282,-1.48e-01,
283,1.76e-01,
284,1.52e-01,
285,-1.52e-01,
286,-1.56e-01,
287,1.60e-01,
288,-1.48e-01,
289,2.00e-01,
290,-1.44e-01,
291,1.56e-01,
292,1.56e-01,
293,-1.52e-01,
294,2.04e-01,
295,-1.48e-01,
296,-1.40e-01,
297,1.48e-01,
298,1.88e-01,
299,-1.48e-01,
300,-1.44e-01,
301,1.92e-01,
302,-1.32e-01,
303,1.88e-01,
304,1.84e-01,
305,-1.28e-01,
306,1.56e-01,
307,-1.40e-01,
308,1.60e-01,
309,-1.32e-01,
310,1.60e-01,
311,-1.40e-01,
312,1.32e-01,
313,-1.40e-01,
314,8.40e-02,
315,-1.36e-01,
316,-1.28e-01,
317,1.64e-01,
318,6.80e-02,
319,-7.60e-02,
320,1.36e-01,
321,-1.48e-01,
322,1.80e-01,
323,-1.48e-01,
324,2.04e-01,
325,-1.48e-01,
326,-1.52e-01,
327,2.08e-01,
328,-1.48e-01,
329,1.72e-01,
330,1.60e-01,
331,-1.24e-01,
332,-1.36e-01,
333,1.84e-01,
334,-1.32e-01,
335,1.52e-01,
336,-1.20e-01,
337,1.52e-01,
338,-1.32e-01,
339,1.36e-01,
340,1.04e-01,
341,-1.36e-01,
342,1.52e-01,
343,-1.32e-01,
344,-1.36e-01,
345,1.16e-01,
346,1.32e-01,
347,-1.40e-01,
348,-1.32e-01,
349,1.16e-01,
350,1.68e-01,
351,-1.24e-01,
352,1.64e-01,
353,-1.36e-01,
354,-1.40e-01,
355,1.56e-01,
356,1.08e-01,
357,-1.48e-01,
358,1.28e-01,
359,-1.48e-01,
360,-1.48e-01,
361,1.72e-01,
362,1.92e-01,
363,-1.48e-01,
364,-1.48e-01,
365,1.12e-01,
366,-1.40e-01,
367,1.64e-01,
368,1.68e-01,
369,-1.48e-01,
370,-1.16e-01,
371,1.76e-01,
372,-1.36e-01,
373,1.76e-01,
374,1.20e-01,
375,-1.24e-01,
376,-1.36e-01,
377,1.24e-01,
378,-1.40e-01,
379,1.84e-01,
380,-1.28e-01,
381,1.64e-01,
382,-1.28e-01,
383,1.56e-01,
384,1.52e-01,
385,-1.08e-01,
386,-1.28e-01,
387,1.52e-01,
388,1.28e-01,
389,-1.40e-01,
390,1.64e-01,
391,-1.44e-01,
392,1.64e-01,
393,-7.60e-02,
394,1.20e-01,
395,-1.32e-01,
396,1.68e-01,
397,-1.04e-01,
398,-1.32e-01,
399,1.68e-01,
400,-1.48e-01,
401,1.60e-01,
402,1.64e-01,
403,-1.04e-01,
404,1.88e-01,
405,-1.28e-01,
406,-1.28e-01,
407,1.64e-01,
408,-1.44e-01,
409,1.88e-01,
410,1.40e-01,
411,-1.44e-01,
412,1.68e-01,
413,-1.20e-01,
414,-1.40e-01,
415,1.08e-01,
416,-1.32e-01,
417,1.60e-01,
418,2.00e-01,
419,-1.44e-01,
420,1.12e-01,
421,-1.40e-01,
422,-1.40e-01,
423,1.72e-01,
424,1.56e-01,
425,-1.48e-01,
426,-1.36e-01,
427,1.64e-01,
428,4.00e-02,
429,-1.32e-01,
430,-1.24e-01,
431,1.28e-01,
432,-1.00e-01,
433,1.52e-01,
434,1.76e-01,
435,-1.20e-01,
436,1.72e-01,
437,-1.16e-01,
438,-1.36e-01,
439,1.52e-01,
440,1.76e-01,
441,-1.28e-01,
442,1.64e-01,
443,-1.36e-01,
444,-1.40e-01,
445,1.76e-01,
446,1.56e-01,
447,-1.36e-01,
448,1.72e-01,
449,-1.40e-01,
450,2.00e-01,
451,-1.40e-01,
452,-1.52e-01,
453,1.68e-01,
454,-1.48e-01,
455,1.84e-01,
456,2.00e-01,
457,-1.08e-01,
458,1.88e-01,
459,-1.52e-01,
460,-1.20e-01,
461,9.60e-02,
462,1.88e-01,
463,-1.40e-01,
464,-1.28e-01,
465,1.44e-01,
466,1.68e-01,
467,-1.40e-01,
468,1.80e-01,
469,-1.32e-01,
470,1.24e-01,
471,-1.36e-01,
472,-1.40e-01,
473,1.60e-01,
474,1.20e-01,
475,-1.24e-01,
476,1.48e-01,
477,-1.36e-01,
478,-1.28e-01,
479,1.64e-01,
480,-1.28e-01,
481,1.64e-01,
482,2.00e-01,
483,-1.48e-01,
484,-1.40e-01,
485,1.92e-01,
486,-1.16e-01,
487,1.52e-01,
488,-1.40e-01,
489,1.12e-01,
490,1.52e-01,
491,-1.32e-01,
492,-1.48e-01,
493,1.72e-01,
494,-1.44e-01,
495,1.68e-01,
496,1.64e-01,
497,-1.12e-01,
498,1.60e-01,
499,-1.44e-01,
500,1.80e-01,
501,-1.28e-01,
502,1.92e-01,
503,-1.56e-01,
504,-1.28e-01,
505,1.76e-01,
506,-1.32e-01,
507,1.52e-01,
508,-1.20e-01,
509,1.56e-01,
510,1.20e-01,
511,-9.20e-02,
512,-1.36e-01,
513,1.52e-01,
514,-1.08e-01,
515,1.60e-01,
516,1.60e-01,
517,-1.28e-01,
518,1.20e-01,
519,-1.28e-01,
520,2.16e-01,
521,-1.60e-01,
522,2.28e-01,
523,-1.64e-01,
524,2.20e-01,
525,-1.68e-01,
526,-1.72e-01,
527,2.32e-01,
528,2.24e-01,
529,-1.48e-01,
530,-1.56e-01,
531,2.12e-01,
532,-1.40e-01,
533,1.72e-01,
534,-1.56e-01,
535,1.68e-01,
536,1.36e-01,
537,-1.56e-01,
538,-1.36e-01,
539,1.88e-01,
540,-1.52e-01,
541,1.24e-01,
542,-1.52e-01,
543,2.12e-01,
544,-1.64e-01,
545,2.12e-01,
546,1.68e-01,
547,-1.32e-01,
548,1.80e-01,
549,-1.08e-01,
550,-1.32e-01,
551,1.44e-01,
552,-1.40e-01,
553,2.16e-01,
554,1.20e-01,
555,-1.52e-01,
556,-1.32e-01,
557,1.60e-01,
558,1.88e-01,
559,-1.52e-01,
560,-1.52e-01,
561,1.92e-01,
562,2.16e-01,
563,-1.52e-01,
564,-1.48e-01,
565,1.92e-01,
566,-1.44e-01,
567,2.20e-01,
568,2.24e-01,
569,-1.56e-01,
570,-1.52e-01,
571,2.12e-01,
572,1.72e-01,
573,-1.24e-01,
574,2.12e-01,
575,-1.52e-01,
576,1.76e-01,
577,-1.44e-01,
578,1.36e-01,
579,-1.56e-01,
580,-1.48e-01,
581,1.76e-01,
582,-1.44e-01,
583,1.52e-01,
584,1.48e-01,
585,-1.40e-01,
586,-1.40e-01,
587,1.56e-01,
588,-1.44e-01,
589,1.64e-01,
590,-6.80e-02,
591,1.52e-01,
592,1.36e-01,
593,-1.48e-01,
594,1.08e-01,
595,-1.56e-01,
596,-1.44e-01,
597,1.64e-01,
598,1.64e-01,
599,-1.36e-01,
600,-1.56e-01,
601,2.16e-01,
602,-1.64e-01,
603,1.68e-01,
604,-1.60e-01,
605,2.08e-01,
606,-1.40e-01,
607,2.04e-01,
608,-1.48e-01,
609,1.52e-01,
610,-1.36e-01,
611,1.80e-01,
612,-1.28e-01,
613,1.48e-01,
614,1.76e-01,
615,-1.48e-01,
616,1.68e-01,
617,-1.52e-01,
618,2.20e-01,
619,-1.52e-01,
620,2.24e-01,
621,-1.44e-01,
622,-1.44e-01,
623,1.96e-01,
624,2.00e-01,
625,-1.16e-01,
626,1.64e-01,
627,-1.52e-01,
628,-1.24e-01,
629,1.68e-01,
630,-1.40e-01,
631,1.56e-01,
632,-1.44e-01,
633,1.16e-01,
634,-1.28e-01,
635,1.44e-01,
636,8.80e-02,
637,-1.36e-01,
638,-1.36e-01,
639,2.00e-01,
640,-1.48e-01,
641,1.64e-01,
642,1.48e-01,
643,-1.52e-01,
644,-1.56e-01,
645,2.00e-01,
646,-1.44e-01,
647,2.28e-01,
648,-1.52e-01,
649,2.28e-01,
650,-1.56e-01,
651,1.84e-01,
652,2.04e-01,
653,-1.60e-01,
654,-1.52e-01,
655,1.76e-01,
656,2.12e-01,
657,-1.56e-01,
658,1.84e-01,
659,-1.52e-01,
660,1.88e-01,
661,-1.56e-01,
662,1.64e-01,
663,-1.56e-01,
664,-1.48e-01,
665,1.88e-01,
666,1.80e-01,
667,-1.20e-01,
668,-1.40e-01,
669,1.04e-01,
670,1.56e-01,
671,-1.28e-01,
672,-1.28e-01,
673,1.64e-01,
674,-1.52e-01,
675,1.28e-01,
676,1.36e-01,
677,-1.52e-01,
678,-1.48e-01,
679,1.72e-01,
680,-1.44e-01,
681,1.92e-01,
682,-1.48e-01,
683,1.80e-01,
684,1.84e-01,
685,-1.40e-01,
686,-1.48e-01,
687,2.00e-01,
688,-1.44e-01,
689,1.72e-01,
690,-1.64e-01,
691,2.12e-01,
692,-1.28e-01,
693,2.28e-01,
694,-1.68e-01,
695,2.00e-01,
696,-1.72e-01,
697,2.32e-01,
698,-1.60e-01,
699,2.20e-01,
700,-1.52e-01,
701,2.24e-01,
702,-1.56e-01,
703,1.52e-01,
704,-1.48e-01,
705,1.88e-01,
706,-1.36e-01,
707,1.92e-01,
708,1.28e-01,
709,-1.40e-01,
710,1.44e-01,
711,-1.20e-01,
712,-1.32e-01,
713,1.48e-01,
714,1.16e-01,
715,-1.16e-01,
716,-1.40e-01,
717,1.16e-01,
718,1.56e-01,
719,-1.44e-01,
720,2.08e-01,
721,-1.20e-01,
722,1.68e-01,
723,-1.36e-01,
724,1.76e-01,
725,-1.40e-01,
726,1.60e-01,
727,-1.20e-01,
728,1.52e-01,
729,-1.40e-01,
730,1.44e-01,
731,-1.36e-01,
732,1.88e-01,
733,-1.44e-01,
734,1.88e-01,
735,-1.40e-01,
736,-1.36e-01,
737,2.08e-01,
738,1.64e-01,
739,-1.56e-01,
740,2.08e-01,
741,-1.52e-01,
742,1.68e-01,
743,-1.56e-01,
744,-8.00e-02,
745,1.04e-01,
746,-1.04e-01,
747,1.08e-01,
748,1.28e-01,
749,-1.24e-01,
750,-1.36e-01,
751,1.16e-01,
752,5.20e-02,
753,-1.40e-01,
754,-1.36e-01,
755,1.28e-01,
756,-1.44e-01,
757,2.04e-01,
758,1.52e-01,
759,-1.24e-01,
760,1.48e-01,
761,-1.20e-01,
762,1.64e-01,
763,-1.36e-01,
764,-1.36e-01,
765,1.68e-01,
766,1.96e-01,
767,-1.48e-01,
768,-1.44e-01,
769,1.84e-01,
770,2.16e-01,
771,-1.40e-01,
772,2.04e-01,
773,-1.68e-01,
774,2.16e-01,
775,-1.72e-01,
776,1.84e-01,
777,-1.60e-01,
778,2.00e-01,
779,-1.56e-01,
780,2.12e-01,
781,-1.60e-01,
782,-1.52e-01,
783,2.00e-01,
784,-1.28e-01,
785,1.60e-01,
786,-1.12e-01,
787,1.64e-01,
788,1.64e-01,
789,-1.36e-01,
790,-1.28e-01,
791,1.32e-01,
792,1.52e-01,
793,-1.32e-01,
794,7.20e-02,
795,-1.44e-01,
796,-1.16e-01,
797,1.40e-01,
798,-1.36e-01,
799,1.84e-01,
800,-1.44e-01,
801,1.36e-01,
802,-1.44e-01,
803,1.64e-01,
804,2.04e-01,
805,-1.64e-01,
806,-1.52e-01,
807,2.20e-01,
808,2.16e-01,
809,-1.52e-01,
810,-1.48e-01,
811,1.64e-01,
812,1.68e-01,
813,-1.44e-01,
814,-1.40e-01,
815,1.80e-01,
816,1.52e-01,
817,-1.20e-01,
818,1.76e-01,
819,-1.36e-01,
820,1.68e-01,
821,-1.44e-01,
822,1.60e-01,
823,-1.24e-01,
824,-1.52e-01,
825,2.00e-01,
826,1.72e-01,
827,-1.48e-01,
828,-9.20e-02,
829,1.60e-01,
830,1.44e-01,
831,-1.44e-01,
832,-1.36e-01,
833,9.60e-02,
834,1.60e-01,
835,-1.44e-01,
836,1.44e-01,
837,-1.52e-01,
838,-1.44e-01,
839,1.56e-01,
840,-1.40e-01,
841,2.00e-01,
842,1.60e-01,
843,-1.44e-01,
844,-1.40e-01,
845,2.00e-01,
846,2.00e-01,
847,-1.40e-01,
848,-1.36e-01,
849,1.72e-01,
850,-1.56e-01,
851,2.00e-01,
852,-1.44e-01,
853,1.96e-01,
854,1.80e-01,
855,-1.48e-01,
856,1.96e-01,
857,-1.36e-01,
858,2.16e-01,
859,-1.68e-01,
860,2.12e-01,
861,-1.32e-01,
862,1.68e-01,
863,-1.20e-01,
864,-8.00e-02,
865,1.44e-01,
866,-1.24e-01,
867,1.64e-01,
868,-1.32e-01,
869,1.52e-01,
870,-1.44e-01,
871,1.08e-01,
872,1.52e-01,
873,-1.24e-01,
874,-1.20e-01,
875,1.56e-01,
876,-1.00e-01,
877,1.24e-01,
878,1.64e-01,
879,-1.32e-01,
880,2.04e-01,
881,-1.36e-01,
882,1.56e-01,
883,-9.20e-02,
884,1.52e-01,
885,-1.24e-01,
886,-1.52e-01,
887,1.88e-01,
888,1.92e-01,
889,-1.48e-01,
890,1.84e-01,
891,-1.32e-01,
892,-1.44e-01,
893,1.56e-01,
894,1.04e-01,
895,-1.44e-01,
896,1.92e-01,
897,-1.40e-01,
898,1.76e-01,
899,-1.52e-01,
900,1.96e-01,
901,-1.48e-01,
902,-1.36e-01,
903,1.72e-01,
904,1.20e-01,
905,-1.44e-01,
906,1.24e-01,
907,-1.52e-01,
908,1.20e-01,
909,-1.36e-01,
910,-8.00e-02,
911,1.36e-01,
912,1.64e-01,
913,-1.56e-01,
914,-1.64e-01,
915,1.92e-01,
916,-1.56e-01,
917,1.72e-01,
918,-1.52e-01,
919,1.76e-01,
920,2.04e-01,
921,-1.40e-01,
922,2.04e-01,
923,-1.44e-01,
924,1.84e-01,
925,-1.48e-01,
926,-1.36e-01,
927,1.40e-01,
928,1.96e-01,
929,-1.52e-01,
930,2.12e-01,
931,-1.44e-01,
932,1.92e-01,
933,-1.64e-01,
934,1.64e-01,
935,-1.60e-01,
936,-1.68e-01,
937,2.24e-01,
938,2.28e-01,
939,-1.64e-01,
940,-1.68e-01,
941,2.00e-01,
942,2.00e-01,
943,-1.60e-01,
944,1.68e-01,
945,-1.52e-01,
946,-1.48e-01,
947,1.16e-01,
948,-6.40e-02,
949,1.44e-01,
950,-1.32e-01,
951,1.60e-01,
952,-1.12e-01,
953,1.48e-01,
954,1.24e-01,
955,-1.24e-01,
956,1.60e-01,
957,-1.16e-01,
958,-1.52e-01,
959,2.04e-01,
960,-1.60e-01,
961,1.16e-01,
962,-1.52e-01,
963,1.68e-01,
964,2.04e-01,
965,-1.44e-01,
966,-1.40e-01,
967,2.08e-01,
968,2.04e-01,
969,-1.52e-01,
970,-1.40e-01,
971,1.96e-01,
972,-1.40e-01,
973,1.80e-01,
974,-1.36e-01,
975,1.84e-01,
976,1.60e-01,
977,-1.40e-01,
978,-8.40e-02,
979,1.88e-01,
980,2.04e-01,
981,-1.36e-01,
982,1.60e-01,
983,-1.20e-01,
984,-1.28e-01,
985,1.52e-01,
986,-1.20e-01,
987,1.72e-01,
988,-1.24e-01,
989,1.44e-01,
990,-1.20e-01,
991,1.60e-01,
992,9.20e-02,
993,-1.28e-01,
994,-1.40e-01,
995,1.44e-01,
996,1.12e-01,
997,-1.16e-01,
998,1.52e-01,
999,-1.32e-01,
1000,2.00e-01,
1001,-1.44e-01,
1002,-1.36e-01,
1003,1.48e-01,
1004,-1.20e-01,
1005,1.56e-01,
1006,-1.44e-01,
1007,1.56e-01,
1008,1.52e-01,
1009,-1.32e-01,
1010,-1.48e-01,
1011,2.04e-01,
1012,-1.28e-01,
1013,1.48e-01,
1014,1.80e-01,
1015,-1.52e-01,
1016,-1.44e-01,
1017,2.04e-01,
1018,-1.44e-01,
1019,1.52e-01,
1020,-1.60e-01,
1021,1.84e-01,
1022,2.04e-01,
1023,-1.56e-01,
1024,1.44e-01,
1025,-1.36e-01,
1026,1.04e-01,
1027,-1.32e-01,
1028,-1.48e-01,
1029,9.20e-02,
1030,-1.24e-01,
1031,1.24e-01,
1032,1.52e-01,
1033,-1.40e-01,
1034,-1.16e-01,
1035,1.44e-01,
1036,-1.24e-01,
1037,1.32e-01,
1038,-1.40e-01,
1039,2.08e-01,
1040,-1.40e-01,
1041,1.88e-01,
1042,-1.40e-01,
1043,1.92e-01,
1044,1.64e-01,
1045,-1.32e-01,
1046,1.80e-01,
1047,-1.48e-01,
1048,-1.44e-01,
1049,1.44e-01,
1050,1.72e-01,
1051,-1.36e-01,
1052,1.84e-01,
1053,-1.32e-01,
1054,-1.24e-01,
1055,1.76e-01,
1056,1.44e-01,
1057,-1.44e-01,
1058,1.88e-01,
1059,-1.40e-01,
1060,-1.48e-01,
1061,1.68e-01,
1062,-1.56e-01,
1063,2.04e-01,
1064,-8.80e-02,
1065,1.16e-01,
1066,-6.00e-02,
1067,2.12e-01,
1068,1.52e-01,
1069,-1.36e-01,
1070,9.60e-02,
1071,-1.48e-01,
1072,-1.32e-01,
1073,1.16e-01,
1074,1.60e-01,
1075,-1.16e-01,
1076,1.76e-01,
1077,-1.56e-01,
1078,-1.48e-01,
1079,1.92e-01,
1080,1.04e-01,
1081,-1.44e-01,
1082,1.84e-01,
1083,-1.28e-01,
1084,1.76e-01,
1085,-1.28e-01,
1086,1.12e-01,
1087,-1.40e-01,
1088,1.72e-01,
1089,-1.52e-01,
1090,-1.36e-01,
1091,2.04e-01,
1092,1.48e-01,
1093,-1.56e-01,
1094,-1.56e-01,
1095,1.80e-01,
1096,-1.64e-01,
1097,1.88e-01,
1098,-1.68e-01,
1099,2.20e-01,
1100,-1.60e-01,
1101,2.16e-01,
1102,1.76e-01,
1103,-1.36e-01,
1104,-1.20e-01,
1105,1.52e-01,
1106,-1.40e-01,
1107,1.36e-01,
1108,1.16e-01,
1109,-1.00e-01,
1110,1.56e-01,
1111,-1.44e-01,
1112,-1.40e-01,
1113,1.36e-01,
1114,-1.08e-01,
1115,1.56e-01,
1116,1.56e-01,
1117,-1.44e-01,
1118,-1.48e-01,
1119,1.60e-01,
1120,1.68e-01,
1121,-1.40e-01,
1122,-1.52e-01,
1123,2.08e-01,
1124,1.68e-01,
1125,-1.64e-01,
1126,-1.60e-01,
1127,1.76e-01,
1128,2.08e-01,
1129,-1.60e-01,
1130,1.48e-01,
1131,-1.56e-01,
1132,-1.52e-01,
1133,1.16e-01,
1134,-1.40e-01,
1135,1.28e-01,
1136,-1.24e-01,
1137,1.52e-01,
1138,-1.24e-01,
1139,1.60e-01,
1140,-1.00e-01,
1141,1.60e-01,
1142,1.76e-01,
1143,-1.48e-01,
1144,1.96e-01,
1145,-1.36e-01,
1146,-1.36e-01,
1147,1.52e-01,
1148,1.48e-01,
1149,-1.40e-01,
1150,-1.36e-01,
1151,1.60e-01,
1152,-6.40e-02,
1153,2.24e-01,
1154,8.80e-02,
1155,-8.80e-02,
1156,1.28e-01,
1157,-1.36e-01,
1158,-1.52e-01,
1159,2.00e-01,
1160,2.04e-01,
1161,-1.44e-01,
1162,-1.44e-01,
1163,1.64e-01,
1164,-1.40e-01,
1165,1.80e-01,
1166,-1.40e-01,
1167,1.84e-01,
1168,-1.36e-01,
1169,1.84e-01,
1170,-1.40e-01,
1171,1.80e-01,
1172,-1.36e-01,
1173,1.84e-01,
1174,1.84e-01,
1175,-1.40e-01,
1176,-1.52e-01,
1177,2.04e-01,
1178,-1.20e-01,
1179,2.00e-01,
1180,1.84e-01,
1181,-1.40e-01,
1182,1.64e-01,
1183,-1.48e-01,
1184,-1.36e-01,
1185,1.68e-01,
1186,-1.44e-01,
1187,1.88e-01,
1188,-1.44e-01,
1189,8.80e-02,
1190,-1.20e-01,
1191,1.56e-01,
1192,-1.36e-01,
1193,1.80e-01,
1194,-1.36e-01,
1195,1.32e-01,
1196,-6.00e-02,
1197,1.60e-01,
1198,2.08e-01,
1199,-1.52e-01,
