Laptop_2/LAPTOP_CHRGR_2_ON_DISTANT/time domain/NewFile32.csv

X,CH1,Start,Increment,
Sequence,Volt,-1.500000e-01,2.000000e-04
0,1.36e-01,
1,-1.04e-01,
2,-1.12e-01,
3,1.32e-01,
4,-1.40e-01,
5,1.08e-01,
6,1.24e-01,
7,-1.00e-01,
8,1.72e-01,
9,-1.32e-01,
10,-1.52e-01,
11,1.88e-01,
12,-1.64e-01,
13,2.16e-01,
14,1.72e-01,
15,-1.60e-01,
16,2.16e-01,
17,-1.64e-01,
18,1.92e-01,
19,-1.76e-01,
20,2.04e-01,
21,-1.64e-01,
22,2.08e-01,
23,-1.64e-01,
24,1.24e-01,
25,-1.64e-01,
26,-1.68e-01,
27,1.28e-01,
28,-1.44e-01,
29,1.76e-01,
30,1.72e-01,
31,-1.68e-01,
32,1.52e-01,
33,-1.44e-01,
34,1.80e-01,
35,-1.28e-01,
36,1.48e-01,
37,-1.68e-01,
38,1.68e-01,
39,-1.64e-01,
40,-1.64e-01,
41,2.20e-01,
42,-1.52e-01,
43,2.12e-01,
44,2.04e-01,
45,-1.28e-01,
46,1.96e-01,
47,-1.52e-01,
48,-1.04e-01,
49,9.20e-02,
50,1.32e-01,
51,-1.16e-01,
52,8.80e-02,
53,-1.04e-01,
54,1.40e-01,
55,-1.04e-01,
56,-1.20e-01,
57,8.40e-02,
58,1.20e-01,
59,-1.20e-01,
60,-1.28e-01,
61,1.68e-01,
62,-8.80e-02,
63,1.32e-01,
64,1.08e-01,
65,-1.04e-01,
66,-3.20e-02,
67,1.56e-01,
68,1.44e-01,
69,-6.40e-02,
70,1.92e-01,
71,-4.80e-02,
72,-1.56e-01,
73,1.24e-01,
74,-7.20e-02,
75,1.64e-01,
76,-8.40e-02,
77,1.88e-01,
78,5.20e-02,
79,-1.20e-01,
80,1.64e-01,
81,-1.24e-01,
82,-1.12e-01,
83,1.68e-01,
84,1.72e-01,
85,-9.60e-02,
86,1.88e-01,
87,-1.56e-01,
88,-1.60e-01,
89,1.56e-01,
90,-1.44e-01,
91,1.76e-01,
92,-1.48e-01,
93,2.12e-01,
94,2.16e-01,
95,-1.64e-01,
96,-1.64e-01,
97,1.88e-01,
98,2.12e-01,
99,-1.68e-01,
100,2.16e-01,
101,-1.56e-01,
102,1.96e-01,
103,-1.68e-01,
104,-1.28e-01,
105,2.00e-01,
106,-1.48e-01,
107,1.08e-01,
108,1.20e-01,
109,-7.20e-02,
110,1.72e-01,
111,-1.28e-01,
112,1.68e-01,
113,-1.56e-01,
114,2.08e-01,
115,-8.80e-02,
116,4.80e-02,
117,-1.56e-01,
118,2.00e-01,
119,-1.64e-01,
120,-1.44e-01,
121,1.04e-01,
122,1.88e-01,
123,-1.68e-01,
124,-1.40e-01,
125,1.24e-01,
126,1.84e-01,
127,-1.48e-01,
128,2.20e-01,
129,-1.72e-01,
130,-1.72e-01,
131,1.92e-01,
132,-1.64e-01,
133,2.16e-01,
134,2.00e-01,
135,-1.36e-01,
136,-1.64e-01,
137,1.60e-01,
138,-1.40e-01,
139,2.20e-01,
140,-1.48e-01,
141,1.96e-01,
142,1.04e-01,
143,-8.00e-02,
144,1.92e-01,
145,-8.40e-02,
146,-1.52e-01,
147,1.84e-01,
148,2.00e-01,
149,-1.60e-02,
150,1.80e-01,
151,-9.20e-02,
152,1.84e-01,
153,-5.20e-02,
154,-9.60e-02,
155,1.72e-01,
156,-1.52e-01,
157,2.08e-01,
158,-1.20e-01,
159,1.92e-01,
160,-1.64e-01,
161,2.08e-01,
162,-1.72e-01,
163,1.80e-01,
164,-1.56e-01,
165,1.52e-01,
166,2.24e-01,
167,-1.72e-01,
168,-1.68e-01,
169,1.44e-01,
170,-1.64e-01,
171,1.84e-01,
172,-1.36e-01,
173,1.40e-01,
174,1.32e-01,
175,-9.60e-02,
176,1.68e-01,
177,-1.04e-01,
178,-1.16e-01,
179,1.24e-01,
180,-1.56e-01,
181,1.56e-01,
182,-1.00e-01,
183,1.16e-01,
184,-1.04e-01,
185,1.44e-01,
186,1.36e-01,
187,-1.16e-01,
188,1.28e-01,
189,-1.04e-01,
190,-1.12e-01,
191,1.20e-01,
192,1.28e-01,
193,-1.08e-01,
194,-7.20e-02,
195,1.40e-01,
196,-1.24e-01,
197,1.12e-01,
198,-1.20e-01,
199,1.56e-01,
200,-1.48e-01,
201,1.40e-01,
202,-9.60e-02,
203,1.64e-01,
204,-1.48e-01,
205,1.84e-01,
206,-1.12e-01,
207,1.96e-01,
208,-1.48e-01,
209,1.84e-01,
210,-1.32e-01,
211,1.56e-01,
212,1.88e-01,
213,-1.28e-01,
214,1.56e-01,
215,-1.40e-01,
216,2.20e-01,
217,-1.72e-01,
218,1.12e-01,
219,-1.28e-01,
220,1.72e-01,
221,-1.24e-01,
222,7.60e-02,
223,-1.00e-01,
224,1.56e-01,
225,-1.12e-01,
226,-1.04e-01,
227,1.40e-01,
228,9.20e-02,
229,-2.80e-02,
230,-1.04e-01,
231,1.20e-01,
232,-9.20e-02,
233,1.24e-01,
234,1.36e-01,
235,-1.12e-01,
236,-1.40e-01,
237,1.80e-01,
238,-1.00e-01,
239,2.12e-01,
240,-1.24e-01,
241,2.08e-01,
242,-1.40e-01,
243,1.88e-01,
244,-1.52e-01,
245,2.12e-01,
246,-1.68e-01,
247,1.36e-01,
248,1.24e-01,
249,-1.28e-01,
250,-1.28e-01,
251,6.80e-02,
252,-1.36e-01,
253,1.68e-01,
254,-1.28e-01,
255,6.80e-02,
256,2.32e-01,
257,-1.72e-01,
258,1.60e-01,
259,-1.04e-01,
260,-1.20e-01,
261,1.20e-01,
262,1.76e-01,
263,-9.60e-02,
264,-1.04e-01,
265,1.24e-01,
266,-7.20e-02,
267,1.12e-01,
268,-8.00e-02,
269,5.20e-02,
270,8.80e-02,
271,-1.20e-01,
272,1.28e-01,
273,-1.16e-01,
274,1.64e-01,
275,-1.00e-01,
276,1.44e-01,
277,-7.60e-02,
278,1.56e-01,
279,-7.60e-02,
280,-1.08e-01,
281,1.28e-01,
282,-1.12e-01,
283,1.48e-01,
284,-1.16e-01,
285,9.20e-02,
286,-1.04e-01,
287,1.76e-01,
288,-9.60e-02,
289,1.64e-01,
290,-8.80e-02,
291,1.44e-01,
292,1.48e-01,
293,-1.28e-01,
294,-1.04e-01,
295,1.20e-01,
296,-1.12e-01,
297,1.12e-01,
298,-1.24e-01,
299,2.16e-01,
300,-1.52e-01,
301,1.64e-01,
302,1.68e-01,
303,-6.80e-02,
304,1.08e-01,
305,-1.08e-01,
306,7.60e-02,
307,-1.28e-01,
308,1.56e-01,
309,-1.64e-01,
310,1.36e-01,
311,-9.20e-02,
312,1.28e-01,
313,-5.60e-02,
314,1.52e-01,
315,-1.40e-01,
316,-1.16e-01,
317,1.76e-01,
318,-1.64e-01,
319,1.60e-01,
320,-1.52e-01,
321,1.72e-01,
322,1.96e-01,
323,-1.72e-01,
324,-1.72e-01,
325,2.00e-01,
326,1.68e-01,
327,-1.24e-01,
328,-1.52e-01,
329,1.64e-01,
330,1.36e-01,
331,-9.60e-02,
332,1.48e-01,
333,-1.16e-01,
334,-1.12e-01,
335,1.32e-01,
336,-1.20e-01,
337,1.88e-01,
338,1.28e-01,
339,-1.12e-01,
340,1.48e-01,
341,-1.20e-01,
342,1.56e-01,
343,-1.12e-01,
344,1.68e-01,
345,-1.24e-01,
346,-1.16e-01,
347,1.48e-01,
348,-1.64e-01,
349,7.60e-02,
350,1.92e-01,
351,-1.20e-02,
352,1.64e-01,
353,-1.44e-01,
354,-1.12e-01,
355,1.68e-01,
356,-9.20e-02,
357,1.76e-01,
358,-8.80e-02,
359,1.60e-01,
360,-1.44e-01,
361,1.04e-01,
362,2.16e-01,
363,-1.76e-01,
364,-1.40e-01,
365,1.88e-01,
366,-1.48e-01,
367,5.60e-02,
368,8.00e-02,
369,-1.28e-01,
370,-1.28e-01,
371,1.08e-01,
372,1.52e-01,
373,-1.64e-01,
374,1.72e-01,
375,-1.12e-01,
376,1.68e-01,
377,-1.00e-01,
378,-1.20e-01,
379,9.20e-02,
380,1.16e-01,
381,-1.16e-01,
382,-8.80e-02,
383,1.20e-01,
384,9.60e-02,
385,-9.20e-02,
386,-8.00e-02,
387,9.20e-02,
388,-1.08e-01,
389,1.56e-01,
390,-1.08e-01,
391,6.00e-02,
392,1.68e-01,
393,-4.00e-02,
394,-9.60e-02,
395,6.40e-02,
396,8.00e-02,
397,-6.80e-02,
398,-1.28e-01,
399,1.72e-01,
400,-1.28e-01,
401,1.48e-01,
402,-1.48e-01,
403,2.24e-01,
404,1.56e-01,
405,-1.48e-01,
406,-1.72e-01,
407,2.20e-01,
408,-1.36e-01,
409,2.28e-01,
410,-1.64e-01,
411,1.88e-01,
412,1.36e-01,
413,-1.52e-01,
414,1.96e-01,
415,-8.80e-02,
416,1.76e-01,
417,-9.60e-02,
418,1.52e-01,
419,-7.60e-02,
420,-1.36e-01,
421,1.84e-01,
422,-5.60e-02,
423,1.72e-01,
424,-2.00e-02,
425,1.24e-01,
426,-1.20e-01,
427,1.08e-01,
428,-1.40e-01,
429,1.08e-01,
430,1.48e-01,
431,-1.68e-01,
432,1.16e-01,
433,-1.36e-01,
434,1.28e-01,
435,-1.00e-01,
436,8.80e-02,
437,-1.12e-01,
438,1.00e-01,
439,-1.04e-01,
440,-1.20e-01,
441,8.80e-02,
442,-9.60e-02,
443,1.28e-01,
444,-1.04e-01,
445,1.60e-01,
446,-1.24e-01,
447,1.68e-01,
448,1.24e-01,
449,-1.28e-01,
450,9.60e-02,
451,-7.20e-02,
452,8.80e-02,
453,-1.60e-01,
454,-1.60e-01,
455,1.96e-01,
456,-1.72e-01,
457,1.64e-01,
458,1.00e-01,
459,-1.00e-01,
460,1.68e-01,
461,-1.44e-01,
462,1.96e-01,
463,-1.36e-01,
464,-9.20e-02,
465,1.84e-01,
466,1.76e-01,
467,-1.32e-01,
468,1.32e-01,
469,-1.20e-01,
470,1.68e-01,
471,-8.40e-02,
472,1.76e-01,
473,-5.20e-02,
474,-1.28e-01,
475,7.20e-02,
476,-1.40e-01,
477,1.64e-01,
478,1.56e-01,
479,-1.16e-01,
480,1.36e-01,
481,-1.04e-01,
482,1.40e-01,
483,-1.00e-01,
484,-1.04e-01,
485,1.44e-01,
486,1.56e-01,
487,-1.20e-01,
488,1.44e-01,
489,-9.60e-02,
490,-1.64e-01,
491,1.48e-01,
492,-1.44e-01,
493,1.80e-01,
494,-1.52e-01,
495,1.20e-01,
496,1.40e-01,
497,-1.08e-01,
498,1.20e-01,
499,-1.32e-01,
500,8.40e-02,
501,-1.08e-01,
502,1.40e-01,
503,-1.00e-01,
504,7.60e-02,
505,-1.28e-01,
506,-1.48e-01,
507,1.64e-01,
508,2.00e-01,
509,-1.28e-01,
510,1.64e-01,
511,-1.72e-01,
512,-1.56e-01,
513,1.84e-01,
514,-1.68e-01,
515,1.24e-01,
516,2.12e-01,
517,-1.36e-01,
518,2.12e-01,
519,-1.48e-01,
520,1.64e-01,
521,-1.64e-01,
522,1.52e-01,
523,-1.60e-01,
524,-1.56e-01,
525,1.28e-01,
526,1.76e-01,
527,-1.32e-01,
528,2.16e-01,
529,-1.16e-01,
530,-1.60e-01,
531,1.40e-01,
532,1.96e-01,
533,-1.24e-01,
534,1.84e-01,
535,-1.24e-01,
536,2.08e-01,
537,-1.56e-01,
538,-1.32e-01,
539,2.08e-01,
540,2.20e-01,
541,-6.80e-02,
542,-1.60e-01,
543,1.96e-01,
544,2.00e-01,
545,-1.60e-01,
546,-8.00e-02,
547,1.08e-01,
548,1.80e-01,
549,-1.64e-01,
550,1.56e-01,
551,-1.60e-01,
552,-1.48e-01,
553,1.92e-01,
554,1.92e-01,
555,-1.72e-01,
556,-1.48e-01,
557,1.68e-01,
558,1.76e-01,
559,-1.64e-01,
560,-1.72e-01,
561,1.20e-01,
562,-1.76e-01,
563,1.48e-01,
564,-1.64e-01,
565,2.16e-01,
566,-1.48e-01,
567,1.60e-01,
568,-1.36e-01,
569,2.12e-01,
570,-1.60e-01,
571,1.28e-01,
572,2.00e-01,
573,-1.52e-01,
574,2.04e-01,
575,-1.44e-01,
576,-1.56e-01,
577,2.12e-01,
578,-1.08e-01,
579,1.32e-01,
580,-1.64e-01,
581,1.92e-01,
582,-8.80e-02,
583,2.00e-01,
584,1.84e-01,
585,-1.60e-01,
586,-1.68e-01,
587,1.92e-01,
588,1.04e-01,
589,-1.32e-01,
590,-4.00e-02,
591,2.00e-01,
592,2.04e-01,
593,-1.64e-01,
594,2.00e-01,
595,-1.60e-01,
596,1.40e-01,
597,-1.52e-01,
598,2.00e-01,
599,-1.64e-01,
600,-1.64e-01,
601,2.24e-01,
602,2.28e-01,
603,-1.64e-01,
604,-1.56e-01,
605,1.24e-01,
606,-1.12e-01,
607,1.04e-01,
608,1.92e-01,
609,-1.48e-01,
610,1.52e-01,
611,-1.08e-01,
612,1.60e-01,
613,-1.40e-01,
614,-1.40e-01,
615,1.36e-01,
616,-1.04e-01,
617,1.00e-01,
618,-1.00e-01,
619,6.00e-02,
620,1.44e-01,
621,-1.28e-01,
622,-1.00e-01,
623,1.88e-01,
624,-1.00e-01,
625,7.20e-02,
626,1.60e-01,
627,-1.24e-01,
628,6.00e-02,
629,-1.12e-01,
630,-1.28e-01,
631,1.52e-01,
632,-1.44e-01,
633,1.76e-01,
634,1.76e-01,
635,-1.60e-02,
636,-3.20e-02,
637,1.44e-01,
638,-1.20e-01,
639,1.44e-01,
640,1.60e-01,
641,-1.12e-01,
642,2.24e-01,
643,-1.76e-01,
644,-5.60e-02,
645,1.88e-01,
646,-1.36e-01,
647,8.40e-02,
648,6.80e-02,
649,-1.32e-01,
650,-1.20e-01,
651,1.36e-01,
652,-1.12e-01,
653,1.92e-01,
654,1.44e-01,
655,-1.00e-01,
656,-1.48e-01,
657,2.04e-01,
658,1.40e-01,
659,-1.60e-01,
660,-1.64e-01,
661,2.08e-01,
662,-1.24e-01,
663,1.56e-01,
664,1.76e-01,
665,-1.52e-01,
666,-1.12e-01,
667,1.44e-01,
668,1.80e-01,
669,-7.20e-02,
670,-1.20e-01,
671,1.64e-01,
672,1.56e-01,
673,-1.12e-01,
674,-1.24e-01,
675,1.64e-01,
676,-1.20e-01,
677,1.44e-01,
678,1.12e-01,
679,-1.16e-01,
680,1.00e-01,
681,-1.64e-01,
682,7.60e-02,
683,-1.40e-01,
684,-1.28e-01,
685,1.12e-01,
686,-1.24e-01,
687,1.36e-01,
688,-1.36e-01,
689,1.16e-01,
690,1.76e-01,
691,-1.48e-01,
692,-1.40e-01,
693,1.24e-01,
694,1.76e-01,
695,-7.20e-02,
696,-1.28e-01,
697,1.56e-01,
698,-1.36e-01,
699,6.80e-02,
700,-1.52e-01,
701,1.24e-01,
702,9.20e-02,
703,-1.24e-01,
704,-1.68e-01,
705,1.80e-01,
706,-1.56e-01,
707,1.12e-01,
708,-5.60e-02,
709,1.20e-01,
710,-1.16e-01,
711,1.16e-01,
712,9.20e-02,
713,-8.00e-02,
714,-1.08e-01,
715,8.80e-02,
716,7.20e-02,
717,-1.12e-01,
718,1.36e-01,
719,-9.60e-02,
720,1.52e-01,
721,-1.08e-01,
722,1.56e-01,
723,-1.04e-01,
724,-5.60e-02,
725,1.80e-01,
726,2.04e-01,
727,-1.40e-01,
728,1.56e-01,
729,-1.20e-01,
730,1.68e-01,
731,-1.08e-01,
732,8.40e-02,
733,-1.20e-01,
734,-1.40e-01,
735,1.60e-01,
736,1.76e-01,
737,-1.52e-01,
738,-1.32e-01,
739,1.76e-01,
740,2.16e-01,
741,-1.68e-01,
742,2.36e-01,
743,-1.72e-01,
744,2.00e-01,
745,-8.00e-02,
746,1.64e-01,
747,-1.64e-01,
748,7.20e-02,
749,-1.20e-01,
750,1.56e-01,
751,-1.20e-01,
752,1.84e-01,
753,-1.68e-01,
754,-1.32e-01,
755,1.44e-01,
756,-1.12e-01,
757,9.60e-02,
758,1.60e-01,
759,-1.16e-01,
760,-1.08e-01,
761,1.48e-01,
762,-1.12e-01,
763,8.00e-02,
764,1.80e-01,
765,-1.16e-01,
766,1.52e-01,
767,-1.00e-01,
768,-9.60e-02,
769,1.20e-01,
770,-1.04e-01,
771,1.00e-01,
772,1.56e-01,
773,-1.52e-01,
774,1.84e-01,
775,-1.00e-01,
776,-1.16e-01,
777,1.36e-01,
778,-1.16e-01,
779,1.68e-01,
780,-1.32e-01,
781,1.52e-01,
782,1.64e-01,
783,-1.28e-01,
784,-3.20e-02,
785,1.92e-01,
786,-1.16e-01,
787,1.44e-01,
788,1.92e-01,
789,-1.64e-01,
790,-1.56e-01,
791,9.60e-02,
792,-9.60e-02,
793,9.20e-02,
794,-1.28e-01,
795,8.80e-02,
796,-1.24e-01,
797,1.88e-01,
798,1.12e-01,
799,-1.68e-01,
800,-1.12e-01,
801,1.28e-01,
802,-1.12e-01,
803,1.68e-01,
804,-1.16e-01,
805,1.64e-01,
806,1.00e-01,
807,-1.28e-01,
808,-1.44e-01,
809,1.40e-01,
810,-1.44e-01,
811,1.04e-01,
812,9.60e-02,
813,-1.12e-01,
814,1.32e-01,
815,-1.12e-01,
816,1.44e-01,
817,-1.00e-01,
818,1.32e-01,
819,-1.28e-01,
820,-1.40e-01,
821,1.48e-01,
822,-1.48e-01,
823,2.00e-01,
824,-4.00e-02,
825,1.44e-01,
826,-1.08e-01,
827,1.08e-01,
828,-1.20e-01,
829,1.32e-01,
830,1.68e-01,
831,-1.84e-01,
832,1.88e-01,
833,-8.40e-02,
834,-1.20e-01,
835,1.56e-01,
836,9.60e-02,
837,-1.08e-01,
838,1.00e-01,
839,-1.48e-01,
840,-1.52e-01,
841,2.00e-01,
842,1.84e-01,
843,-1.44e-01,
844,-1.44e-01,
845,7.20e-02,
846,-1.40e-01,
847,8.40e-02,
848,1.68e-01,
849,-1.08e-01,
850,-1.12e-01,
851,1.76e-01,
852,2.16e-01,
853,-1.32e-01,
854,-9.60e-02,
855,1.96e-01,
856,-1.04e-01,
857,1.44e-01,
858,-1.00e-01,
859,8.80e-02,
860,-1.08e-01,
861,1.44e-01,
862,1.16e-01,
863,-1.12e-01,
864,-1.00e-01,
865,1.88e-01,
866,1.28e-01,
867,-1.04e-01,
868,-1.16e-01,
869,1.32e-01,
870,-1.16e-01,
871,9.20e-02,
872,1.48e-01,
873,-1.40e-01,
874,1.52e-01,
875,-6.40e-02,
876,-1.24e-01,
877,1.68e-01,
878,-1.04e-01,
879,1.20e-01,
880,-1.20e-01,
881,1.68e-01,
882,-1.64e-01,
883,1.28e-01,
884,1.04e-01,
885,-1.40e-01,
886,1.84e-01,
887,-1.52e-01,
888,1.92e-01,
889,-1.36e-01,
890,-1.08e-01,
891,1.84e-01,
892,-1.40e-01,
893,1.32e-01,
894,6.40e-02,
895,-1.28e-01,
896,1.80e-01,
897,-1.28e-01,
898,1.72e-01,
899,-1.20e-01,
900,1.28e-01,
901,-1.24e-01,
902,-1.36e-01,
903,1.12e-01,
904,7.60e-02,
905,-1.16e-01,
906,1.92e-01,
907,-1.48e-01,
908,1.12e-01,
909,-1.04e-01,
910,-1.44e-01,
911,1.60e-01,
912,-1.00e-01,
913,1.36e-01,
914,-1.08e-01,
915,1.08e-01,
916,-1.20e-01,
917,7.20e-02,
918,1.48e-01,
919,-8.80e-02,
920,1.60e-01,
921,-1.44e-01,
922,1.44e-01,
923,-1.32e-01,
924,-9.60e-02,
925,7.20e-02,
926,-1.32e-01,
927,1.48e-01,
928,1.48e-01,
929,-1.36e-01,
930,1.52e-01,
931,-1.76e-01,
932,2.24e-01,
933,-1.36e-01,
934,1.48e-01,
935,-1.56e-01,
936,1.32e-01,
937,-1.52e-01,
938,-1.44e-01,
939,1.64e-01,
940,1.80e-01,
941,-1.04e-01,
942,6.40e-02,
943,-1.36e-01,
944,-1.28e-01,
945,9.60e-02,
946,-1.20e-01,
947,1.48e-01,
948,-1.28e-01,
949,1.60e-01,
950,1.24e-01,
951,-8.40e-02,
952,2.00e-01,
953,-8.80e-02,
954,1.32e-01,
955,-4.00e-02,
956,-1.36e-01,
957,1.96e-01,
958,1.48e-01,
959,-1.48e-01,
960,-1.00e-01,
961,1.28e-01,
962,-1.08e-01,
963,9.60e-02,
964,1.52e-01,
965,-1.20e-01,
966,-1.00e-01,
967,1.52e-01,
968,1.84e-01,
969,-1.20e-01,
970,1.92e-01,
971,-1.04e-01,
972,1.16e-01,
973,-1.08e-01,
974,-1.36e-01,
975,1.64e-01,
976,-1.36e-01,
977,1.56e-01,
978,1.44e-01,
979,-7.20e-02,
980,1.88e-01,
981,-1.28e-01,
982,1.44e-01,
983,-1.40e-01,
984,-6.80e-02,
985,1.72e-01,
986,-1.32e-01,
987,1.20e-01,
988,7.60e-02,
989,-1.64e-01,
990,2.00e-01,
991,-1.44e-01,
992,-1.16e-01,
993,2.04e-01,
994,-1.28e-01,
995,1.12e-01,
996,1.12e-01,
997,-5.60e-02,
998,1.72e-01,
999,-1.12e-01,
1000,1.44e-01,
1001,-1.16e-01,
1002,-1.08e-01,
1003,1.52e-01,
1004,1.44e-01,
1005,-1.60e-01,
1006,1.68e-01,
1007,-1.24e-01,
1008,1.72e-01,
1009,-1.64e-01,
1010,1.76e-01,
1011,-1.40e-01,
1012,1.56e-01,
1013,-1.40e-01,
1014,-1.08e-01,
1015,1.04e-01,
1016,-5.20e-02,
1017,1.32e-01,
1018,6.40e-02,
1019,-1.16e-01,
1020,-1.32e-01,
1021,1.72e-01,
1022,-1.00e-01,
1023,1.24e-01,
1024,-1.12e-01,
1025,1.68e-01,
1026,-1.12e-01,
1027,1.76e-01,
1028,-1.24e-01,
1029,6.80e-02,
1030,-1.12e-01,
1031,1.04e-01,
1032,-2.80e-02,
1033,2.08e-01,
1034,-8.80e-02,
1035,1.88e-01,
1036,1.80e-01,
1037,-1.28e-01,
1038,-1.52e-01,
1039,2.20e-01,
1040,2.04e-01,
1041,-1.44e-01,
1042,-9.20e-02,
1043,1.76e-01,
1044,1.56e-01,
1045,-1.40e-01,
1046,-1.20e-01,
1047,1.32e-01,
1048,1.60e-01,
1049,-1.72e-01,
1050,-1.44e-01,
1051,1.00e-01,
1052,-1.24e-01,
1053,1.56e-01,
1054,1.56e-01,
1055,-1.16e-01,
1056,1.52e-01,
1057,-1.20e-01,
1058,1.84e-01,
1059,-1.12e-01,
1060,1.76e-01,
1061,-7.20e-02,
1062,1.20e-01,
1063,-1.04e-01,
1064,-1.24e-01,
1065,1.44e-01,
1066,1.36e-01,
1067,-1.08e-01,
1068,1.64e-01,
1069,-1.00e-01,
1070,1.00e-01,
1071,-8.40e-02,
1072,2.04e-01,
1073,-1.40e-01,
1074,2.00e-01,
1075,-1.48e-01,
1076,-6.40e-02,
1077,2.32e-01,
1078,-1.52e-01,
1079,1.88e-01,
1080,1.88e-01,
1081,-1.44e-01,
1082,1.12e-01,
1083,-1.44e-01,
1084,1.80e-01,
1085,-1.04e-01,
1086,2.24e-01,
1087,-1.80e-01,
1088,1.80e-01,
1089,-1.76e-01,
1090,-1.52e-01,
1091,8.00e-02,
1092,-1.52e-01,
1093,1.60e-01,
1094,-1.40e-01,
1095,8.80e-02,
1096,-9.20e-02,
1097,1.76e-01,
1098,1.48e-01,
1099,-7.60e-02,
1100,1.08e-01,
1101,-1.24e-01,
1102,1.92e-01,
1103,-1.44e-01,
1104,-1.12e-01,
1105,1.52e-01,
1106,-1.04e-01,
1107,1.24e-01,
1108,1.28e-01,
1109,-1.08e-01,
1110,-1.12e-01,
1111,8.00e-02,
1112,1.80e-01,
1113,-1.00e-01,
1114,1.00e-01,
1115,-1.16e-01,
1116,-1.12e-01,
1117,1.48e-01,
1118,-8.40e-02,
1119,1.40e-01,
1120,2.08e-01,
1121,-1.44e-01,
1122,1.36e-01,
1123,-1.52e-01,
1124,8.80e-02,
1125,-1.28e-01,
1126,1.60e-01,
1127,-1.28e-01,
1128,1.60e-01,
1129,-1.36e-01,
1130,1.84e-01,
1131,-1.44e-01,
1132,-1.36e-01,
1133,1.92e-01,
1134,1.76e-01,
1135,-1.32e-01,
1136,8.80e-02,
1137,-1.48e-01,
1138,1.80e-01,
1139,-1.44e-01,
1140,-1.20e-01,
1141,8.00e-02,
1142,-1.64e-01,
1143,1.96e-01,
1144,-1.40e-01,
1145,1.72e-01,
1146,1.28e-01,
1147,-6.00e-02,
1148,1.60e-01,
1149,-1.08e-01,
1150,1.64e-01,
1151,-6.40e-02,
1152,-1.12e-01,
1153,1.40e-01,
1154,-1.04e-01,
1155,1.12e-01,
1156,1.88e-01,
1157,-1.56e-01,
1158,-1.60e-01,
1159,1.64e-01,
1160,2.24e-01,
1161,-1.60e-01,
1162,-1.52e-01,
1163,1.48e-01,
1164,-1.68e-01,
1165,1.04e-01,
1166,-1.56e-01,
1167,1.88e-01,
1168,2.28e-01,
1169,-1.40e-01,
1170,1.48e-01,
1171,-1.20e-01,
1172,-9.60e-02,
1173,1.04e-01,
1174,2.44e-01,
1175,-1.76e-01,
1176,2.24e-01,
1177,-1.76e-01,
1178,-1.44e-01,
1179,1.52e-01,
1180,-1.52e-01,
1181,1.92e-01,
1182,1.12e-01,
1183,-1.48e-01,
1184,-1.36e-01,
1185,8.40e-02,
1186,1.52e-01,
1187,-5.20e-02,
1188,1.88e-01,
1189,-1.52e-01,
1190,-1.08e-01,
1191,1.64e-01,
1192,1.16e-01,
1193,-1.16e-01,
1194,1.56e-01,
1195,-9.60e-02,
1196,-9.60e-02,
1197,1.60e-01,
1198,-1.48e-01,
1199,1.92e-01,
