Laptop_2/LAPTOP_CHRGR_2_ON_DISTANT/time domain/NewFile39.csv

X,CH1,Start,Increment,
Sequence,Volt,-1.500000e-01,2.000000e-04
0,3.60e-02,
1,-6.40e-02,
2,-6.80e-02,
3,7.20e-02,
4,-5.60e-02,
5,4.80e-02,
6,-5.60e-02,
7,6.40e-02,
8,-5.20e-02,
9,6.80e-02,
10,1.12e-01,
11,-7.20e-02,
12,1.12e-01,
13,-1.04e-01,
14,-1.00e-01,
15,9.60e-02,
16,-7.20e-02,
17,5.60e-02,
18,-1.04e-01,
19,1.36e-01,
20,-8.40e-02,
21,1.12e-01,
22,-7.60e-02,
23,9.20e-02,
24,4.00e-02,
25,-7.60e-02,
26,1.00e-01,
27,-6.80e-02,
28,8.80e-02,
29,-8.00e-02,
30,-7.60e-02,
31,6.40e-02,
32,3.60e-02,
33,-6.40e-02,
34,-3.60e-02,
35,1.00e-01,
36,9.20e-02,
37,-6.80e-02,
38,-6.00e-02,
39,6.40e-02,
40,8.40e-02,
41,-8.40e-02,
42,9.20e-02,
43,-6.40e-02,
44,7.20e-02,
45,-7.20e-02,
46,-6.40e-02,
47,7.20e-02,
48,1.04e-01,
49,-1.00e-01,
50,-1.08e-01,
51,1.24e-01,
52,-1.00e-01,
53,1.32e-01,
54,-7.20e-02,
55,9.60e-02,
56,8.00e-02,
57,-5.20e-02,
58,-7.20e-02,
59,5.60e-02,
60,6.40e-02,
61,-6.80e-02,
62,-7.60e-02,
63,1.20e-01,
64,-9.20e-02,
65,1.00e-01,
66,-8.40e-02,
67,6.80e-02,
68,-6.40e-02,
69,3.20e-02,
70,4.40e-02,
71,-8.00e-02,
72,1.00e-01,
73,-3.20e-02,
74,-6.40e-02,
75,1.08e-01,
76,-7.20e-02,
77,8.00e-02,
78,7.60e-02,
79,-7.20e-02,
80,-6.40e-02,
81,7.20e-02,
82,9.20e-02,
83,-5.20e-02,
84,1.12e-01,
85,-7.20e-02,
86,8.00e-02,
87,-6.40e-02,
88,-6.40e-02,
89,8.40e-02,
90,-6.00e-02,
91,7.60e-02,
92,-7.60e-02,
93,1.12e-01,
94,-7.20e-02,
95,8.40e-02,
96,-9.20e-02,
97,1.20e-01,
98,1.16e-01,
99,-9.60e-02,
100,-9.60e-02,
101,1.32e-01,
102,4.40e-02,
103,-8.00e-02,
104,1.12e-01,
105,-1.08e-01,
106,-8.00e-02,
107,4.80e-02,
108,-2.80e-02,
109,1.24e-01,
110,-1.00e-01,
111,1.24e-01,
112,-5.60e-02,
113,1.20e-01,
114,1.40e-01,
115,-4.00e-02,
116,9.20e-02,
117,-1.12e-01,
118,-1.04e-01,
119,7.20e-02,
120,-9.60e-02,
121,8.80e-02,
122,1.16e-01,
123,-1.00e-01,
124,-4.00e-02,
125,1.24e-01,
126,1.28e-01,
127,-1.00e-01,
128,-1.08e-01,
129,8.80e-02,
130,1.20e-01,
131,-9.60e-02,
132,1.20e-01,
133,-1.00e-01,
134,-1.04e-01,
135,6.40e-02,
136,-9.20e-02,
137,8.80e-02,
138,1.00e-01,
139,-1.04e-01,
140,8.00e-02,
141,-9.20e-02,
142,-1.00e-01,
143,1.28e-01,
144,-4.80e-02,
145,3.60e-02,
146,-8.00e-02,
147,9.60e-02,
148,5.60e-02,
149,-8.00e-02,
150,-8.40e-02,
151,2.40e-02,
152,3.20e-02,
153,-8.80e-02,
154,-8.00e-02,
155,4.80e-02,
156,-5.60e-02,
157,8.40e-02,
158,4.40e-02,
159,-8.80e-02,
160,-1.08e-01,
161,1.04e-01,
162,-6.40e-02,
163,1.20e-01,
164,9.60e-02,
165,-4.80e-02,
166,-6.40e-02,
167,5.20e-02,
168,-1.00e-01,
169,1.08e-01,
170,-4.00e-02,
171,8.80e-02,
172,-5.60e-02,
173,8.40e-02,
174,9.20e-02,
175,-9.20e-02,
176,1.28e-01,
177,-1.12e-01,
178,-8.00e-02,
179,1.20e-01,
180,-8.00e-02,
181,1.12e-01,
182,1.24e-01,
183,-7.20e-02,
184,1.12e-01,
185,-5.20e-02,
186,-8.40e-02,
187,1.16e-01,
188,-6.80e-02,
189,1.24e-01,
190,9.60e-02,
191,-1.08e-01,
192,4.40e-02,
193,-1.04e-01,
194,-9.60e-02,
195,6.40e-02,
196,-9.20e-02,
197,6.40e-02,
198,-9.60e-02,
199,7.60e-02,
200,-1.08e-01,
201,1.16e-01,
202,-9.60e-02,
203,1.28e-01,
204,8.00e-02,
205,-1.28e-01,
206,1.40e-01,
207,-1.16e-01,
208,1.28e-01,
209,-9.60e-02,
210,-6.40e-02,
211,1.00e-01,
212,-4.40e-02,
213,1.04e-01,
214,-8.80e-02,
215,1.28e-01,
216,1.16e-01,
217,-1.08e-01,
218,1.08e-01,
219,-8.80e-02,
220,7.20e-02,
221,-6.00e-02,
222,4.00e-02,
223,-5.60e-02,
224,-6.00e-02,
225,8.00e-02,
226,8.80e-02,
227,-5.60e-02,
228,-7.60e-02,
229,9.60e-02,
230,8.40e-02,
231,-5.60e-02,
232,-6.00e-02,
233,8.80e-02,
234,-6.00e-02,
235,9.20e-02,
236,-7.20e-02,
237,4.80e-02,
238,-4.00e-02,
239,1.16e-01,
240,1.04e-01,
241,-4.40e-02,
242,1.04e-01,
243,-4.40e-02,
244,-7.60e-02,
245,1.04e-01,
246,-6.40e-02,
247,7.20e-02,
248,1.04e-01,
249,-8.80e-02,
250,9.60e-02,
251,-8.40e-02,
252,-7.20e-02,
253,1.32e-01,
254,1.12e-01,
255,-9.60e-02,
256,1.12e-01,
257,-8.40e-02,
258,-6.40e-02,
259,6.00e-02,
260,-6.80e-02,
261,9.20e-02,
262,1.04e-01,
263,-1.00e-01,
264,-1.04e-01,
265,6.80e-02,
266,6.80e-02,
267,-7.20e-02,
268,8.80e-02,
269,-6.40e-02,
270,8.00e-02,
271,-5.60e-02,
272,7.60e-02,
273,-4.80e-02,
274,-8.40e-02,
275,6.80e-02,
276,8.00e-02,
277,-5.20e-02,
278,-6.40e-02,
279,8.80e-02,
280,-7.60e-02,
281,6.80e-02,
282,-6.40e-02,
283,7.60e-02,
284,6.40e-02,
285,-8.00e-02,
286,8.80e-02,
287,-6.40e-02,
288,-6.00e-02,
289,8.40e-02,
290,-5.20e-02,
291,1.00e-01,
292,-5.20e-02,
293,9.20e-02,
294,-8.80e-02,
295,1.20e-01,
296,-7.60e-02,
297,5.60e-02,
298,-1.08e-01,
299,1.20e-01,
300,1.08e-01,
301,-8.40e-02,
302,1.20e-01,
303,-8.40e-02,
304,-6.40e-02,
305,8.00e-02,
306,-4.00e-02,
307,5.20e-02,
308,-4.80e-02,
309,8.40e-02,
310,-6.80e-02,
311,8.00e-02,
312,-7.60e-02,
313,2.00e-02,
314,-6.40e-02,
315,7.20e-02,
316,8.00e-02,
317,-5.60e-02,
318,-6.80e-02,
319,6.80e-02,
320,9.60e-02,
321,-7.20e-02,
322,1.04e-01,
323,-1.00e-01,
324,-3.60e-02,
325,8.00e-02,
326,-6.00e-02,
327,8.80e-02,
328,-5.60e-02,
329,8.80e-02,
330,1.36e-01,
331,-7.60e-02,
332,-9.20e-02,
333,7.20e-02,
334,-1.00e-01,
335,1.32e-01,
336,4.80e-02,
337,-6.80e-02,
338,-4.40e-02,
339,1.00e-01,
340,9.20e-02,
341,-6.80e-02,
342,7.60e-02,
343,-4.80e-02,
344,1.16e-01,
345,-7.20e-02,
346,1.20e-01,
347,-8.40e-02,
348,5.60e-02,
349,-6.80e-02,
350,-4.00e-02,
351,8.00e-02,
352,-6.40e-02,
353,2.80e-02,
354,-6.00e-02,
355,8.40e-02,
356,4.80e-02,
357,-8.00e-02,
358,-6.00e-02,
359,8.40e-02,
360,5.20e-02,
361,-6.40e-02,
362,4.00e-02,
363,-7.60e-02,
364,-6.40e-02,
365,8.80e-02,
366,-6.40e-02,
367,1.12e-01,
368,1.04e-01,
369,-7.20e-02,
370,-6.00e-02,
371,8.80e-02,
372,-6.40e-02,
373,8.00e-02,
374,-6.00e-02,
375,7.20e-02,
376,-6.40e-02,
377,9.20e-02,
378,4.40e-02,
379,-6.40e-02,
380,-3.60e-02,
381,1.32e-01,
382,7.60e-02,
383,-1.04e-01,
384,2.00e-02,
385,-8.40e-02,
386,-6.40e-02,
387,1.12e-01,
388,6.80e-02,
389,-6.80e-02,
390,8.40e-02,
391,-6.40e-02,
392,1.00e-01,
393,-6.00e-02,
394,-7.60e-02,
395,4.80e-02,
396,8.80e-02,
397,-8.00e-02,
398,8.80e-02,
399,-6.40e-02,
400,-7.60e-02,
401,1.00e-01,
402,7.60e-02,
403,-7.20e-02,
404,8.80e-02,
405,-7.60e-02,
406,-8.80e-02,
407,1.12e-01,
408,6.80e-02,
409,-1.12e-01,
410,8.40e-02,
411,-9.60e-02,
412,9.20e-02,
413,-1.04e-01,
414,-6.00e-02,
415,6.40e-02,
416,8.40e-02,
417,-5.60e-02,
418,7.20e-02,
419,-5.60e-02,
420,2.40e-02,
421,-6.00e-02,
422,4.80e-02,
423,-8.00e-02,
424,8.00e-02,
425,-6.00e-02,
426,8.00e-02,
427,-7.20e-02,
428,5.60e-02,
429,-8.80e-02,
430,-8.00e-02,
431,5.20e-02,
432,-6.40e-02,
433,6.40e-02,
434,8.80e-02,
435,-8.00e-02,
436,-4.80e-02,
437,6.80e-02,
438,6.00e-02,
439,-4.00e-02,
440,9.60e-02,
441,-8.00e-02,
442,-6.00e-02,
443,9.20e-02,
444,1.08e-01,
445,-8.00e-02,
446,-7.60e-02,
447,8.80e-02,
448,-5.20e-02,
449,1.12e-01,
450,1.04e-01,
451,-1.00e-01,
452,-7.60e-02,
453,9.60e-02,
454,-4.80e-02,
455,9.20e-02,
456,-7.20e-02,
457,1.00e-01,
458,3.20e-02,
459,-6.80e-02,
460,1.16e-01,
461,-9.60e-02,
462,2.40e-02,
463,-7.60e-02,
464,-4.00e-02,
465,1.12e-01,
466,6.40e-02,
467,-7.20e-02,
468,4.40e-02,
469,-1.04e-01,
470,1.04e-01,
471,-8.00e-02,
472,-5.60e-02,
473,5.60e-02,
474,6.00e-02,
475,-6.40e-02,
476,-6.00e-02,
477,8.00e-02,
478,-8.40e-02,
479,6.40e-02,
480,5.20e-02,
481,-9.60e-02,
482,-6.40e-02,
483,6.80e-02,
484,9.20e-02,
485,-6.40e-02,
486,1.04e-01,
487,-1.12e-01,
488,1.40e-01,
489,-1.08e-01,
490,-1.08e-01,
491,1.28e-01,
492,8.80e-02,
493,-6.00e-02,
494,-6.80e-02,
495,8.40e-02,
496,1.00e-01,
497,-7.20e-02,
498,9.60e-02,
499,-6.80e-02,
500,-9.20e-02,
501,8.80e-02,
502,2.80e-02,
503,-7.20e-02,
504,-8.00e-02,
505,5.20e-02,
506,9.60e-02,
507,-5.60e-02,
508,-4.00e-02,
509,8.80e-02,
510,-7.60e-02,
511,3.20e-02,
512,-7.20e-02,
513,1.12e-01,
514,1.60e-02,
515,-6.80e-02,
516,6.80e-02,
517,-6.80e-02,
518,-3.60e-02,
519,1.04e-01,
520,-1.04e-01,
521,8.40e-02,
522,-9.60e-02,
523,1.12e-01,
524,-6.00e-02,
525,6.80e-02,
526,-6.00e-02,
527,8.00e-02,
528,6.00e-02,
529,-6.80e-02,
530,9.60e-02,
531,-6.00e-02,
532,8.00e-02,
533,-1.04e-01,
534,-6.40e-02,
535,6.80e-02,
536,8.80e-02,
537,-7.20e-02,
538,9.60e-02,
539,-7.60e-02,
540,-5.60e-02,
541,8.80e-02,
542,8.00e-02,
543,-6.80e-02,
544,-7.20e-02,
545,8.40e-02,
546,1.16e-01,
547,-1.04e-01,
548,1.28e-01,
549,-9.20e-02,
550,-5.20e-02,
551,1.04e-01,
552,6.40e-02,
553,-1.04e-01,
554,-5.60e-02,
555,9.60e-02,
556,7.60e-02,
557,-6.80e-02,
558,-4.40e-02,
559,8.40e-02,
560,7.20e-02,
561,-6.80e-02,
562,-1.00e-01,
563,1.12e-01,
564,8.00e-02,
565,-6.00e-02,
566,-6.40e-02,
567,5.60e-02,
568,8.00e-02,
569,-6.00e-02,
570,-6.00e-02,
571,8.40e-02,
572,8.80e-02,
573,-6.40e-02,
574,6.80e-02,
575,-5.60e-02,
576,-6.00e-02,
577,6.40e-02,
578,-7.20e-02,
579,6.80e-02,
580,9.60e-02,
581,-7.20e-02,
582,8.80e-02,
583,-7.20e-02,
584,1.20e-01,
585,-5.60e-02,
586,-5.20e-02,
587,1.00e-01,
588,8.00e-02,
589,-6.80e-02,
590,-6.80e-02,
591,5.60e-02,
592,-7.60e-02,
593,4.80e-02,
594,9.60e-02,
595,-4.80e-02,
596,-4.40e-02,
597,1.00e-01,
598,-1.04e-01,
599,1.32e-01,
600,1.36e-01,
601,-6.00e-02,
602,1.28e-01,
603,-8.80e-02,
604,-8.40e-02,
605,4.00e-02,
606,7.60e-02,
607,-7.60e-02,
608,9.20e-02,
609,-7.20e-02,
610,-7.20e-02,
611,8.40e-02,
612,-8.80e-02,
613,1.08e-01,
614,-6.00e-02,
615,5.60e-02,
616,8.40e-02,
617,-6.40e-02,
618,-5.60e-02,
619,8.00e-02,
620,-5.60e-02,
621,8.00e-02,
622,-6.40e-02,
623,1.08e-01,
624,-4.40e-02,
625,4.40e-02,
626,8.00e-02,
627,-6.40e-02,
628,-7.60e-02,
629,9.20e-02,
630,-9.60e-02,
631,1.16e-01,
632,1.08e-01,
633,-1.00e-01,
634,-1.00e-01,
635,5.60e-02,
636,-5.60e-02,
637,9.60e-02,
638,1.08e-01,
639,-6.80e-02,
640,2.80e-02,
641,-6.80e-02,
642,1.04e-01,
643,-7.60e-02,
644,9.60e-02,
645,-8.80e-02,
646,1.44e-01,
647,-9.60e-02,
648,1.12e-01,
649,-7.20e-02,
650,1.04e-01,
651,-6.40e-02,
652,-4.80e-02,
653,1.04e-01,
654,9.60e-02,
655,-6.00e-02,
656,-1.08e-01,
657,1.24e-01,
658,-7.20e-02,
659,5.60e-02,
660,-5.20e-02,
661,3.60e-02,
662,-6.80e-02,
663,9.60e-02,
664,-6.40e-02,
665,5.20e-02,
666,-8.00e-02,
667,1.04e-01,
668,-6.00e-02,
669,7.20e-02,
670,-6.40e-02,
671,8.40e-02,
672,6.00e-02,
673,-6.40e-02,
674,-6.00e-02,
675,5.20e-02,
676,-6.40e-02,
677,1.20e-01,
678,1.24e-01,
679,-9.20e-02,
680,1.20e-01,
681,-1.00e-01,
682,-6.00e-02,
683,6.00e-02,
684,5.60e-02,
685,-6.80e-02,
686,1.04e-01,
687,-8.00e-02,
688,7.20e-02,
689,-6.80e-02,
690,1.32e-01,
691,-9.60e-02,
692,6.00e-02,
693,-7.60e-02,
694,-5.60e-02,
695,9.20e-02,
696,1.04e-01,
697,-6.00e-02,
698,-8.00e-02,
699,1.00e-01,
700,8.00e-02,
701,-1.12e-01,
702,8.40e-02,
703,-7.20e-02,
704,-8.00e-02,
705,9.60e-02,
706,1.00e-01,
707,-6.80e-02,
708,-7.20e-02,
709,8.80e-02,
710,9.20e-02,
711,-1.00e-01,
712,-5.60e-02,
713,9.60e-02,
714,-8.40e-02,
715,8.00e-02,
716,-7.20e-02,
717,1.16e-01,
718,1.04e-01,
719,-9.60e-02,
720,-8.40e-02,
721,8.80e-02,
722,-6.00e-02,
723,8.80e-02,
724,-6.00e-02,
725,3.60e-02,
726,-6.00e-02,
727,8.40e-02,
728,6.00e-02,
729,-1.04e-01,
730,-1.00e-01,
731,4.40e-02,
732,-8.00e-02,
733,4.80e-02,
734,4.40e-02,
735,-7.60e-02,
736,8.40e-02,
737,-7.60e-02,
738,1.20e-01,
739,-1.08e-01,
740,-8.80e-02,
741,1.16e-01,
742,-6.00e-02,
743,9.60e-02,
744,9.20e-02,
745,-8.00e-02,
746,-8.00e-02,
747,8.80e-02,
748,1.16e-01,
749,-6.80e-02,
750,-9.60e-02,
751,1.12e-01,
752,-6.80e-02,
753,6.80e-02,
754,1.16e-01,
755,-1.08e-01,
756,1.00e-01,
757,-9.60e-02,
758,1.20e-01,
759,-1.08e-01,
760,1.16e-01,
761,-1.00e-01,
762,-7.20e-02,
763,1.28e-01,
764,-1.04e-01,
765,1.16e-01,
766,-9.60e-02,
767,1.16e-01,
768,1.24e-01,
769,-9.20e-02,
770,4.00e-02,
771,-9.20e-02,
772,-1.04e-01,
773,1.12e-01,
774,1.28e-01,
775,-9.60e-02,
776,1.28e-01,
777,-7.60e-02,
778,1.00e-01,
779,-1.00e-01,
780,1.32e-01,
781,-1.08e-01,
782,-1.00e-01,
783,2.40e-02,
784,8.80e-02,
785,-7.20e-02,
786,9.60e-02,
787,-7.20e-02,
788,-6.00e-02,
789,7.60e-02,
790,-8.80e-02,
791,8.40e-02,
792,1.20e-01,
793,-7.20e-02,
794,-7.20e-02,
795,5.60e-02,
796,-4.80e-02,
797,4.00e-02,
798,4.40e-02,
799,-9.20e-02,
800,1.24e-01,
801,-1.04e-01,
802,-8.00e-02,
803,1.36e-01,
804,8.40e-02,
805,-6.00e-02,
806,8.40e-02,
807,-4.80e-02,
808,9.20e-02,
809,-6.80e-02,
810,-7.20e-02,
811,8.00e-02,
812,-7.20e-02,
813,1.20e-01,
814,-5.60e-02,
815,8.00e-02,
816,7.20e-02,
817,-5.60e-02,
818,8.00e-02,
819,-6.00e-02,
820,8.40e-02,
821,-5.60e-02,
822,-5.20e-02,
823,8.80e-02,
824,-1.04e-01,
825,9.60e-02,
826,7.60e-02,
827,-5.60e-02,
828,8.00e-02,
829,-6.40e-02,
830,4.40e-02,
831,-7.20e-02,
832,7.60e-02,
833,-9.60e-02,
834,1.28e-01,
835,-6.80e-02,
836,9.20e-02,
837,-7.60e-02,
838,-6.00e-02,
839,1.00e-01,
840,-7.60e-02,
841,9.60e-02,
842,-4.00e-02,
843,9.60e-02,
844,-5.60e-02,
845,1.04e-01,
846,9.20e-02,
847,-8.00e-02,
848,-8.80e-02,
849,5.60e-02,
850,8.80e-02,
851,-6.80e-02,
852,8.40e-02,
853,-6.00e-02,
854,8.80e-02,
855,-6.00e-02,
856,8.80e-02,
857,-1.00e-01,
858,-1.00e-01,
859,7.60e-02,
860,-5.60e-02,
861,8.40e-02,
862,-7.20e-02,
863,8.00e-02,
864,-6.00e-02,
865,9.20e-02,
866,6.40e-02,
867,-9.60e-02,
868,-7.20e-02,
869,6.40e-02,
870,8.00e-02,
871,-4.00e-02,
872,-6.00e-02,
873,8.80e-02,
874,-7.20e-02,
875,8.80e-02,
876,-6.40e-02,
877,9.20e-02,
878,1.00e-01,
879,-9.60e-02,
880,-9.60e-02,
881,1.28e-01,
882,-5.20e-02,
883,1.36e-01,
884,-9.20e-02,
885,1.36e-01,
886,1.32e-01,
887,-9.20e-02,
888,7.20e-02,
889,-4.00e-02,
890,-7.20e-02,
891,9.20e-02,
892,9.60e-02,
893,-8.80e-02,
894,6.00e-02,
895,-6.40e-02,
896,-1.00e-01,
897,1.44e-01,
898,-6.00e-02,
899,9.60e-02,
900,-6.80e-02,
901,9.60e-02,
902,-7.20e-02,
903,7.60e-02,
904,-7.60e-02,
905,8.40e-02,
906,-5.60e-02,
907,6.40e-02,
908,-6.80e-02,
909,3.60e-02,
910,-6.80e-02,
911,1.20e-01,
912,-8.80e-02,
913,1.16e-01,
914,1.16e-01,
915,-8.40e-02,
916,7.20e-02,
917,-6.00e-02,
918,4.40e-02,
919,-6.80e-02,
920,4.40e-02,
921,-6.80e-02,
922,8.00e-02,
923,-5.20e-02,
924,-6.80e-02,
925,8.40e-02,
926,9.20e-02,
927,-5.60e-02,
928,9.60e-02,
929,-9.20e-02,
930,-1.00e-01,
931,1.12e-01,
932,-7.60e-02,
933,8.80e-02,
934,9.20e-02,
935,-6.00e-02,
936,-8.00e-02,
937,4.40e-02,
938,8.00e-02,
939,-6.80e-02,
940,-9.20e-02,
941,4.40e-02,
942,5.60e-02,
943,-6.40e-02,
944,1.12e-01,
945,-7.20e-02,
946,8.40e-02,
947,-8.00e-02,
948,6.00e-02,
949,-7.60e-02,
950,-8.00e-02,
951,1.16e-01,
952,-7.60e-02,
953,8.80e-02,
954,3.60e-02,
955,-5.60e-02,
956,-6.40e-02,
957,4.40e-02,
958,-5.60e-02,
959,4.80e-02,
960,4.00e-02,
961,-7.20e-02,
962,-8.00e-02,
963,9.60e-02,
964,-9.20e-02,
965,1.28e-01,
966,1.08e-01,
967,-1.00e-01,
968,-9.60e-02,
969,1.24e-01,
970,-7.20e-02,
971,8.80e-02,
972,6.80e-02,
973,-6.40e-02,
974,-4.00e-02,
975,9.20e-02,
976,9.20e-02,
977,-6.80e-02,
978,-6.80e-02,
979,9.60e-02,
980,-1.04e-01,
981,1.04e-01,
982,-7.60e-02,
983,9.20e-02,
984,-7.60e-02,
985,8.40e-02,
986,-7.60e-02,
987,9.60e-02,
988,-7.20e-02,
989,2.80e-02,
990,-9.60e-02,
991,5.60e-02,
992,-8.40e-02,
993,6.00e-02,
994,7.60e-02,
995,-5.20e-02,
996,6.40e-02,
997,-6.80e-02,
998,-6.40e-02,
999,5.60e-02,
1000,-6.40e-02,
1001,9.20e-02,
1002,1.12e-01,
1003,-1.00e-01,
1004,8.80e-02,
1005,-6.00e-02,
1006,8.00e-02,
1007,-6.00e-02,
1008,7.60e-02,
1009,-6.80e-02,
1010,8.00e-02,
1011,-6.40e-02,
1012,7.60e-02,
1013,-1.00e-01,
1014,1.12e-01,
1015,-7.20e-02,
1016,-6.40e-02,
1017,7.20e-02,
1018,-6.00e-02,
1019,8.40e-02,
1020,8.40e-02,
1021,-6.00e-02,
1022,-8.40e-02,
1023,6.40e-02,
1024,8.40e-02,
1025,-8.80e-02,
1026,-5.60e-02,
1027,7.20e-02,
1028,9.60e-02,
1029,-6.00e-02,
1030,3.20e-02,
1031,-4.80e-02,
1032,8.40e-02,
1033,-6.40e-02,
1034,-8.40e-02,
1035,1.20e-01,
1036,8.40e-02,
1037,-9.20e-02,
1038,-7.20e-02,
1039,8.00e-02,
1040,9.60e-02,
1041,-8.00e-02,
1042,-7.20e-02,
1043,3.20e-02,
1044,8.00e-02,
1045,-8.80e-02,
1046,-8.40e-02,
1047,9.20e-02,
1048,-8.40e-02,
1049,1.28e-01,
1050,1.28e-01,
1051,-9.60e-02,
1052,-8.00e-02,
1053,1.08e-01,
1054,1.00e-01,
1055,-6.80e-02,
1056,-6.00e-02,
1057,8.80e-02,
1058,8.00e-02,
1059,-4.80e-02,
1060,-6.00e-02,
1061,8.80e-02,
1062,-6.00e-02,
1063,4.00e-02,
1064,-6.80e-02,
1065,5.20e-02,
1066,6.40e-02,
1067,-6.40e-02,
1068,5.20e-02,
1069,-5.60e-02,
1070,-8.00e-02,
1071,8.80e-02,
1072,-8.80e-02,
1073,1.36e-01,
1074,9.20e-02,
1075,-7.20e-02,
1076,8.00e-02,
1077,-6.40e-02,
1078,6.80e-02,
1079,-6.80e-02,
1080,5.20e-02,
1081,-6.40e-02,
1082,9.20e-02,
1083,-7.60e-02,
1084,-9.60e-02,
1085,1.04e-01,
1086,-4.40e-02,
1087,6.80e-02,
1088,1.04e-01,
1089,-5.60e-02,
1090,-7.20e-02,
1091,1.12e-01,
1092,-6.80e-02,
1093,6.40e-02,
1094,-1.04e-01,
1095,1.04e-01,
1096,-9.60e-02,
1097,8.80e-02,
1098,-8.80e-02,
1099,3.20e-02,
1100,-9.20e-02,
1101,1.28e-01,
1102,5.20e-02,
1103,-6.00e-02,
1104,8.40e-02,
1105,-7.20e-02,
1106,8.00e-02,
1107,-6.80e-02,
1108,-4.00e-02,
1109,8.80e-02,
1110,-6.00e-02,
1111,6.00e-02,
1112,-6.00e-02,
1113,8.00e-02,
1114,-9.20e-02,
1115,8.80e-02,
1116,-6.00e-02,
1117,9.20e-02,
1118,7.20e-02,
1119,-3.60e-02,
1120,8.00e-02,
1121,-5.20e-02,
1122,-6.00e-02,
1123,9.20e-02,
1124,-1.00e-01,
1125,1.16e-01,
1126,6.40e-02,
1127,-6.40e-02,
1128,-6.40e-02,
1129,4.00e-02,
1130,1.04e-01,
1131,-8.80e-02,
1132,-1.04e-01,
1133,1.28e-01,
1134,-1.00e-01,
1135,1.36e-01,
1136,1.16e-01,
1137,-1.00e-01,
1138,9.60e-02,
1139,-8.40e-02,
1140,3.20e-02,
1141,-7.20e-02,
1142,-7.20e-02,
1143,7.60e-02,
1144,5.60e-02,
1145,-8.40e-02,
1146,-9.20e-02,
1147,2.80e-02,
1148,-7.20e-02,
1149,8.40e-02,
1150,-6.00e-02,
1151,8.40e-02,
1152,-7.20e-02,
1153,8.40e-02,
1154,7.20e-02,
1155,-6.00e-02,
1156,1.28e-01,
1157,-6.40e-02,
1158,8.40e-02,
1159,-5.60e-02,
1160,4.40e-02,
1161,-6.40e-02,
1162,8.80e-02,
1163,-6.00e-02,
1164,-6.00e-02,
1165,4.00e-02,
1166,1.00e-01,
1167,-1.00e-01,
1168,-6.40e-02,
1169,6.80e-02,
1170,-6.80e-02,
1171,8.40e-02,
1172,-6.40e-02,
1173,8.80e-02,
1174,8.80e-02,
1175,-7.20e-02,
1176,1.04e-01,
1177,-1.00e-01,
1178,1.32e-01,
1179,-9.20e-02,
1180,-8.40e-02,
1181,1.16e-01,
1182,-8.00e-02,
1183,1.24e-01,
1184,7.60e-02,
1185,-8.80e-02,
1186,-7.20e-02,
1187,7.60e-02,
1188,-8.00e-02,
1189,5.20e-02,
1190,6.40e-02,
1191,-7.20e-02,
1192,-1.04e-01,
1193,1.24e-01,
1194,-7.60e-02,
1195,9.20e-02,
1196,9.20e-02,
1197,-7.20e-02,
1198,-3.60e-02,
1199,9.20e-02,
