Laptop_2/LAPTOP_CHRGR_2_ON_DISTANT/time domain/NewFile20.csv

X,CH1,Start,Increment,
Sequence,Volt,-1.500000e-01,2.000000e-04
0,-1.00e-01,
1,1.24e-01,
2,9.60e-02,
3,-1.12e-01,
4,1.16e-01,
5,-1.20e-01,
6,-9.60e-02,
7,1.12e-01,
8,9.60e-02,
9,-8.40e-02,
10,1.12e-01,
11,-1.00e-01,
12,-9.60e-02,
13,1.08e-01,
14,-9.60e-02,
15,1.16e-01,
16,9.20e-02,
17,-1.24e-01,
18,8.00e-02,
19,-1.04e-01,
20,-1.00e-01,
21,8.40e-02,
22,1.00e-01,
23,-6.80e-02,
24,-8.00e-02,
25,1.24e-01,
26,-1.20e-01,
27,1.16e-01,
28,1.04e-01,
29,-1.00e-01,
30,1.04e-01,
31,-1.04e-01,
32,1.08e-01,
33,-7.20e-02,
34,1.04e-01,
35,-1.00e-01,
36,-1.24e-01,
37,9.20e-02,
38,-4.00e-02,
39,1.52e-01,
40,1.44e-01,
41,-1.04e-01,
42,1.08e-01,
43,-1.12e-01,
44,1.28e-01,
45,-1.12e-01,
46,1.04e-01,
47,-1.12e-01,
48,-1.12e-01,
49,9.60e-02,
50,-1.04e-01,
51,1.36e-01,
52,1.36e-01,
53,-4.80e-02,
54,-9.20e-02,
55,1.00e-01,
56,8.80e-02,
57,-9.20e-02,
58,-9.60e-02,
59,1.08e-01,
60,-1.00e-01,
61,1.32e-01,
62,-1.04e-01,
63,8.80e-02,
64,1.04e-01,
65,-2.80e-02,
66,-1.00e-01,
67,9.20e-02,
68,-9.60e-02,
69,1.04e-01,
70,1.08e-01,
71,-9.20e-02,
72,-1.20e-01,
73,9.20e-02,
74,1.00e-01,
75,-1.28e-01,
76,-1.24e-01,
77,1.40e-01,
78,-1.12e-01,
79,1.08e-01,
80,8.00e-02,
81,-9.60e-02,
82,-9.20e-02,
83,1.28e-01,
84,-1.16e-01,
85,1.24e-01,
86,-1.00e-01,
87,1.16e-01,
88,-1.28e-01,
89,6.40e-02,
90,-1.04e-01,
91,9.20e-02,
92,1.12e-01,
93,-1.24e-01,
94,1.32e-01,
95,-1.04e-01,
96,1.20e-01,
97,-1.08e-01,
98,1.24e-01,
99,-1.40e-01,
100,9.60e-02,
101,-1.04e-01,
102,1.36e-01,
103,-1.28e-01,
104,-1.36e-01,
105,4.40e-02,
106,-1.24e-01,
107,1.00e-01,
108,-9.20e-02,
109,1.20e-01,
110,1.08e-01,
111,-9.60e-02,
112,1.04e-01,
113,-2.40e-02,
114,6.00e-02,
115,-1.08e-01,
116,1.00e-01,
117,-1.28e-01,
118,8.80e-02,
119,-4.00e-02,
120,1.00e-01,
121,-1.08e-01,
122,1.24e-01,
123,-1.16e-01,
124,1.12e-01,
125,-9.20e-02,
126,1.00e-01,
127,-9.20e-02,
128,4.00e-02,
129,-9.20e-02,
130,1.04e-01,
131,-1.00e-01,
132,-1.28e-01,
133,1.24e-01,
134,-1.08e-01,
135,1.20e-01,
136,1.52e-01,
137,-1.28e-01,
138,1.40e-01,
139,-1.24e-01,
140,-9.20e-02,
141,1.20e-01,
142,8.00e-02,
143,-1.00e-01,
144,-1.16e-01,
145,8.40e-02,
146,1.20e-01,
147,-8.00e-02,
148,7.20e-02,
149,-1.00e-01,
150,9.20e-02,
151,-1.08e-01,
152,-1.00e-01,
153,1.08e-01,
154,-1.08e-01,
155,7.20e-02,
156,1.32e-01,
157,-7.20e-02,
158,1.12e-01,
159,-1.20e-01,
160,1.20e-01,
161,-1.16e-01,
162,9.20e-02,
163,-9.20e-02,
164,1.08e-01,
165,-9.60e-02,
166,-9.20e-02,
167,9.20e-02,
168,-1.00e-01,
169,1.04e-01,
170,-1.04e-01,
171,9.60e-02,
172,1.24e-01,
173,-7.60e-02,
174,-9.60e-02,
175,1.12e-01,
176,-9.60e-02,
177,1.00e-01,
178,-1.00e-01,
179,1.12e-01,
180,-9.20e-02,
181,8.40e-02,
182,-1.16e-01,
183,1.28e-01,
184,-1.00e-01,
185,1.24e-01,
186,-2.40e-02,
187,1.24e-01,
188,-1.08e-01,
189,9.20e-02,
190,-9.20e-02,
191,9.20e-02,
192,-1.08e-01,
193,4.80e-02,
194,6.40e-02,
195,-1.16e-01,
196,-1.20e-01,
197,7.20e-02,
198,-1.12e-01,
199,8.80e-02,
200,-1.12e-01,
201,8.00e-02,
202,-1.24e-01,
203,1.56e-01,
204,9.20e-02,
205,-1.24e-01,
206,-1.24e-01,
207,1.40e-01,
208,-1.08e-01,
209,1.12e-01,
210,-1.04e-01,
211,1.16e-01,
212,-8.80e-02,
213,1.16e-01,
214,1.16e-01,
215,-1.12e-01,
216,-1.04e-01,
217,1.52e-01,
218,1.32e-01,
219,-7.20e-02,
220,-7.20e-02,
221,1.04e-01,
222,-8.00e-02,
223,1.04e-01,
224,-1.00e-01,
225,1.00e-01,
226,3.20e-02,
227,-9.60e-02,
228,-8.40e-02,
229,1.08e-01,
230,1.12e-01,
231,-9.60e-02,
232,1.00e-01,
233,-7.20e-02,
234,-7.20e-02,
235,4.00e-02,
236,-1.32e-01,
237,1.00e-01,
238,1.36e-01,
239,-1.04e-01,
240,-1.20e-01,
241,1.28e-01,
242,1.52e-01,
243,-1.20e-01,
244,-1.28e-01,
245,1.28e-01,
246,-1.16e-01,
247,1.40e-01,
248,8.80e-02,
249,-1.12e-01,
250,1.16e-01,
251,-9.60e-02,
252,-8.40e-02,
253,1.28e-01,
254,-6.80e-02,
255,1.04e-01,
256,1.20e-01,
257,-9.60e-02,
258,-9.60e-02,
259,9.60e-02,
260,-1.00e-01,
261,9.20e-02,
262,-6.80e-02,
263,8.40e-02,
264,7.60e-02,
265,-1.08e-01,
266,1.00e-01,
267,-9.60e-02,
268,7.60e-02,
269,-1.00e-01,
270,-1.00e-01,
271,1.12e-01,
272,-9.20e-02,
273,1.04e-01,
274,8.80e-02,
275,-9.60e-02,
276,6.00e-02,
277,-1.04e-01,
278,-1.00e-01,
279,1.08e-01,
280,-1.08e-01,
281,1.20e-01,
282,-1.08e-01,
283,1.24e-01,
284,1.28e-01,
285,-1.08e-01,
286,1.40e-01,
287,-1.24e-01,
288,1.40e-01,
289,-1.36e-01,
290,1.32e-01,
291,-1.32e-01,
292,1.52e-01,
293,-1.36e-01,
294,9.20e-02,
295,-1.36e-01,
296,-1.00e-01,
297,1.20e-01,
298,-1.08e-01,
299,1.20e-01,
300,-1.04e-01,
301,1.16e-01,
302,-6.80e-02,
303,7.60e-02,
304,-7.60e-02,
305,8.80e-02,
306,1.08e-01,
307,-1.00e-01,
308,8.40e-02,
309,-6.80e-02,
310,-1.00e-01,
311,6.40e-02,
312,-1.04e-01,
313,1.08e-01,
314,-1.04e-01,
315,8.40e-02,
316,9.20e-02,
317,-1.00e-01,
318,1.08e-01,
319,-9.60e-02,
320,1.04e-01,
321,-1.04e-01,
322,-9.60e-02,
323,9.20e-02,
324,1.44e-01,
325,-1.20e-01,
326,1.32e-01,
327,-1.28e-01,
328,-1.28e-01,
329,1.60e-01,
330,1.16e-01,
331,-1.08e-01,
332,-1.08e-01,
333,1.24e-01,
334,-1.12e-01,
335,1.32e-01,
336,-1.00e-01,
337,1.20e-01,
338,1.68e-01,
339,-1.20e-01,
340,-8.40e-02,
341,9.60e-02,
342,-1.00e-01,
343,1.32e-01,
344,8.40e-02,
345,-8.80e-02,
346,1.04e-01,
347,-9.60e-02,
348,7.20e-02,
349,-1.32e-01,
350,-8.00e-02,
351,1.12e-01,
352,1.12e-01,
353,-8.40e-02,
354,8.80e-02,
355,-1.00e-01,
356,-1.08e-01,
357,1.12e-01,
358,-2.40e-02,
359,1.48e-01,
360,1.36e-01,
361,-8.40e-02,
362,-9.20e-02,
363,9.20e-02,
364,6.80e-02,
365,-9.20e-02,
366,-8.80e-02,
367,9.60e-02,
368,8.40e-02,
369,-1.04e-01,
370,1.16e-01,
371,-1.28e-01,
372,1.56e-01,
373,-1.20e-01,
374,9.20e-02,
375,-1.28e-01,
376,-1.32e-01,
377,6.80e-02,
378,-1.04e-01,
379,9.20e-02,
380,-1.08e-01,
381,5.20e-02,
382,-8.80e-02,
383,1.12e-01,
384,-1.16e-01,
385,7.60e-02,
386,3.20e-02,
387,-1.32e-01,
388,1.28e-01,
389,-1.12e-01,
390,-1.16e-01,
391,1.16e-01,
392,-1.08e-01,
393,1.04e-01,
394,-1.00e-01,
395,1.24e-01,
396,-1.08e-01,
397,1.40e-01,
398,-1.12e-01,
399,3.20e-02,
400,1.08e-01,
401,-1.00e-01,
402,1.12e-01,
403,-1.08e-01,
404,-1.00e-01,
405,1.20e-01,
406,-1.12e-01,
407,1.28e-01,
408,-1.04e-01,
409,1.44e-01,
410,1.24e-01,
411,-1.24e-01,
412,-1.12e-01,
413,1.36e-01,
414,8.00e-02,
415,-9.20e-02,
416,-1.04e-01,
417,1.08e-01,
418,-1.00e-01,
419,9.20e-02,
420,9.60e-02,
421,-1.04e-01,
422,8.40e-02,
423,-1.28e-01,
424,8.40e-02,
425,-1.08e-01,
426,-1.08e-01,
427,1.12e-01,
428,-7.60e-02,
429,1.04e-01,
430,-1.08e-01,
431,1.16e-01,
432,-7.20e-02,
433,1.36e-01,
434,1.00e-01,
435,-1.20e-01,
436,-8.00e-02,
437,8.80e-02,
438,1.16e-01,
439,-9.60e-02,
440,9.20e-02,
441,-7.60e-02,
442,1.20e-01,
443,-9.60e-02,
444,1.32e-01,
445,-1.12e-01,
446,1.16e-01,
447,-1.24e-01,
448,1.52e-01,
449,-1.32e-01,
450,1.48e-01,
451,-1.36e-01,
452,-1.24e-01,
453,1.00e-01,
454,-1.24e-01,
455,1.56e-01,
456,-1.16e-01,
457,1.24e-01,
458,-1.04e-01,
459,1.00e-01,
460,8.80e-02,
461,-1.00e-01,
462,7.60e-02,
463,-9.60e-02,
464,-9.20e-02,
465,8.80e-02,
466,9.20e-02,
467,-1.12e-01,
468,-8.40e-02,
469,9.60e-02,
470,-9.20e-02,
471,9.60e-02,
472,8.00e-02,
473,-8.80e-02,
474,1.16e-01,
475,-8.00e-02,
476,-1.32e-01,
477,9.60e-02,
478,8.80e-02,
479,-1.00e-01,
480,1.32e-01,
481,-9.20e-02,
482,1.12e-01,
483,-1.12e-01,
484,1.20e-01,
485,-1.16e-01,
486,1.24e-01,
487,-1.28e-01,
488,-1.32e-01,
489,8.80e-02,
490,-1.16e-01,
491,1.56e-01,
492,-1.28e-01,
493,1.64e-01,
494,-1.24e-01,
495,1.08e-01,
496,-1.04e-01,
497,1.16e-01,
498,-1.04e-01,
499,1.20e-01,
500,-1.00e-01,
501,1.12e-01,
502,-1.00e-01,
503,1.16e-01,
504,3.60e-02,
505,-1.00e-01,
506,1.36e-01,
507,-1.20e-01,
508,-7.60e-02,
509,1.00e-01,
510,8.80e-02,
511,-8.40e-02,
512,9.60e-02,
513,-8.40e-02,
514,-9.20e-02,
515,1.12e-01,
516,-6.00e-02,
517,8.80e-02,
518,-1.00e-01,
519,1.00e-01,
520,1.08e-01,
521,-1.00e-01,
522,-1.00e-01,
523,1.08e-01,
524,8.00e-02,
525,-1.08e-01,
526,8.00e-02,
527,-1.08e-01,
528,-1.32e-01,
529,1.44e-01,
530,1.48e-01,
531,-1.20e-01,
532,9.60e-02,
533,-1.08e-01,
534,-1.08e-01,
535,1.28e-01,
536,6.40e-02,
537,-1.16e-01,
538,-1.24e-01,
539,1.36e-01,
540,-1.36e-01,
541,1.40e-01,
542,1.00e-01,
543,-6.00e-02,
544,-1.16e-01,
545,7.60e-02,
546,-3.20e-02,
547,1.08e-01,
548,8.40e-02,
549,-1.00e-01,
550,-1.28e-01,
551,1.24e-01,
552,-9.60e-02,
553,7.60e-02,
554,-3.60e-02,
555,1.04e-01,
556,-1.08e-01,
557,1.08e-01,
558,1.04e-01,
559,-9.60e-02,
560,1.08e-01,
561,-8.40e-02,
562,-9.60e-02,
563,7.20e-02,
564,-9.60e-02,
565,9.20e-02,
566,-9.60e-02,
567,1.16e-01,
568,-9.60e-02,
569,9.20e-02,
570,-1.04e-01,
571,1.36e-01,
572,-9.60e-02,
573,1.28e-01,
574,-1.24e-01,
575,1.36e-01,
576,-1.32e-01,
577,1.60e-01,
578,-1.20e-01,
579,1.44e-01,
580,-9.60e-02,
581,1.32e-01,
582,1.12e-01,
583,-1.16e-01,
584,1.24e-01,
585,-8.00e-02,
586,-1.20e-02,
587,1.32e-01,
588,3.20e-02,
589,-6.40e-02,
590,-1.12e-01,
591,1.08e-01,
592,9.20e-02,
593,-9.60e-02,
594,-2.00e-02,
595,1.04e-01,
596,8.80e-02,
597,-1.16e-01,
598,-1.24e-01,
599,5.20e-02,
600,1.28e-01,
601,-1.04e-01,
602,-8.80e-02,
603,1.20e-01,
604,-1.04e-01,
605,1.52e-01,
606,1.36e-01,
607,-1.28e-01,
608,-1.12e-01,
609,1.24e-01,
610,-9.20e-02,
611,6.00e-02,
612,-8.40e-02,
613,1.08e-01,
614,9.20e-02,
615,-8.80e-02,
616,9.20e-02,
617,-1.00e-01,
618,1.20e-01,
619,-1.08e-01,
620,-9.20e-02,
621,8.00e-02,
622,4.00e-02,
623,-1.32e-01,
624,8.40e-02,
625,-1.00e-01,
626,1.20e-01,
627,-7.20e-02,
628,8.40e-02,
629,-7.60e-02,
630,8.00e-02,
631,-1.00e-01,
632,-2.00e-02,
633,5.60e-02,
634,-1.12e-01,
635,8.40e-02,
636,1.12e-01,
637,-1.20e-01,
638,-6.40e-02,
639,1.12e-01,
640,-9.60e-02,
641,1.36e-01,
642,-1.04e-01,
643,1.28e-01,
644,6.80e-02,
645,-1.04e-01,
646,1.20e-01,
647,-1.24e-01,
648,1.08e-01,
649,-8.40e-02,
650,-1.04e-01,
651,7.60e-02,
652,8.80e-02,
653,-1.04e-01,
654,-9.60e-02,
655,1.04e-01,
656,8.00e-02,
657,-1.20e-01,
658,1.44e-01,
659,-1.24e-01,
660,1.00e-01,
661,-1.32e-01,
662,-1.04e-01,
663,1.12e-01,
664,7.60e-02,
665,-1.00e-01,
666,-2.00e-02,
667,1.12e-01,
668,-1.00e-01,
669,8.40e-02,
670,1.12e-01,
671,-1.00e-01,
672,-1.12e-01,
673,9.20e-02,
674,-8.80e-02,
675,1.16e-01,
676,9.20e-02,
677,-1.00e-01,
678,1.04e-01,
679,-1.08e-01,
680,-1.08e-01,
681,1.28e-01,
682,1.52e-01,
683,-1.28e-01,
684,1.12e-01,
685,-7.60e-02,
686,-1.12e-01,
687,1.40e-01,
688,1.24e-01,
689,-1.04e-01,
690,1.24e-01,
691,-1.08e-01,
692,1.48e-01,
693,-1.28e-01,
694,1.24e-01,
695,-7.60e-02,
696,9.60e-02,
697,-4.00e-02,
698,-1.00e-01,
699,6.00e-02,
700,1.12e-01,
701,-1.00e-01,
702,1.16e-01,
703,-3.60e-02,
704,-1.28e-01,
705,1.00e-01,
706,-1.16e-01,
707,9.20e-02,
708,-1.00e-01,
709,1.00e-01,
710,-1.00e-01,
711,1.04e-01,
712,9.60e-02,
713,-1.00e-01,
714,-1.20e-01,
715,1.20e-01,
716,1.20e-01,
717,-2.40e-02,
718,1.28e-01,
719,-7.20e-02,
720,-9.60e-02,
721,1.12e-01,
722,1.20e-01,
723,-6.80e-02,
724,-1.08e-01,
725,8.40e-02,
726,1.40e-01,
727,-1.04e-01,
728,1.32e-01,
729,-1.16e-01,
730,-1.04e-01,
731,1.24e-01,
732,-1.16e-01,
733,9.20e-02,
734,8.40e-02,
735,-1.04e-01,
736,1.52e-01,
737,-1.16e-01,
738,-1.32e-01,
739,1.48e-01,
740,-1.16e-01,
741,1.40e-01,
742,-1.08e-01,
743,1.32e-01,
744,1.28e-01,
745,-1.04e-01,
746,1.00e-01,
747,-6.00e-02,
748,7.20e-02,
749,-1.08e-01,
750,1.20e-01,
751,-1.08e-01,
752,-5.60e-02,
753,1.16e-01,
754,-1.00e-01,
755,9.60e-02,
756,9.20e-02,
757,-6.00e-02,
758,1.04e-01,
759,-9.60e-02,
760,-9.60e-02,
761,1.00e-01,
762,9.20e-02,
763,-9.60e-02,
764,8.80e-02,
765,-1.00e-01,
766,-1.12e-01,
767,1.04e-01,
768,1.04e-01,
769,-8.80e-02,
770,1.16e-01,
771,-8.40e-02,
772,-6.40e-02,
773,8.40e-02,
774,-1.00e-01,
775,1.16e-01,
776,-1.12e-01,
777,1.32e-01,
778,9.60e-02,
779,-9.60e-02,
780,1.16e-01,
781,-1.12e-01,
782,1.40e-01,
783,-8.40e-02,
784,9.60e-02,
785,-6.80e-02,
786,-7.60e-02,
787,7.20e-02,
788,-8.40e-02,
789,1.04e-01,
790,1.44e-01,
791,-5.60e-02,
792,-8.80e-02,
793,1.28e-01,
794,-1.24e-01,
795,1.28e-01,
796,1.24e-01,
797,-1.16e-01,
798,-1.20e-01,
799,1.08e-01,
800,-1.24e-01,
801,1.20e-01,
802,1.36e-01,
803,-1.08e-01,
804,1.52e-01,
805,-1.20e-01,
806,-1.20e-01,
807,1.40e-01,
808,-1.20e-01,
809,1.40e-01,
810,1.48e-01,
811,-1.28e-01,
812,1.28e-01,
813,-1.24e-01,
814,1.28e-01,
815,-1.20e-01,
816,1.28e-01,
817,-1.00e-01,
818,1.32e-01,
819,-1.28e-01,
820,1.40e-01,
821,-5.20e-02,
822,-1.24e-01,
823,1.32e-01,
824,1.08e-01,
825,-4.40e-02,
826,-1.16e-01,
827,1.08e-01,
828,-6.80e-02,
829,1.52e-01,
830,1.40e-01,
831,-8.00e-02,
832,-1.16e-01,
833,1.20e-01,
834,1.40e-01,
835,-7.60e-02,
836,-1.24e-01,
837,1.12e-01,
838,1.32e-01,
839,-8.00e-02,
840,1.40e-01,
841,-1.32e-01,
842,1.20e-01,
843,-1.24e-01,
844,1.16e-01,
845,-1.16e-01,
846,-1.12e-01,
847,1.44e-01,
848,1.40e-01,
849,-1.20e-01,
850,-1.20e-01,
851,1.40e-01,
852,-1.28e-01,
853,1.52e-01,
854,-1.32e-01,
855,1.48e-01,
856,1.08e-01,
857,-1.32e-01,
858,-1.20e-01,
859,1.36e-01,
860,-1.24e-01,
861,1.04e-01,
862,1.44e-01,
863,-4.40e-02,
864,1.28e-01,
865,-1.32e-01,
866,-1.36e-01,
867,1.60e-01,
868,-1.00e-01,
869,1.36e-01,
870,1.40e-01,
871,-1.32e-01,
872,-1.16e-01,
873,7.20e-02,
874,-7.20e-02,
875,9.20e-02,
876,-2.40e-02,
877,1.32e-01,
878,-1.24e-01,
879,1.04e-01,
880,-1.32e-01,
881,1.32e-01,
882,1.48e-01,
883,-1.16e-01,
884,1.32e-01,
885,-1.12e-01,
886,-1.20e-01,
887,1.36e-01,
888,1.28e-01,
889,-1.20e-01,
890,-1.20e-01,
891,1.48e-01,
892,-1.12e-01,
893,1.32e-01,
894,1.24e-01,
895,-1.00e-01,
896,1.32e-01,
897,-1.12e-01,
898,-1.20e-01,
899,1.28e-01,
900,1.32e-01,
901,-1.20e-01,
902,-1.36e-01,
903,1.12e-01,
904,6.00e-02,
905,-2.40e-02,
906,1.28e-01,
907,-6.00e-02,
908,-1.24e-01,
909,1.28e-01,
910,6.00e-02,
911,-1.20e-01,
912,1.04e-01,
913,-5.20e-02,
914,1.12e-01,
915,-1.24e-01,
916,1.40e-01,
917,-1.16e-01,
918,1.24e-01,
919,-1.08e-01,
920,-1.20e-01,
921,1.40e-01,
922,-1.24e-01,
923,1.36e-01,
924,1.52e-01,
925,-1.16e-01,
926,1.52e-01,
927,-1.24e-01,
928,-1.24e-01,
929,1.44e-01,
930,1.48e-01,
931,-1.28e-01,
932,1.28e-01,
933,-1.32e-01,
934,-1.08e-01,
935,1.28e-01,
936,1.20e-01,
937,-1.20e-01,
938,1.32e-01,
939,-1.16e-01,
940,1.40e-01,
941,-1.24e-01,
942,1.44e-01,
943,-1.28e-01,
944,1.20e-01,
945,-1.12e-01,
946,1.12e-01,
947,-1.16e-01,
948,-1.20e-01,
949,1.04e-01,
950,-6.40e-02,
951,1.20e-01,
952,-1.08e-01,
953,1.32e-01,
954,-1.00e-01,
955,1.28e-01,
956,-1.28e-01,
957,1.44e-01,
958,1.56e-01,
959,-1.20e-01,
960,1.40e-01,
961,-1.28e-01,
962,-1.32e-01,
963,1.04e-01,
964,1.52e-01,
965,-1.36e-01,
966,-1.28e-01,
967,1.48e-01,
968,1.44e-01,
969,-1.04e-01,
970,-1.00e-01,
971,1.28e-01,
972,-1.24e-01,
973,1.08e-01,
974,-1.28e-01,
975,1.52e-01,
976,-1.20e-01,
977,1.00e-01,
978,1.48e-01,
979,-6.40e-02,
980,1.44e-01,
981,-1.24e-01,
982,5.20e-02,
983,-1.28e-01,
984,1.12e-01,
985,-6.80e-02,
986,-9.20e-02,
987,1.24e-01,
988,1.28e-01,
989,-1.00e-01,
990,1.24e-01,
991,-7.20e-02,
992,-1.16e-01,
993,1.28e-01,
994,1.08e-01,
995,-8.40e-02,
996,-1.28e-01,
997,1.12e-01,
998,1.04e-01,
999,-1.24e-01,
1000,-1.12e-01,
1001,1.56e-01,
1002,-8.80e-02,
1003,1.44e-01,
1004,-1.32e-01,
1005,1.32e-01,
1006,1.40e-01,
1007,-1.32e-01,
1008,1.36e-01,
1009,-1.28e-01,
1010,-1.04e-01,
1011,1.52e-01,
1012,1.56e-01,
1013,-1.32e-01,
1014,1.32e-01,
1015,-1.28e-01,
1016,1.36e-01,
1017,-1.20e-01,
1018,1.32e-01,
1019,-1.32e-01,
1020,-1.20e-01,
1021,1.28e-01,
1022,1.32e-01,
1023,-1.20e-01,
1024,1.28e-01,
1025,-1.08e-01,
1026,1.28e-01,
1027,-8.40e-02,
1028,1.24e-01,
1029,-1.24e-01,
1030,-2.80e-02,
1031,1.04e-01,
1032,-1.04e-01,
1033,1.36e-01,
1034,-1.16e-01,
1035,1.20e-01,
1036,9.20e-02,
1037,-1.12e-01,
1038,-1.32e-01,
1039,1.52e-01,
1040,1.28e-01,
1041,-9.60e-02,
1042,1.36e-01,
1043,-1.24e-01,
1044,1.44e-01,
1045,-1.32e-01,
1046,-1.28e-01,
1047,1.16e-01,
1048,1.00e-01,
1049,-1.32e-01,
1050,1.48e-01,
1051,-1.32e-01,
1052,1.00e-01,
1053,-8.80e-02,
1054,1.56e-01,
1055,-1.12e-01,
1056,-1.08e-01,
1057,1.16e-01,
1058,1.40e-01,
1059,-9.60e-02,
1060,-1.24e-01,
1061,1.28e-01,
1062,1.40e-01,
1063,-1.20e-01,
1064,-1.16e-01,
1065,1.12e-01,
1066,-4.80e-02,
1067,1.32e-01,
1068,1.36e-01,
1069,-8.00e-02,
1070,-5.20e-02,
1071,1.36e-01,
1072,1.00e-01,
1073,-1.28e-01,
1074,-1.24e-01,
1075,1.24e-01,
1076,1.24e-01,
1077,-6.40e-02,
1078,-1.24e-01,
1079,1.20e-01,
1080,1.36e-01,
1081,-1.24e-01,
1082,8.80e-02,
1083,-1.12e-01,
1084,-1.32e-01,
1085,1.00e-01,
1086,-1.32e-01,
1087,1.32e-01,
1088,1.40e-01,
1089,-1.08e-01,
1090,1.60e-01,
1091,-7.20e-02,
1092,1.60e-01,
1093,-1.24e-01,
1094,1.12e-01,
1095,-1.28e-01,
1096,1.40e-01,
1097,-1.24e-01,
1098,-1.32e-01,
1099,1.40e-01,
1100,1.36e-01,
1101,-1.00e-01,
1102,-1.20e-01,
1103,1.08e-01,
1104,1.36e-01,
1105,-1.24e-01,
1106,-9.20e-02,
1107,8.40e-02,
1108,1.40e-01,
1109,-1.16e-01,
1110,-3.20e-02,
1111,1.28e-01,
1112,-1.20e-01,
1113,1.32e-01,
1114,-9.60e-02,
1115,1.32e-01,
1116,1.08e-01,
1117,-5.20e-02,
1118,-1.20e-01,
1119,1.04e-01,
1120,-1.28e-01,
1121,1.04e-01,
1122,1.32e-01,
1123,-1.28e-01,
1124,-1.28e-01,
1125,1.36e-01,
1126,-1.20e-01,
1127,1.52e-01,
1128,1.12e-01,
1129,-1.28e-01,
1130,-1.28e-01,
1131,1.28e-01,
1132,1.12e-01,
1133,-1.32e-01,
1134,1.40e-01,
1135,-1.24e-01,
1136,-1.16e-01,
1137,1.56e-01,
1138,1.12e-01,
1139,-1.28e-01,
1140,1.36e-01,
1141,-1.28e-01,
1142,-1.16e-01,
1143,9.60e-02,
1144,-1.36e-01,
1145,1.08e-01,
1146,9.60e-02,
1147,-1.32e-01,
1148,-1.28e-01,
1149,1.40e-01,
1150,6.00e-02,
1151,-1.28e-01,
1152,1.00e-01,
1153,-1.24e-01,
1154,-4.80e-02,
1155,1.40e-01,
1156,-8.40e-02,
1157,1.24e-01,
1158,-1.28e-01,
1159,1.32e-01,
1160,1.28e-01,
1161,-1.12e-01,
1162,-1.24e-01,
1163,1.20e-01,
1164,9.60e-02,
1165,-9.20e-02,
1166,9.20e-02,
1167,-9.20e-02,
1168,-7.20e-02,
1169,9.60e-02,
1170,1.08e-01,
1171,-1.00e-01,
1172,-1.28e-01,
1173,1.28e-01,
1174,-1.08e-01,
1175,1.24e-01,
1176,1.16e-01,
1177,-1.04e-01,
1178,9.20e-02,
1179,-1.00e-01,
1180,-9.20e-02,
1181,1.20e-01,
1182,-1.12e-01,
1183,1.12e-01,
1184,-1.12e-01,
1185,8.40e-02,
1186,-1.16e-01,
1187,9.60e-02,
1188,8.00e-02,
1189,-1.00e-01,
1190,-9.20e-02,
1191,7.60e-02,
1192,7.20e-02,
1193,-1.08e-01,
1194,-1.12e-01,
1195,1.16e-01,
1196,-1.08e-01,
1197,9.20e-02,
1198,1.12e-01,
1199,-1.16e-01,
