Laptop_2/LAPTOP_CHRGR_2_ON_DISTANT/time domain/NewFile44.csv

X,CH1,Start,Increment,
Sequence,Volt,-1.500000e-01,2.000000e-04
0,-7.60e-02,
1,5.60e-02,
2,-1.24e-01,
3,7.20e-02,
4,1.88e-01,
5,-8.40e-02,
6,1.08e-01,
7,-8.40e-02,
8,-8.40e-02,
9,8.00e-02,
10,-7.60e-02,
11,4.80e-02,
12,1.04e-01,
13,-6.40e-02,
14,-8.80e-02,
15,1.04e-01,
16,-7.60e-02,
17,1.00e-01,
18,1.32e-01,
19,-8.80e-02,
20,-1.40e-01,
21,1.76e-01,
22,1.76e-01,
23,-8.80e-02,
24,1.08e-01,
25,-6.00e-02,
26,1.16e-01,
27,-6.80e-02,
28,-9.20e-02,
29,1.20e-01,
30,-9.20e-02,
31,1.08e-01,
32,-9.20e-02,
33,1.20e-01,
34,4.80e-02,
35,-1.04e-01,
36,1.72e-01,
37,-1.28e-01,
38,-1.32e-01,
39,1.80e-01,
40,-6.40e-02,
41,1.68e-01,
42,-1.20e-01,
43,1.56e-01,
44,-9.60e-02,
45,1.00e-01,
46,-5.20e-02,
47,1.36e-01,
48,-1.00e-01,
49,1.68e-01,
50,7.20e-02,
51,-8.00e-02,
52,1.76e-01,
53,-1.36e-01,
54,-1.00e-01,
55,1.52e-01,
56,-1.04e-01,
57,1.28e-01,
58,-7.60e-02,
59,1.00e-01,
60,1.12e-01,
61,-7.20e-02,
62,-6.40e-02,
63,5.20e-02,
64,9.20e-02,
65,-7.60e-02,
66,-6.80e-02,
67,1.08e-01,
68,9.60e-02,
69,-6.80e-02,
70,-1.00e-01,
71,1.48e-01,
72,-4.80e-02,
73,1.20e-01,
74,2.80e-02,
75,-1.00e-01,
76,-1.24e-01,
77,1.80e-01,
78,1.28e-01,
79,-6.40e-02,
80,-1.00e-01,
81,9.60e-02,
82,8.00e-02,
83,-1.04e-01,
84,1.08e-01,
85,-1.16e-01,
86,1.44e-01,
87,-9.60e-02,
88,-8.40e-02,
89,1.44e-01,
90,-8.40e-02,
91,1.36e-01,
92,1.40e-01,
93,-1.04e-01,
94,7.60e-02,
95,-9.60e-02,
96,7.60e-02,
97,-1.44e-01,
98,1.24e-01,
99,-7.20e-02,
100,-6.00e-02,
101,1.16e-01,
102,1.08e-01,
103,-7.20e-02,
104,1.08e-01,
105,-7.20e-02,
106,-6.40e-02,
107,1.76e-01,
108,-1.16e-01,
109,1.16e-01,
110,8.40e-02,
111,-7.20e-02,
112,-7.20e-02,
113,1.12e-01,
114,7.20e-02,
115,-7.20e-02,
116,1.04e-01,
117,-1.12e-01,
118,-6.80e-02,
119,8.80e-02,
120,-1.24e-01,
121,1.28e-01,
122,1.44e-01,
123,-1.16e-01,
124,9.60e-02,
125,-5.20e-02,
126,1.32e-01,
127,-7.20e-02,
128,1.12e-01,
129,-7.20e-02,
130,-1.44e-01,
131,1.72e-01,
132,1.64e-01,
133,-1.08e-01,
134,-1.28e-01,
135,1.88e-01,
136,-6.40e-02,
137,1.24e-01,
138,1.16e-01,
139,-9.60e-02,
140,-1.00e-01,
141,1.24e-01,
142,-9.60e-02,
143,1.12e-01,
144,1.12e-01,
145,-1.16e-01,
146,-1.16e-01,
147,9.20e-02,
148,1.04e-01,
149,-6.40e-02,
150,1.08e-01,
151,-7.20e-02,
152,8.40e-02,
153,-9.20e-02,
154,1.04e-01,
155,-1.08e-01,
156,1.88e-01,
157,-4.00e-02,
158,1.76e-01,
159,-1.36e-01,
160,-1.24e-01,
161,1.88e-01,
162,-8.00e-02,
163,9.60e-02,
164,-7.20e-02,
165,5.60e-02,
166,-6.00e-02,
167,1.00e-01,
168,-8.40e-02,
169,6.40e-02,
170,-7.20e-02,
171,1.48e-01,
172,-5.60e-02,
173,7.60e-02,
174,-7.60e-02,
175,5.20e-02,
176,-8.00e-02,
177,1.20e-01,
178,-9.60e-02,
179,6.40e-02,
180,1.44e-01,
181,-1.32e-01,
182,-6.80e-02,
183,1.24e-01,
184,1.36e-01,
185,-8.80e-02,
186,1.28e-01,
187,-6.40e-02,
188,9.20e-02,
189,-1.12e-01,
190,-1.44e-01,
191,1.24e-01,
192,1.36e-01,
193,-9.60e-02,
194,-6.40e-02,
195,4.00e-02,
196,8.80e-02,
197,-1.08e-01,
198,-6.00e-02,
199,1.56e-01,
200,1.52e-01,
201,-1.24e-01,
202,1.32e-01,
203,-1.32e-01,
204,1.76e-01,
205,-1.24e-01,
206,1.12e-01,
207,-7.20e-02,
208,1.68e-01,
209,-1.40e-01,
210,1.84e-01,
211,-1.40e-01,
212,-1.44e-01,
213,1.88e-01,
214,1.20e-01,
215,-6.00e-02,
216,9.60e-02,
217,-5.20e-02,
218,-8.00e-02,
219,1.00e-01,
220,1.08e-01,
221,-6.80e-02,
222,-1.24e-01,
223,1.60e-01,
224,-6.80e-02,
225,5.60e-02,
226,1.04e-01,
227,-5.20e-02,
228,-4.40e-02,
229,1.32e-01,
230,-7.20e-02,
231,1.32e-01,
232,-8.40e-02,
233,1.36e-01,
234,-9.20e-02,
235,9.60e-02,
236,-1.00e-01,
237,1.40e-01,
238,1.72e-01,
239,-8.00e-02,
240,1.80e-01,
241,-1.40e-01,
242,1.72e-01,
243,-1.40e-01,
244,-9.20e-02,
245,1.64e-01,
246,1.32e-01,
247,-1.08e-01,
248,-6.80e-02,
249,1.36e-01,
250,1.12e-01,
251,-8.40e-02,
252,-9.60e-02,
253,1.44e-01,
254,-1.32e-01,
255,1.80e-01,
256,-9.20e-02,
257,9.60e-02,
258,-5.20e-02,
259,1.00e-01,
260,5.60e-02,
261,-6.00e-02,
262,9.20e-02,
263,-8.80e-02,
264,-6.40e-02,
265,1.04e-01,
266,-6.80e-02,
267,1.00e-01,
268,-6.00e-02,
269,8.40e-02,
270,1.16e-01,
271,-7.60e-02,
272,1.20e-01,
273,-1.24e-01,
274,-8.80e-02,
275,1.16e-01,
276,7.20e-02,
277,-6.80e-02,
278,-5.60e-02,
279,1.08e-01,
280,-1.04e-01,
281,9.60e-02,
282,-1.16e-01,
283,1.80e-01,
284,1.16e-01,
285,-8.40e-02,
286,-1.24e-01,
287,1.64e-01,
288,-1.44e-01,
289,1.84e-01,
290,1.84e-01,
291,-1.48e-01,
292,-1.32e-01,
293,1.40e-01,
294,-5.60e-02,
295,1.40e-01,
296,-1.04e-01,
297,1.12e-01,
298,1.20e-01,
299,-6.80e-02,
300,-9.20e-02,
301,1.32e-01,
302,8.00e-02,
303,-7.20e-02,
304,1.04e-01,
305,-8.00e-02,
306,-6.80e-02,
307,8.00e-02,
308,-8.00e-02,
309,1.08e-01,
310,9.20e-02,
311,-7.60e-02,
312,-6.80e-02,
313,1.40e-01,
314,-6.00e-02,
315,4.40e-02,
316,1.08e-01,
317,-6.00e-02,
318,-8.00e-02,
319,6.40e-02,
320,6.40e-02,
321,-1.16e-01,
322,-1.24e-01,
323,1.80e-01,
324,-1.16e-01,
325,1.80e-01,
326,-1.36e-01,
327,1.36e-01,
328,-1.04e-01,
329,1.24e-01,
330,1.28e-01,
331,-7.60e-02,
332,5.60e-02,
333,-8.40e-02,
334,1.40e-01,
335,-4.80e-02,
336,1.80e-01,
337,-8.80e-02,
338,-1.20e-01,
339,7.60e-02,
340,1.12e-01,
341,-7.60e-02,
342,1.28e-01,
343,-5.60e-02,
344,1.28e-01,
345,-5.20e-02,
346,1.00e-01,
347,-1.24e-01,
348,8.80e-02,
349,-5.20e-02,
350,1.08e-01,
351,-8.40e-02,
352,-8.40e-02,
353,1.00e-01,
354,8.80e-02,
355,-6.40e-02,
356,-7.60e-02,
357,1.40e-01,
358,-7.20e-02,
359,4.80e-02,
360,-5.60e-02,
361,1.00e-01,
362,1.12e-01,
363,-6.80e-02,
364,1.56e-01,
365,-1.44e-01,
366,-1.28e-01,
367,1.80e-01,
368,1.96e-01,
369,-9.20e-02,
370,1.60e-01,
371,-1.16e-01,
372,6.00e-02,
373,-6.00e-02,
374,-8.80e-02,
375,8.80e-02,
376,-9.20e-02,
377,8.40e-02,
378,-7.60e-02,
379,1.32e-01,
380,1.56e-01,
381,-1.32e-01,
382,-4.40e-02,
383,1.12e-01,
384,1.24e-01,
385,-1.00e-01,
386,1.16e-01,
387,-1.16e-01,
388,1.24e-01,
389,-7.60e-02,
390,-8.40e-02,
391,6.40e-02,
392,1.12e-01,
393,-8.00e-02,
394,-1.12e-01,
395,2.00e-02,
396,-8.80e-02,
397,9.20e-02,
398,9.20e-02,
399,-4.40e-02,
400,1.16e-01,
401,-1.12e-01,
402,1.64e-01,
403,-6.40e-02,
404,-9.60e-02,
405,1.80e-01,
406,-1.12e-01,
407,1.44e-01,
408,1.84e-01,
409,-1.36e-01,
410,1.20e-01,
411,-7.20e-02,
412,-6.80e-02,
413,1.04e-01,
414,7.60e-02,
415,-7.20e-02,
416,1.08e-01,
417,-8.40e-02,
418,1.08e-01,
419,-8.00e-02,
420,-8.00e-02,
421,1.88e-01,
422,1.12e-01,
423,-7.60e-02,
424,1.08e-01,
425,-6.40e-02,
426,2.40e-02,
427,-9.20e-02,
428,-7.60e-02,
429,8.40e-02,
430,-6.00e-02,
431,4.80e-02,
432,1.28e-01,
433,-9.20e-02,
434,3.60e-02,
435,-1.12e-01,
436,-9.20e-02,
437,1.44e-01,
438,1.12e-01,
439,-1.00e-01,
440,-8.40e-02,
441,1.68e-01,
442,1.36e-01,
443,-8.00e-02,
444,1.84e-01,
445,-1.36e-01,
446,1.68e-01,
447,-1.40e-01,
448,1.76e-01,
449,-1.04e-01,
450,9.20e-02,
451,-6.40e-02,
452,-7.20e-02,
453,1.04e-01,
454,-1.16e-01,
455,1.52e-01,
456,-8.40e-02,
457,1.24e-01,
458,1.20e-01,
459,-8.00e-02,
460,-6.00e-02,
461,8.40e-02,
462,-4.40e-02,
463,1.00e-01,
464,6.40e-02,
465,-1.20e-01,
466,-1.00e-01,
467,1.00e-01,
468,9.20e-02,
469,-6.40e-02,
470,-5.60e-02,
471,8.80e-02,
472,-6.80e-02,
473,1.04e-01,
474,1.44e-01,
475,-8.80e-02,
476,-1.04e-01,
477,1.28e-01,
478,1.04e-01,
479,-9.60e-02,
480,1.12e-01,
481,-9.20e-02,
482,-9.60e-02,
483,1.40e-01,
484,1.96e-01,
485,-8.80e-02,
486,-1.28e-01,
487,1.60e-01,
488,1.64e-01,
489,-1.32e-01,
490,-1.28e-01,
491,1.60e-01,
492,-1.44e-01,
493,1.96e-01,
494,9.60e-02,
495,-8.40e-02,
496,-8.00e-02,
497,1.08e-01,
498,-7.60e-02,
499,1.28e-01,
500,-6.80e-02,
501,4.80e-02,
502,7.20e-02,
503,-6.80e-02,
504,1.76e-01,
505,-6.40e-02,
506,-5.60e-02,
507,9.20e-02,
508,-6.40e-02,
509,1.08e-01,
510,9.20e-02,
511,-5.60e-02,
512,-1.16e-01,
513,6.80e-02,
514,-4.80e-02,
515,9.60e-02,
516,-4.40e-02,
517,7.20e-02,
518,-7.60e-02,
519,8.80e-02,
520,-6.00e-02,
521,1.80e-01,
522,1.88e-01,
523,-1.32e-01,
524,-1.36e-01,
525,1.92e-01,
526,-1.28e-01,
527,6.80e-02,
528,1.16e-01,
529,-1.04e-01,
530,1.24e-01,
531,-8.80e-02,
532,1.40e-01,
533,-6.40e-02,
534,-7.20e-02,
535,1.32e-01,
536,-1.44e-01,
537,1.72e-01,
538,-9.60e-02,
539,1.76e-01,
540,-8.40e-02,
541,8.40e-02,
542,1.24e-01,
543,-8.00e-02,
544,-6.00e-02,
545,1.28e-01,
546,-5.20e-02,
547,1.16e-01,
548,1.68e-01,
549,-1.08e-01,
550,1.04e-01,
551,-8.80e-02,
552,-8.80e-02,
553,1.16e-01,
554,8.80e-02,
555,-1.00e-01,
556,1.80e-01,
557,-1.04e-01,
558,-1.28e-01,
559,1.32e-01,
560,-8.00e-02,
561,1.04e-01,
562,9.60e-02,
563,-6.40e-02,
564,1.08e-01,
565,-7.20e-02,
566,-9.60e-02,
567,1.64e-01,
568,-1.08e-01,
569,1.56e-01,
570,-6.80e-02,
571,1.20e-01,
572,-1.32e-01,
573,1.72e-01,
574,1.84e-01,
575,-1.32e-01,
576,-1.44e-01,
577,1.52e-01,
578,-9.60e-02,
579,1.32e-01,
580,1.20e-01,
581,-7.60e-02,
582,-1.12e-01,
583,1.64e-01,
584,-9.20e-02,
585,1.28e-01,
586,8.00e-02,
587,-1.16e-01,
588,-6.40e-02,
589,1.48e-01,
590,1.44e-01,
591,-3.60e-02,
592,-9.20e-02,
593,1.12e-01,
594,1.16e-01,
595,-9.20e-02,
596,1.52e-01,
597,-8.80e-02,
598,1.60e-01,
599,-8.00e-02,
600,-6.80e-02,
601,1.04e-01,
602,1.04e-01,
603,-7.60e-02,
604,1.04e-01,
605,-7.20e-02,
606,7.20e-02,
607,-1.16e-01,
608,-8.40e-02,
609,4.00e-02,
610,-6.00e-02,
611,9.60e-02,
612,-8.40e-02,
613,1.12e-01,
614,-6.80e-02,
615,6.00e-02,
616,1.48e-01,
617,-1.24e-01,
618,-6.80e-02,
619,9.20e-02,
620,-1.16e-01,
621,1.76e-01,
622,1.00e-01,
623,-5.60e-02,
624,-8.40e-02,
625,1.08e-01,
626,4.80e-02,
627,-8.80e-02,
628,-1.04e-01,
629,1.40e-01,
630,-5.60e-02,
631,1.44e-01,
632,-9.60e-02,
633,1.44e-01,
634,-6.00e-02,
635,7.20e-02,
636,-8.80e-02,
637,1.56e-01,
638,-1.28e-01,
639,9.20e-02,
640,-1.48e-01,
641,1.76e-01,
642,-1.40e-01,
643,1.32e-01,
644,-6.00e-02,
645,1.16e-01,
646,9.20e-02,
647,-9.20e-02,
648,1.12e-01,
649,-8.80e-02,
650,-1.16e-01,
651,1.44e-01,
652,1.56e-01,
653,-9.20e-02,
654,1.48e-01,
655,-1.32e-01,
656,-1.12e-01,
657,1.80e-01,
658,-1.36e-01,
659,1.68e-01,
660,1.80e-01,
661,-1.24e-01,
662,-6.80e-02,
663,9.60e-02,
664,-7.20e-02,
665,1.20e-01,
666,-8.80e-02,
667,6.80e-02,
668,-8.00e-02,
669,8.00e-02,
670,-1.24e-01,
671,1.20e-01,
672,1.28e-01,
673,-5.60e-02,
674,1.16e-01,
675,-8.00e-02,
676,-5.60e-02,
677,4.00e-02,
678,-5.60e-02,
679,1.12e-01,
680,-1.04e-01,
681,1.36e-01,
682,-8.00e-02,
683,1.36e-01,
684,1.28e-01,
685,-7.60e-02,
686,-7.20e-02,
687,1.12e-01,
688,9.60e-02,
689,-8.80e-02,
690,6.80e-02,
691,-1.44e-01,
692,1.16e-01,
693,-6.00e-02,
694,9.60e-02,
695,-8.40e-02,
696,-5.60e-02,
697,8.00e-02,
698,-9.20e-02,
699,1.00e-01,
700,9.20e-02,
701,-9.20e-02,
702,1.12e-01,
703,-5.20e-02,
704,1.72e-01,
705,-1.20e-01,
706,-9.20e-02,
707,1.04e-01,
708,1.12e-01,
709,-4.40e-02,
710,1.16e-01,
711,-5.20e-02,
712,-6.00e-02,
713,1.56e-01,
714,1.76e-01,
715,-7.60e-02,
716,-8.40e-02,
717,1.04e-01,
718,1.12e-01,
719,-4.40e-02,
720,-8.80e-02,
721,8.40e-02,
722,5.20e-02,
723,-8.40e-02,
724,1.16e-01,
725,-1.36e-01,
726,1.48e-01,
727,-4.40e-02,
728,-9.20e-02,
729,1.48e-01,
730,8.40e-02,
731,-8.00e-02,
732,-8.40e-02,
733,1.16e-01,
734,1.16e-01,
735,-9.20e-02,
736,1.76e-01,
737,-1.28e-01,
738,1.60e-01,
739,-1.36e-01,
740,-1.44e-01,
741,1.52e-01,
742,1.44e-01,
743,-7.20e-02,
744,1.20e-01,
745,-7.20e-02,
746,1.00e-01,
747,-7.20e-02,
748,1.16e-01,
749,-8.40e-02,
750,1.04e-01,
751,-7.60e-02,
752,1.04e-01,
753,-1.24e-01,
754,1.52e-01,
755,-8.80e-02,
756,1.04e-01,
757,-7.20e-02,
758,-6.40e-02,
759,1.08e-01,
760,-6.40e-02,
761,8.00e-02,
762,-7.20e-02,
763,1.40e-01,
764,-1.32e-01,
765,5.60e-02,
766,7.60e-02,
767,-7.60e-02,
768,-7.20e-02,
769,1.20e-01,
770,-8.40e-02,
771,1.04e-01,
772,-9.60e-02,
773,1.52e-01,
774,-9.60e-02,
775,1.68e-01,
776,1.44e-01,
777,-4.80e-02,
778,1.12e-01,
779,-9.20e-02,
780,1.56e-01,
781,-8.40e-02,
782,-1.08e-01,
783,1.32e-01,
784,-1.24e-01,
785,2.40e-02,
786,1.40e-01,
787,-9.20e-02,
788,-1.20e-01,
789,2.40e-02,
790,1.80e-01,
791,-1.12e-01,
792,1.76e-01,
793,-1.36e-01,
794,7.60e-02,
795,-7.20e-02,
796,-7.60e-02,
797,6.40e-02,
798,-5.60e-02,
799,8.80e-02,
800,-8.40e-02,
801,1.08e-01,
802,1.12e-01,
803,-6.00e-02,
804,9.20e-02,
805,-1.20e-01,
806,-8.80e-02,
807,1.00e-01,
808,-5.20e-02,
809,8.80e-02,
810,1.08e-01,
811,-8.00e-02,
812,-6.80e-02,
813,1.12e-01,
814,1.16e-01,
815,-1.08e-01,
816,-7.20e-02,
817,1.12e-01,
818,9.20e-02,
819,-5.60e-02,
820,-1.36e-01,
821,9.20e-02,
822,1.76e-01,
823,-1.00e-01,
824,-1.36e-01,
825,6.00e-02,
826,1.88e-01,
827,-2.00e-02,
828,1.28e-01,
829,-7.60e-02,
830,-8.80e-02,
831,1.28e-01,
832,-6.80e-02,
833,1.44e-01,
834,1.44e-01,
835,-9.20e-02,
836,-7.20e-02,
837,5.60e-02,
838,1.16e-01,
839,-6.00e-02,
840,1.08e-01,
841,-7.20e-02,
842,1.08e-01,
843,-1.00e-01,
844,-8.80e-02,
845,8.40e-02,
846,8.80e-02,
847,-8.00e-02,
848,-1.16e-01,
849,1.04e-01,
850,-5.20e-02,
851,1.00e-01,
852,-6.00e-02,
853,1.08e-01,
854,7.20e-02,
855,-5.20e-02,
856,1.20e-01,
857,-1.08e-01,
858,7.20e-02,
859,-5.60e-02,
860,-6.80e-02,
861,4.80e-02,
862,9.60e-02,
863,-6.00e-02,
864,-6.00e-02,
865,1.04e-01,
866,-1.04e-01,
867,5.20e-02,
868,1.72e-01,
869,-7.20e-02,
870,-3.60e-02,
871,1.80e-01,
872,6.00e-02,
873,-1.04e-01,
874,-1.44e-01,
875,1.36e-01,
876,1.72e-01,
877,-1.12e-01,
878,1.76e-01,
879,-1.44e-01,
880,-1.36e-01,
881,1.88e-01,
882,-1.36e-01,
883,1.88e-01,
884,-1.36e-01,
885,1.72e-01,
886,1.88e-01,
887,-1.36e-01,
888,1.52e-01,
889,-1.36e-01,
890,1.76e-01,
891,-1.32e-01,
892,1.84e-01,
893,-1.24e-01,
894,-1.24e-01,
895,1.84e-01,
896,-1.28e-01,
897,1.84e-01,
898,1.80e-01,
899,-1.32e-01,
900,8.40e-02,
901,-1.36e-01,
902,-1.20e-01,
903,1.16e-01,
904,1.08e-01,
905,-1.04e-01,
906,-9.20e-02,
907,1.56e-01,
908,-8.40e-02,
909,1.76e-01,
910,-8.80e-02,
911,8.80e-02,
912,8.80e-02,
913,-8.80e-02,
914,1.24e-01,
915,-8.80e-02,
916,1.16e-01,
917,-8.00e-02,
918,8.80e-02,
919,-8.40e-02,
920,1.60e-01,
921,-1.20e-01,
922,-6.40e-02,
923,1.56e-01,
924,1.08e-01,
925,-6.80e-02,
926,1.28e-01,
927,-9.60e-02,
928,1.08e-01,
929,-9.20e-02,
930,4.80e-02,
931,-1.20e-01,
932,-9.60e-02,
933,1.04e-01,
934,1.28e-01,
935,-8.40e-02,
936,-8.00e-02,
937,1.28e-01,
938,-9.20e-02,
939,1.84e-01,
940,1.68e-01,
941,-9.20e-02,
942,-7.60e-02,
943,1.20e-01,
944,1.16e-01,
945,-1.20e-01,
946,-1.00e-01,
947,1.80e-01,
948,-8.80e-02,
949,1.56e-01,
950,-6.80e-02,
951,9.60e-02,
952,-7.20e-02,
953,7.60e-02,
954,3.60e-02,
955,-1.12e-01,
956,-1.00e-01,
957,1.24e-01,
958,1.24e-01,
959,-9.60e-02,
960,-6.80e-02,
961,1.16e-01,
962,-7.20e-02,
963,1.28e-01,
964,-1.28e-01,
965,1.44e-01,
966,1.20e-01,
967,-9.20e-02,
968,1.44e-01,
969,-1.08e-01,
970,-6.80e-02,
971,1.12e-01,
972,4.80e-02,
973,-1.00e-01,
974,-9.20e-02,
975,1.84e-01,
976,-1.00e-01,
977,1.20e-01,
978,1.40e-01,
979,-8.80e-02,
980,1.40e-01,
981,-7.20e-02,
982,1.24e-01,
983,-5.60e-02,
984,6.00e-02,
985,-8.80e-02,
986,-8.40e-02,
987,1.28e-01,
988,1.68e-01,
989,-8.40e-02,
990,1.88e-01,
991,-9.20e-02,
992,-1.28e-01,
993,6.40e-02,
994,9.60e-02,
995,-7.60e-02,
996,-6.40e-02,
997,1.08e-01,
998,6.40e-02,
999,-6.80e-02,
1000,-7.20e-02,
1001,1.04e-01,
1002,1.24e-01,
1003,-1.28e-01,
1004,-6.80e-02,
1005,1.20e-01,
1006,9.20e-02,
1007,-8.00e-02,
1008,-8.00e-02,
1009,8.00e-02,
1010,-6.40e-02,
1011,1.20e-01,
1012,1.04e-01,
1013,-1.16e-01,
1014,-1.32e-01,
1015,9.60e-02,
1016,-5.20e-02,
1017,1.44e-01,
1018,-7.60e-02,
1019,9.60e-02,
1020,1.04e-01,
1021,-1.08e-01,
1022,1.16e-01,
1023,-1.00e-01,
1024,-1.40e-01,
1025,1.84e-01,
1026,1.12e-01,
1027,-1.36e-01,
1028,-8.80e-02,
1029,7.20e-02,
1030,1.48e-01,
1031,-1.20e-01,
1032,-1.04e-01,
1033,1.64e-01,
1034,-9.60e-02,
1035,1.76e-01,
1036,-9.60e-02,
1037,1.76e-01,
1038,-1.08e-01,
1039,1.80e-01,
1040,1.48e-01,
1041,-1.12e-01,
1042,-1.32e-01,
1043,1.80e-01,
1044,-1.32e-01,
1045,1.24e-01,
1046,1.80e-01,
1047,-1.44e-01,
1048,1.80e-01,
1049,-1.36e-01,
1050,1.68e-01,
1051,-1.40e-01,
1052,1.72e-01,
1053,-1.28e-01,
1054,-1.36e-01,
1055,1.84e-01,
1056,-1.12e-01,
1057,1.80e-01,
1058,-1.44e-01,
1059,1.92e-01,
1060,1.88e-01,
1061,-1.28e-01,
1062,-1.36e-01,
1063,1.72e-01,
1064,1.64e-01,
1065,-9.60e-02,
1066,1.12e-01,
1067,-1.32e-01,
1068,-6.00e-02,
1069,1.56e-01,
1070,1.00e-01,
1071,-1.08e-01,
1072,-8.00e-02,
1073,1.32e-01,
1074,1.64e-01,
1075,-1.20e-01,
1076,1.20e-01,
1077,-8.00e-02,
1078,1.24e-01,
1079,-6.40e-02,
1080,-8.40e-02,
1081,1.08e-01,
1082,9.20e-02,
1083,-8.00e-02,
1084,-6.00e-02,
1085,8.80e-02,
1086,-1.28e-01,
1087,7.20e-02,
1088,1.28e-01,
1089,-7.20e-02,
1090,-4.40e-02,
1091,9.60e-02,
1092,1.12e-01,
1093,-8.40e-02,
1094,1.20e-01,
1095,-9.20e-02,
1096,1.08e-01,
1097,-1.28e-01,
1098,-8.40e-02,
1099,8.80e-02,
1100,-7.60e-02,
1101,1.36e-01,
1102,-8.80e-02,
1103,1.12e-01,
1104,9.20e-02,
1105,-1.04e-01,
1106,7.20e-02,
1107,-6.00e-02,
1108,1.00e-01,
1109,-8.40e-02,
1110,1.12e-01,
1111,-8.40e-02,
1112,-1.08e-01,
1113,1.16e-01,
1114,1.28e-01,
1115,-8.00e-02,
1116,-1.00e-01,
1117,8.40e-02,
1118,1.72e-01,
1119,-9.60e-02,
1120,-1.32e-01,
1121,1.68e-01,
1122,1.60e-01,
1123,-1.04e-01,
1124,-8.00e-02,
1125,7.60e-02,
1126,-6.00e-02,
1127,1.00e-01,
1128,6.40e-02,
1129,-4.80e-02,
1130,-7.20e-02,
1131,8.40e-02,
1132,1.60e-01,
1133,-4.80e-02,
1134,-1.32e-01,
1135,1.44e-01,
1136,-1.16e-01,
1137,6.40e-02,
1138,-8.00e-02,
1139,1.52e-01,
1140,6.00e-02,
1141,-5.60e-02,
1142,-5.20e-02,
1143,1.12e-01,
1144,9.20e-02,
1145,-8.40e-02,
1146,1.08e-01,
1147,-6.40e-02,
1148,1.68e-01,
1149,-1.12e-01,
1150,-5.60e-02,
1151,1.16e-01,
1152,-8.00e-02,
1153,1.48e-01,
1154,1.84e-01,
1155,-1.40e-01,
1156,1.68e-01,
1157,-8.40e-02,
1158,-1.36e-01,
1159,5.60e-02,
1160,-1.40e-01,
1161,1.28e-01,
1162,1.04e-01,
1163,-6.40e-02,
1164,-6.00e-02,
1165,6.80e-02,
1166,-9.20e-02,
1167,8.80e-02,
1168,1.20e-01,
1169,-1.00e-01,
1170,1.84e-01,
1171,-6.40e-02,
1172,6.80e-02,
1173,-6.00e-02,
1174,8.00e-02,
1175,-7.20e-02,
1176,8.40e-02,
1177,-6.80e-02,
1178,-5.60e-02,
1179,5.60e-02,
1180,1.64e-01,
1181,-6.80e-02,
1182,1.00e-01,
1183,-2.40e-02,
1184,-7.60e-02,
1185,6.40e-02,
1186,-7.20e-02,
1187,9.20e-02,
1188,8.00e-02,
1189,-6.00e-02,
1190,-6.80e-02,
1191,1.76e-01,
1192,-8.80e-02,
1193,8.00e-02,
1194,-8.40e-02,
1195,1.12e-01,
1196,8.80e-02,
1197,-7.20e-02,
1198,-5.60e-02,
1199,1.20e-01,
