Laptop_2/LAPTOP_CHRGR_2_ON_DISTANT/time domain/NewFile6.csv

X,CH1,Start,Increment,
Sequence,Volt,-1.500000e-01,2.000000e-04
0,1.08e-01,
1,-1.32e-01,
2,1.24e-01,
3,-1.32e-01,
4,-1.28e-01,
5,1.12e-01,
6,-1.12e-01,
7,1.20e-01,
8,1.16e-01,
9,-1.24e-01,
10,-1.12e-01,
11,1.20e-01,
12,1.12e-01,
13,-1.56e-01,
14,1.24e-01,
15,-1.08e-01,
16,1.40e-01,
17,-1.52e-01,
18,8.80e-02,
19,-1.56e-01,
20,1.44e-01,
21,-1.24e-01,
22,-1.24e-01,
23,1.28e-01,
24,1.24e-01,
25,-1.04e-01,
26,1.20e-01,
27,-1.24e-01,
28,8.00e-02,
29,-1.12e-01,
30,-6.00e-02,
31,1.36e-01,
32,1.16e-01,
33,-1.00e-01,
34,-9.20e-02,
35,1.12e-01,
36,-6.00e-02,
37,1.04e-01,
38,1.28e-01,
39,-2.80e-02,
40,1.24e-01,
41,-1.24e-01,
42,-1.52e-01,
43,1.28e-01,
44,-1.08e-01,
45,1.16e-01,
46,-1.40e-01,
47,1.28e-01,
48,-1.52e-01,
49,1.44e-01,
50,1.28e-01,
51,-1.40e-01,
52,1.12e-01,
53,-1.20e-01,
54,-1.24e-01,
55,1.12e-01,
56,-1.12e-01,
57,1.12e-01,
58,-1.28e-01,
59,1.24e-01,
60,1.32e-01,
61,-1.28e-01,
62,-1.28e-01,
63,1.20e-01,
64,1.40e-01,
65,-6.00e-02,
66,1.28e-01,
67,-4.40e-02,
68,1.28e-01,
69,-1.00e-01,
70,-1.08e-01,
71,8.40e-02,
72,-1.08e-01,
73,6.40e-02,
74,1.20e-01,
75,-2.80e-02,
76,1.36e-01,
77,-4.40e-02,
78,-4.00e-02,
79,1.32e-01,
80,1.28e-01,
81,-1.32e-01,
82,-1.20e-01,
83,1.32e-01,
84,1.08e-01,
85,-1.44e-01,
86,-1.20e-01,
87,1.32e-01,
88,-1.36e-01,
89,1.24e-01,
90,-8.00e-02,
91,1.24e-01,
92,-1.32e-01,
93,1.20e-01,
94,1.16e-01,
95,-1.28e-01,
96,-1.44e-01,
97,1.28e-01,
98,1.04e-01,
99,-1.48e-01,
100,1.36e-01,
101,-1.44e-01,
102,1.32e-01,
103,-1.20e-01,
104,1.36e-01,
105,-2.80e-02,
106,1.12e-01,
107,-1.32e-01,
108,-1.24e-01,
109,1.16e-01,
110,-1.36e-01,
111,1.00e-01,
112,-1.24e-01,
113,1.12e-01,
114,-1.00e-01,
115,1.36e-01,
116,1.24e-01,
117,-1.12e-01,
118,-1.12e-01,
119,4.40e-02,
120,1.28e-01,
121,-1.24e-01,
122,1.32e-01,
123,-1.44e-01,
124,1.40e-01,
125,-1.24e-01,
126,1.32e-01,
127,-1.52e-01,
128,1.40e-01,
129,-1.28e-01,
130,1.28e-01,
131,-8.00e-02,
132,1.20e-01,
133,-1.36e-01,
134,-1.16e-01,
135,1.36e-01,
136,1.20e-01,
137,-1.36e-01,
138,-1.36e-01,
139,1.36e-01,
140,1.20e-01,
141,-1.28e-01,
142,1.16e-01,
143,-1.16e-01,
144,-3.20e-02,
145,1.24e-01,
146,-1.28e-01,
147,1.20e-01,
148,1.00e-01,
149,-4.40e-02,
150,1.24e-01,
151,-8.00e-02,
152,1.08e-01,
153,-5.60e-02,
154,-1.32e-01,
155,1.40e-01,
156,1.36e-01,
157,-3.20e-02,
158,4.40e-02,
159,-3.20e-02,
160,1.16e-01,
161,-1.24e-01,
162,1.16e-01,
163,-1.36e-01,
164,-1.12e-01,
165,1.28e-01,
166,-1.36e-01,
167,1.28e-01,
168,1.44e-01,
169,-1.36e-01,
170,-1.36e-01,
171,1.20e-01,
172,-1.40e-01,
173,1.32e-01,
174,8.40e-02,
175,-1.40e-01,
176,1.28e-01,
177,-1.36e-01,
178,1.40e-01,
179,-1.24e-01,
180,1.32e-01,
181,-1.48e-01,
182,-1.08e-01,
183,1.36e-01,
184,1.40e-01,
185,-1.44e-01,
186,-1.12e-01,
187,1.32e-01,
188,1.28e-01,
189,-5.20e-02,
190,-7.20e-02,
191,1.12e-01,
192,1.08e-01,
193,-8.80e-02,
194,-2.80e-02,
195,1.16e-01,
196,-2.00e-02,
197,1.16e-01,
198,1.28e-01,
199,-1.04e-01,
200,-1.00e-01,
201,1.16e-01,
202,-1.12e-01,
203,1.20e-01,
204,-8.00e-02,
205,1.08e-01,
206,1.20e-01,
207,-1.32e-01,
208,1.36e-01,
209,-1.40e-01,
210,-1.20e-01,
211,1.32e-01,
212,-1.04e-01,
213,1.16e-01,
214,1.28e-01,
215,-1.24e-01,
216,1.28e-01,
217,-1.16e-01,
218,-1.32e-01,
219,1.32e-01,
220,-1.16e-01,
221,1.32e-01,
222,1.08e-01,
223,-1.24e-01,
224,-1.00e-01,
225,1.24e-01,
226,1.28e-01,
227,-1.48e-01,
228,1.24e-01,
229,-2.40e-02,
230,-7.60e-02,
231,1.40e-01,
232,-4.40e-02,
233,2.80e-02,
234,1.36e-01,
235,-3.60e-02,
236,-7.20e-02,
237,1.36e-01,
238,1.28e-01,
239,-9.20e-02,
240,1.20e-01,
241,-1.12e-01,
242,1.20e-01,
243,-1.32e-01,
244,1.20e-01,
245,-1.28e-01,
246,1.36e-01,
247,-1.28e-01,
248,1.20e-01,
249,-1.24e-01,
250,-1.20e-01,
251,1.08e-01,
252,1.16e-01,
253,-1.12e-01,
254,1.16e-01,
255,-1.04e-01,
256,1.28e-01,
257,-1.28e-01,
258,1.24e-01,
259,-1.20e-01,
260,1.24e-01,
261,-1.28e-01,
262,-1.40e-01,
263,1.28e-01,
264,1.20e-01,
265,-8.40e-02,
266,-1.44e-01,
267,1.20e-01,
268,1.32e-01,
269,-1.04e-01,
270,1.36e-01,
271,-2.40e-02,
272,-9.60e-02,
273,1.28e-01,
274,1.24e-01,
275,-1.08e-01,
276,-1.04e-01,
277,1.44e-01,
278,-2.00e-02,
279,1.32e-01,
280,-1.28e-01,
281,1.20e-01,
282,1.28e-01,
283,-1.44e-01,
284,1.28e-01,
285,-1.16e-01,
286,1.20e-01,
287,-1.32e-01,
288,1.12e-01,
289,-1.32e-01,
290,-9.20e-02,
291,1.36e-01,
292,-1.32e-01,
293,1.16e-01,
294,1.08e-01,
295,-1.24e-01,
296,-1.04e-01,
297,1.04e-01,
298,1.12e-01,
299,-1.08e-01,
300,1.24e-01,
301,-1.40e-01,
302,1.32e-01,
303,-1.32e-01,
304,2.80e-02,
305,-1.32e-01,
306,6.40e-02,
307,-1.04e-01,
308,6.00e-02,
309,-1.12e-01,
310,1.20e-01,
311,-3.20e-02,
312,1.40e-01,
313,-3.60e-02,
314,-2.80e-02,
315,1.20e-01,
316,7.20e-02,
317,-1.20e-01,
318,1.20e-01,
319,-1.28e-01,
320,1.20e-01,
321,-1.48e-01,
322,-1.48e-01,
323,1.36e-01,
324,-1.48e-01,
325,1.32e-01,
326,-1.32e-01,
327,1.40e-01,
328,1.04e-01,
329,-1.40e-01,
330,1.32e-01,
331,-1.04e-01,
332,1.28e-01,
333,-1.36e-01,
334,1.24e-01,
335,-1.24e-01,
336,1.32e-01,
337,-1.28e-01,
338,1.28e-01,
339,-1.04e-01,
340,1.20e-01,
341,-1.28e-01,
342,-4.80e-02,
343,1.16e-01,
344,1.16e-01,
345,-6.80e-02,
346,-1.28e-01,
347,1.20e-01,
348,1.24e-01,
349,-8.00e-02,
350,1.32e-01,
351,-1.04e-01,
352,-3.60e-02,
353,8.80e-02,
354,-1.32e-01,
355,2.40e-02,
356,-1.32e-01,
357,1.00e-01,
358,1.16e-01,
359,-1.40e-01,
360,1.24e-01,
361,-1.32e-01,
362,-1.32e-01,
363,1.24e-01,
364,1.32e-01,
365,-1.52e-01,
366,1.24e-01,
367,-1.32e-01,
368,-1.44e-01,
369,1.32e-01,
370,-1.28e-01,
371,1.24e-01,
372,-1.08e-01,
373,1.28e-01,
374,-1.40e-01,
375,1.36e-01,
376,1.32e-01,
377,-1.32e-01,
378,-1.28e-01,
379,1.28e-01,
380,1.20e-01,
381,-1.44e-01,
382,-1.32e-01,
383,2.40e-02,
384,-5.20e-02,
385,1.32e-01,
386,1.12e-01,
387,-7.60e-02,
388,-4.00e-02,
389,1.36e-01,
390,1.48e-01,
391,-7.60e-02,
392,-6.00e-02,
393,1.36e-01,
394,1.12e-01,
395,-5.20e-02,
396,-9.20e-02,
397,1.20e-01,
398,1.32e-01,
399,-8.40e-02,
400,1.24e-01,
401,-1.12e-01,
402,1.08e-01,
403,-1.24e-01,
404,-1.04e-01,
405,1.20e-01,
406,1.20e-01,
407,-1.32e-01,
408,1.32e-01,
409,-1.16e-01,
410,1.16e-01,
411,-1.12e-01,
412,-1.40e-01,
413,1.32e-01,
414,1.32e-01,
415,-1.16e-01,
416,-1.16e-01,
417,1.28e-01,
418,-1.24e-01,
419,1.40e-01,
420,1.32e-01,
421,-1.44e-01,
422,1.28e-01,
423,-1.40e-01,
424,1.08e-01,
425,-1.20e-01,
426,-3.60e-02,
427,1.20e-01,
428,1.16e-01,
429,-1.60e-02,
430,4.80e-02,
431,-1.32e-01,
432,1.36e-01,
433,-6.80e-02,
434,1.44e-01,
435,-8.80e-02,
436,1.32e-01,
437,-2.00e-02,
438,1.36e-01,
439,-1.04e-01,
440,1.20e-01,
441,-1.08e-01,
442,1.20e-01,
443,-9.60e-02,
444,-9.60e-02,
445,9.60e-02,
446,-1.08e-01,
447,1.12e-01,
448,1.32e-01,
449,-1.12e-01,
450,-1.24e-01,
451,1.08e-01,
452,-1.20e-01,
453,8.00e-02,
454,9.60e-02,
455,-1.28e-01,
456,-1.28e-01,
457,1.24e-01,
458,1.36e-01,
459,-9.60e-02,
460,-1.20e-01,
461,1.28e-01,
462,4.40e-02,
463,-1.40e-01,
464,1.20e-01,
465,-1.20e-01,
466,1.04e-01,
467,-4.80e-02,
468,-6.80e-02,
469,1.44e-01,
470,1.32e-01,
471,-2.80e-02,
472,-1.40e-01,
473,1.32e-01,
474,7.60e-02,
475,-1.08e-01,
476,-6.80e-02,
477,1.32e-01,
478,1.28e-01,
479,-1.16e-01,
480,-1.56e-01,
481,1.40e-01,
482,1.36e-01,
483,-1.44e-01,
484,-9.60e-02,
485,1.24e-01,
486,1.28e-01,
487,-1.24e-01,
488,1.12e-01,
489,-1.16e-01,
490,1.28e-01,
491,-1.28e-01,
492,-1.20e-01,
493,9.60e-02,
494,-1.00e-01,
495,1.08e-01,
496,-1.28e-01,
497,1.20e-01,
498,1.16e-01,
499,-1.24e-01,
500,1.20e-01,
501,-1.36e-01,
502,1.24e-01,
503,-1.36e-01,
504,-1.24e-01,
505,1.20e-01,
506,1.16e-01,
507,-1.36e-01,
508,1.16e-01,
509,-1.24e-01,
510,-1.32e-01,
511,1.16e-01,
512,6.00e-02,
513,-4.80e-02,
514,-7.60e-02,
515,1.20e-01,
516,-8.00e-03,
517,1.48e-01,
518,1.44e-01,
519,-1.56e-01,
520,-1.48e-01,
521,1.04e-01,
522,-1.44e-01,
523,1.32e-01,
524,-1.40e-01,
525,1.32e-01,
526,-1.44e-01,
527,1.32e-01,
528,1.32e-01,
529,-1.40e-01,
530,-1.28e-01,
531,1.40e-01,
532,1.32e-01,
533,-1.36e-01,
534,1.12e-01,
535,-1.08e-01,
536,-1.20e-01,
537,1.20e-01,
538,-1.04e-01,
539,1.16e-01,
540,1.20e-01,
541,-1.28e-01,
542,1.28e-01,
543,-1.12e-01,
544,-1.04e-01,
545,1.16e-01,
546,1.32e-01,
547,-5.20e-02,
548,1.40e-01,
549,-9.20e-02,
550,1.20e-01,
551,-1.04e-01,
552,1.20e-01,
553,-6.40e-02,
554,1.24e-01,
555,-1.36e-01,
556,-1.04e-01,
557,1.24e-01,
558,1.24e-01,
559,-1.28e-01,
560,1.40e-01,
561,-1.40e-01,
562,1.24e-01,
563,-1.16e-01,
564,-1.52e-01,
565,1.44e-01,
566,-1.56e-01,
567,1.36e-01,
568,-9.60e-02,
569,1.32e-01,
570,-1.48e-01,
571,1.32e-01,
572,-1.12e-01,
573,1.32e-01,
574,1.36e-01,
575,-1.44e-01,
576,-1.60e-01,
577,1.32e-01,
578,1.24e-01,
579,-1.36e-01,
580,1.32e-01,
581,-1.04e-01,
582,-1.08e-01,
583,1.04e-01,
584,-8.00e-02,
585,1.28e-01,
586,6.80e-02,
587,-1.12e-01,
588,1.16e-01,
589,-1.36e-01,
590,-8.00e-02,
591,1.24e-01,
592,1.12e-01,
593,-9.60e-02,
594,4.00e-02,
595,-1.28e-01,
596,-1.16e-01,
597,1.28e-01,
598,-7.20e-02,
599,1.44e-01,
600,1.40e-01,
601,-1.36e-01,
602,1.32e-01,
603,-1.44e-01,
604,1.32e-01,
605,-1.28e-01,
606,-1.40e-01,
607,1.20e-01,
608,1.32e-01,
609,-9.20e-02,
610,-1.40e-01,
611,1.36e-01,
612,1.28e-01,
613,-1.40e-01,
614,1.40e-01,
615,-1.44e-01,
616,-1.48e-01,
617,1.24e-01,
618,1.28e-01,
619,-1.24e-01,
620,1.36e-01,
621,-1.28e-01,
622,1.36e-01,
623,-1.00e-01,
624,1.24e-01,
625,-5.20e-02,
626,-1.00e-01,
627,1.36e-01,
628,1.28e-01,
629,-1.08e-01,
630,-1.12e-01,
631,1.24e-01,
632,1.28e-01,
633,-1.40e-01,
634,1.20e-01,
635,-1.36e-01,
636,1.08e-01,
637,-1.08e-01,
638,1.32e-01,
639,-1.08e-01,
640,1.16e-01,
641,-1.36e-01,
642,-1.12e-01,
643,8.80e-02,
644,1.12e-01,
645,-1.04e-01,
646,-8.40e-02,
647,1.32e-01,
648,1.16e-01,
649,-1.44e-01,
650,-1.24e-01,
651,1.32e-01,
652,1.28e-01,
653,-1.40e-01,
654,-1.36e-01,
655,1.20e-01,
656,1.44e-01,
657,-1.52e-01,
658,1.36e-01,
659,-1.28e-01,
660,-1.48e-01,
661,1.44e-01,
662,1.32e-01,
663,-1.20e-01,
664,-1.12e-01,
665,3.60e-02,
666,6.80e-02,
667,-2.40e-02,
668,-1.12e-01,
669,1.40e-01,
670,1.36e-01,
671,-1.40e-01,
672,1.32e-01,
673,-1.00e-01,
674,-8.00e-03,
675,1.08e-01,
676,-3.20e-02,
677,1.24e-01,
678,1.24e-01,
679,-1.00e-01,
680,-1.52e-01,
681,1.36e-01,
682,-1.52e-01,
683,1.28e-01,
684,-1.48e-01,
685,1.44e-01,
686,1.40e-01,
687,-7.60e-02,
688,-1.32e-01,
689,1.28e-01,
690,-1.24e-01,
691,1.04e-01,
692,1.12e-01,
693,-7.20e-02,
694,1.16e-01,
695,-1.36e-01,
696,1.20e-01,
697,-1.24e-01,
698,1.36e-01,
699,-1.40e-01,
700,1.20e-01,
701,-1.28e-01,
702,-1.16e-01,
703,1.32e-01,
704,-1.40e-01,
705,1.28e-01,
706,-1.12e-01,
707,1.28e-01,
708,1.24e-01,
709,-2.40e-02,
710,-8.80e-02,
711,1.16e-01,
712,-4.40e-02,
713,1.32e-01,
714,-1.28e-01,
715,1.36e-01,
716,1.32e-01,
717,-1.16e-01,
718,1.44e-01,
719,-1.48e-01,
720,-1.48e-01,
721,1.28e-01,
722,1.08e-01,
723,-1.32e-01,
724,1.40e-01,
725,-1.32e-01,
726,1.28e-01,
727,-1.20e-01,
728,-1.40e-01,
729,1.32e-01,
730,-1.60e-01,
731,1.44e-01,
732,-1.20e-01,
733,1.44e-01,
734,-1.20e-01,
735,1.36e-01,
736,1.36e-01,
737,-1.48e-01,
738,-1.48e-01,
739,1.40e-01,
740,-1.36e-01,
741,1.12e-01,
742,1.20e-01,
743,-1.16e-01,
744,-1.32e-01,
745,1.16e-01,
746,1.24e-01,
747,-3.20e-02,
748,1.08e-01,
749,-1.16e-01,
750,1.36e-01,
751,-1.36e-01,
752,-1.08e-01,
753,1.32e-01,
754,1.28e-01,
755,-7.60e-02,
756,1.00e-01,
757,-1.04e-01,
758,-1.56e-01,
759,1.40e-01,
760,1.28e-01,
761,-1.16e-01,
762,-1.36e-01,
763,1.24e-01,
764,-1.36e-01,
765,1.36e-01,
766,1.44e-01,
767,-1.52e-01,
768,-1.60e-01,
769,1.44e-01,
770,-1.52e-01,
771,1.32e-01,
772,-1.56e-01,
773,1.20e-01,
774,-1.32e-01,
775,1.24e-01,
776,1.20e-01,
777,-1.28e-01,
778,-1.08e-01,
779,1.20e-01,
780,1.20e-01,
781,-1.52e-01,
782,1.20e-01,
783,-1.04e-01,
784,4.00e-02,
785,-1.36e-01,
786,-1.28e-01,
787,1.20e-01,
788,-1.12e-01,
789,1.12e-01,
790,1.04e-01,
791,-1.44e-01,
792,-8.00e-02,
793,1.32e-01,
794,1.12e-01,
795,-1.00e-01,
796,-1.28e-01,
797,1.20e-01,
798,1.20e-01,
799,-1.08e-01,
800,-1.40e-01,
801,1.32e-01,
802,1.24e-01,
803,-1.32e-01,
804,-1.36e-01,
805,1.28e-01,
806,1.20e-01,
807,-1.36e-01,
808,-1.44e-01,
809,1.32e-01,
810,1.28e-01,
811,-1.56e-01,
812,1.28e-01,
813,-1.52e-01,
814,-1.40e-01,
815,1.44e-01,
816,-1.36e-01,
817,1.44e-01,
818,1.32e-01,
819,-1.28e-01,
820,-1.44e-01,
821,1.28e-01,
822,2.80e-02,
823,-1.16e-01,
824,1.28e-01,
825,-1.40e-01,
826,1.16e-01,
827,-3.60e-02,
828,1.40e-01,
829,-3.60e-02,
830,1.24e-01,
831,-1.32e-01,
832,-1.40e-01,
833,1.16e-01,
834,-7.20e-02,
835,7.20e-02,
836,-1.40e-01,
837,1.12e-01,
838,1.36e-01,
839,-1.16e-01,
840,1.12e-01,
841,-1.32e-01,
842,1.24e-01,
843,-1.04e-01,
844,-1.08e-01,
845,1.24e-01,
846,-1.16e-01,
847,1.16e-01,
848,1.52e-01,
849,-1.60e-01,
850,1.44e-01,
851,-1.56e-01,
852,-1.56e-01,
853,1.36e-01,
854,1.40e-01,
855,-1.48e-01,
856,-1.44e-01,
857,1.28e-01,
858,1.28e-01,
859,-1.40e-01,
860,1.36e-01,
861,-1.16e-01,
862,-9.60e-02,
863,1.32e-01,
864,-8.80e-02,
865,7.20e-02,
866,1.36e-01,
867,-1.52e-01,
868,1.24e-01,
869,-9.20e-02,
870,-2.80e-02,
871,1.28e-01,
872,1.32e-01,
873,-2.40e-02,
874,1.16e-01,
875,-1.08e-01,
876,1.20e-01,
877,-6.80e-02,
878,1.04e-01,
879,-1.16e-01,
880,-1.28e-01,
881,1.24e-01,
882,1.20e-01,
883,-1.12e-01,
884,1.44e-01,
885,-1.16e-01,
886,-9.60e-02,
887,1.36e-01,
888,-1.24e-01,
889,1.12e-01,
890,-1.32e-01,
891,1.24e-01,
892,-1.44e-01,
893,1.36e-01,
894,-1.44e-01,
895,1.40e-01,
896,1.36e-01,
897,-1.52e-01,
898,4.80e-02,
899,-1.56e-01,
900,1.28e-01,
901,-1.40e-01,
902,-1.32e-01,
903,1.24e-01,
904,-3.60e-02,
905,1.28e-01,
906,1.24e-01,
907,-9.20e-02,
908,-1.24e-01,
909,1.40e-01,
910,1.40e-01,
911,-1.40e-01,
912,-8.00e-03,
913,1.20e-01,
914,7.20e-02,
915,-3.20e-02,
916,1.28e-01,
917,-1.36e-01,
918,-1.56e-01,
919,1.44e-01,
920,1.32e-01,
921,-1.52e-01,
922,1.28e-01,
923,-1.28e-01,
924,-1.40e-01,
925,1.20e-01,
926,-1.20e-01,
927,1.32e-01,
928,-1.48e-01,
929,1.36e-01,
930,1.40e-01,
931,-1.36e-01,
932,1.36e-01,
933,-1.24e-01,
934,1.36e-01,
935,-1.28e-01,
936,1.36e-01,
937,-1.52e-01,
938,-1.48e-01,
939,1.32e-01,
940,-1.36e-01,
941,1.12e-01,
942,-4.40e-02,
943,1.12e-01,
944,-1.32e-01,
945,1.28e-01,
946,-1.12e-01,
947,1.24e-01,
948,1.40e-01,
949,-8.40e-02,
950,-1.32e-01,
951,1.16e-01,
952,-3.60e-02,
953,9.60e-02,
954,1.04e-01,
955,-1.32e-01,
956,1.40e-01,
957,-1.28e-01,
958,1.36e-01,
959,-1.28e-01,
960,1.32e-01,
961,-1.52e-01,
962,-1.20e-01,
963,1.40e-01,
964,-1.48e-01,
965,1.32e-01,
966,1.32e-01,
967,-1.44e-01,
968,1.40e-01,
969,-1.64e-01,
970,1.40e-01,
971,-1.52e-01,
972,1.44e-01,
973,-1.52e-01,
974,1.32e-01,
975,-1.52e-01,
976,-1.08e-01,
977,1.20e-01,
978,-1.36e-01,
979,1.24e-01,
980,1.44e-01,
981,-1.40e-01,
982,-4.80e-02,
983,1.40e-01,
984,-1.32e-01,
985,1.24e-01,
986,3.20e-02,
987,-1.20e-01,
988,-1.04e-01,
989,1.12e-01,
990,1.00e-01,
991,-1.40e-01,
992,1.20e-01,
993,-1.04e-01,
994,-1.36e-01,
995,1.08e-01,
996,1.20e-01,
997,-1.24e-01,
998,1.16e-01,
999,-1.36e-01,
1000,-1.12e-01,
1001,1.32e-01,
1002,1.20e-01,
1003,-1.36e-01,
1004,-1.08e-01,
1005,1.16e-01,
1006,-1.32e-01,
1007,1.00e-01,
1008,-1.52e-01,
1009,1.36e-01,
1010,-1.36e-01,
1011,1.36e-01,
1012,-1.32e-01,
1013,1.28e-01,
1014,1.44e-01,
1015,-1.36e-01,
1016,-1.16e-01,
1017,1.40e-01,
1018,-1.52e-01,
1019,1.44e-01,
1020,-1.48e-01,
1021,1.40e-01,
1022,-2.80e-02,
1023,1.32e-01,
1024,-1.16e-01,
1025,1.28e-01,
1026,1.24e-01,
1027,-6.00e-02,
1028,4.00e-02,
1029,-1.12e-01,
1030,1.24e-01,
1031,-4.40e-02,
1032,1.24e-01,
1033,-8.40e-02,
1034,1.20e-01,
1035,-9.20e-02,
1036,1.16e-01,
1037,-9.20e-02,
1038,1.20e-01,
1039,-1.28e-01,
1040,-1.28e-01,
1041,1.28e-01,
1042,-1.36e-01,
1043,1.24e-01,
1044,1.24e-01,
1045,-1.24e-01,
1046,1.24e-01,
1047,-1.24e-01,
1048,-1.52e-01,
1049,1.40e-01,
1050,1.36e-01,
1051,-1.52e-01,
1052,-1.48e-01,
1053,1.40e-01,
1054,1.36e-01,
1055,-1.48e-01,
1056,-9.60e-02,
1057,1.32e-01,
1058,1.36e-01,
1059,-1.52e-01,
1060,1.12e-01,
1061,-1.12e-01,
1062,1.40e-01,
1063,-3.20e-02,
1064,-1.20e-01,
1065,3.60e-02,
1066,1.44e-01,
1067,-4.80e-02,
1068,1.28e-01,
1069,-1.12e-01,
1070,-1.40e-01,
1071,1.08e-01,
1072,1.24e-01,
1073,-2.00e-02,
1074,-8.00e-03,
1075,1.20e-01,
1076,-9.60e-02,
1077,5.20e-02,
1078,-1.04e-01,
1079,1.12e-01,
1080,1.28e-01,
1081,-1.24e-01,
1082,-1.24e-01,
1083,1.24e-01,
1084,1.24e-01,
1085,-1.08e-01,
1086,1.32e-01,
1087,-1.48e-01,
1088,-1.28e-01,
1089,1.12e-01,
1090,-1.24e-01,
1091,1.20e-01,
1092,1.24e-01,
1093,-8.80e-02,
1094,1.20e-01,
1095,-1.32e-01,
1096,1.36e-01,
1097,-1.48e-01,
1098,-1.28e-01,
1099,1.40e-01,
1100,-1.48e-01,
1101,1.44e-01,
1102,-1.52e-01,
1103,1.20e-01,
1104,7.60e-02,
1105,-1.48e-01,
1106,1.00e-01,
1107,-1.32e-01,
1108,-7.20e-02,
1109,1.28e-01,
1110,1.24e-01,
1111,-1.12e-01,
1112,1.32e-01,
1113,-2.00e-02,
1114,1.36e-01,
1115,-4.40e-02,
1116,-1.08e-01,
1117,1.04e-01,
1118,-8.00e-02,
1119,1.28e-01,
1120,1.32e-01,
1121,-1.36e-01,
1122,-1.20e-01,
1123,1.32e-01,
1124,-1.56e-01,
1125,1.44e-01,
1126,1.44e-01,
1127,-1.56e-01,
1128,-1.56e-01,
1129,1.32e-01,
1130,-1.48e-01,
1131,1.24e-01,
1132,-1.24e-01,
1133,1.24e-01,
1134,1.20e-01,
1135,-1.28e-01,
1136,-1.20e-01,
1137,1.20e-01,
1138,1.28e-01,
1139,-1.48e-01,
1140,-1.36e-01,
1141,1.36e-01,
1142,1.20e-01,
1143,-1.12e-01,
1144,1.08e-01,
1145,-1.08e-01,
1146,-1.32e-01,
1147,1.12e-01,
1148,1.36e-01,
1149,-1.24e-01,
1150,-3.20e-02,
1151,1.28e-01,
1152,1.28e-01,
1153,-1.04e-01,
1154,-4.80e-02,
1155,1.36e-01,
1156,1.32e-01,
1157,-2.00e-02,
1158,1.44e-01,
1159,-1.60e-01,
1160,-1.56e-01,
1161,1.44e-01,
1162,1.36e-01,
1163,-1.48e-01,
1164,1.24e-01,
1165,-1.16e-01,
1166,-1.48e-01,
1167,1.32e-01,
1168,6.40e-02,
1169,-1.48e-01,
1170,-1.40e-01,
1171,1.24e-01,
1172,1.32e-01,
1173,-1.52e-01,
1174,-1.16e-01,
1175,1.28e-01,
1176,1.12e-01,
1177,-1.36e-01,
1178,-1.32e-01,
1179,1.24e-01,
1180,-1.32e-01,
1181,1.20e-01,
1182,-7.20e-02,
1183,1.36e-01,
1184,-8.00e-03,
1185,1.40e-01,
1186,1.44e-01,
1187,-4.40e-02,
1188,-7.60e-02,
1189,1.20e-01,
1190,-8.00e-02,
1191,8.00e-02,
1192,-1.12e-01,
1193,1.16e-01,
1194,-1.20e-02,
1195,1.28e-01,
1196,-1.16e-01,
1197,1.28e-01,
1198,-1.40e-01,
1199,1.20e-01,
