Laptop_2/LAPTOP_CHRGR_2_ON_DISTANT/time domain/NewFile26.csv

X,CH1,Start,Increment,
Sequence,Volt,-1.500000e-01,2.000000e-04
0,-1.12e-01,
1,1.12e-01,
2,1.20e-01,
3,-8.80e-02,
4,1.24e-01,
5,-8.00e-02,
6,1.08e-01,
7,-8.00e-02,
8,1.20e-01,
9,-1.00e-01,
10,-1.24e-01,
11,1.60e-01,
12,-1.28e-01,
13,4.80e-02,
14,-1.28e-01,
15,1.00e-01,
16,9.60e-02,
17,-8.00e-02,
18,1.36e-01,
19,-7.60e-02,
20,-1.00e-01,
21,1.24e-01,
22,-9.20e-02,
23,1.36e-01,
24,9.20e-02,
25,-1.16e-01,
26,5.20e-02,
27,-1.00e-01,
28,-1.00e-01,
29,7.60e-02,
30,-2.80e-02,
31,7.20e-02,
32,-9.60e-02,
33,8.00e-02,
34,1.00e-01,
35,-6.40e-02,
36,-7.20e-02,
37,1.00e-01,
38,-8.40e-02,
39,5.60e-02,
40,-8.80e-02,
41,1.00e-01,
42,-8.00e-02,
43,9.60e-02,
44,1.36e-01,
45,-1.00e-01,
46,-1.04e-01,
47,1.20e-01,
48,-1.24e-01,
49,1.32e-01,
50,1.48e-01,
51,-8.40e-02,
52,-1.24e-01,
53,1.44e-01,
54,9.60e-02,
55,-8.80e-02,
56,1.20e-01,
57,-9.20e-02,
58,-1.00e-01,
59,1.24e-01,
60,-5.60e-02,
61,1.24e-01,
62,1.44e-01,
63,-5.20e-02,
64,1.16e-01,
65,-1.04e-01,
66,8.80e-02,
67,-1.12e-01,
68,-6.80e-02,
69,1.20e-01,
70,6.00e-02,
71,-9.20e-02,
72,-7.60e-02,
73,8.40e-02,
74,1.20e-01,
75,-9.20e-02,
76,1.28e-01,
77,-1.00e-01,
78,1.32e-01,
79,-1.24e-01,
80,1.16e-01,
81,-1.16e-01,
82,1.52e-01,
83,-1.08e-01,
84,1.28e-01,
85,-1.24e-01,
86,-1.16e-01,
87,8.40e-02,
88,6.80e-02,
89,-1.28e-01,
90,-1.28e-01,
91,1.48e-01,
92,1.24e-01,
93,-1.16e-01,
94,-8.40e-02,
95,1.44e-01,
96,-1.24e-01,
97,1.44e-01,
98,-1.12e-01,
99,1.04e-01,
100,-1.04e-01,
101,1.48e-01,
102,1.40e-01,
103,-1.20e-01,
104,-1.28e-01,
105,1.40e-01,
106,1.44e-01,
107,-1.36e-01,
108,-1.20e-01,
109,9.60e-02,
110,-1.00e-01,
111,1.08e-01,
112,1.08e-01,
113,-8.80e-02,
114,1.00e-01,
115,-9.60e-02,
116,-1.04e-01,
117,7.60e-02,
118,-7.60e-02,
119,9.20e-02,
120,1.56e-01,
121,-1.16e-01,
122,9.60e-02,
123,-9.60e-02,
124,-9.60e-02,
125,1.16e-01,
126,1.16e-01,
127,-9.20e-02,
128,1.04e-01,
129,-9.60e-02,
130,1.36e-01,
131,-1.16e-01,
132,-1.12e-01,
133,1.40e-01,
134,-1.16e-01,
135,1.36e-01,
136,7.20e-02,
137,-7.60e-02,
138,9.20e-02,
139,-9.20e-02,
140,-8.80e-02,
141,1.12e-01,
142,6.00e-02,
143,-9.60e-02,
144,1.28e-01,
145,-1.28e-01,
146,-6.40e-02,
147,8.80e-02,
148,1.16e-01,
149,-9.60e-02,
150,-5.60e-02,
151,1.32e-01,
152,-1.04e-01,
153,1.16e-01,
154,-1.12e-01,
155,8.00e-02,
156,-1.28e-01,
157,1.12e-01,
158,-2.40e-02,
159,1.28e-01,
160,1.32e-01,
161,-8.80e-02,
162,-9.60e-02,
163,1.28e-01,
164,8.40e-02,
165,-8.80e-02,
166,1.28e-01,
167,-8.80e-02,
168,-1.04e-01,
169,1.32e-01,
170,-8.00e-02,
171,1.36e-01,
172,-9.60e-02,
173,9.20e-02,
174,9.60e-02,
175,-9.60e-02,
176,1.12e-01,
177,-7.60e-02,
178,-8.40e-02,
179,1.16e-01,
180,-1.12e-01,
181,1.32e-01,
182,-8.80e-02,
183,7.60e-02,
184,1.00e-01,
185,-8.40e-02,
186,8.00e-02,
187,-8.00e-02,
188,1.00e-01,
189,-5.60e-02,
190,1.24e-01,
191,-1.04e-01,
192,-7.20e-02,
193,1.20e-01,
194,1.08e-01,
195,-6.80e-02,
196,6.80e-02,
197,-1.00e-01,
198,-9.20e-02,
199,1.24e-01,
200,-1.32e-01,
201,1.40e-01,
202,-1.00e-01,
203,1.24e-01,
204,-1.08e-01,
205,1.40e-01,
206,8.40e-02,
207,-1.00e-01,
208,-9.60e-02,
209,1.24e-01,
210,-1.28e-01,
211,1.32e-01,
212,9.20e-02,
213,-1.08e-01,
214,1.64e-01,
215,-1.24e-01,
216,-1.00e-01,
217,1.24e-01,
218,1.16e-01,
219,-1.24e-01,
220,1.04e-01,
221,-7.60e-02,
222,1.12e-01,
223,-9.60e-02,
224,1.12e-01,
225,-8.40e-02,
226,-7.20e-02,
227,9.20e-02,
228,1.16e-01,
229,-1.00e-01,
230,1.00e-01,
231,-9.20e-02,
232,-8.40e-02,
233,1.32e-01,
234,-4.40e-02,
235,1.28e-01,
236,1.00e-01,
237,-1.12e-01,
238,9.60e-02,
239,-8.00e-02,
240,-8.80e-02,
241,1.16e-01,
242,-8.40e-02,
243,1.12e-01,
244,-8.80e-02,
245,8.40e-02,
246,1.28e-01,
247,-1.16e-01,
248,1.16e-01,
249,-9.20e-02,
250,1.28e-01,
251,-1.12e-01,
252,-9.20e-02,
253,8.40e-02,
254,-9.60e-02,
255,8.80e-02,
256,-1.12e-01,
257,1.40e-01,
258,-1.32e-01,
259,9.60e-02,
260,-1.00e-01,
261,1.32e-01,
262,2.80e-02,
263,-1.08e-01,
264,1.40e-01,
265,-1.12e-01,
266,-1.04e-01,
267,7.20e-02,
268,1.24e-01,
269,-1.04e-01,
270,1.04e-01,
271,-9.60e-02,
272,7.60e-02,
273,-1.12e-01,
274,-1.12e-01,
275,9.60e-02,
276,9.20e-02,
277,-9.20e-02,
278,1.12e-01,
279,-7.20e-02,
280,8.40e-02,
281,-8.40e-02,
282,8.80e-02,
283,-9.20e-02,
284,-1.24e-01,
285,1.48e-01,
286,-8.80e-02,
287,1.00e-01,
288,-8.80e-02,
289,1.12e-01,
290,1.08e-01,
291,-8.80e-02,
292,9.60e-02,
293,-1.00e-01,
294,-1.32e-01,
295,1.32e-01,
296,1.20e-01,
297,-1.20e-01,
298,1.00e-01,
299,-9.60e-02,
300,-1.16e-01,
301,1.56e-01,
302,1.36e-01,
303,-9.20e-02,
304,-1.16e-01,
305,7.60e-02,
306,9.20e-02,
307,-6.80e-02,
308,1.00e-01,
309,-1.04e-01,
310,-2.80e-02,
311,1.44e-01,
312,1.44e-01,
313,-1.08e-01,
314,1.60e-02,
315,-1.20e-01,
316,-1.08e-01,
317,1.12e-01,
318,9.20e-02,
319,-9.60e-02,
320,-8.00e-02,
321,1.08e-01,
322,1.16e-01,
323,-9.20e-02,
324,1.24e-01,
325,-1.20e-01,
326,-9.20e-02,
327,8.00e-02,
328,-8.80e-02,
329,9.60e-02,
330,9.60e-02,
331,-8.80e-02,
332,-8.80e-02,
333,9.60e-02,
334,1.08e-01,
335,-1.24e-01,
336,1.28e-01,
337,-9.60e-02,
338,1.08e-01,
339,-9.60e-02,
340,-1.00e-01,
341,1.08e-01,
342,1.20e-01,
343,-1.04e-01,
344,-1.04e-01,
345,1.12e-01,
346,-1.16e-01,
347,6.00e-02,
348,-1.04e-01,
349,1.08e-01,
350,-8.40e-02,
351,1.00e-01,
352,1.08e-01,
353,-7.60e-02,
354,1.40e-01,
355,-1.12e-01,
356,1.24e-01,
357,-1.16e-01,
358,-7.20e-02,
359,1.32e-01,
360,8.40e-02,
361,-8.80e-02,
362,-9.20e-02,
363,1.32e-01,
364,1.32e-01,
365,-9.60e-02,
366,1.04e-01,
367,-1.04e-01,
368,1.44e-01,
369,-1.08e-01,
370,1.16e-01,
371,-9.60e-02,
372,1.12e-01,
373,-4.40e-02,
374,-8.80e-02,
375,1.04e-01,
376,1.08e-01,
377,-1.00e-01,
378,-1.16e-01,
379,1.00e-01,
380,1.16e-01,
381,-1.20e-01,
382,-1.20e-01,
383,1.08e-01,
384,1.32e-01,
385,-1.20e-01,
386,1.20e-01,
387,-9.20e-02,
388,1.24e-01,
389,-1.04e-01,
390,-1.16e-01,
391,9.20e-02,
392,-1.20e-01,
393,1.32e-01,
394,7.60e-02,
395,-1.20e-01,
396,9.60e-02,
397,-1.24e-01,
398,1.40e-01,
399,-1.24e-01,
400,-9.60e-02,
401,1.48e-01,
402,-1.20e-01,
403,1.36e-01,
404,1.28e-01,
405,-1.28e-01,
406,1.28e-01,
407,-1.08e-01,
408,-8.80e-02,
409,1.00e-01,
410,6.80e-02,
411,-1.04e-01,
412,-9.60e-02,
413,1.12e-01,
414,1.20e-01,
415,-1.16e-01,
416,-9.20e-02,
417,1.12e-01,
418,1.12e-01,
419,-8.40e-02,
420,9.20e-02,
421,-8.80e-02,
422,7.60e-02,
423,-9.20e-02,
424,8.00e-02,
425,-1.12e-01,
426,-9.60e-02,
427,9.60e-02,
428,-9.20e-02,
429,8.00e-02,
430,1.08e-01,
431,-1.08e-01,
432,1.16e-01,
433,-9.20e-02,
434,-8.80e-02,
435,8.40e-02,
436,1.08e-01,
437,-7.20e-02,
438,-7.20e-02,
439,1.20e-01,
440,1.40e-01,
441,-1.36e-01,
442,1.28e-01,
443,-1.08e-01,
444,1.32e-01,
445,-8.00e-02,
446,-1.04e-01,
447,1.24e-01,
448,1.24e-01,
449,-1.12e-01,
450,1.60e-01,
451,-1.16e-01,
452,-1.04e-01,
453,1.24e-01,
454,-1.04e-01,
455,8.80e-02,
456,-9.20e-02,
457,1.04e-01,
458,-9.60e-02,
459,1.32e-01,
460,-5.20e-02,
461,1.32e-01,
462,1.00e-01,
463,-8.80e-02,
464,9.20e-02,
465,-3.60e-02,
466,1.48e-01,
467,-1.04e-01,
468,-6.80e-02,
469,1.32e-01,
470,-1.20e-01,
471,1.28e-01,
472,9.20e-02,
473,-8.80e-02,
474,-9.60e-02,
475,1.08e-01,
476,-9.20e-02,
477,9.60e-02,
478,-8.40e-02,
479,1.12e-01,
480,1.08e-01,
481,-9.60e-02,
482,1.04e-01,
483,-9.60e-02,
484,1.16e-01,
485,-7.20e-02,
486,-8.80e-02,
487,1.36e-01,
488,-1.16e-01,
489,1.16e-01,
490,9.20e-02,
491,-1.08e-01,
492,-1.00e-01,
493,1.24e-01,
494,1.24e-01,
495,-1.00e-01,
496,-8.00e-02,
497,7.20e-02,
498,1.64e-01,
499,-1.16e-01,
500,9.20e-02,
501,-9.20e-02,
502,1.12e-01,
503,-7.60e-02,
504,8.00e-02,
505,-1.12e-01,
506,9.60e-02,
507,-1.04e-01,
508,8.00e-02,
509,-9.20e-02,
510,8.80e-02,
511,-1.00e-01,
512,1.32e-01,
513,-1.20e-01,
514,-1.12e-01,
515,1.00e-01,
516,8.00e-02,
517,-1.00e-01,
518,1.00e-01,
519,-9.60e-02,
520,1.00e-01,
521,-4.80e-02,
522,-1.00e-01,
523,1.08e-01,
524,-1.16e-01,
525,1.00e-01,
526,8.80e-02,
527,-8.80e-02,
528,1.04e-01,
529,-9.20e-02,
530,7.20e-02,
531,-9.20e-02,
532,-7.20e-02,
533,9.20e-02,
534,1.32e-01,
535,-1.24e-01,
536,-8.80e-02,
537,8.80e-02,
538,1.20e-01,
539,-9.20e-02,
540,-1.04e-01,
541,1.24e-01,
542,1.24e-01,
543,-1.00e-01,
544,-1.00e-01,
545,1.28e-01,
546,-1.36e-01,
547,1.28e-01,
548,-8.00e-03,
549,1.36e-01,
550,1.40e-01,
551,-1.16e-01,
552,1.40e-01,
553,-1.28e-01,
554,-1.12e-01,
555,1.20e-01,
556,9.20e-02,
557,-1.08e-01,
558,-4.80e-02,
559,9.60e-02,
560,1.24e-01,
561,-1.00e-01,
562,-1.04e-01,
563,1.00e-01,
564,5.20e-02,
565,-9.20e-02,
566,-6.40e-02,
567,1.12e-01,
568,-1.00e-01,
569,1.00e-01,
570,-8.80e-02,
571,1.00e-01,
572,1.16e-01,
573,-1.20e-01,
574,9.20e-02,
575,-7.20e-02,
576,-8.80e-02,
577,8.80e-02,
578,-1.08e-01,
579,1.04e-01,
580,1.12e-01,
581,-1.16e-01,
582,-1.12e-01,
583,1.00e-01,
584,-1.00e-01,
585,1.08e-01,
586,-9.20e-02,
587,1.16e-01,
588,-1.08e-01,
589,1.16e-01,
590,5.20e-02,
591,-1.04e-01,
592,-6.40e-02,
593,1.36e-01,
594,-1.08e-01,
595,1.24e-01,
596,1.36e-01,
597,-1.08e-01,
598,1.32e-01,
599,-1.20e-01,
600,8.00e-02,
601,-1.00e-01,
602,-1.08e-01,
603,1.32e-01,
604,1.24e-01,
605,-7.20e-02,
606,-9.60e-02,
607,1.28e-01,
608,-1.08e-01,
609,1.36e-01,
610,1.20e-01,
611,-9.60e-02,
612,9.20e-02,
613,-1.00e-01,
614,-9.60e-02,
615,9.60e-02,
616,9.60e-02,
617,-1.24e-01,
618,1.12e-01,
619,-7.20e-02,
620,8.00e-02,
621,-9.60e-02,
622,8.80e-02,
623,-8.00e-02,
624,-9.20e-02,
625,1.08e-01,
626,-1.04e-01,
627,9.60e-02,
628,1.16e-01,
629,-8.80e-02,
630,1.20e-01,
631,-8.40e-02,
632,4.40e-02,
633,-7.60e-02,
634,6.40e-02,
635,-6.40e-02,
636,-7.20e-02,
637,8.00e-02,
638,8.40e-02,
639,-8.80e-02,
640,1.28e-01,
641,-9.60e-02,
642,1.36e-01,
643,-1.04e-01,
644,-1.12e-01,
645,1.32e-01,
646,1.24e-01,
647,-6.00e-02,
648,1.32e-01,
649,-1.24e-01,
650,1.24e-01,
651,-1.04e-01,
652,-8.40e-02,
653,1.32e-01,
654,7.60e-02,
655,-1.16e-01,
656,-1.16e-01,
657,8.40e-02,
658,1.12e-01,
659,-1.08e-01,
660,-1.28e-01,
661,1.44e-01,
662,-1.24e-01,
663,9.20e-02,
664,-7.60e-02,
665,3.60e-02,
666,1.12e-01,
667,-7.60e-02,
668,-9.60e-02,
669,9.60e-02,
670,8.40e-02,
671,-6.00e-02,
672,-4.40e-02,
673,9.60e-02,
674,-9.20e-02,
675,7.60e-02,
676,-9.60e-02,
677,8.80e-02,
678,1.48e-01,
679,-7.60e-02,
680,9.60e-02,
681,-1.08e-01,
682,1.20e-01,
683,-9.20e-02,
684,-9.20e-02,
685,1.20e-01,
686,6.00e-02,
687,-1.00e-01,
688,1.04e-01,
689,-1.08e-01,
690,-1.16e-01,
691,6.00e-02,
692,-1.00e-01,
693,9.60e-02,
694,-1.08e-01,
695,1.16e-01,
696,1.12e-01,
697,-8.40e-02,
698,1.24e-01,
699,-7.20e-02,
700,1.52e-01,
701,-1.24e-01,
702,-1.12e-01,
703,1.12e-01,
704,1.28e-01,
705,-1.12e-01,
706,7.60e-02,
707,-1.00e-01,
708,6.80e-02,
709,-1.04e-01,
710,-1.08e-01,
711,9.20e-02,
712,9.20e-02,
713,-1.08e-01,
714,1.36e-01,
715,-5.20e-02,
716,-1.04e-01,
717,9.60e-02,
718,-1.12e-01,
719,1.08e-01,
720,-9.60e-02,
721,1.04e-01,
722,1.00e-01,
723,-8.80e-02,
724,-9.60e-02,
725,1.08e-01,
726,6.00e-02,
727,-9.60e-02,
728,-1.32e-01,
729,1.28e-01,
730,-9.60e-02,
731,1.04e-01,
732,-9.20e-02,
733,9.20e-02,
734,-6.00e-02,
735,1.20e-01,
736,1.52e-01,
737,-1.24e-01,
738,-1.32e-01,
739,1.36e-01,
740,-1.20e-01,
741,1.36e-01,
742,7.20e-02,
743,-8.80e-02,
744,-1.08e-01,
745,1.28e-01,
746,8.40e-02,
747,-1.08e-01,
748,-1.16e-01,
749,1.28e-01,
750,-1.16e-01,
751,1.20e-01,
752,1.08e-01,
753,-1.00e-01,
754,1.04e-01,
755,-1.04e-01,
756,-1.00e-01,
757,9.60e-02,
758,1.16e-01,
759,-1.04e-01,
760,1.16e-01,
761,-1.16e-01,
762,-1.08e-01,
763,1.28e-01,
764,1.44e-01,
765,-1.08e-01,
766,7.60e-02,
767,-9.60e-02,
768,-9.20e-02,
769,1.12e-01,
770,1.00e-01,
771,-9.20e-02,
772,-9.20e-02,
773,1.24e-01,
774,-1.20e-01,
775,1.16e-01,
776,8.40e-02,
777,-9.60e-02,
778,-1.00e-01,
779,7.60e-02,
780,1.20e-01,
781,-6.80e-02,
782,-8.40e-02,
783,8.00e-02,
784,-1.12e-01,
785,1.28e-01,
786,-9.20e-02,
787,9.20e-02,
788,-1.04e-01,
789,8.00e-02,
790,2.00e-02,
791,-1.12e-01,
792,-1.08e-01,
793,4.40e-02,
794,9.60e-02,
795,-7.20e-02,
796,-1.04e-01,
797,1.36e-01,
798,1.24e-01,
799,-1.36e-01,
800,-1.28e-01,
801,1.56e-01,
802,-1.16e-01,
803,1.40e-01,
804,-1.04e-01,
805,1.20e-01,
806,1.20e-01,
807,-1.00e-01,
808,1.20e-01,
809,-1.04e-01,
810,-8.80e-02,
811,1.08e-01,
812,-1.28e-01,
813,1.04e-01,
814,1.64e-01,
815,-1.16e-01,
816,1.48e-01,
817,-1.24e-01,
818,-8.80e-02,
819,9.60e-02,
820,-9.20e-02,
821,8.80e-02,
822,-9.60e-02,
823,1.04e-01,
824,-8.80e-02,
825,1.00e-01,
826,1.04e-01,
827,-1.16e-01,
828,-9.60e-02,
829,8.00e-02,
830,-9.20e-02,
831,8.80e-02,
832,6.00e-02,
833,-7.20e-02,
834,3.60e-02,
835,-8.00e-02,
836,-1.00e-01,
837,1.36e-01,
838,-5.60e-02,
839,1.20e-01,
840,-1.08e-01,
841,1.24e-01,
842,9.60e-02,
843,-1.16e-01,
844,1.16e-01,
845,-1.32e-01,
846,1.12e-01,
847,-1.32e-01,
848,1.28e-01,
849,-9.20e-02,
850,-1.08e-01,
851,9.20e-02,
852,1.28e-01,
853,-1.00e-01,
854,1.16e-01,
855,-1.04e-01,
856,1.28e-01,
857,-1.08e-01,
858,1.28e-01,
859,-9.20e-02,
860,1.16e-01,
861,-9.60e-02,
862,-1.00e-01,
863,6.80e-02,
864,1.12e-01,
865,-9.60e-02,
866,-1.12e-01,
867,1.04e-01,
868,-1.12e-01,
869,1.04e-01,
870,-7.20e-02,
871,9.20e-02,
872,-7.20e-02,
873,7.60e-02,
874,8.80e-02,
875,-8.80e-02,
876,-9.60e-02,
877,8.40e-02,
878,8.40e-02,
879,-7.60e-02,
880,1.56e-01,
881,-1.32e-01,
882,-1.20e-01,
883,1.28e-01,
884,-1.28e-01,
885,1.08e-01,
886,1.44e-01,
887,-1.04e-01,
888,1.24e-01,
889,-9.20e-02,
890,-9.60e-02,
891,1.08e-01,
892,1.68e-01,
893,-3.60e-02,
894,-1.04e-01,
895,1.40e-01,
896,1.68e-01,
897,-9.60e-02,
898,1.36e-01,
899,-1.24e-01,
900,6.80e-02,
901,-1.32e-01,
902,1.08e-01,
903,-1.04e-01,
904,-1.16e-01,
905,1.16e-01,
906,1.00e-01,
907,-3.20e-02,
908,-1.04e-01,
909,8.80e-02,
910,1.24e-01,
911,-1.12e-01,
912,-7.20e-02,
913,1.24e-01,
914,1.20e-01,
915,-1.08e-01,
916,-1.28e-01,
917,1.16e-01,
918,1.28e-01,
919,-1.28e-01,
920,1.28e-01,
921,-1.24e-01,
922,-1.24e-01,
923,1.56e-01,
924,-1.24e-01,
925,1.36e-01,
926,-1.00e-01,
927,1.40e-01,
928,-1.32e-01,
929,8.00e-02,
930,1.00e-01,
931,-1.00e-01,
932,-1.08e-01,
933,8.80e-02,
934,6.80e-02,
935,-1.04e-01,
936,1.16e-01,
937,-8.80e-02,
938,-1.08e-01,
939,8.00e-02,
940,1.08e-01,
941,-1.24e-01,
942,-1.04e-01,
943,7.20e-02,
944,1.00e-01,
945,-8.00e-02,
946,1.16e-01,
947,-1.08e-01,
948,8.00e-02,
949,-6.80e-02,
950,5.20e-02,
951,-4.00e-02,
952,-9.20e-02,
953,8.00e-02,
954,8.40e-02,
955,-8.00e-02,
956,1.00e-01,
957,-9.60e-02,
958,8.80e-02,
959,-9.20e-02,
960,-1.16e-01,
961,9.20e-02,
962,1.12e-01,
963,-1.04e-01,
964,1.44e-01,
965,-1.08e-01,
966,-1.20e-01,
967,1.48e-01,
968,-1.28e-01,
969,1.56e-01,
970,1.56e-01,
971,-1.24e-01,
972,1.44e-01,
973,-1.16e-01,
974,1.16e-01,
975,-1.08e-01,
976,1.52e-01,
977,-1.28e-01,
978,1.08e-01,
979,-1.12e-01,
980,-1.12e-01,
981,1.04e-01,
982,8.00e-02,
983,-1.08e-01,
984,1.28e-01,
985,-1.08e-01,
986,-8.80e-02,
987,7.20e-02,
988,1.40e-01,
989,-1.24e-01,
990,-8.00e-02,
991,1.16e-01,
992,-9.20e-02,
993,1.04e-01,
994,-1.00e-01,
995,8.80e-02,
996,1.08e-01,
997,-9.20e-02,
998,8.80e-02,
999,-1.16e-01,
1000,1.36e-01,
1001,-1.12e-01,
1002,1.36e-01,
1003,-1.08e-01,
1004,1.24e-01,
1005,-1.20e-01,
1006,8.00e-02,
1007,-8.00e-02,
1008,-8.80e-02,
1009,9.60e-02,
1010,1.12e-01,
1011,-1.04e-01,
1012,1.52e-01,
1013,-1.16e-01,
1014,1.20e-01,
1015,-1.12e-01,
1016,8.00e-02,
1017,-1.04e-01,
1018,1.12e-01,
1019,-1.12e-01,
1020,-1.04e-01,
1021,1.12e-01,
1022,3.60e-02,
1023,-1.12e-01,
1024,1.00e-01,
1025,-1.28e-01,
1026,-7.20e-02,
1027,9.20e-02,
1028,-6.80e-02,
1029,1.20e-01,
1030,8.40e-02,
1031,-6.80e-02,
1032,-8.00e-03,
1033,9.60e-02,
1034,-1.24e-01,
1035,8.80e-02,
1036,-1.04e-01,
1037,1.12e-01,
1038,8.80e-02,
1039,-1.08e-01,
1040,1.12e-01,
1041,-8.00e-02,
1042,-7.20e-02,
1043,1.08e-01,
1044,1.44e-01,
1045,-1.04e-01,
1046,-9.60e-02,
1047,1.20e-01,
1048,-1.28e-01,
1049,1.32e-01,
1050,-1.08e-01,
1051,1.48e-01,
1052,1.40e-01,
1053,-1.12e-01,
1054,-8.00e-02,
1055,1.08e-01,
1056,1.08e-01,
1057,-8.80e-02,
1058,1.04e-01,
1059,-8.80e-02,
1060,1.00e-01,
1061,-6.80e-02,
1062,-1.16e-01,
1063,1.08e-01,
1064,-1.04e-01,
1065,1.12e-01,
1066,-1.08e-01,
1067,8.80e-02,
1068,1.16e-01,
1069,-1.60e-02,
1070,-1.04e-01,
1071,1.04e-01,
1072,8.80e-02,
1073,-1.24e-01,
1074,-1.20e-01,
1075,8.00e-02,
1076,-1.04e-01,
1077,9.20e-02,
1078,-1.16e-01,
1079,7.20e-02,
1080,1.20e-01,
1081,-1.16e-01,
1082,1.60e-01,
1083,-1.36e-01,
1084,1.56e-01,
1085,-1.16e-01,
1086,1.44e-01,
1087,-1.24e-01,
1088,-1.28e-01,
1089,1.08e-01,
1090,1.16e-01,
1091,-1.04e-01,
1092,1.20e-01,
1093,-1.08e-01,
1094,-1.04e-01,
1095,1.36e-01,
1096,-8.80e-02,
1097,1.16e-01,
1098,-8.40e-02,
1099,1.16e-01,
1100,9.20e-02,
1101,-9.60e-02,
1102,-9.20e-02,
1103,9.60e-02,
1104,-9.20e-02,
1105,9.20e-02,
1106,1.32e-01,
1107,-1.12e-01,
1108,-9.20e-02,
1109,9.60e-02,
1110,3.20e-02,
1111,-9.60e-02,
1112,-8.80e-02,
1113,9.60e-02,
1114,1.28e-01,
1115,-2.00e-02,
1116,-4.80e-02,
1117,1.00e-01,
1118,1.00e-01,
1119,-1.24e-01,
1120,-1.00e-01,
1121,1.36e-01,
1122,1.08e-01,
1123,-1.08e-01,
1124,1.28e-01,
1125,-1.12e-01,
1126,-1.20e-01,
1127,1.08e-01,
1128,1.40e-01,
1129,-6.40e-02,
1130,1.44e-01,
1131,-1.04e-01,
1132,-8.00e-02,
1133,1.60e-01,
1134,-1.08e-01,
1135,1.12e-01,
1136,1.64e-01,
1137,-1.04e-01,
1138,1.08e-01,
1139,-9.60e-02,
1140,-1.08e-01,
1141,1.20e-01,
1142,1.32e-01,
1143,-1.08e-01,
1144,-7.20e-02,
1145,8.80e-02,
1146,-8.40e-02,
1147,1.20e-01,
1148,1.04e-01,
1149,-9.60e-02,
1150,1.36e-01,
1151,-9.60e-02,
1152,-1.24e-01,
1153,7.60e-02,
1154,1.32e-01,
1155,-5.60e-02,
1156,-1.00e-01,
1157,1.04e-01,
1158,1.04e-01,
1159,-1.20e-01,
1160,-1.12e-01,
1161,1.48e-01,
1162,1.28e-01,
1163,-1.20e-01,
1164,1.52e-01,
1165,-1.20e-01,
1166,1.44e-01,
1167,-1.20e-01,
1168,1.16e-01,
1169,-1.32e-01,
1170,-1.32e-01,
1171,1.40e-01,
1172,1.36e-01,
1173,-8.80e-02,
1174,-9.20e-02,
1175,1.44e-01,
1176,-1.24e-01,
1177,1.64e-01,
1178,-1.12e-01,
1179,1.04e-01,
1180,1.60e-01,
1181,-1.28e-01,
1182,1.16e-01,
1183,-3.60e-02,
1184,-7.60e-02,
1185,1.00e-01,
1186,1.00e-01,
1187,-1.04e-01,
1188,1.36e-01,
1189,-1.12e-01,
1190,-8.00e-02,
1191,1.04e-01,
1192,8.00e-02,
1193,-1.08e-01,
1194,-1.28e-01,
1195,1.16e-01,
1196,1.00e-01,
1197,-1.12e-01,
1198,1.40e-01,
1199,-1.24e-01,
