Laptop_2/LAPTOP_CHRGR_2_ON_DISTANT/time domain/NewFile3.csv

X,CH1,Start,Increment,
Sequence,Volt,-1.500000e-01,2.000000e-04
0,-2.20e-01,
1,2.04e-01,
2,-1.92e-01,
3,7.20e-02,
4,2.08e-01,
5,-2.08e-01,
6,1.64e-01,
7,-2.24e-01,
8,-1.96e-01,
9,2.16e-01,
10,-2.44e-01,
11,2.12e-01,
12,2.12e-01,
13,-2.00e-01,
14,2.16e-01,
15,-2.00e-01,
16,-2.12e-01,
17,1.76e-01,
18,-2.08e-01,
19,1.80e-01,
20,-2.08e-01,
21,1.92e-01,
22,-2.04e-01,
23,1.60e-01,
24,-5.20e-02,
25,1.88e-01,
26,1.92e-01,
27,-1.92e-01,
28,-5.20e-02,
29,1.80e-01,
30,-9.60e-02,
31,1.96e-01,
32,-1.56e-01,
33,2.00e-01,
34,1.20e-01,
35,-5.20e-02,
36,-1.80e-01,
37,1.64e-01,
38,1.80e-01,
39,-1.28e-01,
40,2.04e-01,
41,-2.24e-01,
42,-1.88e-01,
43,1.64e-01,
44,2.24e-01,
45,-2.36e-01,
46,2.08e-01,
47,-1.92e-01,
48,-2.28e-01,
49,1.96e-01,
50,-2.24e-01,
51,1.56e-01,
52,2.08e-01,
53,-1.96e-01,
54,1.96e-01,
55,-2.24e-01,
56,-2.36e-01,
57,1.64e-01,
58,2.08e-01,
59,-1.44e-01,
60,-1.80e-01,
61,1.88e-01,
62,1.76e-01,
63,-2.04e-01,
64,1.48e-01,
65,-2.08e-01,
66,-1.72e-01,
67,1.84e-01,
68,1.84e-01,
69,-8.80e-02,
70,-1.00e-01,
71,1.88e-01,
72,-9.20e-02,
73,1.16e-01,
74,-9.60e-02,
75,1.84e-01,
76,-1.96e-01,
77,1.92e-01,
78,2.20e-01,
79,-1.96e-01,
80,-1.68e-01,
81,1.92e-01,
82,1.00e-01,
83,-2.12e-01,
84,1.84e-01,
85,-1.84e-01,
86,-1.88e-01,
87,1.56e-01,
88,2.20e-01,
89,-2.40e-01,
90,2.16e-01,
91,-2.28e-01,
92,-2.40e-01,
93,2.16e-01,
94,2.20e-01,
95,-2.20e-01,
96,-2.40e-01,
97,2.12e-01,
98,-2.28e-01,
99,2.20e-01,
100,-2.32e-01,
101,2.12e-01,
102,2.00e-01,
103,-1.80e-01,
104,1.52e-01,
105,-9.60e-02,
106,1.88e-01,
107,-1.80e-01,
108,-8.80e-02,
109,1.80e-01,
110,-1.48e-01,
111,2.08e-01,
112,-2.20e-01,
113,5.60e-02,
114,-1.72e-01,
115,1.72e-01,
116,-1.96e-01,
117,1.84e-01,
118,-1.68e-01,
119,1.92e-01,
120,1.84e-01,
121,-1.84e-01,
122,-2.32e-01,
123,2.04e-01,
124,1.84e-01,
125,-2.08e-01,
126,1.80e-01,
127,-1.88e-01,
128,1.84e-01,
129,-2.20e-01,
130,-2.08e-01,
131,1.92e-01,
132,2.12e-01,
133,-2.20e-01,
134,-1.88e-01,
135,1.92e-01,
136,-2.16e-01,
137,1.92e-01,
138,2.00e-01,
139,-1.92e-01,
140,-1.88e-01,
141,2.24e-01,
142,-2.36e-01,
143,2.20e-01,
144,-1.36e-01,
145,9.60e-02,
146,-1.32e-01,
147,3.60e-02,
148,1.96e-01,
149,-4.00e-02,
150,-1.40e-01,
151,1.88e-01,
152,2.00e-01,
153,-7.20e-02,
154,-2.80e-02,
155,2.00e-01,
156,-1.68e-01,
157,2.00e-01,
158,2.00e-01,
159,-1.48e-01,
160,1.96e-01,
161,-2.16e-01,
162,-2.32e-01,
163,1.88e-01,
164,1.88e-01,
165,-2.00e-01,
166,-1.92e-01,
167,2.20e-01,
168,-2.32e-01,
169,2.12e-01,
170,-2.12e-01,
171,2.04e-01,
172,1.92e-01,
173,-2.12e-01,
174,1.92e-01,
175,-2.24e-01,
176,-2.28e-01,
177,2.20e-01,
178,1.88e-01,
179,-2.16e-01,
180,-1.92e-01,
181,1.96e-01,
182,1.80e-01,
183,-1.84e-01,
184,-2.20e-01,
185,2.00e-01,
186,1.32e-01,
187,-1.04e-01,
188,3.20e-02,
189,-1.84e-01,
190,1.84e-01,
191,-1.72e-01,
192,-8.80e-02,
193,1.56e-01,
194,2.08e-01,
195,-3.20e-02,
196,2.00e-01,
197,-6.80e-02,
198,-1.24e-01,
199,2.00e-01,
200,2.08e-01,
201,-2.04e-01,
202,-2.00e-01,
203,1.52e-01,
204,1.92e-01,
205,-2.12e-01,
206,1.72e-01,
207,-1.96e-01,
208,1.84e-01,
209,-2.20e-01,
210,2.12e-01,
211,-1.88e-01,
212,-1.96e-01,
213,1.48e-01,
214,1.52e-01,
215,-1.88e-01,
216,1.80e-01,
217,-1.92e-01,
218,-2.04e-01,
219,1.56e-01,
220,-1.88e-01,
221,5.60e-02,
222,-2.08e-01,
223,1.92e-01,
224,-1.00e-01,
225,2.04e-01,
226,1.88e-01,
227,-1.96e-01,
228,1.88e-01,
229,-1.92e-01,
230,1.92e-01,
231,-1.96e-01,
232,1.76e-01,
233,-1.24e-01,
234,1.96e-01,
235,-6.00e-02,
236,-3.60e-02,
237,2.00e-01,
238,1.88e-01,
239,-1.80e-01,
240,-2.12e-01,
241,1.96e-01,
242,2.04e-01,
243,-2.08e-01,
244,2.20e-01,
245,-2.40e-01,
246,2.08e-01,
247,-2.36e-01,
248,-2.16e-01,
249,2.08e-01,
250,2.00e-01,
251,-2.00e-01,
252,1.80e-01,
253,-5.60e-02,
254,1.92e-01,
255,-2.12e-01,
256,-1.76e-01,
257,1.92e-01,
258,-1.72e-01,
259,1.80e-01,
260,-2.16e-01,
261,2.08e-01,
262,2.08e-01,
263,-1.76e-01,
264,-2.08e-01,
265,1.72e-01,
266,1.84e-01,
267,-1.72e-01,
268,-1.84e-01,
269,1.80e-01,
270,1.80e-01,
271,-1.64e-01,
272,-1.64e-01,
273,1.68e-01,
274,-2.00e-02,
275,1.96e-01,
276,-1.96e-01,
277,1.88e-01,
278,1.88e-01,
279,-1.68e-01,
280,1.88e-01,
281,-2.08e-01,
282,-1.88e-01,
283,2.16e-01,
284,-2.04e-01,
285,1.52e-01,
286,2.00e-01,
287,-2.16e-01,
288,1.84e-01,
289,-2.24e-01,
290,-1.80e-01,
291,2.04e-01,
292,1.80e-01,
293,-2.24e-01,
294,1.96e-01,
295,-1.88e-01,
296,2.00e-01,
297,-1.84e-01,
298,2.00e-01,
299,-1.80e-01,
300,2.00e-01,
301,-2.00e-01,
302,2.00e-01,
303,-2.00e-01,
304,-5.60e-02,
305,1.56e-01,
306,-1.64e-01,
307,2.00e-01,
308,2.08e-01,
309,-1.72e-01,
310,1.68e-01,
311,-1.96e-01,
312,-1.80e-01,
313,1.88e-01,
314,-1.64e-01,
315,6.40e-02,
316,-1.96e-01,
317,1.80e-01,
318,-1.44e-01,
319,1.96e-01,
320,-1.44e-01,
321,1.80e-01,
322,-2.28e-01,
323,2.04e-01,
324,-2.04e-01,
325,2.08e-01,
326,2.12e-01,
327,-2.20e-01,
328,1.84e-01,
329,-1.96e-01,
330,1.92e-01,
331,-2.08e-01,
332,1.96e-01,
333,-2.12e-01,
334,2.04e-01,
335,-2.12e-01,
336,-2.32e-01,
337,2.08e-01,
338,1.92e-01,
339,-2.16e-01,
340,-1.08e-01,
341,2.16e-01,
342,2.16e-01,
343,-2.24e-01,
344,-1.88e-01,
345,1.56e-01,
346,-3.20e-02,
347,2.12e-01,
348,1.88e-01,
349,-1.08e-01,
350,1.24e-01,
351,-2.08e-01,
352,-1.40e-01,
353,1.76e-01,
354,-1.40e-01,
355,1.72e-01,
356,-1.80e-01,
357,1.84e-01,
358,-6.40e-02,
359,1.88e-01,
360,-1.96e-01,
361,1.80e-01,
362,-2.00e-01,
363,1.72e-01,
364,-1.40e-01,
365,1.76e-01,
366,-1.52e-01,
367,1.76e-01,
368,-1.96e-01,
369,2.12e-01,
370,-1.96e-01,
371,1.68e-01,
372,1.80e-01,
373,-1.40e-01,
374,-1.92e-01,
375,1.80e-01,
376,1.64e-01,
377,-2.08e-01,
378,1.96e-01,
379,-1.92e-01,
380,1.84e-01,
381,-1.72e-01,
382,-2.08e-01,
383,2.00e-01,
384,1.84e-01,
385,-2.00e-01,
386,1.04e-01,
387,-1.68e-01,
388,1.96e-01,
389,-4.40e-02,
390,2.12e-01,
391,-1.04e-01,
392,4.40e-02,
393,-4.80e-02,
394,-8.80e-02,
395,1.16e-01,
396,1.80e-01,
397,-7.20e-02,
398,1.96e-01,
399,-2.04e-01,
400,-1.96e-01,
401,2.12e-01,
402,1.96e-01,
403,-2.28e-01,
404,-2.04e-01,
405,1.84e-01,
406,-2.00e-01,
407,1.64e-01,
408,1.84e-01,
409,-1.88e-01,
410,-1.92e-01,
411,1.80e-01,
412,-2.24e-01,
413,1.84e-01,
414,1.72e-01,
415,-1.88e-01,
416,1.76e-01,
417,-1.76e-01,
418,-1.72e-01,
419,1.80e-01,
420,-1.80e-01,
421,1.92e-01,
422,-2.24e-01,
423,1.92e-01,
424,1.84e-01,
425,-4.80e-02,
426,1.44e-01,
427,-4.80e-02,
428,1.96e-01,
429,-4.40e-02,
430,1.92e-01,
431,-2.80e-02,
432,-1.40e-01,
433,1.44e-01,
434,-8.80e-02,
435,2.04e-01,
436,-2.24e-01,
437,1.84e-01,
438,2.08e-01,
439,-9.60e-02,
440,1.48e-01,
441,-1.96e-01,
442,2.00e-01,
443,-1.64e-01,
444,1.88e-01,
445,-1.96e-01,
446,-2.04e-01,
447,1.88e-01,
448,-1.80e-01,
449,1.84e-01,
450,-1.92e-01,
451,2.00e-01,
452,1.64e-01,
453,-1.72e-01,
454,1.80e-01,
455,-1.92e-01,
456,-1.96e-01,
457,1.76e-01,
458,1.76e-01,
459,-2.04e-01,
460,1.88e-01,
461,-1.92e-01,
462,1.72e-01,
463,-1.16e-01,
464,1.80e-01,
465,-1.60e-01,
466,-1.60e-01,
467,1.72e-01,
468,-1.56e-01,
469,1.92e-01,
470,-1.68e-01,
471,1.92e-01,
472,1.28e-01,
473,-2.80e-02,
474,-2.28e-01,
475,1.68e-01,
476,1.92e-01,
477,-2.08e-01,
478,1.88e-01,
479,-2.00e-01,
480,-1.92e-01,
481,2.00e-01,
482,-1.76e-01,
483,2.00e-01,
484,-1.80e-01,
485,1.96e-01,
486,2.04e-01,
487,-2.00e-01,
488,1.92e-01,
489,-2.08e-01,
490,1.92e-01,
491,-2.16e-01,
492,1.92e-01,
493,-1.68e-01,
494,2.08e-01,
495,-2.20e-01,
496,-2.12e-01,
497,1.56e-01,
498,1.80e-01,
499,-2.04e-01,
500,1.88e-01,
501,-1.96e-01,
502,-1.64e-01,
503,1.28e-01,
504,-1.36e-01,
505,2.04e-01,
506,1.60e-01,
507,-1.56e-01,
508,-1.00e-01,
509,1.88e-01,
510,6.40e-02,
511,-4.80e-02,
512,1.80e-01,
513,-3.20e-02,
514,1.52e-01,
515,-4.80e-02,
516,-2.08e-01,
517,1.76e-01,
518,-1.88e-01,
519,1.36e-01,
520,-2.08e-01,
521,2.00e-01,
522,2.00e-01,
523,-8.80e-02,
524,1.68e-01,
525,-1.44e-01,
526,-1.84e-01,
527,1.80e-01,
528,-2.04e-01,
529,1.80e-01,
530,-2.08e-01,
531,1.88e-01,
532,2.12e-01,
533,-2.28e-01,
534,-1.60e-01,
535,1.96e-01,
536,1.92e-01,
537,-2.24e-01,
538,-2.20e-01,
539,1.96e-01,
540,-2.08e-01,
541,1.80e-01,
542,2.00e-01,
543,-2.16e-01,
544,1.64e-01,
545,-2.40e-02,
546,1.84e-01,
547,-3.60e-02,
548,1.80e-01,
549,-7.60e-02,
550,-6.00e-02,
551,1.80e-01,
552,-1.96e-01,
553,1.88e-01,
554,-1.60e-02,
555,1.80e-01,
556,-2.04e-01,
557,1.96e-01,
558,-4.40e-02,
559,1.96e-01,
560,-1.56e-01,
561,1.76e-01,
562,1.68e-01,
563,-1.80e-01,
564,1.64e-01,
565,-1.84e-01,
566,1.12e-01,
567,-1.64e-01,
568,2.08e-01,
569,-2.16e-01,
570,1.76e-01,
571,-2.04e-01,
572,-1.92e-01,
573,1.72e-01,
574,1.88e-01,
575,-2.00e-01,
576,1.56e-01,
577,-2.00e-01,
578,-1.96e-01,
579,2.00e-01,
580,-1.76e-01,
581,9.20e-02,
582,-2.16e-01,
583,1.84e-01,
584,1.92e-01,
585,-4.00e-02,
586,-8.00e-03,
587,1.96e-01,
588,1.20e-01,
589,-2.04e-01,
590,-6.80e-02,
591,1.56e-01,
592,2.00e-01,
593,-1.84e-01,
594,2.00e-01,
595,-1.80e-01,
596,-1.60e-02,
597,1.92e-01,
598,1.80e-01,
599,-1.36e-01,
600,1.80e-01,
601,-1.48e-01,
602,-1.84e-01,
603,1.72e-01,
604,-1.84e-01,
605,1.60e-01,
606,1.88e-01,
607,-1.72e-01,
608,1.72e-01,
609,-1.72e-01,
610,-5.20e-02,
611,1.72e-01,
612,1.64e-01,
613,-1.96e-01,
614,1.32e-01,
615,-1.84e-01,
616,2.04e-01,
617,-1.72e-01,
618,-1.92e-01,
619,1.68e-01,
620,-1.64e-01,
621,1.80e-01,
622,-1.96e-01,
623,1.64e-01,
624,-1.32e-01,
625,1.80e-01,
626,1.48e-01,
627,-6.40e-02,
628,1.80e-01,
629,-1.96e-01,
630,-1.56e-01,
631,1.88e-01,
632,-1.44e-01,
633,8.80e-02,
634,1.80e-01,
635,-4.80e-02,
636,1.44e-01,
637,-1.80e-01,
638,1.92e-01,
639,-6.80e-02,
640,-2.24e-01,
641,1.92e-01,
642,-9.60e-02,
643,1.96e-01,
644,-1.56e-01,
645,1.88e-01,
646,-2.00e-01,
647,1.60e-01,
648,1.84e-01,
649,-1.68e-01,
650,1.08e-01,
651,-1.68e-01,
652,2.00e-01,
653,-1.92e-01,
654,1.76e-01,
655,-4.40e-02,
656,1.72e-01,
657,-1.92e-01,
658,-1.68e-01,
659,1.64e-01,
660,1.68e-01,
661,-1.88e-01,
662,1.88e-01,
663,-1.76e-01,
664,1.76e-01,
665,-1.52e-01,
666,1.72e-01,
667,-1.60e-01,
668,1.88e-01,
669,-8.00e-02,
670,-4.00e-02,
671,2.04e-01,
672,1.72e-01,
673,-8.80e-02,
674,1.96e-01,
675,-4.40e-02,
676,-1.80e-01,
677,1.48e-01,
678,1.84e-01,
679,-1.40e-01,
680,1.76e-01,
681,-2.08e-01,
682,1.88e-01,
683,-1.76e-01,
684,1.88e-01,
685,-1.84e-01,
686,1.84e-01,
687,-2.00e-01,
688,1.88e-01,
689,-1.92e-01,
690,1.88e-01,
691,-1.48e-01,
692,1.80e-01,
693,-2.00e-01,
694,-1.60e-01,
695,1.60e-01,
696,-1.88e-01,
697,1.76e-01,
698,1.68e-01,
699,-2.00e-01,
700,-1.68e-01,
701,1.80e-01,
702,1.52e-01,
703,-1.60e-01,
704,1.76e-01,
705,-6.40e-02,
706,-6.40e-02,
707,1.68e-01,
708,1.64e-01,
709,-8.80e-02,
710,-1.12e-01,
711,1.68e-01,
712,6.80e-02,
713,-1.96e-01,
714,-1.88e-01,
715,1.68e-01,
716,1.28e-01,
717,-1.92e-01,
718,-1.76e-01,
719,2.00e-01,
720,-1.96e-01,
721,1.92e-01,
722,-2.12e-01,
723,1.88e-01,
724,-2.12e-01,
725,1.88e-01,
726,-1.92e-01,
727,1.52e-01,
728,-2.00e-01,
729,1.88e-01,
730,-1.68e-01,
731,1.88e-01,
732,1.88e-01,
733,-2.04e-01,
734,-1.92e-01,
735,1.88e-01,
736,-2.08e-01,
737,1.60e-01,
738,1.76e-01,
739,-1.96e-01,
740,-1.64e-01,
741,1.80e-01,
742,-1.92e-01,
743,1.68e-01,
744,-1.52e-01,
745,1.76e-01,
746,-1.36e-01,
747,1.56e-01,
748,3.20e-02,
749,-1.16e-01,
750,1.92e-01,
751,-3.20e-02,
752,-9.60e-02,
753,1.44e-01,
754,-1.48e-01,
755,1.64e-01,
756,-1.60e-01,
757,1.60e-01,
758,1.80e-01,
759,-1.68e-01,
760,-1.60e-01,
761,2.00e-01,
762,1.92e-01,
763,-1.92e-01,
764,1.80e-01,
765,-1.48e-01,
766,-1.80e-01,
767,1.56e-01,
768,1.76e-01,
769,-1.20e-01,
770,1.72e-01,
771,-1.68e-01,
772,1.80e-01,
773,-2.20e-01,
774,-2.00e-01,
775,1.92e-01,
776,-1.84e-01,
777,1.80e-01,
778,1.84e-01,
779,-1.72e-01,
780,1.92e-01,
781,-1.76e-01,
782,-1.96e-01,
783,1.96e-01,
784,1.00e-01,
785,-2.00e-02,
786,-5.20e-02,
787,1.80e-01,
788,-1.48e-01,
789,1.40e-01,
790,1.80e-01,
791,-4.40e-02,
792,-4.40e-02,
793,5.60e-02,
794,1.72e-01,
795,-1.20e-01,
796,-1.56e-01,
797,4.80e-02,
798,1.60e-01,
799,-1.92e-01,
800,-1.92e-01,
801,1.52e-01,
802,-1.56e-01,
803,1.84e-01,
804,1.60e-01,
805,-1.68e-01,
806,-1.72e-01,
807,1.96e-01,
808,-1.68e-01,
809,1.60e-01,
810,-1.60e-01,
811,1.72e-01,
812,-1.56e-01,
813,1.76e-01,
814,1.68e-01,
815,-1.96e-01,
816,1.60e-01,
817,-1.64e-01,
818,-2.16e-01,
819,1.84e-01,
820,1.76e-01,
821,-1.96e-01,
822,1.80e-01,
823,-1.88e-01,
824,-3.20e-02,
825,6.40e-02,
826,2.00e-01,
827,-2.20e-01,
828,-5.60e-02,
829,1.20e-01,
830,1.64e-01,
831,-3.60e-02,
832,1.64e-01,
833,-6.80e-02,
834,-1.44e-01,
835,1.76e-01,
836,-2.00e-02,
837,1.88e-01,
838,-4.80e-02,
839,1.80e-01,
840,1.96e-01,
841,-2.16e-01,
842,-2.12e-01,
843,1.92e-01,
844,-1.72e-01,
845,1.96e-01,
846,1.88e-01,
847,-1.64e-01,
848,1.80e-01,
849,-1.52e-01,
850,1.64e-01,
851,-1.60e-01,
852,-1.44e-01,
853,1.52e-01,
854,-1.84e-01,
855,1.64e-01,
856,9.60e-02,
857,-1.76e-01,
858,2.00e-01,
859,-2.12e-01,
860,1.64e-01,
861,-2.12e-01,
862,-1.96e-01,
863,1.72e-01,
864,1.84e-01,
865,-9.60e-02,
866,1.84e-01,
867,-1.60e-01,
868,-1.56e-01,
869,1.76e-01,
870,1.80e-01,
871,-5.60e-02,
872,-1.32e-01,
873,1.72e-01,
874,-7.60e-02,
875,1.36e-01,
876,-2.80e-02,
877,1.84e-01,
878,-1.24e-01,
879,1.84e-01,
880,1.96e-01,
881,-1.88e-01,
882,-1.96e-01,
883,1.68e-01,
884,1.68e-01,
885,-1.92e-01,
886,-1.96e-01,
887,1.72e-01,
888,1.80e-01,
889,-1.04e-01,
890,-1.80e-01,
891,1.88e-01,
892,1.96e-01,
893,-1.88e-01,
894,-1.60e-01,
895,1.76e-01,
896,-1.92e-01,
897,1.68e-01,
898,1.64e-01,
899,-1.84e-01,
900,-1.88e-01,
901,1.80e-01,
902,1.52e-01,
903,-1.76e-01,
904,1.48e-01,
905,-1.52e-01,
906,1.68e-01,
907,-1.56e-01,
908,1.68e-01,
909,-1.12e-01,
910,-5.60e-02,
911,1.76e-01,
912,1.76e-01,
913,-4.40e-02,
914,1.76e-01,
915,-7.60e-02,
916,1.72e-01,
917,-2.00e-02,
918,1.92e-01,
919,-1.04e-01,
920,-1.68e-01,
921,2.04e-01,
922,-2.12e-01,
923,1.84e-01,
924,1.92e-01,
925,-2.24e-01,
926,1.92e-01,
927,-2.16e-01,
928,-2.16e-01,
929,1.96e-01,
930,1.96e-01,
931,-2.00e-01,
932,-2.04e-01,
933,1.72e-01,
934,1.84e-01,
935,-1.96e-01,
936,1.96e-01,
937,-1.76e-01,
938,2.04e-01,
939,-2.12e-01,
940,-2.12e-01,
941,1.80e-01,
942,1.88e-01,
943,-2.16e-01,
944,1.40e-01,
945,-4.40e-02,
946,-2.80e-02,
947,1.88e-01,
948,1.92e-01,
949,-1.52e-01,
950,1.84e-01,
951,-5.20e-02,
952,-4.00e-03,
953,1.88e-01,
954,-1.44e-01,
955,1.92e-01,
956,1.84e-01,
957,-1.44e-01,
958,1.12e-01,
959,-1.88e-01,
960,1.80e-01,
961,-1.44e-01,
962,1.80e-01,
963,-2.00e-01,
964,1.52e-01,
965,-1.96e-01,
966,-1.72e-01,
967,1.84e-01,
968,1.96e-01,
969,-2.00e-01,
970,1.76e-01,
971,-1.84e-01,
972,-2.24e-01,
973,1.88e-01,
974,2.04e-01,
975,-2.16e-01,
976,-2.04e-01,
977,1.88e-01,
978,1.64e-01,
979,-1.64e-01,
980,-2.16e-01,
981,1.88e-01,
982,-1.60e-01,
983,1.72e-01,
984,-4.80e-02,
985,1.60e-01,
986,1.00e-01,
987,-8.40e-02,
988,1.52e-01,
989,-1.40e-01,
990,-1.04e-01,
991,1.68e-01,
992,1.68e-01,
993,-1.20e-01,
994,-9.60e-02,
995,1.76e-01,
996,-1.76e-01,
997,1.68e-01,
998,1.64e-01,
999,-1.96e-01,
1000,1.64e-01,
1001,-1.88e-01,
1002,-1.04e-01,
1003,1.72e-01,
1004,1.80e-01,
1005,-1.84e-01,
1006,1.88e-01,
1007,-1.52e-01,
1008,-1.96e-01,
1009,2.00e-01,
1010,1.96e-01,
1011,-2.08e-01,
1012,-1.76e-01,
1013,1.88e-01,
1014,2.00e-01,
1015,-6.00e-02,
1016,1.92e-01,
1017,-2.00e-01,
1018,-2.08e-01,
1019,1.92e-01,
1020,-7.60e-02,
1021,1.96e-01,
1022,2.00e-01,
1023,-1.28e-01,
1024,1.84e-01,
1025,-1.96e-01,
1026,-4.40e-02,
1027,1.80e-01,
1028,1.56e-01,
1029,-1.20e-01,
1030,1.80e-01,
1031,-5.60e-02,
1032,1.44e-01,
1033,-1.28e-01,
1034,-1.56e-01,
1035,1.72e-01,
1036,-1.64e-01,
1037,1.52e-01,
1038,1.76e-01,
1039,-1.32e-01,
1040,1.60e-01,
1041,-1.88e-01,
1042,-2.12e-01,
1043,1.76e-01,
1044,-1.72e-01,
1045,1.64e-01,
1046,1.56e-01,
1047,-1.88e-01,
1048,-1.64e-01,
1049,1.76e-01,
1050,-1.88e-01,
1051,1.76e-01,
1052,-2.00e-01,
1053,1.80e-01,
1054,-1.76e-01,
1055,1.76e-01,
1056,1.92e-01,
1057,-2.00e-01,
1058,1.76e-01,
1059,-1.52e-01,
1060,-1.96e-01,
1061,1.80e-01,
1062,1.76e-01,
1063,-2.04e-01,
1064,1.52e-01,
1065,-1.56e-01,
1066,-4.40e-02,
1067,1.16e-01,
1068,1.96e-01,
1069,-4.00e-02,
1070,1.20e-01,
1071,-1.16e-01,
1072,-5.60e-02,
1073,1.84e-01,
1074,1.84e-01,
1075,-1.64e-01,
1076,1.88e-01,
1077,-7.20e-02,
1078,1.88e-01,
1079,-2.12e-01,
1080,1.64e-01,
1081,-1.96e-01,
1082,-1.92e-01,
1083,1.76e-01,
1084,-1.72e-01,
1085,1.72e-01,
1086,-1.60e-01,
1087,1.72e-01,
1088,-2.12e-01,
1089,1.84e-01,
1090,1.48e-01,
1091,-1.96e-01,
1092,-2.20e-01,
1093,1.96e-01,
1094,1.96e-01,
1095,-2.12e-01,
1096,1.96e-01,
1097,-1.76e-01,
1098,2.04e-01,
1099,-1.80e-01,
1100,2.00e-01,
1101,-2.04e-01,
1102,1.40e-01,
1103,-1.80e-01,
1104,-1.16e-01,
1105,1.76e-01,
1106,-1.08e-01,
1107,4.80e-02,
1108,1.72e-01,
1109,-5.20e-02,
1110,1.64e-01,
1111,-5.20e-02,
1112,1.56e-01,
1113,-1.60e-01,
1114,1.76e-01,
1115,-5.20e-02,
1116,8.40e-02,
1117,-8.40e-02,
1118,2.04e-01,
1119,-1.88e-01,
1120,2.04e-01,
1121,-2.16e-01,
1122,2.00e-01,
1123,-2.12e-01,
1124,-2.20e-01,
1125,2.04e-01,
1126,2.00e-01,
1127,-2.12e-01,
1128,-2.00e-01,
1129,1.96e-01,
1130,1.76e-01,
1131,-1.60e-01,
1132,1.56e-01,
1133,-1.60e-01,
1134,-1.80e-01,
1135,1.68e-01,
1136,-1.60e-01,
1137,1.68e-01,
1138,1.96e-01,
1139,-8.00e-02,
1140,1.84e-01,
1141,-2.00e-01,
1142,1.80e-01,
1143,-2.04e-01,
1144,-1.80e-01,
1145,1.88e-01,
1146,-4.00e-02,
1147,1.68e-01,
1148,1.84e-01,
1149,-1.52e-01,
1150,-1.60e-01,
1151,1.48e-01,
1152,1.88e-01,
1153,-2.00e-01,
1154,6.40e-02,
1155,-1.44e-01,
1156,1.84e-01,
1157,-9.60e-02,
1158,1.88e-01,
1159,-2.00e-01,
1160,2.12e-01,
1161,-2.24e-01,
1162,1.96e-01,
1163,-1.76e-01,
1164,1.84e-01,
1165,-2.00e-01,
1166,1.92e-01,
1167,-1.80e-01,
1168,-2.08e-01,
1169,1.80e-01,
1170,1.96e-01,
1171,-1.76e-01,
1172,2.00e-01,
1173,-2.08e-01,
1174,1.84e-01,
1175,-1.96e-01,
1176,1.68e-01,
1177,-2.24e-01,
1178,-1.96e-01,
1179,1.64e-01,
1180,1.76e-01,
1181,-7.60e-02,
1182,1.84e-01,
1183,-1.96e-01,
1184,-1.60e-01,
1185,1.44e-01,
1186,-4.80e-02,
1187,1.80e-01,
1188,-1.48e-01,
1189,1.12e-01,
1190,-1.52e-01,
1191,1.72e-01,
1192,1.80e-01,
1193,-1.16e-01,
1194,1.48e-01,
1195,-8.40e-02,
1196,-1.92e-01,
1197,5.60e-02,
1198,1.80e-01,
1199,-2.00e-01,
