Laptop_2/LAPTOP_CHRGR_2_ON_DISTANT/time domain/NewFile23.csv

X,CH1,Start,Increment,
Sequence,Volt,-1.500000e-01,2.000000e-04
0,-1.40e-01,
1,1.60e-01,
2,-1.12e-01,
3,1.44e-01,
4,-1.12e-01,
5,1.36e-01,
6,-1.16e-01,
7,8.40e-02,
8,-1.08e-01,
9,1.28e-01,
10,-1.04e-01,
11,1.28e-01,
12,-7.60e-02,
13,1.64e-01,
14,1.32e-01,
15,-1.00e-01,
16,-7.20e-02,
17,1.20e-01,
18,1.12e-01,
19,-9.60e-02,
20,-1.04e-01,
21,1.04e-01,
22,1.08e-01,
23,-9.20e-02,
24,-1.08e-01,
25,8.80e-02,
26,-9.60e-02,
27,8.00e-02,
28,-8.40e-02,
29,1.44e-01,
30,1.36e-01,
31,-1.12e-01,
32,1.24e-01,
33,-1.04e-01,
34,8.40e-02,
35,-6.00e-02,
36,-1.40e-01,
37,1.16e-01,
38,1.28e-01,
39,-5.60e-02,
40,1.40e-01,
41,-1.20e-01,
42,1.32e-01,
43,-1.20e-01,
44,1.28e-01,
45,-1.16e-01,
46,-1.16e-01,
47,1.40e-01,
48,-1.04e-01,
49,1.40e-01,
50,1.28e-01,
51,-1.28e-01,
52,-1.40e-01,
53,1.20e-01,
54,1.08e-01,
55,-1.08e-01,
56,1.28e-01,
57,-1.08e-01,
58,1.20e-01,
59,-8.80e-02,
60,1.40e-01,
61,-1.20e-01,
62,-1.32e-01,
63,1.28e-01,
64,9.60e-02,
65,-9.60e-02,
66,1.12e-01,
67,-1.04e-01,
68,-1.00e-01,
69,1.00e-01,
70,-7.20e-02,
71,8.00e-02,
72,-1.12e-01,
73,1.04e-01,
74,-1.00e-01,
75,1.32e-01,
76,-4.00e-02,
77,9.60e-02,
78,-8.40e-02,
79,1.20e-01,
80,1.40e-01,
81,-1.44e-01,
82,1.04e-01,
83,-1.08e-01,
84,-9.20e-02,
85,1.48e-01,
86,1.64e-01,
87,-6.40e-02,
88,-1.16e-01,
89,1.32e-01,
90,-1.16e-01,
91,1.36e-01,
92,-1.04e-01,
93,1.24e-01,
94,-8.80e-02,
95,1.48e-01,
96,1.00e-01,
97,-1.40e-01,
98,1.40e-01,
99,-1.04e-01,
100,-6.40e-02,
101,1.48e-01,
102,-1.12e-01,
103,9.20e-02,
104,1.24e-01,
105,-1.12e-01,
106,-1.24e-01,
107,1.40e-01,
108,-1.24e-01,
109,1.44e-01,
110,-9.60e-02,
111,8.80e-02,
112,-1.00e-01,
113,1.24e-01,
114,-1.04e-01,
115,1.08e-01,
116,-9.60e-02,
117,1.08e-01,
118,-2.00e-02,
119,1.40e-01,
120,1.68e-01,
121,-1.24e-01,
122,1.32e-01,
123,-1.32e-01,
124,1.60e-01,
125,-1.20e-01,
126,-9.60e-02,
127,9.20e-02,
128,-1.12e-01,
129,1.04e-01,
130,6.00e-02,
131,-1.12e-01,
132,1.28e-01,
133,-1.08e-01,
134,1.20e-01,
135,-1.40e-01,
136,-1.16e-01,
137,1.44e-01,
138,-3.20e-02,
139,1.28e-01,
140,1.36e-01,
141,-1.16e-01,
142,1.40e-01,
143,-1.04e-01,
144,1.52e-01,
145,-1.20e-01,
146,-1.04e-01,
147,1.00e-01,
148,9.20e-02,
149,-1.24e-01,
150,8.80e-02,
151,-1.12e-01,
152,1.40e-01,
153,-7.60e-02,
154,9.20e-02,
155,-1.20e-01,
156,5.20e-02,
157,-9.20e-02,
158,-6.40e-02,
159,1.36e-01,
160,1.24e-01,
161,-1.04e-01,
162,-1.00e-01,
163,8.40e-02,
164,-1.20e-01,
165,1.40e-01,
166,-1.12e-01,
167,9.20e-02,
168,1.28e-01,
169,-1.20e-01,
170,1.24e-01,
171,-1.16e-01,
172,-4.40e-02,
173,1.08e-01,
174,7.60e-02,
175,-1.00e-01,
176,1.20e-01,
177,-7.60e-02,
178,1.00e-01,
179,-1.16e-01,
180,1.52e-01,
181,-1.16e-01,
182,1.36e-01,
183,-1.12e-01,
184,1.56e-01,
185,-1.48e-01,
186,-1.28e-01,
187,1.56e-01,
188,-1.08e-01,
189,7.20e-02,
190,1.36e-01,
191,-1.00e-01,
192,-1.60e-02,
193,1.28e-01,
194,-8.00e-02,
195,6.80e-02,
196,1.04e-01,
197,-1.12e-01,
198,6.40e-02,
199,-9.60e-02,
200,-1.12e-01,
201,1.24e-01,
202,-1.28e-01,
203,9.60e-02,
204,-1.32e-01,
205,1.48e-01,
206,-1.32e-01,
207,1.64e-01,
208,1.32e-01,
209,-1.20e-01,
210,-6.80e-02,
211,1.12e-01,
212,9.20e-02,
213,-9.60e-02,
214,-8.80e-02,
215,1.16e-01,
216,-9.20e-02,
217,1.04e-01,
218,-1.04e-01,
219,1.04e-01,
220,-9.60e-02,
221,6.80e-02,
222,1.00e-01,
223,-9.60e-02,
224,-8.80e-02,
225,9.20e-02,
226,1.24e-01,
227,-1.04e-01,
228,8.00e-02,
229,-1.12e-01,
230,-1.04e-01,
231,8.40e-02,
232,-9.20e-02,
233,8.40e-02,
234,-1.12e-01,
235,8.80e-02,
236,-7.60e-02,
237,1.00e-01,
238,1.12e-01,
239,-1.16e-01,
240,-6.80e-02,
241,1.28e-01,
242,1.40e-01,
243,-1.28e-01,
244,1.40e-01,
245,-9.60e-02,
246,-1.08e-01,
247,1.44e-01,
248,1.68e-01,
249,-8.40e-02,
250,-1.08e-01,
251,1.72e-01,
252,-1.24e-01,
253,1.32e-01,
254,1.44e-01,
255,-1.08e-01,
256,1.36e-01,
257,-1.04e-01,
258,-1.00e-01,
259,1.00e-01,
260,1.08e-01,
261,-9.20e-02,
262,1.16e-01,
263,-1.04e-01,
264,6.00e-02,
265,-1.20e-01,
266,-1.04e-01,
267,9.20e-02,
268,9.20e-02,
269,-6.80e-02,
270,-9.20e-02,
271,8.80e-02,
272,-1.04e-01,
273,1.08e-01,
274,1.28e-01,
275,-1.04e-01,
276,-1.00e-01,
277,1.16e-01,
278,9.20e-02,
279,-1.04e-01,
280,1.20e-01,
281,-8.80e-02,
282,-6.00e-02,
283,1.04e-01,
284,-1.12e-01,
285,1.36e-01,
286,-1.36e-01,
287,1.68e-01,
288,-1.36e-01,
289,1.16e-01,
290,1.68e-01,
291,-1.36e-01,
292,1.48e-01,
293,-8.40e-02,
294,-1.04e-01,
295,1.48e-01,
296,1.64e-01,
297,-1.28e-01,
298,-1.32e-01,
299,1.68e-01,
300,-8.00e-02,
301,1.40e-01,
302,1.24e-01,
303,-1.00e-01,
304,-9.20e-02,
305,1.12e-01,
306,1.20e-01,
307,-6.80e-02,
308,1.24e-01,
309,-9.60e-02,
310,1.04e-01,
311,-8.00e-02,
312,1.32e-01,
313,-8.80e-02,
314,1.04e-01,
315,-9.20e-02,
316,1.16e-01,
317,-1.00e-01,
318,-8.40e-02,
319,4.00e-02,
320,8.40e-02,
321,-1.28e-01,
322,-1.16e-01,
323,7.20e-02,
324,1.28e-01,
325,-1.12e-01,
326,8.00e-02,
327,-8.80e-02,
328,-1.12e-01,
329,1.24e-01,
330,1.04e-01,
331,-1.24e-01,
332,1.32e-01,
333,-9.60e-02,
334,-1.24e-01,
335,1.60e-01,
336,-1.40e-01,
337,1.00e-01,
338,8.80e-02,
339,-9.60e-02,
340,1.52e-01,
341,-1.24e-01,
342,1.28e-01,
343,-1.24e-01,
344,1.04e-01,
345,-1.08e-01,
346,1.28e-01,
347,-8.80e-02,
348,1.32e-01,
349,-9.60e-02,
350,8.40e-02,
351,-1.00e-01,
352,6.80e-02,
353,-1.00e-01,
354,7.60e-02,
355,-1.04e-01,
356,-1.28e-01,
357,1.12e-01,
358,1.12e-01,
359,-8.40e-02,
360,1.12e-01,
361,-9.60e-02,
362,-1.00e-01,
363,1.16e-01,
364,-1.00e-01,
365,1.16e-01,
366,1.52e-01,
367,-1.32e-01,
368,1.20e-01,
369,-8.00e-02,
370,1.12e-01,
371,-1.36e-01,
372,1.48e-01,
373,-1.24e-01,
374,1.44e-01,
375,-1.32e-01,
376,-1.24e-01,
377,1.56e-01,
378,-1.16e-01,
379,1.08e-01,
380,-1.00e-01,
381,1.20e-01,
382,-1.28e-01,
383,1.40e-01,
384,1.40e-01,
385,-1.32e-01,
386,-1.12e-01,
387,1.44e-01,
388,-1.04e-01,
389,1.32e-01,
390,-1.16e-01,
391,1.16e-01,
392,1.32e-01,
393,-1.08e-01,
394,-1.28e-01,
395,1.48e-01,
396,1.40e-01,
397,-7.20e-02,
398,-8.00e-02,
399,1.32e-01,
400,1.40e-01,
401,-1.04e-01,
402,1.36e-01,
403,-1.12e-01,
404,-1.36e-01,
405,1.16e-01,
406,-1.00e-01,
407,1.28e-01,
408,1.20e-01,
409,-9.60e-02,
410,1.16e-01,
411,-1.04e-01,
412,-8.00e-02,
413,1.00e-01,
414,1.12e-01,
415,-1.24e-01,
416,-8.00e-02,
417,8.40e-02,
418,-8.00e-02,
419,1.64e-01,
420,1.24e-01,
421,-1.16e-01,
422,-8.80e-02,
423,1.28e-01,
424,9.20e-02,
425,-1.04e-01,
426,-8.00e-02,
427,1.28e-01,
428,1.28e-01,
429,-5.20e-02,
430,1.12e-01,
431,-1.32e-01,
432,1.08e-01,
433,-1.00e-01,
434,-1.16e-01,
435,1.48e-01,
436,-1.08e-01,
437,9.20e-02,
438,-1.20e-01,
439,1.72e-01,
440,-1.12e-01,
441,1.36e-01,
442,-6.80e-02,
443,1.28e-01,
444,1.40e-01,
445,-1.16e-01,
446,-1.04e-01,
447,1.16e-01,
448,-1.00e-01,
449,1.28e-01,
450,-1.32e-01,
451,1.04e-01,
452,1.36e-01,
453,-1.36e-01,
454,1.40e-01,
455,-1.28e-01,
456,-1.32e-01,
457,1.52e-01,
458,-1.12e-01,
459,1.52e-01,
460,1.04e-01,
461,-8.80e-02,
462,-1.00e-01,
463,1.08e-01,
464,-9.20e-02,
465,1.04e-01,
466,-9.20e-02,
467,1.20e-01,
468,1.08e-01,
469,-1.08e-01,
470,1.08e-01,
471,-1.04e-01,
472,8.80e-02,
473,-1.04e-01,
474,1.24e-01,
475,-1.04e-01,
476,-1.12e-01,
477,1.00e-01,
478,1.12e-01,
479,-1.04e-01,
480,1.16e-01,
481,-1.12e-01,
482,-1.20e-01,
483,1.48e-01,
484,-9.20e-02,
485,1.48e-01,
486,-1.00e-01,
487,1.08e-01,
488,1.52e-01,
489,-1.20e-01,
490,-1.08e-01,
491,1.20e-01,
492,1.44e-01,
493,-1.12e-01,
494,-1.20e-01,
495,1.44e-01,
496,8.00e-02,
497,-1.12e-01,
498,-1.28e-01,
499,8.80e-02,
500,-1.08e-01,
501,1.32e-01,
502,1.36e-01,
503,-1.36e-01,
504,-1.16e-01,
505,8.40e-02,
506,8.40e-02,
507,-7.20e-02,
508,-9.60e-02,
509,1.08e-01,
510,-7.60e-02,
511,1.00e-01,
512,1.08e-01,
513,-1.16e-01,
514,-1.08e-01,
515,1.00e-01,
516,-1.04e-01,
517,6.00e-02,
518,-1.04e-01,
519,9.20e-02,
520,1.04e-01,
521,-1.04e-01,
522,-1.28e-01,
523,1.12e-01,
524,1.16e-01,
525,-1.16e-01,
526,-1.08e-01,
527,1.32e-01,
528,1.00e-01,
529,-1.12e-01,
530,-1.24e-01,
531,1.52e-01,
532,1.72e-01,
533,-1.44e-01,
534,-1.40e-01,
535,1.04e-01,
536,-1.48e-01,
537,1.48e-01,
538,-1.44e-01,
539,1.40e-01,
540,-1.40e-01,
541,7.60e-02,
542,1.68e-01,
543,-1.40e-01,
544,1.48e-01,
545,-1.00e-01,
546,-4.80e-02,
547,1.40e-01,
548,-9.20e-02,
549,1.36e-01,
550,9.60e-02,
551,-9.20e-02,
552,1.12e-01,
553,-1.12e-01,
554,1.12e-01,
555,-3.60e-02,
556,1.16e-01,
557,-1.00e-01,
558,-9.60e-02,
559,1.12e-01,
560,-1.04e-01,
561,1.08e-01,
562,1.16e-01,
563,-1.16e-01,
564,-1.20e-01,
565,1.48e-01,
566,9.60e-02,
567,-1.04e-01,
568,9.20e-02,
569,-1.04e-01,
570,-7.60e-02,
571,1.12e-01,
572,-1.40e-01,
573,1.16e-01,
574,1.24e-01,
575,-1.12e-01,
576,-9.20e-02,
577,1.24e-01,
578,-1.04e-01,
579,1.36e-01,
580,1.20e-01,
581,-1.12e-01,
582,1.28e-01,
583,-1.08e-01,
584,-8.80e-02,
585,1.52e-01,
586,1.16e-01,
587,-1.00e-01,
588,9.60e-02,
589,-1.00e-01,
590,1.08e-01,
591,-1.16e-01,
592,-1.20e-01,
593,1.32e-01,
594,-1.16e-01,
595,6.00e-02,
596,-1.04e-01,
597,9.60e-02,
598,8.80e-02,
599,-1.12e-01,
600,-1.00e-01,
601,1.24e-01,
602,1.28e-01,
603,-6.40e-02,
604,1.08e-01,
605,-1.04e-01,
606,1.36e-01,
607,-1.24e-01,
608,1.28e-01,
609,-1.36e-01,
610,1.48e-01,
611,-1.32e-01,
612,-1.32e-01,
613,1.00e-01,
614,1.60e-01,
615,-1.20e-01,
616,1.60e-01,
617,-1.36e-01,
618,1.44e-01,
619,-1.20e-01,
620,1.40e-01,
621,-1.00e-01,
622,1.12e-01,
623,-1.28e-01,
624,1.40e-01,
625,-1.16e-01,
626,-1.12e-01,
627,5.60e-02,
628,1.08e-01,
629,-1.16e-01,
630,-1.00e-01,
631,9.20e-02,
632,1.12e-01,
633,-7.60e-02,
634,3.60e-02,
635,-1.48e-01,
636,-1.08e-01,
637,9.60e-02,
638,-7.60e-02,
639,1.44e-01,
640,-1.20e-01,
641,1.44e-01,
642,-1.12e-01,
643,9.20e-02,
644,-1.44e-01,
645,1.28e-01,
646,-1.28e-01,
647,1.20e-01,
648,-9.20e-02,
649,1.28e-01,
650,-1.12e-01,
651,1.20e-01,
652,-1.04e-01,
653,9.20e-02,
654,8.00e-02,
655,-1.32e-01,
656,1.04e-01,
657,-8.40e-02,
658,5.20e-02,
659,-1.00e-01,
660,-9.60e-02,
661,1.08e-01,
662,1.08e-01,
663,-1.04e-01,
664,-1.04e-01,
665,1.04e-01,
666,-1.08e-01,
667,1.16e-01,
668,1.32e-01,
669,-1.24e-01,
670,-1.20e-01,
671,1.28e-01,
672,-1.08e-01,
673,5.20e-02,
674,8.80e-02,
675,-7.60e-02,
676,1.16e-01,
677,-2.40e-02,
678,8.00e-02,
679,-1.36e-01,
680,1.36e-01,
681,-1.40e-01,
682,1.28e-01,
683,-1.16e-01,
684,1.40e-01,
685,-8.00e-02,
686,-1.32e-01,
687,1.64e-01,
688,-1.48e-01,
689,1.32e-01,
690,1.44e-01,
691,-1.24e-01,
692,-7.20e-02,
693,1.08e-01,
694,1.32e-01,
695,-1.00e-01,
696,-1.20e-01,
697,9.60e-02,
698,-1.12e-01,
699,9.20e-02,
700,-1.00e-01,
701,1.40e-01,
702,1.32e-01,
703,-1.44e-01,
704,-6.80e-02,
705,1.44e-01,
706,1.16e-01,
707,-1.24e-01,
708,1.40e-01,
709,-1.20e-01,
710,-1.00e-01,
711,9.60e-02,
712,9.20e-02,
713,-1.04e-01,
714,-1.04e-01,
715,1.20e-01,
716,-9.20e-02,
717,9.20e-02,
718,1.20e-01,
719,-1.28e-01,
720,8.00e-02,
721,-8.40e-02,
722,-1.08e-01,
723,8.40e-02,
724,1.36e-01,
725,-9.60e-02,
726,1.04e-01,
727,-1.12e-01,
728,-1.40e-01,
729,1.60e-01,
730,-1.20e-01,
731,1.16e-01,
732,1.28e-01,
733,-1.32e-01,
734,-9.60e-02,
735,1.48e-01,
736,1.28e-01,
737,-1.04e-01,
738,-1.20e-01,
739,1.68e-01,
740,-8.80e-02,
741,1.08e-01,
742,-1.20e-01,
743,1.16e-01,
744,1.36e-01,
745,-1.04e-01,
746,-1.00e-01,
747,1.12e-01,
748,1.08e-01,
749,-8.80e-02,
750,-1.00e-01,
751,1.12e-01,
752,-1.20e-01,
753,1.24e-01,
754,8.80e-02,
755,-2.40e-02,
756,1.04e-01,
757,-2.00e-02,
758,1.00e-01,
759,-9.60e-02,
760,-7.60e-02,
761,9.60e-02,
762,1.20e-01,
763,-1.32e-01,
764,1.36e-01,
765,-1.44e-01,
766,-1.32e-01,
767,1.68e-01,
768,-1.32e-01,
769,1.40e-01,
770,1.32e-01,
771,-1.48e-01,
772,1.44e-01,
773,-1.40e-01,
774,1.80e-01,
775,-1.40e-01,
776,-1.40e-01,
777,1.32e-01,
778,-9.20e-02,
779,1.72e-01,
780,1.36e-01,
781,-1.36e-01,
782,1.40e-01,
783,-1.24e-01,
784,1.40e-01,
785,-2.80e-02,
786,-1.20e-01,
787,1.20e-01,
788,-8.40e-02,
789,8.80e-02,
790,1.48e-01,
791,-1.40e-01,
792,1.44e-01,
793,-6.00e-02,
794,-9.20e-02,
795,1.20e-01,
796,-6.40e-02,
797,1.24e-01,
798,-1.36e-01,
799,1.12e-01,
800,-1.36e-01,
801,1.32e-01,
802,1.16e-01,
803,-9.60e-02,
804,-9.60e-02,
805,1.08e-01,
806,-1.00e-01,
807,7.60e-02,
808,1.12e-01,
809,-1.04e-01,
810,9.20e-02,
811,-1.12e-01,
812,1.28e-01,
813,-9.60e-02,
814,-1.04e-01,
815,1.28e-01,
816,1.24e-01,
817,-1.04e-01,
818,-8.80e-02,
819,1.16e-01,
820,-1.36e-01,
821,1.72e-01,
822,5.60e-02,
823,-9.20e-02,
824,9.60e-02,
825,-1.20e-01,
826,1.24e-01,
827,-1.28e-01,
828,-8.80e-02,
829,1.20e-01,
830,-1.16e-01,
831,1.48e-01,
832,-1.00e-01,
833,9.60e-02,
834,1.08e-01,
835,-1.44e-01,
836,5.60e-02,
837,-8.00e-02,
838,-1.08e-01,
839,1.00e-01,
840,-1.00e-01,
841,1.36e-01,
842,1.32e-01,
843,-1.04e-01,
844,9.60e-02,
845,-9.60e-02,
846,1.16e-01,
847,-1.28e-01,
848,-1.00e-01,
849,9.60e-02,
850,8.40e-02,
851,-1.04e-01,
852,-1.00e-01,
853,1.00e-01,
854,1.16e-01,
855,-1.00e-01,
856,1.48e-01,
857,-1.20e-01,
858,-9.60e-02,
859,1.04e-01,
860,1.00e-01,
861,-7.20e-02,
862,8.00e-02,
863,-1.08e-01,
864,-1.08e-01,
865,7.60e-02,
866,-1.16e-01,
867,8.80e-02,
868,-1.00e-01,
869,8.80e-02,
870,1.76e-01,
871,-1.24e-01,
872,1.52e-01,
873,-1.36e-01,
874,-8.00e-02,
875,1.52e-01,
876,1.12e-01,
877,-1.40e-01,
878,-8.80e-02,
879,1.76e-01,
880,-1.20e-01,
881,1.44e-01,
882,1.60e-01,
883,-1.20e-01,
884,1.52e-01,
885,-1.24e-01,
886,1.04e-01,
887,-1.20e-01,
888,1.24e-01,
889,-1.08e-01,
890,1.36e-01,
891,-1.08e-01,
892,9.60e-02,
893,-1.20e-01,
894,-1.36e-01,
895,1.12e-01,
896,9.20e-02,
897,-1.08e-01,
898,9.60e-02,
899,-1.00e-01,
900,-9.60e-02,
901,1.16e-01,
902,-1.00e-01,
903,9.60e-02,
904,-1.08e-01,
905,9.60e-02,
906,-2.40e-02,
907,1.20e-01,
908,-1.04e-01,
909,9.20e-02,
910,-8.00e-02,
911,9.60e-02,
912,-1.08e-01,
913,1.24e-01,
914,-1.44e-01,
915,1.08e-01,
916,-9.60e-02,
917,1.36e-01,
918,-1.32e-01,
919,1.44e-01,
920,1.04e-01,
921,-1.20e-01,
922,1.24e-01,
923,-1.20e-01,
924,1.40e-01,
925,-8.80e-02,
926,9.60e-02,
927,-1.12e-01,
928,1.64e-01,
929,-1.36e-01,
930,1.68e-01,
931,-1.20e-01,
932,-1.04e-01,
933,9.60e-02,
934,1.20e-01,
935,-1.16e-01,
936,1.28e-01,
937,-1.16e-01,
938,7.20e-02,
939,-1.04e-01,
940,1.48e-01,
941,-1.40e-01,
942,4.80e-02,
943,-1.04e-01,
944,1.36e-01,
945,-1.00e-01,
946,9.60e-02,
947,-8.00e-02,
948,-9.60e-02,
949,8.80e-02,
950,1.16e-01,
951,-1.32e-01,
952,-1.08e-01,
953,1.32e-01,
954,-1.08e-01,
955,9.60e-02,
956,1.24e-01,
957,-1.20e-01,
958,1.12e-01,
959,-8.80e-02,
960,1.00e-01,
961,-9.60e-02,
962,-9.60e-02,
963,1.32e-01,
964,1.24e-01,
965,-1.00e-01,
966,1.20e-01,
967,-1.16e-01,
968,-1.36e-01,
969,1.32e-01,
970,-1.20e-01,
971,1.44e-01,
972,1.48e-01,
973,-1.20e-01,
974,1.20e-01,
975,-1.12e-01,
976,1.44e-01,
977,-1.16e-01,
978,1.64e-01,
979,-1.36e-01,
980,1.16e-01,
981,-1.08e-01,
982,1.32e-01,
983,-6.80e-02,
984,1.00e-01,
985,-1.20e-01,
986,-5.20e-02,
987,1.24e-01,
988,1.48e-01,
989,-1.32e-01,
990,-1.12e-01,
991,7.60e-02,
992,-1.12e-01,
993,8.80e-02,
994,1.16e-01,
995,-1.08e-01,
996,-1.00e-01,
997,1.24e-01,
998,-1.32e-01,
999,1.16e-01,
1000,-8.40e-02,
1001,1.00e-01,
1002,-8.80e-02,
1003,1.56e-01,
1004,1.36e-01,
1005,-1.08e-01,
1006,1.16e-01,
1007,-1.00e-01,
1008,-1.00e-01,
1009,1.16e-01,
1010,1.24e-01,
1011,-1.04e-01,
1012,1.04e-01,
1013,-1.40e-01,
1014,-1.20e-01,
1015,1.28e-01,
1016,9.60e-02,
1017,-1.16e-01,
1018,1.04e-01,
1019,-1.00e-01,
1020,1.20e-01,
1021,-1.16e-01,
1022,1.52e-01,
1023,-1.32e-01,
1024,1.12e-01,
1025,-1.24e-01,
1026,1.00e-01,
1027,-1.60e-02,
1028,-1.16e-01,
1029,9.20e-02,
1030,-1.28e-01,
1031,9.60e-02,
1032,1.12e-01,
1033,-1.28e-01,
1034,-1.40e-01,
1035,1.28e-01,
1036,-1.28e-01,
1037,1.44e-01,
1038,-9.20e-02,
1039,1.44e-01,
1040,1.48e-01,
1041,-4.40e-02,
1042,1.20e-01,
1043,-1.00e-01,
1044,1.56e-01,
1045,-1.36e-01,
1046,1.40e-01,
1047,-1.12e-01,
1048,-9.60e-02,
1049,1.12e-01,
1050,-1.00e-01,
1051,1.00e-01,
1052,-9.20e-02,
1053,8.80e-02,
1054,1.08e-01,
1055,-1.00e-01,
1056,1.52e-01,
1057,-1.08e-01,
1058,8.80e-02,
1059,-1.08e-01,
1060,1.24e-01,
1061,-9.60e-02,
1062,-5.20e-02,
1063,8.80e-02,
1064,-1.04e-01,
1065,6.40e-02,
1066,-1.36e-01,
1067,1.08e-01,
1068,-8.40e-02,
1069,1.44e-01,
1070,1.00e-01,
1071,-9.60e-02,
1072,-1.28e-01,
1073,8.00e-02,
1074,-1.12e-01,
1075,1.00e-01,
1076,-3.20e-02,
1077,1.08e-01,
1078,-1.28e-01,
1079,8.80e-02,
1080,1.48e-01,
1081,-9.20e-02,
1082,-1.24e-01,
1083,1.28e-01,
1084,1.64e-01,
1085,-1.12e-01,
1086,-1.28e-01,
1087,1.32e-01,
1088,-7.20e-02,
1089,1.24e-01,
1090,1.16e-01,
1091,-1.04e-01,
1092,-1.08e-01,
1093,8.00e-02,
1094,9.60e-02,
1095,-9.60e-02,
1096,-1.20e-01,
1097,1.28e-01,
1098,1.08e-01,
1099,-9.20e-02,
1100,-6.80e-02,
1101,1.20e-01,
1102,1.00e-01,
1103,-1.00e-01,
1104,8.80e-02,
1105,-1.04e-01,
1106,-8.80e-02,
1107,1.08e-01,
1108,-1.08e-01,
1109,1.28e-01,
1110,-1.08e-01,
1111,1.36e-01,
1112,-1.24e-01,
1113,1.32e-01,
1114,1.20e-01,
1115,-1.28e-01,
1116,1.20e-01,
1117,-6.80e-02,
1118,1.44e-01,
1119,-1.40e-01,
1120,1.40e-01,
1121,-1.24e-01,
1122,-1.12e-01,
1123,1.52e-01,
1124,1.76e-01,
1125,-1.36e-01,
1126,-1.44e-01,
1127,1.64e-01,
1128,1.64e-01,
1129,-1.36e-01,
1130,1.44e-01,
1131,-1.20e-01,
1132,1.56e-01,
1133,-1.24e-01,
1134,1.60e-01,
1135,-1.12e-01,
1136,-1.32e-01,
1137,1.68e-01,
1138,-1.32e-01,
1139,1.68e-01,
1140,1.68e-01,
1141,-1.40e-01,
1142,-1.28e-01,
1143,1.72e-01,
1144,1.36e-01,
1145,-1.40e-01,
1146,-1.16e-01,
1147,1.36e-01,
1148,-1.08e-01,
1149,1.16e-01,
1150,-1.04e-01,
1151,9.20e-02,
1152,-8.00e-02,
1153,9.20e-02,
1154,-5.60e-02,
1155,9.60e-02,
1156,1.40e-01,
1157,-1.16e-01,
1158,-1.04e-01,
1159,9.20e-02,
1160,-9.60e-02,
1161,1.28e-01,
1162,-1.04e-01,
1163,1.20e-01,
1164,-1.24e-01,
1165,1.40e-01,
1166,-1.20e-01,
1167,1.00e-01,
1168,1.52e-01,
1169,-1.40e-01,
1170,1.00e-01,
1171,-1.12e-01,
1172,1.04e-01,
1173,-9.60e-02,
1174,1.12e-01,
1175,-1.16e-01,
1176,1.28e-01,
1177,-1.04e-01,
1178,1.28e-01,
1179,-9.60e-02,
1180,-1.40e-01,
1181,1.48e-01,
1182,1.20e-01,
1183,-1.00e-01,
1184,-1.04e-01,
1185,1.20e-01,
1186,-6.80e-02,
1187,1.12e-01,
1188,1.32e-01,
1189,-1.08e-01,
1190,-8.40e-02,
1191,1.44e-01,
1192,9.20e-02,
1193,-1.28e-01,
1194,1.32e-01,
1195,-1.32e-01,
1196,-1.32e-01,
1197,1.52e-01,
1198,1.28e-01,
1199,-1.00e-01,
